"x","y_obs","weight","y_calc","y_bkg"
0.8,1314970.311,0.0,0.0,0.0
0.822,1396512.174,0.0,0.0,0.0
0.845,1406863.793,0.0,0.0,0.0
0.867,1401727.842,0.0,0.0,0.0
0.889,1364776.353,0.0,0.0,0.0
0.912,1288704.346,0.0,0.0,0.0
0.934,1246990.981,0.0,0.0,0.0
0.956,1190684.275,0.0,0.0,0.0
0.978,1158330.426,0.0,0.0,0.0
1.001,1138009.891,0.0,0.0,0.0
1.023,1112912.677,0.0,0.0,0.0
1.045,1105503.508,0.0,0.0,0.0
1.068,1082963.727,0.0,0.0,0.0
1.09,1066433.547,0.0,0.0,0.0
1.112,1062697.827,0.0,0.0,0.0
1.135,1032349.643,0.0,0.0,0.0
1.157,1035542.895,0.0,0.0,0.0
1.179,1010432.107,0.0,0.0,0.0
1.201,1007318.557,0.0,0.0,0.0
1.224,1007534.503,0.0,0.0,0.0
1.246,983358.437,0.0,0.0,0.0
1.268,986681.658,0.0,0.0,0.0
1.291,972272.06,0.0,0.0,0.0
1.313,967491.507,0.0,0.0,0.0
1.335,971197.03,0.0,0.0,0.0
1.357,954665.381,0.0,0.0,0.0
1.38,962461.811,0.0,0.0,0.0
1.402,963052.62,0.0,0.0,0.0
1.424,953297.678,0.0,0.0,0.0
1.447,969534.045,0.0,0.0,0.0
1.469,964167.462,0.0,0.0,0.0
1.491,972001.95,0.0,0.0,0.0
1.514,984222.65,0.0,0.0,0.0
1.536,980091.994,0.0,0.0,0.0
1.558,999075.294,0.0,0.0,0.0
1.581,1004726.792,0.0,0.0,0.0
1.603,1015358.083,0.0,0.0,0.0
1.625,1023145.871,0.0,0.0,0.0
1.647,1016716.121,0.0,0.0,0.0
1.67,1018876.211,0.0,0.0,0.0
1.692,1011287.1,0.0,0.0,0.0
1.714,998991.902,0.0,0.0,0.0
1.737,993983.731,0.0,0.0,0.0
1.759,976793.01,0.0,0.0,0.0
1.781,972068.802,0.0,0.0,0.0
1.804,964105.246,0.0,0.0,0.0
1.826,947838.284,0.0,0.0,0.0
1.848,950442.037,0.0,0.0,0.0
1.87,935369.555,0.0,0.0,0.0
1.893,933726.253,0.0,0.0,0.0
1.915,930510.405,0.0,0.0,0.0
1.937,918631.493,0.0,0.0,0.0
1.96,920929.763,0.0,0.0,0.0
1.982,914115.643,0.0,0.0,0.0
2.004,913227.829,0.0,0.0,0.0
2.026,915936.146,0.0,0.0,0.0
2.049,910229.964,0.0,0.0,0.0
2.071,914995.238,0.0,0.0,0.0
2.093,917209.563,0.0,0.0,0.0
2.116,913914.672,0.0,0.0,0.0
2.138,917818.785,0.0,0.0,0.0
2.16,912727.276,0.0,0.0,0.0
2.183,915081.034,0.0,0.0,0.0
2.205,915009.842,0.0,0.0,0.0
2.227,906727.387,0.0,0.0,0.0
2.25,907325.165,0.0,0.0,0.0
2.272,900781.711,0.0,0.0,0.0
2.294,895944.973,0.0,0.0,0.0
2.316,894157.829,0.0,0.0,0.0
2.339,884251.367,0.0,0.0,0.0
2.361,884898.858,0.0,0.0,0.0
2.383,881599.29,0.0,0.0,0.0
2.406,877983.779,0.0,0.0,0.0
2.428,880342.741,0.0,0.0,0.0
2.45,874077.61,0.0,0.0,0.0
2.473,875515.186,0.0,0.0,0.0
2.495,871262.804,0.0,0.0,0.0
2.517,866465.497,0.0,0.0,0.0
2.539,864577.023,0.0,0.0,0.0
2.562,858447.079,0.0,0.0,0.0
2.584,853892.758,0.0,0.0,0.0
2.606,851956.832,0.0,0.0,0.0
2.629,846293.563,0.0,0.0,0.0
2.651,844115.536,0.0,0.0,0.0
2.673,840685.972,0.0,0.0,0.0
2.696,836835.917,0.0,0.0,0.0
2.718,835772.671,0.0,0.0,0.0
2.74,828556.531,0.0,0.0,0.0
2.762,827637.665,0.0,0.0,0.0
2.785,823627.274,0.0,0.0,0.0
2.807,819509.652,0.0,0.0,0.0
2.829,817584.545,0.0,0.0,0.0
2.852,814231.611,0.0,0.0,0.0
2.874,811366.219,0.0,0.0,0.0
2.896,807842.01,0.0,0.0,0.0
2.918,804172.011,0.0,0.0,0.0
2.941,801647.041,0.0,0.0,0.0
2.963,799623.395,0.0,0.0,0.0
2.985,794587.864,0.0,0.0,0.0
3.008,794642.383,0.0,0.0,0.0
3.03,791651.191,0.0,0.0,0.0
3.052,788366.019,0.0,0.0,0.0
3.075,786686.831,0.0,0.0,0.0
3.097,782117.775,0.0,0.0,0.0
3.119,779971.918,0.0,0.0,0.0
3.141,776005.691,0.0,0.0,0.0
3.164,772537.961,0.0,0.0,0.0
3.186,768774.359,0.0,0.0,0.0
3.208,767990.887,0.0,0.0,0.0
3.231,761958.647,0.0,0.0,0.0
3.253,760537.571,0.0,0.0,0.0
3.275,756378.772,0.0,0.0,0.0
3.298,753273.475,0.0,0.0,0.0
3.32,751623.459,0.0,0.0,0.0
3.342,745469.656,0.0,0.0,0.0
3.365,745650.508,0.0,0.0,0.0
3.387,740703.638,0.0,0.0,0.0
3.409,739852.508,0.0,0.0,0.0
3.431,741323.161,0.0,0.0,0.0
3.454,740766.229,0.0,0.0,0.0
3.476,748748.629,0.0,0.0,0.0
3.498,757557.734,0.0,0.0,0.0
3.521,767576.526,0.0,0.0,0.0
3.543,785659.32,0.0,0.0,0.0
3.565,802117.25,0.0,0.0,0.0
3.588,823901.72,0.0,0.0,0.0
3.61,846625.327,0.0,0.0,0.0
3.632,861429.636,0.0,0.0,0.0
3.654,883140.798,0.0,0.0,0.0
3.677,890297.056,0.0,0.0,0.0
3.699,895175.82,0.0,0.0,0.0
3.721,892524.726,0.0,0.0,0.0
3.744,877250.421,0.0,0.0,0.0
3.766,862657.681,0.0,0.0,0.0
3.788,836180.348,0.0,0.0,0.0
3.811,811742.198,0.0,0.0,0.0
3.833,786815.87,0.0,0.0,0.0
3.855,758066.161,0.0,0.0,0.0
3.877,737090.184,0.0,0.0,0.0
3.9,713906.703,0.0,0.0,0.0
3.922,690587.945,0.0,0.0,0.0
3.944,677404.031,0.0,0.0,0.0
3.967,655229.38,0.0,0.0,0.0
3.989,643930.815,0.0,0.0,0.0
4.011,630923.731,0.0,0.0,0.0
4.034,615269.593,0.0,0.0,0.0
4.056,612308.545,0.0,0.0,0.0
4.078,595863.913,0.0,0.0,0.0
4.1,590964.272,0.0,0.0,0.0
4.123,581725.049,0.0,0.0,0.0
4.145,570796.792,0.0,0.0,0.0
4.167,568654.045,0.0,0.0,0.0
4.19,557055.799,0.0,0.0,0.0
4.212,552391.732,0.0,0.0,0.0
4.234,548109.001,0.0,0.0,0.0
4.256,538356.416,0.0,0.0,0.0
4.279,534733.524,0.0,0.0,0.0
4.301,527056.2,0.0,0.0,0.0
4.323,518360.963,0.0,0.0,0.0
4.346,518699.21,0.0,0.0,0.0
4.368,507813.107,0.0,0.0,0.0
4.39,506285.087,0.0,0.0,0.0
4.413,501353.364,0.0,0.0,0.0
4.435,494540.205,0.0,0.0,0.0
4.457,496299.085,0.0,0.0,0.0
4.479,485988.002,0.0,0.0,0.0
4.502,487029.501,0.0,0.0,0.0
4.524,483435.511,0.0,0.0,0.0
4.546,477334.857,0.0,0.0,0.0
4.569,479747.747,0.0,0.0,0.0
4.591,472608.632,0.0,0.0,0.0
4.613,470506.893,0.0,0.0,0.0
4.636,466885.178,0.0,0.0,0.0
4.658,459492.035,0.0,0.0,0.0
4.68,456162.098,0.0,0.0,0.0
4.702,449348.386,0.0,0.0,0.0
4.725,442261.472,0.0,0.0,0.0
4.747,443856.595,0.0,0.0,0.0
4.769,433510.177,0.0,0.0,0.0
4.792,431903.948,0.0,0.0,0.0
4.814,427757.718,0.0,0.0,0.0
4.836,421713.352,0.0,0.0,0.0
4.859,422147.028,0.0,0.0,0.0
4.881,414190.459,0.0,0.0,0.0
4.903,415423.614,0.0,0.0,0.0
4.925,410966.914,0.0,0.0,0.0
4.948,406497.441,0.0,0.0,0.0
4.97,407896.391,0.0,0.0,0.0
4.992,401784.566,0.0,0.0,0.0
5.015,400485.439,0.0,0.0,0.0
5.037,398689.99,0.0,0.0,0.0
5.059,393445.853,0.0,0.0,0.0
5.082,394870.307,0.0,0.0,0.0
5.104,390846.764,0.0,0.0,0.0
5.126,390078.228,0.0,0.0,0.0
5.149,390108.376,0.0,0.0,0.0
5.171,383501.912,0.0,0.0,0.0
5.193,387986.735,0.0,0.0,0.0
5.215,383235.881,0.0,0.0,0.0
5.238,382794.543,0.0,0.0,0.0
5.26,385624.148,0.0,0.0,0.0
5.282,381806.86,0.0,0.0,0.0
5.305,386210.522,0.0,0.0,0.0
5.327,384872.475,0.0,0.0,0.0
5.349,382348.926,0.0,0.0,0.0
5.372,387807.031,0.0,0.0,0.0
5.394,383743.855,0.0,0.0,0.0
5.416,385667.562,0.0,0.0,0.0
5.438,387056.771,0.0,0.0,0.0
5.461,382841.375,0.0,0.0,0.0
5.483,391399.455,0.0,0.0,0.0
5.505,388548.36,0.0,0.0,0.0
5.528,391291.957,0.0,0.0,0.0
5.55,395958.761,0.0,0.0,0.0
5.572,393604.201,0.0,0.0,0.0
5.595,401399.526,0.0,0.0,0.0
5.617,397206.228,0.0,0.0,0.0
5.639,400827.951,0.0,0.0,0.0
5.661,401663.423,0.0,0.0,0.0
5.684,397439.283,0.0,0.0,0.0
5.706,396659.187,0.0,0.0,0.0
5.728,389949.791,0.0,0.0,0.0
5.751,386634.598,0.0,0.0,0.0
5.773,383868.965,0.0,0.0,0.0
5.795,377147.505,0.0,0.0,0.0
5.817,377463.503,0.0,0.0,0.0
5.84,377827.33,0.0,0.0,0.0
5.862,373654.838,0.0,0.0,0.0
5.884,382611.349,0.0,0.0,0.0
5.907,380598.861,0.0,0.0,0.0
5.929,389168.315,0.0,0.0,0.0
5.951,395209.601,0.0,0.0,0.0
5.974,398858.484,0.0,0.0,0.0
5.996,409743.865,0.0,0.0,0.0
6.018,412416.881,0.0,0.0,0.0
6.04,419418.753,0.0,0.0,0.0
6.063,421264.756,0.0,0.0,0.0
6.085,419835.755,0.0,0.0,0.0
6.107,418609.958,0.0,0.0,0.0
6.13,410846.65,0.0,0.0,0.0
6.152,404208.866,0.0,0.0,0.0
6.174,393539.853,0.0,0.0,0.0
6.197,383051.828,0.0,0.0,0.0
6.219,373731.104,0.0,0.0,0.0
6.241,364119.372,0.0,0.0,0.0
6.263,354975.693,0.0,0.0,0.0
6.286,351153.334,0.0,0.0,0.0
6.308,343767.607,0.0,0.0,0.0
6.33,342304.243,0.0,0.0,0.0
6.353,340147.5,0.0,0.0,0.0
6.375,336875.354,0.0,0.0,0.0
6.397,341017.319,0.0,0.0,0.0
6.42,338289.742,0.0,0.0,0.0
6.442,344213.02,0.0,0.0,0.0
6.464,346844.897,0.0,0.0,0.0
6.486,351877.776,0.0,0.0,0.0
6.509,361954.306,0.0,0.0,0.0
6.531,367108.509,0.0,0.0,0.0
6.553,378138.475,0.0,0.0,0.0
6.576,387892.948,0.0,0.0,0.0
6.598,396557.73,0.0,0.0,0.0
6.62,407438.69,0.0,0.0,0.0
6.643,412532.969,0.0,0.0,0.0
6.665,416466.58,0.0,0.0,0.0
6.687,419032.853,0.0,0.0,0.0
6.71,415336.954,0.0,0.0,0.0
6.732,412009.123,0.0,0.0,0.0
6.754,404628.16,0.0,0.0,0.0
6.776,397356.273,0.0,0.0,0.0
6.799,390150.279,0.0,0.0,0.0
6.821,378174.334,0.0,0.0,0.0
6.843,374324.722,0.0,0.0,0.0
6.866,363300.277,0.0,0.0,0.0
6.888,358350.788,0.0,0.0,0.0
6.91,351054.191,0.0,0.0,0.0
6.933,343458.277,0.0,0.0,0.0
6.955,339856.317,0.0,0.0,0.0
6.977,331070.324,0.0,0.0,0.0
6.999,325491.111,0.0,0.0,0.0
7.022,318155.688,0.0,0.0,0.0
7.044,311226.198,0.0,0.0,0.0
7.066,306043.301,0.0,0.0,0.0
7.089,300556.57,0.0,0.0,0.0
7.111,294698.267,0.0,0.0,0.0
7.133,292223.969,0.0,0.0,0.0
7.155,286697.204,0.0,0.0,0.0
7.178,284092.344,0.0,0.0,0.0
7.2,281685.104,0.0,0.0,0.0
7.222,277153.984,0.0,0.0,0.0
7.245,278695.652,0.0,0.0,0.0
7.267,273587.141,0.0,0.0,0.0
7.289,273569.26,0.0,0.0,0.0
7.312,273407.615,0.0,0.0,0.0
7.334,270198.898,0.0,0.0,0.0
7.356,272331.751,0.0,0.0,0.0
7.378,268609.784,0.0,0.0,0.0
7.401,270783.153,0.0,0.0,0.0
7.423,270842.206,0.0,0.0,0.0
7.445,270822.877,0.0,0.0,0.0
7.468,274165.736,0.0,0.0,0.0
7.49,274553.257,0.0,0.0,0.0
7.512,277758.093,0.0,0.0,0.0
7.535,280949.617,0.0,0.0,0.0
7.557,284010.144,0.0,0.0,0.0
7.579,288220.942,0.0,0.0,0.0
7.601,290974.55,0.0,0.0,0.0
7.624,292891.517,0.0,0.0,0.0
7.646,295137.711,0.0,0.0,0.0
7.668,294830.043,0.0,0.0,0.0
7.691,295425.744,0.0,0.0,0.0
7.713,293010.463,0.0,0.0,0.0
7.735,290958.305,0.0,0.0,0.0
7.758,289103.46,0.0,0.0,0.0
7.78,284432.896,0.0,0.0,0.0
7.802,283187.037,0.0,0.0,0.0
7.824,277600.834,0.0,0.0,0.0
7.847,276098.851,0.0,0.0,0.0
7.869,273170.603,0.0,0.0,0.0
7.891,269336.589,0.0,0.0,0.0
7.914,268037.421,0.0,0.0,0.0
7.936,264880.263,0.0,0.0,0.0
7.958,262967.575,0.0,0.0,0.0
7.981,261794.363,0.0,0.0,0.0
8.003,259907.887,0.0,0.0,0.0
8.025,259161.644,0.0,0.0,0.0
8.048,258363.188,0.0,0.0,0.0
8.07,257293.131,0.0,0.0,0.0
8.092,258136.113,0.0,0.0,0.0
8.114,257793.274,0.0,0.0,0.0
8.137,259317.768,0.0,0.0,0.0
8.159,260874.22,0.0,0.0,0.0
8.181,261582.215,0.0,0.0,0.0
8.204,265427.983,0.0,0.0,0.0
8.226,265413.397,0.0,0.0,0.0
8.248,268056.462,0.0,0.0,0.0
8.271,269083.949,0.0,0.0,0.0
8.293,269176.985,0.0,0.0,0.0
8.315,269499.606,0.0,0.0,0.0
8.337,266684.171,0.0,0.0,0.0
8.36,265427.004,0.0,0.0,0.0
8.382,260960.956,0.0,0.0,0.0
8.404,257449.12,0.0,0.0,0.0
8.427,253797.854,0.0,0.0,0.0
8.449,248889.942,0.0,0.0,0.0
8.471,246936.862,0.0,0.0,0.0
8.494,243259.718,0.0,0.0,0.0
8.516,241287.434,0.0,0.0,0.0
8.538,239590.364,0.0,0.0,0.0
8.56,238570.888,0.0,0.0,0.0
8.583,237811.637,0.0,0.0,0.0
8.605,237910.12,0.0,0.0,0.0
8.627,237713.595,0.0,0.0,0.0
8.65,238740.815,0.0,0.0,0.0
8.672,239630.381,0.0,0.0,0.0
8.694,240534.999,0.0,0.0,0.0
8.716,243353.132,0.0,0.0,0.0
8.739,244477.37,0.0,0.0,0.0
8.761,247900.825,0.0,0.0,0.0
8.783,249983.632,0.0,0.0,0.0
8.806,253594.687,0.0,0.0,0.0
8.828,257502.747,0.0,0.0,0.0
8.85,260682.95,0.0,0.0,0.0
8.873,265707.222,0.0,0.0,0.0
8.895,269742.032,0.0,0.0,0.0
8.917,275568.4,0.0,0.0,0.0
8.94,280476.6,0.0,0.0,0.0
8.962,286048.261,0.0,0.0,0.0
8.984,292098.254,0.0,0.0,0.0
9.006,297188.57,0.0,0.0,0.0
9.029,302618.017,0.0,0.0,0.0
9.051,306735.403,0.0,0.0,0.0
9.073,309494.555,0.0,0.0,0.0
9.096,310490.62,0.0,0.0,0.0
9.118,308717.938,0.0,0.0,0.0
9.14,305408.426,0.0,0.0,0.0
9.163,299826.013,0.0,0.0,0.0
9.185,292622.513,0.0,0.0,0.0
9.207,285283.003,0.0,0.0,0.0
9.229,277043.937,0.0,0.0,0.0
9.252,270138.747,0.0,0.0,0.0
9.274,263937.821,0.0,0.0,0.0
9.296,258294.89,0.0,0.0,0.0
9.319,255199.737,0.0,0.0,0.0
9.341,252071.532,0.0,0.0,0.0
9.363,250690.355,0.0,0.0,0.0
9.386,250724.142,0.0,0.0,0.0
9.408,250493.8,0.0,0.0,0.0
9.43,252067.867,0.0,0.0,0.0
9.452,252878.846,0.0,0.0,0.0
9.475,253924.966,0.0,0.0,0.0
9.497,254584.654,0.0,0.0,0.0
9.519,253565.279,0.0,0.0,0.0
9.542,252785.832,0.0,0.0,0.0
9.564,249826.221,0.0,0.0,0.0
9.586,246938.27,0.0,0.0,0.0
9.609,242807.565,0.0,0.0,0.0
9.631,237764.256,0.0,0.0,0.0
9.653,233878.03,0.0,0.0,0.0
9.675,228975.075,0.0,0.0,0.0
9.698,225316.635,0.0,0.0,0.0
9.72,221803.22,0.0,0.0,0.0
9.742,218247.378,0.0,0.0,0.0
9.765,216075.226,0.0,0.0,0.0
9.787,213506.009,0.0,0.0,0.0
9.809,211860.902,0.0,0.0,0.0
9.832,210547.729,0.0,0.0,0.0
9.854,209162.59,0.0,0.0,0.0
9.876,208615.217,0.0,0.0,0.0
9.898,207953.774,0.0,0.0,0.0
9.921,207716.647,0.0,0.0,0.0
9.943,207684.895,0.0,0.0,0.0
9.965,207162.139,0.0,0.0,0.0
9.988,207712.866,0.0,0.0,0.0
10.01,207605.122,0.0,0.0,0.0
10.032,207551.274,0.0,0.0,0.0
10.055,207965.007,0.0,0.0,0.0
10.077,207356.277,0.0,0.0,0.0
10.099,208326.348,0.0,0.0,0.0
10.121,207849.492,0.0,0.0,0.0
10.144,207939.677,0.0,0.0,0.0
10.166,208544.685,0.0,0.0,0.0
10.188,208094.938,0.0,0.0,0.0
10.211,208624.516,0.0,0.0,0.0
10.233,208141.817,0.0,0.0,0.0
10.255,208423.744,0.0,0.0,0.0
10.278,208219.681,0.0,0.0,0.0
10.3,207557.625,0.0,0.0,0.0
10.322,208005.437,0.0,0.0,0.0
10.344,207249.864,0.0,0.0,0.0
10.367,207286.039,0.0,0.0,0.0
10.389,207043.489,0.0,0.0,0.0
10.411,206822.936,0.0,0.0,0.0
10.434,207431.829,0.0,0.0,0.0
10.456,207387.968,0.0,0.0,0.0
10.478,208079.508,0.0,0.0,0.0
10.501,208846.677,0.0,0.0,0.0
10.523,209453.937,0.0,0.0,0.0
10.545,210879.778,0.0,0.0,0.0
10.567,211985.332,0.0,0.0,0.0
10.59,213389.243,0.0,0.0,0.0
10.612,214565.653,0.0,0.0,0.0
10.634,215613.832,0.0,0.0,0.0
10.657,216833.22,0.0,0.0,0.0
10.679,217387.728,0.0,0.0,0.0
10.701,217770.403,0.0,0.0,0.0
10.724,217886.113,0.0,0.0,0.0
10.746,216891.753,0.0,0.0,0.0
10.768,216843.019,0.0,0.0,0.0
10.79,214878.018,0.0,0.0,0.0
10.813,213782.143,0.0,0.0,0.0
10.835,212684.649,0.0,0.0,0.0
10.857,210716.641,0.0,0.0,0.0
10.88,210132.744,0.0,0.0,0.0
10.902,208569.72,0.0,0.0,0.0
10.924,208171.861,0.0,0.0,0.0
10.947,207701.924,0.0,0.0,0.0
10.969,207126.596,0.0,0.0,0.0
10.991,207449.14,0.0,0.0,0.0
11.013,206614.941,0.0,0.0,0.0
11.036,206942.267,0.0,0.0,0.0
11.058,206970.87,0.0,0.0,0.0
11.08,206845.695,0.0,0.0,0.0
11.103,207628.516,0.0,0.0,0.0
11.125,207729.884,0.0,0.0,0.0
11.147,209057.283,0.0,0.0,0.0
11.17,210381.736,0.0,0.0,0.0
11.192,212352.122,0.0,0.0,0.0
11.214,214971.609,0.0,0.0,0.0
11.236,217640.764,0.0,0.0,0.0
11.259,220419.122,0.0,0.0,0.0
11.281,222675.322,0.0,0.0,0.0
11.303,223793.456,0.0,0.0,0.0
11.326,223696.77,0.0,0.0,0.0
11.348,221973.918,0.0,0.0,0.0
11.37,219149.935,0.0,0.0,0.0
11.393,215124.956,0.0,0.0,0.0
11.415,210506.814,0.0,0.0,0.0
11.437,206345.952,0.0,0.0,0.0
11.459,201706.146,0.0,0.0,0.0
11.482,198300.629,0.00001,0.0,0.0
11.504,195089.102,0.00001,0.0,0.0
11.526,191921.995,0.00001,0.0,0.0
11.549,189875.414,0.00001,0.0,0.0
11.571,187387.021,0.00001,0.0,0.0
11.593,185780.341,0.00001,0.0,0.0
11.616,183856.501,0.00001,0.0,0.0
11.638,182503.939,0.00001,0.0,0.0
11.66,181277.843,0.00001,0.0,0.0
11.682,179584.12,0.00001,0.0,0.0
11.705,178937.932,0.00001,0.0,0.0
11.727,177690.434,0.00001,0.0,0.0
11.749,176827.303,0.00001,0.0,0.0
11.772,176246.413,0.00001,0.0,0.0
11.794,175021.808,0.00001,0.0,0.0
11.816,174960.92,0.00001,0.0,0.0
11.839,174149.702,0.00001,0.0,0.0
11.861,173954.278,0.00001,0.0,0.0
11.883,173472.396,0.00001,0.0,0.0
11.905,172698.095,0.00001,0.0,0.0
11.928,172726.173,0.00001,0.0,0.0
11.95,172072.818,0.00001,0.0,0.0
11.972,172058.175,0.00001,0.0,0.0
11.995,171844.009,0.00001,0.0,0.0
12.017,171486.915,0.00001,0.0,0.0
12.039,171797.782,0.00001,0.0,0.0
12.062,171338.125,0.00001,0.0,0.0
12.084,171796.66,0.00001,0.0,0.0
12.106,171873.809,0.00001,0.0,0.0
12.128,172005.091,0.00001,0.0,0.0
12.151,172355.246,0.00001,0.0,0.0
12.173,172452.969,0.00001,0.0,0.0
12.195,172826.718,0.00001,0.0,0.0
12.218,172723.075,0.00001,0.0,0.0
12.24,172768.697,0.00001,0.0,0.0
12.262,172837.818,0.00001,0.0,0.0
12.285,172046.554,0.00001,0.0,0.0
12.307,171900.45,0.00001,0.0,0.0
12.329,171330.294,0.00001,0.0,0.0
12.351,170563.498,0.00001,0.0,0.0
12.374,170301.703,0.00001,0.0,0.0
12.396,169321.744,0.00001,0.0,0.0
12.418,168895.376,0.00001,0.0,0.0
12.441,168180.177,0.00001,0.0,0.0
12.463,167661.338,0.00001,0.0,0.0
12.485,167295.478,0.00001,0.0,0.0
12.508,166529.466,0.00001,0.0,0.0
12.53,166465.241,0.00001,0.0,0.0
12.552,165959.803,0.00001,0.0,0.0
12.574,165695.18,0.00001,0.0,0.0
12.597,165620.026,0.00001,0.0,0.0
12.619,165215.154,0.00001,0.0,0.0
12.641,165384.474,0.00001,0.0,0.0
12.664,165091.813,0.00001,0.0,0.0
12.686,165271.084,0.00001,0.0,0.0
12.708,165070.458,0.00001,0.0,0.0
12.731,165067.282,0.00001,0.0,0.0
12.753,165093.57,0.00001,0.0,0.0
12.775,164933.909,0.00001,0.0,0.0
12.797,165239.749,0.00001,0.0,0.0
12.82,165373.062,0.00001,0.0,0.0
12.842,165513.941,0.00001,0.0,0.0
12.864,165731.904,0.00001,0.0,0.0
12.887,165653.71,0.00001,0.0,0.0
12.909,166210.592,0.00001,0.0,0.0
12.931,166068.96,0.00001,0.0,0.0
12.954,166019.055,0.00001,0.0,0.0
12.976,166044.76,0.00001,0.0,0.0
12.998,165641.59,0.00001,0.0,0.0
13.02,165918.03,0.00001,0.0,0.0
13.043,165301.355,0.00001,0.0,0.0
13.065,164973.405,0.00001,0.0,0.0
13.087,164792.241,0.00001,0.0,0.0
13.11,164172.792,0.00001,0.0,0.0
13.132,163919.987,0.00001,0.0,0.0
13.154,163124.526,0.00001,0.0,0.0
13.177,162975.084,0.00001,0.0,0.0
13.199,162351.414,0.00001,0.0,0.0
13.221,161764.212,0.00001,0.0,0.0
13.243,161669.804,0.00001,0.0,0.0
13.266,161010.785,0.00001,0.0,0.0
13.288,160898.04,0.00001,0.0,0.0
13.31,160655.756,0.00001,0.0,0.0
13.333,160220.252,0.00001,0.0,0.0
13.355,159988.531,0.00001,0.0,0.0
13.377,159467.689,0.00001,0.0,0.0
13.4,159449.976,0.00001,0.0,0.0
13.422,158810.622,0.00001,0.0,0.0
13.444,158695.015,0.00001,0.0,0.0
13.466,158361.758,0.00001,0.0,0.0
13.489,157646.966,0.00001,0.0,0.0
13.511,157501.607,0.00001,0.0,0.0
13.533,157316.228,0.00001,0.0,0.0
13.556,157231.007,0.00001,0.0,0.0
13.578,156945.406,0.00001,0.0,0.0
13.6,156840.422,0.00001,0.0,0.0
13.623,156889.714,0.00001,0.0,0.0
13.645,157009.79,0.00001,0.0,0.0
13.667,157217.424,0.00001,0.0,0.0
13.689,157428.971,0.00001,0.0,0.0
13.712,157575.213,0.00001,0.0,0.0
13.734,158071.008,0.00001,0.0,0.0
13.756,158383.322,0.00001,0.0,0.0
13.779,159236.198,0.00001,0.0,0.0
13.801,159749.691,0.00001,0.0,0.0
13.823,160481.756,0.00001,0.0,0.0
13.846,161094.357,0.00001,0.0,0.0
13.868,161688.668,0.00001,0.0,0.0
13.89,162503.487,0.00001,0.0,0.0
13.912,162884.206,0.00001,0.0,0.0
13.935,163507.13,0.00001,0.0,0.0
13.957,163723.476,0.00001,0.0,0.0
13.979,163857.585,0.00001,0.0,0.0
14.002,163882.123,0.00001,0.0,0.0
14.024,163269.982,0.00001,0.0,0.0
14.046,163293.836,0.00001,0.0,0.0
14.069,162458.955,0.00001,0.0,0.0
14.091,161811.916,0.00001,0.0,0.0
14.113,160870.084,0.00001,0.0,0.0
14.135,159911.032,0.00001,0.0,0.0
14.158,159447.222,0.00001,0.0,0.0
14.18,158519.947,0.00001,0.0,0.0
14.202,157988.126,0.00001,0.0,0.0
14.225,157619.453,0.00001,0.0,0.0
14.247,157053.657,0.00001,0.0,0.0
14.269,156788.095,0.00001,0.0,0.0
14.292,156596.886,0.00001,0.0,0.0
14.314,156583.391,0.00001,0.0,0.0
14.336,156401.647,0.00001,0.0,0.0
14.358,156300.099,0.00001,0.0,0.0
14.381,156333.33,0.00001,0.0,0.0
14.403,156158.983,0.00001,0.0,0.0
14.425,156301.747,0.00001,0.0,0.0
14.448,156125.129,0.00001,0.0,0.0
14.47,156075.289,0.00001,0.0,0.0
14.492,156067.087,0.00001,0.0,0.0
14.515,155868.293,0.00001,0.0,0.0
14.537,155870.059,0.00001,0.0,0.0
14.559,155457.286,0.00001,0.0,0.0
14.581,155531.722,0.00001,0.0,0.0
14.604,155325.379,0.00001,0.0,0.0
14.626,155099.616,0.00001,0.0,0.0
14.648,155093.597,0.00001,0.0,0.0
14.671,154567.978,0.00001,0.0,0.0
14.693,154926.55,0.00001,0.0,0.0
14.715,154592.597,0.00001,0.0,0.0
14.738,154446.083,0.00001,0.0,0.0
14.76,154733.568,0.00001,0.0,0.0
14.782,154295.011,0.00001,0.0,0.0
14.804,154395.524,0.00001,0.0,0.0
14.827,154326.307,0.00001,0.0,0.0
14.849,154440.217,0.00001,0.0,0.0
14.871,154202.49,0.00001,0.0,0.0
14.894,154360.678,0.00001,0.0,0.0
14.916,154502.367,0.00001,0.0,0.0
14.938,154306.451,0.00001,0.0,0.0
14.961,154750.801,0.00001,0.0,0.0
14.983,154708.822,0.00001,0.0,0.0
15.005,154482.704,0.00001,0.0,0.0
15.027,154280.721,0.00001,0.0,0.0
15.05,153851.743,0.00001,0.0,0.0
15.072,153568.067,0.00001,0.0,0.0
15.094,152903.71,0.00001,0.0,0.0
15.117,152511.695,0.00001,0.0,0.0
15.139,151783.487,0.00001,0.0,0.0
15.161,151106.113,0.00001,0.0,0.0
15.184,150474.868,0.00001,0.0,0.0
15.206,149584.265,0.00001,0.0,0.0
15.228,149470.179,0.00001,0.0,0.0
15.25,149003.413,0.00001,0.0,0.0
15.273,148498.049,0.00001,0.0,0.0
15.295,148295.197,0.00001,0.0,0.0
15.317,148222.212,0.00001,0.0,0.0
15.34,148501.905,0.00001,0.0,0.0
15.362,148454.193,0.00001,0.0,0.0
15.384,148947.517,0.00001,0.0,0.0
15.407,149316.097,0.00001,0.0,0.0
15.429,149619.037,0.00001,0.0,0.0
15.451,149926.023,0.00001,0.0,0.0
15.473,150478.96,0.00001,0.0,0.0
15.496,150528.468,0.00001,0.0,0.0
15.518,150544.466,0.00001,0.0,0.0
15.54,150654.068,0.00001,0.0,0.0
15.563,150354.704,0.00001,0.0,0.0
15.585,150026.802,0.00001,0.0,0.0
15.607,149687.731,0.00001,0.0,0.0
15.63,149022.48,0.00001,0.0,0.0
15.652,148792.22,0.00001,0.0,0.0
15.674,148146.672,0.00001,0.0,0.0
15.696,147401.345,0.00001,0.0,0.0
15.719,147023.274,0.00001,0.0,0.0
15.741,146668.777,0.00001,0.0,0.0
15.763,146040.637,0.00001,0.0,0.0
15.786,145461.811,0.00001,0.0,0.0
15.808,145343.104,0.00001,0.0,0.0
15.83,144856.093,0.00001,0.0,0.0
15.853,144361.915,0.00001,0.0,0.0
15.875,143907.422,0.00001,0.0,0.0
15.897,143665.325,0.00001,0.0,0.0
15.919,143133.772,0.00001,0.0,0.0
15.942,143153.788,0.00001,0.0,0.0
15.964,142728.675,0.00001,0.0,0.0
15.986,142597.169,0.00001,0.0,0.0
16.009,142657.375,0.00001,0.0,0.0
16.031,142763.147,0.00001,0.0,0.0
16.053,142939.055,0.00001,0.0,0.0
16.076,143638.736,0.00001,0.0,0.0
16.098,144002.207,0.00001,0.0,0.0
16.12,144455.852,0.00001,0.0,0.0
16.142,145031.682,0.00001,0.0,0.0
16.165,145388.882,0.00001,0.0,0.0
16.187,145677.388,0.00001,0.0,0.0
16.209,145870.922,0.00001,0.0,0.0
16.232,146205.368,0.00001,0.0,0.0
16.254,145761.978,0.00001,0.0,0.0
16.276,145594.132,0.00001,0.0,0.0
16.299,144948.28,0.00001,0.0,0.0
16.321,144245.53,0.00001,0.0,0.0
16.343,143813.779,0.00001,0.0,0.0
16.365,142856.615,0.00001,0.0,0.0
16.388,142249.304,0.00001,0.0,0.0
16.41,141609.0,0.00001,0.0,0.0
16.432,140929.119,0.00001,0.0,0.0
16.455,140387.579,0.00001,0.0,0.0
16.477,139630.949,0.00001,0.0,0.0
16.499,139541.533,0.00001,0.0,0.0
16.521,138958.482,0.00001,0.0,0.0
16.544,138827.782,0.00001,0.0,0.0
16.566,138230.418,0.00001,0.0,0.0
16.588,138123.322,0.00001,0.0,0.0
16.611,137828.086,0.00001,0.0,0.0
16.633,137276.867,0.00001,0.0,0.0
16.655,137425.309,0.00001,0.0,0.0
16.678,136958.851,0.00001,0.0,0.0
16.7,136542.631,0.00001,0.0,0.0
16.722,136296.173,0.00001,0.0,0.0
16.744,136162.417,0.00001,0.0,0.0
16.767,135883.788,0.00001,0.0,0.0
16.789,135716.973,0.00001,0.0,0.0
16.811,135725.164,0.00001,0.0,0.0
16.834,135625.344,0.00001,0.0,0.0
16.856,135640.933,0.00001,0.0,0.0
16.878,135700.316,0.00001,0.0,0.0
16.901,135697.95,0.00001,0.0,0.0
16.923,135686.571,0.00001,0.0,0.0
16.945,135827.327,0.00001,0.0,0.0
16.968,135954.169,0.00001,0.0,0.0
16.99,135902.22,0.00001,0.0,0.0
17.012,136105.429,0.00001,0.0,0.0
17.034,135924.178,0.00001,0.0,0.0
17.057,136106.668,0.00001,0.0,0.0
17.079,135781.667,0.00001,0.0,0.0
17.101,135660.178,0.00001,0.0,0.0
17.124,135781.946,0.00001,0.0,0.0
17.146,135296.41,0.00001,0.0,0.0
17.168,135419.097,0.00001,0.0,0.0
17.191,135150.059,0.00001,0.0,0.0
17.213,134923.513,0.00001,0.0,0.0
17.235,134738.284,0.00001,0.0,0.0
17.257,134545.697,0.00001,0.0,0.0
17.28,134236.822,0.00001,0.0,0.0
17.302,134104.658,0.00001,0.0,0.0
17.324,134012.848,0.00001,0.0,0.0
17.347,133545.037,0.00001,0.0,0.0
17.369,133312.313,0.00001,0.0,0.0
17.391,133152.724,0.00001,0.0,0.0
17.414,132867.069,0.00001,0.0,0.0
17.436,132784.876,0.00001,0.0,0.0
17.458,132474.524,0.00001,0.0,0.0
17.48,132383.307,0.00001,0.0,0.0
17.503,132220.612,0.00001,0.0,0.0
17.525,132031.487,0.00001,0.0,0.0
17.547,131830.007,0.00001,0.0,0.0
17.57,131732.383,0.00001,0.0,0.0
17.592,131665.584,0.00001,0.0,0.0
17.614,131511.172,0.00001,0.0,0.0
17.637,131443.378,0.00001,0.0,0.0
17.659,131246.818,0.00001,0.0,0.0
17.681,131296.735,0.00001,0.0,0.0
17.703,131384.995,0.00001,0.0,0.0
17.726,131004.874,0.00001,0.0,0.0
17.748,131128.541,0.00001,0.0,0.0
17.77,131135.097,0.00001,0.0,0.0
17.793,131229.65,0.00001,0.0,0.0
17.815,131052.721,0.00001,0.0,0.0
17.837,131064.089,0.00001,0.0,0.0
17.86,131114.718,0.00001,0.0,0.0
17.882,130881.484,0.00001,0.0,0.0
17.904,131210.033,0.00001,0.0,0.0
17.926,131025.126,0.00001,0.0,0.0
17.949,131134.181,0.00001,0.0,0.0
17.971,130961.609,0.00001,0.0,0.0
17.993,131229.375,0.00001,0.0,0.0
18.016,131286.851,0.00001,0.0,0.0
18.038,131372.433,0.00001,0.0,0.0
18.06,131407.991,0.00001,0.0,0.0
18.082,131357.5,0.00001,0.0,0.0
18.105,131460.104,0.00001,0.0,0.0
18.127,131673.338,0.00001,0.0,0.0
18.149,131729.975,0.00001,0.0,0.0
18.172,131968.383,0.00001,0.0,0.0
18.194,132171.748,0.00001,0.0,0.0
18.216,132375.857,0.00001,0.0,0.0
18.239,132467.234,0.00001,0.0,0.0
18.261,132927.579,0.00001,0.0,0.0
18.283,132995.971,0.00001,0.0,0.0
18.306,133327.938,0.00001,0.0,0.0
18.328,133453.929,0.00001,0.0,0.0
18.35,133628.191,0.00001,0.0,0.0
18.372,134212.271,0.00001,0.0,0.0
18.395,134074.733,0.00001,0.0,0.0
18.417,134553.7,0.00001,0.0,0.0
18.439,134578.598,0.00001,0.0,0.0
18.462,134697.013,0.00001,0.0,0.0
18.484,134667.952,0.00001,0.0,0.0
18.506,134692.243,0.00001,0.0,0.0
18.529,134559.857,0.00001,0.0,0.0
18.551,134268.618,0.00001,0.0,0.0
18.573,134108.833,0.00001,0.0,0.0
18.595,133711.114,0.00001,0.0,0.0
18.618,133631.01,0.00001,0.0,0.0
18.64,133078.823,0.00001,0.0,0.0
18.662,132943.852,0.00001,0.0,0.0
18.685,132449.444,0.00001,0.0,0.0
18.707,132138.749,0.00001,0.0,0.0
18.729,131949.496,0.00001,0.0,0.0
18.752,131461.315,0.00001,0.0,0.0
18.774,131259.129,0.00001,0.0,0.0
18.796,130816.541,0.00001,0.0,0.0
18.818,130586.477,0.00001,0.0,0.0
18.841,130415.818,0.00001,0.0,0.0
18.863,130021.422,0.00001,0.0,0.0
18.885,129923.917,0.00001,0.0,0.0
18.908,129472.748,0.00001,0.0,0.0
18.93,129427.25,0.00001,0.0,0.0
18.952,129095.168,0.00001,0.0,0.0
18.975,129036.138,0.00001,0.0,0.0
18.997,128736.952,0.00001,0.0,0.0
19.019,128814.472,0.00001,0.0,0.0
19.041,128644.664,0.00001,0.0,0.0
19.064,128535.319,0.00001,0.0,0.0
19.086,128609.135,0.00001,0.0,0.0
19.108,128295.556,0.00001,0.0,0.0
19.131,128403.192,0.00001,0.0,0.0
19.153,128218.062,0.00001,0.0,0.0
19.175,128359.392,0.00001,0.0,0.0
19.198,128412.104,0.00001,0.0,0.0
19.22,128031.678,0.00001,0.0,0.0
19.242,128464.12,0.00001,0.0,0.0
19.264,128254.786,0.00001,0.0,0.0
19.287,128472.65,0.00001,0.0,0.0
19.309,128246.328,0.00001,0.0,0.0
19.331,128458.198,0.00001,0.0,0.0
19.354,128317.84,0.00001,0.0,0.0
19.376,128296.529,0.00001,0.0,0.0
19.398,128266.11,0.00001,0.0,0.0
19.421,128175.266,0.00001,0.0,0.0
19.443,128347.135,0.00001,0.0,0.0
19.465,128099.371,0.00001,0.0,0.0
19.487,128265.242,0.00001,0.0,0.0
19.51,127923.85,0.00001,0.0,0.0
19.532,128113.333,0.00001,0.0,0.0
19.554,127762.475,0.00001,0.0,0.0
19.577,127668.368,0.00001,0.0,0.0
19.599,127702.21,0.00001,0.0,0.0
19.621,127213.082,0.00001,0.0,0.0
19.643,127177.289,0.00001,0.0,0.0
19.666,126826.17,0.00001,0.0,0.0
19.688,126806.406,0.00001,0.0,0.0
19.71,126330.357,0.00001,0.0,0.0
19.733,126200.47,0.00001,0.0,0.0
19.755,126021.05,0.00001,0.0,0.0
19.777,125589.648,0.00001,0.0,0.0
19.8,125521.199,0.00001,0.0,0.0
19.822,125227.124,0.00001,0.0,0.0
19.844,124979.247,0.00001,0.0,0.0
19.867,124881.244,0.00001,0.0,0.0
19.889,124761.974,0.00001,0.0,0.0
19.911,124551.458,0.00001,0.0,0.0
19.933,124493.876,0.00001,0.0,0.0
19.956,124428.152,0.00001,0.0,0.0
19.978,124175.901,0.00001,0.0,0.0
20.0,124336.99,0.00001,0.0,0.0
20.023,124050.613,0.00001,0.0,0.0
20.045,124070.674,0.00001,0.0,0.0
20.067,123861.652,0.00001,0.0,0.0
20.09,123913.89,0.00001,0.0,0.0
20.112,123736.171,0.00001,0.0,0.0
20.134,123499.378,0.00001,0.0,0.0
20.156,123587.74,0.00001,0.0,0.0
20.179,123230.915,0.00001,0.0,0.0
20.201,123273.013,0.00001,0.0,0.0
20.223,122757.367,0.00001,0.0,0.0
20.246,122703.971,0.00001,0.0,0.0
20.268,122517.559,0.00001,0.0,0.0
20.29,122301.445,0.00001,0.0,0.0
20.312,121806.336,0.00001,0.0,0.0
20.335,121426.437,0.00001,0.0,0.0
20.357,121346.466,0.00001,0.0,0.0
20.379,121034.095,0.00001,0.0,0.0
20.402,120820.722,0.00001,0.0,0.0
20.424,120371.942,0.00001,0.0,0.0
20.446,120367.53,0.00001,0.0,0.0
20.469,119860.351,0.00001,0.0,0.0
20.491,119953.791,0.00001,0.0,0.0
20.513,119640.057,0.00001,0.0,0.0
20.536,119496.603,0.00001,0.0,0.0
20.558,119302.027,0.00001,0.0,0.0
20.58,119111.321,0.00001,0.0,0.0
20.602,119295.609,0.00001,0.0,0.0
20.625,118693.58,0.00001,0.0,0.0
20.647,119000.885,0.00001,0.0,0.0
20.669,118752.63,0.00001,0.0,0.0
20.692,118760.333,0.00001,0.0,0.0
20.714,118593.087,0.00001,0.0,0.0
20.736,118554.809,0.00001,0.0,0.0
20.759,118766.18,0.00001,0.0,0.0
20.781,118477.814,0.00001,0.0,0.0
20.803,118653.332,0.00001,0.0,0.0
20.825,118630.227,0.00001,0.0,0.0
20.848,118616.407,0.00001,0.0,0.0
20.87,118669.264,0.00001,0.0,0.0
20.892,118723.941,0.00001,0.0,0.0
20.915,118780.718,0.00001,0.0,0.0
20.937,118617.938,0.00001,0.0,0.0
20.959,118839.96,0.00001,0.0,0.0
20.982,118678.759,0.00001,0.0,0.0
21.004,119005.724,0.00001,0.0,0.0
21.026,118788.58,0.00001,0.0,0.0
21.048,118895.491,0.00001,0.0,0.0
21.071,118786.9,0.00001,0.0,0.0
21.093,118870.708,0.00001,0.0,0.0
21.115,118751.899,0.00001,0.0,0.0
21.138,118728.311,0.00001,0.0,0.0
21.16,118682.431,0.00001,0.0,0.0
21.182,118589.129,0.00001,0.0,0.0
21.204,118650.798,0.00001,0.0,0.0
21.227,118469.085,0.00001,0.0,0.0
21.249,118613.297,0.00001,0.0,0.0
21.271,118445.171,0.00001,0.0,0.0
21.294,118437.919,0.00001,0.0,0.0
21.316,118215.958,0.00001,0.0,0.0
21.338,118092.952,0.00001,0.0,0.0
21.361,117998.633,0.00001,0.0,0.0
21.383,117940.873,0.00001,0.0,0.0
21.405,117939.341,0.00001,0.0,0.0
21.428,117823.132,0.00001,0.0,0.0
21.45,118130.708,0.00001,0.0,0.0
21.472,118011.926,0.00001,0.0,0.0
21.494,118221.787,0.00001,0.0,0.0
21.517,118040.762,0.00001,0.0,0.0
21.539,117937.674,0.00001,0.0,0.0
21.561,117715.621,0.00001,0.0,0.0
21.584,117672.422,0.00001,0.0,0.0
21.606,117749.666,0.00001,0.0,0.0
21.628,117620.479,0.00001,0.0,0.0
21.651,117787.585,0.00001,0.0,0.0
21.673,117763.136,0.00001,0.0,0.0
21.695,117874.697,0.00001,0.0,0.0
21.717,117689.53,0.00001,0.0,0.0
21.74,117924.687,0.00001,0.0,0.0
21.762,117726.199,0.00001,0.0,0.0
21.784,117846.344,0.00001,0.0,0.0
21.807,117841.558,0.00001,0.0,0.0
21.829,117813.805,0.00001,0.0,0.0
21.851,117863.964,0.00001,0.0,0.0
21.873,117670.738,0.00001,0.0,0.0
21.896,117879.959,0.00001,0.0,0.0
21.918,117623.301,0.00001,0.0,0.0
21.94,117886.226,0.00001,0.0,0.0
21.963,117370.672,0.00001,0.0,0.0
21.985,117727.073,0.00001,0.0,0.0
22.007,117581.867,0.00001,0.0,0.0
22.03,117473.034,0.00001,0.0,0.0
22.052,117417.255,0.00001,0.0,0.0
22.074,117354.826,0.00001,0.0,0.0
22.097,117352.516,0.00001,0.0,0.0
22.119,116992.641,0.00001,0.0,0.0
22.141,117253.777,0.00001,0.0,0.0
22.163,116873.746,0.00001,0.0,0.0
22.186,117162.676,0.00001,0.0,0.0
22.208,116684.516,0.00001,0.0,0.0
22.23,116797.668,0.00001,0.0,0.0
22.253,116477.995,0.00001,0.0,0.0
22.275,116381.797,0.00001,0.0,0.0
22.297,116256.185,0.00001,0.0,0.0
22.32,115958.1,0.00001,0.0,0.0
22.342,115841.557,0.00001,0.0,0.0
22.364,115533.246,0.00001,0.0,0.0
22.386,115577.959,0.00001,0.0,0.0
22.409,115210.531,0.00001,0.0,0.0
22.431,115280.529,0.00001,0.0,0.0
22.453,114762.793,0.00001,0.0,0.0
22.476,114919.654,0.00001,0.0,0.0
22.498,114535.367,0.00001,0.0,0.0
22.52,114561.863,0.00001,0.0,0.0
22.543,114508.893,0.00001,0.0,0.0
22.565,114288.918,0.00001,0.0,0.0
22.587,114327.581,0.00001,0.0,0.0
22.609,114308.195,0.00001,0.0,0.0
22.632,114290.049,0.00001,0.0,0.0
22.654,114017.382,0.00001,0.0,0.0
22.676,114347.575,0.00001,0.0,0.0
22.699,114099.337,0.00001,0.0,0.0
22.721,114104.107,0.00001,0.0,0.0
22.743,114237.474,0.00001,0.0,0.0
22.765,114347.17,0.00001,0.0,0.0
22.788,114209.031,0.00001,0.0,0.0
22.81,114381.596,0.00001,0.0,0.0
22.832,114294.176,0.00001,0.0,0.0
22.855,114013.21,0.00001,0.0,0.0
22.877,114130.644,0.00001,0.0,0.0
22.899,113952.841,0.00001,0.0,0.0
22.922,114103.494,0.00001,0.0,0.0
22.944,113767.331,0.00001,0.0,0.0
22.966,114024.078,0.00001,0.0,0.0
22.989,113676.445,0.00001,0.0,0.0
23.011,113703.693,0.00001,0.0,0.0
23.033,113400.72,0.00001,0.0,0.0
23.055,113666.409,0.00001,0.0,0.0
23.078,113344.342,0.00001,0.0,0.0
23.1,113398.328,0.00001,0.0,0.0
23.122,113211.813,0.00001,0.0,0.0
23.145,113175.563,0.00001,0.0,0.0
23.167,113162.998,0.00001,0.0,0.0
23.189,112924.67,0.00001,0.0,0.0
23.212,113015.856,0.00001,0.0,0.0
23.234,112756.215,0.00001,0.0,0.0
23.256,112932.744,0.00001,0.0,0.0
23.278,112621.68,0.00001,0.0,0.0
23.301,112632.963,0.00001,0.0,0.0
23.323,112499.001,0.00001,0.0,0.0
23.345,112382.619,0.00001,0.0,0.0
23.368,112176.18,0.00001,0.0,0.0
23.39,112140.862,0.00001,0.0,0.0
23.412,111840.858,0.00001,0.0,0.0
23.434,111821.77,0.00001,0.0,0.0
23.457,111812.583,0.00001,0.0,0.0
23.479,111506.58,0.00001,0.0,0.0
23.501,111524.748,0.00001,0.0,0.0
23.524,111239.336,0.00001,0.0,0.0
23.546,111348.853,0.00001,0.0,0.0
23.568,110987.238,0.00001,0.0,0.0
23.591,110869.983,0.00001,0.0,0.0
23.613,110811.836,0.00001,0.0,0.0
23.635,110849.986,0.00001,0.0,0.0
23.658,110613.597,0.00001,0.0,0.0
23.68,110632.104,0.00001,0.0,0.0
23.702,110606.345,0.00001,0.0,0.0
23.724,110601.361,0.00001,0.0,0.0
23.747,110461.381,0.00001,0.0,0.0
23.769,110417.401,0.00001,0.0,0.0
23.791,110493.086,0.00001,0.0,0.0
23.814,110283.503,0.00001,0.0,0.0
23.836,110391.948,0.00001,0.0,0.0
23.858,110264.642,0.00001,0.0,0.0
23.881,110344.575,0.00001,0.0,0.0
23.903,110203.672,0.00001,0.0,0.0
23.925,110279.101,0.00001,0.0,0.0
23.947,110112.18,0.00001,0.0,0.0
23.97,110311.396,0.00001,0.0,0.0
23.992,110025.275,0.00001,0.0,0.0
24.014,110016.645,0.00001,0.0,0.0
24.037,109793.306,0.00001,0.0,0.0
24.059,109789.712,0.00001,0.0,0.0
24.081,109479.885,0.00001,0.0,0.0
24.104,109586.223,0.00001,0.0,0.0
24.126,109202.927,0.00001,0.0,0.0
24.148,109186.692,0.00001,0.0,0.0
24.17,109133.153,0.00001,0.0,0.0
24.193,108809.721,0.00001,0.0,0.0
24.215,108896.012,0.00001,0.0,0.0
24.237,108655.722,0.00001,0.0,0.0
24.26,108729.699,0.00001,0.0,0.0
24.282,108608.79,0.00001,0.0,0.0
24.304,108661.537,0.00001,0.0,0.0
24.326,108427.874,0.00001,0.0,0.0
24.349,108459.619,0.00001,0.0,0.0
24.371,108183.743,0.00001,0.0,0.0
24.393,108394.665,0.00001,0.0,0.0
24.416,108328.827,0.00001,0.0,0.0
24.438,108442.148,0.00001,0.0,0.0
24.46,108312.217,0.00001,0.0,0.0
24.483,108318.273,0.00001,0.0,0.0
24.505,108171.927,0.00001,0.0,0.0
24.527,107990.089,0.00001,0.0,0.0
24.55,107861.286,0.00001,0.0,0.0
24.572,107631.691,0.00001,0.0,0.0
24.594,107656.591,0.00001,0.0,0.0
24.616,107362.426,0.00001,0.0,0.0
24.639,107454.881,0.00001,0.0,0.0
24.661,107383.234,0.00001,0.0,0.0
24.683,107280.109,0.00001,0.0,0.0
24.706,107078.284,0.00001,0.0,0.0
24.728,107248.956,0.00001,0.0,0.0
24.75,106857.363,0.00001,0.0,0.0
24.773,106918.808,0.00001,0.0,0.0
24.795,106693.883,0.00001,0.0,0.0
24.817,106719.968,0.00001,0.0,0.0
24.839,106468.184,0.00001,0.0,0.0
24.862,106549.863,0.00001,0.0,0.0
24.884,106166.606,0.00001,0.0,0.0
24.906,106463.556,0.00001,0.0,0.0
24.929,106161.607,0.00001,0.0,0.0
24.951,106154.453,0.00001,0.0,0.0
24.973,106020.063,0.00001,0.0,0.0
24.995,106017.823,0.00001,0.0,0.0
25.018,105999.248,0.00001,0.0,0.0
25.04,105943.613,0.00001,0.0,0.0
25.062,105937.491,0.00001,0.0,0.0
25.085,105880.526,0.00001,0.0,0.0
25.107,105924.935,0.00001,0.0,0.0
25.129,105690.111,0.00001,0.0,0.0
25.152,105946.835,0.00001,0.0,0.0
25.174,105872.222,0.00001,0.0,0.0
25.196,105868.743,0.00001,0.0,0.0
25.219,105652.858,0.00001,0.0,0.0
25.241,106755.745,0.00001,0.0,0.0
25.263,105470.626,0.00001,0.0,0.0
25.285,105579.181,0.00001,0.0,0.0
25.308,105365.268,0.00001,0.0,0.0
25.33,105321.557,0.00001,0.0,0.0
25.352,105016.346,0.00001,0.0,0.0
25.375,105190.636,0.00001,0.0,0.0
25.397,104828.398,0.00001,0.0,0.0
25.419,104920.957,0.00001,0.0,0.0
25.442,104674.581,0.00001,0.0,0.0
25.464,104588.322,0.00001,0.0,0.0
25.486,104458.784,0.00001,0.0,0.0
25.508,104441.853,0.00001,0.0,0.0
25.531,104232.592,0.00001,0.0,0.0
25.553,104313.651,0.00001,0.0,0.0
25.575,104368.729,0.00001,0.0,0.0
25.598,104171.042,0.00001,0.0,0.0
25.62,104297.836,0.00001,0.0,0.0
25.642,104064.941,0.00001,0.0,0.0
25.665,104138.091,0.00001,0.0,0.0
25.687,104004.467,0.00001,0.0,0.0
25.709,104225.071,0.00001,0.0,0.0
25.731,103994.836,0.00001,0.0,0.0
25.754,104090.435,0.00001,0.0,0.0
25.776,103858.771,0.00001,0.0,0.0
25.798,104153.362,0.00001,0.0,0.0
25.821,103889.925,0.00001,0.0,0.0
25.843,104067.027,0.00001,0.0,0.0
25.865,103675.78,0.00001,0.0,0.0
25.888,103830.799,0.00001,0.0,0.0
25.91,103849.158,0.00001,0.0,0.0
25.932,103726.764,0.00001,0.0,0.0
25.954,103547.197,0.00001,0.0,0.0
25.977,103829.071,0.00001,0.0,0.0
25.999,103434.72,0.00001,0.0,0.0
26.021,103746.178,0.00001,0.0,0.0
26.044,103300.004,0.00001,0.0,0.0
26.066,103509.747,0.00001,0.0,0.0
26.088,103167.297,0.00001,0.0,0.0
26.111,103259.1,0.00001,0.0,0.0
26.133,103147.904,0.00001,0.0,0.0
26.155,103153.855,0.00001,0.0,0.0
26.177,102838.696,0.00001,0.0,0.0
26.2,103013.671,0.00001,0.0,0.0
26.222,102849.802,0.00001,0.0,0.0
26.244,102791.222,0.00001,0.0,0.0
26.267,102757.065,0.00001,0.0,0.0
26.289,102535.502,0.00001,0.0,0.0
26.311,102857.526,0.00001,0.0,0.0
26.334,102523.477,0.00001,0.0,0.0
26.356,102828.308,0.00001,0.0,0.0
26.378,102456.767,0.00001,0.0,0.0
26.4,102545.935,0.00001,0.0,0.0
26.423,102574.092,0.00001,0.0,0.0
26.445,102487.406,0.00001,0.0,0.0
26.467,102380.388,0.00001,0.0,0.0
26.49,102542.47,0.00001,0.0,0.0
26.512,102209.135,0.00001,0.0,0.0
26.534,102414.909,0.00001,0.0,0.0
26.556,102165.049,0.00001,0.0,0.0
26.579,102414.65,0.00001,0.0,0.0
26.601,102165.813,0.00001,0.0,0.0
26.623,102285.861,0.00001,0.0,0.0
26.646,102079.791,0.00001,0.0,0.0
26.668,102334.931,0.00001,0.0,0.0
26.69,101914.65,0.00001,0.0,0.0
26.713,102196.889,0.00001,0.0,0.0
26.735,101869.912,0.00001,0.0,0.0
26.757,102149.59,0.00001,0.0,0.0
26.78,101918.463,0.00001,0.0,0.0
26.802,101954.708,0.00001,0.0,0.0
26.824,101822.974,0.00001,0.0,0.0
26.846,101916.429,0.00001,0.0,0.0
26.869,101588.676,0.00001,0.0,0.0
26.891,101964.642,0.00001,0.0,0.0
26.913,101472.007,0.00001,0.0,0.0
26.936,101747.574,0.00001,0.0,0.0
26.958,101220.342,0.00001,0.0,0.0
26.98,101708.415,0.00001,0.0,0.0
27.003,101269.874,0.00001,0.0,0.0
27.025,101603.967,0.00001,0.0,0.0
27.047,101289.184,0.00001,0.0,0.0
27.069,101426.694,0.00001,0.0,0.0
27.092,101108.784,0.00001,0.0,0.0
27.114,101316.785,0.00001,0.0,0.0
27.136,101168.4,0.00001,0.0,0.0
27.159,101037.978,0.00001,0.0,0.0
27.181,100969.968,0.00001,0.0,0.0
27.203,101096.075,0.00001,0.0,0.0
27.226,100974.008,0.00001,0.0,0.0
27.248,101042.013,0.00001,0.0,0.0
27.27,100976.142,0.00001,0.0,0.0
27.292,101020.336,0.00001,0.0,0.0
27.315,100895.432,0.00001,0.0,0.0
27.337,100918.173,0.00001,0.0,0.0
27.359,100872.832,0.00001,0.0,0.0
27.382,100842.705,0.00001,0.0,0.0
27.404,100839.521,0.00001,0.0,0.0
27.426,100851.394,0.00001,0.0,0.0
27.449,100871.822,0.00001,0.0,0.0
27.471,100636.047,0.00001,0.0,0.0
27.493,100651.672,0.00001,0.0,0.0
27.515,100568.38,0.00001,0.0,0.0
27.538,100512.757,0.00001,0.0,0.0
27.56,100352.616,0.00001,0.0,0.0
27.582,100346.059,0.00001,0.0,0.0
27.605,100308.586,0.00001,0.0,0.0
27.627,100271.858,0.00001,0.0,0.0
27.649,100236.546,0.00001,0.0,0.0
27.672,100224.113,0.00001,0.0,0.0
27.694,100124.131,0.00001,0.0,0.0
27.716,100060.003,0.00001,0.0,0.0
27.738,99982.78,0.00001,0.0,0.0
27.761,99933.8,0.00001,0.0,0.0
27.783,99836.181,0.00001,0.0,0.0
27.805,99771.409,0.00001,0.0,0.0
27.828,99768.164,0.00001,0.0,0.0
27.85,99707.408,0.00001,0.0,0.0
27.872,99619.278,0.00001,0.0,0.0
27.895,99639.751,0.00001,0.0,0.0
27.917,99265.042,0.00001,0.0,0.0
27.939,99425.591,0.00001,0.0,0.0
27.961,99322.135,0.00001,0.0,0.0
27.984,99187.46,0.00001,0.0,0.0
28.006,99162.367,0.00001,0.0,0.0
28.028,99042.349,0.00001,0.0,0.0
28.051,99193.144,0.00001,0.0,0.0
28.073,98863.684,0.00001,0.0,0.0
28.095,98867.056,0.00001,0.0,0.0
28.117,98704.499,0.00001,0.0,0.0
28.14,98707.217,0.00001,0.0,0.0
28.162,98551.493,0.00001,0.0,0.0
28.184,98582.412,0.00001,0.0,0.0
28.207,98599.907,0.00001,0.0,0.0
28.229,98435.104,0.00001,0.0,0.0
28.251,98488.415,0.00001,0.0,0.0
28.274,98330.5,0.00001,0.0,0.0
28.296,98425.99,0.00001,0.0,0.0
28.318,98241.173,0.00001,0.0,0.0
28.341,98294.945,0.00001,0.0,0.0
28.363,98356.901,0.00001,0.0,0.0
28.385,98277.248,0.00001,0.0,0.0
28.407,98419.642,0.00001,0.0,0.0
28.43,98123.275,0.00001,0.0,0.0
28.452,98262.879,0.00001,0.0,0.0
28.474,98239.648,0.00001,0.0,0.0
28.497,98092.377,0.00001,0.0,0.0
28.519,98260.095,0.00001,0.0,0.0
28.541,98234.073,0.00001,0.0,0.0
28.564,97964.872,0.00001,0.0,0.0
28.586,98205.695,0.00001,0.0,0.0
28.608,97902.867,0.00001,0.0,0.0
28.63,98075.94,0.00001,0.0,0.0
28.653,97744.771,0.00001,0.0,0.0
28.675,97956.042,0.00001,0.0,0.0
28.697,97759.36,0.00001,0.0,0.0
28.72,97978.95,0.00001,0.0,0.0
28.742,97527.722,0.00001,0.0,0.0
28.764,97903.498,0.00001,0.0,0.0
28.787,97321.431,0.00001,0.0,0.0
28.809,97702.274,0.00001,0.0,0.0
28.831,97178.533,0.00001,0.0,0.0
28.853,97636.229,0.00001,0.0,0.0
28.876,97116.29,0.00001,0.0,0.0
28.898,97585.85,0.00001,0.0,0.0
28.92,96930.804,0.00001,0.0,0.0
28.943,97404.341,0.00001,0.0,0.0
28.965,96748.511,0.00001,0.0,0.0
28.987,97563.166,0.00001,0.0,0.0
29.01,96771.836,0.00001,0.0,0.0
29.032,97187.33,0.00001,0.0,0.0
29.054,96849.676,0.00001,0.0,0.0
29.076,97080.885,0.00001,0.0,0.0
29.099,96632.173,0.00001,0.0,0.0
29.121,96808.106,0.00001,0.0,0.0
29.143,96736.378,0.00001,0.0,0.0
29.166,96911.675,0.00001,0.0,0.0
29.188,96426.578,0.00001,0.0,0.0
29.21,96601.036,0.00001,0.0,0.0
29.233,96446.734,0.00001,0.0,0.0
29.255,96417.161,0.00001,0.0,0.0
29.277,96313.011,0.00001,0.0,0.0
29.299,96258.992,0.00001,0.0,0.0
29.322,96237.244,0.00001,0.0,0.0
29.344,96275.305,0.00001,0.0,0.0
29.366,96202.392,0.00001,0.0,0.0
29.389,96088.511,0.00001,0.0,0.0
29.411,96148.3,0.00001,0.0,0.0
29.433,95906.949,0.00001,0.0,0.0
29.456,96083.874,0.00001,0.0,0.0
29.478,95936.823,0.00001,0.0,0.0
29.5,95837.631,0.00001,0.0,0.0
29.522,95648.522,0.00001,0.0,0.0
29.545,95735.665,0.00001,0.0,0.0
29.567,95595.7,0.00001,0.0,0.0
29.589,95682.443,0.00001,0.0,0.0
29.612,95506.15,0.00001,0.0,0.0
29.634,95829.889,0.00001,0.0,0.0
29.656,95316.743,0.00001,0.0,0.0
29.678,95491.659,0.00001,0.0,0.0
29.701,95175.67,0.00001,0.0,0.0
29.723,95539.332,0.00001,0.0,0.0
29.745,95195.081,0.00001,0.0,0.0
29.768,95566.479,0.00001,0.0,0.0
29.79,94928.71,0.00001,0.0,0.0
29.812,95161.847,0.00001,0.0,0.0
29.835,95149.638,0.00001,0.0,0.0
29.857,95008.712,0.00001,0.0,0.0
29.879,94961.492,0.00001,0.0,0.0
29.902,95153.705,0.00001,0.0,0.0
29.924,94864.548,0.00001,0.0,0.0
29.946,94871.52,0.00001,0.0,0.0
29.968,94698.571,0.00001,0.0,0.0
29.991,94704.053,0.00001,0.0,0.0
30.013,94724.364,0.00001,0.0,0.0
30.035,94773.852,0.00001,0.0,0.0
30.058,94648.268,0.00001,0.0,0.0
30.08,94631.389,0.00001,0.0,0.0
30.102,94400.88,0.00001,0.0,0.0
30.125,94368.994,0.00001,0.0,0.0
30.147,94499.506,0.00001,0.0,0.0
30.169,94222.022,0.00001,0.0,0.0
30.191,94478.141,0.00001,0.0,0.0
30.214,94116.764,0.00001,0.0,0.0
30.236,94247.937,0.00001,0.0,0.0
30.258,93789.077,0.00001,0.0,0.0
30.281,94414.251,0.00001,0.0,0.0
30.303,94026.906,0.00001,0.0,0.0
30.325,94298.052,0.00001,0.0,0.0
30.348,93868.938,0.00001,0.0,0.0
30.37,93961.768,0.00001,0.0,0.0
30.392,93694.839,0.00001,0.0,0.0
30.414,94009.481,0.00001,0.0,0.0
30.437,93822.835,0.00001,0.0,0.0
30.459,93779.426,0.00001,0.0,0.0
30.481,93623.115,0.00001,0.0,0.0
30.504,93606.669,0.00001,0.0,0.0
30.526,93603.303,0.00001,0.0,0.0
30.548,93541.887,0.00001,0.0,0.0
30.571,93400.673,0.00001,0.0,0.0
30.593,93376.809,0.00001,0.0,0.0
30.615,93393.321,0.00001,0.0,0.0
30.637,93015.526,0.00001,0.0,0.0
30.66,93399.305,0.00001,0.0,0.0
30.682,93120.431,0.00001,0.0,0.0
30.704,93238.858,0.00001,0.0,0.0
30.727,92908.944,0.00001,0.0,0.0
30.749,93147.937,0.00001,0.0,0.0
30.771,92917.38,0.00001,0.0,0.0
30.794,93103.693,0.00001,0.0,0.0
30.816,92932.853,0.00001,0.0,0.0
30.838,92856.41,0.00001,0.0,0.0
30.86,92937.649,0.00001,0.0,0.0
30.883,92804.185,0.00001,0.0,0.0
30.905,92650.965,0.00001,0.0,0.0
30.927,92844.664,0.00001,0.0,0.0
30.95,92650.634,0.00001,0.0,0.0
30.972,92450.133,0.00001,0.0,0.0
30.994,92541.775,0.00001,0.0,0.0
31.017,92375.541,0.00001,0.0,0.0
31.039,92463.279,0.00001,0.0,0.0
31.061,92192.172,0.00001,0.0,0.0
31.083,92384.686,0.00001,0.0,0.0
31.106,92082.053,0.00001,0.0,0.0
31.128,92289.042,0.00001,0.0,0.0
31.15,92036.292,0.00001,0.0,0.0
31.173,92366.359,0.00001,0.0,0.0
31.195,91911.409,0.00001,0.0,0.0
31.217,92074.753,0.00001,0.0,0.0
31.239,91813.2,0.00001,0.0,0.0
31.262,91854.109,0.00001,0.0,0.0
31.284,91732.643,0.00001,0.0,0.0
31.306,91698.808,0.00001,0.0,0.0
31.329,91740.206,0.00001,0.0,0.0
31.351,91668.253,0.00001,0.0,0.0
31.373,91480.036,0.00001,0.0,0.0
31.396,91332.608,0.00001,0.0,0.0
31.418,91699.32,0.00001,0.0,0.0
31.44,91307.184,0.00001,0.0,0.0
31.463,91585.541,0.00001,0.0,0.0
31.485,91173.601,0.00001,0.0,0.0
31.507,91405.526,0.00001,0.0,0.0
31.529,91248.554,0.00001,0.0,0.0
31.552,91125.11,0.00001,0.0,0.0
31.574,91039.113,0.00001,0.0,0.0
31.596,91043.79,0.00001,0.0,0.0
31.619,90923.837,0.00001,0.0,0.0
31.641,90997.14,0.00001,0.0,0.0
31.663,91062.613,0.00001,0.0,0.0
31.686,90707.031,0.00001,0.0,0.0
31.708,90696.182,0.00001,0.0,0.0
31.73,90662.97,0.00001,0.0,0.0
31.752,90866.914,0.00001,0.0,0.0
31.775,90495.89,0.00001,0.0,0.0
31.797,90601.487,0.00001,0.0,0.0
31.819,90411.053,0.00001,0.0,0.0
31.842,90532.252,0.00001,0.0,0.0
31.864,90265.872,0.00001,0.0,0.0
31.886,90400.056,0.00001,0.0,0.0
31.909,90180.324,0.00001,0.0,0.0
31.931,89989.786,0.00001,0.0,0.0
31.953,90369.646,0.00001,0.0,0.0
31.975,90195.157,0.00001,0.0,0.0
31.998,90192.413,0.00001,0.0,0.0
32.02,89804.823,0.00001,0.0,0.0
32.042,90120.468,0.00001,0.0,0.0
32.065,90028.251,0.00001,0.0,0.0
32.087,89993.155,0.00001,0.0,0.0
32.109,89868.418,0.00001,0.0,0.0
32.132,89852.329,0.00001,0.0,0.0
32.154,89697.353,0.00001,0.0,0.0
32.176,89701.701,0.00001,0.0,0.0
32.198,89866.708,0.00001,0.0,0.0
32.221,89400.506,0.00001,0.0,0.0
32.243,89695.416,0.00001,0.0,0.0
32.265,89387.165,0.00001,0.0,0.0
32.288,89768.763,0.00001,0.0,0.0
32.31,89454.24,0.00001,0.0,0.0
32.332,89580.419,0.00001,0.0,0.0
32.355,89410.737,0.00001,0.0,0.0
32.377,89640.472,0.00001,0.0,0.0
32.399,89351.344,0.00001,0.0,0.0
32.421,89169.976,0.00001,0.0,0.0
32.444,89284.034,0.00001,0.0,0.0
32.466,89079.985,0.00001,0.0,0.0
32.488,89219.701,0.00001,0.0,0.0
32.511,88997.689,0.00001,0.0,0.0
32.533,89064.041,0.00001,0.0,0.0
32.555,88919.614,0.00001,0.0,0.0
32.578,89065.587,0.00001,0.0,0.0
32.6,88831.284,0.00001,0.0,0.0
32.622,88625.4,0.00001,0.0,0.0
32.644,89056.181,0.00001,0.0,0.0
32.667,88526.615,0.00001,0.0,0.0
32.689,88815.186,0.00001,0.0,0.0
32.711,88400.472,0.00001,0.0,0.0
32.734,88853.338,0.00001,0.0,0.0
32.756,88438.186,0.00001,0.0,0.0
32.778,88477.65,0.00001,0.0,0.0
32.8,88356.033,0.00001,0.0,0.0
32.823,88360.894,0.00001,0.0,0.0
32.845,88456.442,0.00001,0.0,0.0
32.867,88369.518,0.00001,0.0,0.0
32.89,88535.601,0.00001,0.0,0.0
32.912,88232.659,0.00001,0.0,0.0
32.934,88730.329,0.00001,0.0,0.0
32.957,88369.368,0.00001,0.0,0.0
32.979,88318.487,0.00001,0.0,0.0
33.001,88105.726,0.00001,0.0,0.0
33.023,88280.497,0.00001,0.0,0.0
33.046,88067.359,0.00001,0.0,0.0
33.068,87855.574,0.00001,0.0,0.0
33.09,88032.53,0.00001,0.0,0.0
33.113,87943.967,0.00001,0.0,0.0
33.135,88073.629,0.00001,0.0,0.0
33.157,87672.229,0.00001,0.0,0.0
33.18,87799.144,0.00001,0.0,0.0
33.202,87718.333,0.00001,0.0,0.0
33.224,87604.797,0.00001,0.0,0.0
33.246,87727.868,0.00001,0.0,0.0
33.269,87309.436,0.00001,0.0,0.0
33.291,87570.758,0.00001,0.0,0.0
33.313,87265.897,0.00001,0.0,0.0
33.336,87593.754,0.00001,0.0,0.0
33.358,87212.914,0.00001,0.0,0.0
33.38,87288.55,0.00001,0.0,0.0
33.403,87069.062,0.00001,0.0,0.0
33.425,87198.779,0.00001,0.0,0.0
33.447,87170.458,0.00001,0.0,0.0
33.469,87001.88,0.00001,0.0,0.0
33.492,87115.848,0.00001,0.0,0.0
33.514,86847.9,0.00001,0.0,0.0
33.536,87208.197,0.00001,0.0,0.0
33.559,86791.472,0.00001,0.0,0.0
33.581,86939.631,0.00001,0.0,0.0
33.603,86805.516,0.00001,0.0,0.0
33.626,86617.621,0.00001,0.0,0.0
33.648,86985.93,0.00001,0.0,0.0
33.67,86518.486,0.00001,0.0,0.0
33.692,86755.608,0.00001,0.0,0.0
33.715,86554.691,0.00001,0.0,0.0
33.737,86846.558,0.00001,0.0,0.0
33.759,86572.022,0.00001,0.0,0.0
33.782,86505.482,0.00001,0.0,0.0
33.804,86545.119,0.00001,0.0,0.0
33.826,86288.983,0.00001,0.0,0.0
33.849,86601.842,0.00001,0.0,0.0
33.871,86469.507,0.00001,0.0,0.0
33.893,86359.071,0.00001,0.0,0.0
33.915,86207.01,0.00001,0.0,0.0
33.938,86313.67,0.00001,0.0,0.0
33.96,86242.787,0.00001,0.0,0.0
33.982,86105.208,0.00001,0.0,0.0
34.005,86281.307,0.00001,0.0,0.0
34.027,86026.57,0.00001,0.0,0.0
34.049,86086.026,0.00001,0.0,0.0
34.072,86044.119,0.00001,0.0,0.0
34.094,85922.139,0.00001,0.0,0.0
34.116,86056.575,0.00001,0.0,0.0
34.139,85779.292,0.00001,0.0,0.0
34.161,86119.688,0.00001,0.0,0.0
34.183,85924.057,0.00001,0.0,0.0
34.205,86029.747,0.00001,0.0,0.0
34.228,85661.864,0.00001,0.0,0.0
34.25,86079.379,0.00001,0.0,0.0
34.272,85779.212,0.00001,0.0,0.0
34.295,85452.903,0.00001,0.0,0.0
34.317,85866.832,0.00001,0.0,0.0
34.339,85503.765,0.00001,0.0,0.0
34.361,85624.323,0.00001,0.0,0.0
34.384,85506.571,0.00001,0.0,0.0
34.406,85516.54,0.00001,0.0,0.0
34.428,85633.663,0.00001,0.0,0.0
34.451,85342.097,0.00001,0.0,0.0
34.473,85691.531,0.00001,0.0,0.0
34.495,85313.049,0.00001,0.0,0.0
34.518,85482.913,0.00001,0.0,0.0
34.54,85228.382,0.00001,0.0,0.0
34.562,85243.895,0.00001,0.0,0.0
34.584,85362.639,0.00001,0.0,0.0
34.607,84910.683,0.00001,0.0,0.0
34.629,85388.563,0.00001,0.0,0.0
34.651,85083.15,0.00001,0.0,0.0
34.674,85153.591,0.00001,0.0,0.0
34.696,85104.715,0.00001,0.0,0.0
34.718,84989.36,0.00001,0.0,0.0
34.741,85073.53,0.00001,0.0,0.0
34.763,84706.885,0.00001,0.0,0.0
34.785,85152.799,0.00001,0.0,0.0
34.807,84884.034,0.00001,0.0,0.0
34.83,84679.651,0.00001,0.0,0.0
34.852,85056.784,0.00001,0.0,0.0
34.874,84591.975,0.00001,0.0,0.0
34.897,84822.605,0.00001,0.0,0.0
34.919,84650.241,0.00001,0.0,0.0
34.941,84985.823,0.00001,0.0,0.0
34.964,84445.873,0.00001,0.0,0.0
34.986,84362.377,0.00001,0.0,0.0
35.008,84861.624,0.00001,0.0,0.0
35.03,84234.505,0.00001,0.0,0.0
35.053,84720.678,0.00001,0.0,0.0
35.075,84408.967,0.00001,0.0,0.0
35.097,84527.883,0.00001,0.0,0.0
35.12,84351.765,0.00001,0.0,0.0
35.142,84373.043,0.00001,0.0,0.0
35.164,84473.654,0.00001,0.0,0.0
35.187,84029.486,0.00001,0.0,0.0
35.209,84286.829,0.00001,0.0,0.0
35.231,84132.025,0.00001,0.0,0.0
35.253,83982.002,0.00001,0.0,0.0
35.276,84160.621,0.00001,0.0,0.0
35.298,83712.799,0.00001,0.0,0.0
35.32,84187.086,0.00001,0.0,0.0
35.343,83798.313,0.00001,0.0,0.0
35.365,83878.23,0.00001,0.0,0.0
35.387,83913.302,0.00001,0.0,0.0
35.41,83602.548,0.00001,0.0,0.0
35.432,84094.137,0.00001,0.0,0.0
35.454,83570.75,0.00001,0.0,0.0
35.476,83543.764,0.00001,0.0,0.0
35.499,83818.794,0.00001,0.0,0.0
35.521,83463.451,0.00001,0.0,0.0
35.543,83642.554,0.00001,0.0,0.0
35.566,83437.477,0.00001,0.0,0.0
35.588,83664.417,0.00001,0.0,0.0
35.61,83423.871,0.00001,0.0,0.0
35.633,83349.177,0.00001,0.0,0.0
35.655,83521.711,0.00001,0.0,0.0
35.677,82976.248,0.00001,0.0,0.0
35.7,83635.581,0.00001,0.0,0.0
35.722,83142.965,0.00001,0.0,0.0
35.744,83106.057,0.00001,0.0,0.0
35.766,83393.229,0.00001,0.0,0.0
35.789,82794.473,0.00001,0.0,0.0
35.811,83073.63,0.00001,0.0,0.0
35.833,83042.462,0.00001,0.0,0.0
35.856,82903.714,0.00001,0.0,0.0
35.878,82965.29,0.00001,0.0,0.0
35.9,82674.636,0.00001,0.0,0.0
35.922,83134.56,0.00001,0.0,0.0
35.945,82687.18,0.00001,0.0,0.0
35.967,82780.89,0.00001,0.0,0.0
35.989,82752.911,0.00001,0.0,0.0
36.012,82502.325,0.00001,0.0,0.0
36.034,82943.954,0.00001,0.0,0.0
36.056,82468.325,0.00001,0.0,0.0
36.079,82595.816,0.00001,0.0,0.0
36.101,82742.511,0.00001,0.0,0.0
36.123,82366.226,0.00001,0.0,0.0
36.145,82779.568,0.00001,0.0,0.0
36.168,82446.574,0.00001,0.0,0.0
36.19,82236.443,0.00001,0.0,0.0
36.212,82393.252,0.00001,0.0,0.0
36.235,82065.615,0.00001,0.0,0.0
36.257,82471.463,0.00001,0.0,0.0
36.279,82191.992,0.00001,0.0,0.0
36.302,82214.493,0.00001,0.0,0.0
36.324,82313.73,0.00001,0.0,0.0
36.346,82032.144,0.00001,0.0,0.0
36.368,82287.328,0.00001,0.0,0.0
36.391,81930.536,0.00001,0.0,0.0
36.413,81936.239,0.00001,0.0,0.0
36.435,82177.89,0.00001,0.0,0.0
36.458,81754.264,0.00001,0.0,0.0
36.48,82171.54,0.00001,0.0,0.0
36.502,81735.226,0.00001,0.0,0.0
36.525,81750.17,0.00001,0.0,0.0
36.547,81949.333,0.00001,0.0,0.0
36.569,81534.154,0.00001,0.0,0.0
36.591,81854.67,0.00001,0.0,0.0
36.614,81757.004,0.00001,0.0,0.0
36.636,81470.192,0.00001,0.0,0.0
36.658,81752.733,0.00001,0.0,0.0
36.681,81304.004,0.00001,0.0,0.0
36.703,81685.935,0.00001,0.0,0.0
36.725,81511.562,0.00001,0.0,0.0
36.748,81453.141,0.00001,0.0,0.0
36.77,81733.503,0.00001,0.0,0.0
36.792,81186.696,0.00001,0.0,0.0
36.814,81316.364,0.00001,0.0,0.0
36.837,81323.803,0.00001,0.0,0.0
36.859,81119.114,0.00001,0.0,0.0
36.881,81423.679,0.00001,0.0,0.0
36.904,80998.841,0.00001,0.0,0.0
36.926,81191.694,0.00001,0.0,0.0
36.948,81271.624,0.00001,0.0,0.0
36.971,80892.976,0.00001,0.0,0.0
36.993,81165.086,0.00001,0.0,0.0
37.015,80838.977,0.00001,0.0,0.0
37.037,80766.484,0.00001,0.0,0.0
37.06,81163.242,0.00001,0.0,0.0
37.082,80741.275,0.00001,0.0,0.0
37.104,80990.049,0.00001,0.0,0.0
37.127,80858.042,0.00001,0.0,0.0
37.149,80481.121,0.00001,0.0,0.0
37.171,81015.287,0.00001,0.0,0.0
37.194,80437.139,0.00001,0.0,0.0
37.216,80600.681,0.00001,0.0,0.0
37.238,80791.361,0.00001,0.0,0.0
37.261,80419.145,0.00001,0.0,0.0
37.283,80927.386,0.00001,0.0,0.0
37.305,80759.666,0.00001,0.0,0.0
37.327,80446.589,0.00001,0.0,0.0
37.35,80956.441,0.00001,0.0,0.0
37.372,80372.575,0.00001,0.0,0.0
37.394,80414.881,0.00001,0.0,0.0
37.417,80311.622,0.00001,0.0,0.0
37.439,80096.771,0.00001,0.0,0.0
37.461,80481.443,0.00001,0.0,0.0
37.483,80020.598,0.00001,0.0,0.0
37.506,80050.103,0.00001,0.0,0.0
37.528,80347.069,0.00001,0.0,0.0
37.55,79873.026,0.00001,0.0,0.0
37.573,80177.095,0.00001,0.0,0.0
37.595,80079.606,0.00001,0.0,0.0
37.617,79702.503,0.00001,0.0,0.0
37.64,80232.784,0.00001,0.0,0.0
37.662,79706.343,0.00001,0.0,0.0
37.684,79706.449,0.00001,0.0,0.0
37.706,79839.344,0.00001,0.0,0.0
37.729,79511.2,0.00001,0.0,0.0
37.751,79773.662,0.00001,0.0,0.0
37.773,79562.392,0.00001,0.0,0.0
37.796,79417.876,0.00001,0.0,0.0
37.818,79657.94,0.00001,0.0,0.0
37.84,79380.444,0.00001,0.0,0.0
37.863,79355.174,0.00001,0.0,0.0
37.885,79397.487,0.00001,0.0,0.0
37.907,79088.23,0.00001,0.0,0.0
37.929,79300.506,0.00001,0.0,0.0
37.952,79305.055,0.00001,0.0,0.0
37.974,78959.261,0.00001,0.0,0.0
37.996,79151.889,0.00001,0.0,0.0
38.019,79069.997,0.00001,0.0,0.0
38.041,78816.409,0.00001,0.0,0.0
38.063,79138.982,0.00001,0.0,0.0
38.086,78853.372,0.00001,0.0,0.0
38.108,78963.442,0.00001,0.0,0.0
38.13,78885.303,0.00001,0.0,0.0
38.152,78601.913,0.00001,0.0,0.0
38.175,78884.858,0.00001,0.0,0.0
38.197,78719.462,0.00001,0.0,0.0
38.219,78423.218,0.00001,0.0,0.0
38.242,78861.625,0.00001,0.0,0.0
38.264,78483.12,0.00001,0.0,0.0
38.286,78448.942,0.00001,0.0,0.0
38.309,78766.241,0.00001,0.0,0.0
38.331,78179.437,0.00001,0.0,0.0
38.353,78545.247,0.00001,0.0,0.0
38.375,78483.371,0.00001,0.0,0.0
38.398,78170.781,0.00001,0.0,0.0
38.42,78458.273,0.00001,0.0,0.0
38.442,78347.885,0.00001,0.0,0.0
38.465,78306.792,0.00001,0.0,0.0
38.487,78387.636,0.00001,0.0,0.0
38.509,78223.797,0.00001,0.0,0.0
38.532,78121.942,0.00001,0.0,0.0
38.554,78300.794,0.00001,0.0,0.0
38.576,77984.035,0.00001,0.0,0.0
38.598,78172.879,0.00001,0.0,0.0
38.621,78286.972,0.00001,0.0,0.0
38.643,77685.6,0.00001,0.0,0.0
38.665,78087.51,0.00001,0.0,0.0
38.688,77871.595,0.00001,0.0,0.0
38.71,77677.339,0.00001,0.0,0.0
38.732,77942.064,0.00001,0.0,0.0
38.755,77891.092,0.00001,0.0,0.0
38.777,77624.713,0.00001,0.0,0.0
38.799,77827.63,0.00001,0.0,0.0
38.822,77652.688,0.00001,0.0,0.0
38.844,77381.817,0.00001,0.0,0.0
38.866,77888.078,0.00001,0.0,0.0
38.888,77303.404,0.00001,0.0,0.0
38.911,77468.61,0.00001,0.0,0.0
38.933,77603.26,0.00001,0.0,0.0
38.955,77176.599,0.00001,0.0,0.0
38.978,77443.917,0.00001,0.0,0.0
39.0,77351.812,0.00001,0.0,0.0
39.022,77014.624,0.00001,0.0,0.0
39.044,77357.836,0.00001,0.0,0.0
39.067,77281.161,0.00001,0.0,0.0
39.089,77016.904,0.00001,0.0,0.0
39.111,77253.532,0.00001,0.0,0.0
39.134,77195.002,0.00001,0.0,0.0
39.156,76939.445,0.00001,0.0,0.0
39.178,77154.711,0.00001,0.0,0.0
39.201,76953.131,0.00001,0.0,0.0
39.223,76927.806,0.00001,0.0,0.0
39.245,76966.167,0.00001,0.0,0.0
39.267,76672.278,0.00001,0.0,0.0
39.29,76690.967,0.00001,0.0,0.0
39.312,76913.764,0.00001,0.0,0.0
39.334,76504.536,0.00001,0.0,0.0
39.357,76646.188,0.00001,0.0,0.0
39.379,76899.593,0.00001,0.0,0.0
39.401,76372.396,0.00001,0.0,0.0
39.424,76607.563,0.00001,0.0,0.0
39.446,76621.954,0.00001,0.0,0.0
39.468,76378.074,0.00001,0.0,0.0
39.49,76572.51,0.00001,0.0,0.0
39.513,76622.432,0.00001,0.0,0.0
39.535,76136.96,0.00001,0.0,0.0
39.557,76374.496,0.00001,0.0,0.0
39.58,76399.034,0.00001,0.0,0.0
39.602,76154.547,0.00001,0.0,0.0
39.624,76255.094,0.00001,0.0,0.0
39.647,76457.87,0.00001,0.0,0.0
39.669,75956.738,0.00001,0.0,0.0
39.691,76221.301,0.00001,0.0,0.0
39.713,76184.287,0.00001,0.0,0.0
39.736,76004.575,0.00001,0.0,0.0
39.758,76135.124,0.00001,0.0,0.0
39.78,76261.753,0.00001,0.0,0.0
39.803,75822.69,0.00001,0.0,0.0
39.825,75799.64,0.00001,0.0,0.0
39.847,75766.3,0.00001,0.0,0.0
39.87,75641.449,0.00001,0.0,0.0
39.892,75226.309,0.00001,0.0,0.0
39.914,75252.137,0.00001,0.0,0.0
39.936,75077.697,0.00001,0.0,0.0
39.959,74799.46,0.00001,0.0,0.0
39.981,74781.57,0.00001,0.0,0.0
40.003,74583.636,0.00001,0.0,0.0
40.026,74342.023,0.00001,0.0,0.0
40.048,74298.023,0.00001,0.0,0.0
40.07,74458.869,0.00001,0.0,0.0
40.093,74074.536,0.00001,0.0,0.0
40.115,74178.851,0.00001,0.0,0.0
40.137,74108.28,0.00001,0.0,0.0
40.16,73894.067,0.00001,0.0,0.0
40.182,73793.539,0.00001,0.0,0.0
40.204,73885.019,0.00001,0.0,0.0
40.226,73602.463,0.00001,0.0,0.0
40.249,73691.633,0.00001,0.0,0.0
40.271,73674.091,0.00001,0.0,0.0
40.293,73412.4,0.00001,0.0,0.0
40.316,73386.367,0.00001,0.0,0.0
40.338,73449.681,0.00001,0.0,0.0
40.36,73099.588,0.00001,0.0,0.0
40.383,73133.335,0.00001,0.0,0.0
40.405,72964.078,0.00001,0.0,0.0
40.427,73138.782,0.00001,0.0,0.0
40.449,73010.981,0.00001,0.0,0.0
40.472,72804.161,0.00001,0.0,0.0
40.494,72889.056,0.00001,0.0,0.0
40.516,72674.846,0.00001,0.0,0.0
40.539,72518.469,0.00001,0.0,0.0
40.561,72840.652,0.00001,0.0,0.0
40.583,72614.742,0.00001,0.0,0.0
40.605,72576.396,0.00001,0.0,0.0
40.628,72712.609,0.00001,0.0,0.0
40.65,72215.97,0.00001,0.0,0.0
40.672,72315.045,0.00001,0.0,0.0
40.695,72584.733,0.00001,0.0,0.0
40.717,72274.647,0.00001,0.0,0.0
40.739,72118.579,0.00001,0.0,0.0
40.762,72415.15,0.00001,0.0,0.0
40.784,72054.591,0.00001,0.0,0.0
40.806,72088.24,0.00001,0.0,0.0
40.828,71933.05,0.00001,0.0,0.0
40.851,72139.65,0.00001,0.0,0.0
40.873,71911.985,0.00001,0.0,0.0
40.895,71523.162,0.00001,0.0,0.0
40.918,72124.11,0.00001,0.0,0.0
40.94,71768.759,0.00001,0.0,0.0
40.962,71420.396,0.00001,0.0,0.0
40.985,71958.8,0.00001,0.0,0.0
41.007,71632.784,0.00001,0.0,0.0
41.029,71262.603,0.00001,0.0,0.0
41.051,72072.806,0.00001,0.0,0.0
41.074,71312.645,0.00001,0.0,0.0
41.096,71429.649,0.00001,0.0,0.0
41.118,71358.623,0.00001,0.0,0.0
41.141,71759.92,0.00001,0.0,0.0
41.163,71244.966,0.00001,0.0,0.0
41.185,71252.451,0.00001,0.0,0.0
41.208,71536.46,0.00001,0.0,0.0
41.23,71190.514,0.00001,0.0,0.0
41.252,71093.992,0.00001,0.0,0.0
41.274,71640.144,0.00001,0.0,0.0
41.297,71049.842,0.00001,0.0,0.0
41.319,70799.854,0.00001,0.0,0.0
41.341,71338.353,0.00001,0.0,0.0
41.364,71225.206,0.00001,0.0,0.0
41.386,71023.012,0.00001,0.0,0.0
41.408,70851.097,0.00001,0.0,0.0
41.431,71316.012,0.00001,0.0,0.0
41.453,70819.556,0.00001,0.0,0.0
41.475,70738.071,0.00001,0.0,0.0
41.497,71354.578,0.00001,0.0,0.0
41.52,70639.677,0.00001,0.0,0.0
41.542,70708.731,0.00001,0.0,0.0
41.564,70846.235,0.00001,0.0,0.0
41.587,71183.68,0.00001,0.0,0.0
41.609,70400.369,0.00001,0.0,0.0
41.631,70634.081,0.00001,0.0,0.0
41.654,71052.354,0.00001,0.0,0.0
41.676,70533.409,0.00001,0.0,0.0
41.698,70486.974,0.00001,0.0,0.0
41.721,70634.447,0.00001,0.0,0.0
41.743,70862.555,0.00001,0.0,0.0
41.765,70140.674,0.00001,0.0,0.0
41.787,70632.79,0.00001,0.0,0.0
41.81,70846.332,0.00001,0.0,0.0
41.832,70234.207,0.00001,0.0,0.0
41.854,70355.353,0.00001,0.0,0.0
41.877,70370.229,0.00001,0.0,0.0
41.899,70526.16,0.00001,0.0,0.0
41.921,69971.735,0.00001,0.0,0.0
41.944,70294.995,0.00001,0.0,0.0
41.966,70550.325,0.00001,0.0,0.0
41.988,69894.894,0.00001,0.0,0.0
42.01,70109.034,0.00001,0.0,0.0
42.033,70334.769,0.00001,0.0,0.0
42.055,70221.83,0.00001,0.0,0.0
42.077,69781.646,0.00001,0.0,0.0
42.1,70014.75,0.00001,0.0,0.0
42.122,70349.495,0.00001,0.0,0.0
42.144,69527.803,0.00001,0.0,0.0
42.166,69962.341,0.00001,0.0,0.0
42.189,70082.819,0.00001,0.0,0.0
42.211,70018.743,0.00001,0.0,0.0
42.233,69544.183,0.00001,0.0,0.0
42.256,69828.88,0.00001,0.0,0.0
42.278,70199.477,0.00001,0.0,0.0
42.3,69469.01,0.00001,0.0,0.0
42.323,69551.548,0.00001,0.0,0.0
42.345,69796.787,0.00001,0.0,0.0
42.367,69814.104,0.00001,0.0,0.0
42.389,69298.294,0.00001,0.0,0.0
42.412,69666.13,0.00001,0.0,0.0
42.434,69805.334,0.00001,0.0,0.0
42.456,69422.561,0.00001,0.0,0.0
42.479,69201.565,0.00001,0.0,0.0
42.501,69515.792,0.00001,0.0,0.0
42.523,69762.449,0.00001,0.0,0.0
42.546,68895.901,0.00001,0.0,0.0
42.568,69327.921,0.00001,0.0,0.0
42.59,69470.389,0.00001,0.0,0.0
42.612,69564.755,0.00001,0.0,0.0
42.635,68895.565,0.00001,0.0,0.0
42.657,69352.431,0.00001,0.0,0.0
42.679,69319.583,0.00001,0.0,0.0
42.702,69164.301,0.00001,0.0,0.0
42.724,69056.458,0.00001,0.0,0.0
42.746,69034.007,0.00001,0.0,0.0
42.769,69433.434,0.00001,0.0,0.0
42.791,68653.691,0.00001,0.0,0.0
42.813,69101.394,0.00001,0.0,0.0
42.835,68936.171,0.00001,0.0,0.0
42.858,69268.774,0.00001,0.0,0.0
42.88,68598.48,0.00001,0.0,0.0
42.902,68882.549,0.00001,0.0,0.0
42.925,68942.967,0.00001,0.0,0.0
42.947,68861.879,0.00001,0.0,0.0
42.969,68671.781,0.00001,0.0,0.0
42.992,68834.094,0.00001,0.0,0.0
43.014,68847.223,0.00001,0.0,0.0
43.036,68869.567,0.00001,0.0,0.0
43.058,68506.995,0.00001,0.0,0.0
43.081,68471.154,0.00001,0.0,0.0
43.103,68858.928,0.00001,0.0,0.0
43.125,68402.317,0.00001,0.0,0.0
43.148,68329.796,0.00001,0.0,0.0
43.17,68555.209,0.00001,0.0,0.0
43.192,68719.295,0.00001,0.0,0.0
43.215,68225.919,0.00001,0.0,0.0
43.237,68239.714,0.00001,0.0,0.0
43.259,68242.888,0.00001,0.0,0.0
43.282,68671.359,0.00001,0.0,0.0
43.304,68095.96,0.00001,0.0,0.0
43.326,68019.065,0.00001,0.0,0.0
43.348,68364.788,0.00001,0.0,0.0
43.371,68634.456,0.00001,0.0,0.0
43.393,67894.955,0.00001,0.0,0.0
43.415,67997.31,0.00001,0.0,0.0
43.438,68231.383,0.00001,0.0,0.0
43.46,68045.88,0.00001,0.0,0.0
43.482,67982.763,0.00001,0.0,0.0
43.505,67957.916,0.00001,0.0,0.0
43.527,67855.739,0.00001,0.0,0.0
43.549,68115.116,0.00001,0.0,0.0
43.571,68121.159,0.00001,0.0,0.0
43.594,67763.629,0.00001,0.0,0.0
43.616,68056.734,0.00001,0.0,0.0
43.638,67841.631,0.00001,0.0,0.0
43.661,67872.804,0.00001,0.0,0.0
43.683,67687.659,0.00001,0.0,0.0
43.705,67896.154,0.00001,0.0,0.0
43.727,67876.313,0.00001,0.0,0.0
43.75,67763.37,0.00001,0.0,0.0
43.772,67593.594,0.00001,0.0,0.0
43.794,67929.16,0.00001,0.0,0.0
43.817,67405.926,0.00001,0.0,0.0
43.839,67810.201,0.00001,0.0,0.0
43.861,67497.004,0.00001,0.0,0.0
43.884,67367.025,0.00001,0.0,0.0
43.906,67537.664,0.00001,0.0,0.0
43.928,67578.539,0.00001,0.0,0.0
43.95,67434.804,0.00001,0.0,0.0
43.973,67289.899,0.00001,0.0,0.0
43.995,67402.997,0.00001,0.0,0.0
44.017,67545.212,0.00001,0.0,0.0
44.04,67013.457,0.00001,0.0,0.0
44.062,67379.663,0.00001,0.0,0.0
44.084,67250.381,0.00001,0.0,0.0
44.107,67330.93,0.00001,0.0,0.0
44.129,67081.826,0.00001,0.0,0.0
44.151,67149.708,0.00001,0.0,0.0
44.173,67182.297,0.00001,0.0,0.0
44.196,67106.4,0.00001,0.0,0.0
44.218,67223.33,0.00001,0.0,0.0
44.24,67031.611,0.00001,0.0,0.0
44.263,66944.943,0.00001,0.0,0.0
44.285,66886.537,0.00001,0.0,0.0
44.307,67023.891,0.00001,0.0,0.0
44.33,66852.683,0.00001,0.0,0.0
44.352,66907.459,0.00001,0.0,0.0
44.374,66687.94,0.00001,0.0,0.0
44.396,67083.484,0.00001,0.0,0.0
44.419,66862.647,0.00001,0.0,0.0
44.441,66700.185,0.00001,0.0,0.0
44.463,66641.734,0.00002,0.0,0.0
44.486,66879.008,0.00001,0.0,0.0
44.508,66918.258,0.00001,0.0,0.0
44.53,66658.404,0.00002,0.0,0.0
44.553,66427.312,0.00002,0.0,0.0
44.575,66587.896,0.00002,0.0,0.0
44.597,66612.331,0.00002,0.0,0.0
44.619,66536.052,0.00002,0.0,0.0
44.642,66293.755,0.00002,0.0,0.0
44.664,66304.898,0.00002,0.0,0.0
44.686,66500.696,0.00002,0.0,0.0
44.709,66668.812,0.00001,0.0,0.0
44.731,66205.786,0.00002,0.0,0.0
44.753,66150.449,0.00002,0.0,0.0
44.776,66181.92,0.00002,0.0,0.0
44.798,66404.228,0.00002,0.0,0.0
44.82,66447.959,0.00002,0.0,0.0
44.843,66026.463,0.00002,0.0,0.0
44.865,66185.806,0.00002,0.0,0.0
44.887,66140.835,0.00002,0.0,0.0
44.909,66313.425,0.00002,0.0,0.0
44.932,66159.518,0.00002,0.0,0.0
44.954,65922.852,0.00002,0.0,0.0
44.976,65958.09,0.00002,0.0,0.0
44.999,66042.631,0.00002,0.0,0.0
45.021,66065.058,0.00002,0.0,0.0
45.043,65863.891,0.00002,0.0,0.0
45.066,65641.253,0.00002,0.0,0.0
45.088,65897.321,0.00002,0.0,0.0
45.11,65759.014,0.00002,0.0,0.0
45.132,65955.544,0.00002,0.0,0.0
45.155,65587.805,0.00002,0.0,0.0
45.177,65492.404,0.00002,0.0,0.0
45.199,65408.769,0.00002,0.0,0.0
45.222,65529.976,0.00002,0.0,0.0
45.244,65517.925,0.00002,0.0,0.0
45.266,65263.636,0.00002,0.0,0.0
45.288,65121.236,0.00002,0.0,0.0
45.311,65056.858,0.00002,0.0,0.0
45.333,65107.398,0.00002,0.0,0.0
45.355,65185.875,0.00002,0.0,0.0
45.378,64507.02,0.00002,0.0,0.0
