x,y_obs,weight,y_calc,y_bkg,Q
0.1,355.832,0.00281,0,0,0.093
0.104,410.349,0.00244,0,0,0.098
0.109,416.577,0.0024,0,0,0.102
0.113,476.838,0.0021,0,0,0.106
0.118,396.017,0.00253,0,0,0.11
0.122,470.882,0.00212,0,0,0.114
0.126,343.919,0.00291,0,0,0.118
0.131,413.719,0.00242,0,0,0.122
0.135,388.398,0.00257,0,0,0.126
0.14,474.232,0.00211,0,0,0.131
0.144,403.469,0.00248,0,0,0.135
0.148,364.155,0.00275,0,0,0.139
0.153,462.863,0.00216,0,0,0.143
0.157,565.049,0.00177,0,0,0.147
0.162,439.97,0.00227,0,0,0.151
0.166,458.828,0.00218,0,0,0.155
0.17,509.545,0.00196,0,0,0.159
0.175,559.799,0.00179,0,0,0.163
0.179,518.582,0.00193,0,0,0.168
0.184,510.452,0.00196,0,0,0.172
0.188,612.918,0.00163,0,0,0.176
0.192,566.709,0.00176,0,0,0.18
0.197,525.265,0.0019,0,0,0.184
0.201,466.533,0.00214,0,0,0.188
0.206,578.455,0.00173,0,0,0.192
0.21,516.493,0.00194,0,0,0.196
0.214,416.507,0.0024,0,0,0.2
0.219,467.878,0.00214,0,0,0.205
0.223,519.219,0.00193,0,0,0.209
0.228,453.881,0.0022,0,0,0.213
0.232,483.993,0.00207,0,0,0.217
0.236,523.722,0.00191,0,0,0.221
0.241,406.817,0.00246,0,0,0.225
0.245,564.541,0.00177,0,0,0.229
0.25,574.734,0.00174,0,0,0.233
0.254,505.892,0.00198,0,0,0.237
0.258,384.216,0.0026,0,0,0.242
0.263,488.504,0.00205,0,0,0.246
0.267,495.036,0.00202,0,0,0.25
0.272,507.974,0.00197,0,0,0.254
0.276,536.036,0.00187,0,0,0.258
0.28,460.801,0.00217,0,0,0.262
0.285,490.54,0.00204,0,0,0.266
0.289,566.081,0.00177,0,0,0.27
0.294,531.464,0.00188,0,0,0.274
0.298,533.047,0.00188,0,0,0.279
0.302,565.411,0.00177,0,0,0.283
0.307,500.326,0.002,0,0,0.287
0.311,531.166,0.00188,0,0,0.291
0.316,502.646,0.00199,0,0,0.295
0.32,529.625,0.00189,0,0,0.299
0.324,477.141,0.0021,0,0,0.303
0.329,461.473,0.00217,0,0,0.307
0.333,469.538,0.00213,0,0,0.312
0.338,540.186,0.00185,0,0,0.316
0.342,536.234,0.00186,0,0,0.32
0.346,484.029,0.00207,0,0,0.324
0.351,459.805,0.00217,0,0,0.328
0.355,452.741,0.00221,0,0,0.332
0.36,505.34,0.00198,0,0,0.336
0.364,510.58,0.00196,0,0,0.34
0.368,585.15,0.00171,0,0,0.344
0.373,506.587,0.00197,0,0,0.349
0.377,498.939,0.002,0,0,0.353
0.382,489.299,0.00204,0,0,0.357
0.386,504.538,0.00198,0,0,0.361
0.39,454.705,0.0022,0,0,0.365
0.395,517.596,0.00193,0,0,0.369
0.399,466.449,0.00214,0,0,0.373
0.404,557.685,0.00179,0,0,0.377
0.408,549.035,0.00182,0,0,0.381
0.412,558.902,0.00179,0,0,0.386
0.417,509.915,0.00196,0,0,0.39
0.421,446.999,0.00224,0,0,0.394
0.426,522.458,0.00191,0,0,0.398
0.43,551.352,0.00181,0,0,0.402
0.434,530.072,0.00189,0,0,0.406
0.439,452.902,0.00221,0,0,0.41
0.443,525.973,0.0019,0,0,0.414
0.448,525.124,0.0019,0,0,0.418
0.452,441.706,0.00226,0,0,0.423
0.456,585.506,0.00171,0,0,0.427
0.461,522.626,0.00191,0,0,0.431
0.465,514.92,0.00194,0,0,0.435
0.47,567.292,0.00176,0,0,0.439
0.474,481.323,0.00208,0,0,0.443
0.478,525.558,0.0019,0,0,0.447
0.483,565.352,0.00177,0,0,0.451
0.487,550.914,0.00182,0,0,0.455
0.492,432.667,0.00231,0,0,0.46
0.496,535.357,0.00187,0,0,0.464
0.5,549.524,0.00182,0,0,0.468
0.505,446.244,0.00224,0,0,0.472
0.509,603.395,0.00166,0,0,0.476
0.514,528.246,0.00189,0,0,0.48
0.518,512.216,0.00195,0,0,0.484
0.522,478.719,0.00209,0,0,0.488
0.527,490.424,0.00204,0,0,0.492
0.531,523.099,0.00191,0,0,0.497
0.536,508.637,0.00197,0,0,0.501
0.54,596.703,0.00168,0,0,0.505
0.544,536.837,0.00186,0,0,0.509
0.549,503.994,0.00198,0,0,0.513
0.553,571.501,0.00175,0,0,0.517
0.558,492.024,0.00203,0,0,0.521
0.562,536.962,0.00186,0,0,0.525
0.566,553.204,0.00181,0,0,0.53
0.571,485.369,0.00206,0,0,0.534
0.575,558.06,0.00179,0,0,0.538
0.58,504.338,0.00198,0,0,0.542
0.584,494.366,0.00202,0,0,0.546
0.588,594.822,0.00168,0,0,0.55
0.593,515.881,0.00194,0,0,0.554
0.597,529.412,0.00189,0,0,0.558
0.602,524.591,0.00191,0,0,0.562
0.606,600.327,0.00167,0,0,0.567
0.61,567.716,0.00176,0,0,0.571
0.615,550.552,0.00182,0,0,0.575
0.619,576.613,0.00173,0,0,0.579
0.624,570.736,0.00175,0,0,0.583
0.628,642.974,0.00156,0,0,0.587
0.632,608.892,0.00164,0,0,0.591
0.637,619.878,0.00161,0,0,0.595
0.641,586.333,0.00171,0,0,0.599
0.646,602.667,0.00166,0,0,0.604
0.65,551.809,0.00181,0,0,0.608
0.654,606.314,0.00165,0,0,0.612
0.659,644.646,0.00155,0,0,0.616
0.663,626.142,0.0016,0,0,0.62
0.668,572.615,0.00175,0,0,0.624
0.672,575.489,0.00174,0,0,0.628
0.676,566.655,0.00176,0,0,0.632
0.681,609.505,0.00164,0,0,0.636
0.685,609.173,0.00164,0,0,0.641
0.69,692.693,0.00144,0,0,0.645
0.694,598.622,0.00167,0,0,0.649
0.698,619.571,0.00161,0,0,0.653
0.703,702.159,0.00142,0,0,0.657
0.707,672.067,0.00149,0,0,0.661
0.712,633.095,0.00158,0,0,0.665
0.716,640.213,0.00156,0,0,0.669
0.72,671.722,0.00149,0,0,0.673
0.725,614.012,0.00163,0,0,0.678
0.729,605.76,0.00165,0,0,0.682
0.734,625.738,0.0016,0,0,0.686
0.738,643.032,0.00156,0,0,0.69
0.742,634.969,0.00157,0,0,0.694
0.747,644.485,0.00155,0,0,0.698
0.751,645.692,0.00155,0,0,0.702
0.756,644.398,0.00155,0,0,0.706
0.76,646.348,0.00155,0,0,0.711
0.764,656.691,0.00152,0,0,0.715
0.769,709.793,0.00141,0,0,0.719
0.773,665.009,0.0015,0,0,0.723
0.778,668.469,0.0015,0,0,0.727
0.782,700.005,0.00143,0,0,0.731
0.786,675.305,0.00148,0,0,0.735
0.791,647.777,0.00154,0,0,0.739
0.795,657.329,0.00152,0,0,0.743
0.8,727.74,0.00137,0,0,0.748
0.804,763.82,0.00131,0,0,0.752
0.808,741.703,0.00135,0,0,0.756
0.813,737.585,0.00136,0,0,0.76
0.817,741.391,0.00135,0,0,0.764
0.822,756.818,0.00132,0,0,0.768
0.826,673.498,0.00148,0,0,0.772
0.83,731.133,0.00137,0,0,0.776
0.835,741.11,0.00135,0,0,0.78
0.839,813.816,0.00123,0,0,0.785
0.844,746.029,0.00134,0,0,0.789
0.848,784.718,0.00127,0,0,0.793
0.852,814.885,0.00123,0,0,0.797
0.857,664.854,0.0015,0,0,0.801
0.861,735.84,0.00136,0,0,0.805
0.866,804.254,0.00124,0,0,0.809
0.87,756.241,0.00132,0,0,0.813
0.874,800.714,0.00125,0,0,0.817
0.879,857.217,0.00117,0,0,0.822
0.883,820.359,0.00122,0,0,0.826
0.888,942.361,0.00106,0,0,0.83
0.892,842.694,0.00119,0,0,0.834
0.896,862.381,0.00116,0,0,0.838
0.901,824.946,0.00121,0,0,0.842
0.905,830.744,0.0012,0,0,0.846
0.91,944.568,0.00106,0,0,0.85
0.914,912.277,0.0011,0,0,0.854
0.918,937.402,0.00107,0,0,0.859
0.923,918.014,0.00109,0,0,0.863
0.927,864.925,0.00116,0,0,0.867
0.932,849.109,0.00118,0,0,0.871
0.936,887.125,0.00113,0,0,0.875
0.94,924.46,0.00108,0,0,0.879
0.945,1002.832,0.001,0,0,0.883
0.949,969.255,0.00103,0,0,0.887
0.954,1030.446,0.00097,0,0,0.891
0.958,955.863,0.00105,0,0,0.896
0.962,947.088,0.00106,0,0,0.9
0.967,1071.477,0.00093,0,0,0.904
0.971,1094.319,0.00091,0,0,0.908
0.976,1000.032,0.001,0,0,0.912
0.98,1147.231,0.00087,0,0,0.916
0.984,1175.315,0.00085,0,0,0.92
0.989,1132.828,0.00088,0,0,0.924
0.993,1100.205,0.00091,0,0,0.929
0.998,1114.553,0.0009,0,0,0.933
1.002,1107.077,0.0009,0,0,0.937
1.006,1171.863,0.00085,0,0,0.941
1.011,1080.658,0.00093,0,0,0.945
1.015,1321.023,0.00076,0,0,0.949
1.02,1207.177,0.00083,0,0,0.953
1.024,1163.458,0.00086,0,0,0.957
1.028,1288.348,0.00078,0,0,0.961
1.033,1193.885,0.00084,0,0,0.966
1.037,1241.366,0.00081,0,0,0.97
1.042,1228.007,0.00081,0,0,0.974
1.046,1184.371,0.00084,0,0,0.978
1.05,1291.945,0.00077,0,0,0.982
1.055,1164.738,0.00086,0,0,0.986
1.059,1321.313,0.00076,0,0,0.99
1.064,1346.309,0.00074,0,0,0.994
1.068,1184.395,0.00084,0,0,0.998
1.072,1364.384,0.00073,0,0,1.003
1.077,1393.698,0.00072,0,0,1.007
1.081,1428.896,0.0007,0,0,1.011
1.086,1310.256,0.00076,0,0,1.015
1.09,1446.221,0.00069,0,0,1.019
1.094,1275.359,0.00078,0,0,1.023
1.099,1416.264,0.00071,0,0,1.027
1.103,1350.789,0.00074,0,0,1.031
1.108,1446.248,0.00069,0,0,1.035
1.112,1396.905,0.00072,0,0,1.04
1.116,1382.963,0.00072,0,0,1.044
1.121,1460.332,0.00068,0,0,1.048
1.125,1518.941,0.00066,0,0,1.052
1.13,1495.28,0.00067,0,0,1.056
1.134,1555.686,0.00064,0,0,1.06
1.138,1408.634,0.00071,0,0,1.064
1.143,1494.636,0.00067,0,0,1.068
1.147,1506.318,0.00066,0,0,1.072
1.152,1566.603,0.00064,0,0,1.077
1.156,1533.808,0.00065,0,0,1.081
1.16,1524.931,0.00066,0,0,1.085
1.165,1558.86,0.00064,0,0,1.089
1.169,1682.891,0.00059,0,0,1.093
1.174,1581.82,0.00063,0,0,1.097
1.178,1719.514,0.00058,0,0,1.101
1.182,1732.594,0.00058,0,0,1.105
1.187,1513.746,0.00066,0,0,1.11
1.191,1676.028,0.0006,0,0,1.114
1.196,1654.151,0.0006,0,0,1.118
1.2,1600.316,0.00062,0,0,1.122
1.204,1680.426,0.0006,0,0,1.126
1.209,1608.629,0.00062,0,0,1.13
1.213,1657.03,0.0006,0,0,1.134
1.218,1656.769,0.0006,0,0,1.138
1.222,1733.922,0.00058,0,0,1.142
1.226,1744.125,0.00057,0,0,1.147
1.231,1682.213,0.00059,0,0,1.151
1.235,1676.727,0.0006,0,0,1.155
1.24,1776.886,0.00056,0,0,1.159
1.244,1575.946,0.00063,0,0,1.163
1.248,1884.369,0.00053,0,0,1.167
1.253,1712.244,0.00058,0,0,1.171
1.257,1802.484,0.00055,0,0,1.175
1.262,1940.47,0.00052,0,0,1.179
1.266,1830.208,0.00055,0,0,1.184
1.27,1855.976,0.00054,0,0,1.188
1.275,1753.646,0.00057,0,0,1.192
1.279,1919.261,0.00052,0,0,1.196
1.284,1846.99,0.00054,0,0,1.2
1.288,1797.579,0.00056,0,0,1.204
1.292,1867.362,0.00054,0,0,1.208
1.297,1782.612,0.00056,0,0,1.212
1.301,1848.477,0.00054,0,0,1.216
1.306,1937.829,0.00052,0,0,1.221
1.31,1909.398,0.00052,0,0,1.225
1.314,1913.388,0.00052,0,0,1.229
1.319,1998.84,0.0005,0,0,1.233
1.323,1914.507,0.00052,0,0,1.237
1.328,1903.92,0.00053,0,0,1.241
1.332,2033.327,0.00049,0,0,1.245
1.336,2004.301,0.0005,0,0,1.249
1.341,2033.407,0.00049,0,0,1.253
1.345,2055.366,0.00049,0,0,1.258
1.35,1917.133,0.00052,0,0,1.262
1.354,2082.053,0.00048,0,0,1.266
1.358,2020.458,0.00049,0,0,1.27
1.363,1996.296,0.0005,0,0,1.274
1.367,2163.009,0.00046,0,0,1.278
1.372,2053.161,0.00049,0,0,1.282
1.376,2031.825,0.00049,0,0,1.286
1.38,2042.987,0.00049,0,0,1.29
1.385,1967.233,0.00051,0,0,1.295
1.389,2157.304,0.00046,0,0,1.299
1.394,2107.97,0.00047,0,0,1.303
1.398,2073.618,0.00048,0,0,1.307
1.402,2144.196,0.00047,0,0,1.311
1.407,2125.075,0.00047,0,0,1.315
1.411,2094.153,0.00048,0,0,1.319
1.416,2227.818,0.00045,0,0,1.323
1.42,2133.751,0.00047,0,0,1.328
1.424,2217.377,0.00045,0,0,1.332
1.429,2210.405,0.00045,0,0,1.336
1.433,2126.58,0.00047,0,0,1.34
1.438,2252.614,0.00044,0,0,1.344
1.442,2127.236,0.00047,0,0,1.348
1.446,2180.307,0.00046,0,0,1.352
1.451,2228.295,0.00045,0,0,1.356
1.455,2108.129,0.00047,0,0,1.36
1.46,2192.384,0.00046,0,0,1.365
1.464,2208.382,0.00045,0,0,1.369
1.468,2198.225,0.00045,0,0,1.373
1.473,2181.101,0.00046,0,0,1.377
1.477,2234.747,0.00045,0,0,1.381
1.482,2277.224,0.00044,0,0,1.385
1.486,2217.363,0.00045,0,0,1.389
1.49,2158.524,0.00046,0,0,1.393
1.495,2301.744,0.00043,0,0,1.397
1.499,2364.742,0.00042,0,0,1.402
1.504,2298.428,0.00044,0,0,1.406
1.508,2295.623,0.00044,0,0,1.41
1.512,2337.669,0.00043,0,0,1.414
1.517,2302.313,0.00043,0,0,1.418
1.521,2251.686,0.00044,0,0,1.422
1.526,2307.326,0.00043,0,0,1.426
1.53,2417.886,0.00041,0,0,1.43
1.534,2378.445,0.00042,0,0,1.434
1.539,2241.041,0.00045,0,0,1.439
1.543,2338.833,0.00043,0,0,1.443
1.548,2189.784,0.00046,0,0,1.447
1.552,2224.419,0.00045,0,0,1.451
1.556,2398.356,0.00042,0,0,1.455
1.561,2302.484,0.00043,0,0,1.459
1.565,2383.112,0.00042,0,0,1.463
1.57,2303.291,0.00043,0,0,1.467
1.574,2354.821,0.00042,0,0,1.471
1.578,2287.481,0.00044,0,0,1.476
1.583,2198.714,0.00045,0,0,1.48
1.587,2174.402,0.00046,0,0,1.484
1.592,2295.003,0.00044,0,0,1.488
1.596,2201.603,0.00045,0,0,1.492
1.6,2348.181,0.00043,0,0,1.496
1.605,2337.054,0.00043,0,0,1.5
1.609,2386.85,0.00042,0,0,1.504
1.614,2338.098,0.00043,0,0,1.508
1.618,2264.581,0.00044,0,0,1.513
1.622,2420.26,0.00041,0,0,1.517
1.627,2341.512,0.00043,0,0,1.521
1.631,2184.881,0.00046,0,0,1.525
1.636,2256.509,0.00044,0,0,1.529
1.64,2236.35,0.00045,0,0,1.533
1.644,2329.83,0.00043,0,0,1.537
1.649,2281.148,0.00044,0,0,1.541
1.653,2123.76,0.00047,0,0,1.546
1.658,2236.501,0.00045,0,0,1.55
1.662,2281.862,0.00044,0,0,1.554
1.666,2278.73,0.00044,0,0,1.558
1.671,2386.773,0.00042,0,0,1.562
1.675,2314.348,0.00043,0,0,1.566
1.68,2240.651,0.00045,0,0,1.57
1.684,2308.158,0.00043,0,0,1.574
1.688,2200.756,0.00045,0,0,1.578
1.693,2247.194,0.00044,0,0,1.583
1.697,2246.975,0.00045,0,0,1.587
1.702,2244.447,0.00045,0,0,1.591
1.706,2182.171,0.00046,0,0,1.595
1.71,2121.378,0.00047,0,0,1.599
1.715,2195.243,0.00046,0,0,1.603
1.719,2112.783,0.00047,0,0,1.607
1.724,2141.67,0.00047,0,0,1.611
1.728,2196.897,0.00046,0,0,1.615
1.732,2199.591,0.00045,0,0,1.62
1.737,2123.416,0.00047,0,0,1.624
1.741,2124.222,0.00047,0,0,1.628
1.746,2115.656,0.00047,0,0,1.632
1.75,2155.023,0.00046,0,0,1.636
1.754,2173.145,0.00046,0,0,1.64
1.759,2106.969,0.00047,0,0,1.644
1.763,2288.493,0.00044,0,0,1.648
1.768,2312.837,0.00043,0,0,1.652
1.772,2238.18,0.00045,0,0,1.657
1.776,2409.476,0.00042,0,0,1.661
1.781,2463.361,0.00041,0,0,1.665
1.785,2558.283,0.00039,0,0,1.669
1.79,2659.837,0.00038,0,0,1.673
1.794,2672.675,0.00037,0,0,1.677
1.798,2947.093,0.00034,0,0,1.681
1.803,3171.824,0.00032,0,0,1.685
1.807,3246.301,0.00031,0,0,1.689
1.812,3589.582,0.00028,0,0,1.694
1.816,3692.823,0.00027,0,0,1.698
1.82,3981.939,0.00025,0,0,1.702
1.825,4195.728,0.00024,0,0,1.706
1.829,4378.965,0.00023,0,0,1.71
1.834,4736.872,0.00021,0,0,1.714
1.838,5041.734,0.0002,0,0,1.718
1.842,5169.135,0.00019,0,0,1.722
1.847,5542.987,0.00018,0,0,1.726
1.851,5720.489,0.00017,0,0,1.731
1.856,5962.372,0.00017,0,0,1.735
1.86,6191.012,0.00016,0,0,1.739
1.864,6271.891,0.00016,0,0,1.743
1.869,6463.865,0.00015,0,0,1.747
1.873,6540.404,0.00015,0,0,1.751
1.878,6580.01,0.00015,0,0,1.755
1.882,6717.283,0.00015,0,0,1.759
1.886,6593.31,0.00015,0,0,1.763
1.891,6540.023,0.00015,0,0,1.768
1.895,6378.755,0.00016,0,0,1.772
1.9,6160.207,0.00016,0,0,1.776
1.904,6053.631,0.00017,0,0,1.78
1.908,5805.351,0.00017,0,0,1.784
1.913,5506.187,0.00018,0,0,1.788
1.917,5278.132,0.00019,0,0,1.792
1.922,5016.715,0.0002,0,0,1.796
1.926,4724.508,0.00021,0,0,1.801
1.93,4452.226,0.00022,0,0,1.805
1.935,4126.491,0.00024,0,0,1.809
1.939,3891.08,0.00026,0,0,1.813
1.944,3685.341,0.00027,0,0,1.817
1.948,3341.61,0.0003,0,0,1.821
1.952,3200.865,0.00031,0,0,1.825
1.957,3004.695,0.00033,0,0,1.829
1.961,2772.239,0.00036,0,0,1.833
1.966,2677.029,0.00037,0,0,1.838
1.97,2489.691,0.0004,0,0,1.842
1.974,2542.202,0.00039,0,0,1.846
1.979,2404.892,0.00042,0,0,1.85
1.983,2287.939,0.00044,0,0,1.854
1.988,2361.852,0.00042,0,0,1.858
1.992,2255.884,0.00044,0,0,1.862
1.996,2223.831,0.00045,0,0,1.866
2.001,2269.211,0.00044,0,0,1.87
2.005,2174.396,0.00046,0,0,1.875
2.01,2254.537,0.00044,0,0,1.879
2.014,2239.71,0.00045,0,0,1.883
2.018,2163.094,0.00046,0,0,1.887
2.023,2243.606,0.00045,0,0,1.891
2.027,2229.224,0.00045,0,0,1.895
2.032,2183.215,0.00046,0,0,1.899
2.036,2251.89,0.00044,0,0,1.903
2.04,2152.692,0.00046,0,0,1.907
2.045,2203.853,0.00045,0,0,1.912
2.049,2174.477,0.00046,0,0,1.916
2.054,2194.837,0.00046,0,0,1.92
2.058,2288.798,0.00044,0,0,1.924
2.062,2223.519,0.00045,0,0,1.928
2.067,2255.718,0.00044,0,0,1.932
2.071,2271.705,0.00044,0,0,1.936
2.076,2140.957,0.00047,0,0,1.94
2.08,2297.322,0.00044,0,0,1.944
2.084,2263.164,0.00044,0,0,1.949
2.089,2270.363,0.00044,0,0,1.953
2.093,2326.63,0.00043,0,0,1.957
2.098,2255.252,0.00044,0,0,1.961
2.102,2375.599,0.00042,0,0,1.965
2.106,2220.983,0.00045,0,0,1.969
2.111,2229.655,0.00045,0,0,1.973
2.115,2449.785,0.00041,0,0,1.977
2.12,2310.246,0.00043,0,0,1.981
2.124,2262.174,0.00044,0,0,1.986
2.128,2324.263,0.00043,0,0,1.99
2.133,2263.277,0.00044,0,0,1.994
2.137,2280.031,0.00044,0,0,1.998
2.142,2359.242,0.00042,0,0,2.002
2.146,2182.774,0.00046,0,0,2.006
2.15,2381.5,0.00042,0,0,2.01
2.155,2379.661,0.00042,0,0,2.014
2.159,2217.38,0.00045,0,0,2.018
2.164,2351.757,0.00043,0,0,2.023
2.168,2303.777,0.00043,0,0,2.027
2.172,2229.519,0.00045,0,0,2.031
2.177,2300.237,0.00043,0,0,2.035
2.181,2289.182,0.00044,0,0,2.039
2.186,2294.848,0.00044,0,0,2.043
2.19,2348.322,0.00043,0,0,2.047
2.194,2299.97,0.00043,0,0,2.051
2.199,2282.468,0.00044,0,0,2.056
2.203,2283.636,0.00044,0,0,2.06
2.208,2275.076,0.00044,0,0,2.064
2.212,2261.914,0.00044,0,0,2.068
2.216,2167.369,0.00046,0,0,2.072
2.221,2301.636,0.00043,0,0,2.076
2.225,2216.566,0.00045,0,0,2.08
2.23,2108.146,0.00047,0,0,2.084
2.234,2299.033,0.00043,0,0,2.088
2.238,2150.444,0.00047,0,0,2.093
2.243,2202.73,0.00045,0,0,2.097
2.247,2184.738,0.00046,0,0,2.101
2.252,2131.541,0.00047,0,0,2.105
2.256,2259.534,0.00044,0,0,2.109
2.26,2166.393,0.00046,0,0,2.113
2.265,2189.096,0.00046,0,0,2.117
2.269,2229.604,0.00045,0,0,2.121
2.274,2153.017,0.00046,0,0,2.125
2.278,2148.676,0.00047,0,0,2.13
2.282,2111.55,0.00047,0,0,2.134
2.287,2105.202,0.00048,0,0,2.138
2.291,2180.682,0.00046,0,0,2.142
2.296,2207.444,0.00045,0,0,2.146
2.3,2081.897,0.00048,0,0,2.15
2.304,2177.692,0.00046,0,0,2.154
2.309,2176.948,0.00046,0,0,2.158
2.313,2090.694,0.00048,0,0,2.162
2.318,2146.74,0.00047,0,0,2.167
2.322,2099.067,0.00048,0,0,2.171
2.326,2210.536,0.00045,0,0,2.175
2.331,2180.766,0.00046,0,0,2.179
2.335,2130.118,0.00047,0,0,2.183
2.34,2231.182,0.00045,0,0,2.187
2.344,2146.774,0.00047,0,0,2.191
2.348,2100.326,0.00048,0,0,2.195
2.353,2134.62,0.00047,0,0,2.199
2.357,2079.547,0.00048,0,0,2.204
2.362,2239.459,0.00045,0,0,2.208
2.366,2177.267,0.00046,0,0,2.212
2.37,2137.37,0.00047,0,0,2.216
2.375,2263.125,0.00044,0,0,2.22
2.379,2173.335,0.00046,0,0,2.224
2.384,2166.824,0.00046,0,0,2.228
2.388,2213.097,0.00045,0,0,2.232
2.392,2055.667,0.00049,0,0,2.236
2.397,2246.846,0.00045,0,0,2.241
2.401,2151.288,0.00046,0,0,2.245
2.406,2030.105,0.00049,0,0,2.249
2.41,2269.698,0.00044,0,0,2.253
2.414,2111.875,0.00047,0,0,2.257
2.419,2095.384,0.00048,0,0,2.261
2.423,2137.528,0.00047,0,0,2.265
2.428,2062.946,0.00048,0,0,2.269
2.432,2191.876,0.00046,0,0,2.273
2.436,2115.328,0.00047,0,0,2.278
2.441,2029.613,0.00049,0,0,2.282
2.445,2210.703,0.00045,0,0,2.286
2.45,2137.882,0.00047,0,0,2.29
2.454,2236.297,0.00045,0,0,2.294
2.458,2137.518,0.00047,0,0,2.298
2.463,2070.516,0.00048,0,0,2.302
2.467,2137.302,0.00047,0,0,2.306
2.472,2153.991,0.00046,0,0,2.31
2.476,2135.688,0.00047,0,0,2.315
2.48,2179.759,0.00046,0,0,2.319
2.485,2099.889,0.00048,0,0,2.323
2.489,2107.366,0.00047,0,0,2.327
2.494,2103.799,0.00048,0,0,2.331
2.498,2053.907,0.00049,0,0,2.335
2.502,2176.268,0.00046,0,0,2.339
2.507,2123.013,0.00047,0,0,2.343
2.511,2036.031,0.00049,0,0,2.348
2.516,2118.492,0.00047,0,0,2.352
2.52,2116.146,0.00047,0,0,2.356
2.524,2120.38,0.00047,0,0,2.36
2.529,2121.331,0.00047,0,0,2.364
2.533,2034.748,0.00049,0,0,2.368
2.538,2115.88,0.00047,0,0,2.372
2.542,2071.846,0.00048,0,0,2.376
2.546,2014.068,0.0005,0,0,2.38
2.551,2084.337,0.00048,0,0,2.385
2.555,2039.554,0.00049,0,0,2.389
2.56,2124.439,0.00047,0,0,2.393
2.564,2126.298,0.00047,0,0,2.397
2.568,1952.686,0.00051,0,0,2.401
2.573,2129.827,0.00047,0,0,2.405
2.577,2030.688,0.00049,0,0,2.409
2.582,2033.697,0.00049,0,0,2.413
2.586,2128.575,0.00047,0,0,2.417
2.59,2001.92,0.0005,0,0,2.422
2.595,2070.585,0.00048,0,0,2.426
2.599,2069.872,0.00048,0,0,2.43
2.604,1947.298,0.00051,0,0,2.434
2.608,2128.642,0.00047,0,0,2.438
2.612,2046.979,0.00049,0,0,2.442
2.617,2051.635,0.00049,0,0,2.446
2.621,2101.764,0.00048,0,0,2.45
2.626,2026.068,0.00049,0,0,2.454
2.63,2077.721,0.00048,0,0,2.459
2.634,2056.96,0.00049,0,0,2.463
2.639,2038.96,0.00049,0,0,2.467
2.643,2103.291,0.00048,0,0,2.471
2.648,2037.351,0.00049,0,0,2.475
2.652,1936.351,0.00052,0,0,2.479
2.656,2058.404,0.00049,0,0,2.483
2.661,2003.231,0.0005,0,0,2.487
2.665,2019.251,0.0005,0,0,2.491
2.67,2036.788,0.00049,0,0,2.496
2.674,1910.146,0.00052,0,0,2.5
2.678,2054.907,0.00049,0,0,2.504
2.683,2007.995,0.0005,0,0,2.508
2.687,2017.195,0.0005,0,0,2.512
2.692,2014.532,0.0005,0,0,2.516
2.696,2013.426,0.0005,0,0,2.52
2.7,1991.387,0.0005,0,0,2.524
2.705,1985.011,0.0005,0,0,2.528
2.709,1936.582,0.00052,0,0,2.533
2.714,2013.374,0.0005,0,0,2.537
2.718,1972.954,0.00051,0,0,2.541
2.722,1942.011,0.00051,0,0,2.545
2.727,2026.656,0.00049,0,0,2.549
2.731,1957.688,0.00051,0,0,2.553
2.736,1943.766,0.00051,0,0,2.557
2.74,2009.818,0.0005,0,0,2.561
2.744,1962.997,0.00051,0,0,2.565
2.749,2019.861,0.0005,0,0,2.57
2.753,2053.454,0.00049,0,0,2.574
2.758,2026.445,0.00049,0,0,2.578
2.762,2118.695,0.00047,0,0,2.582
2.766,2028.852,0.00049,0,0,2.586
2.771,2081.449,0.00048,0,0,2.59
2.775,2158.963,0.00046,0,0,2.594
2.78,2066.662,0.00048,0,0,2.598
2.784,2195.137,0.00046,0,0,2.602
2.788,2163.813,0.00046,0,0,2.607
2.793,2105.051,0.00048,0,0,2.611
2.797,2207.103,0.00045,0,0,2.615
2.802,2182.038,0.00046,0,0,2.619
2.806,2172.461,0.00046,0,0,2.623
2.81,2202.262,0.00045,0,0,2.627
2.815,2151.915,0.00046,0,0,2.631
2.819,2239.533,0.00045,0,0,2.635
2.824,2209.926,0.00045,0,0,2.639
2.828,2169.858,0.00046,0,0,2.644
2.832,2263.66,0.00044,0,0,2.648
2.837,2202.777,0.00045,0,0,2.652
2.841,2234.166,0.00045,0,0,2.656
2.846,2250.552,0.00044,0,0,2.66
2.85,2248.226,0.00044,0,0,2.664
2.854,2315.048,0.00043,0,0,2.668
2.859,2298.674,0.00044,0,0,2.672
2.863,2332.181,0.00043,0,0,2.676
2.868,2403.984,0.00042,0,0,2.681
2.872,2371.899,0.00042,0,0,2.685
2.876,2306.185,0.00043,0,0,2.689
2.881,2271.382,0.00044,0,0,2.693
2.885,2197.52,0.00046,0,0,2.697
2.89,2223.063,0.00045,0,0,2.701
2.894,2193.152,0.00046,0,0,2.705
2.898,2152.324,0.00046,0,0,2.709
2.903,2204.139,0.00045,0,0,2.714
2.907,2199.782,0.00045,0,0,2.718
2.912,2193.882,0.00046,0,0,2.722
2.916,2175.09,0.00046,0,0,2.726
2.92,2181.744,0.00046,0,0,2.73
2.925,2231.31,0.00045,0,0,2.734
2.929,2238.372,0.00045,0,0,2.738
2.934,2156.405,0.00046,0,0,2.742
2.938,2291.095,0.00044,0,0,2.746
2.942,2212.308,0.00045,0,0,2.751
2.947,2264.366,0.00044,0,0,2.755
2.951,2319.66,0.00043,0,0,2.759
2.956,2248.513,0.00044,0,0,2.763
2.96,2300.287,0.00043,0,0,2.767
2.964,2309.655,0.00043,0,0,2.771
2.969,2249.816,0.00044,0,0,2.775
2.973,2293.911,0.00044,0,0,2.779
2.978,2211.336,0.00045,0,0,2.783
2.982,2197.914,0.00045,0,0,2.788
2.986,2226.352,0.00045,0,0,2.792
2.991,2092.106,0.00048,0,0,2.796
2.995,2105.394,0.00047,0,0,2.8
3,2031.937,0.00049,0,0,2.804
3.004,1960.176,0.00051,0,0,2.808
3.008,1985.794,0.0005,0,0,2.812
3.013,1941.836,0.00051,0,0,2.816
3.017,1928.532,0.00052,0,0,2.82
3.022,1905.053,0.00052,0,0,2.825
3.026,1803.407,0.00055,0,0,2.829
3.03,1899.131,0.00053,0,0,2.833
3.035,1842.328,0.00054,0,0,2.837
3.039,1798.96,0.00056,0,0,2.841
3.044,1801.764,0.00056,0,0,2.845
3.048,1774.609,0.00056,0,0,2.849
3.052,1754.785,0.00057,0,0,2.853
3.057,1832.083,0.00055,0,0,2.857
3.061,1725.327,0.00058,0,0,2.862
3.066,1794.482,0.00056,0,0,2.866
3.07,1747.98,0.00057,0,0,2.87
3.074,1739.398,0.00057,0,0,2.874
3.079,1745.022,0.00057,0,0,2.878
3.083,1745.831,0.00057,0,0,2.882
3.088,1733.684,0.00058,0,0,2.886
3.092,1806.815,0.00055,0,0,2.89
3.096,1713.437,0.00058,0,0,2.894
3.101,1792.055,0.00056,0,0,2.899
3.105,1800.74,0.00056,0,0,2.903
3.11,1699.902,0.00059,0,0,2.907
3.114,1732.18,0.00058,0,0,2.911
3.118,1772.262,0.00056,0,0,2.915
3.123,1739.623,0.00057,0,0,2.919
3.127,1766.72,0.00057,0,0,2.923
3.132,1677.671,0.0006,0,0,2.927
3.136,1738.811,0.00058,0,0,2.931
3.14,1742.394,0.00057,0,0,2.936
3.145,1710.157,0.00058,0,0,2.94
3.149,1734.517,0.00058,0,0,2.944
3.154,1698.674,0.00059,0,0,2.948
3.158,1695.075,0.00059,0,0,2.952
3.162,1697.563,0.00059,0,0,2.956
3.167,1626.966,0.00061,0,0,2.96
3.171,1759.88,0.00057,0,0,2.964
3.176,1714.563,0.00058,0,0,2.968
3.18,1663.358,0.0006,0,0,2.973
3.184,1730.089,0.00058,0,0,2.977
3.189,1667.007,0.0006,0,0,2.981
3.193,1680.518,0.0006,0,0,2.985
3.198,1683.548,0.00059,0,0,2.989
3.202,1645.695,0.00061,0,0,2.993
3.206,1722.745,0.00058,0,0,2.997
3.211,1666.119,0.0006,0,0,3.001
3.215,1649.332,0.00061,0,0,3.005
3.22,1670.688,0.0006,0,0,3.01
3.224,1605.629,0.00062,0,0,3.014
3.228,1647.22,0.00061,0,0,3.018
3.233,1667.676,0.0006,0,0,3.022
3.237,1674.313,0.0006,0,0,3.026
3.242,1651.593,0.00061,0,0,3.03
3.246,1659.588,0.0006,0,0,3.034
3.25,1636.2,0.00061,0,0,3.038
3.255,1641.993,0.00061,0,0,3.042
3.259,1674.556,0.0006,0,0,3.047
3.264,1607.215,0.00062,0,0,3.051
3.268,1692.3,0.00059,0,0,3.055
3.272,1627.565,0.00061,0,0,3.059
3.277,1654.349,0.0006,0,0,3.063
3.281,1681.905,0.00059,0,0,3.067
3.286,1597.676,0.00063,0,0,3.071
3.29,1676.29,0.0006,0,0,3.075
3.294,1691.854,0.00059,0,0,3.079
3.299,1658.446,0.0006,0,0,3.084
3.303,1696.899,0.00059,0,0,3.088
3.308,1708.638,0.00059,0,0,3.092
3.312,1706.233,0.00059,0,0,3.096
3.316,1767.685,0.00057,0,0,3.1
3.321,1692.305,0.00059,0,0,3.104
3.325,1791.793,0.00056,0,0,3.108
3.33,1752.287,0.00057,0,0,3.112
3.334,1721.642,0.00058,0,0,3.116
3.338,1793.549,0.00056,0,0,3.121
3.343,1748.151,0.00057,0,0,3.125
3.347,1772.807,0.00056,0,0,3.129
3.352,1789.836,0.00056,0,0,3.133
3.356,1767.72,0.00057,0,0,3.137
3.36,1845.265,0.00054,0,0,3.141
3.365,1843.343,0.00054,0,0,3.145
3.369,1822.563,0.00055,0,0,3.149
3.374,1871.972,0.00053,0,0,3.153
3.378,1862.806,0.00054,0,0,3.158
3.382,1929.775,0.00052,0,0,3.162
3.387,1925.293,0.00052,0,0,3.166
3.391,1917.48,0.00052,0,0,3.17
3.396,1989.769,0.0005,0,0,3.174
3.4,2018.82,0.0005,0,0,3.178
3.404,2037.82,0.00049,0,0,3.182
3.409,2085.876,0.00048,0,0,3.186
3.413,2105.354,0.00047,0,0,3.19
3.418,2152.735,0.00046,0,0,3.195
3.422,2237.709,0.00045,0,0,3.199
3.426,2197.327,0.00046,0,0,3.203
3.431,2294.738,0.00044,0,0,3.207
3.435,2311.7,0.00043,0,0,3.211
3.44,2310.202,0.00043,0,0,3.215
3.444,2399.211,0.00042,0,0,3.219
3.448,2416.243,0.00041,0,0,3.223
3.453,2443.775,0.00041,0,0,3.227
3.457,2452.494,0.00041,0,0,3.232
3.462,2441.262,0.00041,0,0,3.236
3.466,2503.967,0.0004,0,0,3.24
3.47,2545.336,0.00039,0,0,3.244
3.475,2500.737,0.0004,0,0,3.248
3.479,2509.395,0.0004,0,0,3.252
3.484,2496.965,0.0004,0,0,3.256
3.488,2459.052,0.00041,0,0,3.26
3.492,2461.866,0.00041,0,0,3.264
3.497,2373.905,0.00042,0,0,3.269
3.501,2334.75,0.00043,0,0,3.273
3.506,2286.879,0.00044,0,0,3.277
3.51,2220.683,0.00045,0,0,3.281
3.514,2231.354,0.00045,0,0,3.285
3.519,2168.375,0.00046,0,0,3.289
3.523,2090.328,0.00048,0,0,3.293
3.528,2060.471,0.00049,0,0,3.297
3.532,1929.259,0.00052,0,0,3.301
3.536,1964.986,0.00051,0,0,3.306
3.541,1862.927,0.00054,0,0,3.31
3.545,1798.586,0.00056,0,0,3.314
3.55,1777.146,0.00056,0,0,3.318
3.554,1729.464,0.00058,0,0,3.322
3.558,1716.097,0.00058,0,0,3.326
3.563,1688.171,0.00059,0,0,3.33
3.567,1620.082,0.00062,0,0,3.334
3.572,1652.678,0.00061,0,0,3.339
3.576,1602.4,0.00062,0,0,3.343
3.58,1553.906,0.00064,0,0,3.347
3.585,1568.729,0.00064,0,0,3.351
3.589,1545.432,0.00065,0,0,3.355
3.594,1534.308,0.00065,0,0,3.359
3.598,1546.267,0.00065,0,0,3.363
3.602,1514.834,0.00066,0,0,3.367
3.607,1543.722,0.00065,0,0,3.371
3.611,1509.971,0.00066,0,0,3.376
3.616,1450.608,0.00069,0,0,3.38
3.62,1491.615,0.00067,0,0,3.384
3.624,1501.475,0.00067,0,0,3.388
3.629,1449.888,0.00069,0,0,3.392
3.633,1478.483,0.00068,0,0,3.396
3.638,1420.995,0.0007,0,0,3.4
3.642,1463.527,0.00068,0,0,3.404
3.646,1461.206,0.00068,0,0,3.408
3.651,1428.326,0.0007,0,0,3.413
3.655,1476.232,0.00068,0,0,3.417
3.66,1431.467,0.0007,0,0,3.421
3.664,1392.049,0.00072,0,0,3.425
3.668,1449.723,0.00069,0,0,3.429
3.673,1418.378,0.00071,0,0,3.433
3.677,1472.598,0.00068,0,0,3.437
3.682,1435.258,0.0007,0,0,3.441
3.686,1395.88,0.00072,0,0,3.445
3.69,1420.951,0.0007,0,0,3.45
3.695,1413.004,0.00071,0,0,3.454
3.699,1435.938,0.0007,0,0,3.458
3.704,1383.458,0.00072,0,0,3.462
3.708,1404.986,0.00071,0,0,3.466
3.712,1403.579,0.00071,0,0,3.47
3.717,1408.075,0.00071,0,0,3.474
3.721,1409.671,0.00071,0,0,3.478
3.726,1417.108,0.00071,0,0,3.482
3.73,1401.393,0.00071,0,0,3.487
3.734,1424.812,0.0007,0,0,3.491
3.739,1399.58,0.00071,0,0,3.495
3.743,1409.441,0.00071,0,0,3.499
3.748,1381.512,0.00072,0,0,3.503
3.752,1395.799,0.00072,0,0,3.507
3.756,1359.199,0.00074,0,0,3.511
3.761,1409.749,0.00071,0,0,3.515
3.765,1439.583,0.00069,0,0,3.519
3.77,1391.157,0.00072,0,0,3.524
3.774,1415.833,0.00071,0,0,3.528
3.778,1414.989,0.00071,0,0,3.532
3.783,1400.754,0.00071,0,0,3.536
3.787,1456.689,0.00069,0,0,3.54
3.792,1435.036,0.0007,0,0,3.544
3.796,1444.545,0.00069,0,0,3.548
3.8,1469.369,0.00068,0,0,3.552
3.805,1405.543,0.00071,0,0,3.556
3.809,1482.44,0.00067,0,0,3.561
3.814,1487.388,0.00067,0,0,3.565
3.818,1448.809,0.00069,0,0,3.569
3.822,1517.186,0.00066,0,0,3.573
3.827,1441.301,0.00069,0,0,3.577
3.831,1517.396,0.00066,0,0,3.581
3.836,1502.655,0.00067,0,0,3.585
3.84,1514.233,0.00066,0,0,3.589
3.844,1547.35,0.00065,0,0,3.593
3.849,1535.815,0.00065,0,0,3.598
3.853,1532.802,0.00065,0,0,3.602
3.858,1571.165,0.00064,0,0,3.606
3.862,1570.499,0.00064,0,0,3.61
3.866,1629.133,0.00061,0,0,3.614
3.871,1591.811,0.00063,0,0,3.618
3.875,1639.058,0.00061,0,0,3.622
3.88,1654.942,0.0006,0,0,3.626
3.884,1685.721,0.00059,0,0,3.63
3.888,1699.407,0.00059,0,0,3.635
3.893,1740.891,0.00057,0,0,3.639
3.897,1726.719,0.00058,0,0,3.643
3.902,1814.149,0.00055,0,0,3.647
3.906,1850.241,0.00054,0,0,3.651
3.91,1899.568,0.00053,0,0,3.655
3.915,1951.843,0.00051,0,0,3.659
3.919,1988.702,0.0005,0,0,3.663
3.924,1990.079,0.0005,0,0,3.667
3.928,2079.779,0.00048,0,0,3.672
3.932,2059.26,0.00049,0,0,3.676
3.937,2125.818,0.00047,0,0,3.68
3.941,2177.557,0.00046,0,0,3.684
3.946,2136.744,0.00047,0,0,3.688
3.95,2224.038,0.00045,0,0,3.692
3.954,2205.295,0.00045,0,0,3.696
3.959,2211.686,0.00045,0,0,3.7
3.963,2219.449,0.00045,0,0,3.704
3.968,2196.211,0.00046,0,0,3.709
3.972,2233.537,0.00045,0,0,3.713
3.976,2245.17,0.00045,0,0,3.717
3.981,2207.088,0.00045,0,0,3.721
3.985,2229.346,0.00045,0,0,3.725
3.99,2215.955,0.00045,0,0,3.729
3.994,2183.189,0.00046,0,0,3.733
3.998,2155.263,0.00046,0,0,3.737
4.003,2120.447,0.00047,0,0,3.741
4.007,2130.842,0.00047,0,0,3.746
4.012,2105.61,0.00047,0,0,3.75
4.016,2036.977,0.00049,0,0,3.754
4.02,2065.792,0.00048,0,0,3.758
4.025,2015.907,0.0005,0,0,3.762
4.029,1980.362,0.0005,0,0,3.766
4.034,1972.547,0.00051,0,0,3.77
4.038,1921.372,0.00052,0,0,3.774
4.042,1945.832,0.00051,0,0,3.778
4.047,1917.076,0.00052,0,0,3.783
4.051,1849.128,0.00054,0,0,3.787
4.056,1850.542,0.00054,0,0,3.791
4.06,1824.85,0.00055,0,0,3.795
4.064,1811.034,0.00055,0,0,3.799
4.069,1810.532,0.00055,0,0,3.803
4.073,1752.064,0.00057,0,0,3.807
4.078,1731.882,0.00058,0,0,3.811
4.082,1747.333,0.00057,0,0,3.815
4.086,1669.035,0.0006,0,0,3.82
4.091,1679.309,0.0006,0,0,3.824
4.095,1677.997,0.0006,0,0,3.828
4.1,1618.038,0.00062,0,0,3.832
4.104,1626.348,0.00061,0,0,3.836
4.108,1598.955,0.00063,0,0,3.84
4.113,1589.795,0.00063,0,0,3.844
4.117,1565.84,0.00064,0,0,3.848
4.122,1500.675,0.00067,0,0,3.852
4.126,1509.842,0.00066,0,0,3.857
4.13,1463.135,0.00068,0,0,3.861
4.135,1445.928,0.00069,0,0,3.865
4.139,1487.353,0.00067,0,0,3.869
4.144,1415.335,0.00071,0,0,3.873
4.148,1420.351,0.0007,0,0,3.877
4.152,1389.484,0.00072,0,0,3.881
4.157,1351.139,0.00074,0,0,3.885
4.161,1382.587,0.00072,0,0,3.889
4.166,1331.055,0.00075,0,0,3.894
4.17,1328.765,0.00075,0,0,3.898
4.174,1306.632,0.00077,0,0,3.902
4.179,1276.009,0.00078,0,0,3.906
4.183,1294.722,0.00077,0,0,3.91
4.188,1281.401,0.00078,0,0,3.914
4.192,1260.829,0.00079,0,0,3.918
4.196,1251.589,0.0008,0,0,3.922
4.201,1244.382,0.0008,0,0,3.926
4.205,1236.969,0.00081,0,0,3.931
4.21,1244.013,0.0008,0,0,3.935
4.214,1259.638,0.00079,0,0,3.939
4.218,1236.758,0.00081,0,0,3.943
4.223,1254.676,0.0008,0,0,3.947
4.227,1208.123,0.00083,0,0,3.951
4.232,1192.887,0.00084,0,0,3.955
4.236,1214.403,0.00082,0,0,3.959
4.24,1181.836,0.00085,0,0,3.963
4.245,1214.425,0.00082,0,0,3.968
4.249,1211.636,0.00083,0,0,3.972
4.254,1214.3,0.00082,0,0,3.976
4.258,1234.178,0.00081,0,0,3.98
4.262,1181.824,0.00085,0,0,3.984
4.267,1196.807,0.00084,0,0,3.988
4.271,1225.744,0.00082,0,0,3.992
4.276,1163.056,0.00086,0,0,3.996
4.28,1243.362,0.0008,0,0,4
4.284,1197.078,0.00084,0,0,4.004
4.289,1199.052,0.00083,0,0,4.009
4.293,1189.59,0.00084,0,0,4.013
4.298,1200.281,0.00083,0,0,4.017
4.302,1195.14,0.00084,0,0,4.021
4.306,1210.699,0.00083,0,0,4.025
4.311,1189.041,0.00084,0,0,4.029
4.315,1196.833,0.00084,0,0,4.033
4.32,1219.503,0.00082,0,0,4.037
4.324,1204.793,0.00083,0,0,4.041
4.328,1228.077,0.00081,0,0,4.046
4.333,1241.081,0.00081,0,0,4.05
4.337,1232.795,0.00081,0,0,4.054
4.342,1249.417,0.0008,0,0,4.058
4.346,1245.445,0.0008,0,0,4.062
4.35,1249.452,0.0008,0,0,4.066
4.355,1244.072,0.0008,0,0,4.07
4.359,1213.906,0.00082,0,0,4.074
4.364,1286.198,0.00078,0,0,4.078
4.368,1264.81,0.00079,0,0,4.083
4.372,1265.446,0.00079,0,0,4.087
4.377,1311.502,0.00076,0,0,4.091
4.381,1293.521,0.00077,0,0,4.095
4.386,1335.009,0.00075,0,0,4.099
4.39,1337.87,0.00075,0,0,4.103
4.394,1321.738,0.00076,0,0,4.107
4.399,1378.365,0.00073,0,0,4.111
4.403,1388.601,0.00072,0,0,4.115
4.408,1407.999,0.00071,0,0,4.12
4.412,1457.492,0.00069,0,0,4.124
4.416,1439.244,0.00069,0,0,4.128
4.421,1509.826,0.00066,0,0,4.132
4.425,1528.967,0.00065,0,0,4.136
4.43,1532.57,0.00065,0,0,4.14
4.434,1617.245,0.00062,0,0,4.144
4.438,1625.752,0.00062,0,0,4.148
4.443,1665.852,0.0006,0,0,4.152
4.447,1697.33,0.00059,0,0,4.157
4.452,1742.813,0.00057,0,0,4.161
4.456,1807.31,0.00055,0,0,4.165
4.46,1849.41,0.00054,0,0,4.169
4.465,1823.219,0.00055,0,0,4.173
4.469,1889.754,0.00053,0,0,4.177
4.474,1918.383,0.00052,0,0,4.181
4.478,1967.852,0.00051,0,0,4.185
4.482,2015.143,0.0005,0,0,4.189
4.487,2004.486,0.0005,0,0,4.194
4.491,2055.481,0.00049,0,0,4.198
4.496,2058.558,0.00049,0,0,4.202
4.5,2083.197,0.00048,0,0,4.206
4.504,2102.443,0.00048,0,0,4.21
4.509,2121.077,0.00047,0,0,4.214
4.513,2131.196,0.00047,0,0,4.218
4.518,2152.842,0.00046,0,0,4.222
4.522,2147.167,0.00047,0,0,4.226
4.526,2131.889,0.00047,0,0,4.231
4.531,2145.455,0.00047,0,0,4.235
4.535,2110.347,0.00047,0,0,4.239
4.54,2113.963,0.00047,0,0,4.243
4.544,2095.28,0.00048,0,0,4.247
4.548,2053.399,0.00049,0,0,4.251
4.553,2053.334,0.00049,0,0,4.255
4.557,2023.673,0.00049,0,0,4.259
4.562,1970.224,0.00051,0,0,4.263
4.566,1941.92,0.00051,0,0,4.268
4.57,1884.598,0.00053,0,0,4.272
4.575,1873.328,0.00053,0,0,4.276
4.579,1797.886,0.00056,0,0,4.28
4.584,1732.762,0.00058,0,0,4.284
4.588,1703.764,0.00059,0,0,4.288
4.592,1641.209,0.00061,0,0,4.292
4.597,1650.161,0.00061,0,0,4.296
4.601,1562.168,0.00064,0,0,4.3
4.606,1524.29,0.00066,0,0,4.305
4.61,1499.564,0.00067,0,0,4.309
4.614,1464.306,0.00068,0,0,4.313
4.619,1439.835,0.00069,0,0,4.317
4.623,1408.996,0.00071,0,0,4.321
4.628,1380.388,0.00072,0,0,4.325
4.632,1342.531,0.00074,0,0,4.329
4.636,1353.726,0.00074,0,0,4.333
4.641,1300.316,0.00077,0,0,4.337
4.645,1298.093,0.00077,0,0,4.342
4.65,1311.328,0.00076,0,0,4.346
4.654,1270.753,0.00079,0,0,4.35
4.658,1227.211,0.00081,0,0,4.354
4.663,1254.216,0.0008,0,0,4.358
4.667,1204.602,0.00083,0,0,4.362
4.672,1246.647,0.0008,0,0,4.366
4.676,1183.991,0.00084,0,0,4.37
4.68,1203.166,0.00083,0,0,4.374
4.685,1199.065,0.00083,0,0,4.379
4.689,1149.972,0.00087,0,0,4.383
4.694,1179.887,0.00085,0,0,4.387
4.698,1133.559,0.00088,0,0,4.391
4.702,1129.956,0.00088,0,0,4.395
4.707,1149.541,0.00087,0,0,4.399
4.711,1124.929,0.00089,0,0,4.403
4.716,1128.218,0.00089,0,0,4.407
4.72,1119.105,0.00089,0,0,4.411
4.724,1114.719,0.0009,0,0,4.416
4.729,1124.532,0.00089,0,0,4.42
4.733,1127.637,0.00089,0,0,4.424
4.738,1137.27,0.00088,0,0,4.428
4.742,1157.991,0.00086,0,0,4.432
4.746,1140.599,0.00088,0,0,4.436
4.751,1138.603,0.00088,0,0,4.44
4.755,1157.376,0.00086,0,0,4.444
4.76,1138.303,0.00088,0,0,4.448
4.764,1166.342,0.00086,0,0,4.453
4.768,1157.676,0.00086,0,0,4.457
4.773,1156.781,0.00086,0,0,4.461
4.777,1173.936,0.00085,0,0,4.465
4.782,1152.556,0.00087,0,0,4.469
4.786,1146.553,0.00087,0,0,4.473
4.79,1171.464,0.00085,0,0,4.477
4.795,1170.831,0.00085,0,0,4.481
4.799,1183.856,0.00084,0,0,4.485
4.804,1168.974,0.00086,0,0,4.49
4.808,1156.956,0.00086,0,0,4.494
4.812,1194.57,0.00084,0,0,4.498
4.817,1171.359,0.00085,0,0,4.502
4.821,1154.659,0.00087,0,0,4.506
4.826,1166.014,0.00086,0,0,4.51
4.83,1149.422,0.00087,0,0,4.514
4.834,1164.113,0.00086,0,0,4.518
4.839,1161.424,0.00086,0,0,4.522
4.843,1150.818,0.00087,0,0,4.526
4.848,1187.99,0.00084,0,0,4.531
4.852,1165.792,0.00086,0,0,4.535
4.856,1174.963,0.00085,0,0,4.539
4.861,1184.909,0.00084,0,0,4.543
4.865,1129.325,0.00089,0,0,4.547
4.87,1167.6,0.00086,0,0,4.551
4.874,1148.706,0.00087,0,0,4.555
4.878,1169.267,0.00086,0,0,4.559
4.883,1166.591,0.00086,0,0,4.563
4.887,1178.305,0.00085,0,0,4.568
4.892,1154.534,0.00087,0,0,4.572
4.896,1154.838,0.00087,0,0,4.576
4.9,1154.08,0.00087,0,0,4.58
4.905,1151.119,0.00087,0,0,4.584
4.909,1151.265,0.00087,0,0,4.588
4.914,1145.354,0.00087,0,0,4.592
4.918,1165.644,0.00086,0,0,4.596
4.922,1153.103,0.00087,0,0,4.6
4.927,1143.176,0.00087,0,0,4.605
4.931,1140.722,0.00088,0,0,4.609
4.936,1125.829,0.00089,0,0,4.613
4.94,1137.995,0.00088,0,0,4.617
4.944,1151.67,0.00087,0,0,4.621
4.949,1140.312,0.00088,0,0,4.625
4.953,1142.187,0.00088,0,0,4.629
4.958,1121.437,0.00089,0,0,4.633
4.962,1101.311,0.00091,0,0,4.637
4.966,1097.013,0.00091,0,0,4.642
4.971,1101.116,0.00091,0,0,4.646
4.975,1100.478,0.00091,0,0,4.65
4.98,1102.189,0.00091,0,0,4.654
4.984,1058.844,0.00094,0,0,4.658
4.988,1107.683,0.0009,0,0,4.662
4.993,1074.976,0.00093,0,0,4.666
4.997,1060.771,0.00094,0,0,4.67
5.002,1095.447,0.00091,0,0,4.674
5.006,1061.173,0.00094,0,0,4.679
5.01,1040.596,0.00096,0,0,4.683
5.015,1058.761,0.00094,0,0,4.687
5.019,1033.269,0.00097,0,0,4.691
5.024,1032.401,0.00097,0,0,4.695
5.028,1044.168,0.00096,0,0,4.699
5.032,1031.68,0.00097,0,0,4.703
5.037,1021.636,0.00098,0,0,4.707
5.041,1026.537,0.00097,0,0,4.711
5.046,1002.029,0.001,0,0,4.716
5.05,1011.039,0.00099,0,0,4.72
5.054,992.534,0.00101,0,0,4.724
5.059,1008.741,0.00099,0,0,4.728
5.063,1021.332,0.00098,0,0,4.732
5.068,987.981,0.00101,0,0,4.736
5.072,993.117,0.00101,0,0,4.74
5.076,975.28,0.00103,0,0,4.744
5.081,976.841,0.00102,0,0,4.748
5.085,990.378,0.00101,0,0,4.753
5.09,951.35,0.00105,0,0,4.757
5.094,969.076,0.00103,0,0,4.761
5.098,954.606,0.00105,0,0,4.765
5.103,920.556,0.00109,0,0,4.769
5.107,970.686,0.00103,0,0,4.773
5.112,923.667,0.00108,0,0,4.777
5.116,936.1,0.00107,0,0,4.781
5.12,934.012,0.00107,0,0,4.785
5.125,926.367,0.00108,0,0,4.79
5.129,922.929,0.00108,0,0,4.794
5.134,935.079,0.00107,0,0,4.798
5.138,958.15,0.00104,0,0,4.802
5.142,928.725,0.00108,0,0,4.806
5.147,919.827,0.00109,0,0,4.81
5.151,915.782,0.00109,0,0,4.814
5.156,936.821,0.00107,0,0,4.818
5.16,913.887,0.00109,0,0,4.822
5.164,916.204,0.00109,0,0,4.826
5.169,918.532,0.00109,0,0,4.831
5.173,937.538,0.00107,0,0,4.835
5.178,939.219,0.00106,0,0,4.839
5.182,940.866,0.00106,0,0,4.843
5.186,942.075,0.00106,0,0,4.847
5.191,947.373,0.00106,0,0,4.851
5.195,944.583,0.00106,0,0,4.855
5.2,945.532,0.00106,0,0,4.859
5.204,971.426,0.00103,0,0,4.863
5.208,966.686,0.00103,0,0,4.868
5.213,984.783,0.00102,0,0,4.872
5.217,993.035,0.00101,0,0,4.876
5.222,1003.786,0.001,0,0,4.88
5.226,1006.934,0.00099,0,0,4.884
5.23,1033.258,0.00097,0,0,4.888
5.235,1036.026,0.00097,0,0,4.892
5.239,1067.515,0.00094,0,0,4.896
5.244,1063.788,0.00094,0,0,4.9
5.248,1079.899,0.00093,0,0,4.905
5.252,1123.761,0.00089,0,0,4.909
5.257,1109.503,0.0009,0,0,4.913
5.261,1151.875,0.00087,0,0,4.917
5.266,1147.776,0.00087,0,0,4.921
5.27,1163.717,0.00086,0,0,4.925
5.274,1172.401,0.00085,0,0,4.929
5.279,1185.312,0.00084,0,0,4.933
5.283,1183.043,0.00085,0,0,4.937
5.288,1209.71,0.00083,0,0,4.942
5.292,1194.704,0.00084,0,0,4.946
5.296,1224.432,0.00082,0,0,4.95
5.301,1223.241,0.00082,0,0,4.954
5.305,1212.607,0.00082,0,0,4.958
5.31,1220.965,0.00082,0,0,4.962
5.314,1197.416,0.00084,0,0,4.966
5.318,1196.881,0.00084,0,0,4.97
5.323,1210.763,0.00083,0,0,4.974
5.327,1146.05,0.00087,0,0,4.979
5.332,1164.247,0.00086,0,0,4.983
5.336,1147.775,0.00087,0,0,4.987
5.34,1140.629,0.00088,0,0,4.991
5.345,1120.872,0.00089,0,0,4.995
5.349,1093.565,0.00091,0,0,4.999
5.354,1084.321,0.00092,0,0,5.003
5.358,1045.441,0.00096,0,0,5.007
5.362,1023.694,0.00098,0,0,5.011
5.367,1032.026,0.00097,0,0,5.016
5.371,1024.986,0.00098,0,0,5.02
5.376,983.556,0.00102,0,0,5.024
5.38,970.65,0.00103,0,0,5.028
5.384,974.436,0.00103,0,0,5.032
5.389,952.65,0.00105,0,0,5.036
5.393,953.459,0.00105,0,0,5.04
5.398,917.878,0.00109,0,0,5.044
5.402,931.614,0.00107,0,0,5.048
5.406,916.79,0.00109,0,0,5.052
5.411,904.541,0.00111,0,0,5.057
5.415,916.464,0.00109,0,0,5.061
5.42,895.121,0.00112,0,0,5.065
5.424,874.677,0.00114,0,0,5.069
5.428,863.366,0.00116,0,0,5.073
5.433,877.942,0.00114,0,0,5.077
5.437,865.014,0.00116,0,0,5.081
5.442,875.874,0.00114,0,0,5.085
5.446,850.151,0.00118,0,0,5.089
5.45,869.172,0.00115,0,0,5.094
5.455,850.689,0.00118,0,0,5.098
5.459,839.777,0.00119,0,0,5.102
5.464,850.289,0.00118,0,0,5.106
5.468,828.746,0.00121,0,0,5.11
5.472,838.034,0.00119,0,0,5.114
5.477,856.351,0.00117,0,0,5.118
5.481,851.229,0.00117,0,0,5.122
5.486,834.052,0.0012,0,0,5.126
5.49,826.916,0.00121,0,0,5.131
5.494,844.84,0.00118,0,0,5.135
5.499,839.747,0.00119,0,0,5.139
5.503,846.42,0.00118,0,0,5.143
5.508,841.587,0.00119,0,0,5.147
5.512,843.516,0.00119,0,0,5.151
5.516,831.913,0.0012,0,0,5.155
5.521,827.898,0.00121,0,0,5.159
5.525,847.687,0.00118,0,0,5.163
5.53,825.844,0.00121,0,0,5.168
5.534,826.931,0.00121,0,0,5.172
5.538,855.622,0.00117,0,0,5.176
5.543,822.395,0.00122,0,0,5.18
5.547,856.019,0.00117,0,0,5.184
5.552,832.557,0.0012,0,0,5.188
5.556,824.678,0.00121,0,0,5.192
5.56,847.326,0.00118,0,0,5.196
5.565,828.092,0.00121,0,0,5.2
5.569,850.073,0.00118,0,0,5.205
5.574,834.221,0.0012,0,0,5.209
5.578,851.258,0.00117,0,0,5.213
5.582,848.537,0.00118,0,0,5.217
5.587,854.436,0.00117,0,0,5.221
5.591,871.406,0.00115,0,0,5.225
5.596,887.609,0.00113,0,0,5.229
5.6,883.907,0.00113,0,0,5.233
5.604,879.806,0.00114,0,0,5.237
5.609,898.171,0.00111,0,0,5.242
5.613,906.752,0.0011,0,0,5.246
5.618,915.722,0.00109,0,0,5.25
5.622,943.908,0.00106,0,0,5.254
5.626,933.901,0.00107,0,0,5.258
5.631,971.279,0.00103,0,0,5.262
5.635,969.029,0.00103,0,0,5.266
5.64,969.273,0.00103,0,0,5.27
5.644,982.777,0.00102,0,0,5.274
5.648,983.18,0.00102,0,0,5.278
5.653,998.704,0.001,0,0,5.283
5.657,1013.762,0.00099,0,0,5.287
5.662,1024.339,0.00098,0,0,5.291
5.666,1026.517,0.00097,0,0,5.295
5.67,1028.334,0.00097,0,0,5.299
5.675,1015.694,0.00098,0,0,5.303
5.679,1031.73,0.00097,0,0,5.307
5.684,1017.928,0.00098,0,0,5.311
5.688,1037.378,0.00096,0,0,5.315
5.692,1009.955,0.00099,0,0,5.32
5.697,1013.473,0.00099,0,0,5.324
5.701,1012.029,0.00099,0,0,5.328
5.706,983.515,0.00102,0,0,5.332
5.71,999.842,0.001,0,0,5.336
5.714,990.154,0.00101,0,0,5.34
5.719,980.09,0.00102,0,0,5.344
5.723,953.306,0.00105,0,0,5.348
5.728,958.707,0.00104,0,0,5.352
5.732,942.32,0.00106,0,0,5.357
5.736,928.068,0.00108,0,0,5.361
5.741,907.868,0.0011,0,0,5.365
5.745,923.045,0.00108,0,0,5.369
5.75,902.759,0.00111,0,0,5.373
5.754,878.982,0.00114,0,0,5.377
5.758,867.616,0.00115,0,0,5.381
5.763,880.079,0.00114,0,0,5.385
5.767,826.925,0.00121,0,0,5.389
5.772,844.141,0.00118,0,0,5.394
5.776,846.756,0.00118,0,0,5.398
5.78,840.83,0.00119,0,0,5.402
5.785,836.583,0.0012,0,0,5.406
5.789,828.032,0.00121,0,0,5.41
5.794,800.367,0.00125,0,0,5.414
5.798,820.851,0.00122,0,0,5.418
5.802,792.205,0.00126,0,0,5.422
5.807,798.679,0.00125,0,0,5.426
5.811,793.371,0.00126,0,0,5.43
5.816,794.403,0.00126,0,0,5.435
5.82,805.676,0.00124,0,0,5.439
5.824,784.297,0.00128,0,0,5.443
5.829,782.966,0.00128,0,0,5.447
5.833,758.612,0.00132,0,0,5.451
5.838,751.989,0.00133,0,0,5.455
5.842,762.17,0.00131,0,0,5.459
5.846,757.846,0.00132,0,0,5.463
5.851,759.459,0.00132,0,0,5.467
5.855,765.979,0.00131,0,0,5.472
5.86,760.351,0.00132,0,0,5.476
5.864,765.49,0.00131,0,0,5.48
5.868,746.044,0.00134,0,0,5.484
5.873,756.787,0.00132,0,0,5.488
5.877,727.396,0.00137,0,0,5.492
5.882,735.414,0.00136,0,0,5.496
5.886,738.987,0.00135,0,0,5.5
5.89,741.208,0.00135,0,0,5.504
5.895,736.707,0.00136,0,0,5.509
5.899,737.877,0.00136,0,0,5.513
5.904,739.919,0.00135,0,0,5.517
5.908,744.214,0.00134,0,0,5.521
5.912,732.204,0.00137,0,0,5.525
5.917,738.574,0.00135,0,0,5.529
5.921,711.82,0.0014,0,0,5.533
5.926,739.076,0.00135,0,0,5.537
5.93,734.144,0.00136,0,0,5.541
5.934,737.72,0.00136,0,0,5.546
5.939,739.102,0.00135,0,0,5.55
5.943,714.886,0.0014,0,0,5.554
5.948,733.245,0.00136,0,0,5.558
5.952,744.369,0.00134,0,0,5.562
5.956,730.35,0.00137,0,0,5.566
5.961,742.573,0.00135,0,0,5.57
5.965,726.363,0.00138,0,0,5.574
5.97,734.553,0.00136,0,0,5.578
5.974,721.376,0.00139,0,0,5.582
5.978,735.517,0.00136,0,0,5.587
5.983,718.612,0.00139,0,0,5.591
5.987,718.342,0.00139,0,0,5.595
5.992,722.994,0.00138,0,0,5.599
5.996,704.856,0.00142,0,0,5.603
6,723.318,0.00138,0,0,5.607
6.005,706.131,0.00142,0,0,5.611
6.009,706.031,0.00142,0,0,5.615
6.014,706.684,0.00142,0,0,5.619
6.018,700.94,0.00143,0,0,5.624
6.022,709.622,0.00141,0,0,5.628
6.027,699.615,0.00143,0,0,5.632
6.031,709.453,0.00141,0,0,5.636
6.036,706.179,0.00142,0,0,5.64
6.04,718.196,0.00139,0,0,5.644
6.044,708.127,0.00141,0,0,5.648
6.049,735.602,0.00136,0,0,5.652
6.053,684.555,0.00146,0,0,5.656
6.058,688.148,0.00145,0,0,5.661
6.062,697.273,0.00143,0,0,5.665
6.066,692.864,0.00144,0,0,5.669
6.071,708.698,0.00141,0,0,5.673
6.075,691.029,0.00145,0,0,5.677
6.08,696.818,0.00144,0,0,5.681
6.084,716.146,0.0014,0,0,5.685
6.088,689.155,0.00145,0,0,5.689
6.093,701.446,0.00143,0,0,5.693
6.097,708.12,0.00141,0,0,5.698
6.102,686.728,0.00146,0,0,5.702
6.106,680.183,0.00147,0,0,5.706
6.11,703.352,0.00142,0,0,5.71
6.115,699.95,0.00143,0,0,5.714
6.119,689.914,0.00145,0,0,5.718
6.124,681.785,0.00147,0,0,5.722
6.128,707.031,0.00141,0,0,5.726
6.132,689.715,0.00145,0,0,5.73
6.137,700.348,0.00143,0,0,5.734
6.141,706.341,0.00142,0,0,5.739
6.146,699.162,0.00143,0,0,5.743
6.15,700.187,0.00143,0,0,5.747
6.154,705.265,0.00142,0,0,5.751
6.159,717.924,0.00139,0,0,5.755
6.163,707.772,0.00141,0,0,5.759
6.168,703.735,0.00142,0,0,5.763
6.172,709.966,0.00141,0,0,5.767
6.176,712.763,0.0014,0,0,5.771
6.181,713.944,0.0014,0,0,5.776
6.185,699.49,0.00143,0,0,5.78
6.19,709.614,0.00141,0,0,5.784
6.194,728.355,0.00137,0,0,5.788
6.198,737.455,0.00136,0,0,5.792
6.203,697.862,0.00143,0,0,5.796
6.207,705.594,0.00142,0,0,5.8
6.212,703.871,0.00142,0,0,5.804
6.216,723.841,0.00138,0,0,5.808
6.22,719.2,0.00139,0,0,5.813
6.225,725.04,0.00138,0,0,5.817
6.229,727.074,0.00138,0,0,5.821
6.234,725.217,0.00138,0,0,5.825
6.238,724.867,0.00138,0,0,5.829
6.242,736.44,0.00136,0,0,5.833
6.247,735.662,0.00136,0,0,5.837
6.251,732.631,0.00136,0,0,5.841
6.256,730.761,0.00137,0,0,5.845
6.26,743.311,0.00135,0,0,5.849
6.264,748.344,0.00134,0,0,5.854
6.269,745.513,0.00134,0,0,5.858
6.273,745.971,0.00134,0,0,5.862
6.278,751.51,0.00133,0,0,5.866
6.282,774.104,0.00129,0,0,5.87
6.286,765.824,0.00131,0,0,5.874
6.291,767.549,0.0013,0,0,5.878
6.295,764.696,0.00131,0,0,5.882
6.3,781.589,0.00128,0,0,5.886
6.304,767.617,0.0013,0,0,5.891
6.308,762.585,0.00131,0,0,5.895
6.313,770.834,0.0013,0,0,5.899
6.317,747.855,0.00134,0,0,5.903
6.322,799.738,0.00125,0,0,5.907
6.326,785.748,0.00127,0,0,5.911
6.33,777.481,0.00129,0,0,5.915
6.335,788.299,0.00127,0,0,5.919
6.339,780.15,0.00128,0,0,5.923
6.344,789.283,0.00127,0,0,5.928
6.348,787.635,0.00127,0,0,5.932
6.352,773.382,0.00129,0,0,5.936
6.357,807.376,0.00124,0,0,5.94
6.361,793.401,0.00126,0,0,5.944
6.366,795.673,0.00126,0,0,5.948
6.37,790.955,0.00126,0,0,5.952
6.374,779.555,0.00128,0,0,5.956
6.379,797.71,0.00125,0,0,5.96
6.383,782.994,0.00128,0,0,5.964
6.388,790.538,0.00126,0,0,5.969
6.392,783.372,0.00128,0,0,5.973
6.396,794.648,0.00126,0,0,5.977
6.401,797.041,0.00125,0,0,5.981
6.405,805.64,0.00124,0,0,5.985
6.41,789.03,0.00127,0,0,5.989
6.414,799.548,0.00125,0,0,5.993
6.418,794.717,0.00126,0,0,5.997
6.423,773.739,0.00129,0,0,6.001
6.427,794.494,0.00126,0,0,6.006
6.432,783.272,0.00128,0,0,6.01
6.436,785.551,0.00127,0,0,6.014
6.44,789.153,0.00127,0,0,6.018
6.445,761.802,0.00131,0,0,6.022
6.449,770.695,0.0013,0,0,6.026
6.454,760.349,0.00132,0,0,6.03
6.458,750.88,0.00133,0,0,6.034
6.462,741.725,0.00135,0,0,6.038
6.467,763.039,0.00131,0,0,6.043
6.471,760.248,0.00132,0,0,6.047
6.476,771.391,0.0013,0,0,6.051
6.48,743.479,0.00135,0,0,6.055
6.484,764.14,0.00131,0,0,6.059
6.489,760.141,0.00132,0,0,6.063
6.493,743.966,0.00134,0,0,6.067
6.498,759.949,0.00132,0,0,6.071
6.502,743.866,0.00134,0,0,6.075
6.506,744.387,0.00134,0,0,6.079
6.511,743.246,0.00135,0,0,6.084
6.515,740.659,0.00135,0,0,6.088
6.52,749.102,0.00133,0,0,6.092
6.524,752.723,0.00133,0,0,6.096
6.528,742.052,0.00135,0,0,6.1
6.533,737.346,0.00136,0,0,6.104
6.537,742.523,0.00135,0,0,6.108
6.542,736.927,0.00136,0,0,6.112
6.546,735.931,0.00136,0,0,6.116
6.55,731.652,0.00137,0,0,6.121
6.555,736.4,0.00136,0,0,6.125
6.559,729.851,0.00137,0,0,6.129
6.564,721.514,0.00139,0,0,6.133
6.568,729.722,0.00137,0,0,6.137
6.572,733.451,0.00136,0,0,6.141
6.577,718.463,0.00139,0,0,6.145
6.581,741.129,0.00135,0,0,6.149
6.586,746.12,0.00134,0,0,6.153
6.59,730.399,0.00137,0,0,6.158
6.594,742.34,0.00135,0,0,6.162
6.599,739.172,0.00135,0,0,6.166
6.603,742.715,0.00135,0,0,6.17
6.608,730.417,0.00137,0,0,6.174
6.612,732.258,0.00137,0,0,6.178
6.616,738.883,0.00135,0,0,6.182
6.621,747.057,0.00134,0,0,6.186
6.625,755.603,0.00132,0,0,6.19
6.63,738.847,0.00135,0,0,6.194
6.634,749.819,0.00133,0,0,6.199
6.638,740.009,0.00135,0,0,6.203
6.643,744.712,0.00134,0,0,6.207
6.647,743.202,0.00135,0,0,6.211
6.652,752.571,0.00133,0,0,6.215
6.656,759.141,0.00132,0,0,6.219
6.66,745.221,0.00134,0,0,6.223
6.665,740.471,0.00135,0,0,6.227
6.669,766.276,0.00131,0,0,6.231
6.674,740.437,0.00135,0,0,6.236
6.678,754.05,0.00133,0,0,6.24
6.682,758.256,0.00132,0,0,6.244
6.687,745.89,0.00134,0,0,6.248
6.691,773.234,0.00129,0,0,6.252
6.696,757.191,0.00132,0,0,6.256
6.7,767.539,0.0013,0,0,6.26
6.704,776.008,0.00129,0,0,6.264
6.709,759.945,0.00132,0,0,6.268
6.713,754.489,0.00133,0,0,6.272
6.718,766.477,0.0013,0,0,6.277
6.722,764.475,0.00131,0,0,6.281
6.726,757.268,0.00132,0,0,6.285
6.731,759.079,0.00132,0,0,6.289
6.735,763.939,0.00131,0,0,6.293
6.74,801.444,0.00125,0,0,6.297
6.744,746.446,0.00134,0,0,6.301
6.748,762.899,0.00131,0,0,6.305
6.753,755.202,0.00132,0,0,6.309
6.757,756.187,0.00132,0,0,6.314
6.762,759.183,0.00132,0,0,6.318
6.766,760.589,0.00131,0,0,6.322
6.77,757.998,0.00132,0,0,6.326
6.775,758.569,0.00132,0,0,6.33
6.779,750.251,0.00133,0,0,6.334
6.784,755.777,0.00132,0,0,6.338
6.788,765.237,0.00131,0,0,6.342
6.792,754.603,0.00133,0,0,6.346
6.797,749.796,0.00133,0,0,6.351
6.801,762.198,0.00131,0,0,6.355
6.806,746.323,0.00134,0,0,6.359
6.81,742.788,0.00135,0,0,6.363
6.814,762.261,0.00131,0,0,6.367
6.819,750.588,0.00133,0,0,6.371
6.823,769.46,0.0013,0,0,6.375
6.828,773.436,0.00129,0,0,6.379
6.832,781.305,0.00128,0,0,6.383
6.836,746.169,0.00134,0,0,6.387
6.841,762.268,0.00131,0,0,6.392
6.845,765.584,0.00131,0,0,6.396
6.85,779.963,0.00128,0,0,6.4
6.854,765.485,0.00131,0,0,6.404
6.858,776.929,0.00129,0,0,6.408
6.863,769,0.0013,0,0,6.412
6.867,765.096,0.00131,0,0,6.416
6.872,781.309,0.00128,0,0,6.42
6.876,782.632,0.00128,0,0,6.424
6.88,785.962,0.00127,0,0,6.429
6.885,780.477,0.00128,0,0,6.433
6.889,771.774,0.0013,0,0,6.437
6.894,797.624,0.00125,0,0,6.441
6.898,773.975,0.00129,0,0,6.445
6.902,785.01,0.00127,0,0,6.449
6.907,790.08,0.00127,0,0,6.453
6.911,798.212,0.00125,0,0,6.457
6.916,904.924,0.00111,0,0,6.461
6.92,799.278,0.00125,0,0,6.465
6.924,803.123,0.00125,0,0,6.47
6.929,803.725,0.00124,0,0,6.474
6.933,799.764,0.00125,0,0,6.478
6.938,790.551,0.00126,0,0,6.482
6.942,813.088,0.00123,0,0,6.486
6.946,780.695,0.00128,0,0,6.49
6.951,792.057,0.00126,0,0,6.494
6.955,790.031,0.00127,0,0,6.498
6.96,782.015,0.00128,0,0,6.502
6.964,786.291,0.00127,0,0,6.507
6.968,789.715,0.00127,0,0,6.511
6.973,782.084,0.00128,0,0,6.515
6.977,796.422,0.00126,0,0,6.519
6.982,794.38,0.00126,0,0,6.523
6.986,790.489,0.00127,0,0,6.527
6.99,786.374,0.00127,0,0,6.531
6.995,781.982,0.00128,0,0,6.535
6.999,785.739,0.00127,0,0,6.539
7.004,775.292,0.00129,0,0,6.544
7.008,786.234,0.00127,0,0,6.548
7.012,794.784,0.00126,0,0,6.552
7.017,800.171,0.00125,0,0,6.556
7.021,757.13,0.00132,0,0,6.56
7.026,861.789,0.00116,0,0,6.564
7.03,759.902,0.00132,0,0,6.568
7.034,760.74,0.00131,0,0,6.572
7.039,757.389,0.00132,0,0,6.576
7.043,774.751,0.00129,0,0,6.58
7.048,755.596,0.00132,0,0,6.585
7.052,745.701,0.00134,0,0,6.589
7.056,738.556,0.00135,0,0,6.593
7.061,748.704,0.00134,0,0,6.597
7.065,746.773,0.00134,0,0,6.601
7.07,754.585,0.00133,0,0,6.605
7.074,763.455,0.00131,0,0,6.609
7.078,758.393,0.00132,0,0,6.613
7.083,752.816,0.00133,0,0,6.617
7.087,752.723,0.00133,0,0,6.622
7.092,746.632,0.00134,0,0,6.626
7.096,736.14,0.00136,0,0,6.63
7.1,750.458,0.00133,0,0,6.634
7.105,740.85,0.00135,0,0,6.638
7.109,737.436,0.00136,0,0,6.642
7.114,810.948,0.00123,0,0,6.646
7.118,709.05,0.00141,0,0,6.65
7.122,742.01,0.00135,0,0,6.654
7.127,747.767,0.00134,0,0,6.658
7.131,753.574,0.00133,0,0,6.663
7.136,783.375,0.00128,0,0,6.667
7.14,747.223,0.00134,0,0,6.671
7.144,751.955,0.00133,0,0,6.675
7.149,758.899,0.00132,0,0,6.679
7.153,757.503,0.00132,0,0,6.683
7.158,763.364,0.00131,0,0,6.687
7.162,764.492,0.00131,0,0,6.691
7.166,748.039,0.00134,0,0,6.695
7.171,768.234,0.0013,0,0,6.7
7.175,766.4,0.0013,0,0,6.704
7.18,778.299,0.00128,0,0,6.708
7.184,761.183,0.00131,0,0,6.712
7.188,776.683,0.00129,0,0,6.716
7.193,779.647,0.00128,0,0,6.72
7.197,771.716,0.0013,0,0,6.724
7.202,801.975,0.00125,0,0,6.728
7.206,800.111,0.00125,0,0,6.732
7.21,786.993,0.00127,0,0,6.736
7.215,812.63,0.00123,0,0,6.741
7.219,812.217,0.00123,0,0,6.745
7.224,793.943,0.00126,0,0,6.749
7.228,817.097,0.00122,0,0,6.753
7.232,801.909,0.00125,0,0,6.757
7.237,810.506,0.00123,0,0,6.761
7.241,786.92,0.00127,0,0,6.765
7.246,800.995,0.00125,0,0,6.769
7.25,799.905,0.00125,0,0,6.773
7.254,803.446,0.00124,0,0,6.778
7.259,786.766,0.00127,0,0,6.782
7.263,791.599,0.00126,0,0,6.786
7.268,807.818,0.00124,0,0,6.79
7.272,777.25,0.00129,0,0,6.794
7.276,798.04,0.00125,0,0,6.798
7.281,784.315,0.00127,0,0,6.802
7.285,789.178,0.00127,0,0,6.806
7.29,781.135,0.00128,0,0,6.81
7.294,774.616,0.00129,0,0,6.814
7.298,783.616,0.00128,0,0,6.819
7.303,778.619,0.00128,0,0,6.823
7.307,777.93,0.00129,0,0,6.827
7.312,780.58,0.00128,0,0,6.831
7.316,764.651,0.00131,0,0,6.835
7.32,766.095,0.00131,0,0,6.839
7.325,771.858,0.0013,0,0,6.843
7.329,761.268,0.00131,0,0,6.847
7.334,750.239,0.00133,0,0,6.851
7.338,746.189,0.00134,0,0,6.856
7.342,747.142,0.00134,0,0,6.86
7.347,740.97,0.00135,0,0,6.864
7.351,739.869,0.00135,0,0,6.868
7.356,736.115,0.00136,0,0,6.872
7.36,749.522,0.00133,0,0,6.876
7.364,730.177,0.00137,0,0,6.88
7.369,753.011,0.00133,0,0,6.884
7.373,737.524,0.00136,0,0,6.888
7.378,767.76,0.0013,0,0,6.892
7.382,761.245,0.00131,0,0,6.897
7.386,746.041,0.00134,0,0,6.901
7.391,735.685,0.00136,0,0,6.905
7.395,748.989,0.00134,0,0,6.909
7.4,760.274,0.00132,0,0,6.913
7.404,758.482,0.00132,0,0,6.917
7.408,752.054,0.00133,0,0,6.921
7.413,756.137,0.00132,0,0,6.925
7.417,766.556,0.0013,0,0,6.929
7.422,758.608,0.00132,0,0,6.934
7.426,765.445,0.00131,0,0,6.938
7.43,783.781,0.00128,0,0,6.942
7.435,760.625,0.00131,0,0,6.946
7.439,771.137,0.0013,0,0,6.95
7.444,772.422,0.00129,0,0,6.954
7.448,782.414,0.00128,0,0,6.958
7.452,770.489,0.0013,0,0,6.962
7.457,777.987,0.00129,0,0,6.966
7.461,783.242,0.00128,0,0,6.97
7.466,786.714,0.00127,0,0,6.975
7.47,789.323,0.00127,0,0,6.979
7.474,809.993,0.00123,0,0,6.983
7.479,806.359,0.00124,0,0,6.987
7.483,810.528,0.00123,0,0,6.991
7.488,799.174,0.00125,0,0,6.995
7.492,822.455,0.00122,0,0,6.999
7.496,808.038,0.00124,0,0,7.003
7.501,845.681,0.00118,0,0,7.007
7.505,837.496,0.00119,0,0,7.012
7.51,840.743,0.00119,0,0,7.016
7.514,850.858,0.00118,0,0,7.02
7.518,865.144,0.00116,0,0,7.024
7.523,861.753,0.00116,0,0,7.028
7.527,843.584,0.00119,0,0,7.032
7.532,865.433,0.00116,0,0,7.036
7.536,864.187,0.00116,0,0,7.04
7.54,873.197,0.00115,0,0,7.044
7.545,873.159,0.00115,0,0,7.048
7.549,890.838,0.00112,0,0,7.053
7.554,871.473,0.00115,0,0,7.057
7.558,893.086,0.00112,0,0,7.061
7.562,883.366,0.00113,0,0,7.065
7.567,878.718,0.00114,0,0,7.069
7.571,860.797,0.00116,0,0,7.073
7.576,871.931,0.00115,0,0,7.077
7.58,871.283,0.00115,0,0,7.081
7.584,876.818,0.00114,0,0,7.085
7.589,872.191,0.00115,0,0,7.089
7.593,875.846,0.00114,0,0,7.094
7.598,862.147,0.00116,0,0,7.098
7.602,860.548,0.00116,0,0,7.102
7.606,882.958,0.00113,0,0,7.106
7.611,887.088,0.00113,0,0,7.11
7.615,856.109,0.00117,0,0,7.114
7.62,880.834,0.00114,0,0,7.118
7.624,879.759,0.00114,0,0,7.122
7.628,885.655,0.00113,0,0,7.126
7.633,854.236,0.00117,0,0,7.131
7.637,851.891,0.00117,0,0,7.135
7.642,844.513,0.00118,0,0,7.139
7.646,836.916,0.00119,0,0,7.143
7.65,851.678,0.00117,0,0,7.147
7.655,828.349,0.00121,0,0,7.151
7.659,827.028,0.00121,0,0,7.155
7.664,836.943,0.00119,0,0,7.159
7.668,810.614,0.00123,0,0,7.163
7.672,826.02,0.00121,0,0,7.167
7.677,813.869,0.00123,0,0,7.172
7.681,828.35,0.00121,0,0,7.176
7.686,819.197,0.00122,0,0,7.18
7.69,826.95,0.00121,0,0,7.184
7.694,808.626,0.00124,0,0,7.188
7.699,805.029,0.00124,0,0,7.192
7.703,817.17,0.00122,0,0,7.196
7.708,799.226,0.00125,0,0,7.2
7.712,849.009,0.00118,0,0,7.204
7.716,804.94,0.00124,0,0,7.209
7.721,796.7,0.00126,0,0,7.213
7.725,803.42,0.00124,0,0,7.217
7.73,810.88,0.00123,0,0,7.221
7.734,805.124,0.00124,0,0,7.225
7.738,787.575,0.00127,0,0,7.229
7.743,786.298,0.00127,0,0,7.233
7.747,796.026,0.00126,0,0,7.237
7.752,786.205,0.00127,0,0,7.241
7.756,778.924,0.00128,0,0,7.245
7.76,798.062,0.00125,0,0,7.25
7.765,775.42,0.00129,0,0,7.254
7.769,761.67,0.00131,0,0,7.258
7.774,741.919,0.00135,0,0,7.262
7.778,767.137,0.0013,0,0,7.266
7.782,774.983,0.00129,0,0,7.27
7.787,744.622,0.00134,0,0,7.274
7.791,755.986,0.00132,0,0,7.278
7.796,757.433,0.00132,0,0,7.282
7.8,763.571,0.00131,0,0,7.286
7.804,735.728,0.00136,0,0,7.291
7.809,759.335,0.00132,0,0,7.295
7.813,760.766,0.00131,0,0,7.299
7.818,758.264,0.00132,0,0,7.303
7.822,758.197,0.00132,0,0,7.307
7.826,764.875,0.00131,0,0,7.311
7.831,756.883,0.00132,0,0,7.315
7.835,724.133,0.00138,0,0,7.319
7.84,750.019,0.00133,0,0,7.323
7.844,730.524,0.00137,0,0,7.328
7.848,748.075,0.00134,0,0,7.332
7.853,744.858,0.00134,0,0,7.336
7.857,719.024,0.00139,0,0,7.34
7.862,716.906,0.00139,0,0,7.344
7.866,737.391,0.00136,0,0,7.348
7.87,722.44,0.00138,0,0,7.352
7.875,711.266,0.00141,0,0,7.356
7.879,690.565,0.00145,0,0,7.36
7.884,721.162,0.00139,0,0,7.364
7.888,698.964,0.00143,0,0,7.369
7.892,729.756,0.00137,0,0,7.373
7.897,705.134,0.00142,0,0,7.377
7.901,700.031,0.00143,0,0,7.381
7.906,699.081,0.00143,0,0,7.385
7.91,707.247,0.00141,0,0,7.389
7.914,699.447,0.00143,0,0,7.393
7.919,699.807,0.00143,0,0,7.397
7.923,701.764,0.00142,0,0,7.401
7.928,704.159,0.00142,0,0,7.406
7.932,696.84,0.00144,0,0,7.41
7.936,1218.707,0.00082,0,0,7.414
7.941,715.981,0.0014,0,0,7.418
7.945,691.352,0.00145,0,0,7.422
7.95,686.776,0.00146,0,0,7.426
7.954,706.595,0.00142,0,0,7.43
7.958,696.821,0.00144,0,0,7.434
7.963,704.322,0.00142,0,0,7.438
7.967,697.502,0.00143,0,0,7.442
7.972,663.43,0.00151,0,0,7.447
7.976,707.615,0.00141,0,0,7.451
7.98,715.521,0.0014,0,0,7.455
7.985,708.726,0.00141,0,0,7.459
7.989,705.668,0.00142,0,0,7.463
7.994,717.382,0.00139,0,0,7.467
7.998,712.263,0.0014,0,0,7.471
8.002,731.353,0.00137,0,0,7.475
8.007,709.569,0.00141,0,0,7.479
8.011,732.673,0.00136,0,0,7.483
8.016,721.36,0.00139,0,0,7.488
8.02,741.203,0.00135,0,0,7.492
8.024,727.509,0.00137,0,0,7.496
8.029,687.868,0.00145,0,0,7.5
8.033,715.919,0.0014,0,0,7.504
8.038,717.232,0.00139,0,0,7.508
8.042,702.804,0.00142,0,0,7.512
8.046,720.969,0.00139,0,0,7.516
8.051,713.438,0.0014,0,0,7.52
8.055,729.037,0.00137,0,0,7.525
8.06,705.592,0.00142,0,0,7.529
8.064,701.179,0.00143,0,0,7.533
8.068,715.302,0.0014,0,0,7.537
8.073,714.404,0.0014,0,0,7.541
8.077,723.04,0.00138,0,0,7.545
8.082,696.312,0.00144,0,0,7.549
8.086,713.861,0.0014,0,0,7.553
8.09,710.393,0.00141,0,0,7.557
8.095,715.136,0.0014,0,0,7.561
8.099,688.572,0.00145,0,0,7.566
8.104,699.415,0.00143,0,0,7.57
8.108,690.744,0.00145,0,0,7.574
8.112,690.161,0.00145,0,0,7.578
8.117,683.816,0.00146,0,0,7.582
8.121,710.93,0.00141,0,0,7.586
8.126,705.009,0.00142,0,0,7.59
8.13,683.806,0.00146,0,0,7.594
8.134,689.205,0.00145,0,0,7.598
8.139,673.102,0.00149,0,0,7.602
8.143,668.918,0.00149,0,0,7.607
8.148,659.036,0.00152,0,0,7.611
8.152,676.286,0.00148,0,0,7.615
8.156,653.432,0.00153,0,0,7.619
8.161,672.185,0.00149,0,0,7.623
8.165,660.435,0.00151,0,0,7.627
8.17,677.432,0.00148,0,0,7.631
8.174,685.979,0.00146,0,0,7.635
8.178,675.411,0.00148,0,0,7.639
8.183,688.702,0.00145,0,0,7.643
8.187,678.636,0.00147,0,0,7.648
8.192,671.681,0.00149,0,0,7.652
8.196,660.347,0.00151,0,0,7.656
8.2,658.538,0.00152,0,0,7.66
8.205,677.183,0.00148,0,0,7.664
8.209,667.763,0.0015,0,0,7.668
8.214,659.987,0.00152,0,0,7.672
8.218,662.007,0.00151,0,0,7.676
8.222,656.977,0.00152,0,0,7.68
8.227,665.687,0.0015,0,0,7.685
8.231,685.764,0.00146,0,0,7.689
8.236,664.521,0.0015,0,0,7.693
8.24,679.793,0.00147,0,0,7.697
8.244,660.641,0.00151,0,0,7.701
8.249,685.19,0.00146,0,0,7.705
8.253,690.284,0.00145,0,0,7.709
8.258,679.486,0.00147,0,0,7.713
8.262,689.019,0.00145,0,0,7.717
8.266,687.08,0.00146,0,0,7.721
8.271,691.531,0.00145,0,0,7.726
8.275,680.84,0.00147,0,0,7.73
8.28,692.481,0.00144,0,0,7.734
8.284,681.68,0.00147,0,0,7.738
8.288,700.538,0.00143,0,0,7.742
8.293,658.844,0.00152,0,0,7.746
8.297,770.083,0.0013,0,0,7.75
8.302,681.959,0.00147,0,0,7.754
8.306,703.738,0.00142,0,0,7.758
8.31,687.439,0.00145,0,0,7.762
8.315,680.53,0.00147,0,0,7.767
8.319,676.49,0.00148,0,0,7.771
8.324,664.891,0.0015,0,0,7.775
8.328,684.901,0.00146,0,0,7.779
8.332,672.82,0.00149,0,0,7.783
8.337,666.701,0.0015,0,0,7.787
8.341,666.686,0.0015,0,0,7.791
8.346,663.135,0.00151,0,0,7.795
8.35,644.413,0.00155,0,0,7.799
8.354,671.713,0.00149,0,0,7.804
8.359,658.108,0.00152,0,0,7.808
8.363,659.294,0.00152,0,0,7.812
8.368,671.7,0.00149,0,0,7.816
8.372,632.682,0.00158,0,0,7.82
8.376,657.802,0.00152,0,0,7.824
8.381,650.358,0.00154,0,0,7.828
8.385,627.033,0.00159,0,0,7.832
8.39,652.293,0.00153,0,0,7.836
8.394,658.305,0.00152,0,0,7.84
8.398,643.941,0.00155,0,0,7.845
8.403,639.894,0.00156,0,0,7.849
8.407,651.824,0.00153,0,0,7.853
8.412,652.311,0.00153,0,0,7.857
8.416,621.309,0.00161,0,0,7.861
8.42,636.914,0.00157,0,0,7.865
8.425,626.683,0.0016,0,0,7.869
8.429,615.232,0.00163,0,0,7.873
8.434,635.215,0.00157,0,0,7.877
8.438,639.659,0.00156,0,0,7.881
8.442,621.106,0.00161,0,0,7.886
8.447,653.692,0.00153,0,0,7.89
8.451,634.781,0.00158,0,0,7.894
8.456,628.864,0.00159,0,0,7.898
8.46,616.074,0.00162,0,0,7.902
8.464,630.134,0.00159,0,0,7.906
8.469,640.884,0.00156,0,0,7.91
8.473,628.652,0.00159,0,0,7.914
8.478,625.957,0.0016,0,0,7.918
8.482,617.546,0.00162,0,0,7.922
8.486,635.951,0.00157,0,0,7.927
8.491,631.769,0.00158,0,0,7.931
8.495,631.728,0.00158,0,0,7.935
8.5,619.775,0.00161,0,0,7.939
8.504,606.978,0.00165,0,0,7.943
8.508,612.474,0.00163,0,0,7.947
8.513,635.538,0.00157,0,0,7.951
8.517,588.56,0.0017,0,0,7.955
8.522,664.826,0.0015,0,0,7.959
8.526,603.217,0.00166,0,0,7.963
8.53,603.336,0.00166,0,0,7.968
8.535,616.391,0.00162,0,0,7.972
8.539,626.081,0.0016,0,0,7.976
8.544,619.107,0.00162,0,0,7.98
8.548,623.098,0.0016,0,0,7.984
8.552,612.405,0.00163,0,0,7.988
8.557,620.156,0.00161,0,0,7.992
8.561,630.421,0.00159,0,0,7.996
8.566,610.944,0.00164,0,0,8
8.57,632.503,0.00158,0,0,8.005
8.574,620.557,0.00161,0,0,8.009
8.579,619.46,0.00161,0,0,8.013
8.583,618.724,0.00162,0,0,8.017
8.588,616.817,0.00162,0,0,8.021
8.592,611.716,0.00163,0,0,8.025
8.596,619.866,0.00161,0,0,8.029
8.601,621.994,0.00161,0,0,8.033
8.605,617.712,0.00162,0,0,8.037
8.61,602.844,0.00166,0,0,8.041
8.614,627.858,0.00159,0,0,8.046
8.618,624.081,0.0016,0,0,8.05
8.623,631.883,0.00158,0,0,8.054
8.627,632.783,0.00158,0,0,8.058
8.632,590.535,0.00169,0,0,8.062
8.636,602.366,0.00166,0,0,8.066
8.64,623.559,0.0016,0,0,8.07
8.645,628.079,0.00159,0,0,8.074
8.649,634.831,0.00158,0,0,8.078
8.654,610.753,0.00164,0,0,8.082
8.658,630.807,0.00159,0,0,8.087
8.662,653.291,0.00153,0,0,8.091
8.667,639.143,0.00156,0,0,8.095
8.671,607.358,0.00165,0,0,8.099
8.676,609.763,0.00164,0,0,8.103
8.68,632.453,0.00158,0,0,8.107
8.684,638.759,0.00157,0,0,8.111
8.689,618.62,0.00162,0,0,8.115
8.693,608.002,0.00164,0,0,8.119
8.698,602.068,0.00166,0,0,8.123
8.702,625.054,0.0016,0,0,8.128
8.706,612.066,0.00163,0,0,8.132
8.711,622.506,0.00161,0,0,8.136
8.715,580.965,0.00172,0,0,8.14
8.72,606.488,0.00165,0,0,8.144
8.724,609.969,0.00164,0,0,8.148
8.728,593.726,0.00168,0,0,8.152
8.733,605.903,0.00165,0,0,8.156
8.737,604.263,0.00165,0,0,8.16
8.742,621.659,0.00161,0,0,8.164
8.746,604.121,0.00166,0,0,8.169
8.75,611.526,0.00164,0,0,8.173
8.755,602.365,0.00166,0,0,8.177
8.759,616.435,0.00162,0,0,8.181
8.764,610.125,0.00164,0,0,8.185
8.768,621.867,0.00161,0,0,8.189
8.772,623.588,0.0016,0,0,8.193
8.777,615.949,0.00162,0,0,8.197
8.781,620.88,0.00161,0,0,8.201
8.786,596.543,0.00168,0,0,8.206
8.79,657.711,0.00152,0,0,8.21
8.794,590.226,0.00169,0,0,8.214
8.799,623.708,0.0016,0,0,8.218
8.803,618.87,0.00162,0,0,8.222
8.808,610.289,0.00164,0,0,8.226
8.812,585.254,0.00171,0,0,8.23
8.816,617.903,0.00162,0,0,8.234
8.821,632.811,0.00158,0,0,8.238
8.825,620.134,0.00161,0,0,8.242
8.83,617.98,0.00162,0,0,8.247
8.834,638.668,0.00157,0,0,8.251
8.838,591.213,0.00169,0,0,8.255
8.843,609.098,0.00164,0,0,8.259
8.847,618.685,0.00162,0,0,8.263
8.852,594.249,0.00168,0,0,8.267
8.856,606.879,0.00165,0,0,8.271
8.86,615.423,0.00162,0,0,8.275
8.865,596.323,0.00168,0,0,8.279
8.869,597.058,0.00167,0,0,8.283
8.874,621.944,0.00161,0,0,8.288
8.878,579.651,0.00173,0,0,8.292
8.882,603.847,0.00166,0,0,8.296
8.887,581.146,0.00172,0,0,8.3
8.891,590.476,0.00169,0,0,8.304
8.896,589.104,0.0017,0,0,8.308
8.9,618.684,0.00162,0,0,8.312
8.904,617.978,0.00162,0,0,8.316
8.909,604.93,0.00165,0,0,8.32
8.913,589.161,0.0017,0,0,8.324
8.918,660.846,0.00151,0,0,8.329
8.922,601.951,0.00166,0,0,8.333
8.926,602.801,0.00166,0,0,8.337
8.931,599.43,0.00167,0,0,8.341
8.935,618.939,0.00162,0,0,8.345
8.94,603.077,0.00166,0,0,8.349
8.944,621.537,0.00161,0,0,8.353
8.948,610.144,0.00164,0,0,8.357
8.953,595.268,0.00168,0,0,8.361
8.957,598.93,0.00167,0,0,8.365
8.962,638.597,0.00157,0,0,8.37
8.966,632.309,0.00158,0,0,8.374
8.97,609.302,0.00164,0,0,8.378
8.975,620.745,0.00161,0,0,8.382
8.979,635.192,0.00157,0,0,8.386
8.984,671.388,0.00149,0,0,8.39
8.988,627.218,0.00159,0,0,8.394
8.992,640.568,0.00156,0,0,8.398
8.997,607.64,0.00165,0,0,8.402
9.001,641.079,0.00156,0,0,8.406
9.006,631.502,0.00158,0,0,8.411
9.01,628.45,0.00159,0,0,8.415
9.014,647.72,0.00154,0,0,8.419
9.019,643.932,0.00155,0,0,8.423
9.023,633.687,0.00158,0,0,8.427
9.028,649.552,0.00154,0,0,8.431
9.032,617.684,0.00162,0,0,8.435
9.036,662.993,0.00151,0,0,8.439
9.041,638.983,0.00156,0,0,8.443
9.045,621.425,0.00161,0,0,8.447
9.05,608.583,0.00164,0,0,8.452
9.054,643.762,0.00155,0,0,8.456
9.058,639.13,0.00156,0,0,8.46
9.063,659.642,0.00152,0,0,8.464
9.067,677.499,0.00148,0,0,8.468
9.072,660.158,0.00151,0,0,8.472
9.076,632.648,0.00158,0,0,8.476
9.08,639.552,0.00156,0,0,8.48
9.085,638.606,0.00157,0,0,8.484
9.089,642.768,0.00156,0,0,8.488
9.094,637.868,0.00157,0,0,8.493
9.098,636.962,0.00157,0,0,8.497
9.102,614.248,0.00163,0,0,8.501
9.107,656.148,0.00152,0,0,8.505
9.111,633.7,0.00158,0,0,8.509
9.116,633.934,0.00158,0,0,8.513
9.12,622.092,0.00161,0,0,8.517
9.124,604.863,0.00165,0,0,8.521
9.129,607.175,0.00165,0,0,8.525
9.133,599.069,0.00167,0,0,8.529
9.138,611.003,0.00164,0,0,8.534
9.142,580.631,0.00172,0,0,8.538
9.146,618.11,0.00162,0,0,8.542
9.151,609.521,0.00164,0,0,8.546
9.155,600.952,0.00166,0,0,8.55
9.16,640.154,0.00156,0,0,8.554
9.164,606.98,0.00165,0,0,8.558
9.168,573.03,0.00175,0,0,8.562
9.173,580.493,0.00172,0,0,8.566
9.177,608.274,0.00164,0,0,8.57
9.182,598.265,0.00167,0,0,8.575
9.186,613.937,0.00163,0,0,8.579
9.19,637.035,0.00157,0,0,8.583
9.195,597.509,0.00167,0,0,8.587
9.199,623.336,0.0016,0,0,8.591
9.204,612.751,0.00163,0,0,8.595
9.208,577.029,0.00173,0,0,8.599
9.212,559.889,0.00179,0,0,8.603
9.217,578.463,0.00173,0,0,8.607
9.221,1016.738,0.00098,0,0,8.611
9.226,583.451,0.00171,0,0,8.616
9.23,563.683,0.00177,0,0,8.62
9.234,594.665,0.00168,0,0,8.624
9.239,588.209,0.0017,0,0,8.628
9.243,581.58,0.00172,0,0,8.632
9.248,598.073,0.00167,0,0,8.636
9.252,583.931,0.00171,0,0,8.64
9.256,593.546,0.00168,0,0,8.644
9.261,676.356,0.00148,0,0,8.648
9.265,557.443,0.00179,0,0,8.652
9.27,573.363,0.00174,0,0,8.657
9.274,552.151,0.00181,0,0,8.661
9.278,615.337,0.00163,0,0,8.665
9.283,521.24,0.00192,0,0,8.669
9.287,575.603,0.00174,0,0,8.673
9.292,582.901,0.00172,0,0,8.677
9.296,571.945,0.00175,0,0,8.681
9.3,598.069,0.00167,0,0,8.685
9.305,575.574,0.00174,0,0,8.689
9.309,545.599,0.00183,0,0,8.693
9.314,565.675,0.00177,0,0,8.698
9.318,567.847,0.00176,0,0,8.702
9.322,554.617,0.0018,0,0,8.706
9.327,569.022,0.00176,0,0,8.71
9.331,566.225,0.00177,0,0,8.714
9.336,570.192,0.00175,0,0,8.718
9.34,583.35,0.00171,0,0,8.722
9.344,563.771,0.00177,0,0,8.726
9.349,570,0.00175,0,0,8.73
9.353,606.24,0.00165,0,0,8.734
9.358,568.03,0.00176,0,0,8.739
9.362,603.783,0.00166,0,0,8.743
9.366,534.989,0.00187,0,0,8.747
9.371,581.892,0.00172,0,0,8.751
9.375,561.068,0.00178,0,0,8.755
9.38,576.248,0.00174,0,0,8.759
9.384,553.218,0.00181,0,0,8.763
9.388,561.231,0.00178,0,0,8.767
9.393,612.858,0.00163,0,0,8.771
9.397,574.116,0.00174,0,0,8.775
9.402,553.054,0.00181,0,0,8.78
9.406,601.692,0.00166,0,0,8.784
9.41,587.336,0.0017,0,0,8.788
9.415,592.319,0.00169,0,0,8.792
9.419,566.207,0.00177,0,0,8.796
9.424,566.324,0.00177,0,0,8.8
9.428,576.802,0.00173,0,0,8.804
9.432,611.956,0.00163,0,0,8.808
9.437,574.161,0.00174,0,0,8.812
9.441,574.543,0.00174,0,0,8.816
9.446,569.699,0.00176,0,0,8.821
9.45,575.725,0.00174,0,0,8.825
9.454,544.755,0.00184,0,0,8.829
9.459,552.654,0.00181,0,0,8.833
9.463,569.671,0.00176,0,0,8.837
9.468,548.241,0.00182,0,0,8.841
9.472,558.93,0.00179,0,0,8.845
9.476,597.854,0.00167,0,0,8.849
9.481,543.664,0.00184,0,0,8.853
9.485,585.481,0.00171,0,0,8.857
9.49,558.742,0.00179,0,0,8.862
9.494,551.531,0.00181,0,0,8.866
9.498,569.417,0.00176,0,0,8.87
9.503,559.13,0.00179,0,0,8.874
9.507,590.986,0.00169,0,0,8.878
9.512,612.754,0.00163,0,0,8.882
9.516,585.66,0.00171,0,0,8.886
9.52,569.902,0.00175,0,0,8.89
9.525,590.837,0.00169,0,0,8.894
9.529,542.051,0.00184,0,0,8.898
9.534,577.836,0.00173,0,0,8.903
9.538,532.029,0.00188,0,0,8.907
9.542,543.199,0.00184,0,0,8.911
9.547,544.832,0.00184,0,0,8.915
9.551,567.897,0.00176,0,0,8.919
9.556,565.368,0.00177,0,0,8.923
9.56,523.23,0.00191,0,0,8.927
9.564,530.58,0.00188,0,0,8.931
9.569,569.355,0.00176,0,0,8.935
9.573,549.231,0.00182,0,0,8.939
9.578,601.225,0.00166,0,0,8.944
9.582,557.482,0.00179,0,0,8.948
9.586,579.279,0.00173,0,0,8.952
9.591,549.361,0.00182,0,0,8.956
9.595,541.119,0.00185,0,0,8.96
9.6,536.79,0.00186,0,0,8.964
9.604,560.105,0.00179,0,0,8.968
9.608,544.788,0.00184,0,0,8.972
9.613,579.503,0.00173,0,0,8.976
9.617,557.709,0.00179,0,0,8.98
9.622,555.74,0.0018,0,0,8.985
9.626,518.689,0.00193,0,0,8.989
9.63,508.641,0.00197,0,0,8.993
9.635,597.449,0.00167,0,0,8.997
9.639,592.388,0.00169,0,0,9.001
9.644,618.876,0.00162,0,0,9.005
9.648,571.768,0.00175,0,0,9.009
9.652,515.686,0.00194,0,0,9.013
9.657,593.662,0.00168,0,0,9.017
9.661,564.525,0.00177,0,0,9.021
9.666,563.738,0.00177,0,0,9.026
9.67,550.871,0.00182,0,0,9.03
9.674,529.631,0.00189,0,0,9.034
9.679,556.48,0.0018,0,0,9.038
9.683,523.373,0.00191,0,0,9.042
9.688,544.276,0.00184,0,0,9.046
9.692,583.035,0.00172,0,0,9.05
9.696,552.343,0.00181,0,0,9.054
9.701,532.771,0.00188,0,0,9.058
9.705,538.856,0.00186,0,0,9.062
9.71,575.618,0.00174,0,0,9.067
9.714,532.745,0.00188,0,0,9.071
9.718,550.254,0.00182,0,0,9.075
9.723,544.731,0.00184,0,0,9.079
9.727,565.215,0.00177,0,0,9.083
9.732,554.173,0.0018,0,0,9.087
9.736,587.165,0.0017,0,0,9.091
9.74,578.071,0.00173,0,0,9.095
9.745,510.507,0.00196,0,0,9.099
9.749,613.005,0.00163,0,0,9.103
9.754,535.029,0.00187,0,0,9.108
9.758,514.999,0.00194,0,0,9.112
9.762,519.569,0.00192,0,0,9.116
9.767,610.541,0.00164,0,0,9.12
9.771,517.264,0.00193,0,0,9.124
9.776,568.472,0.00176,0,0,9.128
9.78,571.443,0.00175,0,0,9.132
9.784,560.619,0.00178,0,0,9.136
9.789,592.255,0.00169,0,0,9.14
9.793,542.745,0.00184,0,0,9.144
9.798,548.075,0.00182,0,0,9.148
9.802,522.83,0.00191,0,0,9.153
9.806,510.26,0.00196,0,0,9.157
9.811,528.033,0.00189,0,0,9.161
9.815,566.345,0.00177,0,0,9.165
9.82,513.664,0.00195,0,0,9.169
9.824,533.446,0.00187,0,0,9.173
9.828,532.019,0.00188,0,0,9.177
9.833,549.484,0.00182,0,0,9.181
9.837,470.717,0.00212,0,0,9.185
9.842,589.161,0.0017,0,0,9.189
9.846,497.287,0.00201,0,0,9.194
9.85,525.359,0.0019,0,0,9.198
9.855,545.347,0.00183,0,0,9.202
9.859,519.696,0.00192,0,0,9.206
9.864,489.408,0.00204,0,0,9.21
9.868,577.98,0.00173,0,0,9.214
9.872,477.189,0.0021,0,0,9.218
9.877,561.547,0.00178,0,0,9.222
9.881,521.537,0.00192,0,0,9.226
9.886,571.683,0.00175,0,0,9.23
9.89,481.472,0.00208,0,0,9.235
9.894,487.062,0.00205,0,0,9.239
9.899,508.277,0.00197,0,0,9.243
9.903,486.092,0.00206,0,0,9.247
9.908,528.931,0.00189,0,0,9.251
9.912,509.181,0.00196,0,0,9.255
9.916,525.394,0.0019,0,0,9.259
9.921,564.138,0.00177,0,0,9.263
9.925,531.264,0.00188,0,0,9.267
9.93,520.712,0.00192,0,0,9.271
9.934,567.225,0.00176,0,0,9.276
9.938,503.288,0.00199,0,0,9.28
9.943,456.123,0.00219,0,0,9.284
9.947,511.251,0.00196,0,0,9.288
9.952,532.16,0.00188,0,0,9.292
9.956,405.637,0.00247,0,0,9.296
9.96,488.09,0.00205,0,0,9.3
9.965,545.253,0.00183,0,0,9.304
9.969,562.797,0.00178,0,0,9.308
9.974,466.858,0.00214,0,0,9.312
9.978,407.227,0.00246,0,0,9.317
9.982,451.477,0.00221,0,0,9.321
9.987,459.788,0.00217,0,0,9.325
9.991,470.619,0.00212,0,0,9.329
9.996,479.254,0.00209,0,0,9.333
