"x","y_obs","weight","y_calc","y_bkg"
0.8,2934.532,0.00034,0.0,0.0
0.806,3416.022,0.00029,0.0,0.0
0.813,3639.3,0.00027,0.0,0.0
0.819,3464.629,0.00029,0.0,0.0
0.825,4212.608,0.00024,0.0,0.0
0.832,3942.858,0.00025,0.0,0.0
0.838,4313.811,0.00023,0.0,0.0
0.844,4675.77,0.00021,0.0,0.0
0.851,4559.409,0.00022,0.0,0.0
0.857,5069.726,0.0002,0.0,0.0
0.863,5419.062,0.00018,0.0,0.0
0.87,5038.148,0.0002,0.0,0.0
0.876,5971.113,0.00017,0.0,0.0
0.882,5804.956,0.00017,0.0,0.0
0.888,6118.164,0.00016,0.0,0.0
0.895,6396.789,0.00016,0.0,0.0
0.901,6432.687,0.00016,0.0,0.0
0.907,7022.716,0.00014,0.0,0.0
0.914,7240.03,0.00014,0.0,0.0
0.92,6843.624,0.00015,0.0,0.0
0.926,7590.042,0.00013,0.0,0.0
0.933,7589.819,0.00013,0.0,0.0
0.939,7336.864,0.00014,0.0,0.0
0.945,8068.379,0.00012,0.0,0.0
0.952,7680.521,0.00013,0.0,0.0
0.958,8044.326,0.00012,0.0,0.0
0.964,8148.514,0.00012,0.0,0.0
0.971,7817.151,0.00013,0.0,0.0
0.977,8327.903,0.00012,0.0,0.0
0.983,8337.995,0.00012,0.0,0.0
0.99,8117.511,0.00012,0.0,0.0
0.996,8505.795,0.00012,0.0,0.0
1.002,8203.266,0.00012,0.0,0.0
1.009,8366.25,0.00012,0.0,0.0
1.015,8579.897,0.00012,0.0,0.0
1.021,8295.557,0.00012,0.0,0.0
1.028,8590.621,0.00012,0.0,0.0
1.034,8412.724,0.00012,0.0,0.0
1.04,8349.323,0.00012,0.0,0.0
1.046,8467.193,0.00012,0.0,0.0
1.053,8421.653,0.00012,0.0,0.0
1.059,8402.306,0.00012,0.0,0.0
1.065,8496.519,0.00012,0.0,0.0
1.072,8179.983,0.00012,0.0,0.0
1.078,8386.579,0.00012,0.0,0.0
1.084,8215.459,0.00012,0.0,0.0
1.091,8297.494,0.00012,0.0,0.0
1.097,8227.353,0.00012,0.0,0.0
1.103,8177.581,0.00012,0.0,0.0
1.11,8083.603,0.00012,0.0,0.0
1.116,8107.021,0.00012,0.0,0.0
1.122,7937.077,0.00013,0.0,0.0
1.129,7979.222,0.00013,0.0,0.0
1.135,7917.846,0.00013,0.0,0.0
1.141,7885.792,0.00013,0.0,0.0
1.148,7890.071,0.00013,0.0,0.0
1.154,7743.989,0.00013,0.0,0.0
1.16,7772.34,0.00013,0.0,0.0
1.167,7692.02,0.00013,0.0,0.0
1.173,7672.12,0.00013,0.0,0.0
1.179,7577.655,0.00013,0.0,0.0
1.186,7485.076,0.00013,0.0,0.0
1.192,7499.485,0.00013,0.0,0.0
1.198,7411.346,0.00013,0.0,0.0
1.204,7304.487,0.00014,0.0,0.0
1.211,7319.967,0.00014,0.0,0.0
1.217,7233.178,0.00014,0.0,0.0
1.223,7163.905,0.00014,0.0,0.0
1.23,7133.647,0.00014,0.0,0.0
1.236,7113.965,0.00014,0.0,0.0
1.242,7042.879,0.00014,0.0,0.0
1.249,7036.684,0.00014,0.0,0.0
1.255,7004.33,0.00014,0.0,0.0
1.261,6927.037,0.00014,0.0,0.0
1.268,6912.745,0.00014,0.0,0.0
1.274,6825.989,0.00015,0.0,0.0
1.28,6877.978,0.00015,0.0,0.0
1.287,6773.907,0.00015,0.0,0.0
1.293,6759.213,0.00015,0.0,0.0
1.299,6754.334,0.00015,0.0,0.0
1.306,6713.533,0.00015,0.0,0.0
1.312,6647.884,0.00015,0.0,0.0
1.318,6672.751,0.00015,0.0,0.0
1.325,6612.569,0.00015,0.0,0.0
1.331,6606.414,0.00015,0.0,0.0
1.337,6534.696,0.00015,0.0,0.0
1.344,6546.029,0.00015,0.0,0.0
1.35,6558.648,0.00015,0.0,0.0
1.356,6468.074,0.00015,0.0,0.0
1.362,6512.269,0.00015,0.0,0.0
1.369,6443.962,0.00016,0.0,0.0
1.375,6457.536,0.00015,0.0,0.0
1.381,6416.05,0.00016,0.0,0.0
1.388,6434.983,0.00016,0.0,0.0
1.394,6379.386,0.00016,0.0,0.0
1.4,6436.576,0.00016,0.0,0.0
1.407,6349.547,0.00016,0.0,0.0
1.413,6423.769,0.00016,0.0,0.0
1.419,6331.108,0.00016,0.0,0.0
1.426,6315.377,0.00016,0.0,0.0
1.432,6328.027,0.00016,0.0,0.0
1.438,6334.529,0.00016,0.0,0.0
1.445,6313.046,0.00016,0.0,0.0
1.451,6323.039,0.00016,0.0,0.0
1.457,6329.457,0.00016,0.0,0.0
1.464,6279.497,0.00016,0.0,0.0
1.47,6334.627,0.00016,0.0,0.0
1.476,6285.876,0.00016,0.0,0.0
1.483,6344.255,0.00016,0.0,0.0
1.489,6298.941,0.00016,0.0,0.0
1.495,6351.298,0.00016,0.0,0.0
1.502,6289.062,0.00016,0.0,0.0
1.508,6302.739,0.00016,0.0,0.0
1.514,6302.362,0.00016,0.0,0.0
1.52,6328.993,0.00016,0.0,0.0
1.527,6319.334,0.00016,0.0,0.0
1.533,6344.971,0.00016,0.0,0.0
1.539,6330.887,0.00016,0.0,0.0
1.546,6300.546,0.00016,0.0,0.0
1.552,6293.951,0.00016,0.0,0.0
1.558,6332.589,0.00016,0.0,0.0
1.565,6357.947,0.00016,0.0,0.0
1.571,6360.978,0.00016,0.0,0.0
1.577,6331.805,0.00016,0.0,0.0
1.584,6359.686,0.00016,0.0,0.0
1.59,6396.837,0.00016,0.0,0.0
1.596,6376.392,0.00016,0.0,0.0
1.603,6416.804,0.00016,0.0,0.0
1.609,6426.801,0.00016,0.0,0.0
1.615,6424.261,0.00016,0.0,0.0
1.622,6451.604,0.00016,0.0,0.0
1.628,6435.35,0.00016,0.0,0.0
1.634,6484.327,0.00015,0.0,0.0
1.641,6498.343,0.00015,0.0,0.0
1.647,6489.708,0.00015,0.0,0.0
1.653,6541.247,0.00015,0.0,0.0
1.66,6528.671,0.00015,0.0,0.0
1.666,6547.943,0.00015,0.0,0.0
1.672,6588.763,0.00015,0.0,0.0
1.678,6581.394,0.00015,0.0,0.0
1.685,6611.185,0.00015,0.0,0.0
1.691,6632.348,0.00015,0.0,0.0
1.697,6648.378,0.00015,0.0,0.0
1.704,6649.851,0.00015,0.0,0.0
1.71,6638.334,0.00015,0.0,0.0
1.716,6682.554,0.00015,0.0,0.0
1.723,6700.152,0.00015,0.0,0.0
1.729,6732.457,0.00015,0.0,0.0
1.735,6724.795,0.00015,0.0,0.0
1.742,6718.718,0.00015,0.0,0.0
1.748,6769.964,0.00015,0.0,0.0
1.754,6755.443,0.00015,0.0,0.0
1.761,6790.817,0.00015,0.0,0.0
1.767,6768.706,0.00015,0.0,0.0
1.773,6808.755,0.00015,0.0,0.0
1.78,6794.274,0.00015,0.0,0.0
1.786,6838.378,0.00015,0.0,0.0
1.792,6832.104,0.00015,0.0,0.0
1.799,6844.615,0.00015,0.0,0.0
1.805,6885.251,0.00015,0.0,0.0
1.811,6856.462,0.00015,0.0,0.0
1.818,6856.876,0.00015,0.0,0.0
1.824,6866.636,0.00015,0.0,0.0
1.83,6897.499,0.00014,0.0,0.0
1.836,6863.644,0.00015,0.0,0.0
1.843,6921.236,0.00014,0.0,0.0
1.849,6883.479,0.00015,0.0,0.0
1.855,6900.899,0.00014,0.0,0.0
1.862,6891.394,0.00015,0.0,0.0
1.868,6909.9,0.00014,0.0,0.0
1.874,6891.848,0.00015,0.0,0.0
1.881,6903.383,0.00014,0.0,0.0
1.887,6869.096,0.00015,0.0,0.0
1.893,6888.638,0.00015,0.0,0.0
1.9,6908.312,0.00014,0.0,0.0
1.906,6879.244,0.00015,0.0,0.0
1.912,6942.71,0.00014,0.0,0.0
1.919,6857.157,0.00015,0.0,0.0
1.925,6900.974,0.00014,0.0,0.0
1.931,6922.458,0.00014,0.0,0.0
1.938,6920.952,0.00014,0.0,0.0
1.944,6876.244,0.00015,0.0,0.0
1.95,6911.312,0.00014,0.0,0.0
1.957,6893.112,0.00015,0.0,0.0
1.963,6885.514,0.00015,0.0,0.0
1.969,6909.04,0.00014,0.0,0.0
1.976,6881.627,0.00015,0.0,0.0
1.982,6911.488,0.00014,0.0,0.0
1.988,6897.004,0.00014,0.0,0.0
1.994,6903.154,0.00014,0.0,0.0
2.001,6897.847,0.00014,0.0,0.0
2.007,6934.938,0.00014,0.0,0.0
2.013,6919.484,0.00014,0.0,0.0
2.02,6937.226,0.00014,0.0,0.0
2.026,6928.868,0.00014,0.0,0.0
2.032,6933.829,0.00014,0.0,0.0
2.039,6902.836,0.00014,0.0,0.0
2.045,6941.268,0.00014,0.0,0.0
2.051,6957.095,0.00014,0.0,0.0
2.058,6948.094,0.00014,0.0,0.0
2.064,6973.463,0.00014,0.0,0.0
2.07,6986.744,0.00014,0.0,0.0
2.077,6968.513,0.00014,0.0,0.0
2.083,6967.926,0.00014,0.0,0.0
2.089,6984.018,0.00014,0.0,0.0
2.096,6990.312,0.00014,0.0,0.0
2.102,6988.6,0.00014,0.0,0.0
2.108,7003.375,0.00014,0.0,0.0
2.115,6987.83,0.00014,0.0,0.0
2.121,7024.253,0.00014,0.0,0.0
2.127,7058.113,0.00014,0.0,0.0
2.134,7049.606,0.00014,0.0,0.0
2.14,7080.603,0.00014,0.0,0.0
2.146,7048.44,0.00014,0.0,0.0
2.152,7081.088,0.00014,0.0,0.0
2.159,7104.811,0.00014,0.0,0.0
2.165,7125.276,0.00014,0.0,0.0
2.171,7113.736,0.00014,0.0,0.0
2.178,7141.05,0.00014,0.0,0.0
2.184,7182.267,0.00014,0.0,0.0
2.19,7173.024,0.00014,0.0,0.0
2.197,7185.849,0.00014,0.0,0.0
2.203,7210.875,0.00014,0.0,0.0
2.209,7193.268,0.00014,0.0,0.0
2.216,7265.814,0.00014,0.0,0.0
2.222,7271.198,0.00014,0.0,0.0
2.228,7277.313,0.00014,0.0,0.0
2.235,7327.53,0.00014,0.0,0.0
2.241,7297.624,0.00014,0.0,0.0
2.247,7390.759,0.00014,0.0,0.0
2.254,7360.075,0.00014,0.0,0.0
2.26,7387.6,0.00014,0.0,0.0
2.266,7405.549,0.00014,0.0,0.0
2.273,7435.619,0.00013,0.0,0.0
2.279,7428.231,0.00013,0.0,0.0
2.285,7482.193,0.00013,0.0,0.0
2.292,7493.101,0.00013,0.0,0.0
2.298,7537.538,0.00013,0.0,0.0
2.304,7564.051,0.00013,0.0,0.0
2.31,7587.655,0.00013,0.0,0.0
2.317,7611.54,0.00013,0.0,0.0
2.323,7643.556,0.00013,0.0,0.0
2.329,7690.241,0.00013,0.0,0.0
2.336,7691.837,0.00013,0.0,0.0
2.342,7721.956,0.00013,0.0,0.0
2.348,7765.97,0.00013,0.0,0.0
2.355,7807.041,0.00013,0.0,0.0
2.361,7789.471,0.00013,0.0,0.0
2.367,7874.452,0.00013,0.0,0.0
2.374,7859.573,0.00013,0.0,0.0
2.38,7931.565,0.00013,0.0,0.0
2.386,7964.927,0.00013,0.0,0.0
2.393,7992.811,0.00013,0.0,0.0
2.399,8038.894,0.00012,0.0,0.0
2.405,8094.933,0.00012,0.0,0.0
2.412,8108.679,0.00012,0.0,0.0
2.418,8208.237,0.00012,0.0,0.0
2.424,8209.297,0.00012,0.0,0.0
2.431,8316.638,0.00012,0.0,0.0
2.437,8311.473,0.00012,0.0,0.0
2.443,8366.104,0.00012,0.0,0.0
2.45,8437.901,0.00012,0.0,0.0
2.456,8466.705,0.00012,0.0,0.0
2.462,8548.831,0.00012,0.0,0.0
2.468,8566.031,0.00012,0.0,0.0
2.475,8657.252,0.00012,0.0,0.0
2.481,8735.695,0.00011,0.0,0.0
2.487,8838.96,0.00011,0.0,0.0
2.494,8861.537,0.00011,0.0,0.0
2.5,8973.99,0.00011,0.0,0.0
2.506,9023.099,0.00011,0.0,0.0
2.513,9142.83,0.00011,0.0,0.0
2.519,9201.497,0.00011,0.0,0.0
2.525,9245.013,0.00011,0.0,0.0
2.532,9309.599,0.00011,0.0,0.0
2.538,9381.037,0.00011,0.0,0.0
2.544,9378.566,0.00011,0.0,0.0
2.551,9467.697,0.00011,0.0,0.0
2.557,9434.174,0.00011,0.0,0.0
2.563,9493.628,0.00011,0.0,0.0
2.57,9483.005,0.00011,0.0,0.0
2.576,9479.991,0.00011,0.0,0.0
2.582,9473.389,0.00011,0.0,0.0
2.589,9439.196,0.00011,0.0,0.0
2.595,9408.022,0.00011,0.0,0.0
2.601,9417.437,0.00011,0.0,0.0
2.608,9369.054,0.00011,0.0,0.0
2.614,9332.952,0.00011,0.0,0.0
2.62,9330.991,0.00011,0.0,0.0
2.626,9327.26,0.00011,0.0,0.0
2.633,9352.288,0.00011,0.0,0.0
2.639,9373.088,0.00011,0.0,0.0
2.645,9364.004,0.00011,0.0,0.0
2.652,9395.884,0.00011,0.0,0.0
2.658,9392.74,0.00011,0.0,0.0
2.664,9404.201,0.00011,0.0,0.0
2.671,9429.263,0.00011,0.0,0.0
2.677,9448.959,0.00011,0.0,0.0
2.683,9490.789,0.00011,0.0,0.0
2.69,9505.966,0.00011,0.0,0.0
2.696,9532.28,0.0001,0.0,0.0
2.702,9579.412,0.0001,0.0,0.0
2.709,9554.377,0.0001,0.0,0.0
2.715,9637.594,0.0001,0.0,0.0
2.721,9659.361,0.0001,0.0,0.0
2.728,9652.89,0.0001,0.0,0.0
2.734,9723.823,0.0001,0.0,0.0
2.74,9759.728,0.0001,0.0,0.0
2.747,9770.238,0.0001,0.0,0.0
2.753,9829.451,0.0001,0.0,0.0
2.759,9829.304,0.0001,0.0,0.0
2.766,9885.116,0.0001,0.0,0.0
2.772,9908.484,0.0001,0.0,0.0
2.778,9901.512,0.0001,0.0,0.0
2.784,9954.763,0.0001,0.0,0.0
2.791,9921.406,0.0001,0.0,0.0
2.797,9950.318,0.0001,0.0,0.0
2.803,9952.027,0.0001,0.0,0.0
2.81,9992.545,0.0001,0.0,0.0
2.816,10019.655,0.0001,0.0,0.0
2.822,10036.958,0.0001,0.0,0.0
2.829,10039.763,0.0001,0.0,0.0
2.835,10065.204,0.0001,0.0,0.0
2.841,10112.854,0.0001,0.0,0.0
2.848,10115.958,0.0001,0.0,0.0
2.854,10126.413,0.0001,0.0,0.0
2.86,10158.065,0.0001,0.0,0.0
2.867,10186.773,0.0001,0.0,0.0
2.873,10173.997,0.0001,0.0,0.0
2.879,10204.397,0.0001,0.0,0.0
2.886,10199.734,0.0001,0.0,0.0
2.892,10210.775,0.0001,0.0,0.0
2.898,10289.484,0.0001,0.0,0.0
2.905,10253.981,0.0001,0.0,0.0
2.911,10271.63,0.0001,0.0,0.0
2.917,10330.004,0.0001,0.0,0.0
2.924,10320.058,0.0001,0.0,0.0
2.93,10380.268,0.0001,0.0,0.0
2.936,10358.343,0.0001,0.0,0.0
2.942,10408.852,0.0001,0.0,0.0
2.949,10431.72,0.0001,0.0,0.0
2.955,10433.303,0.0001,0.0,0.0
2.961,10462.241,0.0001,0.0,0.0
2.968,10431.825,0.0001,0.0,0.0
2.974,10481.146,0.0001,0.0,0.0
2.98,10487.603,0.0001,0.0,0.0
2.987,10487.07,0.0001,0.0,0.0
2.993,10497.487,0.0001,0.0,0.0
2.999,10551.854,0.00009,0.0,0.0
3.006,10523.545,0.0001,0.0,0.0
3.012,10525.973,0.0001,0.0,0.0
3.018,10563.974,0.00009,0.0,0.0
3.025,10554.896,0.00009,0.0,0.0
3.031,10578.129,0.00009,0.0,0.0
3.037,10590.441,0.00009,0.0,0.0
3.044,10552.789,0.00009,0.0,0.0
3.05,10579.761,0.00009,0.0,0.0
3.056,10588.888,0.00009,0.0,0.0
3.063,10595.335,0.00009,0.0,0.0
3.069,10598.846,0.00009,0.0,0.0
3.075,10598.241,0.00009,0.0,0.0
3.082,10599.05,0.00009,0.0,0.0
3.088,10600.322,0.00009,0.0,0.0
3.094,10609.805,0.00009,0.0,0.0
3.1,10577.877,0.00009,0.0,0.0
3.107,10586.653,0.00009,0.0,0.0
3.113,10593.113,0.00009,0.0,0.0
3.119,10601.663,0.00009,0.0,0.0
3.126,10584.067,0.00009,0.0,0.0
3.132,10577.78,0.00009,0.0,0.0
3.138,10593.933,0.00009,0.0,0.0
3.145,10576.346,0.00009,0.0,0.0
3.151,10555.577,0.00009,0.0,0.0
3.157,10519.984,0.0001,0.0,0.0
3.164,10528.374,0.00009,0.0,0.0
3.17,10498.871,0.0001,0.0,0.0
3.176,10513.702,0.0001,0.0,0.0
3.183,10476.392,0.0001,0.0,0.0
3.189,10457.662,0.0001,0.0,0.0
3.195,10448.337,0.0001,0.0,0.0
3.202,10438.248,0.0001,0.0,0.0
3.208,10442.597,0.0001,0.0,0.0
3.214,10421.405,0.0001,0.0,0.0
3.221,10395.134,0.0001,0.0,0.0
3.227,10388.789,0.0001,0.0,0.0
3.233,10343.04,0.0001,0.0,0.0
3.24,10337.37,0.0001,0.0,0.0
3.246,10343.938,0.0001,0.0,0.0
3.252,10308.835,0.0001,0.0,0.0
3.258,10292.588,0.0001,0.0,0.0
3.265,10252.937,0.0001,0.0,0.0
3.271,10263.4,0.0001,0.0,0.0
3.277,10217.34,0.0001,0.0,0.0
3.284,10190.668,0.0001,0.0,0.0
3.29,10167.255,0.0001,0.0,0.0
3.296,10128.717,0.0001,0.0,0.0
3.303,10151.114,0.0001,0.0,0.0
3.309,10113.627,0.0001,0.0,0.0
3.315,10090.735,0.0001,0.0,0.0
3.322,10087.187,0.0001,0.0,0.0
3.328,10069.615,0.0001,0.0,0.0
3.334,10045.13,0.0001,0.0,0.0
3.341,10046.195,0.0001,0.0,0.0
3.347,10008.978,0.0001,0.0,0.0
3.353,10002.721,0.0001,0.0,0.0
3.36,9983.751,0.0001,0.0,0.0
3.366,9953.048,0.0001,0.0,0.0
3.372,9928.082,0.0001,0.0,0.0
3.379,9897.803,0.0001,0.0,0.0
3.385,9899.601,0.0001,0.0,0.0
3.391,9863.884,0.0001,0.0,0.0
3.398,9820.987,0.0001,0.0,0.0
3.404,9853.742,0.0001,0.0,0.0
3.41,9832.277,0.0001,0.0,0.0
3.416,9813.82,0.0001,0.0,0.0
3.423,9790.5,0.0001,0.0,0.0
3.429,9753.443,0.0001,0.0,0.0
3.435,9750.056,0.0001,0.0,0.0
3.442,9719.303,0.0001,0.0,0.0
3.448,9709.328,0.0001,0.0,0.0
3.454,9675.897,0.0001,0.0,0.0
3.461,9662.551,0.0001,0.0,0.0
3.467,9640.66,0.0001,0.0,0.0
3.473,9639.229,0.0001,0.0,0.0
3.48,9589.739,0.0001,0.0,0.0
3.486,9597.078,0.0001,0.0,0.0
3.492,9599.641,0.0001,0.0,0.0
3.499,9580.033,0.0001,0.0,0.0
3.505,9562.139,0.0001,0.0,0.0
3.511,9558.052,0.0001,0.0,0.0
3.518,9557.133,0.0001,0.0,0.0
3.524,9540.01,0.0001,0.0,0.0
3.53,9530.27,0.0001,0.0,0.0
3.537,9522.874,0.00011,0.0,0.0
3.543,9502.215,0.00011,0.0,0.0
3.549,9456.051,0.00011,0.0,0.0
3.556,9501.885,0.00011,0.0,0.0
3.562,9479.205,0.00011,0.0,0.0
3.568,9444.704,0.00011,0.0,0.0
3.574,9466.721,0.00011,0.0,0.0
3.581,9441.946,0.00011,0.0,0.0
3.587,9441.827,0.00011,0.0,0.0
3.593,9468.273,0.00011,0.0,0.0
3.6,9426.183,0.00011,0.0,0.0
3.606,9438.404,0.00011,0.0,0.0
3.612,9414.796,0.00011,0.0,0.0
3.619,9418.948,0.00011,0.0,0.0
3.625,9441.413,0.00011,0.0,0.0
3.631,9422.358,0.00011,0.0,0.0
3.638,9443.071,0.00011,0.0,0.0
3.644,9457.635,0.00011,0.0,0.0
3.65,9471.116,0.00011,0.0,0.0
3.657,9483.786,0.00011,0.0,0.0
3.663,9505.516,0.00011,0.0,0.0
3.669,9468.973,0.00011,0.0,0.0
3.676,9525.739,0.0001,0.0,0.0
3.682,9509.192,0.00011,0.0,0.0
3.688,9514.389,0.00011,0.0,0.0
3.695,9535.792,0.0001,0.0,0.0
3.701,9541.22,0.0001,0.0,0.0
3.707,9560.291,0.0001,0.0,0.0
3.714,9614.196,0.0001,0.0,0.0
3.72,9622.529,0.0001,0.0,0.0
3.726,9638.58,0.0001,0.0,0.0
3.732,9637.139,0.0001,0.0,0.0
3.739,9692.996,0.0001,0.0,0.0
3.745,9691.096,0.0001,0.0,0.0
3.751,9703.374,0.0001,0.0,0.0
3.758,9741.267,0.0001,0.0,0.0
3.764,9759.843,0.0001,0.0,0.0
3.77,9812.116,0.0001,0.0,0.0
3.777,9835.705,0.0001,0.0,0.0
3.783,9827.451,0.0001,0.0,0.0
3.789,9886.527,0.0001,0.0,0.0
3.796,9908.539,0.0001,0.0,0.0
3.802,9902.997,0.0001,0.0,0.0
3.808,9971.677,0.0001,0.0,0.0
3.815,9944.703,0.0001,0.0,0.0
3.821,10001.99,0.0001,0.0,0.0
3.827,9990.77,0.0001,0.0,0.0
3.834,9994.856,0.0001,0.0,0.0
3.84,10021.779,0.0001,0.0,0.0
3.846,9998.693,0.0001,0.0,0.0
3.853,10005.552,0.0001,0.0,0.0
3.859,10013.16,0.0001,0.0,0.0
3.865,9990.198,0.0001,0.0,0.0
3.872,9970.667,0.0001,0.0,0.0
3.878,9978.709,0.0001,0.0,0.0
3.884,9927.32,0.0001,0.0,0.0
3.89,9953.01,0.0001,0.0,0.0
3.897,9901.473,0.0001,0.0,0.0
3.903,9879.378,0.0001,0.0,0.0
3.909,9864.865,0.0001,0.0,0.0
3.916,9815.889,0.0001,0.0,0.0
3.922,9772.618,0.0001,0.0,0.0
3.928,9769.459,0.0001,0.0,0.0
3.935,9714.188,0.0001,0.0,0.0
3.941,9695.417,0.0001,0.0,0.0
3.947,9668.09,0.0001,0.0,0.0
3.954,9595.275,0.0001,0.0,0.0
3.96,9592.115,0.0001,0.0,0.0
3.966,9559.323,0.0001,0.0,0.0
3.973,9497.741,0.00011,0.0,0.0
3.979,9447.471,0.00011,0.0,0.0
3.985,9427.535,0.00011,0.0,0.0
3.992,9382.144,0.00011,0.0,0.0
3.998,9386.35,0.00011,0.0,0.0
4.004,9313.939,0.00011,0.0,0.0
4.011,9317.302,0.00011,0.0,0.0
4.017,9262.478,0.00011,0.0,0.0
4.023,9238.397,0.00011,0.0,0.0
4.03,9194.067,0.00011,0.0,0.0
4.036,9194.098,0.00011,0.0,0.0
4.042,9148.583,0.00011,0.0,0.0
4.048,9119.6,0.00011,0.0,0.0
4.055,9087.602,0.00011,0.0,0.0
4.061,9054.964,0.00011,0.0,0.0
4.067,9098.183,0.00011,0.0,0.0
4.074,9014.665,0.00011,0.0,0.0
4.08,9010.924,0.00011,0.0,0.0
4.086,8943.169,0.00011,0.0,0.0
4.093,8983.549,0.00011,0.0,0.0
4.099,8946.713,0.00011,0.0,0.0
4.105,8955.35,0.00011,0.0,0.0
4.112,8911.349,0.00011,0.0,0.0
4.118,8900.713,0.00011,0.0,0.0
4.124,8889.794,0.00011,0.0,0.0
4.131,8887.569,0.00011,0.0,0.0
4.137,8858.751,0.00011,0.0,0.0
4.143,8832.482,0.00011,0.0,0.0
4.15,8821.824,0.00011,0.0,0.0
4.156,8791.193,0.00011,0.0,0.0
4.162,8817.691,0.00011,0.0,0.0
4.169,8774.407,0.00011,0.0,0.0
4.175,8798.72,0.00011,0.0,0.0
4.181,8785.524,0.00011,0.0,0.0
4.188,8777.173,0.00011,0.0,0.0
4.194,8772.267,0.00011,0.0,0.0
4.2,8756.969,0.00011,0.0,0.0
4.206,8759.561,0.00011,0.0,0.0
4.213,8784.561,0.00011,0.0,0.0
4.219,8734.171,0.00011,0.0,0.0
4.225,8753.476,0.00011,0.0,0.0
4.232,8728.815,0.00011,0.0,0.0
4.238,8715.515,0.00011,0.0,0.0
4.244,8704.914,0.00011,0.0,0.0
4.251,8708.489,0.00011,0.0,0.0
4.257,8725.867,0.00011,0.0,0.0
4.263,8698.505,0.00011,0.0,0.0
4.27,8699.808,0.00011,0.0,0.0
4.276,8704.766,0.00011,0.0,0.0
4.282,8720.165,0.00011,0.0,0.0
4.289,8678.353,0.00012,0.0,0.0
4.295,8674.076,0.00012,0.0,0.0
4.301,8653.153,0.00012,0.0,0.0
4.308,8686.378,0.00012,0.0,0.0
4.314,8675.377,0.00012,0.0,0.0
4.32,8685.307,0.00012,0.0,0.0
4.327,8665.504,0.00012,0.0,0.0
4.333,8657.45,0.00012,0.0,0.0
4.339,8670.855,0.00012,0.0,0.0
4.346,8700.686,0.00011,0.0,0.0
4.352,8645.151,0.00012,0.0,0.0
4.358,8655.586,0.00012,0.0,0.0
4.364,8672.157,0.00012,0.0,0.0
4.371,8704.12,0.00011,0.0,0.0
4.377,8667.426,0.00012,0.0,0.0
4.383,8677.512,0.00012,0.0,0.0
4.39,8691.943,0.00012,0.0,0.0
4.396,8654.171,0.00012,0.0,0.0
4.402,8719.057,0.00011,0.0,0.0
4.409,8700.296,0.00011,0.0,0.0
4.415,8702.626,0.00011,0.0,0.0
4.421,8714.208,0.00011,0.0,0.0
4.428,8705.458,0.00011,0.0,0.0
4.434,8690.287,0.00012,0.0,0.0
4.44,8770.783,0.00011,0.0,0.0
4.447,8759.979,0.00011,0.0,0.0
4.453,8804.499,0.00011,0.0,0.0
4.459,8747.179,0.00011,0.0,0.0
4.466,8830.718,0.00011,0.0,0.0
4.472,8850.561,0.00011,0.0,0.0
4.478,8945.098,0.00011,0.0,0.0
4.485,9018.052,0.00011,0.0,0.0
4.491,9119.465,0.00011,0.0,0.0
4.497,9330.212,0.00011,0.0,0.0
4.504,9406.671,0.00011,0.0,0.0
4.51,9984.24,0.0001,0.0,0.0
4.516,10373.961,0.0001,0.0,0.0
4.522,11941.766,0.00008,0.0,0.0
4.529,15476.556,0.00006,0.0,0.0
4.535,17082.155,0.00006,0.0,0.0
4.541,27136.695,0.00004,0.0,0.0
4.548,33803.609,0.00003,0.0,0.0
4.554,38582.751,0.00003,0.0,0.0
4.56,37780.604,0.00003,0.0,0.0
4.567,37447.052,0.00003,0.0,0.0
4.573,31558.588,0.00003,0.0,0.0
4.579,26371.917,0.00004,0.0,0.0
4.586,21210.45,0.00005,0.0,0.0
4.592,16270.514,0.00006,0.0,0.0
4.598,12260.142,0.00008,0.0,0.0
4.605,10806.861,0.00009,0.0,0.0
4.611,9849.21,0.0001,0.0,0.0
4.617,9431.649,0.00011,0.0,0.0
4.624,9134.5,0.00011,0.0,0.0
4.63,8969.956,0.00011,0.0,0.0
4.636,8836.675,0.00011,0.0,0.0
4.643,8767.683,0.00011,0.0,0.0
4.649,8655.62,0.00012,0.0,0.0
4.655,8631.021,0.00012,0.0,0.0
4.662,8467.603,0.00012,0.0,0.0
4.668,8490.283,0.00012,0.0,0.0
4.674,8377.888,0.00012,0.0,0.0
4.68,8395.608,0.00012,0.0,0.0
4.687,8304.102,0.00012,0.0,0.0
4.693,8304.698,0.00012,0.0,0.0
4.699,8218.651,0.00012,0.0,0.0
4.706,8216.843,0.00012,0.0,0.0
4.712,8167.69,0.00012,0.0,0.0
4.718,8149.983,0.00012,0.0,0.0
4.725,8152.634,0.00012,0.0,0.0
4.731,8052.739,0.00012,0.0,0.0
4.737,8026.292,0.00012,0.0,0.0
4.744,8003.915,0.00012,0.0,0.0
4.75,7934.758,0.00013,0.0,0.0
4.756,7950.99,0.00013,0.0,0.0
4.763,7962.898,0.00013,0.0,0.0
4.769,7867.698,0.00013,0.0,0.0
4.775,7890.732,0.00013,0.0,0.0
4.782,7815.156,0.00013,0.0,0.0
4.788,7833.8,0.00013,0.0,0.0
4.794,7797.638,0.00013,0.0,0.0
4.801,7740.462,0.00013,0.0,0.0
4.807,7715.003,0.00013,0.0,0.0
4.813,7721.865,0.00013,0.0,0.0
4.82,7666.972,0.00013,0.0,0.0
4.826,7664.86,0.00013,0.0,0.0
4.832,7602.036,0.00013,0.0,0.0
4.838,7602.961,0.00013,0.0,0.0
4.845,7603.509,0.00013,0.0,0.0
4.851,7574.97,0.00013,0.0,0.0
4.857,7568.838,0.00013,0.0,0.0
4.864,7512.561,0.00013,0.0,0.0
4.87,7517.572,0.00013,0.0,0.0
4.876,7483.265,0.00013,0.0,0.0
4.883,7488.015,0.00013,0.0,0.0
4.889,7379.533,0.00014,0.0,0.0
4.895,7423.844,0.00013,0.0,0.0
4.902,7327.399,0.00014,0.0,0.0
4.908,7369.347,0.00014,0.0,0.0
4.914,7314.055,0.00014,0.0,0.0
4.921,7297.117,0.00014,0.0,0.0
4.927,7284.988,0.00014,0.0,0.0
4.933,7266.972,0.00014,0.0,0.0
4.94,7237.293,0.00014,0.0,0.0
4.946,7217.93,0.00014,0.0,0.0
4.952,7211.057,0.00014,0.0,0.0
4.959,7193.745,0.00014,0.0,0.0
4.965,7178.176,0.00014,0.0,0.0
4.971,7155.801,0.00014,0.0,0.0
4.978,7159.219,0.00014,0.0,0.0
4.984,7086.194,0.00014,0.0,0.0
4.99,7086.281,0.00014,0.0,0.0
4.996,7055.305,0.00014,0.0,0.0
5.003,7039.075,0.00014,0.0,0.0
5.009,7043.4,0.00014,0.0,0.0
5.015,7023.697,0.00014,0.0,0.0
5.022,7013.462,0.00014,0.0,0.0
5.028,7005.207,0.00014,0.0,0.0
5.034,6966.937,0.00014,0.0,0.0
5.041,6957.369,0.00014,0.0,0.0
5.047,6936.946,0.00014,0.0,0.0
5.053,6926.841,0.00014,0.0,0.0
5.06,6940.829,0.00014,0.0,0.0
5.066,6885.123,0.00015,0.0,0.0
5.072,6893.984,0.00015,0.0,0.0
5.079,6902.919,0.00014,0.0,0.0
5.085,6869.95,0.00015,0.0,0.0
5.091,6844.26,0.00015,0.0,0.0
5.098,6861.141,0.00015,0.0,0.0
5.104,6823.182,0.00015,0.0,0.0
5.11,6852.394,0.00015,0.0,0.0
5.117,6800.973,0.00015,0.0,0.0
5.123,6798.214,0.00015,0.0,0.0
5.129,6808.516,0.00015,0.0,0.0
5.136,6753.747,0.00015,0.0,0.0
5.142,6766.292,0.00015,0.0,0.0
5.148,6766.428,0.00015,0.0,0.0
5.154,6734.851,0.00015,0.0,0.0
5.161,6715.761,0.00015,0.0,0.0
5.167,6688.553,0.00015,0.0,0.0
5.173,6671.417,0.00015,0.0,0.0
5.18,6680.473,0.00015,0.0,0.0
5.186,6611.186,0.00015,0.0,0.0
5.192,6618.464,0.00015,0.0,0.0
5.199,6605.533,0.00015,0.0,0.0
5.205,6587.091,0.00015,0.0,0.0
5.211,6574.699,0.00015,0.0,0.0
5.218,6532.456,0.00015,0.0,0.0
5.224,6544.771,0.00015,0.0,0.0
5.23,6499.666,0.00015,0.0,0.0
5.237,6499.4,0.00015,0.0,0.0
5.243,6474.065,0.00015,0.0,0.0
5.249,6481.663,0.00015,0.0,0.0
5.256,6436.91,0.00016,0.0,0.0
5.262,6462.834,0.00015,0.0,0.0
5.268,6410.43,0.00016,0.0,0.0
5.275,6417.614,0.00016,0.0,0.0
5.281,6396.023,0.00016,0.0,0.0
5.287,6377.962,0.00016,0.0,0.0
5.294,6372.493,0.00016,0.0,0.0
5.3,6340.44,0.00016,0.0,0.0
5.306,6338.181,0.00016,0.0,0.0
5.312,6361.928,0.00016,0.0,0.0
5.319,6341.969,0.00016,0.0,0.0
5.325,6328.474,0.00016,0.0,0.0
5.331,6308.145,0.00016,0.0,0.0
5.338,6272.032,0.00016,0.0,0.0
5.344,6301.59,0.00016,0.0,0.0
5.35,6280.6,0.00016,0.0,0.0
5.357,6279.734,0.00016,0.0,0.0
5.363,6258.717,0.00016,0.0,0.0
5.369,6269.454,0.00016,0.0,0.0
5.376,6255.33,0.00016,0.0,0.0
5.382,6280.502,0.00016,0.0,0.0
5.388,6225.494,0.00016,0.0,0.0
5.395,6259.666,0.00016,0.0,0.0
5.401,6225.87,0.00016,0.0,0.0
5.407,6229.49,0.00016,0.0,0.0
5.414,6240.998,0.00016,0.0,0.0
5.42,6205.508,0.00016,0.0,0.0
5.426,6222.671,0.00016,0.0,0.0
5.433,6205.652,0.00016,0.0,0.0
5.439,6203.889,0.00016,0.0,0.0
5.445,6206.892,0.00016,0.0,0.0
5.452,6195.958,0.00016,0.0,0.0
5.458,6155.126,0.00016,0.0,0.0
5.464,6220.365,0.00016,0.0,0.0
5.47,6152.497,0.00016,0.0,0.0
5.477,6185.225,0.00016,0.0,0.0
5.483,6156.98,0.00016,0.0,0.0
5.489,6175.52,0.00016,0.0,0.0
5.496,6153.841,0.00016,0.0,0.0
5.502,6158.863,0.00016,0.0,0.0
5.508,6194.281,0.00016,0.0,0.0
5.515,6156.529,0.00016,0.0,0.0
5.521,6173.437,0.00016,0.0,0.0
5.527,6145.47,0.00016,0.0,0.0
5.534,6162.916,0.00016,0.0,0.0
5.54,6146.94,0.00016,0.0,0.0
5.546,6173.125,0.00016,0.0,0.0
5.553,6145.904,0.00016,0.0,0.0
5.559,6168.05,0.00016,0.0,0.0
5.565,6149.397,0.00016,0.0,0.0
5.572,6153.757,0.00016,0.0,0.0
5.578,6151.349,0.00016,0.0,0.0
5.584,6161.792,0.00016,0.0,0.0
5.591,6140.904,0.00016,0.0,0.0
5.597,6163.143,0.00016,0.0,0.0
5.603,6150.824,0.00016,0.0,0.0
5.61,6135.342,0.00016,0.0,0.0
5.616,6166.612,0.00016,0.0,0.0
5.622,6142.054,0.00016,0.0,0.0
5.628,6175.502,0.00016,0.0,0.0
5.635,6149.28,0.00016,0.0,0.0
5.641,6198.363,0.00016,0.0,0.0
5.647,6153.886,0.00016,0.0,0.0
5.654,6175.23,0.00016,0.0,0.0
5.66,6151.405,0.00016,0.0,0.0
5.666,6222.047,0.00016,0.0,0.0
5.673,6146.562,0.00016,0.0,0.0
5.679,6189.094,0.00016,0.0,0.0
5.685,6166.764,0.00016,0.0,0.0
5.692,6159.603,0.00016,0.0,0.0
5.698,6195.553,0.00016,0.0,0.0
5.704,6181.18,0.00016,0.0,0.0
5.711,6186.046,0.00016,0.0,0.0
5.717,6182.743,0.00016,0.0,0.0
5.723,6177.309,0.00016,0.0,0.0
5.73,6179.099,0.00016,0.0,0.0
5.736,6231.211,0.00016,0.0,0.0
5.742,6183.362,0.00016,0.0,0.0
5.749,6244.661,0.00016,0.0,0.0
5.755,6164.226,0.00016,0.0,0.0
5.761,6248.008,0.00016,0.0,0.0
5.768,6202.253,0.00016,0.0,0.0
5.774,6234.34,0.00016,0.0,0.0
5.78,6265.701,0.00016,0.0,0.0
5.786,6240.056,0.00016,0.0,0.0
5.793,6273.461,0.00016,0.0,0.0
5.799,6258.778,0.00016,0.0,0.0
5.805,6270.234,0.00016,0.0,0.0
5.812,6260.665,0.00016,0.0,0.0
5.818,6321.572,0.00016,0.0,0.0
5.824,6287.835,0.00016,0.0,0.0
5.831,6410.771,0.00016,0.0,0.0
5.837,6329.427,0.00016,0.0,0.0
5.843,6458.656,0.00015,0.0,0.0
5.85,6434.758,0.00016,0.0,0.0
5.856,6573.329,0.00015,0.0,0.0
5.862,6647.034,0.00015,0.0,0.0
5.869,6715.561,0.00015,0.0,0.0
5.875,6804.545,0.00015,0.0,0.0
5.881,6790.15,0.00015,0.0,0.0
5.888,6751.835,0.00015,0.0,0.0
5.894,6646.457,0.00015,0.0,0.0
5.9,6619.421,0.00015,0.0,0.0
5.907,6465.258,0.00015,0.0,0.0
5.913,6524.322,0.00015,0.0,0.0
5.919,6336.82,0.00016,0.0,0.0
5.926,6427.123,0.00016,0.0,0.0
5.932,6311.407,0.00016,0.0,0.0
5.938,6394.949,0.00016,0.0,0.0
5.944,6281.11,0.00016,0.0,0.0
5.951,6399.867,0.00016,0.0,0.0
5.957,6313.224,0.00016,0.0,0.0
5.963,6321.411,0.00016,0.0,0.0
5.97,6343.35,0.00016,0.0,0.0
5.976,6275.648,0.00016,0.0,0.0
5.982,6307.827,0.00016,0.0,0.0
5.989,6249.233,0.00016,0.0,0.0
5.995,6362.519,0.00016,0.0,0.0
6.001,6254.185,0.00016,0.0,0.0
6.008,6302.071,0.00016,0.0,0.0
6.014,6236.336,0.00016,0.0,0.0
6.02,6328.793,0.00016,0.0,0.0
6.027,6197.876,0.00016,0.0,0.0
6.033,6377.277,0.00016,0.0,0.0
6.039,6206.0,0.00016,0.0,0.0
6.046,6353.333,0.00016,0.0,0.0
6.052,6281.796,0.00016,0.0,0.0
6.058,6269.934,0.00016,0.0,0.0
6.065,6316.05,0.00016,0.0,0.0
6.071,6270.111,0.00016,0.0,0.0
6.077,6344.405,0.00016,0.0,0.0
6.084,6271.037,0.00016,0.0,0.0
6.09,6351.418,0.00016,0.0,0.0
6.096,6216.636,0.00016,0.0,0.0
6.102,6393.773,0.00016,0.0,0.0
6.109,6202.205,0.00016,0.0,0.0
6.115,6486.97,0.00015,0.0,0.0
6.121,6213.952,0.00016,0.0,0.0
6.128,6496.365,0.00015,0.0,0.0
6.134,6332.627,0.00016,0.0,0.0
6.14,6419.465,0.00016,0.0,0.0
6.147,6404.043,0.00016,0.0,0.0
6.153,6437.497,0.00016,0.0,0.0
6.159,6493.278,0.00015,0.0,0.0
6.166,6470.482,0.00015,0.0,0.0
6.172,6567.665,0.00015,0.0,0.0
6.178,6432.376,0.00016,0.0,0.0
6.185,6635.991,0.00015,0.0,0.0
6.191,6455.551,0.00015,0.0,0.0
6.197,6830.213,0.00015,0.0,0.0
6.204,6466.547,0.00015,0.0,0.0
6.21,6854.635,0.00015,0.0,0.0
6.216,6505.872,0.00015,0.0,0.0
6.223,7018.021,0.00014,0.0,0.0
6.229,6650.171,0.00015,0.0,0.0
6.235,6959.232,0.00014,0.0,0.0
6.242,6962.737,0.00014,0.0,0.0
6.248,6927.055,0.00014,0.0,0.0
6.254,7147.049,0.00014,0.0,0.0
6.26,6852.215,0.00015,0.0,0.0
6.267,7299.222,0.00014,0.0,0.0
6.273,6910.586,0.00014,0.0,0.0
6.279,7517.758,0.00013,0.0,0.0
6.286,7075.199,0.00014,0.0,0.0
6.292,7519.698,0.00013,0.0,0.0
6.298,7133.851,0.00014,0.0,0.0
6.305,7753.974,0.00013,0.0,0.0
6.311,7154.399,0.00014,0.0,0.0
6.317,7856.46,0.00013,0.0,0.0
6.324,7580.71,0.00013,0.0,0.0
6.33,7947.847,0.00013,0.0,0.0
6.336,7931.03,0.00013,0.0,0.0
6.343,8158.609,0.00012,0.0,0.0
6.349,8551.636,0.00012,0.0,0.0
6.355,9123.872,0.00011,0.0,0.0
6.362,9142.528,0.00011,0.0,0.0
6.368,10335.226,0.0001,0.0,0.0
6.374,10157.505,0.0001,0.0,0.0
6.381,13296.706,0.00008,0.0,0.0
6.387,12955.819,0.00008,0.0,0.0
6.393,15678.943,0.00006,0.0,0.0
6.4,17843.277,0.00006,0.0,0.0
6.406,16786.727,0.00006,0.0,0.0
6.412,21014.508,0.00005,0.0,0.0
6.418,18199.058,0.00005,0.0,0.0
6.425,25771.317,0.00004,0.0,0.0
6.431,21271.476,0.00005,0.0,0.0
6.437,25773.475,0.00004,0.0,0.0
6.444,24712.357,0.00004,0.0,0.0
6.45,24129.185,0.00004,0.0,0.0
6.456,28549.7,0.00004,0.0,0.0
6.463,25054.049,0.00004,0.0,0.0
6.469,25863.218,0.00004,0.0,0.0
6.475,18379.624,0.00005,0.0,0.0
6.482,23284.969,0.00004,0.0,0.0
6.488,18094.239,0.00006,0.0,0.0
6.494,19412.066,0.00005,0.0,0.0
6.501,16111.729,0.00006,0.0,0.0
6.507,17287.45,0.00006,0.0,0.0
6.513,12406.007,0.00008,0.0,0.0
6.52,12496.56,0.00008,0.0,0.0
6.526,10440.438,0.0001,0.0,0.0
6.532,10771.821,0.00009,0.0,0.0
6.539,10227.523,0.0001,0.0,0.0
6.545,9726.811,0.0001,0.0,0.0
6.551,10582.385,0.00009,0.0,0.0
6.558,10060.349,0.0001,0.0,0.0
6.564,11498.65,0.00009,0.0,0.0
6.57,12364.542,0.00008,0.0,0.0
6.576,16215.473,0.00006,0.0,0.0
6.583,20436.575,0.00005,0.0,0.0
6.589,33408.25,0.00003,0.0,0.0
6.595,46285.74,0.00002,0.0,0.0
6.602,77430.198,0.00001,0.0,0.0
6.608,82844.56,0.00001,0.0,0.0
6.614,103684.537,0.00001,0.0,0.0
6.621,93611.395,0.00001,0.0,0.0
6.627,72834.072,0.00001,0.0,0.0
6.633,56907.572,0.00002,0.0,0.0
6.64,35012.024,0.00003,0.0,0.0
6.646,23306.647,0.00004,0.0,0.0
6.652,16182.229,0.00006,0.0,0.0
6.659,12827.647,0.00008,0.0,0.0
6.665,10129.533,0.0001,0.0,0.0
6.671,9680.762,0.0001,0.0,0.0
6.678,8455.796,0.00012,0.0,0.0
6.684,8111.863,0.00012,0.0,0.0
6.69,7794.379,0.00013,0.0,0.0
6.697,7501.85,0.00013,0.0,0.0
6.703,7407.35,0.00014,0.0,0.0
6.709,7059.774,0.00014,0.0,0.0
6.716,7199.567,0.00014,0.0,0.0
6.722,6820.975,0.00015,0.0,0.0
6.728,7003.247,0.00014,0.0,0.0
6.734,6716.066,0.00015,0.0,0.0
6.741,6933.365,0.00014,0.0,0.0
6.747,6557.348,0.00015,0.0,0.0
6.753,6840.549,0.00015,0.0,0.0
6.76,6596.479,0.00015,0.0,0.0
6.766,6672.25,0.00015,0.0,0.0
6.772,6566.514,0.00015,0.0,0.0
6.779,6542.167,0.00015,0.0,0.0
6.785,6567.376,0.00015,0.0,0.0
6.791,6445.104,0.00016,0.0,0.0
6.798,6587.09,0.00015,0.0,0.0
6.804,6362.923,0.00016,0.0,0.0
6.81,6536.837,0.00015,0.0,0.0
6.817,6343.348,0.00016,0.0,0.0
6.823,6521.701,0.00015,0.0,0.0
6.829,6281.927,0.00016,0.0,0.0
6.836,6500.977,0.00015,0.0,0.0
6.842,6275.946,0.00016,0.0,0.0
6.848,6442.92,0.00016,0.0,0.0
6.855,6323.853,0.00016,0.0,0.0
6.861,6331.76,0.00016,0.0,0.0
6.867,6373.0,0.00016,0.0,0.0
6.874,6272.742,0.00016,0.0,0.0
6.88,6325.638,0.00016,0.0,0.0
6.886,6270.466,0.00016,0.0,0.0
6.892,6340.905,0.00016,0.0,0.0
6.899,6237.247,0.00016,0.0,0.0
6.905,6339.916,0.00016,0.0,0.0
6.911,6207.919,0.00016,0.0,0.0
6.918,6325.889,0.00016,0.0,0.0
6.924,6189.239,0.00016,0.0,0.0
6.93,6338.912,0.00016,0.0,0.0
6.937,6254.513,0.00016,0.0,0.0
6.943,6267.244,0.00016,0.0,0.0
6.949,6285.803,0.00016,0.0,0.0
6.956,6248.261,0.00016,0.0,0.0
6.962,6267.4,0.00016,0.0,0.0
6.968,6245.624,0.00016,0.0,0.0
6.975,6270.483,0.00016,0.0,0.0
6.981,6218.936,0.00016,0.0,0.0
6.987,6292.949,0.00016,0.0,0.0
6.994,6190.35,0.00016,0.0,0.0
7.0,6314.667,0.00016,0.0,0.0
7.006,6207.188,0.00016,0.0,0.0
7.013,6305.9,0.00016,0.0,0.0
7.019,6193.949,0.00016,0.0,0.0
7.025,6265.262,0.00016,0.0,0.0
7.032,6231.635,0.00016,0.0,0.0
7.038,6228.927,0.00016,0.0,0.0
7.044,6228.211,0.00016,0.0,0.0
7.05,6202.023,0.00016,0.0,0.0
7.057,6243.799,0.00016,0.0,0.0
7.063,6188.52,0.00016,0.0,0.0
7.069,6230.017,0.00016,0.0,0.0
7.076,6150.807,0.00016,0.0,0.0
7.082,6212.426,0.00016,0.0,0.0
7.088,6157.049,0.00016,0.0,0.0
7.095,6217.896,0.00016,0.0,0.0
7.101,6137.57,0.00016,0.0,0.0
7.107,6190.213,0.00016,0.0,0.0
7.114,6174.447,0.00016,0.0,0.0
7.12,6143.243,0.00016,0.0,0.0
7.126,6145.526,0.00016,0.0,0.0
7.133,6127.558,0.00016,0.0,0.0
7.139,6133.946,0.00016,0.0,0.0
7.145,6102.874,0.00016,0.0,0.0
7.152,6122.421,0.00016,0.0,0.0
7.158,6090.291,0.00016,0.0,0.0
7.164,6126.823,0.00016,0.0,0.0
7.171,6070.779,0.00016,0.0,0.0
7.177,6088.657,0.00016,0.0,0.0
7.183,6047.454,0.00017,0.0,0.0
7.19,6067.636,0.00016,0.0,0.0
7.196,6038.936,0.00017,0.0,0.0
7.202,6031.253,0.00017,0.0,0.0
7.208,6028.616,0.00017,0.0,0.0
7.215,5996.188,0.00017,0.0,0.0
7.221,6005.086,0.00017,0.0,0.0
7.227,5969.863,0.00017,0.0,0.0
7.234,6014.076,0.00017,0.0,0.0
7.24,5955.713,0.00017,0.0,0.0
7.246,5969.419,0.00017,0.0,0.0
7.253,5919.149,0.00017,0.0,0.0
7.259,5955.307,0.00017,0.0,0.0
7.265,5915.897,0.00017,0.0,0.0
7.272,5929.571,0.00017,0.0,0.0
7.278,5909.211,0.00017,0.0,0.0
7.284,5906.084,0.00017,0.0,0.0
7.291,5910.15,0.00017,0.0,0.0
7.297,5884.724,0.00017,0.0,0.0
7.303,5882.826,0.00017,0.0,0.0
7.31,5881.333,0.00017,0.0,0.0
7.316,5885.63,0.00017,0.0,0.0
7.322,5855.103,0.00017,0.0,0.0
7.329,5863.949,0.00017,0.0,0.0
7.335,5828.342,0.00017,0.0,0.0
7.341,5844.706,0.00017,0.0,0.0
7.348,5830.894,0.00017,0.0,0.0
7.354,5830.283,0.00017,0.0,0.0
7.36,5833.326,0.00017,0.0,0.0
7.366,5811.171,0.00017,0.0,0.0
7.373,5826.343,0.00017,0.0,0.0
7.379,5819.19,0.00017,0.0,0.0
7.385,5822.044,0.00017,0.0,0.0
7.392,5812.047,0.00017,0.0,0.0
7.398,5820.862,0.00017,0.0,0.0
7.404,5801.575,0.00017,0.0,0.0
7.411,5810.686,0.00017,0.0,0.0
7.417,5815.769,0.00017,0.0,0.0
7.423,5837.869,0.00017,0.0,0.0
7.43,5806.077,0.00017,0.0,0.0
7.436,5832.946,0.00017,0.0,0.0
7.442,5804.472,0.00017,0.0,0.0
7.449,5856.153,0.00017,0.0,0.0
7.455,5839.744,0.00017,0.0,0.0
7.461,5854.434,0.00017,0.0,0.0
7.468,5859.472,0.00017,0.0,0.0
7.474,5880.215,0.00017,0.0,0.0
7.48,5880.978,0.00017,0.0,0.0
7.487,5873.807,0.00017,0.0,0.0
7.493,5906.328,0.00017,0.0,0.0
7.499,5912.567,0.00017,0.0,0.0
7.506,5930.291,0.00017,0.0,0.0
7.512,5948.247,0.00017,0.0,0.0
7.518,5990.973,0.00017,0.0,0.0
7.524,5987.256,0.00017,0.0,0.0
7.531,6056.588,0.00017,0.0,0.0
7.537,6107.509,0.00016,0.0,0.0
7.543,6128.138,0.00016,0.0,0.0
7.55,6173.047,0.00016,0.0,0.0
7.556,6242.896,0.00016,0.0,0.0
7.562,6356.194,0.00016,0.0,0.0
7.569,6515.093,0.00015,0.0,0.0
7.575,6670.078,0.00015,0.0,0.0
7.581,7033.255,0.00014,0.0,0.0
7.588,7383.523,0.00014,0.0,0.0
7.594,8278.787,0.00012,0.0,0.0
7.6,9787.655,0.0001,0.0,0.0
7.607,12079.487,0.00008,0.0,0.0
7.613,18215.81,0.00005,0.0,0.0
7.619,22376.417,0.00004,0.0,0.0
7.626,33424.171,0.00003,0.0,0.0
7.632,44323.088,0.00002,0.0,0.0
7.638,45903.228,0.00002,0.0,0.0
7.645,47026.097,0.00002,0.0,0.0
7.651,41067.842,0.00002,0.0,0.0
7.657,28492.865,0.00004,0.0,0.0
7.664,21467.093,0.00005,0.0,0.0
7.67,14712.694,0.00007,0.0,0.0
7.676,11200.585,0.00009,0.0,0.0
7.682,9063.992,0.00011,0.0,0.0
7.689,7989.178,0.00013,0.0,0.0
7.695,7331.201,0.00014,0.0,0.0
7.701,6984.571,0.00014,0.0,0.0
7.708,6746.583,0.00015,0.0,0.0
7.714,6598.222,0.00015,0.0,0.0
7.72,6550.971,0.00015,0.0,0.0
7.727,6451.676,0.00015,0.0,0.0
7.733,6412.494,0.00016,0.0,0.0
7.739,6372.298,0.00016,0.0,0.0
7.746,6415.591,0.00016,0.0,0.0
7.752,6410.751,0.00016,0.0,0.0
7.758,6422.63,0.00016,0.0,0.0
7.765,6395.401,0.00016,0.0,0.0
7.771,6426.78,0.00016,0.0,0.0
7.777,6441.158,0.00016,0.0,0.0
7.784,6484.837,0.00015,0.0,0.0
7.79,6549.324,0.00015,0.0,0.0
7.796,6544.888,0.00015,0.0,0.0
7.803,6598.058,0.00015,0.0,0.0
7.809,6604.84,0.00015,0.0,0.0
7.815,6712.581,0.00015,0.0,0.0
7.822,6758.809,0.00015,0.0,0.0
7.828,6811.124,0.00015,0.0,0.0
7.834,6867.67,0.00015,0.0,0.0
7.84,6965.412,0.00014,0.0,0.0
7.847,7138.789,0.00014,0.0,0.0
7.853,7259.06,0.00014,0.0,0.0
7.859,7408.641,0.00013,0.0,0.0
7.866,7604.159,0.00013,0.0,0.0
7.872,8263.964,0.00012,0.0,0.0
7.878,9308.165,0.00011,0.0,0.0
7.885,11062.326,0.00009,0.0,0.0
7.891,12681.941,0.00008,0.0,0.0
7.897,16181.973,0.00006,0.0,0.0
7.904,16522.264,0.00006,0.0,0.0
7.91,16019.499,0.00006,0.0,0.0
7.916,16649.069,0.00006,0.0,0.0
7.923,12202.657,0.00008,0.0,0.0
7.929,10023.988,0.0001,0.0,0.0
7.935,9567.342,0.0001,0.0,0.0
7.942,8420.716,0.00012,0.0,0.0
7.948,7718.963,0.00013,0.0,0.0
7.954,7464.902,0.00013,0.0,0.0
7.961,7251.722,0.00014,0.0,0.0
7.967,7277.497,0.00014,0.0,0.0
7.973,7140.541,0.00014,0.0,0.0
7.98,7102.246,0.00014,0.0,0.0
7.986,6980.227,0.00014,0.0,0.0
7.992,6989.769,0.00014,0.0,0.0
7.998,6971.541,0.00014,0.0,0.0
8.005,6983.742,0.00014,0.0,0.0
8.011,6902.102,0.00014,0.0,0.0
8.017,6890.541,0.00015,0.0,0.0
8.024,6873.2,0.00015,0.0,0.0
8.03,6862.568,0.00015,0.0,0.0
8.036,6863.598,0.00015,0.0,0.0
8.043,6800.086,0.00015,0.0,0.0
8.049,6808.987,0.00015,0.0,0.0
8.055,6778.212,0.00015,0.0,0.0
8.062,6775.657,0.00015,0.0,0.0
8.068,6769.787,0.00015,0.0,0.0
8.074,6744.42,0.00015,0.0,0.0
8.081,6699.47,0.00015,0.0,0.0
8.087,6762.117,0.00015,0.0,0.0
8.093,6740.499,0.00015,0.0,0.0
8.1,6724.291,0.00015,0.0,0.0
8.106,6701.051,0.00015,0.0,0.0
8.112,6694.235,0.00015,0.0,0.0
8.119,6771.222,0.00015,0.0,0.0
8.125,6754.973,0.00015,0.0,0.0
8.131,6785.711,0.00015,0.0,0.0
8.138,6740.189,0.00015,0.0,0.0
8.144,6735.475,0.00015,0.0,0.0
8.15,6715.714,0.00015,0.0,0.0
8.156,6693.113,0.00015,0.0,0.0
8.163,6659.731,0.00015,0.0,0.0
8.169,6602.184,0.00015,0.0,0.0
8.175,6621.409,0.00015,0.0,0.0
8.182,6553.701,0.00015,0.0,0.0
8.188,6616.913,0.00015,0.0,0.0
8.194,6534.239,0.00015,0.0,0.0
8.201,6550.328,0.00015,0.0,0.0
8.207,6514.897,0.00015,0.0,0.0
8.213,6514.073,0.00015,0.0,0.0
8.22,6515.34,0.00015,0.0,0.0
8.226,6473.12,0.00015,0.0,0.0
8.232,6486.939,0.00015,0.0,0.0
8.239,6458.684,0.00015,0.0,0.0
8.245,6438.47,0.00016,0.0,0.0
8.251,6436.766,0.00016,0.0,0.0
8.258,6415.91,0.00016,0.0,0.0
8.264,6410.347,0.00016,0.0,0.0
8.27,6406.016,0.00016,0.0,0.0
8.277,6358.238,0.00016,0.0,0.0
8.283,6375.345,0.00016,0.0,0.0
8.289,6341.496,0.00016,0.0,0.0
8.296,6330.835,0.00016,0.0,0.0
8.302,6303.144,0.00016,0.0,0.0
8.308,6333.126,0.00016,0.0,0.0
8.314,6278.216,0.00016,0.0,0.0
8.321,6286.345,0.00016,0.0,0.0
8.327,6267.388,0.00016,0.0,0.0
8.333,6248.154,0.00016,0.0,0.0
8.34,6236.169,0.00016,0.0,0.0
8.346,6218.194,0.00016,0.0,0.0
8.352,6246.351,0.00016,0.0,0.0
8.359,6204.806,0.00016,0.0,0.0
8.365,6228.085,0.00016,0.0,0.0
8.371,6187.854,0.00016,0.0,0.0
8.378,6163.183,0.00016,0.0,0.0
8.384,6153.413,0.00016,0.0,0.0
8.39,6156.989,0.00016,0.0,0.0
8.397,6130.203,0.00016,0.0,0.0
8.403,6140.998,0.00016,0.0,0.0
8.409,6108.2,0.00016,0.0,0.0
8.416,6079.308,0.00016,0.0,0.0
8.422,6095.589,0.00016,0.0,0.0
8.428,6058.595,0.00017,0.0,0.0
8.435,6077.398,0.00016,0.0,0.0
8.441,6043.009,0.00017,0.0,0.0
8.447,6051.515,0.00017,0.0,0.0
8.454,6026.218,0.00017,0.0,0.0
8.46,6033.846,0.00017,0.0,0.0
8.466,6021.551,0.00017,0.0,0.0
8.472,6000.218,0.00017,0.0,0.0
8.479,6004.505,0.00017,0.0,0.0
8.485,6000.02,0.00017,0.0,0.0
8.491,5988.509,0.00017,0.0,0.0
8.498,5978.468,0.00017,0.0,0.0
8.504,5976.113,0.00017,0.0,0.0
8.51,5948.476,0.00017,0.0,0.0
8.517,5978.531,0.00017,0.0,0.0
8.523,5932.736,0.00017,0.0,0.0
8.529,5934.1,0.00017,0.0,0.0
8.536,5936.301,0.00017,0.0,0.0
8.542,5916.464,0.00017,0.0,0.0
8.548,5910.601,0.00017,0.0,0.0
8.555,5901.348,0.00017,0.0,0.0
8.561,5900.219,0.00017,0.0,0.0
8.567,5899.248,0.00017,0.0,0.0
8.574,5861.751,0.00017,0.0,0.0
8.58,5880.665,0.00017,0.0,0.0
8.586,5870.88,0.00017,0.0,0.0
8.593,5847.257,0.00017,0.0,0.0
8.599,5867.42,0.00017,0.0,0.0
8.605,5837.748,0.00017,0.0,0.0
8.612,5839.76,0.00017,0.0,0.0
8.618,5822.553,0.00017,0.0,0.0
8.624,5822.606,0.00017,0.0,0.0
8.63,5830.745,0.00017,0.0,0.0
8.637,5819.997,0.00017,0.0,0.0
8.643,5805.314,0.00017,0.0,0.0
8.649,5802.178,0.00017,0.0,0.0
8.656,5811.227,0.00017,0.0,0.0
8.662,5793.137,0.00017,0.0,0.0
8.668,5818.734,0.00017,0.0,0.0
8.675,5781.618,0.00017,0.0,0.0
8.681,5790.474,0.00017,0.0,0.0
8.687,5777.902,0.00017,0.0,0.0
8.694,5758.143,0.00017,0.0,0.0
8.7,5760.731,0.00017,0.0,0.0
8.706,5771.465,0.00017,0.0,0.0
8.713,5766.433,0.00017,0.0,0.0
8.719,5762.522,0.00017,0.0,0.0
8.725,5774.875,0.00017,0.0,0.0
8.732,5769.669,0.00017,0.0,0.0
8.738,5760.267,0.00017,0.0,0.0
8.744,5762.814,0.00017,0.0,0.0
8.751,5757.473,0.00017,0.0,0.0
8.757,5746.326,0.00017,0.0,0.0
8.763,5746.714,0.00017,0.0,0.0
8.77,5740.084,0.00017,0.0,0.0
8.776,5746.911,0.00017,0.0,0.0
8.782,5736.07,0.00017,0.0,0.0
8.788,5737.611,0.00017,0.0,0.0
8.795,5733.336,0.00017,0.0,0.0
8.801,5732.605,0.00017,0.0,0.0
8.807,5725.421,0.00017,0.0,0.0
8.814,5721.044,0.00017,0.0,0.0
8.82,5720.014,0.00017,0.0,0.0
8.826,5716.244,0.00017,0.0,0.0
8.833,5721.308,0.00017,0.0,0.0
8.839,5713.15,0.00018,0.0,0.0
8.845,5722.453,0.00017,0.0,0.0
8.852,5708.07,0.00018,0.0,0.0
8.858,5703.914,0.00018,0.0,0.0
8.864,5707.997,0.00018,0.0,0.0
8.871,5703.658,0.00018,0.0,0.0
8.877,5694.744,0.00018,0.0,0.0
8.883,5719.046,0.00017,0.0,0.0
8.89,5700.594,0.00018,0.0,0.0
8.896,5705.532,0.00018,0.0,0.0
8.902,5730.421,0.00017,0.0,0.0
8.909,5698.074,0.00018,0.0,0.0
8.915,5723.007,0.00017,0.0,0.0
8.921,5713.715,0.00018,0.0,0.0
8.928,5733.372,0.00017,0.0,0.0
8.934,5706.613,0.00018,0.0,0.0
8.94,5730.397,0.00017,0.0,0.0
8.946,5722.233,0.00017,0.0,0.0
8.953,5723.707,0.00017,0.0,0.0
8.959,5717.245,0.00017,0.0,0.0
8.965,5712.158,0.00018,0.0,0.0
8.972,5739.445,0.00017,0.0,0.0
8.978,5742.342,0.00017,0.0,0.0
8.984,5739.908,0.00017,0.0,0.0
8.991,5750.124,0.00017,0.0,0.0
8.997,5742.963,0.00017,0.0,0.0
9.003,5734.238,0.00017,0.0,0.0
9.01,5764.51,0.00017,0.0,0.0
9.016,5765.54,0.00017,0.0,0.0
9.022,5782.922,0.00017,0.0,0.0
9.029,5794.01,0.00017,0.0,0.0
9.035,5799.995,0.00017,0.0,0.0
9.041,5825.506,0.00017,0.0,0.0
9.048,5830.27,0.00017,0.0,0.0
9.054,5853.068,0.00017,0.0,0.0
9.06,5875.574,0.00017,0.0,0.0
9.067,5896.103,0.00017,0.0,0.0
9.073,5919.535,0.00017,0.0,0.0
9.079,5983.327,0.00017,0.0,0.0
9.086,6067.449,0.00016,0.0,0.0
9.092,6224.503,0.00016,0.0,0.0
9.098,6316.648,0.00016,0.0,0.0
9.104,7056.566,0.00014,0.0,0.0
9.111,8061.653,0.00012,0.0,0.0
9.117,8483.323,0.00012,0.0,0.0
9.123,10701.959,0.00009,0.0,0.0
9.13,9125.038,0.00011,0.0,0.0
9.136,10293.639,0.0001,0.0,0.0
9.142,9497.232,0.00011,0.0,0.0
9.149,8145.712,0.00012,0.0,0.0
9.155,7936.937,0.00013,0.0,0.0
9.161,6869.882,0.00015,0.0,0.0
9.168,6320.174,0.00016,0.0,0.0
9.174,6236.739,0.00016,0.0,0.0
9.18,6126.504,0.00016,0.0,0.0
9.187,6025.394,0.00017,0.0,0.0
9.193,6003.81,0.00017,0.0,0.0
9.199,5939.229,0.00017,0.0,0.0
9.206,5916.198,0.00017,0.0,0.0
9.212,5886.144,0.00017,0.0,0.0
9.218,5890.183,0.00017,0.0,0.0
9.225,5851.071,0.00017,0.0,0.0
9.231,5857.979,0.00017,0.0,0.0
9.237,5838.275,0.00017,0.0,0.0
9.244,5854.337,0.00017,0.0,0.0
9.25,5803.487,0.00017,0.0,0.0
9.256,5813.096,0.00017,0.0,0.0
9.262,5790.077,0.00017,0.0,0.0
9.269,5769.198,0.00017,0.0,0.0
9.275,5756.417,0.00017,0.0,0.0
9.281,5734.496,0.00017,0.0,0.0
9.288,5740.24,0.00017,0.0,0.0
9.294,5720.125,0.00017,0.0,0.0
9.3,5714.567,0.00017,0.0,0.0
9.307,5704.882,0.00018,0.0,0.0
9.313,5675.924,0.00018,0.0,0.0
9.319,5647.215,0.00018,0.0,0.0
9.326,5653.284,0.00018,0.0,0.0
9.332,5642.193,0.00018,0.0,0.0
9.338,5644.063,0.00018,0.0,0.0
9.345,5609.293,0.00018,0.0,0.0
9.351,5601.839,0.00018,0.0,0.0
9.357,5561.932,0.00018,0.0,0.0
9.364,5569.557,0.00018,0.0,0.0
9.37,5569.594,0.00018,0.0,0.0
9.376,5537.498,0.00018,0.0,0.0
9.383,5527.334,0.00018,0.0,0.0
9.389,5504.7,0.00018,0.0,0.0
9.395,5508.571,0.00018,0.0,0.0
9.402,5469.208,0.00018,0.0,0.0
9.408,5467.81,0.00018,0.0,0.0
9.414,5460.428,0.00018,0.0,0.0
9.42,5432.929,0.00018,0.0,0.0
9.427,5432.079,0.00018,0.0,0.0
9.433,5428.809,0.00018,0.0,0.0
9.439,5410.543,0.00018,0.0,0.0
9.446,5401.648,0.00019,0.0,0.0
9.452,5387.984,0.00019,0.0,0.0
9.458,5369.912,0.00019,0.0,0.0
9.465,5384.589,0.00019,0.0,0.0
9.471,5364.578,0.00019,0.0,0.0
9.477,5372.55,0.00019,0.0,0.0
9.484,5360.422,0.00019,0.0,0.0
9.49,5330.836,0.00019,0.0,0.0
9.496,5327.576,0.00019,0.0,0.0
9.503,5312.967,0.00019,0.0,0.0
9.509,5299.21,0.00019,0.0,0.0
9.515,5306.546,0.00019,0.0,0.0
9.522,5291.919,0.00019,0.0,0.0
9.528,5276.973,0.00019,0.0,0.0
9.534,5270.915,0.00019,0.0,0.0
9.541,5252.646,0.00019,0.0,0.0
9.547,5252.268,0.00019,0.0,0.0
9.553,5243.579,0.00019,0.0,0.0
9.56,5234.257,0.00019,0.0,0.0
9.566,5229.282,0.00019,0.0,0.0
9.572,5207.062,0.00019,0.0,0.0
9.578,5224.041,0.00019,0.0,0.0
9.585,5190.543,0.00019,0.0,0.0
9.591,5186.782,0.00019,0.0,0.0
9.597,5191.168,0.00019,0.0,0.0
9.604,5183.526,0.00019,0.0,0.0
9.61,5169.986,0.00019,0.0,0.0
9.616,5162.837,0.00019,0.0,0.0
9.623,5170.191,0.00019,0.0,0.0
9.629,5156.135,0.00019,0.0,0.0
9.635,5152.56,0.00019,0.0,0.0
9.642,5148.99,0.00019,0.0,0.0
9.648,5143.419,0.00019,0.0,0.0
9.654,5128.361,0.00019,0.0,0.0
9.661,5148.947,0.00019,0.0,0.0
9.667,5128.036,0.0002,0.0,0.0
9.673,5136.291,0.00019,0.0,0.0
9.68,5113.033,0.0002,0.0,0.0
9.686,5133.793,0.00019,0.0,0.0
9.692,5133.267,0.00019,0.0,0.0
9.699,5130.287,0.00019,0.0,0.0
9.705,5126.681,0.0002,0.0,0.0
9.711,5122.761,0.0002,0.0,0.0
9.718,5105.058,0.0002,0.0,0.0
9.724,5101.787,0.0002,0.0,0.0
9.73,5120.096,0.0002,0.0,0.0
9.736,5093.261,0.0002,0.0,0.0
9.743,5105.326,0.0002,0.0,0.0
9.749,5111.3,0.0002,0.0,0.0
9.755,5109.818,0.0002,0.0,0.0
9.762,5109.719,0.0002,0.0,0.0
9.768,5096.336,0.0002,0.0,0.0
9.774,5105.751,0.0002,0.0,0.0
9.781,5105.545,0.0002,0.0,0.0
9.787,5097.665,0.0002,0.0,0.0
9.793,5089.699,0.0002,0.0,0.0
9.8,5094.14,0.0002,0.0,0.0
9.806,5092.658,0.0002,0.0,0.0
9.812,5129.519,0.00019,0.0,0.0
9.819,5076.361,0.0002,0.0,0.0
9.825,5107.012,0.0002,0.0,0.0
9.831,5110.41,0.0002,0.0,0.0
9.838,5113.178,0.0002,0.0,0.0
9.844,5123.907,0.0002,0.0,0.0
9.85,5089.165,0.0002,0.0,0.0
9.857,5112.774,0.0002,0.0,0.0
9.863,5099.368,0.0002,0.0,0.0
9.869,5112.956,0.0002,0.0,0.0
9.876,5099.653,0.0002,0.0,0.0
9.882,5130.736,0.00019,0.0,0.0
9.888,5114.966,0.0002,0.0,0.0
9.894,5123.448,0.0002,0.0,0.0
9.901,5104.042,0.0002,0.0,0.0
9.907,5105.909,0.0002,0.0,0.0
9.913,5107.678,0.0002,0.0,0.0
9.92,5084.14,0.0002,0.0,0.0
9.926,5108.064,0.0002,0.0,0.0
9.932,5098.633,0.0002,0.0,0.0
9.939,5101.285,0.0002,0.0,0.0
9.945,5110.55,0.0002,0.0,0.0
9.951,5069.407,0.0002,0.0,0.0
9.958,5112.31,0.0002,0.0,0.0
9.964,5091.299,0.0002,0.0,0.0
9.97,5089.491,0.0002,0.0,0.0
9.977,5103.844,0.0002,0.0,0.0
9.983,5086.465,0.0002,0.0,0.0
9.989,5098.312,0.0002,0.0,0.0
9.996,5068.929,0.0002,0.0,0.0
10.002,5075.269,0.0002,0.0,0.0
10.008,5092.729,0.0002,0.0,0.0
10.015,5074.547,0.0002,0.0,0.0
10.021,5094.025,0.0002,0.0,0.0
10.027,5102.442,0.0002,0.0,0.0
10.034,5074.937,0.0002,0.0,0.0
10.04,5092.035,0.0002,0.0,0.0
10.046,5082.193,0.0002,0.0,0.0
10.052,5099.777,0.0002,0.0,0.0
10.059,5103.968,0.0002,0.0,0.0
10.065,5093.819,0.0002,0.0,0.0
10.071,5098.182,0.0002,0.0,0.0
10.078,5099.493,0.0002,0.0,0.0
10.084,5085.774,0.0002,0.0,0.0
10.09,5103.193,0.0002,0.0,0.0
10.097,5082.805,0.0002,0.0,0.0
10.103,5113.636,0.0002,0.0,0.0
10.109,5108.591,0.0002,0.0,0.0
10.116,5120.542,0.0002,0.0,0.0
10.122,5104.097,0.0002,0.0,0.0
10.128,5101.883,0.0002,0.0,0.0
10.135,5091.74,0.0002,0.0,0.0
10.141,5104.936,0.0002,0.0,0.0
10.147,5122.222,0.0002,0.0,0.0
10.154,5151.269,0.00019,0.0,0.0
10.16,5165.513,0.00019,0.0,0.0
10.166,5185.306,0.00019,0.0,0.0
10.173,5287.631,0.00019,0.0,0.0
10.179,5254.316,0.00019,0.0,0.0
10.185,5629.984,0.00018,0.0,0.0
10.192,5849.827,0.00017,0.0,0.0
10.198,6533.518,0.00015,0.0,0.0
10.204,7614.104,0.00013,0.0,0.0
10.21,7966.38,0.00013,0.0,0.0
10.217,8004.645,0.00012,0.0,0.0
10.223,7012.567,0.00014,0.0,0.0
10.229,6377.501,0.00016,0.0,0.0
10.236,5901.607,0.00017,0.0,0.0
10.242,5758.822,0.00017,0.0,0.0
10.248,5276.532,0.00019,0.0,0.0
10.255,5195.066,0.00019,0.0,0.0
10.261,5152.41,0.00019,0.0,0.0
10.267,5079.494,0.0002,0.0,0.0
10.274,5048.907,0.0002,0.0,0.0
10.28,5020.462,0.0002,0.0,0.0
10.286,5050.312,0.0002,0.0,0.0
10.293,4997.774,0.0002,0.0,0.0
10.299,5013.556,0.0002,0.0,0.0
10.305,5001.647,0.0002,0.0,0.0
10.312,4988.564,0.0002,0.0,0.0
10.318,4974.861,0.0002,0.0,0.0
10.324,4963.539,0.0002,0.0,0.0
10.331,4973.914,0.0002,0.0,0.0
10.337,4963.663,0.0002,0.0,0.0
10.343,4958.397,0.0002,0.0,0.0
10.35,4939.447,0.0002,0.0,0.0
10.356,4951.753,0.0002,0.0,0.0
10.362,4917.875,0.0002,0.0,0.0
10.368,4939.016,0.0002,0.0,0.0
10.375,4918.214,0.0002,0.0,0.0
10.381,4924.646,0.0002,0.0,0.0
10.387,4920.469,0.0002,0.0,0.0
10.394,4907.99,0.0002,0.0,0.0
10.4,4919.419,0.0002,0.0,0.0
10.406,4916.423,0.0002,0.0,0.0
10.413,4907.018,0.0002,0.0,0.0
10.419,4888.376,0.0002,0.0,0.0
10.425,4908.327,0.0002,0.0,0.0
10.432,4900.456,0.0002,0.0,0.0
10.438,4908.135,0.0002,0.0,0.0
10.444,4895.497,0.0002,0.0,0.0
10.451,4885.054,0.0002,0.0,0.0
10.457,4893.017,0.0002,0.0,0.0
10.463,4882.539,0.0002,0.0,0.0
10.47,4885.133,0.0002,0.0,0.0
10.476,4877.672,0.00021,0.0,0.0
10.482,4884.213,0.0002,0.0,0.0
10.489,4871.637,0.00021,0.0,0.0
10.495,4898.948,0.0002,0.0,0.0
10.501,4873.359,0.00021,0.0,0.0
10.508,4878.815,0.0002,0.0,0.0
10.514,4862.769,0.00021,0.0,0.0
10.52,4882.188,0.0002,0.0,0.0
10.526,4881.993,0.0002,0.0,0.0
10.533,4869.691,0.00021,0.0,0.0
10.539,4880.962,0.0002,0.0,0.0
10.545,4861.982,0.00021,0.0,0.0
10.552,4887.193,0.0002,0.0,0.0
10.558,4853.971,0.00021,0.0,0.0
10.564,4890.873,0.0002,0.0,0.0
10.571,4871.661,0.00021,0.0,0.0
10.577,4884.28,0.0002,0.0,0.0
10.583,4886.017,0.0002,0.0,0.0
10.59,4875.761,0.00021,0.0,0.0
10.596,4883.943,0.0002,0.0,0.0
10.602,4862.562,0.00021,0.0,0.0
10.609,4873.921,0.00021,0.0,0.0
10.615,4860.356,0.00021,0.0,0.0
10.621,4882.812,0.0002,0.0,0.0
10.628,4870.527,0.00021,0.0,0.0
10.634,4887.313,0.0002,0.0,0.0
10.64,4893.959,0.0002,0.0,0.0
10.647,4884.057,0.0002,0.0,0.0
10.653,4889.066,0.0002,0.0,0.0
10.659,4892.715,0.0002,0.0,0.0
10.666,4916.63,0.0002,0.0,0.0
10.672,4897.74,0.0002,0.0,0.0
10.678,4925.946,0.0002,0.0,0.0
10.684,4910.987,0.0002,0.0,0.0
10.691,4936.5,0.0002,0.0,0.0
10.697,4936.392,0.0002,0.0,0.0
10.703,4947.559,0.0002,0.0,0.0
10.71,4960.313,0.0002,0.0,0.0
10.716,4975.923,0.0002,0.0,0.0
10.722,5012.674,0.0002,0.0,0.0
10.729,5033.669,0.0002,0.0,0.0
10.735,5070.285,0.0002,0.0,0.0
10.741,5129.525,0.00019,0.0,0.0
10.748,5216.697,0.00019,0.0,0.0
10.754,5335.893,0.00019,0.0,0.0
10.76,5554.082,0.00018,0.0,0.0
10.767,5845.357,0.00017,0.0,0.0
10.773,6423.416,0.00016,0.0,0.0
10.779,7446.875,0.00013,0.0,0.0
10.786,9191.494,0.00011,0.0,0.0
10.792,13167.177,0.00008,0.0,0.0
10.798,17327.621,0.00006,0.0,0.0
10.805,23486.072,0.00004,0.0,0.0
10.811,29804.365,0.00003,0.0,0.0
10.817,32374.129,0.00003,0.0,0.0
10.824,32865.183,0.00003,0.0,0.0
10.83,26834.527,0.00004,0.0,0.0
10.836,19074.273,0.00005,0.0,0.0
10.842,14451.839,0.00007,0.0,0.0
10.849,9810.705,0.0001,0.0,0.0
10.855,7914.802,0.00013,0.0,0.0
10.861,6550.808,0.00015,0.0,0.0
10.868,5986.657,0.00017,0.0,0.0
10.874,5620.057,0.00018,0.0,0.0
10.88,5362.373,0.00019,0.0,0.0
10.887,5239.205,0.00019,0.0,0.0
10.893,5146.466,0.00019,0.0,0.0
10.899,5089.398,0.0002,0.0,0.0
10.906,5040.652,0.0002,0.0,0.0
10.912,4994.842,0.0002,0.0,0.0
10.918,4993.051,0.0002,0.0,0.0
10.925,4952.452,0.0002,0.0,0.0
10.931,4948.857,0.0002,0.0,0.0
10.937,4926.568,0.0002,0.0,0.0
10.944,4921.793,0.0002,0.0,0.0
10.95,4910.837,0.0002,0.0,0.0
10.956,4904.362,0.0002,0.0,0.0
10.963,4881.572,0.0002,0.0,0.0
10.969,4881.434,0.0002,0.0,0.0
10.975,4881.376,0.0002,0.0,0.0
10.982,4856.362,0.00021,0.0,0.0
10.988,4834.728,0.00021,0.0,0.0
10.994,4846.236,0.00021,0.0,0.0
11.0,4826.07,0.00021,0.0,0.0
11.007,4839.716,0.00021,0.0,0.0
11.013,4831.593,0.00021,0.0,0.0
11.019,4800.113,0.00021,0.0,0.0
11.026,4784.951,0.00021,0.0,0.0
11.032,4794.25,0.00021,0.0,0.0
11.038,4795.263,0.00021,0.0,0.0
11.045,4794.302,0.00021,0.0,0.0
11.051,4790.742,0.00021,0.0,0.0
11.057,4780.011,0.00021,0.0,0.0
11.064,4769.768,0.00021,0.0,0.0
11.07,4782.317,0.00021,0.0,0.0
11.076,4762.995,0.00021,0.0,0.0
11.083,4763.422,0.00021,0.0,0.0
11.089,4749.908,0.00021,0.0,0.0
11.095,4753.772,0.00021,0.0,0.0
11.102,4750.758,0.00021,0.0,0.0
11.108,4757.117,0.00021,0.0,0.0
11.114,4748.621,0.00021,0.0,0.0
11.121,4743.482,0.00021,0.0,0.0
11.127,4749.298,0.00021,0.0,0.0
11.133,4732.356,0.00021,0.0,0.0
11.14,4728.458,0.00021,0.0,0.0
11.146,4727.405,0.00021,0.0,0.0
11.152,4718.425,0.00021,0.0,0.0
11.158,4712.538,0.00021,0.0,0.0
11.165,4710.663,0.00021,0.0,0.0
11.171,4725.839,0.00021,0.0,0.0
11.177,4707.14,0.00021,0.0,0.0
11.184,4707.995,0.00021,0.0,0.0
11.19,4696.416,0.00021,0.0,0.0
11.196,4704.058,0.00021,0.0,0.0
11.203,4719.377,0.00021,0.0,0.0
11.209,4721.351,0.00021,0.0,0.0
11.215,4692.348,0.00021,0.0,0.0
11.222,4708.156,0.00021,0.0,0.0
11.228,4694.577,0.00021,0.0,0.0
11.234,4689.694,0.00021,0.0,0.0
11.241,4694.554,0.00021,0.0,0.0
11.247,4685.984,0.00021,0.0,0.0
11.253,4687.186,0.00021,0.0,0.0
11.26,4689.227,0.00021,0.0,0.0
11.266,4676.963,0.00021,0.0,0.0
11.272,4690.943,0.00021,0.0,0.0
11.279,4678.257,0.00021,0.0,0.0
11.285,4682.689,0.00021,0.0,0.0
11.291,4676.067,0.00021,0.0,0.0
11.298,4676.998,0.00021,0.0,0.0
11.304,4676.087,0.00021,0.0,0.0
11.31,4667.848,0.00021,0.0,0.0
11.316,4689.183,0.00021,0.0,0.0
11.323,4686.214,0.00021,0.0,0.0
11.329,4665.552,0.00021,0.0,0.0
11.335,4663.814,0.00021,0.0,0.0
11.342,4680.879,0.00021,0.0,0.0
11.348,4675.381,0.00021,0.0,0.0
11.354,4674.32,0.00021,0.0,0.0
11.361,4684.388,0.00021,0.0,0.0
11.367,4683.307,0.00021,0.0,0.0
11.373,4670.007,0.00021,0.0,0.0
11.38,4663.135,0.00021,0.0,0.0
11.386,4687.655,0.00021,0.0,0.0
11.392,4664.865,0.00021,0.0,0.0
11.399,4685.97,0.00021,0.0,0.0
11.405,4683.943,0.00021,0.0,0.0
11.411,4666.187,0.00021,0.0,0.0
11.418,4678.523,0.00021,0.0,0.0
11.424,4679.352,0.00021,0.0,0.0
11.43,4679.521,0.00021,0.0,0.0
11.437,4684.585,0.00021,0.0,0.0
11.443,4679.86,0.00021,0.0,0.0
11.449,4688.118,0.00021,0.0,0.0
11.456,4679.935,0.00021,0.0,0.0
11.462,4693.934,0.00021,0.0,0.0
11.468,4686.571,0.00021,0.0,0.0
11.474,4677.008,0.00021,0.0,0.0
11.481,4686.023,0.00021,0.0,0.0
11.487,4687.417,0.00021,0.0,0.0
11.493,4684.787,0.00021,0.0,0.0
11.5,4706.861,0.00021,0.0,0.0
11.506,4696.652,0.00021,0.0,0.0
11.512,4710.398,0.00021,0.0,0.0
11.519,4710.296,0.00021,0.0,0.0
11.525,4714.277,0.00021,0.0,0.0
11.531,4728.469,0.00021,0.0,0.0
11.538,4710.292,0.00021,0.0,0.0
11.544,4710.793,0.00021,0.0,0.0
11.55,4702.429,0.00021,0.0,0.0
11.557,4705.231,0.00021,0.0,0.0
11.563,4705.54,0.00021,0.0,0.0
11.569,4713.993,0.00021,0.0,0.0
11.576,4713.388,0.00021,0.0,0.0
11.582,4711.537,0.00021,0.0,0.0
11.588,4713.305,0.00021,0.0,0.0
11.595,4724.085,0.00021,0.0,0.0
11.601,4710.978,0.00021,0.0,0.0
11.607,4711.463,0.00021,0.0,0.0
11.614,4732.163,0.00021,0.0,0.0
11.62,4727.506,0.00021,0.0,0.0
11.626,4729.631,0.00021,0.0,0.0
11.632,4731.38,0.00021,0.0,0.0
11.639,4733.514,0.00021,0.0,0.0
11.645,4756.294,0.00021,0.0,0.0
11.651,4732.141,0.00021,0.0,0.0
11.658,4758.547,0.00021,0.0,0.0
11.664,4752.656,0.00021,0.0,0.0
11.67,4753.627,0.00021,0.0,0.0
11.677,4753.292,0.00021,0.0,0.0
11.683,4732.363,0.00021,0.0,0.0
11.689,4750.502,0.00021,0.0,0.0
11.696,4742.351,0.00021,0.0,0.0
11.702,4736.817,0.00021,0.0,0.0
11.708,4754.611,0.00021,0.0,0.0
11.715,4742.548,0.00021,0.0,0.0
11.721,4747.96,0.00021,0.0,0.0
11.727,4750.748,0.00021,0.0,0.0
11.734,4731.012,0.00021,0.0,0.0
11.74,4748.043,0.00021,0.0,0.0
11.746,4731.278,0.00021,0.0,0.0
11.753,4738.835,0.00021,0.0,0.0
11.759,4732.92,0.00021,0.0,0.0
11.765,4721.617,0.00021,0.0,0.0
11.772,4731.087,0.00021,0.0,0.0
11.778,4728.611,0.00021,0.0,0.0
11.784,4729.624,0.00021,0.0,0.0
11.79,4727.949,0.00021,0.0,0.0
11.797,4718.727,0.00021,0.0,0.0
11.803,4723.288,0.00021,0.0,0.0
11.809,4715.641,0.00021,0.0,0.0
11.816,4714.086,0.00021,0.0,0.0
11.822,4728.827,0.00021,0.0,0.0
11.828,4706.978,0.00021,0.0,0.0
11.835,4721.381,0.00021,0.0,0.0
11.841,4713.435,0.00021,0.0,0.0
11.847,4716.484,0.00021,0.0,0.0
11.854,4730.929,0.00021,0.0,0.0
11.86,4708.661,0.00021,0.0,0.0
11.866,4714.212,0.00021,0.0,0.0
11.873,4712.02,0.00021,0.0,0.0
11.879,4711.214,0.00021,0.0,0.0
11.885,4705.953,0.00021,0.0,0.0
11.892,4698.454,0.00021,0.0,0.0
11.898,4722.127,0.00021,0.0,0.0
11.904,4711.212,0.00021,0.0,0.0
11.911,4715.804,0.00021,0.0,0.0
11.917,4722.459,0.00021,0.0,0.0
11.923,4705.758,0.00021,0.0,0.0
11.93,4711.527,0.00021,0.0,0.0
11.936,4725.082,0.00021,0.0,0.0
11.942,4704.19,0.00021,0.0,0.0
11.948,4718.171,0.00021,0.0,0.0
11.955,4726.068,0.00021,0.0,0.0
11.961,4724.355,0.00021,0.0,0.0
11.967,4738.021,0.00021,0.0,0.0
11.974,4732.131,0.00021,0.0,0.0
11.98,4725.481,0.00021,0.0,0.0
11.986,4754.334,0.00021,0.0,0.0
11.993,4748.654,0.00021,0.0,0.0
11.999,4757.963,0.00021,0.0,0.0
12.005,4766.573,0.00021,0.0,0.0
12.012,4785.948,0.00021,0.0,0.0
12.018,4802.306,0.00021,0.0,0.0
12.024,4820.964,0.00021,0.0,0.0
12.031,4837.063,0.00021,0.0,0.0
12.037,4856.668,0.00021,0.0,0.0
12.043,4990.023,0.0002,0.0,0.0
12.05,4955.288,0.0002,0.0,0.0
12.056,5269.982,0.00019,0.0,0.0
12.062,6174.254,0.00016,0.0,0.0
12.069,5799.706,0.00017,0.0,0.0
12.075,6857.393,0.00015,0.0,0.0
12.081,6981.785,0.00014,0.0,0.0
12.088,6540.234,0.00015,0.0,0.0
12.094,6523.195,0.00015,0.0,0.0
12.1,5865.457,0.00017,0.0,0.0
12.106,5511.748,0.00018,0.0,0.0
12.113,5215.656,0.00019,0.0,0.0
12.119,5001.697,0.0002,0.0,0.0
12.125,4915.056,0.0002,0.0,0.0
12.132,4799.77,0.00021,0.0,0.0
12.138,4764.134,0.00021,0.0,0.0
12.144,4758.713,0.00021,0.0,0.0
12.151,4709.43,0.00021,0.0,0.0
12.157,4701.717,0.00021,0.0,0.0
12.163,4654.757,0.00021,0.0,0.0
12.17,4673.65,0.00021,0.0,0.0
12.176,4646.917,0.00022,0.0,0.0
12.182,4631.528,0.00022,0.0,0.0
12.189,4630.166,0.00022,0.0,0.0
12.195,4613.805,0.00022,0.0,0.0
12.201,4598.545,0.00022,0.0,0.0
12.208,4597.091,0.00022,0.0,0.0
12.214,4589.136,0.00022,0.0,0.0
12.22,4566.723,0.00022,0.0,0.0
12.227,4566.995,0.00022,0.0,0.0
12.233,4552.989,0.00022,0.0,0.0
12.239,4555.587,0.00022,0.0,0.0
12.246,4530.694,0.00022,0.0,0.0
12.252,4527.411,0.00022,0.0,0.0
12.258,4535.843,0.00022,0.0,0.0
12.264,4523.05,0.00022,0.0,0.0
12.271,4508.487,0.00022,0.0,0.0
12.277,4544.7,0.00022,0.0,0.0
12.283,4495.442,0.00022,0.0,0.0
12.29,4493.76,0.00022,0.0,0.0
12.296,4488.886,0.00022,0.0,0.0
12.302,4480.236,0.00022,0.0,0.0
12.309,4488.184,0.00022,0.0,0.0
12.315,4472.635,0.00022,0.0,0.0
12.321,4459.994,0.00022,0.0,0.0
12.328,4451.954,0.00022,0.0,0.0
12.334,4443.594,0.00023,0.0,0.0
12.34,4444.666,0.00022,0.0,0.0
12.347,4440.138,0.00023,0.0,0.0
12.353,4454.604,0.00022,0.0,0.0
12.359,4437.154,0.00023,0.0,0.0
12.366,4446.463,0.00022,0.0,0.0
12.372,4420.438,0.00023,0.0,0.0
12.378,4422.186,0.00023,0.0,0.0
12.385,4442.357,0.00023,0.0,0.0
12.391,4418.178,0.00023,0.0,0.0
12.397,4418.118,0.00023,0.0,0.0
12.404,4412.66,0.00023,0.0,0.0
12.41,4422.671,0.00023,0.0,0.0
12.416,4405.87,0.00023,0.0,0.0
12.422,4397.582,0.00023,0.0,0.0
12.429,4410.818,0.00023,0.0,0.0
12.435,4400.509,0.00023,0.0,0.0
12.441,4396.267,0.00023,0.0,0.0
12.448,4405.03,0.00023,0.0,0.0
12.454,4404.681,0.00023,0.0,0.0
12.46,4398.784,0.00023,0.0,0.0
12.467,4394.935,0.00023,0.0,0.0
12.473,4393.018,0.00023,0.0,0.0
12.479,4405.555,0.00023,0.0,0.0
12.486,4395.125,0.00023,0.0,0.0
12.492,4386.805,0.00023,0.0,0.0
12.498,4404.07,0.00023,0.0,0.0
12.505,4401.896,0.00023,0.0,0.0
12.511,4401.053,0.00023,0.0,0.0
12.517,4406.721,0.00023,0.0,0.0
12.524,4406.959,0.00023,0.0,0.0
12.53,4414.699,0.00023,0.0,0.0
12.536,4397.393,0.00023,0.0,0.0
12.543,4399.776,0.00023,0.0,0.0
12.549,4425.296,0.00023,0.0,0.0
12.555,4411.049,0.00023,0.0,0.0
12.562,4429.434,0.00023,0.0,0.0
12.568,4424.086,0.00023,0.0,0.0
12.574,4443.584,0.00023,0.0,0.0
12.58,4464.245,0.00022,0.0,0.0
12.587,4467.168,0.00022,0.0,0.0
12.593,4505.867,0.00022,0.0,0.0
12.599,4520.436,0.00022,0.0,0.0
12.606,4577.421,0.00022,0.0,0.0
12.612,4634.457,0.00022,0.0,0.0
12.618,4731.061,0.00021,0.0,0.0
12.625,4847.381,0.00021,0.0,0.0
12.631,5022.603,0.0002,0.0,0.0
12.637,5425.837,0.00018,0.0,0.0
12.644,5929.928,0.00017,0.0,0.0
12.65,7226.266,0.00014,0.0,0.0
12.656,8499.641,0.00012,0.0,0.0
12.663,11671.937,0.00009,0.0,0.0
12.669,17402.817,0.00006,0.0,0.0
12.675,22603.968,0.00004,0.0,0.0
12.682,30144.023,0.00003,0.0,0.0
12.688,35010.413,0.00003,0.0,0.0
12.694,36559.404,0.00003,0.0,0.0
12.701,31984.76,0.00003,0.0,0.0
12.707,27737.172,0.00004,0.0,0.0
12.713,17375.19,0.00006,0.0,0.0
12.72,12904.166,0.00008,0.0,0.0
12.726,9323.875,0.00011,0.0,0.0
12.732,7037.931,0.00014,0.0,0.0
12.738,6097.049,0.00016,0.0,0.0
12.745,5374.698,0.00019,0.0,0.0
12.751,5015.859,0.0002,0.0,0.0
12.757,4788.238,0.00021,0.0,0.0
12.764,4645.398,0.00022,0.0,0.0
12.77,4559.967,0.00022,0.0,0.0
12.776,4487.16,0.00022,0.0,0.0
12.783,4429.085,0.00023,0.0,0.0
12.789,4403.877,0.00023,0.0,0.0
12.795,4361.575,0.00023,0.0,0.0
12.802,4353.249,0.00023,0.0,0.0
12.808,4326.466,0.00023,0.0,0.0
12.814,4307.639,0.00023,0.0,0.0
12.821,4307.207,0.00023,0.0,0.0
12.827,4282.277,0.00023,0.0,0.0
12.833,4269.745,0.00023,0.0,0.0
12.84,4256.207,0.00023,0.0,0.0
12.846,4261.443,0.00023,0.0,0.0
12.852,4251.212,0.00024,0.0,0.0
12.859,4229.386,0.00024,0.0,0.0
12.865,4230.332,0.00024,0.0,0.0
12.871,4226.635,0.00024,0.0,0.0
12.878,4215.041,0.00024,0.0,0.0
12.884,4221.742,0.00024,0.0,0.0
12.89,4216.517,0.00024,0.0,0.0
12.896,4221.732,0.00024,0.0,0.0
12.903,4257.095,0.00023,0.0,0.0
12.909,4268.968,0.00023,0.0,0.0
12.915,4318.315,0.00023,0.0,0.0
12.922,4295.138,0.00023,0.0,0.0
12.928,4224.484,0.00024,0.0,0.0
12.934,4227.465,0.00024,0.0,0.0
12.941,4221.263,0.00024,0.0,0.0
12.947,4190.478,0.00024,0.0,0.0
12.953,4182.019,0.00024,0.0,0.0
12.96,4167.287,0.00024,0.0,0.0
12.966,4163.153,0.00024,0.0,0.0
12.972,4164.724,0.00024,0.0,0.0
12.979,4139.389,0.00024,0.0,0.0
12.985,4143.323,0.00024,0.0,0.0
12.991,4135.711,0.00024,0.0,0.0
12.998,4136.673,0.00024,0.0,0.0
13.004,4127.949,0.00024,0.0,0.0
13.01,4129.494,0.00024,0.0,0.0
13.017,4126.946,0.00024,0.0,0.0
13.023,4134.097,0.00024,0.0,0.0
13.029,4120.68,0.00024,0.0,0.0
13.036,4129.131,0.00024,0.0,0.0
13.042,4116.947,0.00024,0.0,0.0
13.048,4106.271,0.00024,0.0,0.0
13.054,4114.556,0.00024,0.0,0.0
13.061,4096.734,0.00024,0.0,0.0
13.067,4100.397,0.00024,0.0,0.0
13.073,4100.022,0.00024,0.0,0.0
13.08,4091.897,0.00024,0.0,0.0
13.086,4096.43,0.00024,0.0,0.0
13.092,4089.848,0.00024,0.0,0.0
13.099,4083.251,0.00024,0.0,0.0
13.105,4076.692,0.00025,0.0,0.0
13.111,4081.973,0.00024,0.0,0.0
13.118,4081.957,0.00024,0.0,0.0
13.124,4068.221,0.00025,0.0,0.0
13.13,4070.226,0.00025,0.0,0.0
13.137,4070.832,0.00025,0.0,0.0
13.143,4069.65,0.00025,0.0,0.0
13.149,4081.28,0.00025,0.0,0.0
13.156,4094.414,0.00024,0.0,0.0
13.162,4077.295,0.00025,0.0,0.0
13.168,4089.969,0.00024,0.0,0.0
13.175,4109.769,0.00024,0.0,0.0
13.181,4109.664,0.00024,0.0,0.0
13.187,4136.192,0.00024,0.0,0.0
13.194,4164.454,0.00024,0.0,0.0
13.2,4221.807,0.00024,0.0,0.0
13.206,4301.552,0.00023,0.0,0.0
13.212,4438.71,0.00023,0.0,0.0
13.219,4759.531,0.00021,0.0,0.0
13.225,5202.41,0.00019,0.0,0.0
13.231,6121.1,0.00016,0.0,0.0
13.238,7603.421,0.00013,0.0,0.0
13.244,9162.843,0.00011,0.0,0.0
13.25,11538.483,0.00009,0.0,0.0
13.257,12388.242,0.00008,0.0,0.0
13.263,11616.275,0.00009,0.0,0.0
13.269,11250.417,0.00009,0.0,0.0
13.276,9040.363,0.00011,0.0,0.0
13.282,7160.739,0.00014,0.0,0.0
13.288,5872.669,0.00017,0.0,0.0
13.295,4982.809,0.0002,0.0,0.0
13.301,4617.356,0.00022,0.0,0.0
13.307,4356.457,0.00023,0.0,0.0
13.314,4219.414,0.00024,0.0,0.0
13.32,4138.962,0.00024,0.0,0.0
13.326,4082.317,0.00024,0.0,0.0
13.333,4045.513,0.00025,0.0,0.0
13.339,4045.431,0.00025,0.0,0.0
13.345,4015.245,0.00025,0.0,0.0
13.352,4011.209,0.00025,0.0,0.0
13.358,3985.51,0.00025,0.0,0.0
13.364,3978.747,0.00025,0.0,0.0
13.37,3965.604,0.00025,0.0,0.0
13.377,3970.945,0.00025,0.0,0.0
13.383,3961.527,0.00025,0.0,0.0
13.389,3953.179,0.00025,0.0,0.0
13.396,3950.811,0.00025,0.0,0.0
13.402,3949.85,0.00025,0.0,0.0
13.408,3935.825,0.00025,0.0,0.0
13.415,3937.165,0.00025,0.0,0.0
13.421,3939.022,0.00025,0.0,0.0
13.427,3926.415,0.00025,0.0,0.0
13.434,3928.174,0.00025,0.0,0.0
13.44,3918.175,0.00026,0.0,0.0
13.446,3925.767,0.00025,0.0,0.0
13.453,3922.045,0.00025,0.0,0.0
13.459,3910.796,0.00026,0.0,0.0
13.465,3915.738,0.00026,0.0,0.0
13.472,3913.797,0.00026,0.0,0.0
13.478,3906.065,0.00026,0.0,0.0
13.484,3887.966,0.00026,0.0,0.0
13.491,3886.577,0.00026,0.0,0.0
13.497,3891.438,0.00026,0.0,0.0
13.503,3893.649,0.00026,0.0,0.0
13.51,3883.128,0.00026,0.0,0.0
13.516,3887.152,0.00026,0.0,0.0
13.522,3891.868,0.00026,0.0,0.0
13.528,3877.91,0.00026,0.0,0.0
13.535,3880.87,0.00026,0.0,0.0
13.541,3876.166,0.00026,0.0,0.0
13.547,3870.878,0.00026,0.0,0.0
13.554,3871.162,0.00026,0.0,0.0
13.56,3872.651,0.00026,0.0,0.0
13.566,3874.766,0.00026,0.0,0.0
13.573,3868.301,0.00026,0.0,0.0
13.579,3875.231,0.00026,0.0,0.0
13.585,3869.329,0.00026,0.0,0.0
13.592,3866.409,0.00026,0.0,0.0
13.598,3875.609,0.00026,0.0,0.0
13.604,3873.753,0.00026,0.0,0.0
13.611,3870.87,0.00026,0.0,0.0
13.617,3864.906,0.00026,0.0,0.0
13.623,3870.525,0.00026,0.0,0.0
13.63,3890.405,0.00026,0.0,0.0
13.636,3859.283,0.00026,0.0,0.0
13.642,3874.841,0.00026,0.0,0.0
13.649,3877.738,0.00026,0.0,0.0
13.655,3879.43,0.00026,0.0,0.0
13.661,3886.209,0.00026,0.0,0.0
13.668,3901.055,0.00026,0.0,0.0
13.674,3936.385,0.00025,0.0,0.0
13.68,3999.69,0.00025,0.0,0.0
13.686,4058.781,0.00025,0.0,0.0
13.693,4144.359,0.00024,0.0,0.0
13.699,4523.267,0.00022,0.0,0.0
13.705,4547.718,0.00022,0.0,0.0
13.712,4707.469,0.00021,0.0,0.0
13.718,4935.969,0.0002,0.0,0.0
13.724,5030.209,0.0002,0.0,0.0
13.731,4766.779,0.00021,0.0,0.0
13.737,5140.381,0.00019,0.0,0.0
13.743,4087.01,0.00024,0.0,0.0
13.75,4209.435,0.00024,0.0,0.0
13.756,3926.967,0.00025,0.0,0.0
13.762,3949.701,0.00025,0.0,0.0
13.769,3850.779,0.00026,0.0,0.0
13.775,3856.881,0.00026,0.0,0.0
13.781,3833.677,0.00026,0.0,0.0
13.788,3834.424,0.00026,0.0,0.0
13.794,3829.167,0.00026,0.0,0.0
13.8,3800.748,0.00026,0.0,0.0
13.807,3811.058,0.00026,0.0,0.0
13.813,3800.185,0.00026,0.0,0.0
13.819,3789.918,0.00026,0.0,0.0
13.826,3796.042,0.00026,0.0,0.0
13.832,3781.339,0.00026,0.0,0.0
13.838,3768.101,0.00027,0.0,0.0
13.844,3779.856,0.00026,0.0,0.0
13.851,3774.719,0.00026,0.0,0.0
13.857,3748.567,0.00027,0.0,0.0
13.863,3756.114,0.00027,0.0,0.0
13.87,3766.027,0.00027,0.0,0.0
13.876,3766.608,0.00027,0.0,0.0
13.882,3752.731,0.00027,0.0,0.0
13.889,3754.388,0.00027,0.0,0.0
13.895,3737.36,0.00027,0.0,0.0
13.901,3748.255,0.00027,0.0,0.0
13.908,3739.737,0.00027,0.0,0.0
13.914,3743.087,0.00027,0.0,0.0
13.92,3740.794,0.00027,0.0,0.0
13.927,3723.83,0.00027,0.0,0.0
13.933,3736.031,0.00027,0.0,0.0
13.939,3724.588,0.00027,0.0,0.0
13.946,3730.176,0.00027,0.0,0.0
13.952,3712.105,0.00027,0.0,0.0
13.958,3714.807,0.00027,0.0,0.0
13.965,3717.227,0.00027,0.0,0.0
13.971,3710.981,0.00027,0.0,0.0
13.977,3716.45,0.00027,0.0,0.0
13.984,3700.778,0.00027,0.0,0.0
13.99,3702.356,0.00027,0.0,0.0
13.996,3694.226,0.00027,0.0,0.0
14.002,3701.087,0.00027,0.0,0.0
14.009,3682.72,0.00027,0.0,0.0
14.015,3680.214,0.00027,0.0,0.0
14.021,3676.65,0.00027,0.0,0.0
14.028,3676.623,0.00027,0.0,0.0
14.034,3685.43,0.00027,0.0,0.0
14.04,3683.414,0.00027,0.0,0.0
14.047,3673.427,0.00027,0.0,0.0
14.053,3675.045,0.00027,0.0,0.0
14.059,3665.905,0.00027,0.0,0.0
14.066,3670.637,0.00027,0.0,0.0
14.072,3657.493,0.00027,0.0,0.0
14.078,3657.107,0.00027,0.0,0.0
14.085,3654.495,0.00027,0.0,0.0
14.091,3662.49,0.00027,0.0,0.0
14.097,3647.513,0.00027,0.0,0.0
14.104,3639.328,0.00027,0.0,0.0
14.11,3648.679,0.00027,0.0,0.0
14.116,3636.428,0.00027,0.0,0.0
14.123,3648.721,0.00027,0.0,0.0
14.129,3635.204,0.00028,0.0,0.0
14.135,3631.623,0.00028,0.0,0.0
14.142,3639.574,0.00027,0.0,0.0
14.148,3628.827,0.00028,0.0,0.0
14.154,3634.002,0.00028,0.0,0.0
14.16,3627.995,0.00028,0.0,0.0
14.167,3633.84,0.00028,0.0,0.0
14.173,3633.265,0.00028,0.0,0.0
14.179,3624.77,0.00028,0.0,0.0
14.186,3612.581,0.00028,0.0,0.0
14.192,3611.382,0.00028,0.0,0.0
14.198,3625.091,0.00028,0.0,0.0
14.205,3612.177,0.00028,0.0,0.0
14.211,3614.721,0.00028,0.0,0.0
14.217,3618.515,0.00028,0.0,0.0
14.224,3618.398,0.00028,0.0,0.0
14.23,3610.147,0.00028,0.0,0.0
14.236,3608.21,0.00028,0.0,0.0
14.243,3609.4,0.00028,0.0,0.0
14.249,3599.717,0.00028,0.0,0.0
14.255,3613.366,0.00028,0.0,0.0
14.262,3603.748,0.00028,0.0,0.0
14.268,3608.61,0.00028,0.0,0.0
14.274,3591.794,0.00028,0.0,0.0
14.281,3609.318,0.00028,0.0,0.0
14.287,3582.124,0.00028,0.0,0.0
14.293,3595.406,0.00028,0.0,0.0
14.3,3584.259,0.00028,0.0,0.0
14.306,3585.54,0.00028,0.0,0.0
14.312,3594.576,0.00028,0.0,0.0
14.318,3580.886,0.00028,0.0,0.0
14.325,3579.144,0.00028,0.0,0.0
14.331,3577.509,0.00028,0.0,0.0
14.337,3582.191,0.00028,0.0,0.0
14.344,3578.521,0.00028,0.0,0.0
14.35,3581.158,0.00028,0.0,0.0
14.356,3577.068,0.00028,0.0,0.0
14.363,3579.179,0.00028,0.0,0.0
14.369,3595.326,0.00028,0.0,0.0
14.375,3564.418,0.00028,0.0,0.0
14.382,3592.592,0.00028,0.0,0.0
14.388,3583.877,0.00028,0.0,0.0
14.394,3582.012,0.00028,0.0,0.0
14.401,3593.273,0.00028,0.0,0.0
14.407,3625.599,0.00028,0.0,0.0
14.413,3654.064,0.00027,0.0,0.0
14.42,3669.32,0.00027,0.0,0.0
14.426,4485.692,0.00022,0.0,0.0
14.432,3924.408,0.00025,0.0,0.0
14.439,4355.404,0.00023,0.0,0.0
14.445,4578.363,0.00022,0.0,0.0
14.451,4593.868,0.00022,0.0,0.0
14.458,4425.92,0.00023,0.0,0.0
14.464,4000.161,0.00025,0.0,0.0
14.47,3737.826,0.00027,0.0,0.0
14.476,3651.987,0.00027,0.0,0.0
14.483,3615.927,0.00028,0.0,0.0
14.489,3570.264,0.00028,0.0,0.0
14.495,3550.921,0.00028,0.0,0.0
14.502,3536.182,0.00028,0.0,0.0
14.508,3539.208,0.00028,0.0,0.0
14.514,3517.782,0.00028,0.0,0.0
14.521,3525.716,0.00028,0.0,0.0
14.527,3515.878,0.00028,0.0,0.0
14.533,3521.574,0.00028,0.0,0.0
14.54,3524.923,0.00028,0.0,0.0
14.546,3511.707,0.00028,0.0,0.0
14.552,3505.603,0.00029,0.0,0.0
14.559,3500.653,0.00029,0.0,0.0
14.565,3501.668,0.00029,0.0,0.0
14.571,3495.556,0.00029,0.0,0.0
14.578,3496.486,0.00029,0.0,0.0
14.584,3490.564,0.00029,0.0,0.0
14.59,3491.462,0.00029,0.0,0.0
14.597,3484.346,0.00029,0.0,0.0
14.603,3478.92,0.00029,0.0,0.0
14.609,3479.895,0.00029,0.0,0.0
14.616,3472.083,0.00029,0.0,0.0
14.622,3480.948,0.00029,0.0,0.0
14.628,3467.735,0.00029,0.0,0.0
14.634,3467.399,0.00029,0.0,0.0
14.641,3461.556,0.00029,0.0,0.0
14.647,3452.599,0.00029,0.0,0.0
14.653,3459.468,0.00029,0.0,0.0
14.66,3468.892,0.00029,0.0,0.0
14.666,3462.161,0.00029,0.0,0.0
14.672,3456.919,0.00029,0.0,0.0
14.679,3464.881,0.00029,0.0,0.0
14.685,3464.596,0.00029,0.0,0.0
14.691,3454.115,0.00029,0.0,0.0
14.698,3452.535,0.00029,0.0,0.0
14.704,3451.513,0.00029,0.0,0.0
14.71,3453.571,0.00029,0.0,0.0
14.717,3445.611,0.00029,0.0,0.0
14.723,3440.661,0.00029,0.0,0.0
14.729,3443.964,0.00029,0.0,0.0
14.736,3429.268,0.00029,0.0,0.0
14.742,3434.858,0.00029,0.0,0.0
14.748,3434.313,0.00029,0.0,0.0
14.755,3427.711,0.00029,0.0,0.0
14.761,3431.327,0.00029,0.0,0.0
14.767,3424.961,0.00029,0.0,0.0
14.774,3432.353,0.00029,0.0,0.0
14.78,3433.822,0.00029,0.0,0.0
14.786,3419.095,0.00029,0.0,0.0
14.792,3428.512,0.00029,0.0,0.0
14.799,3426.414,0.00029,0.0,0.0
14.805,3432.614,0.00029,0.0,0.0
14.811,3433.777,0.00029,0.0,0.0
14.818,3422.885,0.00029,0.0,0.0
14.824,3428.331,0.00029,0.0,0.0
14.83,3427.539,0.00029,0.0,0.0
14.837,3422.11,0.00029,0.0,0.0
14.843,3415.817,0.00029,0.0,0.0
14.849,3410.88,0.00029,0.0,0.0
14.856,3413.157,0.00029,0.0,0.0
14.862,3411.716,0.00029,0.0,0.0
14.868,3406.34,0.00029,0.0,0.0
14.875,3413.418,0.00029,0.0,0.0
14.881,3405.923,0.00029,0.0,0.0
14.887,3399.51,0.00029,0.0,0.0
14.894,3405.543,0.00029,0.0,0.0
14.9,3401.429,0.00029,0.0,0.0
14.906,3404.524,0.00029,0.0,0.0
14.913,3402.214,0.00029,0.0,0.0
14.919,3411.225,0.00029,0.0,0.0
14.925,3393.616,0.00029,0.0,0.0
14.932,3396.226,0.00029,0.0,0.0
14.938,3383.109,0.0003,0.0,0.0
14.944,3388.498,0.0003,0.0,0.0
14.95,3381.801,0.0003,0.0,0.0
14.957,3389.433,0.0003,0.0,0.0
14.963,3390.006,0.00029,0.0,0.0
14.969,3376.895,0.0003,0.0,0.0
14.976,3376.638,0.0003,0.0,0.0
14.982,3383.948,0.0003,0.0,0.0
14.988,3374.385,0.0003,0.0,0.0
14.995,3370.202,0.0003,0.0,0.0
15.001,3375.079,0.0003,0.0,0.0
15.007,3389.125,0.0003,0.0,0.0
15.014,3390.424,0.00029,0.0,0.0
15.02,3360.108,0.0003,0.0,0.0
15.026,3378.573,0.0003,0.0,0.0
15.033,3364.706,0.0003,0.0,0.0
15.039,3371.717,0.0003,0.0,0.0
15.045,3369.71,0.0003,0.0,0.0
15.052,3368.392,0.0003,0.0,0.0
15.058,3368.8,0.0003,0.0,0.0
15.064,3362.245,0.0003,0.0,0.0
15.071,3374.463,0.0003,0.0,0.0
15.077,3356.638,0.0003,0.0,0.0
15.083,3370.765,0.0003,0.0,0.0
15.09,3375.077,0.0003,0.0,0.0
15.096,3364.151,0.0003,0.0,0.0
15.102,3363.653,0.0003,0.0,0.0
15.108,3355.62,0.0003,0.0,0.0
15.115,3360.457,0.0003,0.0,0.0
15.121,3359.992,0.0003,0.0,0.0
15.127,3364.132,0.0003,0.0,0.0
15.134,3366.933,0.0003,0.0,0.0
15.14,3361.469,0.0003,0.0,0.0
15.146,3400.783,0.00029,0.0,0.0
15.153,3385.212,0.0003,0.0,0.0
15.159,3405.116,0.00029,0.0,0.0
15.165,3441.107,0.00029,0.0,0.0
15.172,3418.114,0.00029,0.0,0.0
15.178,3407.829,0.00029,0.0,0.0
15.184,3386.071,0.0003,0.0,0.0
15.191,3360.214,0.0003,0.0,0.0
15.197,3362.739,0.0003,0.0,0.0
15.203,3374.718,0.0003,0.0,0.0
15.21,3356.784,0.0003,0.0,0.0
15.216,3348.15,0.0003,0.0,0.0
15.222,3355.203,0.0003,0.0,0.0
15.229,3362.116,0.0003,0.0,0.0
15.235,3362.519,0.0003,0.0,0.0
15.241,3366.192,0.0003,0.0,0.0
15.248,3387.308,0.0003,0.0,0.0
15.254,3397.813,0.00029,0.0,0.0
15.26,3435.545,0.00029,0.0,0.0
15.266,3468.399,0.00029,0.0,0.0
15.273,3559.429,0.00028,0.0,0.0
15.279,3660.932,0.00027,0.0,0.0
15.285,3918.28,0.00026,0.0,0.0
15.292,4205.02,0.00024,0.0,0.0
15.298,4755.868,0.00021,0.0,0.0
15.304,5310.814,0.00019,0.0,0.0
15.311,5732.693,0.00017,0.0,0.0
15.317,6284.673,0.00016,0.0,0.0
15.323,6007.791,0.00017,0.0,0.0
15.33,5783.104,0.00017,0.0,0.0
15.336,5084.486,0.0002,0.0,0.0
15.342,4598.15,0.00022,0.0,0.0
15.349,4131.555,0.00024,0.0,0.0
15.355,3823.621,0.00026,0.0,0.0
15.361,3632.389,0.00028,0.0,0.0
15.368,3498.068,0.00029,0.0,0.0
15.374,3445.016,0.00029,0.0,0.0
15.38,3396.307,0.00029,0.0,0.0
15.387,3355.907,0.0003,0.0,0.0
15.393,3347.35,0.0003,0.0,0.0
15.399,3336.57,0.0003,0.0,0.0
15.406,3344.227,0.0003,0.0,0.0
15.412,3339.959,0.0003,0.0,0.0
15.418,3329.501,0.0003,0.0,0.0
15.424,3322.28,0.0003,0.0,0.0
15.431,3322.503,0.0003,0.0,0.0
15.437,3315.491,0.0003,0.0,0.0
15.443,3321.719,0.0003,0.0,0.0
15.45,3313.18,0.0003,0.0,0.0
15.456,3321.744,0.0003,0.0,0.0
15.462,3305.164,0.0003,0.0,0.0
15.469,3309.401,0.0003,0.0,0.0
15.475,3306.943,0.0003,0.0,0.0
15.481,3308.466,0.0003,0.0,0.0
15.488,3305.882,0.0003,0.0,0.0
15.494,3310.238,0.0003,0.0,0.0
15.5,3302.257,0.0003,0.0,0.0
15.507,3305.158,0.0003,0.0,0.0
15.513,3307.919,0.0003,0.0,0.0
15.519,3290.29,0.0003,0.0,0.0
15.526,3289.56,0.0003,0.0,0.0
15.532,3295.929,0.0003,0.0,0.0
15.538,3294.951,0.0003,0.0,0.0
15.545,3283.282,0.0003,0.0,0.0
15.551,3282.525,0.0003,0.0,0.0
15.557,3289.843,0.0003,0.0,0.0
15.564,3282.654,0.0003,0.0,0.0
15.57,3289.099,0.0003,0.0,0.0
15.576,3274.012,0.00031,0.0,0.0
15.582,3281.179,0.0003,0.0,0.0
15.589,3270.166,0.00031,0.0,0.0
15.595,3278.952,0.0003,0.0,0.0
15.601,3265.422,0.00031,0.0,0.0
15.608,3261.309,0.00031,0.0,0.0
15.614,3263.564,0.00031,0.0,0.0
15.62,3250.262,0.00031,0.0,0.0
15.627,3272.866,0.00031,0.0,0.0
15.633,3261.033,0.00031,0.0,0.0
15.639,3261.517,0.00031,0.0,0.0
15.646,3251.78,0.00031,0.0,0.0
15.652,3260.571,0.00031,0.0,0.0
15.658,3247.269,0.00031,0.0,0.0
15.665,3235.182,0.00031,0.0,0.0
15.671,3252.396,0.00031,0.0,0.0
15.677,3250.504,0.00031,0.0,0.0
15.684,3236.898,0.00031,0.0,0.0
15.69,3236.813,0.00031,0.0,0.0
15.696,3235.22,0.00031,0.0,0.0
15.703,3245.631,0.00031,0.0,0.0
15.709,3237.225,0.00031,0.0,0.0
15.715,3224.771,0.00031,0.0,0.0
15.722,3224.847,0.00031,0.0,0.0
15.728,3218.978,0.00031,0.0,0.0
15.734,3225.143,0.00031,0.0,0.0
15.74,3224.701,0.00031,0.0,0.0
15.747,3225.614,0.00031,0.0,0.0
15.753,3217.052,0.00031,0.0,0.0
15.759,3217.137,0.00031,0.0,0.0
15.766,3207.45,0.00031,0.0,0.0
15.772,3207.957,0.00031,0.0,0.0
15.778,3207.05,0.00031,0.0,0.0
15.785,3204.193,0.00031,0.0,0.0
15.791,3209.315,0.00031,0.0,0.0
15.797,3200.206,0.00031,0.0,0.0
15.804,3205.285,0.00031,0.0,0.0
15.81,3204.893,0.00031,0.0,0.0
15.816,3195.795,0.00031,0.0,0.0
15.823,3200.859,0.00031,0.0,0.0
15.829,3204.926,0.00031,0.0,0.0
15.835,3203.801,0.00031,0.0,0.0
15.842,3200.33,0.00031,0.0,0.0
15.848,3197.751,0.00031,0.0,0.0
15.854,3209.233,0.00031,0.0,0.0
15.861,3201.957,0.00031,0.0,0.0
15.867,3198.106,0.00031,0.0,0.0
15.873,3201.033,0.00031,0.0,0.0
15.88,3194.104,0.00031,0.0,0.0
15.886,3182.202,0.00031,0.0,0.0
15.892,3174.298,0.00032,0.0,0.0
15.898,3183.601,0.00031,0.0,0.0
15.905,3184.934,0.00031,0.0,0.0
15.911,3176.577,0.00031,0.0,0.0
15.917,3168.925,0.00032,0.0,0.0
15.924,3171.961,0.00032,0.0,0.0
15.93,3158.471,0.00032,0.0,0.0
15.936,3171.658,0.00032,0.0,0.0
15.943,3175.979,0.00031,0.0,0.0
15.949,3163.526,0.00032,0.0,0.0
15.955,3173.804,0.00032,0.0,0.0
15.962,3158.043,0.00032,0.0,0.0
15.968,3170.291,0.00032,0.0,0.0
15.974,3155.189,0.00032,0.0,0.0
15.981,3157.199,0.00032,0.0,0.0
15.987,3159.906,0.00032,0.0,0.0
15.993,3160.946,0.00032,0.0,0.0
16.0,3166.825,0.00032,0.0,0.0
16.006,3145.986,0.00032,0.0,0.0
16.012,3159.48,0.00032,0.0,0.0
16.019,3155.402,0.00032,0.0,0.0
16.025,3145.939,0.00032,0.0,0.0
16.031,3154.443,0.00032,0.0,0.0
16.038,3151.242,0.00032,0.0,0.0
16.044,3144.194,0.00032,0.0,0.0
16.05,3147.195,0.00032,0.0,0.0
16.056,3151.197,0.00032,0.0,0.0
16.063,3135.333,0.00032,0.0,0.0
16.069,3141.466,0.00032,0.0,0.0
16.075,3140.851,0.00032,0.0,0.0
16.082,3138.742,0.00032,0.0,0.0
16.088,3136.248,0.00032,0.0,0.0
16.094,3139.588,0.00032,0.0,0.0
16.101,3139.27,0.00032,0.0,0.0
16.107,3140.54,0.00032,0.0,0.0
16.113,3140.329,0.00032,0.0,0.0
16.12,3145.729,0.00032,0.0,0.0
16.126,3145.194,0.00032,0.0,0.0
16.132,3134.245,0.00032,0.0,0.0
16.139,3129.539,0.00032,0.0,0.0
16.145,3139.397,0.00032,0.0,0.0
16.151,3139.655,0.00032,0.0,0.0
16.158,3138.013,0.00032,0.0,0.0
16.164,3138.942,0.00032,0.0,0.0
16.17,3130.604,0.00032,0.0,0.0
16.177,3138.62,0.00032,0.0,0.0
16.183,3140.422,0.00032,0.0,0.0
16.189,3126.754,0.00032,0.0,0.0
16.196,3122.624,0.00032,0.0,0.0
16.202,3129.369,0.00032,0.0,0.0
16.208,3119.535,0.00032,0.0,0.0
16.214,3124.236,0.00032,0.0,0.0
16.221,3124.996,0.00032,0.0,0.0
16.227,3109.623,0.00032,0.0,0.0
16.233,3128.005,0.00032,0.0,0.0
16.24,3128.158,0.00032,0.0,0.0
16.246,3116.888,0.00032,0.0,0.0
16.252,3124.945,0.00032,0.0,0.0
16.259,3130.54,0.00032,0.0,0.0
16.265,3110.426,0.00032,0.0,0.0
16.271,3119.74,0.00032,0.0,0.0
16.278,3118.638,0.00032,0.0,0.0
16.284,3120.723,0.00032,0.0,0.0
16.29,3121.197,0.00032,0.0,0.0
16.297,3121.45,0.00032,0.0,0.0
16.303,3122.231,0.00032,0.0,0.0
16.309,3122.406,0.00032,0.0,0.0
16.316,3123.426,0.00032,0.0,0.0
16.322,3126.009,0.00032,0.0,0.0
16.328,3121.544,0.00032,0.0,0.0
16.335,3112.774,0.00032,0.0,0.0
16.341,3124.483,0.00032,0.0,0.0
16.347,3131.018,0.00032,0.0,0.0
16.354,3122.155,0.00032,0.0,0.0
16.36,3126.042,0.00032,0.0,0.0
16.366,3121.519,0.00032,0.0,0.0
16.372,3107.237,0.00032,0.0,0.0
16.379,3112.469,0.00032,0.0,0.0
16.385,3119.561,0.00032,0.0,0.0
16.391,3117.385,0.00032,0.0,0.0
16.398,3122.567,0.00032,0.0,0.0
16.404,3116.568,0.00032,0.0,0.0
16.41,3119.423,0.00032,0.0,0.0
16.417,3121.205,0.00032,0.0,0.0
16.423,3131.39,0.00032,0.0,0.0
16.429,3125.149,0.00032,0.0,0.0
16.436,3120.03,0.00032,0.0,0.0
16.442,3123.304,0.00032,0.0,0.0
16.448,3118.157,0.00032,0.0,0.0
16.455,3132.154,0.00032,0.0,0.0
16.461,3137.343,0.00032,0.0,0.0
16.467,3134.855,0.00032,0.0,0.0
16.474,3148.454,0.00032,0.0,0.0
16.48,3168.455,0.00032,0.0,0.0
16.486,3159.128,0.00032,0.0,0.0
16.493,3191.91,0.00031,0.0,0.0
16.499,3203.506,0.00031,0.0,0.0
16.505,3199.612,0.00031,0.0,0.0
16.512,3190.434,0.00031,0.0,0.0
16.518,3180.042,0.00031,0.0,0.0
16.524,3152.587,0.00032,0.0,0.0
16.53,3154.487,0.00032,0.0,0.0
16.537,3149.041,0.00032,0.0,0.0
16.543,3148.633,0.00032,0.0,0.0
16.549,3139.953,0.00032,0.0,0.0
16.556,3140.469,0.00032,0.0,0.0
16.562,3150.963,0.00032,0.0,0.0
16.568,3139.43,0.00032,0.0,0.0
16.575,3164.596,0.00032,0.0,0.0
16.581,3152.692,0.00032,0.0,0.0
16.587,3149.25,0.00032,0.0,0.0
16.594,3154.054,0.00032,0.0,0.0
