"x","y_obs","weight","y_calc","y_bkg"
0.8,3002.083,0.00033,0.0,0.0
0.806,3481.085,0.00029,0.0,0.0
0.813,3688.185,0.00027,0.0,0.0
0.819,3509.51,0.00028,0.0,0.0
0.825,4290.944,0.00023,0.0,0.0
0.832,3997.218,0.00025,0.0,0.0
0.838,4360.409,0.00023,0.0,0.0
0.844,4749.96,0.00021,0.0,0.0
0.851,4610.202,0.00022,0.0,0.0
0.857,5138.375,0.00019,0.0,0.0
0.863,5558.22,0.00018,0.0,0.0
0.87,5080.631,0.0002,0.0,0.0
0.876,6135.477,0.00016,0.0,0.0
0.882,5945.093,0.00017,0.0,0.0
0.888,6218.616,0.00016,0.0,0.0
0.895,6519.537,0.00015,0.0,0.0
0.901,6525.944,0.00015,0.0,0.0
0.907,7107.335,0.00014,0.0,0.0
0.914,7257.597,0.00014,0.0,0.0
0.92,6869.759,0.00015,0.0,0.0
0.926,7627.462,0.00013,0.0,0.0
0.933,7713.52,0.00013,0.0,0.0
0.939,7461.303,0.00013,0.0,0.0
0.945,8181.975,0.00012,0.0,0.0
0.952,7710.335,0.00013,0.0,0.0
0.958,8130.384,0.00012,0.0,0.0
0.964,8216.819,0.00012,0.0,0.0
0.971,7844.213,0.00013,0.0,0.0
0.977,8445.125,0.00012,0.0,0.0
0.983,8445.637,0.00012,0.0,0.0
0.99,8210.541,0.00012,0.0,0.0
0.996,8600.13,0.00012,0.0,0.0
1.002,8298.853,0.00012,0.0,0.0
1.009,8485.094,0.00012,0.0,0.0
1.015,8632.871,0.00012,0.0,0.0
1.021,8404.871,0.00012,0.0,0.0
1.028,8702.338,0.00011,0.0,0.0
1.034,8502.888,0.00012,0.0,0.0
1.04,8406.18,0.00012,0.0,0.0
1.046,8499.853,0.00012,0.0,0.0
1.053,8540.032,0.00012,0.0,0.0
1.059,8475.834,0.00012,0.0,0.0
1.065,8623.497,0.00012,0.0,0.0
1.072,8307.567,0.00012,0.0,0.0
1.078,8493.499,0.00012,0.0,0.0
1.084,8311.846,0.00012,0.0,0.0
1.091,8366.028,0.00012,0.0,0.0
1.097,8297.858,0.00012,0.0,0.0
1.103,8232.964,0.00012,0.0,0.0
1.11,8202.667,0.00012,0.0,0.0
1.116,8166.214,0.00012,0.0,0.0
1.122,8044.357,0.00012,0.0,0.0
1.129,8081.467,0.00012,0.0,0.0
1.135,7995.139,0.00013,0.0,0.0
1.141,7930.141,0.00013,0.0,0.0
1.148,7960.738,0.00013,0.0,0.0
1.154,7828.442,0.00013,0.0,0.0
1.16,7803.929,0.00013,0.0,0.0
1.167,7726.4,0.00013,0.0,0.0
1.173,7701.462,0.00013,0.0,0.0
1.179,7669.966,0.00013,0.0,0.0
1.186,7587.66,0.00013,0.0,0.0
1.192,7511.143,0.00013,0.0,0.0
1.198,7493.489,0.00013,0.0,0.0
1.204,7391.484,0.00014,0.0,0.0
1.211,7395.367,0.00014,0.0,0.0
1.217,7333.31,0.00014,0.0,0.0
1.223,7200.5,0.00014,0.0,0.0
1.23,7208.399,0.00014,0.0,0.0
1.236,7178.453,0.00014,0.0,0.0
1.242,7096.737,0.00014,0.0,0.0
1.249,7093.626,0.00014,0.0,0.0
1.255,7080.067,0.00014,0.0,0.0
1.261,7017.703,0.00014,0.0,0.0
1.268,7016.455,0.00014,0.0,0.0
1.274,6897.604,0.00014,0.0,0.0
1.28,6924.774,0.00014,0.0,0.0
1.287,6853.036,0.00015,0.0,0.0
1.293,6852.676,0.00015,0.0,0.0
1.299,6773.407,0.00015,0.0,0.0
1.306,6743.936,0.00015,0.0,0.0
1.312,6732.435,0.00015,0.0,0.0
1.318,6716.546,0.00015,0.0,0.0
1.325,6691.115,0.00015,0.0,0.0
1.331,6681.875,0.00015,0.0,0.0
1.337,6660.827,0.00015,0.0,0.0
1.344,6628.52,0.00015,0.0,0.0
1.35,6632.333,0.00015,0.0,0.0
1.356,6595.347,0.00015,0.0,0.0
1.362,6592.163,0.00015,0.0,0.0
1.369,6556.203,0.00015,0.0,0.0
1.375,6552.964,0.00015,0.0,0.0
1.381,6515.196,0.00015,0.0,0.0
1.388,6529.719,0.00015,0.0,0.0
1.394,6463.669,0.00015,0.0,0.0
1.4,6518.293,0.00015,0.0,0.0
1.407,6490.81,0.00015,0.0,0.0
1.413,6494.213,0.00015,0.0,0.0
1.419,6444.374,0.00016,0.0,0.0
1.426,6423.642,0.00016,0.0,0.0
1.432,6410.917,0.00016,0.0,0.0
1.438,6408.848,0.00016,0.0,0.0
1.445,6409.097,0.00016,0.0,0.0
1.451,6390.52,0.00016,0.0,0.0
1.457,6410.866,0.00016,0.0,0.0
1.464,6369.456,0.00016,0.0,0.0
1.47,6381.828,0.00016,0.0,0.0
1.476,6366.721,0.00016,0.0,0.0
1.483,6392.084,0.00016,0.0,0.0
1.489,6407.858,0.00016,0.0,0.0
1.495,6383.752,0.00016,0.0,0.0
1.502,6367.729,0.00016,0.0,0.0
1.508,6342.887,0.00016,0.0,0.0
1.514,6344.251,0.00016,0.0,0.0
1.52,6406.64,0.00016,0.0,0.0
1.527,6380.207,0.00016,0.0,0.0
1.533,6439.967,0.00016,0.0,0.0
1.539,6407.037,0.00016,0.0,0.0
1.546,6374.882,0.00016,0.0,0.0
1.552,6447.974,0.00016,0.0,0.0
1.558,6422.67,0.00016,0.0,0.0
1.565,6430.457,0.00016,0.0,0.0
1.571,6431.272,0.00016,0.0,0.0
1.577,6424.782,0.00016,0.0,0.0
1.584,6458.095,0.00015,0.0,0.0
1.59,6474.829,0.00015,0.0,0.0
1.596,6433.956,0.00016,0.0,0.0
1.603,6519.996,0.00015,0.0,0.0
1.609,6465.639,0.00015,0.0,0.0
1.615,6518.185,0.00015,0.0,0.0
1.622,6511.304,0.00015,0.0,0.0
1.628,6575.685,0.00015,0.0,0.0
1.634,6527.414,0.00015,0.0,0.0
1.641,6577.114,0.00015,0.0,0.0
1.647,6547.255,0.00015,0.0,0.0
1.653,6626.506,0.00015,0.0,0.0
1.66,6659.295,0.00015,0.0,0.0
1.666,6662.899,0.00015,0.0,0.0
1.672,6649.304,0.00015,0.0,0.0
1.678,6664.678,0.00015,0.0,0.0
1.685,6674.139,0.00015,0.0,0.0
1.691,6686.151,0.00015,0.0,0.0
1.697,6713.146,0.00015,0.0,0.0
1.704,6693.947,0.00015,0.0,0.0
1.71,6731.114,0.00015,0.0,0.0
1.716,6752.75,0.00015,0.0,0.0
1.723,6746.112,0.00015,0.0,0.0
1.729,6777.667,0.00015,0.0,0.0
1.735,6828.655,0.00015,0.0,0.0
1.742,6819.607,0.00015,0.0,0.0
1.748,6832.807,0.00015,0.0,0.0
1.754,6827.096,0.00015,0.0,0.0
1.761,6851.14,0.00015,0.0,0.0
1.767,6837.981,0.00015,0.0,0.0
1.773,6875.566,0.00015,0.0,0.0
1.78,6847.213,0.00015,0.0,0.0
1.786,6897.101,0.00014,0.0,0.0
1.792,6916.385,0.00014,0.0,0.0
1.799,6900.227,0.00014,0.0,0.0
1.805,6943.535,0.00014,0.0,0.0
1.811,6943.664,0.00014,0.0,0.0
1.818,6954.702,0.00014,0.0,0.0
1.824,6952.019,0.00014,0.0,0.0
1.83,6948.91,0.00014,0.0,0.0
1.836,6931.004,0.00014,0.0,0.0
1.843,6976.374,0.00014,0.0,0.0
1.849,6932.182,0.00014,0.0,0.0
1.855,6943.688,0.00014,0.0,0.0
1.862,6940.766,0.00014,0.0,0.0
1.868,6960.206,0.00014,0.0,0.0
1.874,6927.62,0.00014,0.0,0.0
1.881,6955.236,0.00014,0.0,0.0
1.887,6957.83,0.00014,0.0,0.0
1.893,6932.984,0.00014,0.0,0.0
1.9,6948.281,0.00014,0.0,0.0
1.906,6959.527,0.00014,0.0,0.0
1.912,6975.763,0.00014,0.0,0.0
1.919,6934.643,0.00014,0.0,0.0
1.925,6968.212,0.00014,0.0,0.0
1.931,6966.228,0.00014,0.0,0.0
1.938,6960.284,0.00014,0.0,0.0
1.944,6934.417,0.00014,0.0,0.0
1.95,6953.347,0.00014,0.0,0.0
1.957,6963.307,0.00014,0.0,0.0
1.963,6988.01,0.00014,0.0,0.0
1.969,6957.973,0.00014,0.0,0.0
1.976,6984.824,0.00014,0.0,0.0
1.982,6982.994,0.00014,0.0,0.0
1.988,6956.859,0.00014,0.0,0.0
1.994,6964.493,0.00014,0.0,0.0
2.001,6984.763,0.00014,0.0,0.0
2.007,6990.655,0.00014,0.0,0.0
2.013,6991.597,0.00014,0.0,0.0
2.02,6980.517,0.00014,0.0,0.0
2.026,7009.939,0.00014,0.0,0.0
2.032,7015.951,0.00014,0.0,0.0
2.039,7017.58,0.00014,0.0,0.0
2.045,7038.13,0.00014,0.0,0.0
2.051,6999.821,0.00014,0.0,0.0
2.058,7020.686,0.00014,0.0,0.0
2.064,7078.147,0.00014,0.0,0.0
2.07,7033.273,0.00014,0.0,0.0
2.077,7047.159,0.00014,0.0,0.0
2.083,7066.674,0.00014,0.0,0.0
2.089,7040.504,0.00014,0.0,0.0
2.096,7038.063,0.00014,0.0,0.0
2.102,7072.983,0.00014,0.0,0.0
2.108,7063.148,0.00014,0.0,0.0
2.115,7076.738,0.00014,0.0,0.0
2.121,7110.251,0.00014,0.0,0.0
2.127,7115.67,0.00014,0.0,0.0
2.134,7136.343,0.00014,0.0,0.0
2.14,7096.389,0.00014,0.0,0.0
2.146,7175.338,0.00014,0.0,0.0
2.152,7183.082,0.00014,0.0,0.0
2.159,7197.458,0.00014,0.0,0.0
2.165,7195.702,0.00014,0.0,0.0
2.171,7149.854,0.00014,0.0,0.0
2.178,7243.35,0.00014,0.0,0.0
2.184,7257.894,0.00014,0.0,0.0
2.19,7285.553,0.00014,0.0,0.0
2.197,7284.03,0.00014,0.0,0.0
2.203,7314.972,0.00014,0.0,0.0
2.209,7302.841,0.00014,0.0,0.0
2.216,7321.414,0.00014,0.0,0.0
2.222,7314.21,0.00014,0.0,0.0
2.228,8065.878,0.00012,0.0,0.0
2.235,7402.367,0.00014,0.0,0.0
2.241,7377.058,0.00014,0.0,0.0
2.247,7405.269,0.00014,0.0,0.0
2.254,7448.786,0.00013,0.0,0.0
2.26,7442.45,0.00013,0.0,0.0
2.266,7463.218,0.00013,0.0,0.0
2.273,7521.409,0.00013,0.0,0.0
2.279,7531.484,0.00013,0.0,0.0
2.285,7563.66,0.00013,0.0,0.0
2.292,7576.216,0.00013,0.0,0.0
2.298,7603.966,0.00013,0.0,0.0
2.304,7630.207,0.00013,0.0,0.0
2.31,7650.933,0.00013,0.0,0.0
2.317,7671.524,0.00013,0.0,0.0
2.323,7711.307,0.00013,0.0,0.0
2.329,7712.313,0.00013,0.0,0.0
2.336,7761.343,0.00013,0.0,0.0
2.342,7805.227,0.00013,0.0,0.0
2.348,7815.549,0.00013,0.0,0.0
2.355,7827.46,0.00013,0.0,0.0
2.361,7881.109,0.00013,0.0,0.0
2.367,7925.699,0.00013,0.0,0.0
2.374,7920.308,0.00013,0.0,0.0
2.38,7983.244,0.00013,0.0,0.0
2.386,8003.18,0.00012,0.0,0.0
2.393,8066.058,0.00012,0.0,0.0
2.399,8098.066,0.00012,0.0,0.0
2.405,8167.952,0.00012,0.0,0.0
2.412,8184.488,0.00012,0.0,0.0
2.418,8276.943,0.00012,0.0,0.0
2.424,8278.117,0.00012,0.0,0.0
2.431,8366.928,0.00012,0.0,0.0
2.437,8375.53,0.00012,0.0,0.0
2.443,8449.356,0.00012,0.0,0.0
2.45,8518.477,0.00012,0.0,0.0
2.456,8529.382,0.00012,0.0,0.0
2.462,8630.293,0.00012,0.0,0.0
2.468,8686.217,0.00012,0.0,0.0
2.475,8735.805,0.00011,0.0,0.0
2.481,8850.679,0.00011,0.0,0.0
2.487,8901.676,0.00011,0.0,0.0
2.494,8935.673,0.00011,0.0,0.0
2.5,9055.294,0.00011,0.0,0.0
2.506,9091.575,0.00011,0.0,0.0
2.513,9214.038,0.00011,0.0,0.0
2.519,9267.027,0.00011,0.0,0.0
2.525,9309.422,0.00011,0.0,0.0
2.532,9352.142,0.00011,0.0,0.0
2.538,9500.888,0.00011,0.0,0.0
2.544,9468.131,0.00011,0.0,0.0
2.551,9526.481,0.0001,0.0,0.0
2.557,9496.732,0.00011,0.0,0.0
2.563,9568.78,0.0001,0.0,0.0
2.57,9565.967,0.0001,0.0,0.0
2.576,9527.676,0.0001,0.0,0.0
2.582,9548.82,0.0001,0.0,0.0
2.589,9500.392,0.00011,0.0,0.0
2.595,9495.348,0.00011,0.0,0.0
2.601,9459.874,0.00011,0.0,0.0
2.608,9448.624,0.00011,0.0,0.0
2.614,9408.459,0.00011,0.0,0.0
2.62,9435.46,0.00011,0.0,0.0
2.626,9380.808,0.00011,0.0,0.0
2.633,9439.378,0.00011,0.0,0.0
2.639,9413.457,0.00011,0.0,0.0
2.645,9428.217,0.00011,0.0,0.0
2.652,9451.475,0.00011,0.0,0.0
2.658,9456.02,0.00011,0.0,0.0
2.664,9467.625,0.00011,0.0,0.0
2.671,9486.158,0.00011,0.0,0.0
2.677,9509.322,0.00011,0.0,0.0
2.683,9569.861,0.0001,0.0,0.0
2.69,9546.488,0.0001,0.0,0.0
2.696,9585.854,0.0001,0.0,0.0
2.702,9633.377,0.0001,0.0,0.0
2.709,9666.855,0.0001,0.0,0.0
2.715,9712.39,0.0001,0.0,0.0
2.721,9728.772,0.0001,0.0,0.0
2.728,9766.512,0.0001,0.0,0.0
2.734,9830.257,0.0001,0.0,0.0
2.74,9823.079,0.0001,0.0,0.0
2.747,9859.15,0.0001,0.0,0.0
2.753,9928.309,0.0001,0.0,0.0
2.759,9919.005,0.0001,0.0,0.0
2.766,9937.584,0.0001,0.0,0.0
2.772,9950.307,0.0001,0.0,0.0
2.778,9962.63,0.0001,0.0,0.0
2.784,10000.018,0.0001,0.0,0.0
2.791,10012.445,0.0001,0.0,0.0
2.797,10032.211,0.0001,0.0,0.0
2.803,10068.538,0.0001,0.0,0.0
2.81,10105.229,0.0001,0.0,0.0
2.816,10094.153,0.0001,0.0,0.0
2.822,10087.3,0.0001,0.0,0.0
2.829,10134.973,0.0001,0.0,0.0
2.835,10153.885,0.0001,0.0,0.0
2.841,10145.063,0.0001,0.0,0.0
2.848,10177.753,0.0001,0.0,0.0
2.854,10182.47,0.0001,0.0,0.0
2.86,10201.927,0.0001,0.0,0.0
2.867,10258.172,0.0001,0.0,0.0
2.873,10256.229,0.0001,0.0,0.0
2.879,10320.782,0.0001,0.0,0.0
2.886,10283.389,0.0001,0.0,0.0
2.892,10331.646,0.0001,0.0,0.0
2.898,10330.887,0.0001,0.0,0.0
2.905,10349.774,0.0001,0.0,0.0
2.911,10365.868,0.0001,0.0,0.0
2.917,10367.963,0.0001,0.0,0.0
2.924,10401.1,0.0001,0.0,0.0
2.93,10416.435,0.0001,0.0,0.0
2.936,10433.66,0.0001,0.0,0.0
2.942,10442.172,0.0001,0.0,0.0
2.949,10489.972,0.0001,0.0,0.0
2.955,10462.798,0.0001,0.0,0.0
2.961,10520.376,0.0001,0.0,0.0
2.968,10511.961,0.0001,0.0,0.0
2.974,10555.778,0.00009,0.0,0.0
2.98,10533.213,0.00009,0.0,0.0
2.987,10587.752,0.00009,0.0,0.0
2.993,10579.587,0.00009,0.0,0.0
2.999,10588.1,0.00009,0.0,0.0
3.006,10607.551,0.00009,0.0,0.0
3.012,10636.609,0.00009,0.0,0.0
3.018,10644.779,0.00009,0.0,0.0
3.025,10663.441,0.00009,0.0,0.0
3.031,10641.515,0.00009,0.0,0.0
3.037,10661.863,0.00009,0.0,0.0
3.044,10633.444,0.00009,0.0,0.0
3.05,10652.68,0.00009,0.0,0.0
3.056,10645.029,0.00009,0.0,0.0
3.063,10669.105,0.00009,0.0,0.0
3.069,10700.252,0.00009,0.0,0.0
3.075,10654.001,0.00009,0.0,0.0
3.082,10680.773,0.00009,0.0,0.0
3.088,10662.755,0.00009,0.0,0.0
3.094,10673.335,0.00009,0.0,0.0
3.1,10690.827,0.00009,0.0,0.0
3.107,10659.958,0.00009,0.0,0.0
3.113,10673.993,0.00009,0.0,0.0
3.119,10663.721,0.00009,0.0,0.0
3.126,10636.802,0.00009,0.0,0.0
3.132,10654.101,0.00009,0.0,0.0
3.138,10643.103,0.00009,0.0,0.0
3.145,10617.114,0.00009,0.0,0.0
3.151,10636.153,0.00009,0.0,0.0
3.157,10587.989,0.00009,0.0,0.0
3.164,10598.412,0.00009,0.0,0.0
3.17,10581.892,0.00009,0.0,0.0
3.176,10571.623,0.00009,0.0,0.0
3.183,10579.59,0.00009,0.0,0.0
3.189,10570.334,0.00009,0.0,0.0
3.195,10515.721,0.0001,0.0,0.0
3.202,10520.943,0.0001,0.0,0.0
3.208,10513.544,0.0001,0.0,0.0
3.214,10481.769,0.0001,0.0,0.0
3.221,10446.453,0.0001,0.0,0.0
3.227,10439.922,0.0001,0.0,0.0
3.233,10441.925,0.0001,0.0,0.0
3.24,10418.053,0.0001,0.0,0.0
3.246,10412.589,0.0001,0.0,0.0
3.252,10386.379,0.0001,0.0,0.0
3.258,10350.512,0.0001,0.0,0.0
3.265,10339.902,0.0001,0.0,0.0
3.271,10323.482,0.0001,0.0,0.0
3.277,10321.1,0.0001,0.0,0.0
3.284,10289.828,0.0001,0.0,0.0
3.29,10259.217,0.0001,0.0,0.0
3.296,10209.38,0.0001,0.0,0.0
3.303,10218.933,0.0001,0.0,0.0
3.309,10208.885,0.0001,0.0,0.0
3.315,10185.5,0.0001,0.0,0.0
3.322,10158.73,0.0001,0.0,0.0
3.328,10127.433,0.0001,0.0,0.0
3.334,10090.281,0.0001,0.0,0.0
3.341,10074.52,0.0001,0.0,0.0
3.347,10071.357,0.0001,0.0,0.0
3.353,10035.8,0.0001,0.0,0.0
3.36,10016.584,0.0001,0.0,0.0
3.366,9996.428,0.0001,0.0,0.0
3.372,10004.512,0.0001,0.0,0.0
3.379,9982.224,0.0001,0.0,0.0
3.385,9950.802,0.0001,0.0,0.0
3.391,9935.985,0.0001,0.0,0.0
3.398,9894.41,0.0001,0.0,0.0
3.404,9896.513,0.0001,0.0,0.0
3.41,9888.35,0.0001,0.0,0.0
3.416,9869.972,0.0001,0.0,0.0
3.423,9869.815,0.0001,0.0,0.0
3.429,9819.787,0.0001,0.0,0.0
3.435,9806.962,0.0001,0.0,0.0
3.442,9809.172,0.0001,0.0,0.0
3.448,9774.612,0.0001,0.0,0.0
3.454,9764.365,0.0001,0.0,0.0
3.461,9769.528,0.0001,0.0,0.0
3.467,9701.244,0.0001,0.0,0.0
3.473,9704.498,0.0001,0.0,0.0
3.48,9672.292,0.0001,0.0,0.0
3.486,9708.587,0.0001,0.0,0.0
3.492,9660.782,0.0001,0.0,0.0
3.499,9679.203,0.0001,0.0,0.0
3.505,9639.659,0.0001,0.0,0.0
3.511,9628.243,0.0001,0.0,0.0
3.518,9618.469,0.0001,0.0,0.0
3.524,9613.246,0.0001,0.0,0.0
3.53,9599.415,0.0001,0.0,0.0
3.537,9611.152,0.0001,0.0,0.0
3.543,9560.989,0.0001,0.0,0.0
3.549,9566.507,0.0001,0.0,0.0
3.556,9577.728,0.0001,0.0,0.0
3.562,9541.111,0.0001,0.0,0.0
3.568,9554.115,0.0001,0.0,0.0
3.574,9540.921,0.0001,0.0,0.0
3.581,9513.957,0.00011,0.0,0.0
3.587,9541.625,0.0001,0.0,0.0
3.593,9508.8,0.00011,0.0,0.0
3.6,9510.539,0.00011,0.0,0.0
3.606,9534.147,0.0001,0.0,0.0
3.612,9515.924,0.00011,0.0,0.0
3.619,9496.323,0.00011,0.0,0.0
3.625,9509.823,0.00011,0.0,0.0
3.631,9521.613,0.00011,0.0,0.0
3.638,9540.155,0.0001,0.0,0.0
3.644,9526.294,0.0001,0.0,0.0
3.65,9511.419,0.00011,0.0,0.0
3.657,9541.816,0.0001,0.0,0.0
3.663,9536.822,0.0001,0.0,0.0
3.669,9554.881,0.0001,0.0,0.0
3.676,9570.893,0.0001,0.0,0.0
3.682,9578.567,0.0001,0.0,0.0
3.688,9623.769,0.0001,0.0,0.0
3.695,9629.997,0.0001,0.0,0.0
3.701,9624.255,0.0001,0.0,0.0
3.707,9653.333,0.0001,0.0,0.0
3.714,9681.226,0.0001,0.0,0.0
3.72,9683.729,0.0001,0.0,0.0
3.726,9710.871,0.0001,0.0,0.0
3.732,9735.17,0.0001,0.0,0.0
3.739,9745.947,0.0001,0.0,0.0
3.745,9771.76,0.0001,0.0,0.0
3.751,9777.693,0.0001,0.0,0.0
3.758,9793.406,0.0001,0.0,0.0
3.764,9833.939,0.0001,0.0,0.0
3.77,9846.988,0.0001,0.0,0.0
3.777,9891.47,0.0001,0.0,0.0
3.783,9874.726,0.0001,0.0,0.0
3.789,9886.206,0.0001,0.0,0.0
3.796,9938.516,0.0001,0.0,0.0
3.802,9928.179,0.0001,0.0,0.0
3.808,9942.197,0.0001,0.0,0.0
3.815,9947.676,0.0001,0.0,0.0
3.821,9991.215,0.0001,0.0,0.0
3.827,9973.136,0.0001,0.0,0.0
3.834,9979.876,0.0001,0.0,0.0
3.84,9979.565,0.0001,0.0,0.0
3.846,9997.394,0.0001,0.0,0.0
3.853,9958.217,0.0001,0.0,0.0
3.859,9977.973,0.0001,0.0,0.0
3.865,9978.293,0.0001,0.0,0.0
3.872,9933.112,0.0001,0.0,0.0
3.878,9924.513,0.0001,0.0,0.0
3.884,9872.929,0.0001,0.0,0.0
3.89,9915.716,0.0001,0.0,0.0
3.897,9888.365,0.0001,0.0,0.0
3.903,9829.826,0.0001,0.0,0.0
3.909,9842.131,0.0001,0.0,0.0
3.916,9790.333,0.0001,0.0,0.0
3.922,9773.591,0.0001,0.0,0.0
3.928,9718.541,0.0001,0.0,0.0
3.935,9675.294,0.0001,0.0,0.0
3.941,9651.825,0.0001,0.0,0.0
3.947,9609.85,0.0001,0.0,0.0
3.954,9564.422,0.0001,0.0,0.0
3.96,9573.379,0.0001,0.0,0.0
3.966,9514.647,0.00011,0.0,0.0
3.973,9504.99,0.00011,0.0,0.0
3.979,9446.838,0.00011,0.0,0.0
3.985,9419.749,0.00011,0.0,0.0
3.992,9409.224,0.00011,0.0,0.0
3.998,9359.846,0.00011,0.0,0.0
4.004,9306.644,0.00011,0.0,0.0
4.011,9315.702,0.00011,0.0,0.0
4.017,9266.707,0.00011,0.0,0.0
4.023,9256.75,0.00011,0.0,0.0
4.03,9220.981,0.00011,0.0,0.0
4.036,9191.18,0.00011,0.0,0.0
4.042,9173.697,0.00011,0.0,0.0
4.048,9137.75,0.00011,0.0,0.0
4.055,9116.923,0.00011,0.0,0.0
4.061,9077.824,0.00011,0.0,0.0
4.067,9063.875,0.00011,0.0,0.0
4.074,9042.378,0.00011,0.0,0.0
4.08,9025.482,0.00011,0.0,0.0
4.086,9004.523,0.00011,0.0,0.0
4.093,9030.35,0.00011,0.0,0.0
4.099,8989.425,0.00011,0.0,0.0
4.105,8995.727,0.00011,0.0,0.0
4.112,8959.916,0.00011,0.0,0.0
4.118,8938.436,0.00011,0.0,0.0
4.124,8930.131,0.00011,0.0,0.0
4.131,8924.038,0.00011,0.0,0.0
4.137,8910.99,0.00011,0.0,0.0
4.143,8888.384,0.00011,0.0,0.0
4.15,8868.27,0.00011,0.0,0.0
4.156,8870.752,0.00011,0.0,0.0
4.162,8859.706,0.00011,0.0,0.0
4.169,8828.687,0.00011,0.0,0.0
4.175,8859.138,0.00011,0.0,0.0
4.181,8824.24,0.00011,0.0,0.0
4.188,8832.016,0.00011,0.0,0.0
4.194,8791.526,0.00011,0.0,0.0
4.2,8845.373,0.00011,0.0,0.0
4.206,8799.975,0.00011,0.0,0.0
4.213,8835.181,0.00011,0.0,0.0
4.219,8785.031,0.00011,0.0,0.0
4.225,8784.157,0.00011,0.0,0.0
4.232,8770.765,0.00011,0.0,0.0
4.238,8751.491,0.00011,0.0,0.0
4.244,8768.05,0.00011,0.0,0.0
4.251,8790.239,0.00011,0.0,0.0
4.257,8784.698,0.00011,0.0,0.0
4.263,8774.696,0.00011,0.0,0.0
4.27,8739.258,0.00011,0.0,0.0
4.276,8774.287,0.00011,0.0,0.0
4.282,8787.699,0.00011,0.0,0.0
4.289,8769.858,0.00011,0.0,0.0
4.295,8769.035,0.00011,0.0,0.0
4.301,8700.929,0.00011,0.0,0.0
4.308,8756.715,0.00011,0.0,0.0
4.314,8733.982,0.00011,0.0,0.0
4.32,8726.261,0.00011,0.0,0.0
4.327,8757.424,0.00011,0.0,0.0
4.333,8725.34,0.00011,0.0,0.0
4.339,8706.194,0.00011,0.0,0.0
4.346,8742.296,0.00011,0.0,0.0
4.352,8706.198,0.00011,0.0,0.0
4.358,8731.841,0.00011,0.0,0.0
4.364,8754.386,0.00011,0.0,0.0
4.371,8726.705,0.00011,0.0,0.0
4.377,8715.503,0.00011,0.0,0.0
4.383,8733.413,0.00011,0.0,0.0
4.39,8739.238,0.00011,0.0,0.0
4.396,8741.021,0.00011,0.0,0.0
4.402,8763.081,0.00011,0.0,0.0
4.409,8734.644,0.00011,0.0,0.0
4.415,8762.382,0.00011,0.0,0.0
4.421,8744.388,0.00011,0.0,0.0
4.428,8792.811,0.00011,0.0,0.0
4.434,8740.538,0.00011,0.0,0.0
4.44,8833.466,0.00011,0.0,0.0
4.447,8843.36,0.00011,0.0,0.0
4.453,8875.49,0.00011,0.0,0.0
4.459,8821.476,0.00011,0.0,0.0
4.466,8895.565,0.00011,0.0,0.0
4.472,8913.806,0.00011,0.0,0.0
4.478,8985.644,0.00011,0.0,0.0
4.485,9052.987,0.00011,0.0,0.0
4.491,9159.267,0.00011,0.0,0.0
4.497,9333.801,0.00011,0.0,0.0
4.504,9428.132,0.00011,0.0,0.0
4.51,9891.778,0.0001,0.0,0.0
4.516,10350.94,0.0001,0.0,0.0
4.522,11724.137,0.00009,0.0,0.0
4.529,14720.516,0.00007,0.0,0.0
4.535,16459.333,0.00006,0.0,0.0
4.541,26176.536,0.00004,0.0,0.0
4.548,29687.72,0.00003,0.0,0.0
4.554,34084.382,0.00003,0.0,0.0
4.56,34952.916,0.00003,0.0,0.0
4.567,33045.697,0.00003,0.0,0.0
4.573,28880.01,0.00003,0.0,0.0
4.579,23056.862,0.00004,0.0,0.0
4.586,20679.649,0.00005,0.0,0.0
4.592,14872.526,0.00007,0.0,0.0
4.598,11948.219,0.00008,0.0,0.0
4.605,10702.811,0.00009,0.0,0.0
4.611,9779.036,0.0001,0.0,0.0
4.617,9436.213,0.00011,0.0,0.0
4.624,9137.763,0.00011,0.0,0.0
4.63,9022.703,0.00011,0.0,0.0
4.636,8897.204,0.00011,0.0,0.0
4.643,8825.314,0.00011,0.0,0.0
4.649,8710.448,0.00011,0.0,0.0
4.655,8711.626,0.00011,0.0,0.0
4.662,8568.97,0.00012,0.0,0.0
4.668,8562.763,0.00012,0.0,0.0
4.674,8452.361,0.00012,0.0,0.0
4.68,8488.974,0.00012,0.0,0.0
4.687,8406.376,0.00012,0.0,0.0
4.693,8387.742,0.00012,0.0,0.0
4.699,8317.765,0.00012,0.0,0.0
4.706,8270.109,0.00012,0.0,0.0
4.712,8235.5,0.00012,0.0,0.0
4.718,8230.895,0.00012,0.0,0.0
4.725,8225.806,0.00012,0.0,0.0
4.731,8154.73,0.00012,0.0,0.0
4.737,8109.749,0.00012,0.0,0.0
4.744,8090.527,0.00012,0.0,0.0
4.75,8036.745,0.00012,0.0,0.0
4.756,8015.385,0.00012,0.0,0.0
4.763,8040.394,0.00012,0.0,0.0
4.769,7964.679,0.00013,0.0,0.0
4.775,7999.135,0.00013,0.0,0.0
4.782,7902.64,0.00013,0.0,0.0
4.788,7938.18,0.00013,0.0,0.0
4.794,7895.088,0.00013,0.0,0.0
4.801,7839.169,0.00013,0.0,0.0
4.807,7816.158,0.00013,0.0,0.0
4.813,7863.127,0.00013,0.0,0.0
4.82,7754.612,0.00013,0.0,0.0
4.826,7771.894,0.00013,0.0,0.0
4.832,7702.282,0.00013,0.0,0.0
4.838,7697.604,0.00013,0.0,0.0
4.845,7724.78,0.00013,0.0,0.0
4.851,7650.79,0.00013,0.0,0.0
4.857,7657.969,0.00013,0.0,0.0
4.864,7604.529,0.00013,0.0,0.0
4.87,7582.404,0.00013,0.0,0.0
4.876,7566.064,0.00013,0.0,0.0
4.883,7565.12,0.00013,0.0,0.0
4.889,7500.94,0.00013,0.0,0.0
4.895,7527.784,0.00013,0.0,0.0
4.902,7416.331,0.00013,0.0,0.0
4.908,7459.881,0.00013,0.0,0.0
4.914,7417.994,0.00013,0.0,0.0
4.921,7434.541,0.00013,0.0,0.0
4.927,7365.812,0.00014,0.0,0.0
4.933,7324.802,0.00014,0.0,0.0
4.94,7334.551,0.00014,0.0,0.0
4.946,7321.308,0.00014,0.0,0.0
4.952,7294.563,0.00014,0.0,0.0
4.959,7286.274,0.00014,0.0,0.0
4.965,7263.047,0.00014,0.0,0.0
4.971,7206.407,0.00014,0.0,0.0
4.978,7246.937,0.00014,0.0,0.0
4.984,7182.701,0.00014,0.0,0.0
4.99,7190.472,0.00014,0.0,0.0
4.996,7154.489,0.00014,0.0,0.0
5.003,7144.336,0.00014,0.0,0.0
5.009,7147.458,0.00014,0.0,0.0
5.015,7116.278,0.00014,0.0,0.0
5.022,7099.435,0.00014,0.0,0.0
5.028,7084.837,0.00014,0.0,0.0
5.034,7073.608,0.00014,0.0,0.0
5.041,7054.037,0.00014,0.0,0.0
5.047,7053.511,0.00014,0.0,0.0
5.053,7040.905,0.00014,0.0,0.0
5.06,7038.662,0.00014,0.0,0.0
5.066,6953.869,0.00014,0.0,0.0
5.072,6971.271,0.00014,0.0,0.0
5.079,6985.545,0.00014,0.0,0.0
5.085,6965.881,0.00014,0.0,0.0
5.091,6959.783,0.00014,0.0,0.0
5.098,6954.192,0.00014,0.0,0.0
5.104,6922.781,0.00014,0.0,0.0
5.11,6921.543,0.00014,0.0,0.0
5.117,6893.309,0.00015,0.0,0.0
5.123,6904.638,0.00014,0.0,0.0
5.129,6898.257,0.00014,0.0,0.0
5.136,6845.909,0.00015,0.0,0.0
5.142,6883.967,0.00015,0.0,0.0
5.148,6841.073,0.00015,0.0,0.0
5.154,6834.06,0.00015,0.0,0.0
5.161,6802.197,0.00015,0.0,0.0
5.167,6794.681,0.00015,0.0,0.0
5.173,6759.64,0.00015,0.0,0.0
5.18,6783.992,0.00015,0.0,0.0
5.186,6716.103,0.00015,0.0,0.0
5.192,6732.967,0.00015,0.0,0.0
5.199,6682.842,0.00015,0.0,0.0
5.205,6689.529,0.00015,0.0,0.0
5.211,6689.244,0.00015,0.0,0.0
5.218,6625.624,0.00015,0.0,0.0
5.224,6627.604,0.00015,0.0,0.0
5.23,6609.931,0.00015,0.0,0.0
5.237,6592.361,0.00015,0.0,0.0
5.243,6572.788,0.00015,0.0,0.0
5.249,6588.179,0.00015,0.0,0.0
5.256,6534.111,0.00015,0.0,0.0
5.262,6562.555,0.00015,0.0,0.0
5.268,6484.425,0.00015,0.0,0.0
5.275,6518.997,0.00015,0.0,0.0
5.281,6504.445,0.00015,0.0,0.0
5.287,6478.712,0.00015,0.0,0.0
5.294,6458.081,0.00015,0.0,0.0
5.3,6458.019,0.00015,0.0,0.0
5.306,6434.942,0.00016,0.0,0.0
5.312,6426.891,0.00016,0.0,0.0
5.319,6416.701,0.00016,0.0,0.0
5.325,6405.05,0.00016,0.0,0.0
5.331,6406.99,0.00016,0.0,0.0
5.338,6383.933,0.00016,0.0,0.0
5.344,6404.425,0.00016,0.0,0.0
5.35,6356.758,0.00016,0.0,0.0
5.357,6354.477,0.00016,0.0,0.0
5.363,6350.033,0.00016,0.0,0.0
5.369,6350.167,0.00016,0.0,0.0
5.376,6354.086,0.00016,0.0,0.0
5.382,6360.111,0.00016,0.0,0.0
5.388,6322.313,0.00016,0.0,0.0
5.395,6341.922,0.00016,0.0,0.0
5.401,6321.301,0.00016,0.0,0.0
5.407,6323.607,0.00016,0.0,0.0
5.414,6354.001,0.00016,0.0,0.0
5.42,6297.092,0.00016,0.0,0.0
5.426,6334.436,0.00016,0.0,0.0
5.433,6288.74,0.00016,0.0,0.0
5.439,6318.833,0.00016,0.0,0.0
5.445,6304.377,0.00016,0.0,0.0
5.452,6310.933,0.00016,0.0,0.0
5.458,6287.074,0.00016,0.0,0.0
5.464,6324.55,0.00016,0.0,0.0
5.47,6268.979,0.00016,0.0,0.0
5.477,6292.596,0.00016,0.0,0.0
5.483,6285.899,0.00016,0.0,0.0
5.489,6270.258,0.00016,0.0,0.0
5.496,6294.098,0.00016,0.0,0.0
5.502,6277.744,0.00016,0.0,0.0
5.508,6269.925,0.00016,0.0,0.0
5.515,6282.287,0.00016,0.0,0.0
5.521,6262.852,0.00016,0.0,0.0
5.527,6242.269,0.00016,0.0,0.0
5.534,6277.652,0.00016,0.0,0.0
5.54,6245.322,0.00016,0.0,0.0
5.546,6307.351,0.00016,0.0,0.0
5.553,6245.061,0.00016,0.0,0.0
5.559,6245.94,0.00016,0.0,0.0
5.565,6243.433,0.00016,0.0,0.0
5.572,6245.045,0.00016,0.0,0.0
5.578,6249.549,0.00016,0.0,0.0
5.584,6252.641,0.00016,0.0,0.0
5.591,6256.376,0.00016,0.0,0.0
5.597,6247.03,0.00016,0.0,0.0
5.603,6240.292,0.00016,0.0,0.0
5.61,6243.337,0.00016,0.0,0.0
5.616,6262.268,0.00016,0.0,0.0
5.622,6240.179,0.00016,0.0,0.0
5.628,6269.743,0.00016,0.0,0.0
5.635,6237.535,0.00016,0.0,0.0
5.641,6281.888,0.00016,0.0,0.0
5.647,6249.812,0.00016,0.0,0.0
5.654,6273.243,0.00016,0.0,0.0
5.66,6251.168,0.00016,0.0,0.0
5.666,6307.389,0.00016,0.0,0.0
5.673,6246.569,0.00016,0.0,0.0
5.679,6272.481,0.00016,0.0,0.0
5.685,6228.556,0.00016,0.0,0.0
5.692,6256.355,0.00016,0.0,0.0
5.698,6268.704,0.00016,0.0,0.0
5.704,6240.613,0.00016,0.0,0.0
5.711,6283.315,0.00016,0.0,0.0
5.717,6272.651,0.00016,0.0,0.0
5.723,6273.459,0.00016,0.0,0.0
5.73,6266.5,0.00016,0.0,0.0
5.736,6298.146,0.00016,0.0,0.0
5.742,6253.464,0.00016,0.0,0.0
5.749,6339.033,0.00016,0.0,0.0
5.755,6247.393,0.00016,0.0,0.0
5.761,6320.07,0.00016,0.0,0.0
5.768,6288.134,0.00016,0.0,0.0
5.774,6310.855,0.00016,0.0,0.0
5.78,6329.484,0.00016,0.0,0.0
5.786,6294.989,0.00016,0.0,0.0
5.793,6336.197,0.00016,0.0,0.0
5.799,6353.801,0.00016,0.0,0.0
5.805,6363.027,0.00016,0.0,0.0
5.812,6335.795,0.00016,0.0,0.0
5.818,6403.052,0.00016,0.0,0.0
5.824,6362.322,0.00016,0.0,0.0
5.831,6470.475,0.00015,0.0,0.0
5.837,6415.459,0.00016,0.0,0.0
5.843,6525.864,0.00015,0.0,0.0
5.85,6523.501,0.00015,0.0,0.0
5.856,6653.322,0.00015,0.0,0.0
5.862,6704.739,0.00015,0.0,0.0
5.869,6808.29,0.00015,0.0,0.0
5.875,6867.306,0.00015,0.0,0.0
5.881,6885.403,0.00015,0.0,0.0
5.888,6838.424,0.00015,0.0,0.0
5.894,6740.973,0.00015,0.0,0.0
5.9,6711.618,0.00015,0.0,0.0
5.907,6569.683,0.00015,0.0,0.0
5.913,6630.182,0.00015,0.0,0.0
5.919,6474.56,0.00015,0.0,0.0
5.926,6536.745,0.00015,0.0,0.0
5.932,6406.904,0.00016,0.0,0.0
5.938,6534.042,0.00015,0.0,0.0
5.944,6410.158,0.00016,0.0,0.0
5.951,6521.85,0.00015,0.0,0.0
5.957,6430.294,0.00016,0.0,0.0
5.963,6457.145,0.00015,0.0,0.0
5.97,6475.092,0.00015,0.0,0.0
5.976,6411.877,0.00016,0.0,0.0
5.982,6465.373,0.00015,0.0,0.0
5.989,6403.794,0.00016,0.0,0.0
5.995,6493.93,0.00015,0.0,0.0
6.001,6390.593,0.00016,0.0,0.0
6.008,6462.864,0.00015,0.0,0.0
6.014,6390.522,0.00016,0.0,0.0
6.02,6488.486,0.00015,0.0,0.0
6.027,6360.805,0.00016,0.0,0.0
6.033,6529.119,0.00015,0.0,0.0
6.039,6373.696,0.00016,0.0,0.0
6.046,6510.294,0.00015,0.0,0.0
6.052,6423.633,0.00016,0.0,0.0
6.058,6424.167,0.00016,0.0,0.0
6.065,6483.798,0.00015,0.0,0.0
6.071,6434.566,0.00016,0.0,0.0
6.077,6508.716,0.00015,0.0,0.0
6.084,6416.701,0.00016,0.0,0.0
6.09,6512.456,0.00015,0.0,0.0
6.096,6389.388,0.00016,0.0,0.0
6.102,6564.482,0.00015,0.0,0.0
6.109,6381.5,0.00016,0.0,0.0
6.115,6666.63,0.00015,0.0,0.0
6.121,6392.48,0.00016,0.0,0.0
6.128,6669.748,0.00015,0.0,0.0
6.134,6534.084,0.00015,0.0,0.0
6.14,6603.635,0.00015,0.0,0.0
6.147,6587.731,0.00015,0.0,0.0
6.153,6630.002,0.00015,0.0,0.0
6.159,6656.775,0.00015,0.0,0.0
6.166,6658.676,0.00015,0.0,0.0
6.172,6747.755,0.00015,0.0,0.0
6.178,6648.524,0.00015,0.0,0.0
6.185,6825.982,0.00015,0.0,0.0
6.191,6665.182,0.00015,0.0,0.0
6.197,7002.938,0.00014,0.0,0.0
6.204,6694.578,0.00015,0.0,0.0
6.21,7043.613,0.00014,0.0,0.0
6.216,6761.134,0.00015,0.0,0.0
6.223,7260.899,0.00014,0.0,0.0
6.229,6877.923,0.00015,0.0,0.0
6.235,7202.952,0.00014,0.0,0.0
6.242,7208.755,0.00014,0.0,0.0
6.248,7163.527,0.00014,0.0,0.0
6.254,7390.539,0.00014,0.0,0.0
6.26,7106.21,0.00014,0.0,0.0
6.267,7548.28,0.00013,0.0,0.0
6.273,7155.806,0.00014,0.0,0.0
6.279,7780.133,0.00013,0.0,0.0
6.286,7347.444,0.00014,0.0,0.0
6.292,7753.692,0.00013,0.0,0.0
6.298,7437.462,0.00013,0.0,0.0
6.305,8002.452,0.00012,0.0,0.0
6.311,7507.077,0.00013,0.0,0.0
6.317,8170.451,0.00012,0.0,0.0
6.324,8000.957,0.00012,0.0,0.0
6.33,8350.044,0.00012,0.0,0.0
6.336,8446.137,0.00012,0.0,0.0
6.343,8740.012,0.00011,0.0,0.0
6.349,9089.208,0.00011,0.0,0.0
6.355,10539.47,0.00009,0.0,0.0
6.362,9199.918,0.00011,0.0,0.0
6.368,13331.035,0.00008,0.0,0.0
6.374,9663.643,0.0001,0.0,0.0
6.381,16905.558,0.00006,0.0,0.0
6.387,11874.169,0.00008,0.0,0.0
6.393,16889.035,0.00006,0.0,0.0
6.4,14418.673,0.00007,0.0,0.0
6.406,17008.737,0.00006,0.0,0.0
6.412,17430.839,0.00006,0.0,0.0
6.418,17617.29,0.00006,0.0,0.0
6.425,23729.096,0.00004,0.0,0.0
6.431,19900.485,0.00005,0.0,0.0
6.437,24611.459,0.00004,0.0,0.0
6.444,22925.22,0.00004,0.0,0.0
6.45,23933.128,0.00004,0.0,0.0
6.456,26692.923,0.00004,0.0,0.0
6.463,24433.349,0.00004,0.0,0.0
6.469,24747.022,0.00004,0.0,0.0
6.475,18489.691,0.00005,0.0,0.0
6.482,21190.568,0.00005,0.0,0.0
6.488,17786.967,0.00006,0.0,0.0
6.494,17487.521,0.00006,0.0,0.0
6.501,16103.374,0.00006,0.0,0.0
6.507,15540.757,0.00006,0.0,0.0
6.513,12323.957,0.00008,0.0,0.0
6.52,12312.287,0.00008,0.0,0.0
6.526,10371.307,0.0001,0.0,0.0
6.532,10994.034,0.00009,0.0,0.0
6.539,10134.486,0.0001,0.0,0.0
6.545,10134.669,0.0001,0.0,0.0
6.551,10618.777,0.00009,0.0,0.0
6.558,10418.9,0.0001,0.0,0.0
6.564,11631.33,0.00009,0.0,0.0
6.57,12623.539,0.00008,0.0,0.0
6.576,16565.709,0.00006,0.0,0.0
6.583,20585.748,0.00005,0.0,0.0
6.589,33448.705,0.00003,0.0,0.0
6.595,47587.383,0.00002,0.0,0.0
6.602,77306.025,0.00001,0.0,0.0
6.608,86873.303,0.00001,0.0,0.0
6.614,103602.835,0.00001,0.0,0.0
6.621,96687.448,0.00001,0.0,0.0
6.627,75476.619,0.00001,0.0,0.0
6.633,56177.843,0.00002,0.0,0.0
6.64,34882.458,0.00003,0.0,0.0
6.646,23846.777,0.00004,0.0,0.0
6.652,16098.714,0.00006,0.0,0.0
6.659,13072.756,0.00008,0.0,0.0
6.665,10284.948,0.0001,0.0,0.0
6.671,9840.866,0.0001,0.0,0.0
6.678,8642.713,0.00012,0.0,0.0
6.684,8290.165,0.00012,0.0,0.0
6.69,7959.751,0.00013,0.0,0.0
6.697,7700.912,0.00013,0.0,0.0
6.703,7588.908,0.00013,0.0,0.0
6.709,7260.709,0.00014,0.0,0.0
6.716,7359.355,0.00014,0.0,0.0
6.722,7005.523,0.00014,0.0,0.0
6.728,7185.748,0.00014,0.0,0.0
6.734,6884.282,0.00015,0.0,0.0
6.741,7095.551,0.00014,0.0,0.0
6.747,6732.775,0.00015,0.0,0.0
6.753,7003.622,0.00014,0.0,0.0
6.76,6774.558,0.00015,0.0,0.0
6.766,6850.579,0.00015,0.0,0.0
6.772,6743.143,0.00015,0.0,0.0
6.779,6714.201,0.00015,0.0,0.0
6.785,6745.024,0.00015,0.0,0.0
6.791,6603.9,0.00015,0.0,0.0
6.798,6750.553,0.00015,0.0,0.0
6.804,6532.157,0.00015,0.0,0.0
6.81,6706.454,0.00015,0.0,0.0
6.817,6472.216,0.00015,0.0,0.0
6.823,6708.127,0.00015,0.0,0.0
6.829,6440.161,0.00016,0.0,0.0
6.836,6648.574,0.00015,0.0,0.0
6.842,6423.394,0.00016,0.0,0.0
6.848,6602.189,0.00015,0.0,0.0
6.855,6463.702,0.00015,0.0,0.0
6.861,6475.398,0.00015,0.0,0.0
6.867,6504.393,0.00015,0.0,0.0
6.874,6424.642,0.00016,0.0,0.0
6.88,6495.727,0.00015,0.0,0.0
6.886,6374.856,0.00016,0.0,0.0
6.892,6475.595,0.00015,0.0,0.0
6.899,6361.08,0.00016,0.0,0.0
6.905,6501.901,0.00015,0.0,0.0
6.911,6346.533,0.00016,0.0,0.0
6.918,6475.072,0.00015,0.0,0.0
6.924,6326.315,0.00016,0.0,0.0
6.93,6474.123,0.00015,0.0,0.0
6.937,6367.918,0.00016,0.0,0.0
6.943,6392.011,0.00016,0.0,0.0
6.949,6392.912,0.00016,0.0,0.0
6.956,6365.483,0.00016,0.0,0.0
6.962,6371.413,0.00016,0.0,0.0
6.968,6330.283,0.00016,0.0,0.0
6.975,6380.274,0.00016,0.0,0.0
6.981,6311.381,0.00016,0.0,0.0
6.987,6390.619,0.00016,0.0,0.0
6.994,6296.435,0.00016,0.0,0.0
7.0,6386.514,0.00016,0.0,0.0
7.006,6279.914,0.00016,0.0,0.0
7.013,6370.819,0.00016,0.0,0.0
7.019,6264.783,0.00016,0.0,0.0
7.025,6346.25,0.00016,0.0,0.0
7.032,6295.593,0.00016,0.0,0.0
7.038,6294.146,0.00016,0.0,0.0
7.044,6312.023,0.00016,0.0,0.0
7.05,6283.853,0.00016,0.0,0.0
7.057,6312.662,0.00016,0.0,0.0
7.063,6250.815,0.00016,0.0,0.0
7.069,6297.362,0.00016,0.0,0.0
7.076,6234.982,0.00016,0.0,0.0
7.082,6300.721,0.00016,0.0,0.0
7.088,6210.443,0.00016,0.0,0.0
7.095,6274.406,0.00016,0.0,0.0
7.101,6220.757,0.00016,0.0,0.0
7.107,6253.287,0.00016,0.0,0.0
7.114,6245.626,0.00016,0.0,0.0
7.12,6191.975,0.00016,0.0,0.0
7.126,6202.47,0.00016,0.0,0.0
7.133,6183.0,0.00016,0.0,0.0
7.139,6197.766,0.00016,0.0,0.0
7.145,6147.135,0.00016,0.0,0.0
7.152,6206.273,0.00016,0.0,0.0
7.158,6127.804,0.00016,0.0,0.0
7.164,6189.288,0.00016,0.0,0.0
7.171,6095.987,0.00016,0.0,0.0
7.177,6165.613,0.00016,0.0,0.0
7.183,6076.548,0.00016,0.0,0.0
7.19,6146.418,0.00016,0.0,0.0
7.196,6097.444,0.00016,0.0,0.0
7.202,6098.362,0.00016,0.0,0.0
7.208,6071.874,0.00016,0.0,0.0
7.215,6054.655,0.00017,0.0,0.0
7.221,6060.195,0.00017,0.0,0.0
7.227,6049.713,0.00017,0.0,0.0
7.234,6053.963,0.00017,0.0,0.0
7.24,6008.421,0.00017,0.0,0.0
7.246,6031.774,0.00017,0.0,0.0
7.253,5992.494,0.00017,0.0,0.0
7.259,6016.745,0.00017,0.0,0.0
7.265,5964.84,0.00017,0.0,0.0
7.272,6001.38,0.00017,0.0,0.0
7.278,5957.346,0.00017,0.0,0.0
7.284,5983.335,0.00017,0.0,0.0
7.291,5957.473,0.00017,0.0,0.0
7.297,5967.09,0.00017,0.0,0.0
7.303,5973.8,0.00017,0.0,0.0
7.31,5933.263,0.00017,0.0,0.0
7.316,5950.027,0.00017,0.0,0.0
7.322,5924.707,0.00017,0.0,0.0
7.329,5956.895,0.00017,0.0,0.0
7.335,5909.447,0.00017,0.0,0.0
7.341,5909.353,0.00017,0.0,0.0
7.348,5899.426,0.00017,0.0,0.0
7.354,5913.163,0.00017,0.0,0.0
7.36,5904.262,0.00017,0.0,0.0
7.366,5906.262,0.00017,0.0,0.0
7.373,5907.82,0.00017,0.0,0.0
7.379,5881.227,0.00017,0.0,0.0
7.385,5885.272,0.00017,0.0,0.0
7.392,5899.062,0.00017,0.0,0.0
7.398,5891.143,0.00017,0.0,0.0
7.404,5886.058,0.00017,0.0,0.0
7.411,5900.567,0.00017,0.0,0.0
7.417,5892.384,0.00017,0.0,0.0
7.423,5918.831,0.00017,0.0,0.0
7.43,5879.417,0.00017,0.0,0.0
7.436,5918.404,0.00017,0.0,0.0
7.442,5895.878,0.00017,0.0,0.0
7.449,5917.524,0.00017,0.0,0.0
7.455,5935.239,0.00017,0.0,0.0
7.461,5949.436,0.00017,0.0,0.0
7.468,5945.624,0.00017,0.0,0.0
7.474,5966.041,0.00017,0.0,0.0
7.48,5972.284,0.00017,0.0,0.0
7.487,5961.387,0.00017,0.0,0.0
7.493,6018.852,0.00017,0.0,0.0
7.499,6008.288,0.00017,0.0,0.0
7.506,6043.487,0.00017,0.0,0.0
7.512,6053.468,0.00017,0.0,0.0
7.518,6071.761,0.00016,0.0,0.0
7.524,6091.285,0.00016,0.0,0.0
7.531,6130.093,0.00016,0.0,0.0
7.537,6173.314,0.00016,0.0,0.0
7.543,6234.412,0.00016,0.0,0.0
7.55,6273.603,0.00016,0.0,0.0
7.556,6332.09,0.00016,0.0,0.0
7.562,6462.067,0.00015,0.0,0.0
7.569,6568.127,0.00015,0.0,0.0
7.575,6779.863,0.00015,0.0,0.0
7.581,7123.183,0.00014,0.0,0.0
7.588,7532.549,0.00013,0.0,0.0
7.594,8401.758,0.00012,0.0,0.0
7.6,9773.397,0.0001,0.0,0.0
7.607,12472.09,0.00008,0.0,0.0
7.613,17383.466,0.00006,0.0,0.0
7.619,23521.233,0.00004,0.0,0.0
7.626,34031.861,0.00003,0.0,0.0
7.632,42673.844,0.00002,0.0,0.0
7.638,44867.838,0.00002,0.0,0.0
7.645,48190.612,0.00002,0.0,0.0
7.651,40794.275,0.00002,0.0,0.0
7.657,28079.543,0.00004,0.0,0.0
7.664,20575.788,0.00005,0.0,0.0
7.67,14868.933,0.00007,0.0,0.0
7.676,11165.569,0.00009,0.0,0.0
7.682,9119.07,0.00011,0.0,0.0
7.689,8052.142,0.00012,0.0,0.0
7.695,7456.526,0.00013,0.0,0.0
7.701,7098.456,0.00014,0.0,0.0
7.708,6854.629,0.00015,0.0,0.0
7.714,6712.042,0.00015,0.0,0.0
7.72,6683.913,0.00015,0.0,0.0
7.727,6583.75,0.00015,0.0,0.0
7.733,6530.26,0.00015,0.0,0.0
7.739,6520.054,0.00015,0.0,0.0
7.746,6519.292,0.00015,0.0,0.0
7.752,6532.76,0.00015,0.0,0.0
7.758,6547.936,0.00015,0.0,0.0
7.765,6516.381,0.00015,0.0,0.0
7.771,6558.023,0.00015,0.0,0.0
7.777,6600.643,0.00015,0.0,0.0
7.784,6602.67,0.00015,0.0,0.0
7.79,6681.035,0.00015,0.0,0.0
7.796,6685.2,0.00015,0.0,0.0
7.803,6735.086,0.00015,0.0,0.0
7.809,6747.019,0.00015,0.0,0.0
7.815,6889.408,0.00015,0.0,0.0
7.822,6934.229,0.00014,0.0,0.0
7.828,7014.989,0.00014,0.0,0.0
7.834,7079.835,0.00014,0.0,0.0
7.84,7261.536,0.00014,0.0,0.0
7.847,7590.758,0.00013,0.0,0.0
7.853,7935.504,0.00013,0.0,0.0
7.859,8288.743,0.00012,0.0,0.0
7.866,8648.806,0.00012,0.0,0.0
7.872,10221.761,0.0001,0.0,0.0
7.878,11204.553,0.00009,0.0,0.0
7.885,14335.966,0.00007,0.0,0.0
7.891,13851.532,0.00007,0.0,0.0
7.897,18291.755,0.00005,0.0,0.0
7.904,18145.226,0.00006,0.0,0.0
7.91,15849.647,0.00006,0.0,0.0
7.916,17750.592,0.00006,0.0,0.0
7.923,14818.139,0.00007,0.0,0.0
7.929,11535.688,0.00009,0.0,0.0
7.935,10316.079,0.0001,0.0,0.0
7.942,8861.088,0.00011,0.0,0.0
7.948,7992.526,0.00013,0.0,0.0
7.954,7709.513,0.00013,0.0,0.0
7.961,7436.049,0.00013,0.0,0.0
7.967,7467.591,0.00013,0.0,0.0
7.973,7314.613,0.00014,0.0,0.0
7.98,7235.856,0.00014,0.0,0.0
7.986,7120.623,0.00014,0.0,0.0
7.992,7087.578,0.00014,0.0,0.0
7.998,7068.98,0.00014,0.0,0.0
8.005,7074.988,0.00014,0.0,0.0
8.011,6994.579,0.00014,0.0,0.0
8.017,6974.523,0.00014,0.0,0.0
8.024,6954.13,0.00014,0.0,0.0
8.03,6934.389,0.00014,0.0,0.0
8.036,6947.724,0.00014,0.0,0.0
8.043,6899.942,0.00014,0.0,0.0
8.049,6882.973,0.00015,0.0,0.0
8.055,6872.539,0.00015,0.0,0.0
8.062,6872.759,0.00015,0.0,0.0
8.068,6851.47,0.00015,0.0,0.0
8.074,6804.829,0.00015,0.0,0.0
8.081,6777.828,0.00015,0.0,0.0
8.087,6837.695,0.00015,0.0,0.0
8.093,6815.996,0.00015,0.0,0.0
8.1,6799.891,0.00015,0.0,0.0
8.106,6781.972,0.00015,0.0,0.0
8.112,6769.242,0.00015,0.0,0.0
8.119,6849.266,0.00015,0.0,0.0
8.125,6827.302,0.00015,0.0,0.0
8.131,6841.965,0.00015,0.0,0.0
8.138,6824.752,0.00015,0.0,0.0
8.144,6797.534,0.00015,0.0,0.0
8.15,6802.144,0.00015,0.0,0.0
8.156,6758.426,0.00015,0.0,0.0
8.163,6709.759,0.00015,0.0,0.0
8.169,6672.226,0.00015,0.0,0.0
8.175,6667.216,0.00015,0.0,0.0
8.182,6624.914,0.00015,0.0,0.0
8.188,6662.523,0.00015,0.0,0.0
8.194,6586.845,0.00015,0.0,0.0
8.201,6638.903,0.00015,0.0,0.0
8.207,6560.71,0.00015,0.0,0.0
8.213,6594.322,0.00015,0.0,0.0
8.22,6578.096,0.00015,0.0,0.0
8.226,6552.426,0.00015,0.0,0.0
8.232,6532.449,0.00015,0.0,0.0
8.239,6526.974,0.00015,0.0,0.0
8.245,6497.673,0.00015,0.0,0.0
8.251,6502.71,0.00015,0.0,0.0
8.258,6486.91,0.00015,0.0,0.0
8.264,6448.481,0.00016,0.0,0.0
8.27,6468.54,0.00015,0.0,0.0
8.277,6426.282,0.00016,0.0,0.0
8.283,6437.624,0.00016,0.0,0.0
8.289,6408.823,0.00016,0.0,0.0
8.296,6402.435,0.00016,0.0,0.0
8.302,6403.325,0.00016,0.0,0.0
8.308,6399.867,0.00016,0.0,0.0
8.314,6349.813,0.00016,0.0,0.0
8.321,6355.251,0.00016,0.0,0.0
8.327,6333.602,0.00016,0.0,0.0
8.333,6330.294,0.00016,0.0,0.0
8.34,6334.123,0.00016,0.0,0.0
8.346,6296.646,0.00016,0.0,0.0
8.352,6328.63,0.00016,0.0,0.0
8.359,6272.983,0.00016,0.0,0.0
8.365,6311.781,0.00016,0.0,0.0
8.371,6274.445,0.00016,0.0,0.0
8.378,6285.72,0.00016,0.0,0.0
8.384,6261.213,0.00016,0.0,0.0
8.39,6253.271,0.00016,0.0,0.0
8.397,6213.516,0.00016,0.0,0.0
8.403,6210.599,0.00016,0.0,0.0
8.409,6180.852,0.00016,0.0,0.0
8.416,6190.427,0.00016,0.0,0.0
8.422,6170.826,0.00016,0.0,0.0
8.428,6151.863,0.00016,0.0,0.0
8.435,6154.898,0.00016,0.0,0.0
8.441,6131.272,0.00016,0.0,0.0
8.447,6137.733,0.00016,0.0,0.0
8.454,6115.169,0.00016,0.0,0.0
8.46,6123.882,0.00016,0.0,0.0
8.466,6101.361,0.00016,0.0,0.0
8.472,6106.68,0.00016,0.0,0.0
8.479,6083.254,0.00016,0.0,0.0
8.485,6088.776,0.00016,0.0,0.0
8.491,6070.351,0.00016,0.0,0.0
8.498,6053.957,0.00017,0.0,0.0
8.504,6064.355,0.00016,0.0,0.0
8.51,6046.496,0.00017,0.0,0.0
8.517,6039.641,0.00017,0.0,0.0
8.523,6021.055,0.00017,0.0,0.0
8.529,6012.565,0.00017,0.0,0.0
8.536,6029.137,0.00017,0.0,0.0
8.542,5994.317,0.00017,0.0,0.0
8.548,5997.172,0.00017,0.0,0.0
8.555,5997.334,0.00017,0.0,0.0
8.561,5982.053,0.00017,0.0,0.0
8.567,5986.802,0.00017,0.0,0.0
8.574,5958.222,0.00017,0.0,0.0
8.58,5972.088,0.00017,0.0,0.0
8.586,5975.123,0.00017,0.0,0.0
8.593,5947.029,0.00017,0.0,0.0
8.599,5947.752,0.00017,0.0,0.0
8.605,5926.241,0.00017,0.0,0.0
8.612,5937.078,0.00017,0.0,0.0
8.618,5916.982,0.00017,0.0,0.0
8.624,5907.228,0.00017,0.0,0.0
8.63,5909.818,0.00017,0.0,0.0
8.637,5911.156,0.00017,0.0,0.0
8.643,5899.643,0.00017,0.0,0.0
8.649,5901.263,0.00017,0.0,0.0
8.656,5891.113,0.00017,0.0,0.0
8.662,5887.799,0.00017,0.0,0.0
8.668,5877.759,0.00017,0.0,0.0
8.675,5879.546,0.00017,0.0,0.0
8.681,5886.727,0.00017,0.0,0.0
8.687,5873.786,0.00017,0.0,0.0
8.694,5864.704,0.00017,0.0,0.0
8.7,5882.447,0.00017,0.0,0.0
8.706,5857.931,0.00017,0.0,0.0
8.713,5864.888,0.00017,0.0,0.0
8.719,5860.795,0.00017,0.0,0.0
8.725,5851.571,0.00017,0.0,0.0
8.732,5869.807,0.00017,0.0,0.0
8.738,5849.368,0.00017,0.0,0.0
8.744,5841.79,0.00017,0.0,0.0
8.751,5862.05,0.00017,0.0,0.0
8.757,5839.312,0.00017,0.0,0.0
8.763,5852.172,0.00017,0.0,0.0
8.77,5846.925,0.00017,0.0,0.0
8.776,5847.173,0.00017,0.0,0.0
8.782,5841.804,0.00017,0.0,0.0
8.788,5841.549,0.00017,0.0,0.0
8.795,5837.963,0.00017,0.0,0.0
8.801,5840.15,0.00017,0.0,0.0
8.807,5828.294,0.00017,0.0,0.0
8.814,5818.353,0.00017,0.0,0.0
8.82,5830.624,0.00017,0.0,0.0
8.826,5816.435,0.00017,0.0,0.0
8.833,5809.4,0.00017,0.0,0.0
8.839,5812.401,0.00017,0.0,0.0
8.845,5813.786,0.00017,0.0,0.0
8.852,5794.635,0.00017,0.0,0.0
8.858,5821.11,0.00017,0.0,0.0
8.864,5805.665,0.00017,0.0,0.0
8.871,5809.159,0.00017,0.0,0.0
8.877,5815.788,0.00017,0.0,0.0
8.883,5803.875,0.00017,0.0,0.0
8.89,5820.507,0.00017,0.0,0.0
8.896,5813.435,0.00017,0.0,0.0
8.902,5838.148,0.00017,0.0,0.0
8.909,5789.785,0.00017,0.0,0.0
8.915,5823.82,0.00017,0.0,0.0
8.921,5807.955,0.00017,0.0,0.0
8.928,5823.539,0.00017,0.0,0.0
8.934,5810.925,0.00017,0.0,0.0
8.94,5831.964,0.00017,0.0,0.0
8.946,5834.599,0.00017,0.0,0.0
8.953,5822.419,0.00017,0.0,0.0
8.959,5845.64,0.00017,0.0,0.0
8.965,5820.944,0.00017,0.0,0.0
8.972,5831.263,0.00017,0.0,0.0
8.978,5852.814,0.00017,0.0,0.0
8.984,5843.549,0.00017,0.0,0.0
8.991,5850.804,0.00017,0.0,0.0
8.997,5858.496,0.00017,0.0,0.0
9.003,5859.262,0.00017,0.0,0.0
9.01,5877.095,0.00017,0.0,0.0
9.016,5871.221,0.00017,0.0,0.0
9.022,5888.67,0.00017,0.0,0.0
9.029,5889.376,0.00017,0.0,0.0
9.035,5924.028,0.00017,0.0,0.0
9.041,5920.083,0.00017,0.0,0.0
9.048,5925.96,0.00017,0.0,0.0
9.054,5929.669,0.00017,0.0,0.0
9.06,5971.622,0.00017,0.0,0.0
9.067,5989.113,0.00017,0.0,0.0
9.073,6030.612,0.00017,0.0,0.0
9.079,6069.907,0.00016,0.0,0.0
9.086,6125.47,0.00016,0.0,0.0
9.092,6307.605,0.00016,0.0,0.0
9.098,6371.098,0.00016,0.0,0.0
9.104,7055.289,0.00014,0.0,0.0
9.111,7701.75,0.00013,0.0,0.0
9.117,8280.758,0.00012,0.0,0.0
9.123,10621.849,0.00009,0.0,0.0
9.13,9289.423,0.00011,0.0,0.0
9.136,10282.075,0.0001,0.0,0.0
9.142,9068.772,0.00011,0.0,0.0
9.149,8062.233,0.00012,0.0,0.0
9.155,7073.531,0.00014,0.0,0.0
9.161,6714.922,0.00015,0.0,0.0
9.168,6337.531,0.00016,0.0,0.0
9.174,6234.488,0.00016,0.0,0.0
9.18,6135.707,0.00016,0.0,0.0
9.187,6080.274,0.00016,0.0,0.0
9.193,6068.681,0.00016,0.0,0.0
9.199,6017.222,0.00017,0.0,0.0
9.206,6007.679,0.00017,0.0,0.0
9.212,5964.195,0.00017,0.0,0.0
9.218,5962.583,0.00017,0.0,0.0
9.225,5923.295,0.00017,0.0,0.0
9.231,5928.075,0.00017,0.0,0.0
9.237,5928.453,0.00017,0.0,0.0
9.244,5912.644,0.00017,0.0,0.0
9.25,5890.762,0.00017,0.0,0.0
9.256,5890.937,0.00017,0.0,0.0
9.262,5847.068,0.00017,0.0,0.0
9.269,5844.512,0.00017,0.0,0.0
9.275,5831.233,0.00017,0.0,0.0
9.281,5835.783,0.00017,0.0,0.0
9.288,5813.874,0.00017,0.0,0.0
9.294,5774.165,0.00017,0.0,0.0
9.3,5787.468,0.00017,0.0,0.0
9.307,5756.957,0.00017,0.0,0.0
9.313,5751.045,0.00017,0.0,0.0
9.319,5747.25,0.00017,0.0,0.0
9.326,5720.55,0.00017,0.0,0.0
9.332,5709.499,0.00018,0.0,0.0
9.338,5716.951,0.00017,0.0,0.0
9.345,5682.333,0.00018,0.0,0.0
9.351,5672.15,0.00018,0.0,0.0
9.357,5659.046,0.00018,0.0,0.0
9.364,5655.178,0.00018,0.0,0.0
9.37,5631.43,0.00018,0.0,0.0
9.376,5624.873,0.00018,0.0,0.0
9.383,5611.656,0.00018,0.0,0.0
9.389,5583.011,0.00018,0.0,0.0
9.395,5599.258,0.00018,0.0,0.0
9.402,5555.992,0.00018,0.0,0.0
9.408,5533.538,0.00018,0.0,0.0
9.414,5551.592,0.00018,0.0,0.0
9.42,5524.232,0.00018,0.0,0.0
9.427,5522.501,0.00018,0.0,0.0
9.433,5508.241,0.00018,0.0,0.0
9.439,5492.398,0.00018,0.0,0.0
9.446,5481.024,0.00018,0.0,0.0
9.452,5476.251,0.00018,0.0,0.0
9.458,5468.149,0.00018,0.0,0.0
9.465,5475.43,0.00018,0.0,0.0
9.471,5455.271,0.00018,0.0,0.0
9.477,5464.122,0.00018,0.0,0.0
9.484,5457.427,0.00018,0.0,0.0
9.49,5434.207,0.00018,0.0,0.0
9.496,5416.809,0.00018,0.0,0.0
9.503,5425.341,0.00018,0.0,0.0
9.509,5399.687,0.00019,0.0,0.0
9.515,5396.487,0.00019,0.0,0.0
9.522,5383.449,0.00019,0.0,0.0
9.528,5375.11,0.00019,0.0,0.0
9.534,5357.714,0.00019,0.0,0.0
9.541,5337.156,0.00019,0.0,0.0
9.547,5350.029,0.00019,0.0,0.0
9.553,5334.212,0.00019,0.0,0.0
9.56,5320.588,0.00019,0.0,0.0
9.566,5328.852,0.00019,0.0,0.0
9.572,5310.445,0.00019,0.0,0.0
9.578,5325.727,0.00019,0.0,0.0
9.585,5294.312,0.00019,0.0,0.0
9.591,5280.454,0.00019,0.0,0.0
9.597,5296.322,0.00019,0.0,0.0
9.604,5280.525,0.00019,0.0,0.0
9.61,5274.516,0.00019,0.0,0.0
9.616,5280.623,0.00019,0.0,0.0
9.623,5266.178,0.00019,0.0,0.0
9.629,5261.204,0.00019,0.0,0.0
9.635,5249.716,0.00019,0.0,0.0
9.642,5251.394,0.00019,0.0,0.0
9.648,5246.267,0.00019,0.0,0.0
9.654,5234.008,0.00019,0.0,0.0
9.661,5257.193,0.00019,0.0,0.0
9.667,5219.303,0.00019,0.0,0.0
9.673,5230.8,0.00019,0.0,0.0
9.68,5227.65,0.00019,0.0,0.0
9.686,5229.185,0.00019,0.0,0.0
9.692,5223.688,0.00019,0.0,0.0
9.699,5234.006,0.00019,0.0,0.0
9.705,5206.203,0.00019,0.0,0.0
9.711,5204.684,0.00019,0.0,0.0
9.718,5199.281,0.00019,0.0,0.0
9.724,5199.731,0.00019,0.0,0.0
9.73,5216.593,0.00019,0.0,0.0
9.736,5202.208,0.00019,0.0,0.0
9.743,5208.776,0.00019,0.0,0.0
9.749,5215.471,0.00019,0.0,0.0
9.755,5206.656,0.00019,0.0,0.0
9.762,5203.173,0.00019,0.0,0.0
9.768,5192.825,0.00019,0.0,0.0
9.774,5202.182,0.00019,0.0,0.0
9.781,5202.458,0.00019,0.0,0.0
9.787,5186.136,0.00019,0.0,0.0
9.793,5207.349,0.00019,0.0,0.0
9.8,5194.994,0.00019,0.0,0.0
9.806,5197.8,0.00019,0.0,0.0
9.812,5213.697,0.00019,0.0,0.0
9.819,5178.719,0.00019,0.0,0.0
9.825,5208.576,0.00019,0.0,0.0
9.831,5210.222,0.00019,0.0,0.0
9.838,5197.204,0.00019,0.0,0.0
9.844,5218.804,0.00019,0.0,0.0
9.85,5198.539,0.00019,0.0,0.0
9.857,5210.666,0.00019,0.0,0.0
9.863,5196.603,0.00019,0.0,0.0
9.869,5196.198,0.00019,0.0,0.0
9.876,5189.979,0.00019,0.0,0.0
9.882,5226.527,0.00019,0.0,0.0
9.888,5195.217,0.00019,0.0,0.0
9.894,5223.339,0.00019,0.0,0.0
9.901,5187.703,0.00019,0.0,0.0
9.907,5208.794,0.00019,0.0,0.0
9.913,5188.475,0.00019,0.0,0.0
9.92,5188.213,0.00019,0.0,0.0
9.926,5203.06,0.00019,0.0,0.0
9.932,5187.836,0.00019,0.0,0.0
9.939,5187.3,0.00019,0.0,0.0
9.945,5167.718,0.00019,0.0,0.0
9.951,5155.953,0.00019,0.0,0.0
9.958,5166.277,0.00019,0.0,0.0
9.964,5173.497,0.00019,0.0,0.0
9.97,5169.444,0.00019,0.0,0.0
9.977,5171.485,0.00019,0.0,0.0
9.983,5168.434,0.00019,0.0,0.0
9.989,5169.432,0.00019,0.0,0.0
9.996,5157.644,0.00019,0.0,0.0
10.002,5159.094,0.00019,0.0,0.0
10.008,5183.282,0.00019,0.0,0.0
10.015,5152.829,0.00019,0.0,0.0
10.021,5160.082,0.00019,0.0,0.0
10.027,5170.513,0.00019,0.0,0.0
10.034,5153.561,0.00019,0.0,0.0
10.04,5173.441,0.00019,0.0,0.0
10.046,5161.021,0.00019,0.0,0.0
10.052,5177.81,0.00019,0.0,0.0
10.059,5180.017,0.00019,0.0,0.0
10.065,5176.425,0.00019,0.0,0.0
10.071,5181.467,0.00019,0.0,0.0
10.078,5194.581,0.00019,0.0,0.0
10.084,5151.542,0.00019,0.0,0.0
10.09,5176.939,0.00019,0.0,0.0
10.097,5166.754,0.00019,0.0,0.0
10.103,5187.875,0.00019,0.0,0.0
10.109,5186.4,0.00019,0.0,0.0
10.116,5187.673,0.00019,0.0,0.0
10.122,5194.664,0.00019,0.0,0.0
10.128,5182.435,0.00019,0.0,0.0
10.135,5185.745,0.00019,0.0,0.0
10.141,5198.753,0.00019,0.0,0.0
10.147,5208.232,0.00019,0.0,0.0
10.154,5259.115,0.00019,0.0,0.0
10.16,5310.387,0.00019,0.0,0.0
10.166,5381.374,0.00019,0.0,0.0
10.173,5705.38,0.00018,0.0,0.0
10.179,5965.09,0.00017,0.0,0.0
10.185,6845.616,0.00015,0.0,0.0
10.192,6029.239,0.00017,0.0,0.0
10.198,7442.262,0.00013,0.0,0.0
10.204,7935.487,0.00013,0.0,0.0
10.21,8762.091,0.00011,0.0,0.0
10.217,7914.653,0.00013,0.0,0.0
10.223,7453.008,0.00013,0.0,0.0
10.229,6699.915,0.00015,0.0,0.0
10.236,5942.642,0.00017,0.0,0.0
10.242,5822.182,0.00017,0.0,0.0
10.248,5365.961,0.00019,0.0,0.0
10.255,5303.507,0.00019,0.0,0.0
10.261,5250.343,0.00019,0.0,0.0
10.267,5162.96,0.00019,0.0,0.0
10.274,5164.561,0.00019,0.0,0.0
10.28,5102.532,0.0002,0.0,0.0
10.286,5149.831,0.00019,0.0,0.0
10.293,5079.827,0.0002,0.0,0.0
10.299,5115.563,0.0002,0.0,0.0
10.305,5091.974,0.0002,0.0,0.0
10.312,5067.612,0.0002,0.0,0.0
10.318,5056.046,0.0002,0.0,0.0
10.324,5050.819,0.0002,0.0,0.0
10.331,5062.296,0.0002,0.0,0.0
10.337,5064.345,0.0002,0.0,0.0
10.343,5040.963,0.0002,0.0,0.0
10.35,5042.237,0.0002,0.0,0.0
10.356,5048.423,0.0002,0.0,0.0
10.362,5009.349,0.0002,0.0,0.0
10.368,5023.947,0.0002,0.0,0.0
10.375,5018.07,0.0002,0.0,0.0
10.381,5014.176,0.0002,0.0,0.0
10.387,5012.957,0.0002,0.0,0.0
10.394,5003.695,0.0002,0.0,0.0
10.4,5015.317,0.0002,0.0,0.0
10.406,5006.873,0.0002,0.0,0.0
10.413,5004.292,0.0002,0.0,0.0
10.419,4967.899,0.0002,0.0,0.0
10.425,5004.799,0.0002,0.0,0.0
10.432,4988.611,0.0002,0.0,0.0
10.438,4994.988,0.0002,0.0,0.0
10.444,4973.785,0.0002,0.0,0.0
10.451,4983.243,0.0002,0.0,0.0
10.457,4975.009,0.0002,0.0,0.0
10.463,4985.608,0.0002,0.0,0.0
10.47,4975.659,0.0002,0.0,0.0
10.476,4964.205,0.0002,0.0,0.0
10.482,4983.63,0.0002,0.0,0.0
10.489,4955.532,0.0002,0.0,0.0
10.495,4972.842,0.0002,0.0,0.0
10.501,4974.111,0.0002,0.0,0.0
10.508,4962.695,0.0002,0.0,0.0
10.514,4963.559,0.0002,0.0,0.0
10.52,4962.202,0.0002,0.0,0.0
10.526,4974.086,0.0002,0.0,0.0
10.533,4975.789,0.0002,0.0,0.0
10.539,4969.604,0.0002,0.0,0.0
10.545,4955.031,0.0002,0.0,0.0
10.552,4977.29,0.0002,0.0,0.0
10.558,4948.684,0.0002,0.0,0.0
10.564,4974.448,0.0002,0.0,0.0
10.571,4953.943,0.0002,0.0,0.0
10.577,4974.325,0.0002,0.0,0.0
10.583,4967.885,0.0002,0.0,0.0
10.59,4966.533,0.0002,0.0,0.0
10.596,4974.469,0.0002,0.0,0.0
10.602,4953.103,0.0002,0.0,0.0
10.609,4978.688,0.0002,0.0,0.0
10.615,4972.666,0.0002,0.0,0.0
10.621,4980.124,0.0002,0.0,0.0
10.628,4965.693,0.0002,0.0,0.0
10.634,4973.214,0.0002,0.0,0.0
10.64,4977.619,0.0002,0.0,0.0
10.647,4966.995,0.0002,0.0,0.0
10.653,4976.018,0.0002,0.0,0.0
10.659,4999.615,0.0002,0.0,0.0
10.666,4995.372,0.0002,0.0,0.0
10.672,4995.715,0.0002,0.0,0.0
10.678,5006.767,0.0002,0.0,0.0
10.684,5000.672,0.0002,0.0,0.0
10.691,5021.218,0.0002,0.0,0.0
10.697,5016.73,0.0002,0.0,0.0
10.703,5037.425,0.0002,0.0,0.0
10.71,5051.607,0.0002,0.0,0.0
10.716,5060.205,0.0002,0.0,0.0
10.722,5088.327,0.0002,0.0,0.0
10.729,5116.262,0.0002,0.0,0.0
10.735,5145.129,0.00019,0.0,0.0
10.741,5222.69,0.00019,0.0,0.0
10.748,5306.985,0.00019,0.0,0.0
10.754,5395.028,0.00019,0.0,0.0
10.76,5621.351,0.00018,0.0,0.0
10.767,5892.127,0.00017,0.0,0.0
10.773,6493.579,0.00015,0.0,0.0
10.779,7478.073,0.00013,0.0,0.0
10.786,9168.202,0.00011,0.0,0.0
10.792,12966.012,0.00008,0.0,0.0
10.798,16972.859,0.00006,0.0,0.0
10.805,23055.412,0.00004,0.0,0.0
10.811,27962.475,0.00004,0.0,0.0
10.817,31332.033,0.00003,0.0,0.0
10.824,30646.25,0.00003,0.0,0.0
10.83,25576.072,0.00004,0.0,0.0
10.836,18185.065,0.00005,0.0,0.0
10.842,13930.874,0.00007,0.0,0.0
10.849,9656.219,0.0001,0.0,0.0
10.855,7822.501,0.00013,0.0,0.0
10.861,6594.775,0.00015,0.0,0.0
10.868,5997.215,0.00017,0.0,0.0
10.874,5664.105,0.00018,0.0,0.0
10.88,5416.074,0.00018,0.0,0.0
10.887,5307.849,0.00019,0.0,0.0
10.893,5207.143,0.00019,0.0,0.0
10.899,5152.614,0.00019,0.0,0.0
10.906,5116.004,0.0002,0.0,0.0
10.912,5080.532,0.0002,0.0,0.0
10.918,5062.178,0.0002,0.0,0.0
10.925,5035.229,0.0002,0.0,0.0
10.931,5028.216,0.0002,0.0,0.0
10.937,4994.529,0.0002,0.0,0.0
10.944,4997.054,0.0002,0.0,0.0
10.95,4984.083,0.0002,0.0,0.0
10.956,4974.883,0.0002,0.0,0.0
10.963,4960.078,0.0002,0.0,0.0
10.969,4952.824,0.0002,0.0,0.0
10.975,4946.499,0.0002,0.0,0.0
10.982,4928.136,0.0002,0.0,0.0
10.988,4924.776,0.0002,0.0,0.0
10.994,4912.045,0.0002,0.0,0.0
11.0,4917.707,0.0002,0.0,0.0
11.007,4908.638,0.0002,0.0,0.0
11.013,4912.005,0.0002,0.0,0.0
11.019,4896.083,0.0002,0.0,0.0
11.026,4891.259,0.0002,0.0,0.0
11.032,4888.551,0.0002,0.0,0.0
11.038,4880.173,0.0002,0.0,0.0
11.045,4879.326,0.0002,0.0,0.0
11.051,4869.001,0.00021,0.0,0.0
11.057,4882.519,0.0002,0.0,0.0
11.064,4868.538,0.00021,0.0,0.0
11.07,4857.716,0.00021,0.0,0.0
11.076,4866.621,0.00021,0.0,0.0
11.083,4855.311,0.00021,0.0,0.0
11.089,4851.538,0.00021,0.0,0.0
11.095,4847.168,0.00021,0.0,0.0
11.102,4851.75,0.00021,0.0,0.0
11.108,4829.67,0.00021,0.0,0.0
11.114,4839.175,0.00021,0.0,0.0
11.121,4835.162,0.00021,0.0,0.0
11.127,4829.255,0.00021,0.0,0.0
11.133,4840.01,0.00021,0.0,0.0
11.14,4839.643,0.00021,0.0,0.0
11.146,4829.64,0.00021,0.0,0.0
11.152,4809.5,0.00021,0.0,0.0
11.158,4824.382,0.00021,0.0,0.0
11.165,4811.676,0.00021,0.0,0.0
11.171,4818.336,0.00021,0.0,0.0
11.177,4810.052,0.00021,0.0,0.0
11.184,4825.904,0.00021,0.0,0.0
11.19,4802.315,0.00021,0.0,0.0
11.196,4809.734,0.00021,0.0,0.0
11.203,4807.635,0.00021,0.0,0.0
11.209,4788.361,0.00021,0.0,0.0
11.215,4797.499,0.00021,0.0,0.0
11.222,4792.64,0.00021,0.0,0.0
11.228,4791.386,0.00021,0.0,0.0
11.234,4799.722,0.00021,0.0,0.0
11.241,4793.854,0.00021,0.0,0.0
11.247,4767.311,0.00021,0.0,0.0
11.253,4776.488,0.00021,0.0,0.0
11.26,4766.41,0.00021,0.0,0.0
11.266,4778.683,0.00021,0.0,0.0
11.272,4791.136,0.00021,0.0,0.0
11.279,4772.111,0.00021,0.0,0.0
11.285,4779.983,0.00021,0.0,0.0
11.291,4782.1,0.00021,0.0,0.0
11.298,4777.27,0.00021,0.0,0.0
11.304,4764.718,0.00021,0.0,0.0
11.31,4767.497,0.00021,0.0,0.0
11.316,4774.905,0.00021,0.0,0.0
11.323,4767.169,0.00021,0.0,0.0
11.329,4772.106,0.00021,0.0,0.0
11.335,4762.911,0.00021,0.0,0.0
11.342,4758.532,0.00021,0.0,0.0
11.348,4756.487,0.00021,0.0,0.0
11.354,4775.318,0.00021,0.0,0.0
11.361,4757.184,0.00021,0.0,0.0
11.367,4777.714,0.00021,0.0,0.0
11.373,4761.155,0.00021,0.0,0.0
11.38,4756.146,0.00021,0.0,0.0
11.386,4767.701,0.00021,0.0,0.0
11.392,4766.194,0.00021,0.0,0.0
11.399,4766.661,0.00021,0.0,0.0
11.405,4766.203,0.00021,0.0,0.0
11.411,4759.399,0.00021,0.0,0.0
11.418,4759.007,0.00021,0.0,0.0
11.424,4769.843,0.00021,0.0,0.0
11.43,4766.26,0.00021,0.0,0.0
11.437,4762.746,0.00021,0.0,0.0
11.443,4769.223,0.00021,0.0,0.0
11.449,4774.613,0.00021,0.0,0.0
11.456,4771.531,0.00021,0.0,0.0
11.462,4776.394,0.00021,0.0,0.0
11.468,4786.284,0.00021,0.0,0.0
11.474,4776.839,0.00021,0.0,0.0
11.481,4772.761,0.00021,0.0,0.0
11.487,4778.157,0.00021,0.0,0.0
11.493,4784.501,0.00021,0.0,0.0
11.5,4797.374,0.00021,0.0,0.0
11.506,4780.67,0.00021,0.0,0.0
11.512,4788.297,0.00021,0.0,0.0
11.519,4795.683,0.00021,0.0,0.0
11.525,4799.284,0.00021,0.0,0.0
11.531,4807.316,0.00021,0.0,0.0
11.538,4789.088,0.00021,0.0,0.0
11.544,4807.392,0.00021,0.0,0.0
11.55,4800.529,0.00021,0.0,0.0
11.557,4798.586,0.00021,0.0,0.0
11.563,4807.895,0.00021,0.0,0.0
11.569,4797.556,0.00021,0.0,0.0
11.576,4792.855,0.00021,0.0,0.0
11.582,4817.907,0.00021,0.0,0.0
11.588,4803.62,0.00021,0.0,0.0
11.595,4812.342,0.00021,0.0,0.0
11.601,4808.372,0.00021,0.0,0.0
11.607,4812.384,0.00021,0.0,0.0
11.614,4808.152,0.00021,0.0,0.0
11.62,4811.717,0.00021,0.0,0.0
11.626,4826.949,0.00021,0.0,0.0
11.632,4822.128,0.00021,0.0,0.0
11.639,4810.42,0.00021,0.0,0.0
11.645,4824.013,0.00021,0.0,0.0
11.651,4821.786,0.00021,0.0,0.0
11.658,4840.097,0.00021,0.0,0.0
11.664,4822.163,0.00021,0.0,0.0
11.67,4826.612,0.00021,0.0,0.0
11.677,4824.596,0.00021,0.0,0.0
11.683,4815.312,0.00021,0.0,0.0
11.689,4833.183,0.00021,0.0,0.0
11.696,4823.136,0.00021,0.0,0.0
11.702,4836.802,0.00021,0.0,0.0
11.708,4833.741,0.00021,0.0,0.0
11.715,4825.499,0.00021,0.0,0.0
11.721,4830.715,0.00021,0.0,0.0
11.727,4821.79,0.00021,0.0,0.0
11.734,4815.08,0.00021,0.0,0.0
11.74,4828.667,0.00021,0.0,0.0
11.746,4822.921,0.00021,0.0,0.0
11.753,4816.573,0.00021,0.0,0.0
11.759,4818.942,0.00021,0.0,0.0
11.765,4817.172,0.00021,0.0,0.0
11.772,4821.578,0.00021,0.0,0.0
11.778,4810.414,0.00021,0.0,0.0
11.784,4808.778,0.00021,0.0,0.0
11.79,4814.231,0.00021,0.0,0.0
11.797,4800.9,0.00021,0.0,0.0
11.803,4796.405,0.00021,0.0,0.0
11.809,4791.633,0.00021,0.0,0.0
11.816,4790.848,0.00021,0.0,0.0
11.822,4817.664,0.00021,0.0,0.0
11.828,4791.484,0.00021,0.0,0.0
11.835,4797.717,0.00021,0.0,0.0
11.841,4798.395,0.00021,0.0,0.0
11.847,4783.695,0.00021,0.0,0.0
11.854,4809.886,0.00021,0.0,0.0
11.86,4784.151,0.00021,0.0,0.0
11.866,4802.766,0.00021,0.0,0.0
11.873,4785.249,0.00021,0.0,0.0
11.879,4794.265,0.00021,0.0,0.0
11.885,4799.472,0.00021,0.0,0.0
11.892,4794.894,0.00021,0.0,0.0
11.898,4793.195,0.00021,0.0,0.0
11.904,4801.541,0.00021,0.0,0.0
11.911,4804.529,0.00021,0.0,0.0
11.917,4804.968,0.00021,0.0,0.0
11.923,4802.437,0.00021,0.0,0.0
11.93,4803.417,0.00021,0.0,0.0
11.936,4816.249,0.00021,0.0,0.0
11.942,4812.197,0.00021,0.0,0.0
11.948,4816.703,0.00021,0.0,0.0
11.955,4817.12,0.00021,0.0,0.0
11.961,4818.052,0.00021,0.0,0.0
11.967,4843.005,0.00021,0.0,0.0
11.974,4823.934,0.00021,0.0,0.0
11.98,4837.394,0.00021,0.0,0.0
11.986,4845.119,0.00021,0.0,0.0
11.993,4848.084,0.00021,0.0,0.0
11.999,4850.502,0.00021,0.0,0.0
12.005,4854.116,0.00021,0.0,0.0
12.012,4879.269,0.0002,0.0,0.0
12.018,4885.804,0.0002,0.0,0.0
12.024,4915.467,0.0002,0.0,0.0
12.031,4946.368,0.0002,0.0,0.0
12.037,4966.927,0.0002,0.0,0.0
12.043,5178.261,0.00019,0.0,0.0
12.05,5116.117,0.0002,0.0,0.0
12.056,5523.798,0.00018,0.0,0.0
12.062,6925.296,0.00014,0.0,0.0
12.069,5886.266,0.00017,0.0,0.0
12.075,7176.076,0.00014,0.0,0.0
12.081,7435.695,0.00013,0.0,0.0
12.088,6604.376,0.00015,0.0,0.0
12.094,7346.153,0.00014,0.0,0.0
12.1,6091.223,0.00016,0.0,0.0
12.106,5604.828,0.00018,0.0,0.0
12.113,5398.419,0.00019,0.0,0.0
12.119,5119.49,0.0002,0.0,0.0
12.125,5020.462,0.0002,0.0,0.0
12.132,4896.949,0.0002,0.0,0.0
12.138,4874.377,0.00021,0.0,0.0
12.144,4834.29,0.00021,0.0,0.0
12.151,4802.081,0.00021,0.0,0.0
12.157,4803.102,0.00021,0.0,0.0
12.163,4766.808,0.00021,0.0,0.0
12.17,4768.884,0.00021,0.0,0.0
12.176,4751.354,0.00021,0.0,0.0
12.182,4726.814,0.00021,0.0,0.0
12.189,4714.229,0.00021,0.0,0.0
12.195,4701.782,0.00021,0.0,0.0
12.201,4704.14,0.00021,0.0,0.0
12.208,4686.264,0.00021,0.0,0.0
12.214,4668.67,0.00021,0.0,0.0
12.22,4673.463,0.00021,0.0,0.0
12.227,4659.864,0.00021,0.0,0.0
12.233,4656.911,0.00021,0.0,0.0
12.239,4646.043,0.00022,0.0,0.0
12.246,4641.395,0.00022,0.0,0.0
12.252,4634.832,0.00022,0.0,0.0
12.258,4614.097,0.00022,0.0,0.0
12.264,4616.779,0.00022,0.0,0.0
12.271,4606.758,0.00022,0.0,0.0
12.277,4587.132,0.00022,0.0,0.0
12.283,4595.378,0.00022,0.0,0.0
12.29,4573.828,0.00022,0.0,0.0
12.296,4573.138,0.00022,0.0,0.0
12.302,4564.605,0.00022,0.0,0.0
12.309,4564.536,0.00022,0.0,0.0
12.315,4557.985,0.00022,0.0,0.0
12.321,4554.609,0.00022,0.0,0.0
12.328,4549.452,0.00022,0.0,0.0
12.334,4550.735,0.00022,0.0,0.0
12.34,4540.892,0.00022,0.0,0.0
12.347,4536.207,0.00022,0.0,0.0
12.353,4540.352,0.00022,0.0,0.0
12.359,4526.771,0.00022,0.0,0.0
12.366,4533.411,0.00022,0.0,0.0
12.372,4514.064,0.00022,0.0,0.0
12.378,4520.156,0.00022,0.0,0.0
12.385,4514.878,0.00022,0.0,0.0
12.391,4505.061,0.00022,0.0,0.0
12.397,4514.935,0.00022,0.0,0.0
12.404,4501.794,0.00022,0.0,0.0
12.41,4515.675,0.00022,0.0,0.0
12.416,4497.103,0.00022,0.0,0.0
12.422,4493.435,0.00022,0.0,0.0
12.429,4494.511,0.00022,0.0,0.0
12.435,4502.346,0.00022,0.0,0.0
12.441,4485.051,0.00022,0.0,0.0
12.448,4496.213,0.00022,0.0,0.0
12.454,4491.741,0.00022,0.0,0.0
12.46,4477.152,0.00022,0.0,0.0
12.467,4497.063,0.00022,0.0,0.0
12.473,4472.279,0.00022,0.0,0.0
12.479,4490.451,0.00022,0.0,0.0
12.486,4485.148,0.00022,0.0,0.0
12.492,4495.862,0.00022,0.0,0.0
12.498,4488.614,0.00022,0.0,0.0
12.505,4492.577,0.00022,0.0,0.0
12.511,4487.355,0.00022,0.0,0.0
12.517,4506.022,0.00022,0.0,0.0
12.524,4504.489,0.00022,0.0,0.0
12.53,4502.278,0.00022,0.0,0.0
12.536,4504.093,0.00022,0.0,0.0
12.543,4503.711,0.00022,0.0,0.0
12.549,4512.975,0.00022,0.0,0.0
12.555,4517.268,0.00022,0.0,0.0
12.562,4521.062,0.00022,0.0,0.0
12.568,4519.471,0.00022,0.0,0.0
12.574,4535.155,0.00022,0.0,0.0
12.58,4552.642,0.00022,0.0,0.0
12.587,4572.526,0.00022,0.0,0.0
12.593,4601.267,0.00022,0.0,0.0
12.599,4619.574,0.00022,0.0,0.0
12.606,4669.482,0.00021,0.0,0.0
12.612,4724.446,0.00021,0.0,0.0
12.618,4828.068,0.00021,0.0,0.0
12.625,4973.938,0.0002,0.0,0.0
12.631,5167.429,0.00019,0.0,0.0
12.637,5535.903,0.00018,0.0,0.0
12.644,6165.601,0.00016,0.0,0.0
12.65,7321.98,0.00014,0.0,0.0
12.656,8971.854,0.00011,0.0,0.0
12.663,12444.612,0.00008,0.0,0.0
12.669,17651.918,0.00006,0.0,0.0
12.675,24641.98,0.00004,0.0,0.0
12.682,30607.597,0.00003,0.0,0.0
12.688,36671.533,0.00003,0.0,0.0
12.694,37344.669,0.00003,0.0,0.0
12.701,32752.478,0.00003,0.0,0.0
12.707,27181.561,0.00004,0.0,0.0
12.713,17467.33,0.00006,0.0,0.0
12.72,12707.099,0.00008,0.0,0.0
12.726,9339.669,0.00011,0.0,0.0
12.732,7124.007,0.00014,0.0,0.0
12.738,6132.908,0.00016,0.0,0.0
12.745,5472.228,0.00018,0.0,0.0
12.751,5102.269,0.0002,0.0,0.0
12.757,4887.732,0.0002,0.0,0.0
12.764,4733.359,0.00021,0.0,0.0
12.77,4655.149,0.00021,0.0,0.0
12.776,4568.738,0.00022,0.0,0.0
12.783,4531.626,0.00022,0.0,0.0
12.789,4485.899,0.00022,0.0,0.0
12.795,4472.57,0.00022,0.0,0.0
12.802,4451.445,0.00022,0.0,0.0
12.808,4427.153,0.00023,0.0,0.0
12.814,4407.737,0.00023,0.0,0.0
12.821,4391.356,0.00023,0.0,0.0
12.827,4382.555,0.00023,0.0,0.0
12.833,4365.697,0.00023,0.0,0.0
12.84,4349.682,0.00023,0.0,0.0
12.846,4353.906,0.00023,0.0,0.0
12.852,4341.191,0.00023,0.0,0.0
12.859,4330.956,0.00023,0.0,0.0
12.865,4327.885,0.00023,0.0,0.0
12.871,4321.803,0.00023,0.0,0.0
12.878,4311.238,0.00023,0.0,0.0
12.884,4312.537,0.00023,0.0,0.0
12.89,4302.847,0.00023,0.0,0.0
12.896,4297.732,0.00023,0.0,0.0
12.903,4295.5,0.00023,0.0,0.0
12.909,4303.489,0.00023,0.0,0.0
12.915,4301.97,0.00023,0.0,0.0
12.922,4295.825,0.00023,0.0,0.0
12.928,4284.745,0.00023,0.0,0.0
12.934,4305.665,0.00023,0.0,0.0
12.941,4282.836,0.00023,0.0,0.0
12.947,4295.068,0.00023,0.0,0.0
12.953,4286.786,0.00023,0.0,0.0
12.96,4265.485,0.00023,0.0,0.0
12.966,4267.152,0.00023,0.0,0.0
12.972,4256.31,0.00023,0.0,0.0
12.979,4249.667,0.00024,0.0,0.0
12.985,4234.802,0.00024,0.0,0.0
12.991,4236.114,0.00024,0.0,0.0
12.998,4229.394,0.00024,0.0,0.0
13.004,4217.86,0.00024,0.0,0.0
13.01,4216.632,0.00024,0.0,0.0
13.017,4196.928,0.00024,0.0,0.0
13.023,4211.624,0.00024,0.0,0.0
13.029,4189.949,0.00024,0.0,0.0
13.036,4218.885,0.00024,0.0,0.0
13.042,4201.759,0.00024,0.0,0.0
13.048,4183.008,0.00024,0.0,0.0
13.054,4194.394,0.00024,0.0,0.0
13.061,4182.389,0.00024,0.0,0.0
13.067,4184.782,0.00024,0.0,0.0
13.073,4179.087,0.00024,0.0,0.0
13.08,4172.265,0.00024,0.0,0.0
13.086,4176.188,0.00024,0.0,0.0
13.092,4177.452,0.00024,0.0,0.0
13.099,4172.733,0.00024,0.0,0.0
13.105,4156.694,0.00024,0.0,0.0
13.111,4167.121,0.00024,0.0,0.0
13.118,4168.458,0.00024,0.0,0.0
13.124,4173.212,0.00024,0.0,0.0
13.13,4162.351,0.00024,0.0,0.0
13.137,4160.605,0.00024,0.0,0.0
13.143,4179.265,0.00024,0.0,0.0
13.149,4157.049,0.00024,0.0,0.0
13.156,4159.177,0.00024,0.0,0.0
13.162,4165.165,0.00024,0.0,0.0
13.168,4173.078,0.00024,0.0,0.0
13.175,4181.364,0.00024,0.0,0.0
13.181,4191.455,0.00024,0.0,0.0
13.187,4226.084,0.00024,0.0,0.0
13.194,4256.98,0.00023,0.0,0.0
13.2,4292.948,0.00023,0.0,0.0
13.206,4378.143,0.00023,0.0,0.0
13.212,4535.433,0.00022,0.0,0.0
13.219,4812.06,0.00021,0.0,0.0
13.225,5267.703,0.00019,0.0,0.0
13.231,6150.088,0.00016,0.0,0.0
13.238,7473.22,0.00013,0.0,0.0
13.244,9097.781,0.00011,0.0,0.0
13.25,10954.523,0.00009,0.0,0.0
13.257,11923.153,0.00008,0.0,0.0
13.263,11549.583,0.00009,0.0,0.0
13.269,10546.084,0.00009,0.0,0.0
13.276,9014.574,0.00011,0.0,0.0
13.282,7073.257,0.00014,0.0,0.0
13.288,5809.048,0.00017,0.0,0.0
13.295,5037.459,0.0002,0.0,0.0
13.301,4671.45,0.00021,0.0,0.0
13.307,4428.576,0.00023,0.0,0.0
13.314,4298.471,0.00023,0.0,0.0
13.32,4227.378,0.00024,0.0,0.0
13.326,4175.961,0.00024,0.0,0.0
13.333,4136.286,0.00024,0.0,0.0
13.339,4112.911,0.00024,0.0,0.0
13.345,4105.425,0.00024,0.0,0.0
13.352,4090.529,0.00024,0.0,0.0
13.358,4082.301,0.00024,0.0,0.0
13.364,4072.215,0.00025,0.0,0.0
13.37,4050.541,0.00025,0.0,0.0
13.377,4056.856,0.00025,0.0,0.0
13.383,4061.661,0.00025,0.0,0.0
13.389,4030.365,0.00025,0.0,0.0
13.396,4055.15,0.00025,0.0,0.0
13.402,4027.221,0.00025,0.0,0.0
13.408,4047.358,0.00025,0.0,0.0
13.415,4028.595,0.00025,0.0,0.0
13.421,4032.029,0.00025,0.0,0.0
13.427,4026.331,0.00025,0.0,0.0
13.434,3998.083,0.00025,0.0,0.0
13.44,3998.414,0.00025,0.0,0.0
13.446,4001.958,0.00025,0.0,0.0
13.453,4005.213,0.00025,0.0,0.0
13.459,3997.577,0.00025,0.0,0.0
13.465,3999.15,0.00025,0.0,0.0
13.472,4001.572,0.00025,0.0,0.0
13.478,3987.525,0.00025,0.0,0.0
13.484,3991.092,0.00025,0.0,0.0
13.491,3990.438,0.00025,0.0,0.0
13.497,3995.333,0.00025,0.0,0.0
13.503,3987.032,0.00025,0.0,0.0
13.51,3974.352,0.00025,0.0,0.0
13.516,3979.313,0.00025,0.0,0.0
13.522,3978.101,0.00025,0.0,0.0
13.528,3985.227,0.00025,0.0,0.0
13.535,3969.182,0.00025,0.0,0.0
13.541,3972.592,0.00025,0.0,0.0
13.547,3972.958,0.00025,0.0,0.0
13.554,3970.974,0.00025,0.0,0.0
13.56,3956.482,0.00025,0.0,0.0
13.566,3960.349,0.00025,0.0,0.0
13.573,3967.79,0.00025,0.0,0.0
13.579,3952.146,0.00025,0.0,0.0
13.585,3968.076,0.00025,0.0,0.0
13.592,3952.282,0.00025,0.0,0.0
13.598,3957.889,0.00025,0.0,0.0
13.604,3954.84,0.00025,0.0,0.0
13.611,3956.365,0.00025,0.0,0.0
13.617,3960.264,0.00025,0.0,0.0
13.623,3947.993,0.00025,0.0,0.0
13.63,3968.713,0.00025,0.0,0.0
13.636,3964.624,0.00025,0.0,0.0
13.642,3972.76,0.00025,0.0,0.0
13.649,3982.785,0.00025,0.0,0.0
13.655,3979.768,0.00025,0.0,0.0
13.661,3998.12,0.00025,0.0,0.0
13.668,4023.599,0.00025,0.0,0.0
13.674,4094.9,0.00024,0.0,0.0
13.68,4162.486,0.00024,0.0,0.0
13.686,4455.276,0.00022,0.0,0.0
13.693,4468.873,0.00022,0.0,0.0
13.699,4573.148,0.00022,0.0,0.0
13.705,5075.515,0.0002,0.0,0.0
13.712,4685.76,0.00021,0.0,0.0
13.718,5416.557,0.00018,0.0,0.0
13.724,5321.834,0.00019,0.0,0.0
13.731,4945.677,0.0002,0.0,0.0
13.737,5255.23,0.00019,0.0,0.0
13.743,4185.008,0.00024,0.0,0.0
13.75,4317.599,0.00023,0.0,0.0
13.756,4010.681,0.00025,0.0,0.0
13.762,4042.323,0.00025,0.0,0.0
13.769,3949.877,0.00025,0.0,0.0
13.775,3961.484,0.00025,0.0,0.0
13.781,3927.126,0.00025,0.0,0.0
13.788,3909.54,0.00026,0.0,0.0
13.794,3916.187,0.00026,0.0,0.0
13.8,3903.443,0.00026,0.0,0.0
13.807,3904.873,0.00026,0.0,0.0
13.813,3881.009,0.00026,0.0,0.0
13.819,3898.893,0.00026,0.0,0.0
13.826,3869.314,0.00026,0.0,0.0
13.832,3868.871,0.00026,0.0,0.0
13.838,3873.74,0.00026,0.0,0.0
13.844,3872.29,0.00026,0.0,0.0
13.851,3862.023,0.00026,0.0,0.0
13.857,3867.445,0.00026,0.0,0.0
13.863,3867.52,0.00026,0.0,0.0
13.87,3848.97,0.00026,0.0,0.0
13.876,3851.245,0.00026,0.0,0.0
13.882,3841.27,0.00026,0.0,0.0
13.889,3845.816,0.00026,0.0,0.0
13.895,3833.146,0.00026,0.0,0.0
13.901,3836.409,0.00026,0.0,0.0
13.908,3830.126,0.00026,0.0,0.0
13.914,3829.1,0.00026,0.0,0.0
13.92,3827.843,0.00026,0.0,0.0
13.927,3812.606,0.00026,0.0,0.0
13.933,3815.251,0.00026,0.0,0.0
13.939,3819.775,0.00026,0.0,0.0
13.946,3810.076,0.00026,0.0,0.0
13.952,3815.336,0.00026,0.0,0.0
13.958,3807.357,0.00026,0.0,0.0
13.965,3802.518,0.00026,0.0,0.0
13.971,3796.11,0.00026,0.0,0.0
13.977,3801.431,0.00026,0.0,0.0
13.984,3790.709,0.00026,0.0,0.0
13.99,3781.029,0.00026,0.0,0.0
13.996,3782.581,0.00026,0.0,0.0
14.002,3784.295,0.00026,0.0,0.0
14.009,3778.609,0.00026,0.0,0.0
14.015,3776.566,0.00026,0.0,0.0
14.021,3778.973,0.00026,0.0,0.0
14.028,3773.02,0.00027,0.0,0.0
14.034,3775.575,0.00026,0.0,0.0
14.04,3768.955,0.00027,0.0,0.0
14.047,3765.896,0.00027,0.0,0.0
14.053,3761.157,0.00027,0.0,0.0
14.059,3764.004,0.00027,0.0,0.0
14.066,3769.098,0.00027,0.0,0.0
14.072,3751.022,0.00027,0.0,0.0
14.078,3758.918,0.00027,0.0,0.0
14.085,3762.629,0.00027,0.0,0.0
14.091,3747.193,0.00027,0.0,0.0
14.097,3748.371,0.00027,0.0,0.0
14.104,3748.012,0.00027,0.0,0.0
14.11,3748.675,0.00027,0.0,0.0
14.116,3736.936,0.00027,0.0,0.0
14.123,3730.292,0.00027,0.0,0.0
14.129,3722.461,0.00027,0.0,0.0
14.135,3735.783,0.00027,0.0,0.0
14.142,3743.104,0.00027,0.0,0.0
14.148,3714.339,0.00027,0.0,0.0
14.154,3733.77,0.00027,0.0,0.0
14.16,3711.401,0.00027,0.0,0.0
14.167,3711.313,0.00027,0.0,0.0
14.173,3711.74,0.00027,0.0,0.0
14.179,3724.519,0.00027,0.0,0.0
14.186,3718.347,0.00027,0.0,0.0
14.192,3707.848,0.00027,0.0,0.0
14.198,3706.47,0.00027,0.0,0.0
14.205,3705.447,0.00027,0.0,0.0
14.211,3703.775,0.00027,0.0,0.0
14.217,3694.455,0.00027,0.0,0.0
14.224,3698.319,0.00027,0.0,0.0
14.23,3701.546,0.00027,0.0,0.0
14.236,3701.611,0.00027,0.0,0.0
14.243,3701.1,0.00027,0.0,0.0
14.249,3694.37,0.00027,0.0,0.0
14.255,3694.115,0.00027,0.0,0.0
14.262,3688.347,0.00027,0.0,0.0
14.268,3700.835,0.00027,0.0,0.0
14.274,3678.526,0.00027,0.0,0.0
14.281,3686.454,0.00027,0.0,0.0
14.287,3682.242,0.00027,0.0,0.0
14.293,3683.086,0.00027,0.0,0.0
14.3,3680.071,0.00027,0.0,0.0
14.306,3678.272,0.00027,0.0,0.0
14.312,3667.39,0.00027,0.0,0.0
14.318,3660.223,0.00027,0.0,0.0
14.325,3675.372,0.00027,0.0,0.0
14.331,3669.875,0.00027,0.0,0.0
14.337,3668.174,0.00027,0.0,0.0
14.344,3665.867,0.00027,0.0,0.0
14.35,3659.501,0.00027,0.0,0.0
14.356,3657.415,0.00027,0.0,0.0
14.363,3652.723,0.00027,0.0,0.0
14.369,3655.775,0.00027,0.0,0.0
14.375,3653.601,0.00027,0.0,0.0
14.382,3653.494,0.00027,0.0,0.0
14.388,3660.714,0.00027,0.0,0.0
14.394,3662.905,0.00027,0.0,0.0
14.401,3656.702,0.00027,0.0,0.0
14.407,3659.195,0.00027,0.0,0.0
14.413,3662.012,0.00027,0.0,0.0
14.42,3661.143,0.00027,0.0,0.0
14.426,3696.861,0.00027,0.0,0.0
14.432,3713.396,0.00027,0.0,0.0
14.439,3860.296,0.00026,0.0,0.0
14.445,3837.684,0.00026,0.0,0.0
14.451,3782.818,0.00026,0.0,0.0
14.458,4635.103,0.00022,0.0,0.0
14.464,3774.177,0.00026,0.0,0.0
14.47,3827.002,0.00026,0.0,0.0
14.476,3853.846,0.00026,0.0,0.0
14.483,3714.305,0.00027,0.0,0.0
14.489,3685.435,0.00027,0.0,0.0
14.495,3639.164,0.00027,0.0,0.0
14.502,3626.018,0.00028,0.0,0.0
14.508,3612.332,0.00028,0.0,0.0
14.514,3617.733,0.00028,0.0,0.0
14.521,3615.22,0.00028,0.0,0.0
14.527,3599.628,0.00028,0.0,0.0
14.533,3591.596,0.00028,0.0,0.0
14.54,3606.112,0.00028,0.0,0.0
14.546,3594.573,0.00028,0.0,0.0
14.552,3584.586,0.00028,0.0,0.0
14.559,3586.216,0.00028,0.0,0.0
14.565,3590.151,0.00028,0.0,0.0
14.571,3588.917,0.00028,0.0,0.0
14.578,3582.973,0.00028,0.0,0.0
14.584,3582.243,0.00028,0.0,0.0
14.59,3569.927,0.00028,0.0,0.0
14.597,3568.299,0.00028,0.0,0.0
14.603,3576.303,0.00028,0.0,0.0
14.609,3575.448,0.00028,0.0,0.0
14.616,3562.381,0.00028,0.0,0.0
14.622,3572.973,0.00028,0.0,0.0
14.628,3550.173,0.00028,0.0,0.0
14.634,3564.002,0.00028,0.0,0.0
14.641,3546.907,0.00028,0.0,0.0
14.647,3563.282,0.00028,0.0,0.0
14.653,3557.832,0.00028,0.0,0.0
14.66,3551.126,0.00028,0.0,0.0
14.666,3541.257,0.00028,0.0,0.0
14.672,3553.813,0.00028,0.0,0.0
14.679,3551.185,0.00028,0.0,0.0
14.685,3544.243,0.00028,0.0,0.0
14.691,3541.399,0.00028,0.0,0.0
14.698,3542.616,0.00028,0.0,0.0
14.704,3546.763,0.00028,0.0,0.0
14.71,3543.083,0.00028,0.0,0.0
14.717,3538.585,0.00028,0.0,0.0
14.723,3531.67,0.00028,0.0,0.0
14.729,3541.256,0.00028,0.0,0.0
14.736,3520.033,0.00028,0.0,0.0
14.742,3530.995,0.00028,0.0,0.0
14.748,3533.275,0.00028,0.0,0.0
14.755,3521.303,0.00028,0.0,0.0
14.761,3520.977,0.00028,0.0,0.0
14.767,3530.464,0.00028,0.0,0.0
14.774,3515.796,0.00028,0.0,0.0
14.78,3518.471,0.00028,0.0,0.0
14.786,3519.555,0.00028,0.0,0.0
14.792,3514.08,0.00028,0.0,0.0
14.799,3526.044,0.00028,0.0,0.0
14.805,3507.393,0.00029,0.0,0.0
14.811,3500.6,0.00029,0.0,0.0
14.818,3502.872,0.00029,0.0,0.0
14.824,3501.917,0.00029,0.0,0.0
14.83,3499.355,0.00029,0.0,0.0
14.837,3504.868,0.00029,0.0,0.0
14.843,3507.267,0.00029,0.0,0.0
14.849,3506.412,0.00029,0.0,0.0
14.856,3501.908,0.00029,0.0,0.0
14.862,3494.607,0.00029,0.0,0.0
14.868,3498.999,0.00029,0.0,0.0
14.875,3490.782,0.00029,0.0,0.0
14.881,3491.765,0.00029,0.0,0.0
14.887,3495.448,0.00029,0.0,0.0
14.894,3499.722,0.00029,0.0,0.0
14.9,3497.921,0.00029,0.0,0.0
14.906,3489.537,0.00029,0.0,0.0
14.913,3484.563,0.00029,0.0,0.0
14.919,3493.238,0.00029,0.0,0.0
14.925,3483.436,0.00029,0.0,0.0
14.932,3481.228,0.00029,0.0,0.0
14.938,3480.568,0.00029,0.0,0.0
14.944,3478.189,0.00029,0.0,0.0
14.95,3483.55,0.00029,0.0,0.0
14.957,3487.265,0.00029,0.0,0.0
14.963,3486.456,0.00029,0.0,0.0
14.969,3474.138,0.00029,0.0,0.0
14.976,3466.678,0.00029,0.0,0.0
14.982,3482.778,0.00029,0.0,0.0
14.988,3470.635,0.00029,0.0,0.0
14.995,3462.092,0.00029,0.0,0.0
15.001,3465.355,0.00029,0.0,0.0
15.007,3457.599,0.00029,0.0,0.0
15.014,3470.57,0.00029,0.0,0.0
15.02,3450.158,0.00029,0.0,0.0
15.026,3457.635,0.00029,0.0,0.0
15.033,3466.067,0.00029,0.0,0.0
15.039,3451.008,0.00029,0.0,0.0
15.045,3459.404,0.00029,0.0,0.0
15.052,3453.417,0.00029,0.0,0.0
15.058,3456.642,0.00029,0.0,0.0
15.064,3450.337,0.00029,0.0,0.0
15.071,3450.87,0.00029,0.0,0.0
15.077,3456.878,0.00029,0.0,0.0
15.083,3456.025,0.00029,0.0,0.0
15.09,3442.027,0.00029,0.0,0.0
15.096,3458.694,0.00029,0.0,0.0
15.102,3453.4,0.00029,0.0,0.0
15.108,3454.392,0.00029,0.0,0.0
15.115,3468.903,0.00029,0.0,0.0
15.121,3446.556,0.00029,0.0,0.0
15.127,3494.45,0.00029,0.0,0.0
15.134,3501.449,0.00029,0.0,0.0
15.14,3454.997,0.00029,0.0,0.0
15.146,3952.979,0.00025,0.0,0.0
15.153,3485.527,0.00029,0.0,0.0
15.159,3872.277,0.00026,0.0,0.0
15.165,4459.695,0.00022,0.0,0.0
15.172,3527.703,0.00028,0.0,0.0
15.178,4062.572,0.00025,0.0,0.0
15.184,3506.416,0.00029,0.0,0.0
15.191,3490.159,0.00029,0.0,0.0
15.197,3524.705,0.00028,0.0,0.0
15.203,3455.243,0.00029,0.0,0.0
15.21,3458.496,0.00029,0.0,0.0
15.216,3446.386,0.00029,0.0,0.0
15.222,3455.161,0.00029,0.0,0.0
15.229,3448.237,0.00029,0.0,0.0
15.235,3454.336,0.00029,0.0,0.0
15.241,3463.489,0.00029,0.0,0.0
15.248,3481.064,0.00029,0.0,0.0
15.254,3503.561,0.00029,0.0,0.0
15.26,3522.616,0.00028,0.0,0.0
15.266,3577.205,0.00028,0.0,0.0
15.273,3654.549,0.00027,0.0,0.0
15.279,3799.199,0.00026,0.0,0.0
15.285,4043.316,0.00025,0.0,0.0
15.292,4360.636,0.00023,0.0,0.0
15.298,4987.737,0.0002,0.0,0.0
15.304,5470.826,0.00018,0.0,0.0
15.311,6097.815,0.00016,0.0,0.0
15.317,6458.707,0.00015,0.0,0.0
15.323,6173.41,0.00016,0.0,0.0
15.33,6053.17,0.00017,0.0,0.0
15.336,5141.684,0.00019,0.0,0.0
15.342,4685.985,0.00021,0.0,0.0
15.349,4196.763,0.00024,0.0,0.0
15.355,3881.894,0.00026,0.0,0.0
15.361,3729.74,0.00027,0.0,0.0
15.368,3576.856,0.00028,0.0,0.0
15.374,3522.966,0.00028,0.0,0.0
15.38,3484.756,0.00029,0.0,0.0
15.387,3453.499,0.00029,0.0,0.0
15.393,3449.884,0.00029,0.0,0.0
15.399,3419.251,0.00029,0.0,0.0
15.406,3424.392,0.00029,0.0,0.0
15.412,3415.393,0.00029,0.0,0.0
15.418,3410.996,0.00029,0.0,0.0
15.424,3403.339,0.00029,0.0,0.0
15.431,3406.487,0.00029,0.0,0.0
15.437,3400.484,0.00029,0.0,0.0
15.443,3401.423,0.00029,0.0,0.0
15.45,3391.522,0.00029,0.0,0.0
15.456,3403.937,0.00029,0.0,0.0
15.462,3410.551,0.00029,0.0,0.0
15.469,3392.948,0.00029,0.0,0.0
15.475,3380.449,0.0003,0.0,0.0
15.481,3386.737,0.0003,0.0,0.0
15.488,3384.132,0.0003,0.0,0.0
15.494,3383.582,0.0003,0.0,0.0
15.5,3396.612,0.00029,0.0,0.0
15.507,3384.299,0.0003,0.0,0.0
15.513,3381.083,0.0003,0.0,0.0
15.519,3383.231,0.0003,0.0,0.0
15.526,3376.204,0.0003,0.0,0.0
15.532,3387.23,0.0003,0.0,0.0
15.538,3381.882,0.0003,0.0,0.0
15.545,3368.874,0.0003,0.0,0.0
15.551,3369.884,0.0003,0.0,0.0
15.557,3366.144,0.0003,0.0,0.0
15.564,3366.767,0.0003,0.0,0.0
15.57,3363.798,0.0003,0.0,0.0
15.576,3362.317,0.0003,0.0,0.0
15.582,3371.62,0.0003,0.0,0.0
15.589,3348.401,0.0003,0.0,0.0
15.595,3358.462,0.0003,0.0,0.0
15.601,3354.805,0.0003,0.0,0.0
15.608,3358.179,0.0003,0.0,0.0
15.614,3343.366,0.0003,0.0,0.0
15.62,3351.556,0.0003,0.0,0.0
15.627,3348.282,0.0003,0.0,0.0
15.633,3350.919,0.0003,0.0,0.0
15.639,3347.768,0.0003,0.0,0.0
15.646,3338.667,0.0003,0.0,0.0
15.652,3341.661,0.0003,0.0,0.0
15.658,3336.735,0.0003,0.0,0.0
15.665,3343.471,0.0003,0.0,0.0
15.671,3338.224,0.0003,0.0,0.0
15.677,3329.59,0.0003,0.0,0.0
15.684,3328.984,0.0003,0.0,0.0
15.69,3331.659,0.0003,0.0,0.0
15.696,3322.287,0.0003,0.0,0.0
15.703,3320.289,0.0003,0.0,0.0
15.709,3324.367,0.0003,0.0,0.0
15.715,3317.904,0.0003,0.0,0.0
15.722,3323.21,0.0003,0.0,0.0
15.728,3297.313,0.0003,0.0,0.0
15.734,3307.772,0.0003,0.0,0.0
15.74,3298.709,0.0003,0.0,0.0
15.747,3301.311,0.0003,0.0,0.0
15.753,3306.472,0.0003,0.0,0.0
15.759,3302.132,0.0003,0.0,0.0
15.766,3306.242,0.0003,0.0,0.0
15.772,3305.35,0.0003,0.0,0.0
15.778,3300.327,0.0003,0.0,0.0
15.785,3288.357,0.0003,0.0,0.0
15.791,3305.437,0.0003,0.0,0.0
15.797,3298.108,0.0003,0.0,0.0
15.804,3287.913,0.0003,0.0,0.0
15.81,3299.024,0.0003,0.0,0.0
15.816,3298.45,0.0003,0.0,0.0
15.823,3285.864,0.0003,0.0,0.0
15.829,3282.639,0.0003,0.0,0.0
15.835,3286.144,0.0003,0.0,0.0
15.842,3281.858,0.0003,0.0,0.0
15.848,3278.893,0.0003,0.0,0.0
15.854,3289.839,0.0003,0.0,0.0
15.861,3281.274,0.0003,0.0,0.0
15.867,3279.219,0.0003,0.0,0.0
15.873,3278.908,0.0003,0.0,0.0
15.88,3276.595,0.00031,0.0,0.0
15.886,3265.697,0.00031,0.0,0.0
15.892,3272.813,0.00031,0.0,0.0
15.898,3258.892,0.00031,0.0,0.0
15.905,3261.926,0.00031,0.0,0.0
15.911,3263.746,0.00031,0.0,0.0
15.917,3262.536,0.00031,0.0,0.0
15.924,3255.736,0.00031,0.0,0.0
15.93,3250.426,0.00031,0.0,0.0
15.936,3255.655,0.00031,0.0,0.0
15.943,3245.011,0.00031,0.0,0.0
15.949,3249.849,0.00031,0.0,0.0
15.955,3253.608,0.00031,0.0,0.0
15.962,3242.795,0.00031,0.0,0.0
15.968,3256.057,0.00031,0.0,0.0
15.974,3250.328,0.00031,0.0,0.0
15.981,3249.387,0.00031,0.0,0.0
15.987,3239.906,0.00031,0.0,0.0
15.993,3240.968,0.00031,0.0,0.0
16.0,3247.045,0.00031,0.0,0.0
16.006,3235.597,0.00031,0.0,0.0
16.012,3244.408,0.00031,0.0,0.0
16.019,3230.388,0.00031,0.0,0.0
16.025,3240.628,0.00031,0.0,0.0
16.031,3230.431,0.00031,0.0,0.0
16.038,3231.953,0.00031,0.0,0.0
16.044,3242.737,0.00031,0.0,0.0
16.05,3237.113,0.00031,0.0,0.0
16.056,3230.27,0.00031,0.0,0.0
16.063,3232.305,0.00031,0.0,0.0
16.069,3228.07,0.00031,0.0,0.0
16.075,3231.81,0.00031,0.0,0.0
16.082,3233.745,0.00031,0.0,0.0
16.088,3217.988,0.00031,0.0,0.0
16.094,3219.492,0.00031,0.0,0.0
16.101,3223.548,0.00031,0.0,0.0
16.107,3231.989,0.00031,0.0,0.0
16.113,3231.468,0.00031,0.0,0.0
16.12,3229.26,0.00031,0.0,0.0
16.126,3214.671,0.00031,0.0,0.0
16.132,3225.065,0.00031,0.0,0.0
16.139,3207.995,0.00031,0.0,0.0
16.145,3212.142,0.00031,0.0,0.0
16.151,3214.608,0.00031,0.0,0.0
16.158,3212.847,0.00031,0.0,0.0
16.164,3227.674,0.00031,0.0,0.0
16.17,3216.328,0.00031,0.0,0.0
16.177,3209.407,0.00031,0.0,0.0
16.183,3211.211,0.00031,0.0,0.0
16.189,3216.542,0.00031,0.0,0.0
16.196,3213.758,0.00031,0.0,0.0
16.202,3213.414,0.00031,0.0,0.0
16.208,3215.978,0.00031,0.0,0.0
16.214,3210.957,0.00031,0.0,0.0
16.221,3217.924,0.00031,0.0,0.0
16.227,3209.4,0.00031,0.0,0.0
16.233,3218.218,0.00031,0.0,0.0
16.24,3206.732,0.00031,0.0,0.0
16.246,3212.321,0.00031,0.0,0.0
16.252,3209.226,0.00031,0.0,0.0
16.259,3198.373,0.00031,0.0,0.0
16.265,3199.813,0.00031,0.0,0.0
16.271,3207.34,0.00031,0.0,0.0
16.278,3202.631,0.00031,0.0,0.0
16.284,3216.203,0.00031,0.0,0.0
16.29,3202.496,0.00031,0.0,0.0
16.297,3206.324,0.00031,0.0,0.0
16.303,3210.569,0.00031,0.0,0.0
16.309,3210.056,0.00031,0.0,0.0
16.316,3202.624,0.00031,0.0,0.0
16.322,3203.671,0.00031,0.0,0.0
16.328,3194.285,0.00031,0.0,0.0
16.335,3204.696,0.00031,0.0,0.0
16.341,3210.592,0.00031,0.0,0.0
16.347,3205.632,0.00031,0.0,0.0
16.354,3215.265,0.00031,0.0,0.0
16.36,3212.914,0.00031,0.0,0.0
16.366,3202.587,0.00031,0.0,0.0
16.372,3206.415,0.00031,0.0,0.0
16.379,3202.834,0.00031,0.0,0.0
16.385,3209.078,0.00031,0.0,0.0
16.391,3208.004,0.00031,0.0,0.0
16.398,3220.029,0.00031,0.0,0.0
16.404,3202.773,0.00031,0.0,0.0
16.41,3199.109,0.00031,0.0,0.0
16.417,3211.62,0.00031,0.0,0.0
16.423,3211.925,0.00031,0.0,0.0
16.429,3203.569,0.00031,0.0,0.0
16.436,3208.86,0.00031,0.0,0.0
16.442,3212.955,0.00031,0.0,0.0
16.448,3200.499,0.00031,0.0,0.0
16.455,3209.679,0.00031,0.0,0.0
16.461,3211.633,0.00031,0.0,0.0
16.467,3224.758,0.00031,0.0,0.0
16.474,3229.709,0.00031,0.0,0.0
16.48,3251.868,0.00031,0.0,0.0
16.486,3257.611,0.00031,0.0,0.0
16.493,3274.778,0.00031,0.0,0.0
16.499,3313.757,0.0003,0.0,0.0
16.505,3278.056,0.00031,0.0,0.0
16.512,3261.693,0.00031,0.0,0.0
16.518,3259.909,0.00031,0.0,0.0
16.524,3238.991,0.00031,0.0,0.0
16.53,3247.684,0.00031,0.0,0.0
16.537,3235.527,0.00031,0.0,0.0
16.543,3232.351,0.00031,0.0,0.0
16.549,3231.536,0.00031,0.0,0.0
16.556,3216.995,0.00031,0.0,0.0
16.562,3230.41,0.00031,0.0,0.0
16.568,3243.997,0.00031,0.0,0.0
16.575,3229.223,0.00031,0.0,0.0
16.581,3235.482,0.00031,0.0,0.0
16.587,3239.827,0.00031,0.0,0.0
16.594,3238.983,0.00031,0.0,0.0
