"x","y_obs","weight","y_calc","y_bkg"
0.8,2767.283,0.00036,0.0,0.0
0.806,3195.446,0.00031,0.0,0.0
0.813,3324.894,0.0003,0.0,0.0
0.819,3214.185,0.00031,0.0,0.0
0.825,3904.163,0.00026,0.0,0.0
0.832,3708.305,0.00027,0.0,0.0
0.838,3990.385,0.00025,0.0,0.0
0.844,4383.658,0.00023,0.0,0.0
0.851,4149.183,0.00024,0.0,0.0
0.857,4728.266,0.00021,0.0,0.0
0.863,5084.734,0.0002,0.0,0.0
0.87,4687.086,0.00021,0.0,0.0
0.876,5614.118,0.00018,0.0,0.0
0.882,5494.757,0.00018,0.0,0.0
0.888,5712.646,0.00018,0.0,0.0
0.895,6008.199,0.00017,0.0,0.0
0.901,6055.015,0.00017,0.0,0.0
0.907,6513.656,0.00015,0.0,0.0
0.914,6736.77,0.00015,0.0,0.0
0.92,6385.198,0.00016,0.0,0.0
0.926,7075.885,0.00014,0.0,0.0
0.933,7096.83,0.00014,0.0,0.0
0.939,6911.795,0.00014,0.0,0.0
0.945,7554.826,0.00013,0.0,0.0
0.952,7184.274,0.00014,0.0,0.0
0.958,7594.865,0.00013,0.0,0.0
0.964,7608.298,0.00013,0.0,0.0
0.971,7301.761,0.00014,0.0,0.0
0.977,7918.976,0.00013,0.0,0.0
0.983,7840.74,0.00013,0.0,0.0
0.99,7669.829,0.00013,0.0,0.0
0.996,8010.659,0.00012,0.0,0.0
1.002,7700.539,0.00013,0.0,0.0
1.009,7951.216,0.00013,0.0,0.0
1.015,8076.887,0.00012,0.0,0.0
1.021,7815.807,0.00013,0.0,0.0
1.028,8128.752,0.00012,0.0,0.0
1.034,7950.284,0.00013,0.0,0.0
1.04,7897.041,0.00013,0.0,0.0
1.046,8006.247,0.00012,0.0,0.0
1.053,8010.264,0.00012,0.0,0.0
1.059,7947.655,0.00013,0.0,0.0
1.065,8049.062,0.00012,0.0,0.0
1.072,7831.842,0.00013,0.0,0.0
1.078,7987.041,0.00013,0.0,0.0
1.084,7841.211,0.00013,0.0,0.0
1.091,7878.969,0.00013,0.0,0.0
1.097,7859.798,0.00013,0.0,0.0
1.103,7790.778,0.00013,0.0,0.0
1.11,7740.187,0.00013,0.0,0.0
1.116,7767.442,0.00013,0.0,0.0
1.122,7648.323,0.00013,0.0,0.0
1.129,7684.363,0.00013,0.0,0.0
1.135,7608.745,0.00013,0.0,0.0
1.141,7556.814,0.00013,0.0,0.0
1.148,7537.314,0.00013,0.0,0.0
1.154,7443.284,0.00013,0.0,0.0
1.16,7449.948,0.00013,0.0,0.0
1.167,7399.034,0.00014,0.0,0.0
1.173,7353.678,0.00014,0.0,0.0
1.179,7277.436,0.00014,0.0,0.0
1.186,7206.82,0.00014,0.0,0.0
1.192,7128.614,0.00014,0.0,0.0
1.198,7187.627,0.00014,0.0,0.0
1.204,7060.05,0.00014,0.0,0.0
1.211,7070.003,0.00014,0.0,0.0
1.217,7000.694,0.00014,0.0,0.0
1.223,6911.416,0.00014,0.0,0.0
1.23,6906.44,0.00014,0.0,0.0
1.236,6905.74,0.00014,0.0,0.0
1.242,6792.882,0.00015,0.0,0.0
1.249,6794.141,0.00015,0.0,0.0
1.255,6768.26,0.00015,0.0,0.0
1.261,6724.644,0.00015,0.0,0.0
1.268,6722.633,0.00015,0.0,0.0
1.274,6668.382,0.00015,0.0,0.0
1.28,6659.683,0.00015,0.0,0.0
1.287,6595.998,0.00015,0.0,0.0
1.293,6605.172,0.00015,0.0,0.0
1.299,6555.694,0.00015,0.0,0.0
1.306,6550.509,0.00015,0.0,0.0
1.312,6472.187,0.00015,0.0,0.0
1.318,6513.662,0.00015,0.0,0.0
1.325,6388.796,0.00016,0.0,0.0
1.331,6436.801,0.00016,0.0,0.0
1.337,6440.522,0.00016,0.0,0.0
1.344,6368.371,0.00016,0.0,0.0
1.35,6395.553,0.00016,0.0,0.0
1.356,6313.217,0.00016,0.0,0.0
1.362,6299.625,0.00016,0.0,0.0
1.369,6348.983,0.00016,0.0,0.0
1.375,6309.968,0.00016,0.0,0.0
1.381,6298.5,0.00016,0.0,0.0
1.388,6320.692,0.00016,0.0,0.0
1.394,6263.214,0.00016,0.0,0.0
1.4,6306.027,0.00016,0.0,0.0
1.407,6221.534,0.00016,0.0,0.0
1.413,6277.701,0.00016,0.0,0.0
1.419,6199.943,0.00016,0.0,0.0
1.426,6226.099,0.00016,0.0,0.0
1.432,6205.089,0.00016,0.0,0.0
1.438,6179.488,0.00016,0.0,0.0
1.445,6200.3,0.00016,0.0,0.0
1.451,6226.276,0.00016,0.0,0.0
1.457,6202.419,0.00016,0.0,0.0
1.464,6180.206,0.00016,0.0,0.0
1.47,6201.589,0.00016,0.0,0.0
1.476,6190.479,0.00016,0.0,0.0
1.483,6183.216,0.00016,0.0,0.0
1.489,6155.444,0.00016,0.0,0.0
1.495,6215.475,0.00016,0.0,0.0
1.502,6182.329,0.00016,0.0,0.0
1.508,6206.482,0.00016,0.0,0.0
1.514,6179.241,0.00016,0.0,0.0
1.52,6235.441,0.00016,0.0,0.0
1.527,6234.34,0.00016,0.0,0.0
1.533,6252.038,0.00016,0.0,0.0
1.539,6224.858,0.00016,0.0,0.0
1.546,6202.435,0.00016,0.0,0.0
1.552,6272.819,0.00016,0.0,0.0
1.558,6245.675,0.00016,0.0,0.0
1.565,6293.062,0.00016,0.0,0.0
1.571,6298.246,0.00016,0.0,0.0
1.577,6219.88,0.00016,0.0,0.0
1.584,6283.667,0.00016,0.0,0.0
1.59,6300.986,0.00016,0.0,0.0
1.596,6266.284,0.00016,0.0,0.0
1.603,6331.333,0.00016,0.0,0.0
1.609,6288.804,0.00016,0.0,0.0
1.615,6341.407,0.00016,0.0,0.0
1.622,6355.069,0.00016,0.0,0.0
1.628,6365.899,0.00016,0.0,0.0
1.634,6382.522,0.00016,0.0,0.0
1.641,6416.046,0.00016,0.0,0.0
1.647,6428.484,0.00016,0.0,0.0
1.653,6456.766,0.00015,0.0,0.0
1.66,6456.139,0.00015,0.0,0.0
1.666,6431.506,0.00016,0.0,0.0
1.672,6493.931,0.00015,0.0,0.0
1.678,6522.448,0.00015,0.0,0.0
1.685,6511.687,0.00015,0.0,0.0
1.691,6507.803,0.00015,0.0,0.0
1.697,6529.625,0.00015,0.0,0.0
1.704,6562.773,0.00015,0.0,0.0
1.71,6552.122,0.00015,0.0,0.0
1.716,6627.569,0.00015,0.0,0.0
1.723,6598.358,0.00015,0.0,0.0
1.729,6632.714,0.00015,0.0,0.0
1.735,6659.949,0.00015,0.0,0.0
1.742,6674.056,0.00015,0.0,0.0
1.748,6677.331,0.00015,0.0,0.0
1.754,6689.428,0.00015,0.0,0.0
1.761,6668.142,0.00015,0.0,0.0
1.767,6700.152,0.00015,0.0,0.0
1.773,6741.845,0.00015,0.0,0.0
1.78,6717.01,0.00015,0.0,0.0
1.786,6744.832,0.00015,0.0,0.0
1.792,6753.687,0.00015,0.0,0.0
1.799,6777.513,0.00015,0.0,0.0
1.805,6771.432,0.00015,0.0,0.0
1.811,6787.215,0.00015,0.0,0.0
1.818,6733.226,0.00015,0.0,0.0
1.824,6787.728,0.00015,0.0,0.0
1.83,6800.866,0.00015,0.0,0.0
1.836,6788.029,0.00015,0.0,0.0
1.843,6829.382,0.00015,0.0,0.0
1.849,6795.0,0.00015,0.0,0.0
1.855,6810.745,0.00015,0.0,0.0
1.862,6803.45,0.00015,0.0,0.0
1.868,6832.41,0.00015,0.0,0.0
1.874,6851.761,0.00015,0.0,0.0
1.881,6825.14,0.00015,0.0,0.0
1.887,6819.181,0.00015,0.0,0.0
1.893,6868.616,0.00015,0.0,0.0
1.9,6854.483,0.00015,0.0,0.0
1.906,6847.893,0.00015,0.0,0.0
1.912,6861.696,0.00015,0.0,0.0
1.919,6852.217,0.00015,0.0,0.0
1.925,6848.669,0.00015,0.0,0.0
1.931,6855.562,0.00015,0.0,0.0
1.938,6827.228,0.00015,0.0,0.0
1.944,6824.787,0.00015,0.0,0.0
1.95,6878.581,0.00015,0.0,0.0
1.957,6839.62,0.00015,0.0,0.0
1.963,6886.885,0.00015,0.0,0.0
1.969,6843.634,0.00015,0.0,0.0
1.976,6849.93,0.00015,0.0,0.0
1.982,6835.431,0.00015,0.0,0.0
1.988,6847.171,0.00015,0.0,0.0
1.994,6887.144,0.00015,0.0,0.0
2.001,6872.213,0.00015,0.0,0.0
2.007,6912.671,0.00014,0.0,0.0
2.013,6883.544,0.00015,0.0,0.0
2.02,6900.456,0.00014,0.0,0.0
2.026,6916.996,0.00014,0.0,0.0
2.032,6942.606,0.00014,0.0,0.0
2.039,6911.475,0.00014,0.0,0.0
2.045,6937.521,0.00014,0.0,0.0
2.051,6898.784,0.00014,0.0,0.0
2.058,6946.861,0.00014,0.0,0.0
2.064,6979.953,0.00014,0.0,0.0
2.07,6941.584,0.00014,0.0,0.0
2.077,6955.661,0.00014,0.0,0.0
2.083,6991.171,0.00014,0.0,0.0
2.089,6970.049,0.00014,0.0,0.0
2.096,6981.948,0.00014,0.0,0.0
2.102,6986.138,0.00014,0.0,0.0
2.108,7032.589,0.00014,0.0,0.0
2.115,7030.814,0.00014,0.0,0.0
2.121,7015.898,0.00014,0.0,0.0
2.127,7048.433,0.00014,0.0,0.0
2.134,7059.484,0.00014,0.0,0.0
2.14,7066.422,0.00014,0.0,0.0
2.146,7097.04,0.00014,0.0,0.0
2.152,7108.96,0.00014,0.0,0.0
2.159,7126.5,0.00014,0.0,0.0
2.165,7122.521,0.00014,0.0,0.0
2.171,7151.101,0.00014,0.0,0.0
2.178,7165.661,0.00014,0.0,0.0
2.184,7174.292,0.00014,0.0,0.0
2.19,7180.636,0.00014,0.0,0.0
2.197,7176.72,0.00014,0.0,0.0
2.203,7229.132,0.00014,0.0,0.0
2.209,7240.872,0.00014,0.0,0.0
2.216,7271.932,0.00014,0.0,0.0
2.222,7283.783,0.00014,0.0,0.0
2.228,7325.591,0.00014,0.0,0.0
2.235,7341.218,0.00014,0.0,0.0
2.241,7330.543,0.00014,0.0,0.0
2.247,7345.498,0.00014,0.0,0.0
2.254,7393.944,0.00014,0.0,0.0
2.26,7423.571,0.00013,0.0,0.0
2.266,7457.331,0.00013,0.0,0.0
2.273,7505.503,0.00013,0.0,0.0
2.279,7471.999,0.00013,0.0,0.0
2.285,7550.195,0.00013,0.0,0.0
2.292,7534.854,0.00013,0.0,0.0
2.298,7582.162,0.00013,0.0,0.0
2.304,7594.327,0.00013,0.0,0.0
2.31,7656.782,0.00013,0.0,0.0
2.317,7663.814,0.00013,0.0,0.0
2.323,7684.23,0.00013,0.0,0.0
2.329,7717.841,0.00013,0.0,0.0
2.336,7728.197,0.00013,0.0,0.0
2.342,7756.077,0.00013,0.0,0.0
2.348,7794.056,0.00013,0.0,0.0
2.355,7818.318,0.00013,0.0,0.0
2.361,7872.978,0.00013,0.0,0.0
2.367,7907.51,0.00013,0.0,0.0
2.374,7929.05,0.00013,0.0,0.0
2.38,7993.969,0.00013,0.0,0.0
2.386,8013.54,0.00012,0.0,0.0
2.393,8050.155,0.00012,0.0,0.0
2.399,8065.695,0.00012,0.0,0.0
2.405,8127.539,0.00012,0.0,0.0
2.412,8166.952,0.00012,0.0,0.0
2.418,8213.789,0.00012,0.0,0.0
2.424,8222.446,0.00012,0.0,0.0
2.431,8341.123,0.00012,0.0,0.0
2.437,8375.301,0.00012,0.0,0.0
2.443,8415.944,0.00012,0.0,0.0
2.45,8482.277,0.00012,0.0,0.0
2.456,8519.079,0.00012,0.0,0.0
2.462,8606.987,0.00012,0.0,0.0
2.468,8673.004,0.00012,0.0,0.0
2.475,8686.903,0.00012,0.0,0.0
2.481,8842.707,0.00011,0.0,0.0
2.487,8883.357,0.00011,0.0,0.0
2.494,8910.929,0.00011,0.0,0.0
2.5,9043.421,0.00011,0.0,0.0
2.506,9080.177,0.00011,0.0,0.0
2.513,9197.339,0.00011,0.0,0.0
2.519,9250.34,0.00011,0.0,0.0
2.525,9293.666,0.00011,0.0,0.0
2.532,9367.834,0.00011,0.0,0.0
2.538,9454.908,0.00011,0.0,0.0
2.544,9420.58,0.00011,0.0,0.0
2.551,9580.256,0.0001,0.0,0.0
2.557,9500.355,0.00011,0.0,0.0
2.563,9575.732,0.0001,0.0,0.0
2.57,9555.099,0.0001,0.0,0.0
2.576,9520.841,0.00011,0.0,0.0
2.582,9541.622,0.0001,0.0,0.0
2.589,9507.604,0.00011,0.0,0.0
2.595,9478.708,0.00011,0.0,0.0
2.601,9475.974,0.00011,0.0,0.0
2.608,9458.767,0.00011,0.0,0.0
2.614,9432.064,0.00011,0.0,0.0
2.62,9452.16,0.00011,0.0,0.0
2.626,9428.804,0.00011,0.0,0.0
2.633,9468.21,0.00011,0.0,0.0
2.639,9468.904,0.00011,0.0,0.0
2.645,9504.145,0.00011,0.0,0.0
2.652,9503.072,0.00011,0.0,0.0
2.658,9475.017,0.00011,0.0,0.0
2.664,9531.866,0.0001,0.0,0.0
2.671,9559.52,0.0001,0.0,0.0
2.677,9570.729,0.0001,0.0,0.0
2.683,9596.268,0.0001,0.0,0.0
2.69,9622.91,0.0001,0.0,0.0
2.696,9637.729,0.0001,0.0,0.0
2.702,9710.342,0.0001,0.0,0.0
2.709,9725.288,0.0001,0.0,0.0
2.715,9764.144,0.0001,0.0,0.0
2.721,9797.587,0.0001,0.0,0.0
2.728,9855.492,0.0001,0.0,0.0
2.734,9856.742,0.0001,0.0,0.0
2.74,9916.683,0.0001,0.0,0.0
2.747,9958.331,0.0001,0.0,0.0
2.753,9967.913,0.0001,0.0,0.0
2.759,10009.394,0.0001,0.0,0.0
2.766,10046.603,0.0001,0.0,0.0
2.772,10054.61,0.0001,0.0,0.0
2.778,10063.68,0.0001,0.0,0.0
2.784,10120.672,0.0001,0.0,0.0
2.791,10149.854,0.0001,0.0,0.0
2.797,10149.779,0.0001,0.0,0.0
2.803,10178.578,0.0001,0.0,0.0
2.81,10194.092,0.0001,0.0,0.0
2.816,10220.997,0.0001,0.0,0.0
2.822,10217.979,0.0001,0.0,0.0
2.829,10282.999,0.0001,0.0,0.0
2.835,10284.498,0.0001,0.0,0.0
2.841,10300.267,0.0001,0.0,0.0
2.848,10325.457,0.0001,0.0,0.0
2.854,10344.9,0.0001,0.0,0.0
2.86,10379.796,0.0001,0.0,0.0
2.867,10378.554,0.0001,0.0,0.0
2.873,10394.729,0.0001,0.0,0.0
2.879,10429.237,0.0001,0.0,0.0
2.886,10475.926,0.0001,0.0,0.0
2.892,10484.942,0.0001,0.0,0.0
2.898,10472.954,0.0001,0.0,0.0
2.905,10538.134,0.00009,0.0,0.0
2.911,10570.815,0.00009,0.0,0.0
2.917,10574.575,0.00009,0.0,0.0
2.924,10572.359,0.00009,0.0,0.0
2.93,10598.119,0.00009,0.0,0.0
2.936,10604.788,0.00009,0.0,0.0
2.942,10622.746,0.00009,0.0,0.0
2.949,10692.678,0.00009,0.0,0.0
2.955,10691.0,0.00009,0.0,0.0
2.961,10730.82,0.00009,0.0,0.0
2.968,10736.56,0.00009,0.0,0.0
2.974,10756.334,0.00009,0.0,0.0
2.98,10754.502,0.00009,0.0,0.0
2.987,10753.141,0.00009,0.0,0.0
2.993,10781.271,0.00009,0.0,0.0
2.999,10832.393,0.00009,0.0,0.0
3.006,10808.185,0.00009,0.0,0.0
3.012,10838.363,0.00009,0.0,0.0
3.018,10826.39,0.00009,0.0,0.0
3.025,10851.778,0.00009,0.0,0.0
3.031,10852.7,0.00009,0.0,0.0
3.037,10857.95,0.00009,0.0,0.0
3.044,10857.06,0.00009,0.0,0.0
3.05,10874.882,0.00009,0.0,0.0
3.056,10881.875,0.00009,0.0,0.0
3.063,10869.123,0.00009,0.0,0.0
3.069,10871.251,0.00009,0.0,0.0
3.075,10873.632,0.00009,0.0,0.0
3.082,10875.563,0.00009,0.0,0.0
3.088,10891.347,0.00009,0.0,0.0
3.094,10874.208,0.00009,0.0,0.0
3.1,10890.948,0.00009,0.0,0.0
3.107,10846.57,0.00009,0.0,0.0
3.113,10859.612,0.00009,0.0,0.0
3.119,10888.572,0.00009,0.0,0.0
3.126,10857.664,0.00009,0.0,0.0
3.132,10866.175,0.00009,0.0,0.0
3.138,10836.417,0.00009,0.0,0.0
3.145,10838.487,0.00009,0.0,0.0
3.151,10823.756,0.00009,0.0,0.0
3.157,10780.276,0.00009,0.0,0.0
3.164,10781.291,0.00009,0.0,0.0
3.17,10775.153,0.00009,0.0,0.0
3.176,10753.352,0.00009,0.0,0.0
3.183,10709.702,0.00009,0.0,0.0
3.189,10701.825,0.00009,0.0,0.0
3.195,10703.681,0.00009,0.0,0.0
3.202,10708.59,0.00009,0.0,0.0
3.208,10644.388,0.00009,0.0,0.0
3.214,10663.288,0.00009,0.0,0.0
3.221,10617.172,0.00009,0.0,0.0
3.227,10604.955,0.00009,0.0,0.0
3.233,10579.658,0.00009,0.0,0.0
3.24,10562.22,0.00009,0.0,0.0
3.246,10523.88,0.0001,0.0,0.0
3.252,10531.819,0.00009,0.0,0.0
3.258,10487.877,0.0001,0.0,0.0
3.265,10462.537,0.0001,0.0,0.0
3.271,10476.067,0.0001,0.0,0.0
3.277,10394.344,0.0001,0.0,0.0
3.284,10427.884,0.0001,0.0,0.0
3.29,10349.604,0.0001,0.0,0.0
3.296,10345.146,0.0001,0.0,0.0
3.303,10322.798,0.0001,0.0,0.0
3.309,10295.334,0.0001,0.0,0.0
3.315,10272.935,0.0001,0.0,0.0
3.322,10247.963,0.0001,0.0,0.0
3.328,10232.839,0.0001,0.0,0.0
3.334,10206.5,0.0001,0.0,0.0
3.341,10193.842,0.0001,0.0,0.0
3.347,10145.609,0.0001,0.0,0.0
3.353,10148.676,0.0001,0.0,0.0
3.36,10084.567,0.0001,0.0,0.0
3.366,10093.535,0.0001,0.0,0.0
3.372,10075.004,0.0001,0.0,0.0
3.379,10027.283,0.0001,0.0,0.0
3.385,10006.078,0.0001,0.0,0.0
3.391,9979.772,0.0001,0.0,0.0
3.398,9956.156,0.0001,0.0,0.0
3.404,9951.496,0.0001,0.0,0.0
3.41,9900.714,0.0001,0.0,0.0
3.416,9892.092,0.0001,0.0,0.0
3.423,9880.733,0.0001,0.0,0.0
3.429,9853.531,0.0001,0.0,0.0
3.435,9836.533,0.0001,0.0,0.0
3.442,9834.668,0.0001,0.0,0.0
3.448,9765.221,0.0001,0.0,0.0
3.454,9796.765,0.0001,0.0,0.0
3.461,9733.002,0.0001,0.0,0.0
3.467,9746.596,0.0001,0.0,0.0
3.473,9711.974,0.0001,0.0,0.0
3.48,9712.084,0.0001,0.0,0.0
3.486,9693.499,0.0001,0.0,0.0
3.492,9650.434,0.0001,0.0,0.0
3.499,9646.297,0.0001,0.0,0.0
3.505,9650.591,0.0001,0.0,0.0
3.511,9604.129,0.0001,0.0,0.0
3.518,9556.369,0.0001,0.0,0.0
3.524,9598.725,0.0001,0.0,0.0
3.53,9557.341,0.0001,0.0,0.0
3.537,9543.417,0.0001,0.0,0.0
3.543,9542.64,0.0001,0.0,0.0
3.549,9499.632,0.00011,0.0,0.0
3.556,9508.883,0.00011,0.0,0.0
3.562,9473.986,0.00011,0.0,0.0
3.568,9478.214,0.00011,0.0,0.0
3.574,9469.408,0.00011,0.0,0.0
3.581,9440.486,0.00011,0.0,0.0
3.587,9431.414,0.00011,0.0,0.0
3.593,9429.909,0.00011,0.0,0.0
3.6,9431.69,0.00011,0.0,0.0
3.606,9440.388,0.00011,0.0,0.0
3.612,9383.091,0.00011,0.0,0.0
3.619,9400.2,0.00011,0.0,0.0
3.625,9405.918,0.00011,0.0,0.0
3.631,9402.934,0.00011,0.0,0.0
3.638,9363.97,0.00011,0.0,0.0
3.644,9399.121,0.00011,0.0,0.0
3.65,9383.285,0.00011,0.0,0.0
3.657,9363.946,0.00011,0.0,0.0
3.663,9362.105,0.00011,0.0,0.0
3.669,9368.234,0.00011,0.0,0.0
3.676,9383.397,0.00011,0.0,0.0
3.682,9385.715,0.00011,0.0,0.0
3.688,9401.937,0.00011,0.0,0.0
3.695,9400.532,0.00011,0.0,0.0
3.701,9409.636,0.00011,0.0,0.0
3.707,9433.423,0.00011,0.0,0.0
3.714,9445.355,0.00011,0.0,0.0
3.72,9474.207,0.00011,0.0,0.0
3.726,9482.016,0.00011,0.0,0.0
3.732,9510.383,0.00011,0.0,0.0
3.739,9554.018,0.0001,0.0,0.0
3.745,9538.13,0.0001,0.0,0.0
3.751,9579.872,0.0001,0.0,0.0
3.758,9626.852,0.0001,0.0,0.0
3.764,9637.426,0.0001,0.0,0.0
3.77,9694.768,0.0001,0.0,0.0
3.777,9725.962,0.0001,0.0,0.0
3.783,9740.765,0.0001,0.0,0.0
3.789,9811.28,0.0001,0.0,0.0
3.796,9860.909,0.0001,0.0,0.0
3.802,9908.348,0.0001,0.0,0.0
3.808,10023.784,0.0001,0.0,0.0
3.815,10005.953,0.0001,0.0,0.0
3.821,10059.837,0.0001,0.0,0.0
3.827,10099.096,0.0001,0.0,0.0
3.834,10150.2,0.0001,0.0,0.0
3.84,10203.375,0.0001,0.0,0.0
3.846,10291.509,0.0001,0.0,0.0
3.853,10311.68,0.0001,0.0,0.0
3.859,10371.297,0.0001,0.0,0.0
3.865,10421.825,0.0001,0.0,0.0
3.872,10473.055,0.0001,0.0,0.0
3.878,10481.77,0.0001,0.0,0.0
3.884,10515.35,0.0001,0.0,0.0
3.89,10572.6,0.00009,0.0,0.0
3.897,10565.781,0.00009,0.0,0.0
3.903,10577.822,0.00009,0.0,0.0
3.909,10613.576,0.00009,0.0,0.0
3.916,10598.382,0.00009,0.0,0.0
3.922,10572.883,0.00009,0.0,0.0
3.928,10616.675,0.00009,0.0,0.0
3.935,10572.245,0.00009,0.0,0.0
3.941,10566.342,0.00009,0.0,0.0
3.947,10559.072,0.00009,0.0,0.0
3.954,10499.157,0.0001,0.0,0.0
3.96,10489.57,0.0001,0.0,0.0
3.966,10436.602,0.0001,0.0,0.0
3.973,10419.707,0.0001,0.0,0.0
3.979,10342.892,0.0001,0.0,0.0
3.985,10297.188,0.0001,0.0,0.0
3.992,10252.271,0.0001,0.0,0.0
3.998,10202.414,0.0001,0.0,0.0
4.004,10105.942,0.0001,0.0,0.0
4.011,10078.927,0.0001,0.0,0.0
4.017,10007.248,0.0001,0.0,0.0
4.023,9933.752,0.0001,0.0,0.0
4.03,9879.761,0.0001,0.0,0.0
4.036,9794.394,0.0001,0.0,0.0
4.042,9775.489,0.0001,0.0,0.0
4.048,9705.633,0.0001,0.0,0.0
4.055,9608.78,0.0001,0.0,0.0
4.061,9583.3,0.0001,0.0,0.0
4.067,9558.804,0.0001,0.0,0.0
4.074,9458.019,0.00011,0.0,0.0
4.08,9420.959,0.00011,0.0,0.0
4.086,9366.955,0.00011,0.0,0.0
4.093,9359.489,0.00011,0.0,0.0
4.099,9268.078,0.00011,0.0,0.0
4.105,9248.403,0.00011,0.0,0.0
4.112,9183.491,0.00011,0.0,0.0
4.118,9190.741,0.00011,0.0,0.0
4.124,9122.518,0.00011,0.0,0.0
4.131,9108.676,0.00011,0.0,0.0
4.137,9056.436,0.00011,0.0,0.0
4.143,9036.782,0.00011,0.0,0.0
4.15,9026.739,0.00011,0.0,0.0
4.156,8973.764,0.00011,0.0,0.0
4.162,8977.527,0.00011,0.0,0.0
4.169,8933.242,0.00011,0.0,0.0
4.175,8936.309,0.00011,0.0,0.0
4.181,8900.229,0.00011,0.0,0.0
4.188,8886.809,0.00011,0.0,0.0
4.194,8885.38,0.00011,0.0,0.0
4.2,8876.091,0.00011,0.0,0.0
4.206,8853.001,0.00011,0.0,0.0
4.213,8843.18,0.00011,0.0,0.0
4.219,8792.465,0.00011,0.0,0.0
4.225,8813.061,0.00011,0.0,0.0
4.232,8789.704,0.00011,0.0,0.0
4.238,8733.738,0.00011,0.0,0.0
4.244,8776.659,0.00011,0.0,0.0
4.251,8757.276,0.00011,0.0,0.0
4.257,8726.779,0.00011,0.0,0.0
4.263,8705.474,0.00011,0.0,0.0
4.27,8692.456,0.00012,0.0,0.0
4.276,8708.08,0.00011,0.0,0.0
4.282,8714.96,0.00011,0.0,0.0
4.289,8665.34,0.00012,0.0,0.0
4.295,8687.41,0.00012,0.0,0.0
4.301,8656.718,0.00012,0.0,0.0
4.308,8689.362,0.00012,0.0,0.0
4.314,8671.835,0.00012,0.0,0.0
4.32,8653.079,0.00012,0.0,0.0
4.327,8636.483,0.00012,0.0,0.0
4.333,8649.739,0.00012,0.0,0.0
4.339,8652.08,0.00012,0.0,0.0
4.346,8670.05,0.00012,0.0,0.0
4.352,8630.169,0.00012,0.0,0.0
4.358,8645.308,0.00012,0.0,0.0
4.364,8650.894,0.00012,0.0,0.0
4.371,8644.135,0.00012,0.0,0.0
4.377,8584.922,0.00012,0.0,0.0
4.383,8640.227,0.00012,0.0,0.0
4.39,8662.814,0.00012,0.0,0.0
4.396,8636.929,0.00012,0.0,0.0
4.402,8684.75,0.00012,0.0,0.0
4.409,8648.037,0.00012,0.0,0.0
4.415,8687.214,0.00012,0.0,0.0
4.421,8696.415,0.00011,0.0,0.0
4.428,8700.906,0.00011,0.0,0.0
4.434,8682.013,0.00012,0.0,0.0
4.44,8752.986,0.00011,0.0,0.0
4.447,8732.639,0.00011,0.0,0.0
4.453,8823.304,0.00011,0.0,0.0
4.459,8734.463,0.00011,0.0,0.0
4.466,8886.528,0.00011,0.0,0.0
4.472,8901.501,0.00011,0.0,0.0
4.478,9068.033,0.00011,0.0,0.0
4.485,9140.806,0.00011,0.0,0.0
4.491,9371.364,0.00011,0.0,0.0
4.497,9656.938,0.0001,0.0,0.0
4.504,9993.078,0.0001,0.0,0.0
4.51,10817.812,0.00009,0.0,0.0
4.516,11303.18,0.00009,0.0,0.0
4.522,15550.633,0.00006,0.0,0.0
4.529,18103.793,0.00006,0.0,0.0
4.535,26987.115,0.00004,0.0,0.0
4.541,42596.181,0.00002,0.0,0.0
4.548,49478.56,0.00002,0.0,0.0
4.554,58265.168,0.00002,0.0,0.0
4.56,61527.448,0.00002,0.0,0.0
4.567,49419.553,0.00002,0.0,0.0
4.573,49104.497,0.00002,0.0,0.0
4.579,33369.365,0.00003,0.0,0.0
4.586,30585.492,0.00003,0.0,0.0
4.592,22383.487,0.00004,0.0,0.0
4.598,18016.864,0.00006,0.0,0.0
4.605,15693.618,0.00006,0.0,0.0
4.611,13773.974,0.00007,0.0,0.0
4.617,10715.906,0.00009,0.0,0.0
4.624,10048.174,0.0001,0.0,0.0
4.63,9756.699,0.0001,0.0,0.0
4.636,9341.724,0.00011,0.0,0.0
4.643,9036.275,0.00011,0.0,0.0
4.649,8790.992,0.00011,0.0,0.0
4.655,8747.17,0.00011,0.0,0.0
4.662,8503.074,0.00012,0.0,0.0
4.668,8515.332,0.00012,0.0,0.0
4.674,8340.648,0.00012,0.0,0.0
4.68,8375.115,0.00012,0.0,0.0
4.687,8288.055,0.00012,0.0,0.0
4.693,8275.234,0.00012,0.0,0.0
4.699,8209.628,0.00012,0.0,0.0
4.706,8162.82,0.00012,0.0,0.0
4.712,8129.979,0.00012,0.0,0.0
4.718,8111.006,0.00012,0.0,0.0
4.725,8073.874,0.00012,0.0,0.0
4.731,7990.713,0.00013,0.0,0.0
4.737,7977.065,0.00013,0.0,0.0
4.744,7943.187,0.00013,0.0,0.0
4.75,7900.778,0.00013,0.0,0.0
4.756,7857.903,0.00013,0.0,0.0
4.763,7877.375,0.00013,0.0,0.0
4.769,7757.961,0.00013,0.0,0.0
4.775,7794.412,0.00013,0.0,0.0
4.782,7716.207,0.00013,0.0,0.0
4.788,7701.75,0.00013,0.0,0.0
4.794,7662.615,0.00013,0.0,0.0
4.801,7618.137,0.00013,0.0,0.0
4.807,7571.582,0.00013,0.0,0.0
4.813,7583.137,0.00013,0.0,0.0
4.82,7519.072,0.00013,0.0,0.0
4.826,7536.701,0.00013,0.0,0.0
4.832,7441.415,0.00013,0.0,0.0
4.838,7445.709,0.00013,0.0,0.0
4.845,7464.237,0.00013,0.0,0.0
4.851,7377.878,0.00014,0.0,0.0
4.857,7386.929,0.00014,0.0,0.0
4.864,7333.261,0.00014,0.0,0.0
4.87,7312.591,0.00014,0.0,0.0
4.876,7301.974,0.00014,0.0,0.0
4.883,7283.548,0.00014,0.0,0.0
4.889,7207.474,0.00014,0.0,0.0
4.895,7248.179,0.00014,0.0,0.0
4.902,7147.241,0.00014,0.0,0.0
4.908,7177.569,0.00014,0.0,0.0
4.914,7135.269,0.00014,0.0,0.0
4.921,7142.86,0.00014,0.0,0.0
4.927,7120.767,0.00014,0.0,0.0
4.933,7055.675,0.00014,0.0,0.0
4.94,7036.244,0.00014,0.0,0.0
4.946,7057.753,0.00014,0.0,0.0
4.952,6997.542,0.00014,0.0,0.0
4.959,6972.335,0.00014,0.0,0.0
4.965,6977.571,0.00014,0.0,0.0
4.971,6939.434,0.00014,0.0,0.0
4.978,6947.003,0.00014,0.0,0.0
4.984,6886.227,0.00015,0.0,0.0
4.99,6898.055,0.00014,0.0,0.0
4.996,6866.299,0.00015,0.0,0.0
5.003,6859.5,0.00015,0.0,0.0
5.009,6829.517,0.00015,0.0,0.0
5.015,6831.554,0.00015,0.0,0.0
5.022,6815.748,0.00015,0.0,0.0
5.028,6799.285,0.00015,0.0,0.0
5.034,6781.802,0.00015,0.0,0.0
5.041,6735.391,0.00015,0.0,0.0
5.047,6746.506,0.00015,0.0,0.0
5.053,6722.032,0.00015,0.0,0.0
5.06,6726.063,0.00015,0.0,0.0
5.066,6670.423,0.00015,0.0,0.0
5.072,6680.024,0.00015,0.0,0.0
5.079,6667.848,0.00015,0.0,0.0
5.085,6669.128,0.00015,0.0,0.0
5.091,6627.926,0.00015,0.0,0.0
5.098,6641.509,0.00015,0.0,0.0
5.104,6595.575,0.00015,0.0,0.0
5.11,6609.468,0.00015,0.0,0.0
5.117,6571.979,0.00015,0.0,0.0
5.123,6580.073,0.00015,0.0,0.0
5.129,6582.484,0.00015,0.0,0.0
5.136,6558.128,0.00015,0.0,0.0
5.142,6552.494,0.00015,0.0,0.0
5.148,6526.349,0.00015,0.0,0.0
5.154,6529.244,0.00015,0.0,0.0
5.161,6496.292,0.00015,0.0,0.0
5.167,6497.556,0.00015,0.0,0.0
5.173,6453.527,0.00015,0.0,0.0
5.18,6477.175,0.00015,0.0,0.0
5.186,6379.235,0.00016,0.0,0.0
5.192,6409.891,0.00016,0.0,0.0
5.199,6348.364,0.00016,0.0,0.0
5.205,6345.053,0.00016,0.0,0.0
5.211,6340.32,0.00016,0.0,0.0
5.218,6298.216,0.00016,0.0,0.0
5.224,6318.924,0.00016,0.0,0.0
5.23,6300.17,0.00016,0.0,0.0
5.237,6271.155,0.00016,0.0,0.0
5.243,6260.679,0.00016,0.0,0.0
5.249,6244.563,0.00016,0.0,0.0
5.256,6192.256,0.00016,0.0,0.0
5.262,6226.438,0.00016,0.0,0.0
5.268,6190.174,0.00016,0.0,0.0
5.275,6168.236,0.00016,0.0,0.0
5.281,6169.45,0.00016,0.0,0.0
5.287,6136.826,0.00016,0.0,0.0
5.294,6129.366,0.00016,0.0,0.0
5.3,6115.297,0.00016,0.0,0.0
5.306,6114.722,0.00016,0.0,0.0
5.312,6084.761,0.00016,0.0,0.0
5.319,6089.456,0.00016,0.0,0.0
5.325,6074.702,0.00016,0.0,0.0
5.331,6087.751,0.00016,0.0,0.0
5.338,6036.692,0.00017,0.0,0.0
5.344,6075.773,0.00016,0.0,0.0
5.35,6012.914,0.00017,0.0,0.0
5.357,6044.855,0.00017,0.0,0.0
5.363,6037.114,0.00017,0.0,0.0
5.369,6012.146,0.00017,0.0,0.0
5.376,6010.643,0.00017,0.0,0.0
5.382,6014.356,0.00017,0.0,0.0
5.388,5969.317,0.00017,0.0,0.0
5.395,5997.711,0.00017,0.0,0.0
5.401,5965.709,0.00017,0.0,0.0
5.407,5989.32,0.00017,0.0,0.0
5.414,6001.847,0.00017,0.0,0.0
5.42,5942.43,0.00017,0.0,0.0
5.426,5958.965,0.00017,0.0,0.0
5.433,5934.678,0.00017,0.0,0.0
5.439,5924.87,0.00017,0.0,0.0
5.445,5943.938,0.00017,0.0,0.0
5.452,5935.691,0.00017,0.0,0.0
5.458,5885.631,0.00017,0.0,0.0
5.464,5969.672,0.00017,0.0,0.0
5.47,5915.877,0.00017,0.0,0.0
5.477,5957.78,0.00017,0.0,0.0
5.483,5920.514,0.00017,0.0,0.0
5.489,5928.905,0.00017,0.0,0.0
5.496,5924.271,0.00017,0.0,0.0
5.502,5932.618,0.00017,0.0,0.0
5.508,5947.912,0.00017,0.0,0.0
5.515,5927.726,0.00017,0.0,0.0
5.521,5922.535,0.00017,0.0,0.0
5.527,5897.372,0.00017,0.0,0.0
5.534,5935.257,0.00017,0.0,0.0
5.54,5902.888,0.00017,0.0,0.0
5.546,5960.086,0.00017,0.0,0.0
5.553,5894.405,0.00017,0.0,0.0
5.559,5923.492,0.00017,0.0,0.0
5.565,5897.988,0.00017,0.0,0.0
5.572,5935.645,0.00017,0.0,0.0
5.578,5921.035,0.00017,0.0,0.0
5.584,5940.475,0.00017,0.0,0.0
5.591,5934.914,0.00017,0.0,0.0
5.597,5934.697,0.00017,0.0,0.0
5.603,5964.624,0.00017,0.0,0.0
5.61,5939.131,0.00017,0.0,0.0
5.616,5946.563,0.00017,0.0,0.0
5.622,5920.955,0.00017,0.0,0.0
5.628,5963.136,0.00017,0.0,0.0
5.635,5923.227,0.00017,0.0,0.0
5.641,5969.625,0.00017,0.0,0.0
5.647,5934.425,0.00017,0.0,0.0
5.654,5974.46,0.00017,0.0,0.0
5.66,5938.112,0.00017,0.0,0.0
5.666,6016.476,0.00017,0.0,0.0
5.673,5948.841,0.00017,0.0,0.0
5.679,6012.704,0.00017,0.0,0.0
5.685,5987.572,0.00017,0.0,0.0
5.692,6003.874,0.00017,0.0,0.0
5.698,6030.272,0.00017,0.0,0.0
5.704,6019.702,0.00017,0.0,0.0
5.711,6066.549,0.00016,0.0,0.0
5.717,6040.731,0.00017,0.0,0.0
5.723,6070.651,0.00016,0.0,0.0
5.73,6071.287,0.00016,0.0,0.0
5.736,6110.173,0.00016,0.0,0.0
5.742,6091.164,0.00016,0.0,0.0
5.749,6182.34,0.00016,0.0,0.0
5.755,6093.601,0.00016,0.0,0.0
5.761,6196.654,0.00016,0.0,0.0
5.768,6172.299,0.00016,0.0,0.0
5.774,6206.881,0.00016,0.0,0.0
5.78,6214.21,0.00016,0.0,0.0
5.786,6230.304,0.00016,0.0,0.0
5.793,6274.217,0.00016,0.0,0.0
5.799,6262.414,0.00016,0.0,0.0
5.805,6311.307,0.00016,0.0,0.0
5.812,6278.451,0.00016,0.0,0.0
5.818,6344.965,0.00016,0.0,0.0
5.824,6276.897,0.00016,0.0,0.0
5.831,6387.119,0.00016,0.0,0.0
5.837,6300.982,0.00016,0.0,0.0
5.843,6400.371,0.00016,0.0,0.0
5.85,6360.515,0.00016,0.0,0.0
5.856,6453.213,0.00015,0.0,0.0
5.862,6456.796,0.00015,0.0,0.0
5.869,6488.038,0.00015,0.0,0.0
5.875,6542.442,0.00015,0.0,0.0
5.881,6490.454,0.00015,0.0,0.0
5.888,6472.342,0.00015,0.0,0.0
5.894,6388.933,0.00016,0.0,0.0
5.9,6352.411,0.00016,0.0,0.0
5.907,6211.814,0.00016,0.0,0.0
5.913,6289.243,0.00016,0.0,0.0
5.919,6113.12,0.00016,0.0,0.0
5.926,6197.477,0.00016,0.0,0.0
5.932,6041.253,0.00017,0.0,0.0
5.938,6148.02,0.00016,0.0,0.0
5.944,5994.209,0.00017,0.0,0.0
5.951,6124.913,0.00016,0.0,0.0
5.957,6055.278,0.00017,0.0,0.0
5.963,6019.808,0.00017,0.0,0.0
5.97,6060.878,0.00016,0.0,0.0
5.976,5969.404,0.00017,0.0,0.0
5.982,6015.507,0.00017,0.0,0.0
5.989,5950.842,0.00017,0.0,0.0
5.995,6052.093,0.00017,0.0,0.0
6.001,5934.382,0.00017,0.0,0.0
6.008,6030.6,0.00017,0.0,0.0
6.014,5928.646,0.00017,0.0,0.0
6.02,6042.387,0.00017,0.0,0.0
6.027,5876.489,0.00017,0.0,0.0
6.033,6089.563,0.00016,0.0,0.0
6.039,5903.125,0.00017,0.0,0.0
6.046,6047.847,0.00017,0.0,0.0
6.052,5980.469,0.00017,0.0,0.0
6.058,5965.219,0.00017,0.0,0.0
6.065,6022.525,0.00017,0.0,0.0
6.071,5972.886,0.00017,0.0,0.0
6.077,6044.826,0.00017,0.0,0.0
6.084,5944.858,0.00017,0.0,0.0
6.09,6079.688,0.00016,0.0,0.0
6.096,5906.637,0.00017,0.0,0.0
6.102,6146.196,0.00016,0.0,0.0
6.109,5901.482,0.00017,0.0,0.0
6.115,6231.224,0.00016,0.0,0.0
6.121,5912.431,0.00017,0.0,0.0
6.128,6274.459,0.00016,0.0,0.0
6.134,6054.897,0.00017,0.0,0.0
6.14,6152.714,0.00016,0.0,0.0
6.147,6149.717,0.00016,0.0,0.0
6.153,6165.721,0.00016,0.0,0.0
6.159,6240.057,0.00016,0.0,0.0
6.166,6175.624,0.00016,0.0,0.0
6.172,6312.062,0.00016,0.0,0.0
6.178,6097.956,0.00016,0.0,0.0
6.185,6420.777,0.00016,0.0,0.0
6.191,6107.619,0.00016,0.0,0.0
6.197,6600.762,0.00015,0.0,0.0
6.204,6114.137,0.00016,0.0,0.0
6.21,6649.564,0.00015,0.0,0.0
6.216,6142.224,0.00016,0.0,0.0
6.223,6829.853,0.00015,0.0,0.0
6.229,6341.912,0.00016,0.0,0.0
6.235,6736.89,0.00015,0.0,0.0
6.242,6675.043,0.00015,0.0,0.0
6.248,6609.454,0.00015,0.0,0.0
6.254,6911.375,0.00014,0.0,0.0
6.26,6494.85,0.00015,0.0,0.0
6.267,7058.016,0.00014,0.0,0.0
6.273,6528.94,0.00015,0.0,0.0
6.279,7341.784,0.00014,0.0,0.0
6.286,6618.085,0.00015,0.0,0.0
6.292,7386.313,0.00014,0.0,0.0
6.298,6690.349,0.00015,0.0,0.0
6.305,7654.593,0.00013,0.0,0.0
6.311,6733.104,0.00015,0.0,0.0
6.317,7729.581,0.00013,0.0,0.0
6.324,7200.014,0.00014,0.0,0.0
6.33,7713.861,0.00013,0.0,0.0
6.336,7501.912,0.00013,0.0,0.0
6.343,7876.345,0.00013,0.0,0.0
6.349,8212.379,0.00012,0.0,0.0
6.355,8131.894,0.00012,0.0,0.0
6.362,9548.767,0.0001,0.0,0.0
6.368,7983.888,0.00013,0.0,0.0
6.374,11537.101,0.00009,0.0,0.0
6.381,8220.788,0.00012,0.0,0.0
6.387,16219.534,0.00006,0.0,0.0
6.393,7642.923,0.00013,0.0,0.0
6.4,19669.693,0.00005,0.0,0.0
6.406,8617.723,0.00012,0.0,0.0
6.412,21120.744,0.00005,0.0,0.0
6.418,12889.393,0.00008,0.0,0.0
6.425,21397.679,0.00005,0.0,0.0
6.431,17859.933,0.00006,0.0,0.0
6.437,22811.183,0.00004,0.0,0.0
6.444,22853.675,0.00004,0.0,0.0
6.45,24391.93,0.00004,0.0,0.0
6.456,26591.399,0.00004,0.0,0.0
6.463,19841.102,0.00005,0.0,0.0
6.469,27442.058,0.00004,0.0,0.0
6.475,11126.066,0.00009,0.0,0.0
6.482,25478.13,0.00004,0.0,0.0
6.488,10684.719,0.00009,0.0,0.0
6.494,22797.788,0.00004,0.0,0.0
6.501,9433.026,0.00011,0.0,0.0
6.507,20188.623,0.00005,0.0,0.0
6.513,11355.335,0.00009,0.0,0.0
6.52,14929.81,0.00007,0.0,0.0
6.526,10876.992,0.00009,0.0,0.0
6.532,11625.871,0.00009,0.0,0.0
6.539,11222.577,0.00009,0.0,0.0
6.545,9122.695,0.00011,0.0,0.0
6.551,11234.233,0.00009,0.0,0.0
6.558,9126.706,0.00011,0.0,0.0
6.564,11553.929,0.00009,0.0,0.0
6.57,11202.208,0.00009,0.0,0.0
6.576,14984.142,0.00007,0.0,0.0
6.583,18348.762,0.00005,0.0,0.0
6.589,27996.765,0.00004,0.0,0.0
6.595,41138.518,0.00002,0.0,0.0
6.602,64350.276,0.00002,0.0,0.0
6.608,81038.001,0.00001,0.0,0.0
6.614,92587.726,0.00001,0.0,0.0
6.621,95210.581,0.00001,0.0,0.0
6.627,76116.153,0.00001,0.0,0.0
6.633,55444.331,0.00002,0.0,0.0
6.64,36523.731,0.00003,0.0,0.0
6.646,22487.567,0.00004,0.0,0.0
6.652,16323.173,0.00006,0.0,0.0
6.659,12786.885,0.00008,0.0,0.0
6.665,9726.082,0.0001,0.0,0.0
6.671,9565.963,0.0001,0.0,0.0
6.678,8202.609,0.00012,0.0,0.0
6.684,7830.747,0.00013,0.0,0.0
6.69,7572.285,0.00013,0.0,0.0
6.697,7176.794,0.00014,0.0,0.0
6.703,7190.008,0.00014,0.0,0.0
6.709,6720.311,0.00015,0.0,0.0
6.716,6931.924,0.00014,0.0,0.0
6.722,6456.448,0.00015,0.0,0.0
6.728,6718.014,0.00015,0.0,0.0
6.734,6310.664,0.00016,0.0,0.0
6.741,6632.931,0.00015,0.0,0.0
6.747,6167.134,0.00016,0.0,0.0
6.753,6520.276,0.00015,0.0,0.0
6.76,6223.092,0.00016,0.0,0.0
6.766,6331.534,0.00016,0.0,0.0
6.772,6201.845,0.00016,0.0,0.0
6.779,6158.512,0.00016,0.0,0.0
6.785,6226.119,0.00016,0.0,0.0
6.791,6048.374,0.00017,0.0,0.0
6.798,6211.371,0.00016,0.0,0.0
6.804,5952.326,0.00017,0.0,0.0
6.81,6158.821,0.00016,0.0,0.0
6.817,5888.185,0.00017,0.0,0.0
6.823,6155.018,0.00016,0.0,0.0
6.829,5849.496,0.00017,0.0,0.0
6.836,6104.009,0.00016,0.0,0.0
6.842,5845.645,0.00017,0.0,0.0
6.848,6048.384,0.00017,0.0,0.0
6.855,5913.818,0.00017,0.0,0.0
6.861,5903.658,0.00017,0.0,0.0
6.867,5934.341,0.00017,0.0,0.0
6.874,5835.183,0.00017,0.0,0.0
6.88,5902.327,0.00017,0.0,0.0
6.886,5815.27,0.00017,0.0,0.0
6.892,5897.43,0.00017,0.0,0.0
6.899,5756.476,0.00017,0.0,0.0
6.905,5896.883,0.00017,0.0,0.0
6.911,5757.497,0.00017,0.0,0.0
6.918,5875.93,0.00017,0.0,0.0
6.924,5738.637,0.00017,0.0,0.0
6.93,5887.309,0.00017,0.0,0.0
6.937,5786.025,0.00017,0.0,0.0
6.943,5787.086,0.00017,0.0,0.0
6.949,5825.625,0.00017,0.0,0.0
6.956,5782.233,0.00017,0.0,0.0
6.962,5801.732,0.00017,0.0,0.0
6.968,5752.523,0.00017,0.0,0.0
6.975,5812.544,0.00017,0.0,0.0
6.981,5733.517,0.00017,0.0,0.0
6.987,5803.731,0.00017,0.0,0.0
6.994,5733.24,0.00017,0.0,0.0
7.0,5839.658,0.00017,0.0,0.0
7.006,5734.546,0.00017,0.0,0.0
7.013,5835.703,0.00017,0.0,0.0
7.019,5744.999,0.00017,0.0,0.0
7.025,5806.171,0.00017,0.0,0.0
7.032,5787.919,0.00017,0.0,0.0
7.038,5766.089,0.00017,0.0,0.0
7.044,5781.226,0.00017,0.0,0.0
7.05,5750.068,0.00017,0.0,0.0
7.057,5820.04,0.00017,0.0,0.0
7.063,5762.537,0.00017,0.0,0.0
7.069,5832.533,0.00017,0.0,0.0
7.076,5779.311,0.00017,0.0,0.0
7.082,5844.481,0.00017,0.0,0.0
7.088,5784.648,0.00017,0.0,0.0
7.095,5883.178,0.00017,0.0,0.0
7.101,5813.126,0.00017,0.0,0.0
7.107,5879.084,0.00017,0.0,0.0
7.114,5888.48,0.00017,0.0,0.0
7.12,5882.205,0.00017,0.0,0.0
7.126,5900.44,0.00017,0.0,0.0
7.133,5914.994,0.00017,0.0,0.0
7.139,5927.391,0.00017,0.0,0.0
7.145,5914.88,0.00017,0.0,0.0
7.152,5976.972,0.00017,0.0,0.0
7.158,5945.478,0.00017,0.0,0.0
7.164,6012.992,0.00017,0.0,0.0
7.171,5969.133,0.00017,0.0,0.0
7.177,6019.996,0.00017,0.0,0.0
7.183,5983.979,0.00017,0.0,0.0
7.19,6060.42,0.00017,0.0,0.0
7.196,6050.465,0.00017,0.0,0.0
7.202,6042.907,0.00017,0.0,0.0
7.208,6070.534,0.00016,0.0,0.0
7.215,6051.157,0.00017,0.0,0.0
7.221,6097.377,0.00016,0.0,0.0
7.227,6077.24,0.00016,0.0,0.0
7.234,6125.369,0.00016,0.0,0.0
7.24,6100.737,0.00016,0.0,0.0
7.246,6129.28,0.00016,0.0,0.0
7.253,6095.341,0.00016,0.0,0.0
7.259,6137.713,0.00016,0.0,0.0
7.265,6081.757,0.00016,0.0,0.0
7.272,6135.836,0.00016,0.0,0.0
7.278,6107.064,0.00016,0.0,0.0
7.284,6120.551,0.00016,0.0,0.0
7.291,6083.883,0.00016,0.0,0.0
7.297,6086.365,0.00016,0.0,0.0
7.303,6062.514,0.00016,0.0,0.0
7.31,6069.356,0.00016,0.0,0.0
7.316,6054.164,0.00017,0.0,0.0
7.322,6033.068,0.00017,0.0,0.0
7.329,6033.393,0.00017,0.0,0.0
7.335,6002.991,0.00017,0.0,0.0
7.341,5999.813,0.00017,0.0,0.0
7.348,5967.647,0.00017,0.0,0.0
7.354,5976.83,0.00017,0.0,0.0
7.36,5949.925,0.00017,0.0,0.0
7.366,5924.491,0.00017,0.0,0.0
7.373,5925.138,0.00017,0.0,0.0
7.379,5895.571,0.00017,0.0,0.0
7.385,5901.596,0.00017,0.0,0.0
7.392,5887.683,0.00017,0.0,0.0
7.398,5857.956,0.00017,0.0,0.0
7.404,5858.028,0.00017,0.0,0.0
7.411,5854.522,0.00017,0.0,0.0
7.417,5846.186,0.00017,0.0,0.0
7.423,5850.4,0.00017,0.0,0.0
7.43,5827.526,0.00017,0.0,0.0
7.436,5853.348,0.00017,0.0,0.0
7.442,5815.511,0.00017,0.0,0.0
7.449,5837.088,0.00017,0.0,0.0
7.455,5819.359,0.00017,0.0,0.0
7.461,5837.705,0.00017,0.0,0.0
7.468,5804.865,0.00017,0.0,0.0
7.474,5822.854,0.00017,0.0,0.0
7.48,5847.664,0.00017,0.0,0.0
7.487,5818.624,0.00017,0.0,0.0
7.493,5858.975,0.00017,0.0,0.0
7.499,5849.557,0.00017,0.0,0.0
7.506,5880.326,0.00017,0.0,0.0
7.512,5874.19,0.00017,0.0,0.0
7.518,5910.399,0.00017,0.0,0.0
7.524,5915.578,0.00017,0.0,0.0
7.531,5965.157,0.00017,0.0,0.0
7.537,5976.267,0.00017,0.0,0.0
7.543,6020.419,0.00017,0.0,0.0
7.55,6087.007,0.00016,0.0,0.0
7.556,6133.854,0.00016,0.0,0.0
7.562,6244.912,0.00016,0.0,0.0
7.569,6378.323,0.00016,0.0,0.0
7.575,6540.194,0.00015,0.0,0.0
7.581,6934.602,0.00014,0.0,0.0
7.588,7258.039,0.00014,0.0,0.0
7.594,8209.232,0.00012,0.0,0.0
7.6,9664.777,0.0001,0.0,0.0
7.607,12098.5,0.00008,0.0,0.0
7.613,17453.542,0.00006,0.0,0.0
7.619,24056.371,0.00004,0.0,0.0
7.626,33236.658,0.00003,0.0,0.0
7.632,47231.793,0.00002,0.0,0.0
7.638,51583.39,0.00002,0.0,0.0
7.645,48648.076,0.00002,0.0,0.0
7.651,43704.895,0.00002,0.0,0.0
7.657,30325.667,0.00003,0.0,0.0
7.664,23598.752,0.00004,0.0,0.0
7.67,15808.445,0.00006,0.0,0.0
7.676,11211.644,0.00009,0.0,0.0
7.682,9366.414,0.00011,0.0,0.0
7.689,7968.654,0.00013,0.0,0.0
7.695,7302.439,0.00014,0.0,0.0
7.701,6898.236,0.00014,0.0,0.0
7.708,6579.64,0.00015,0.0,0.0
7.714,6460.422,0.00015,0.0,0.0
7.72,6413.758,0.00016,0.0,0.0
7.727,6306.549,0.00016,0.0,0.0
7.733,6242.003,0.00016,0.0,0.0
7.739,6219.394,0.00016,0.0,0.0
7.746,6229.208,0.00016,0.0,0.0
7.752,6232.474,0.00016,0.0,0.0
7.758,6230.031,0.00016,0.0,0.0
7.765,6196.247,0.00016,0.0,0.0
7.771,6238.924,0.00016,0.0,0.0
7.777,6244.383,0.00016,0.0,0.0
7.784,6270.104,0.00016,0.0,0.0
7.79,6332.258,0.00016,0.0,0.0
7.796,6307.465,0.00016,0.0,0.0
7.803,6376.563,0.00016,0.0,0.0
7.809,6382.997,0.00016,0.0,0.0
7.815,6479.234,0.00015,0.0,0.0
7.822,6531.422,0.00015,0.0,0.0
7.828,6578.586,0.00015,0.0,0.0
7.834,6644.541,0.00015,0.0,0.0
7.84,6718.354,0.00015,0.0,0.0
7.847,6898.947,0.00014,0.0,0.0
7.853,7081.044,0.00014,0.0,0.0
7.859,7172.887,0.00014,0.0,0.0
7.866,7591.161,0.00013,0.0,0.0
7.872,7985.589,0.00013,0.0,0.0
7.878,9867.015,0.0001,0.0,0.0
7.885,10731.937,0.00009,0.0,0.0
7.891,14467.136,0.00007,0.0,0.0
7.897,14990.434,0.00007,0.0,0.0
7.904,16438.357,0.00006,0.0,0.0
7.91,17618.149,0.00006,0.0,0.0
7.916,18222.538,0.00005,0.0,0.0
7.923,12485.582,0.00008,0.0,0.0
7.929,11079.641,0.00009,0.0,0.0
7.935,10363.257,0.0001,0.0,0.0
7.942,9564.446,0.0001,0.0,0.0
7.948,8232.321,0.00012,0.0,0.0
7.954,7396.699,0.00014,0.0,0.0
7.961,7104.173,0.00014,0.0,0.0
7.967,7049.099,0.00014,0.0,0.0
7.973,6907.915,0.00014,0.0,0.0
7.98,6848.638,0.00015,0.0,0.0
7.986,6720.669,0.00015,0.0,0.0
7.992,6704.947,0.00015,0.0,0.0
7.998,6722.698,0.00015,0.0,0.0
8.005,6723.671,0.00015,0.0,0.0
8.011,6644.266,0.00015,0.0,0.0
8.017,6646.703,0.00015,0.0,0.0
8.024,6633.961,0.00015,0.0,0.0
8.03,6620.16,0.00015,0.0,0.0
8.036,6630.111,0.00015,0.0,0.0
8.043,6606.352,0.00015,0.0,0.0
8.049,6612.289,0.00015,0.0,0.0
8.055,6605.039,0.00015,0.0,0.0
8.062,6620.997,0.00015,0.0,0.0
8.068,6627.413,0.00015,0.0,0.0
8.074,6592.136,0.00015,0.0,0.0
8.081,6577.016,0.00015,0.0,0.0
8.087,6635.189,0.00015,0.0,0.0
8.093,6651.99,0.00015,0.0,0.0
8.1,6651.835,0.00015,0.0,0.0
8.106,6639.459,0.00015,0.0,0.0
8.112,6644.237,0.00015,0.0,0.0
8.119,6704.87,0.00015,0.0,0.0
8.125,6713.604,0.00015,0.0,0.0
8.131,6736.988,0.00015,0.0,0.0
8.138,6728.723,0.00015,0.0,0.0
8.144,6735.558,0.00015,0.0,0.0
8.15,6735.618,0.00015,0.0,0.0
8.156,6742.386,0.00015,0.0,0.0
8.163,6706.039,0.00015,0.0,0.0
8.169,6659.87,0.00015,0.0,0.0
8.175,6682.08,0.00015,0.0,0.0
8.182,6647.592,0.00015,0.0,0.0
8.188,6695.143,0.00015,0.0,0.0
8.194,6611.968,0.00015,0.0,0.0
8.201,6649.83,0.00015,0.0,0.0
8.207,6615.851,0.00015,0.0,0.0
8.213,6626.153,0.00015,0.0,0.0
8.22,6613.954,0.00015,0.0,0.0
8.226,6595.702,0.00015,0.0,0.0
8.232,6588.681,0.00015,0.0,0.0
8.239,6564.508,0.00015,0.0,0.0
8.245,6531.729,0.00015,0.0,0.0
8.251,6528.589,0.00015,0.0,0.0
8.258,6521.502,0.00015,0.0,0.0
8.264,6495.338,0.00015,0.0,0.0
8.27,6476.592,0.00015,0.0,0.0
8.277,6449.354,0.00016,0.0,0.0
8.283,6436.37,0.00016,0.0,0.0
8.289,6410.358,0.00016,0.0,0.0
8.296,6406.235,0.00016,0.0,0.0
8.302,6370.552,0.00016,0.0,0.0
8.308,6373.404,0.00016,0.0,0.0
8.314,6332.431,0.00016,0.0,0.0
8.321,6345.581,0.00016,0.0,0.0
8.327,6287.983,0.00016,0.0,0.0
8.333,6278.558,0.00016,0.0,0.0
8.34,6274.954,0.00016,0.0,0.0
8.346,6226.659,0.00016,0.0,0.0
8.352,6268.315,0.00016,0.0,0.0
8.359,6180.778,0.00016,0.0,0.0
8.365,6216.825,0.00016,0.0,0.0
8.371,6167.562,0.00016,0.0,0.0
8.378,6130.124,0.00016,0.0,0.0
8.384,6127.709,0.00016,0.0,0.0
8.39,6118.942,0.00016,0.0,0.0
8.397,6085.26,0.00016,0.0,0.0
8.403,6065.794,0.00016,0.0,0.0
8.409,6042.067,0.00017,0.0,0.0
8.416,6025.378,0.00017,0.0,0.0
8.422,6025.56,0.00017,0.0,0.0
8.428,5996.222,0.00017,0.0,0.0
8.435,5995.133,0.00017,0.0,0.0
8.441,5952.871,0.00017,0.0,0.0
8.447,5980.312,0.00017,0.0,0.0
8.454,5941.602,0.00017,0.0,0.0
8.46,5920.122,0.00017,0.0,0.0
8.466,5919.384,0.00017,0.0,0.0
8.472,5901.213,0.00017,0.0,0.0
8.479,5888.172,0.00017,0.0,0.0
8.485,5883.72,0.00017,0.0,0.0
8.491,5854.401,0.00017,0.0,0.0
8.498,5864.02,0.00017,0.0,0.0
8.504,5859.871,0.00017,0.0,0.0
8.51,5835.945,0.00017,0.0,0.0
8.517,5854.802,0.00017,0.0,0.0
8.523,5826.288,0.00017,0.0,0.0
8.529,5794.01,0.00017,0.0,0.0
8.536,5801.885,0.00017,0.0,0.0
8.542,5786.57,0.00017,0.0,0.0
8.548,5768.186,0.00017,0.0,0.0
8.555,5769.553,0.00017,0.0,0.0
8.561,5757.635,0.00017,0.0,0.0
8.567,5768.044,0.00017,0.0,0.0
8.574,5725.939,0.00017,0.0,0.0
8.58,5747.469,0.00017,0.0,0.0
8.586,5722.117,0.00017,0.0,0.0
8.593,5713.913,0.00018,0.0,0.0
8.599,5722.15,0.00017,0.0,0.0
8.605,5688.085,0.00018,0.0,0.0
8.612,5682.677,0.00018,0.0,0.0
8.618,5671.474,0.00018,0.0,0.0
8.624,5654.557,0.00018,0.0,0.0
8.63,5665.247,0.00018,0.0,0.0
8.637,5655.435,0.00018,0.0,0.0
8.643,5626.828,0.00018,0.0,0.0
8.649,5638.612,0.00018,0.0,0.0
8.656,5633.192,0.00018,0.0,0.0
8.662,5619.019,0.00018,0.0,0.0
8.668,5626.394,0.00018,0.0,0.0
8.675,5598.9,0.00018,0.0,0.0
8.681,5596.578,0.00018,0.0,0.0
8.687,5593.46,0.00018,0.0,0.0
8.694,5583.7,0.00018,0.0,0.0
8.7,5582.753,0.00018,0.0,0.0
8.706,5573.525,0.00018,0.0,0.0
8.713,5586.038,0.00018,0.0,0.0
8.719,5573.518,0.00018,0.0,0.0
8.725,5549.512,0.00018,0.0,0.0
8.732,5568.361,0.00018,0.0,0.0
8.738,5558.495,0.00018,0.0,0.0
8.744,5564.893,0.00018,0.0,0.0
8.751,5550.389,0.00018,0.0,0.0
8.757,5529.371,0.00018,0.0,0.0
8.763,5537.217,0.00018,0.0,0.0
8.77,5530.331,0.00018,0.0,0.0
8.776,5547.966,0.00018,0.0,0.0
8.782,5511.136,0.00018,0.0,0.0
8.788,5506.265,0.00018,0.0,0.0
8.795,5517.581,0.00018,0.0,0.0
8.801,5532.514,0.00018,0.0,0.0
8.807,5503.075,0.00018,0.0,0.0
8.814,5518.544,0.00018,0.0,0.0
8.82,5508.272,0.00018,0.0,0.0
8.826,5503.379,0.00018,0.0,0.0
8.833,5490.615,0.00018,0.0,0.0
8.839,5493.066,0.00018,0.0,0.0
8.845,5481.378,0.00018,0.0,0.0
8.852,5478.349,0.00018,0.0,0.0
8.858,5473.092,0.00018,0.0,0.0
8.864,5477.618,0.00018,0.0,0.0
8.871,5473.764,0.00018,0.0,0.0
8.877,5480.351,0.00018,0.0,0.0
8.883,5472.289,0.00018,0.0,0.0
8.89,5485.233,0.00018,0.0,0.0
8.896,5455.543,0.00018,0.0,0.0
8.902,5465.304,0.00018,0.0,0.0
8.909,5448.183,0.00018,0.0,0.0
8.915,5480.391,0.00018,0.0,0.0
8.921,5463.365,0.00018,0.0,0.0
8.928,5476.267,0.00018,0.0,0.0
8.934,5450.334,0.00018,0.0,0.0
8.94,5455.99,0.00018,0.0,0.0
8.946,5453.446,0.00018,0.0,0.0
8.953,5473.306,0.00018,0.0,0.0
8.959,5452.537,0.00018,0.0,0.0
8.965,5464.273,0.00018,0.0,0.0
8.972,5466.278,0.00018,0.0,0.0
8.978,5474.016,0.00018,0.0,0.0
8.984,5480.018,0.00018,0.0,0.0
8.991,5467.078,0.00018,0.0,0.0
8.997,5468.691,0.00018,0.0,0.0
9.003,5468.233,0.00018,0.0,0.0
9.01,5487.116,0.00018,0.0,0.0
9.016,5492.862,0.00018,0.0,0.0
9.022,5487.617,0.00018,0.0,0.0
9.029,5493.325,0.00018,0.0,0.0
9.035,5504.654,0.00018,0.0,0.0
9.041,5506.53,0.00018,0.0,0.0
9.048,5521.773,0.00018,0.0,0.0
9.054,5543.777,0.00018,0.0,0.0
9.06,5542.796,0.00018,0.0,0.0
9.067,5586.123,0.00018,0.0,0.0
9.073,5608.618,0.00018,0.0,0.0
9.079,5651.073,0.00018,0.0,0.0
9.086,5703.854,0.00018,0.0,0.0
9.092,5888.236,0.00017,0.0,0.0
9.098,6032.208,0.00017,0.0,0.0
9.104,6598.617,0.00015,0.0,0.0
9.111,7313.473,0.00014,0.0,0.0
9.117,8220.418,0.00012,0.0,0.0
9.123,9856.184,0.0001,0.0,0.0
9.13,11591.358,0.00009,0.0,0.0
9.136,9912.702,0.0001,0.0,0.0
9.142,11945.665,0.00008,0.0,0.0
9.149,8348.222,0.00012,0.0,0.0
9.155,7239.183,0.00014,0.0,0.0
9.161,6745.204,0.00015,0.0,0.0
9.168,6024.641,0.00017,0.0,0.0
9.174,5938.891,0.00017,0.0,0.0
9.18,5771.783,0.00017,0.0,0.0
9.187,5738.288,0.00017,0.0,0.0
9.193,5686.795,0.00018,0.0,0.0
9.199,5661.354,0.00018,0.0,0.0
9.206,5627.549,0.00018,0.0,0.0
9.212,5625.176,0.00018,0.0,0.0
9.218,5635.273,0.00018,0.0,0.0
9.225,5611.995,0.00018,0.0,0.0
9.231,5596.272,0.00018,0.0,0.0
9.237,5592.094,0.00018,0.0,0.0
9.244,5607.403,0.00018,0.0,0.0
9.25,5592.022,0.00018,0.0,0.0
9.256,5608.106,0.00018,0.0,0.0
9.262,5590.503,0.00018,0.0,0.0
9.269,5576.443,0.00018,0.0,0.0
9.275,5592.665,0.00018,0.0,0.0
9.281,5581.153,0.00018,0.0,0.0
9.288,5595.876,0.00018,0.0,0.0
9.294,5574.345,0.00018,0.0,0.0
9.3,5580.394,0.00018,0.0,0.0
9.307,5588.165,0.00018,0.0,0.0
9.313,5566.305,0.00018,0.0,0.0
9.319,5568.08,0.00018,0.0,0.0
9.326,5572.264,0.00018,0.0,0.0
9.332,5551.458,0.00018,0.0,0.0
9.338,5559.431,0.00018,0.0,0.0
9.345,5550.919,0.00018,0.0,0.0
9.351,5549.392,0.00018,0.0,0.0
9.357,5523.786,0.00018,0.0,0.0
9.364,5523.457,0.00018,0.0,0.0
9.37,5504.555,0.00018,0.0,0.0
9.376,5503.485,0.00018,0.0,0.0
9.383,5495.004,0.00018,0.0,0.0
9.389,5469.963,0.00018,0.0,0.0
9.395,5469.455,0.00018,0.0,0.0
9.402,5441.002,0.00018,0.0,0.0
9.408,5423.372,0.00018,0.0,0.0
9.414,5423.053,0.00018,0.0,0.0
9.42,5401.241,0.00019,0.0,0.0
9.427,5393.341,0.00019,0.0,0.0
9.433,5379.679,0.00019,0.0,0.0
9.439,5349.418,0.00019,0.0,0.0
9.446,5355.085,0.00019,0.0,0.0
9.452,5338.495,0.00019,0.0,0.0
9.458,5333.906,0.00019,0.0,0.0
9.465,5306.41,0.00019,0.0,0.0
9.471,5294.297,0.00019,0.0,0.0
9.477,5273.738,0.00019,0.0,0.0
9.484,5269.906,0.00019,0.0,0.0
9.49,5247.321,0.00019,0.0,0.0
9.496,5245.766,0.00019,0.0,0.0
9.503,5228.302,0.00019,0.0,0.0
9.509,5203.478,0.00019,0.0,0.0
9.515,5206.7,0.00019,0.0,0.0
9.522,5185.306,0.00019,0.0,0.0
9.528,5175.756,0.00019,0.0,0.0
9.534,5133.316,0.00019,0.0,0.0
9.541,5140.146,0.00019,0.0,0.0
9.547,5132.047,0.00019,0.0,0.0
9.553,5119.721,0.0002,0.0,0.0
9.56,5098.565,0.0002,0.0,0.0
9.566,5113.288,0.0002,0.0,0.0
9.572,5099.117,0.0002,0.0,0.0
9.578,5097.325,0.0002,0.0,0.0
9.585,5068.097,0.0002,0.0,0.0
9.591,5052.65,0.0002,0.0,0.0
9.597,5073.303,0.0002,0.0,0.0
9.604,5044.704,0.0002,0.0,0.0
9.61,5044.168,0.0002,0.0,0.0
9.616,5025.817,0.0002,0.0,0.0
9.623,5000.914,0.0002,0.0,0.0
9.629,5018.651,0.0002,0.0,0.0
9.635,5003.422,0.0002,0.0,0.0
9.642,4989.251,0.0002,0.0,0.0
9.648,4979.463,0.0002,0.0,0.0
9.654,4990.08,0.0002,0.0,0.0
9.661,4977.425,0.0002,0.0,0.0
9.667,4953.494,0.0002,0.0,0.0
9.673,4958.241,0.0002,0.0,0.0
9.68,4932.675,0.0002,0.0,0.0
9.686,4936.472,0.0002,0.0,0.0
9.692,4929.704,0.0002,0.0,0.0
9.699,4932.907,0.0002,0.0,0.0
9.705,4926.602,0.0002,0.0,0.0
9.711,4911.586,0.0002,0.0,0.0
9.718,4896.344,0.0002,0.0,0.0
9.724,4892.537,0.0002,0.0,0.0
9.73,4904.728,0.0002,0.0,0.0
9.736,4871.609,0.00021,0.0,0.0
9.743,4900.52,0.0002,0.0,0.0
9.749,4895.569,0.0002,0.0,0.0
9.755,4878.2,0.0002,0.0,0.0
9.762,4890.629,0.0002,0.0,0.0
9.768,4880.825,0.0002,0.0,0.0
9.774,4880.898,0.0002,0.0,0.0
9.781,4899.73,0.0002,0.0,0.0
9.787,4871.404,0.00021,0.0,0.0
9.793,4883.612,0.0002,0.0,0.0
9.8,4877.132,0.00021,0.0,0.0
9.806,4887.175,0.0002,0.0,0.0
9.812,4870.585,0.00021,0.0,0.0
9.819,4848.654,0.00021,0.0,0.0
9.825,4877.247,0.00021,0.0,0.0
9.831,4890.928,0.0002,0.0,0.0
9.838,4872.144,0.00021,0.0,0.0
9.844,4886.78,0.0002,0.0,0.0
9.85,4861.268,0.00021,0.0,0.0
9.857,4893.465,0.0002,0.0,0.0
9.863,4873.458,0.00021,0.0,0.0
9.869,4879.967,0.0002,0.0,0.0
9.876,4875.667,0.00021,0.0,0.0
9.882,4879.503,0.0002,0.0,0.0
9.888,4885.434,0.0002,0.0,0.0
9.894,4882.378,0.0002,0.0,0.0
9.901,4876.889,0.00021,0.0,0.0
9.907,4870.071,0.00021,0.0,0.0
9.913,4880.563,0.0002,0.0,0.0
9.92,4876.649,0.00021,0.0,0.0
9.926,4887.539,0.0002,0.0,0.0
9.932,4884.656,0.0002,0.0,0.0
9.939,4886.586,0.0002,0.0,0.0
9.945,4872.825,0.00021,0.0,0.0
9.951,4878.833,0.0002,0.0,0.0
9.958,4894.284,0.0002,0.0,0.0
9.964,4887.788,0.0002,0.0,0.0
9.97,4879.67,0.0002,0.0,0.0
9.977,4893.499,0.0002,0.0,0.0
9.983,4909.305,0.0002,0.0,0.0
9.989,4893.291,0.0002,0.0,0.0
9.996,4874.801,0.00021,0.0,0.0
10.002,4892.923,0.0002,0.0,0.0
10.008,4909.299,0.0002,0.0,0.0
10.015,4898.923,0.0002,0.0,0.0
10.021,4911.694,0.0002,0.0,0.0
10.027,4937.551,0.0002,0.0,0.0
10.034,4910.152,0.0002,0.0,0.0
10.04,4932.141,0.0002,0.0,0.0
10.046,4924.335,0.0002,0.0,0.0
10.052,4945.279,0.0002,0.0,0.0
10.059,4958.958,0.0002,0.0,0.0
10.065,4948.082,0.0002,0.0,0.0
10.071,4960.321,0.0002,0.0,0.0
10.078,4951.18,0.0002,0.0,0.0
10.084,4968.293,0.0002,0.0,0.0
10.09,4976.212,0.0002,0.0,0.0
10.097,4968.666,0.0002,0.0,0.0
10.103,5001.146,0.0002,0.0,0.0
10.109,5005.045,0.0002,0.0,0.0
10.116,5006.006,0.0002,0.0,0.0
10.122,5030.27,0.0002,0.0,0.0
10.128,5037.932,0.0002,0.0,0.0
10.135,5029.682,0.0002,0.0,0.0
10.141,5063.663,0.0002,0.0,0.0
10.147,5074.409,0.0002,0.0,0.0
10.154,5157.899,0.00019,0.0,0.0
10.16,5144.272,0.00019,0.0,0.0
10.166,5331.175,0.00019,0.0,0.0
10.173,5553.158,0.00018,0.0,0.0
10.179,5480.801,0.00018,0.0,0.0
10.185,7626.098,0.00013,0.0,0.0
10.192,6822.805,0.00015,0.0,0.0
10.198,8489.256,0.00012,0.0,0.0
10.204,11031.418,0.00009,0.0,0.0
10.21,8134.455,0.00012,0.0,0.0
10.217,9723.989,0.0001,0.0,0.0
10.223,8183.876,0.00012,0.0,0.0
10.229,6255.017,0.00016,0.0,0.0
10.236,6751.6,0.00015,0.0,0.0
10.242,5874.224,0.00017,0.0,0.0
10.248,5452.282,0.00018,0.0,0.0
10.255,5242.967,0.00019,0.0,0.0
10.261,5159.313,0.00019,0.0,0.0
10.267,5060.14,0.0002,0.0,0.0
10.274,5020.354,0.0002,0.0,0.0
10.28,4960.813,0.0002,0.0,0.0
10.286,5002.383,0.0002,0.0,0.0
10.293,4929.05,0.0002,0.0,0.0
10.299,4954.161,0.0002,0.0,0.0
10.305,4938.681,0.0002,0.0,0.0
10.312,4919.984,0.0002,0.0,0.0
10.318,4906.569,0.0002,0.0,0.0
10.324,4881.232,0.0002,0.0,0.0
10.331,4906.765,0.0002,0.0,0.0
10.337,4884.362,0.0002,0.0,0.0
10.343,4872.986,0.00021,0.0,0.0
10.35,4866.114,0.00021,0.0,0.0
10.356,4861.365,0.00021,0.0,0.0
10.362,4832.145,0.00021,0.0,0.0
10.368,4844.343,0.00021,0.0,0.0
10.375,4827.554,0.00021,0.0,0.0
10.381,4829.491,0.00021,0.0,0.0
10.387,4821.283,0.00021,0.0,0.0
10.394,4820.088,0.00021,0.0,0.0
10.4,4829.979,0.00021,0.0,0.0
10.406,4802.457,0.00021,0.0,0.0
10.413,4791.601,0.00021,0.0,0.0
10.419,4778.624,0.00021,0.0,0.0
10.425,4804.244,0.00021,0.0,0.0
10.432,4777.463,0.00021,0.0,0.0
10.438,4780.205,0.00021,0.0,0.0
10.444,4777.439,0.00021,0.0,0.0
10.451,4776.617,0.00021,0.0,0.0
10.457,4759.067,0.00021,0.0,0.0
10.463,4758.248,0.00021,0.0,0.0
10.47,4756.785,0.00021,0.0,0.0
10.476,4738.463,0.00021,0.0,0.0
10.482,4734.349,0.00021,0.0,0.0
10.489,4728.878,0.00021,0.0,0.0
10.495,4765.798,0.00021,0.0,0.0
10.501,4731.125,0.00021,0.0,0.0
10.508,4726.476,0.00021,0.0,0.0
10.514,4731.955,0.00021,0.0,0.0
10.52,4716.583,0.00021,0.0,0.0
10.526,4734.283,0.00021,0.0,0.0
10.533,4715.053,0.00021,0.0,0.0
10.539,4714.616,0.00021,0.0,0.0
10.545,4715.051,0.00021,0.0,0.0
10.552,4720.1,0.00021,0.0,0.0
10.558,4695.01,0.00021,0.0,0.0
10.564,4726.183,0.00021,0.0,0.0
10.571,4712.407,0.00021,0.0,0.0
10.577,4719.532,0.00021,0.0,0.0
10.583,4714.45,0.00021,0.0,0.0
10.59,4706.573,0.00021,0.0,0.0
10.596,4708.772,0.00021,0.0,0.0
10.602,4691.587,0.00021,0.0,0.0
10.609,4707.617,0.00021,0.0,0.0
10.615,4686.2,0.00021,0.0,0.0
10.621,4707.943,0.00021,0.0,0.0
10.628,4702.886,0.00021,0.0,0.0
10.634,4708.657,0.00021,0.0,0.0
10.64,4712.423,0.00021,0.0,0.0
10.647,4727.313,0.00021,0.0,0.0
10.653,4709.454,0.00021,0.0,0.0
10.659,4706.731,0.00021,0.0,0.0
10.666,4726.196,0.00021,0.0,0.0
10.672,4720.982,0.00021,0.0,0.0
10.678,4745.18,0.00021,0.0,0.0
10.684,4725.773,0.00021,0.0,0.0
10.691,4746.196,0.00021,0.0,0.0
10.697,4759.883,0.00021,0.0,0.0
10.703,4749.684,0.00021,0.0,0.0
10.71,4780.919,0.00021,0.0,0.0
10.716,4803.514,0.00021,0.0,0.0
10.722,4817.514,0.00021,0.0,0.0
10.729,4852.472,0.00021,0.0,0.0
10.735,4883.143,0.0002,0.0,0.0
10.741,4945.9,0.0002,0.0,0.0
10.748,5030.556,0.0002,0.0,0.0
10.754,5149.941,0.00019,0.0,0.0
10.76,5359.848,0.00019,0.0,0.0
10.767,5676.491,0.00018,0.0,0.0
10.773,6293.622,0.00016,0.0,0.0
10.779,7231.607,0.00014,0.0,0.0
10.786,9158.465,0.00011,0.0,0.0
10.792,12384.77,0.00008,0.0,0.0
10.798,18044.114,0.00006,0.0,0.0
10.805,24275.839,0.00004,0.0,0.0
10.811,27870.08,0.00004,0.0,0.0
10.817,32022.346,0.00003,0.0,0.0
10.824,30246.166,0.00003,0.0,0.0
10.83,23061.827,0.00004,0.0,0.0
10.836,18894.212,0.00005,0.0,0.0
10.842,12459.571,0.00008,0.0,0.0
10.849,9072.682,0.00011,0.0,0.0
10.855,7519.666,0.00013,0.0,0.0
10.861,6322.054,0.00016,0.0,0.0
10.868,5832.67,0.00017,0.0,0.0
10.874,5472.376,0.00018,0.0,0.0
10.88,5259.766,0.00019,0.0,0.0
10.887,5138.226,0.00019,0.0,0.0
10.893,5048.41,0.0002,0.0,0.0
10.899,4990.321,0.0002,0.0,0.0
10.906,4958.38,0.0002,0.0,0.0
10.912,4923.904,0.0002,0.0,0.0
10.918,4912.343,0.0002,0.0,0.0
10.925,4873.536,0.00021,0.0,0.0
10.931,4863.421,0.00021,0.0,0.0
10.937,4867.125,0.00021,0.0,0.0
10.944,4838.026,0.00021,0.0,0.0
10.95,4852.81,0.00021,0.0,0.0
10.956,4819.249,0.00021,0.0,0.0
10.963,4833.395,0.00021,0.0,0.0
10.969,4816.532,0.00021,0.0,0.0
10.975,4804.185,0.00021,0.0,0.0
10.982,4795.869,0.00021,0.0,0.0
10.988,4787.206,0.00021,0.0,0.0
10.994,4776.074,0.00021,0.0,0.0
11.0,4780.775,0.00021,0.0,0.0
11.007,4776.841,0.00021,0.0,0.0
11.013,4755.827,0.00021,0.0,0.0
11.019,4742.012,0.00021,0.0,0.0
11.026,4746.43,0.00021,0.0,0.0
11.032,4742.118,0.00021,0.0,0.0
11.038,4728.458,0.00021,0.0,0.0
11.045,4721.389,0.00021,0.0,0.0
11.051,4698.888,0.00021,0.0,0.0
11.057,4699.123,0.00021,0.0,0.0
11.064,4687.603,0.00021,0.0,0.0
11.07,4693.818,0.00021,0.0,0.0
11.076,4682.151,0.00021,0.0,0.0
11.083,4665.648,0.00021,0.0,0.0
11.089,4679.817,0.00021,0.0,0.0
11.095,4660.126,0.00021,0.0,0.0
11.102,4665.56,0.00021,0.0,0.0
11.108,4658.243,0.00021,0.0,0.0
11.114,4643.386,0.00022,0.0,0.0
11.121,4633.217,0.00022,0.0,0.0
11.127,4644.604,0.00022,0.0,0.0
11.133,4620.876,0.00022,0.0,0.0
11.14,4628.382,0.00022,0.0,0.0
11.146,4615.281,0.00022,0.0,0.0
11.152,4617.575,0.00022,0.0,0.0
11.158,4613.064,0.00022,0.0,0.0
11.165,4601.822,0.00022,0.0,0.0
11.171,4590.969,0.00022,0.0,0.0
11.177,4596.927,0.00022,0.0,0.0
11.184,4597.991,0.00022,0.0,0.0
11.19,4577.804,0.00022,0.0,0.0
11.196,4584.054,0.00022,0.0,0.0
11.203,4583.063,0.00022,0.0,0.0
11.209,4569.569,0.00022,0.0,0.0
11.215,4574.341,0.00022,0.0,0.0
11.222,4570.03,0.00022,0.0,0.0
11.228,4555.123,0.00022,0.0,0.0
11.234,4559.199,0.00022,0.0,0.0
11.241,4552.621,0.00022,0.0,0.0
11.247,4546.907,0.00022,0.0,0.0
11.253,4546.997,0.00022,0.0,0.0
11.26,4544.275,0.00022,0.0,0.0
11.266,4551.898,0.00022,0.0,0.0
11.272,4534.246,0.00022,0.0,0.0
11.279,4525.4,0.00022,0.0,0.0
11.285,4527.98,0.00022,0.0,0.0
11.291,4518.117,0.00022,0.0,0.0
11.298,4515.514,0.00022,0.0,0.0
11.304,4518.444,0.00022,0.0,0.0
11.31,4517.397,0.00022,0.0,0.0
11.316,4511.309,0.00022,0.0,0.0
11.323,4523.314,0.00022,0.0,0.0
11.329,4514.383,0.00022,0.0,0.0
11.335,4518.531,0.00022,0.0,0.0
11.342,4508.918,0.00022,0.0,0.0
11.348,4503.613,0.00022,0.0,0.0
11.354,4510.417,0.00022,0.0,0.0
11.361,4503.971,0.00022,0.0,0.0
11.367,4492.426,0.00022,0.0,0.0
11.373,4506.757,0.00022,0.0,0.0
11.38,4502.894,0.00022,0.0,0.0
11.386,4504.009,0.00022,0.0,0.0
11.392,4501.283,0.00022,0.0,0.0
11.399,4495.206,0.00022,0.0,0.0
11.405,4491.63,0.00022,0.0,0.0
11.411,4505.345,0.00022,0.0,0.0
11.418,4491.105,0.00022,0.0,0.0
11.424,4497.792,0.00022,0.0,0.0
11.43,4503.723,0.00022,0.0,0.0
11.437,4489.78,0.00022,0.0,0.0
11.443,4497.688,0.00022,0.0,0.0
11.449,4501.963,0.00022,0.0,0.0
11.456,4495.45,0.00022,0.0,0.0
11.462,4482.539,0.00022,0.0,0.0
11.468,4499.406,0.00022,0.0,0.0
11.474,4495.243,0.00022,0.0,0.0
11.481,4507.782,0.00022,0.0,0.0
11.487,4499.637,0.00022,0.0,0.0
11.493,4504.192,0.00022,0.0,0.0
11.5,4508.065,0.00022,0.0,0.0
11.506,4513.642,0.00022,0.0,0.0
11.512,4508.814,0.00022,0.0,0.0
11.519,4512.504,0.00022,0.0,0.0
11.525,4525.961,0.00022,0.0,0.0
11.531,4531.028,0.00022,0.0,0.0
11.538,4509.72,0.00022,0.0,0.0
11.544,4537.289,0.00022,0.0,0.0
11.55,4516.993,0.00022,0.0,0.0
11.557,4527.006,0.00022,0.0,0.0
11.563,4519.709,0.00022,0.0,0.0
11.569,4514.607,0.00022,0.0,0.0
11.576,4520.599,0.00022,0.0,0.0
11.582,4520.99,0.00022,0.0,0.0
11.588,4519.989,0.00022,0.0,0.0
11.595,4535.831,0.00022,0.0,0.0
11.601,4549.691,0.00022,0.0,0.0
11.607,4539.861,0.00022,0.0,0.0
11.614,4559.238,0.00022,0.0,0.0
11.62,4547.839,0.00022,0.0,0.0
11.626,4567.07,0.00022,0.0,0.0
11.632,4564.485,0.00022,0.0,0.0
11.639,4576.323,0.00022,0.0,0.0
11.645,4586.42,0.00022,0.0,0.0
11.651,4560.747,0.00022,0.0,0.0
11.658,4575.112,0.00022,0.0,0.0
11.664,4587.902,0.00022,0.0,0.0
11.67,4583.271,0.00022,0.0,0.0
11.677,4582.936,0.00022,0.0,0.0
11.683,4586.245,0.00022,0.0,0.0
11.689,4608.447,0.00022,0.0,0.0
11.696,4598.44,0.00022,0.0,0.0
11.702,4611.123,0.00022,0.0,0.0
11.708,4627.19,0.00022,0.0,0.0
11.715,4616.621,0.00022,0.0,0.0
11.721,4637.765,0.00022,0.0,0.0
11.727,4643.328,0.00022,0.0,0.0
11.734,4627.52,0.00022,0.0,0.0
11.74,4648.426,0.00022,0.0,0.0
11.746,4642.739,0.00022,0.0,0.0
11.753,4635.634,0.00022,0.0,0.0
11.759,4645.309,0.00022,0.0,0.0
11.765,4640.145,0.00022,0.0,0.0
11.772,4652.263,0.00021,0.0,0.0
11.778,4653.561,0.00021,0.0,0.0
11.784,4657.873,0.00021,0.0,0.0
11.79,4659.647,0.00021,0.0,0.0
11.797,4653.271,0.00021,0.0,0.0
11.803,4657.781,0.00021,0.0,0.0
11.809,4648.565,0.00022,0.0,0.0
11.816,4654.777,0.00021,0.0,0.0
11.822,4671.125,0.00021,0.0,0.0
11.828,4659.767,0.00021,0.0,0.0
11.835,4667.907,0.00021,0.0,0.0
11.841,4662.248,0.00021,0.0,0.0
11.847,4661.057,0.00021,0.0,0.0
11.854,4677.149,0.00021,0.0,0.0
11.86,4659.662,0.00021,0.0,0.0
11.866,4670.741,0.00021,0.0,0.0
11.873,4659.06,0.00021,0.0,0.0
11.879,4651.278,0.00021,0.0,0.0
11.885,4663.818,0.00021,0.0,0.0
11.892,4649.935,0.00022,0.0,0.0
11.898,4654.75,0.00021,0.0,0.0
11.904,4662.158,0.00021,0.0,0.0
11.911,4661.397,0.00021,0.0,0.0
11.917,4657.076,0.00021,0.0,0.0
11.923,4641.264,0.00022,0.0,0.0
11.93,4650.745,0.00022,0.0,0.0
11.936,4657.56,0.00021,0.0,0.0
11.942,4659.945,0.00021,0.0,0.0
11.948,4667.875,0.00021,0.0,0.0
11.955,4654.078,0.00021,0.0,0.0
11.961,4653.015,0.00021,0.0,0.0
11.967,4670.029,0.00021,0.0,0.0
11.974,4657.285,0.00021,0.0,0.0
11.98,4651.161,0.00022,0.0,0.0
11.986,4689.224,0.00021,0.0,0.0
11.993,4688.068,0.00021,0.0,0.0
11.999,4687.279,0.00021,0.0,0.0
12.005,4705.793,0.00021,0.0,0.0
12.012,4724.891,0.00021,0.0,0.0
12.018,4743.41,0.00021,0.0,0.0
12.024,4757.44,0.00021,0.0,0.0
12.031,4793.973,0.00021,0.0,0.0
12.037,4906.85,0.0002,0.0,0.0
12.043,5018.405,0.0002,0.0,0.0
12.05,5152.901,0.00019,0.0,0.0
12.056,5999.733,0.00017,0.0,0.0
12.062,5974.26,0.00017,0.0,0.0
12.069,7325.155,0.00014,0.0,0.0
12.075,8154.28,0.00012,0.0,0.0
12.081,6596.319,0.00015,0.0,0.0
12.088,10190.617,0.0001,0.0,0.0
12.094,8717.966,0.00011,0.0,0.0
12.1,8023.247,0.00012,0.0,0.0
12.106,7293.877,0.00014,0.0,0.0
12.113,5672.419,0.00018,0.0,0.0
12.119,5701.606,0.00018,0.0,0.0
12.125,5040.848,0.0002,0.0,0.0
12.132,4851.173,0.00021,0.0,0.0
12.138,4776.936,0.00021,0.0,0.0
12.144,4679.593,0.00021,0.0,0.0
12.151,4664.032,0.00021,0.0,0.0
12.157,4614.838,0.00022,0.0,0.0
12.163,4568.979,0.00022,0.0,0.0
12.17,4576.795,0.00022,0.0,0.0
12.176,4544.052,0.00022,0.0,0.0
12.182,4536.596,0.00022,0.0,0.0
12.189,4513.887,0.00022,0.0,0.0
12.195,4501.128,0.00022,0.0,0.0
12.201,4485.415,0.00022,0.0,0.0
12.208,4470.51,0.00022,0.0,0.0
12.214,4458.812,0.00022,0.0,0.0
12.22,4457.051,0.00022,0.0,0.0
12.227,4446.801,0.00022,0.0,0.0
12.233,4437.906,0.00023,0.0,0.0
12.239,4435.671,0.00023,0.0,0.0
12.246,4411.67,0.00023,0.0,0.0
12.252,4427.415,0.00023,0.0,0.0
12.258,4396.823,0.00023,0.0,0.0
12.264,4405.316,0.00023,0.0,0.0
12.271,4396.717,0.00023,0.0,0.0
12.277,4394.383,0.00023,0.0,0.0
12.283,4385.09,0.00023,0.0,0.0
12.29,4387.401,0.00023,0.0,0.0
12.296,4368.864,0.00023,0.0,0.0
12.302,4360.161,0.00023,0.0,0.0
12.309,4361.101,0.00023,0.0,0.0
12.315,4352.974,0.00023,0.0,0.0
12.321,4355.939,0.00023,0.0,0.0
12.328,4333.308,0.00023,0.0,0.0
12.334,4351.425,0.00023,0.0,0.0
12.34,4321.947,0.00023,0.0,0.0
12.347,4337.966,0.00023,0.0,0.0
12.353,4325.856,0.00023,0.0,0.0
12.359,4308.707,0.00023,0.0,0.0
12.366,4323.3,0.00023,0.0,0.0
12.372,4304.567,0.00023,0.0,0.0
12.378,4299.888,0.00023,0.0,0.0
12.385,4311.606,0.00023,0.0,0.0
12.391,4276.221,0.00023,0.0,0.0
12.397,4285.319,0.00023,0.0,0.0
12.404,4277.05,0.00023,0.0,0.0
12.41,4281.168,0.00023,0.0,0.0
12.416,4279.578,0.00023,0.0,0.0
12.422,4282.841,0.00023,0.0,0.0
12.429,4271.297,0.00023,0.0,0.0
12.435,4260.666,0.00023,0.0,0.0
12.441,4260.697,0.00023,0.0,0.0
12.448,4261.292,0.00023,0.0,0.0
12.454,4262.519,0.00023,0.0,0.0
12.46,4268.807,0.00023,0.0,0.0
12.467,4269.3,0.00023,0.0,0.0
12.473,4244.455,0.00024,0.0,0.0
12.479,4262.583,0.00023,0.0,0.0
12.486,4250.0,0.00024,0.0,0.0
12.492,4276.651,0.00023,0.0,0.0
12.498,4268.737,0.00023,0.0,0.0
12.505,4259.96,0.00023,0.0,0.0
12.511,4258.699,0.00023,0.0,0.0
12.517,4258.964,0.00023,0.0,0.0
12.524,4249.654,0.00024,0.0,0.0
12.53,4261.136,0.00023,0.0,0.0
12.536,4270.245,0.00023,0.0,0.0
12.543,4262.349,0.00023,0.0,0.0
12.549,4275.703,0.00023,0.0,0.0
12.555,4262.592,0.00023,0.0,0.0
12.562,4283.953,0.00023,0.0,0.0
12.568,4277.448,0.00023,0.0,0.0
12.574,4290.749,0.00023,0.0,0.0
12.58,4307.467,0.00023,0.0,0.0
12.587,4313.291,0.00023,0.0,0.0
12.593,4349.608,0.00023,0.0,0.0
12.599,4366.054,0.00023,0.0,0.0
12.606,4405.157,0.00023,0.0,0.0
12.612,4469.327,0.00022,0.0,0.0
12.618,4537.485,0.00022,0.0,0.0
12.625,4654.286,0.00021,0.0,0.0
12.631,4861.79,0.00021,0.0,0.0
12.637,5133.604,0.00019,0.0,0.0
12.644,5632.003,0.00018,0.0,0.0
12.65,6600.557,0.00015,0.0,0.0
12.656,8010.784,0.00012,0.0,0.0
12.663,11108.528,0.00009,0.0,0.0
12.669,15801.473,0.00006,0.0,0.0
12.675,21856.64,0.00005,0.0,0.0
12.682,29359.601,0.00003,0.0,0.0
12.688,35236.842,0.00003,0.0,0.0
12.694,35057.252,0.00003,0.0,0.0
12.701,32014.198,0.00003,0.0,0.0
12.707,27436.418,0.00004,0.0,0.0
12.713,17293.925,0.00006,0.0,0.0
12.72,12866.88,0.00008,0.0,0.0
12.726,9032.579,0.00011,0.0,0.0
12.732,7076.782,0.00014,0.0,0.0
12.738,5881.091,0.00017,0.0,0.0
12.745,5245.914,0.00019,0.0,0.0
12.751,4864.522,0.00021,0.0,0.0
12.757,4656.746,0.00021,0.0,0.0
12.764,4501.606,0.00022,0.0,0.0
12.77,4411.51,0.00023,0.0,0.0
12.776,4358.776,0.00023,0.0,0.0
12.783,4283.591,0.00023,0.0,0.0
12.789,4238.894,0.00024,0.0,0.0
12.795,4221.494,0.00024,0.0,0.0
12.802,4211.091,0.00024,0.0,0.0
12.808,4179.239,0.00024,0.0,0.0
12.814,4170.102,0.00024,0.0,0.0
12.821,4154.873,0.00024,0.0,0.0
12.827,4145.961,0.00024,0.0,0.0
12.833,4133.186,0.00024,0.0,0.0
12.84,4126.482,0.00024,0.0,0.0
12.846,4105.091,0.00024,0.0,0.0
12.852,4101.104,0.00024,0.0,0.0
12.859,4083.672,0.00024,0.0,0.0
12.865,4095.683,0.00024,0.0,0.0
12.871,4098.731,0.00024,0.0,0.0
12.878,4070.583,0.00025,0.0,0.0
12.884,4080.786,0.00025,0.0,0.0
12.89,4075.036,0.00025,0.0,0.0
12.896,4075.795,0.00025,0.0,0.0
12.903,4113.454,0.00024,0.0,0.0
12.909,4068.315,0.00025,0.0,0.0
12.915,4076.856,0.00025,0.0,0.0
12.922,4068.99,0.00025,0.0,0.0
12.928,4045.002,0.00025,0.0,0.0
12.934,4054.06,0.00025,0.0,0.0
12.941,4049.761,0.00025,0.0,0.0
12.947,4041.593,0.00025,0.0,0.0
12.953,4034.577,0.00025,0.0,0.0
12.96,4038.577,0.00025,0.0,0.0
12.966,4024.513,0.00025,0.0,0.0
12.972,4022.922,0.00025,0.0,0.0
12.979,4024.729,0.00025,0.0,0.0
12.985,4017.203,0.00025,0.0,0.0
12.991,4002.578,0.00025,0.0,0.0
12.998,4008.377,0.00025,0.0,0.0
13.004,4005.781,0.00025,0.0,0.0
13.01,4009.679,0.00025,0.0,0.0
13.017,3991.25,0.00025,0.0,0.0
13.023,4002.166,0.00025,0.0,0.0
13.029,3995.992,0.00025,0.0,0.0
13.036,3989.069,0.00025,0.0,0.0
13.042,3994.375,0.00025,0.0,0.0
13.048,3993.179,0.00025,0.0,0.0
13.054,4004.793,0.00025,0.0,0.0
13.061,3992.941,0.00025,0.0,0.0
13.067,3993.172,0.00025,0.0,0.0
13.073,4008.104,0.00025,0.0,0.0
13.08,4008.279,0.00025,0.0,0.0
13.086,4001.403,0.00025,0.0,0.0
13.092,3995.452,0.00025,0.0,0.0
13.099,4002.79,0.00025,0.0,0.0
13.105,4005.816,0.00025,0.0,0.0
13.111,4003.643,0.00025,0.0,0.0
13.118,3997.691,0.00025,0.0,0.0
13.124,3998.724,0.00025,0.0,0.0
13.13,3992.487,0.00025,0.0,0.0
13.137,3995.935,0.00025,0.0,0.0
13.143,4007.047,0.00025,0.0,0.0
13.149,4001.507,0.00025,0.0,0.0
13.156,4006.44,0.00025,0.0,0.0
13.162,4017.085,0.00025,0.0,0.0
13.168,4015.571,0.00025,0.0,0.0
13.175,4038.269,0.00025,0.0,0.0
13.181,4046.466,0.00025,0.0,0.0
13.187,4054.184,0.00025,0.0,0.0
13.194,4075.833,0.00025,0.0,0.0
13.2,4143.759,0.00024,0.0,0.0
13.206,4208.584,0.00024,0.0,0.0
13.212,4339.796,0.00023,0.0,0.0
13.219,4602.138,0.00022,0.0,0.0
13.225,4976.55,0.0002,0.0,0.0
13.231,5771.223,0.00017,0.0,0.0
13.238,7125.512,0.00014,0.0,0.0
13.244,8968.902,0.00011,0.0,0.0
13.25,11170.755,0.00009,0.0,0.0
13.257,12642.561,0.00008,0.0,0.0
13.263,13118.924,0.00008,0.0,0.0
13.269,11891.789,0.00008,0.0,0.0
13.276,9740.732,0.0001,0.0,0.0
13.282,7660.13,0.00013,0.0,0.0
13.288,5935.028,0.00017,0.0,0.0
13.295,5103.662,0.0002,0.0,0.0
13.301,4554.053,0.00022,0.0,0.0
13.307,4318.296,0.00023,0.0,0.0
13.314,4155.834,0.00024,0.0,0.0
13.32,4083.398,0.00024,0.0,0.0
13.326,4011.911,0.00025,0.0,0.0
13.333,3991.985,0.00025,0.0,0.0
13.339,3974.402,0.00025,0.0,0.0
13.345,3936.836,0.00025,0.0,0.0
13.352,3935.108,0.00025,0.0,0.0
13.358,3914.529,0.00026,0.0,0.0
13.364,3907.907,0.00026,0.0,0.0
13.37,3893.193,0.00026,0.0,0.0
13.377,3885.412,0.00026,0.0,0.0
13.383,3867.648,0.00026,0.0,0.0
13.389,3870.616,0.00026,0.0,0.0
13.396,3869.867,0.00026,0.0,0.0
13.402,3866.443,0.00026,0.0,0.0
13.408,3858.042,0.00026,0.0,0.0
13.415,3849.352,0.00026,0.0,0.0
13.421,3849.781,0.00026,0.0,0.0
13.427,3840.258,0.00026,0.0,0.0
13.434,3842.917,0.00026,0.0,0.0
13.44,3844.556,0.00026,0.0,0.0
13.446,3830.002,0.00026,0.0,0.0
13.453,3830.183,0.00026,0.0,0.0
13.459,3816.064,0.00026,0.0,0.0
13.465,3828.887,0.00026,0.0,0.0
13.472,3814.251,0.00026,0.0,0.0
13.478,3808.28,0.00026,0.0,0.0
13.484,3813.375,0.00026,0.0,0.0
13.491,3798.908,0.00026,0.0,0.0
13.497,3805.192,0.00026,0.0,0.0
13.503,3800.162,0.00026,0.0,0.0
13.51,3789.423,0.00026,0.0,0.0
13.516,3794.573,0.00026,0.0,0.0
13.522,3792.655,0.00026,0.0,0.0
13.528,3790.152,0.00026,0.0,0.0
13.535,3778.617,0.00026,0.0,0.0
13.541,3795.01,0.00026,0.0,0.0
13.547,3783.403,0.00026,0.0,0.0
13.554,3788.042,0.00026,0.0,0.0
13.56,3794.163,0.00026,0.0,0.0
13.566,3786.862,0.00026,0.0,0.0
13.573,3789.827,0.00026,0.0,0.0
13.579,3787.725,0.00026,0.0,0.0
13.585,3784.748,0.00026,0.0,0.0
13.592,3776.91,0.00026,0.0,0.0
13.598,3784.354,0.00026,0.0,0.0
13.604,3778.662,0.00026,0.0,0.0
13.611,3784.567,0.00026,0.0,0.0
13.617,3775.481,0.00026,0.0,0.0
13.623,3773.992,0.00026,0.0,0.0
13.63,3792.878,0.00026,0.0,0.0
13.636,3788.217,0.00026,0.0,0.0
13.642,3796.536,0.00026,0.0,0.0
13.649,3792.1,0.00026,0.0,0.0
13.655,3787.669,0.00026,0.0,0.0
13.661,3816.887,0.00026,0.0,0.0
13.668,3821.522,0.00026,0.0,0.0
13.674,3870.539,0.00026,0.0,0.0
13.68,3894.879,0.00026,0.0,0.0
13.686,3967.264,0.00025,0.0,0.0
13.693,4321.492,0.00023,0.0,0.0
13.699,4750.318,0.00021,0.0,0.0
13.705,4889.148,0.0002,0.0,0.0
13.712,5408.454,0.00018,0.0,0.0
13.718,4755.346,0.00021,0.0,0.0
13.724,4795.58,0.00021,0.0,0.0
13.731,4142.444,0.00024,0.0,0.0
13.737,4142.937,0.00024,0.0,0.0
13.743,3921.412,0.00026,0.0,0.0
13.75,3881.253,0.00026,0.0,0.0
13.756,3800.592,0.00026,0.0,0.0
13.762,3786.858,0.00026,0.0,0.0
13.769,3758.826,0.00027,0.0,0.0
13.775,3751.647,0.00027,0.0,0.0
13.781,3737.304,0.00027,0.0,0.0
13.788,3741.459,0.00027,0.0,0.0
13.794,3737.181,0.00027,0.0,0.0
13.8,3712.41,0.00027,0.0,0.0
13.807,3716.976,0.00027,0.0,0.0
13.813,3703.306,0.00027,0.0,0.0
13.819,3704.668,0.00027,0.0,0.0
13.826,3694.654,0.00027,0.0,0.0
13.832,3691.545,0.00027,0.0,0.0
13.838,3679.421,0.00027,0.0,0.0
13.844,3670.404,0.00027,0.0,0.0
13.851,3684.665,0.00027,0.0,0.0
13.857,3673.661,0.00027,0.0,0.0
13.863,3677.831,0.00027,0.0,0.0
13.87,3651.434,0.00027,0.0,0.0
13.876,3657.054,0.00027,0.0,0.0
13.882,3655.602,0.00027,0.0,0.0
13.889,3650.75,0.00027,0.0,0.0
13.895,3633.821,0.00028,0.0,0.0
13.901,3635.478,0.00028,0.0,0.0
13.908,3632.652,0.00028,0.0,0.0
13.914,3637.345,0.00027,0.0,0.0
13.92,3633.56,0.00028,0.0,0.0
13.927,3617.705,0.00028,0.0,0.0
13.933,3618.496,0.00028,0.0,0.0
13.939,3621.937,0.00028,0.0,0.0
13.946,3607.462,0.00028,0.0,0.0
13.952,3612.173,0.00028,0.0,0.0
13.958,3604.007,0.00028,0.0,0.0
13.965,3607.23,0.00028,0.0,0.0
13.971,3589.913,0.00028,0.0,0.0
13.977,3604.945,0.00028,0.0,0.0
13.984,3591.341,0.00028,0.0,0.0
13.99,3589.866,0.00028,0.0,0.0
13.996,3586.523,0.00028,0.0,0.0
14.002,3576.196,0.00028,0.0,0.0
14.009,3577.802,0.00028,0.0,0.0
14.015,3574.211,0.00028,0.0,0.0
14.021,3573.062,0.00028,0.0,0.0
14.028,3557.835,0.00028,0.0,0.0
14.034,3568.838,0.00028,0.0,0.0
14.04,3574.394,0.00028,0.0,0.0
14.047,3561.217,0.00028,0.0,0.0
14.053,3551.515,0.00028,0.0,0.0
14.059,3547.503,0.00028,0.0,0.0
14.066,3545.798,0.00028,0.0,0.0
14.072,3544.007,0.00028,0.0,0.0
14.078,3537.655,0.00028,0.0,0.0
14.085,3538.259,0.00028,0.0,0.0
14.091,3531.656,0.00028,0.0,0.0
14.097,3533.722,0.00028,0.0,0.0
14.104,3527.728,0.00028,0.0,0.0
14.11,3524.027,0.00028,0.0,0.0
14.116,3522.297,0.00028,0.0,0.0
14.123,3521.397,0.00028,0.0,0.0
14.129,3521.531,0.00028,0.0,0.0
14.135,3521.219,0.00028,0.0,0.0
14.142,3505.596,0.00029,0.0,0.0
14.148,3522.853,0.00028,0.0,0.0
14.154,3521.632,0.00028,0.0,0.0
14.16,3512.763,0.00028,0.0,0.0
14.167,3511.748,0.00028,0.0,0.0
14.173,3502.922,0.00029,0.0,0.0
14.179,3497.164,0.00029,0.0,0.0
14.186,3490.248,0.00029,0.0,0.0
14.192,3496.765,0.00029,0.0,0.0
14.198,3493.236,0.00029,0.0,0.0
14.205,3494.592,0.00029,0.0,0.0
14.211,3502.466,0.00029,0.0,0.0
14.217,3493.757,0.00029,0.0,0.0
14.224,3492.946,0.00029,0.0,0.0
14.23,3480.79,0.00029,0.0,0.0
14.236,3492.914,0.00029,0.0,0.0
14.243,3480.699,0.00029,0.0,0.0
14.249,3491.666,0.00029,0.0,0.0
14.255,3484.321,0.00029,0.0,0.0
14.262,3478.244,0.00029,0.0,0.0
14.268,3492.284,0.00029,0.0,0.0
14.274,3478.185,0.00029,0.0,0.0
14.281,3494.189,0.00029,0.0,0.0
14.287,3475.639,0.00029,0.0,0.0
14.293,3470.723,0.00029,0.0,0.0
14.3,3482.004,0.00029,0.0,0.0
14.306,3478.035,0.00029,0.0,0.0
14.312,3480.827,0.00029,0.0,0.0
14.318,3466.843,0.00029,0.0,0.0
14.325,3469.905,0.00029,0.0,0.0
14.331,3461.917,0.00029,0.0,0.0
14.337,3478.742,0.00029,0.0,0.0
14.344,3456.445,0.00029,0.0,0.0
14.35,3465.817,0.00029,0.0,0.0
14.356,3475.905,0.00029,0.0,0.0
14.363,3471.799,0.00029,0.0,0.0
14.369,3474.623,0.00029,0.0,0.0
14.375,3463.156,0.00029,0.0,0.0
14.382,3467.499,0.00029,0.0,0.0
14.388,3463.263,0.00029,0.0,0.0
14.394,3451.184,0.00029,0.0,0.0
14.401,3461.771,0.00029,0.0,0.0
14.407,3465.257,0.00029,0.0,0.0
14.413,3464.034,0.00029,0.0,0.0
14.42,3458.691,0.00029,0.0,0.0
14.426,3464.643,0.00029,0.0,0.0
14.432,3449.989,0.00029,0.0,0.0
14.439,3472.691,0.00029,0.0,0.0
14.445,3476.535,0.00029,0.0,0.0
14.451,3481.512,0.00029,0.0,0.0
14.458,3478.743,0.00029,0.0,0.0
14.464,3484.382,0.00029,0.0,0.0
14.47,3503.775,0.00029,0.0,0.0
14.476,3465.098,0.00029,0.0,0.0
14.483,3474.213,0.00029,0.0,0.0
14.489,3448.341,0.00029,0.0,0.0
14.495,3435.835,0.00029,0.0,0.0
14.502,3436.217,0.00029,0.0,0.0
14.508,3443.589,0.00029,0.0,0.0
14.514,3434.663,0.00029,0.0,0.0
14.521,3420.832,0.00029,0.0,0.0
14.527,3430.738,0.00029,0.0,0.0
14.533,3422.187,0.00029,0.0,0.0
14.54,3430.466,0.00029,0.0,0.0
14.546,3428.109,0.00029,0.0,0.0
14.552,3408.427,0.00029,0.0,0.0
14.559,3411.217,0.00029,0.0,0.0
14.565,3413.037,0.00029,0.0,0.0
14.571,3416.852,0.00029,0.0,0.0
14.578,3399.055,0.00029,0.0,0.0
14.584,3413.499,0.00029,0.0,0.0
14.59,3408.948,0.00029,0.0,0.0
14.597,3403.597,0.00029,0.0,0.0
14.603,3399.936,0.00029,0.0,0.0
14.609,3395.805,0.00029,0.0,0.0
14.616,3387.57,0.0003,0.0,0.0
14.622,3385.526,0.0003,0.0,0.0
14.628,3387.407,0.0003,0.0,0.0
14.634,3383.278,0.0003,0.0,0.0
14.641,3379.547,0.0003,0.0,0.0
14.647,3375.81,0.0003,0.0,0.0
14.653,3367.824,0.0003,0.0,0.0
14.66,3364.021,0.0003,0.0,0.0
14.666,3360.756,0.0003,0.0,0.0
14.672,3348.58,0.0003,0.0,0.0
14.679,3351.821,0.0003,0.0,0.0
14.685,3362.798,0.0003,0.0,0.0
14.691,3352.484,0.0003,0.0,0.0
14.698,3349.852,0.0003,0.0,0.0
14.704,3334.54,0.0003,0.0,0.0
14.71,3343.522,0.0003,0.0,0.0
14.717,3354.452,0.0003,0.0,0.0
14.723,3325.922,0.0003,0.0,0.0
14.729,3339.445,0.0003,0.0,0.0
14.736,3334.152,0.0003,0.0,0.0
14.742,3334.502,0.0003,0.0,0.0
14.748,3336.815,0.0003,0.0,0.0
14.755,3329.148,0.0003,0.0,0.0
14.761,3324.825,0.0003,0.0,0.0
14.767,3323.588,0.0003,0.0,0.0
14.774,3326.154,0.0003,0.0,0.0
14.78,3315.2,0.0003,0.0,0.0
14.786,3312.822,0.0003,0.0,0.0
14.792,3323.338,0.0003,0.0,0.0
14.799,3312.824,0.0003,0.0,0.0
14.805,3306.397,0.0003,0.0,0.0
14.811,3310.113,0.0003,0.0,0.0
14.818,3303.77,0.0003,0.0,0.0
14.824,3312.289,0.0003,0.0,0.0
14.83,3304.36,0.0003,0.0,0.0
14.837,3300.595,0.0003,0.0,0.0
14.843,3309.067,0.0003,0.0,0.0
14.849,3304.202,0.0003,0.0,0.0
14.856,3289.94,0.0003,0.0,0.0
14.862,3300.647,0.0003,0.0,0.0
14.868,3303.455,0.0003,0.0,0.0
14.875,3303.312,0.0003,0.0,0.0
14.881,3290.332,0.0003,0.0,0.0
14.887,3303.086,0.0003,0.0,0.0
14.894,3311.213,0.0003,0.0,0.0
14.9,3305.656,0.0003,0.0,0.0
14.906,3299.99,0.0003,0.0,0.0
14.913,3295.866,0.0003,0.0,0.0
14.919,3302.396,0.0003,0.0,0.0
14.925,3298.233,0.0003,0.0,0.0
14.932,3289.041,0.0003,0.0,0.0
14.938,3300.776,0.0003,0.0,0.0
14.944,3294.519,0.0003,0.0,0.0
14.95,3293.391,0.0003,0.0,0.0
14.957,3303.062,0.0003,0.0,0.0
14.963,3289.372,0.0003,0.0,0.0
14.969,3303.141,0.0003,0.0,0.0
14.976,3300.789,0.0003,0.0,0.0
14.982,3309.095,0.0003,0.0,0.0
14.988,3291.742,0.0003,0.0,0.0
14.995,3290.834,0.0003,0.0,0.0
15.001,3296.976,0.0003,0.0,0.0
15.007,3303.974,0.0003,0.0,0.0
15.014,3300.075,0.0003,0.0,0.0
15.02,3292.415,0.0003,0.0,0.0
15.026,3298.92,0.0003,0.0,0.0
15.033,3291.057,0.0003,0.0,0.0
15.039,3295.686,0.0003,0.0,0.0
15.045,3296.05,0.0003,0.0,0.0
15.052,3296.123,0.0003,0.0,0.0
15.058,3290.148,0.0003,0.0,0.0
15.064,3299.684,0.0003,0.0,0.0
15.071,3288.29,0.0003,0.0,0.0
15.077,3292.953,0.0003,0.0,0.0
15.083,3295.767,0.0003,0.0,0.0
15.09,3291.978,0.0003,0.0,0.0
15.096,3287.684,0.0003,0.0,0.0
15.102,3288.802,0.0003,0.0,0.0
15.108,3287.188,0.0003,0.0,0.0
15.115,3288.468,0.0003,0.0,0.0
15.121,3275.608,0.00031,0.0,0.0
15.127,3285.384,0.0003,0.0,0.0
15.134,3294.153,0.0003,0.0,0.0
15.14,3288.844,0.0003,0.0,0.0
15.146,3288.745,0.0003,0.0,0.0
15.153,3282.788,0.0003,0.0,0.0
15.159,3292.753,0.0003,0.0,0.0
15.165,3309.154,0.0003,0.0,0.0
15.172,3300.936,0.0003,0.0,0.0
15.178,3292.699,0.0003,0.0,0.0
15.184,3300.204,0.0003,0.0,0.0
15.191,3266.993,0.00031,0.0,0.0
15.197,3280.364,0.0003,0.0,0.0
15.203,3282.88,0.0003,0.0,0.0
15.21,3261.49,0.00031,0.0,0.0
15.216,3272.392,0.00031,0.0,0.0
15.222,3259.79,0.00031,0.0,0.0
15.229,3262.839,0.00031,0.0,0.0
15.235,3273.632,0.00031,0.0,0.0
15.241,3280.446,0.0003,0.0,0.0
15.248,3302.297,0.0003,0.0,0.0
15.254,3306.048,0.0003,0.0,0.0
15.26,3316.302,0.0003,0.0,0.0
15.266,3364.438,0.0003,0.0,0.0
15.273,3408.758,0.00029,0.0,0.0
15.279,3528.401,0.00028,0.0,0.0
15.285,3700.1,0.00027,0.0,0.0
15.292,3967.846,0.00025,0.0,0.0
15.298,4433.369,0.00023,0.0,0.0
15.304,4768.814,0.00021,0.0,0.0
15.311,5482.936,0.00018,0.0,0.0
15.317,5703.467,0.00018,0.0,0.0
15.323,5606.789,0.00018,0.0,0.0
15.33,5645.663,0.00018,0.0,0.0
15.336,4896.719,0.0002,0.0,0.0
15.342,4515.583,0.00022,0.0,0.0
15.349,4086.848,0.00024,0.0,0.0
15.355,3738.814,0.00027,0.0,0.0
15.361,3538.661,0.00028,0.0,0.0
15.368,3417.267,0.00029,0.0,0.0
15.374,3346.167,0.0003,0.0,0.0
15.38,3312.655,0.0003,0.0,0.0
15.387,3287.846,0.0003,0.0,0.0
15.393,3270.064,0.00031,0.0,0.0
15.399,3263.818,0.00031,0.0,0.0
15.406,3252.26,0.00031,0.0,0.0
15.412,3239.702,0.00031,0.0,0.0
15.418,3241.543,0.00031,0.0,0.0
15.424,3242.862,0.00031,0.0,0.0
15.431,3229.113,0.00031,0.0,0.0
15.437,3244.715,0.00031,0.0,0.0
15.443,3251.068,0.00031,0.0,0.0
15.45,3247.922,0.00031,0.0,0.0
15.456,3238.078,0.00031,0.0,0.0
15.462,3245.155,0.00031,0.0,0.0
15.469,3250.211,0.00031,0.0,0.0
15.475,3250.038,0.00031,0.0,0.0
15.481,3242.228,0.00031,0.0,0.0
15.488,3238.585,0.00031,0.0,0.0
15.494,3240.308,0.00031,0.0,0.0
15.5,3244.179,0.00031,0.0,0.0
15.507,3251.693,0.00031,0.0,0.0
15.513,3251.785,0.00031,0.0,0.0
15.519,3245.775,0.00031,0.0,0.0
15.526,3245.53,0.00031,0.0,0.0
15.532,3241.855,0.00031,0.0,0.0
15.538,3239.251,0.00031,0.0,0.0
15.545,3236.514,0.00031,0.0,0.0
15.551,3226.093,0.00031,0.0,0.0
15.557,3232.756,0.00031,0.0,0.0
15.564,3231.923,0.00031,0.0,0.0
15.57,3236.203,0.00031,0.0,0.0
15.576,3222.566,0.00031,0.0,0.0
15.582,3229.725,0.00031,0.0,0.0
15.589,3225.821,0.00031,0.0,0.0
15.595,3220.464,0.00031,0.0,0.0
15.601,3230.563,0.00031,0.0,0.0
15.608,3221.805,0.00031,0.0,0.0
15.614,3203.593,0.00031,0.0,0.0
15.62,3216.393,0.00031,0.0,0.0
15.627,3210.395,0.00031,0.0,0.0
15.633,3200.967,0.00031,0.0,0.0
15.639,3213.738,0.00031,0.0,0.0
15.646,3210.25,0.00031,0.0,0.0
15.652,3209.342,0.00031,0.0,0.0
15.658,3207.756,0.00031,0.0,0.0
15.665,3192.213,0.00031,0.0,0.0
15.671,3197.078,0.00031,0.0,0.0
15.677,3190.893,0.00031,0.0,0.0
15.684,3200.262,0.00031,0.0,0.0
15.69,3193.753,0.00031,0.0,0.0
15.696,3183.712,0.00031,0.0,0.0
15.703,3195.345,0.00031,0.0,0.0
15.709,3181.24,0.00031,0.0,0.0
15.715,3174.366,0.00032,0.0,0.0
15.722,3182.796,0.00031,0.0,0.0
15.728,3169.539,0.00032,0.0,0.0
15.734,3176.539,0.00031,0.0,0.0
15.74,3169.274,0.00032,0.0,0.0
15.747,3171.277,0.00032,0.0,0.0
15.753,3162.883,0.00032,0.0,0.0
15.759,3158.643,0.00032,0.0,0.0
15.766,3154.073,0.00032,0.0,0.0
15.772,3156.085,0.00032,0.0,0.0
15.778,3170.522,0.00032,0.0,0.0
15.785,3140.533,0.00032,0.0,0.0
15.791,3146.17,0.00032,0.0,0.0
15.797,3146.774,0.00032,0.0,0.0
15.804,3143.769,0.00032,0.0,0.0
15.81,3134.231,0.00032,0.0,0.0
15.816,3142.754,0.00032,0.0,0.0
15.823,3132.866,0.00032,0.0,0.0
15.829,3128.458,0.00032,0.0,0.0
15.835,3128.142,0.00032,0.0,0.0
15.842,3133.073,0.00032,0.0,0.0
15.848,3135.082,0.00032,0.0,0.0
15.854,3118.844,0.00032,0.0,0.0
15.861,3117.545,0.00032,0.0,0.0
15.867,3121.879,0.00032,0.0,0.0
15.873,3111.313,0.00032,0.0,0.0
15.88,3109.725,0.00032,0.0,0.0
15.886,3114.884,0.00032,0.0,0.0
15.892,3114.924,0.00032,0.0,0.0
15.898,3104.794,0.00032,0.0,0.0
15.905,3099.606,0.00032,0.0,0.0
15.911,3104.475,0.00032,0.0,0.0
15.917,3095.25,0.00032,0.0,0.0
15.924,3091.621,0.00032,0.0,0.0
15.93,3088.126,0.00032,0.0,0.0
15.936,3085.276,0.00032,0.0,0.0
15.943,3083.737,0.00032,0.0,0.0
15.949,3083.13,0.00032,0.0,0.0
15.955,3087.206,0.00032,0.0,0.0
15.962,3080.868,0.00032,0.0,0.0
15.968,3079.862,0.00032,0.0,0.0
15.974,3077.698,0.00032,0.0,0.0
15.981,3078.796,0.00032,0.0,0.0
15.987,3080.907,0.00032,0.0,0.0
15.993,3070.444,0.00033,0.0,0.0
16.0,3080.886,0.00032,0.0,0.0
16.006,3073.408,0.00033,0.0,0.0
16.012,3070.729,0.00033,0.0,0.0
16.019,3068.217,0.00033,0.0,0.0
16.025,3062.361,0.00033,0.0,0.0
16.031,3070.15,0.00033,0.0,0.0
16.038,3066.776,0.00033,0.0,0.0
16.044,3061.006,0.00033,0.0,0.0
16.05,3055.134,0.00033,0.0,0.0
16.056,3064.413,0.00033,0.0,0.0
16.063,3063.993,0.00033,0.0,0.0
16.069,3049.223,0.00033,0.0,0.0
16.075,3060.626,0.00033,0.0,0.0
16.082,3058.31,0.00033,0.0,0.0
16.088,3062.997,0.00033,0.0,0.0
16.094,3047.994,0.00033,0.0,0.0
16.101,3058.341,0.00033,0.0,0.0
16.107,3058.837,0.00033,0.0,0.0
16.113,3063.783,0.00033,0.0,0.0
16.12,3053.98,0.00033,0.0,0.0
16.126,3059.551,0.00033,0.0,0.0
16.132,3061.293,0.00033,0.0,0.0
16.139,3045.303,0.00033,0.0,0.0
16.145,3058.884,0.00033,0.0,0.0
16.151,3055.364,0.00033,0.0,0.0
16.158,3048.12,0.00033,0.0,0.0
16.164,3059.955,0.00033,0.0,0.0
16.17,3049.702,0.00033,0.0,0.0
16.177,3049.544,0.00033,0.0,0.0
16.183,3058.362,0.00033,0.0,0.0
16.189,3048.585,0.00033,0.0,0.0
16.196,3053.407,0.00033,0.0,0.0
16.202,3057.471,0.00033,0.0,0.0
16.208,3050.156,0.00033,0.0,0.0
16.214,3056.37,0.00033,0.0,0.0
16.221,3053.133,0.00033,0.0,0.0
16.227,3046.388,0.00033,0.0,0.0
16.233,3049.489,0.00033,0.0,0.0
16.24,3056.664,0.00033,0.0,0.0
16.246,3051.08,0.00033,0.0,0.0
16.252,3054.111,0.00033,0.0,0.0
16.259,3051.952,0.00033,0.0,0.0
16.265,3050.056,0.00033,0.0,0.0
16.271,3054.544,0.00033,0.0,0.0
16.278,3046.681,0.00033,0.0,0.0
16.284,3050.807,0.00033,0.0,0.0
16.29,3043.305,0.00033,0.0,0.0
16.297,3044.696,0.00033,0.0,0.0
16.303,3048.551,0.00033,0.0,0.0
16.309,3059.67,0.00033,0.0,0.0
16.316,3034.196,0.00033,0.0,0.0
16.322,3047.79,0.00033,0.0,0.0
16.328,3046.614,0.00033,0.0,0.0
16.335,3048.336,0.00033,0.0,0.0
16.341,3037.784,0.00033,0.0,0.0
16.347,3045.764,0.00033,0.0,0.0
16.354,3043.009,0.00033,0.0,0.0
16.36,3055.264,0.00033,0.0,0.0
16.366,3047.865,0.00033,0.0,0.0
16.372,3048.437,0.00033,0.0,0.0
16.379,3048.222,0.00033,0.0,0.0
16.385,3043.139,0.00033,0.0,0.0
16.391,3050.628,0.00033,0.0,0.0
16.398,3037.297,0.00033,0.0,0.0
16.404,3046.438,0.00033,0.0,0.0
16.41,3046.546,0.00033,0.0,0.0
16.417,3047.681,0.00033,0.0,0.0
16.423,3051.359,0.00033,0.0,0.0
16.429,3048.252,0.00033,0.0,0.0
16.436,3040.687,0.00033,0.0,0.0
16.442,3052.023,0.00033,0.0,0.0
16.448,3049.619,0.00033,0.0,0.0
16.455,3056.299,0.00033,0.0,0.0
16.461,3049.657,0.00033,0.0,0.0
16.467,3063.632,0.00033,0.0,0.0
16.474,3072.449,0.00033,0.0,0.0
16.48,3078.053,0.00032,0.0,0.0
16.486,3203.883,0.00031,0.0,0.0
16.493,3112.101,0.00032,0.0,0.0
16.499,3284.979,0.0003,0.0,0.0
16.505,3218.579,0.00031,0.0,0.0
16.512,3139.483,0.00032,0.0,0.0
16.518,3163.823,0.00032,0.0,0.0
16.524,3076.827,0.00033,0.0,0.0
16.53,3089.692,0.00032,0.0,0.0
16.537,3083.487,0.00032,0.0,0.0
16.543,3061.31,0.00033,0.0,0.0
16.549,3074.911,0.00033,0.0,0.0
16.556,3065.26,0.00033,0.0,0.0
16.562,3065.865,0.00033,0.0,0.0
16.568,3074.183,0.00033,0.0,0.0
16.575,3067.336,0.00033,0.0,0.0
16.581,3072.357,0.00033,0.0,0.0
16.587,3069.201,0.00033,0.0,0.0
16.594,3075.167,0.00033,0.0,0.0
