"x","y_obs","weight","y_calc","y_bkg"
0.8,2885.845,0.00035,0.0,0.0
0.806,3349.574,0.0003,0.0,0.0
0.813,3533.924,0.00028,0.0,0.0
0.819,3339.127,0.0003,0.0,0.0
0.825,4062.191,0.00025,0.0,0.0
0.832,3837.666,0.00026,0.0,0.0
0.838,4136.914,0.00024,0.0,0.0
0.844,4518.809,0.00022,0.0,0.0
0.851,4400.279,0.00023,0.0,0.0
0.857,4894.775,0.0002,0.0,0.0
0.863,5296.209,0.00019,0.0,0.0
0.87,4857.148,0.00021,0.0,0.0
0.876,5852.74,0.00017,0.0,0.0
0.882,5688.032,0.00018,0.0,0.0
0.888,5937.843,0.00017,0.0,0.0
0.895,6230.439,0.00016,0.0,0.0
0.901,6257.565,0.00016,0.0,0.0
0.907,6826.045,0.00015,0.0,0.0
0.914,7039.21,0.00014,0.0,0.0
0.92,6620.136,0.00015,0.0,0.0
0.926,7402.893,0.00014,0.0,0.0
0.933,7429.319,0.00013,0.0,0.0
0.939,7203.846,0.00014,0.0,0.0
0.945,7887.827,0.00013,0.0,0.0
0.952,7470.26,0.00013,0.0,0.0
0.958,7893.05,0.00013,0.0,0.0
0.964,7959.9,0.00013,0.0,0.0
0.971,7654.277,0.00013,0.0,0.0
0.977,8226.341,0.00012,0.0,0.0
0.983,8140.202,0.00012,0.0,0.0
0.99,7978.79,0.00013,0.0,0.0
0.996,8320.635,0.00012,0.0,0.0
1.002,8011.118,0.00012,0.0,0.0
1.009,8232.713,0.00012,0.0,0.0
1.015,8391.141,0.00012,0.0,0.0
1.021,8110.702,0.00012,0.0,0.0
1.028,8420.058,0.00012,0.0,0.0
1.034,8257.001,0.00012,0.0,0.0
1.04,8147.048,0.00012,0.0,0.0
1.046,8327.188,0.00012,0.0,0.0
1.053,8283.707,0.00012,0.0,0.0
1.059,8200.784,0.00012,0.0,0.0
1.065,8299.418,0.00012,0.0,0.0
1.072,8074.645,0.00012,0.0,0.0
1.078,8227.66,0.00012,0.0,0.0
1.084,8071.381,0.00012,0.0,0.0
1.091,8137.751,0.00012,0.0,0.0
1.097,8101.144,0.00012,0.0,0.0
1.103,8034.838,0.00012,0.0,0.0
1.11,7990.171,0.00013,0.0,0.0
1.116,7961.677,0.00013,0.0,0.0
1.122,7805.448,0.00013,0.0,0.0
1.129,7863.748,0.00013,0.0,0.0
1.135,7813.051,0.00013,0.0,0.0
1.141,7759.164,0.00013,0.0,0.0
1.148,7717.229,0.00013,0.0,0.0
1.154,7627.016,0.00013,0.0,0.0
1.16,7606.931,0.00013,0.0,0.0
1.167,7532.018,0.00013,0.0,0.0
1.173,7489.409,0.00013,0.0,0.0
1.179,7454.388,0.00013,0.0,0.0
1.186,7372.912,0.00014,0.0,0.0
1.192,7326.033,0.00014,0.0,0.0
1.198,7300.966,0.00014,0.0,0.0
1.204,7218.689,0.00014,0.0,0.0
1.211,7185.052,0.00014,0.0,0.0
1.217,7116.118,0.00014,0.0,0.0
1.223,7063.09,0.00014,0.0,0.0
1.23,7038.591,0.00014,0.0,0.0
1.236,6981.03,0.00014,0.0,0.0
1.242,6866.437,0.00015,0.0,0.0
1.249,6920.768,0.00014,0.0,0.0
1.255,6888.293,0.00015,0.0,0.0
1.261,6847.117,0.00015,0.0,0.0
1.268,6778.432,0.00015,0.0,0.0
1.274,6721.468,0.00015,0.0,0.0
1.28,6734.608,0.00015,0.0,0.0
1.287,6672.602,0.00015,0.0,0.0
1.293,6672.301,0.00015,0.0,0.0
1.299,6605.431,0.00015,0.0,0.0
1.306,6590.069,0.00015,0.0,0.0
1.312,6552.056,0.00015,0.0,0.0
1.318,6593.79,0.00015,0.0,0.0
1.325,6501.048,0.00015,0.0,0.0
1.331,6541.772,0.00015,0.0,0.0
1.337,6449.823,0.00016,0.0,0.0
1.344,6437.395,0.00016,0.0,0.0
1.35,6447.569,0.00016,0.0,0.0
1.356,6406.88,0.00016,0.0,0.0
1.362,6424.231,0.00016,0.0,0.0
1.369,6405.488,0.00016,0.0,0.0
1.375,6336.478,0.00016,0.0,0.0
1.381,6349.32,0.00016,0.0,0.0
1.388,6368.902,0.00016,0.0,0.0
1.394,6279.478,0.00016,0.0,0.0
1.4,6314.793,0.00016,0.0,0.0
1.407,6249.733,0.00016,0.0,0.0
1.413,6323.329,0.00016,0.0,0.0
1.419,6260.136,0.00016,0.0,0.0
1.426,6264.559,0.00016,0.0,0.0
1.432,6275.9,0.00016,0.0,0.0
1.438,6266.82,0.00016,0.0,0.0
1.445,6255.254,0.00016,0.0,0.0
1.451,6289.445,0.00016,0.0,0.0
1.457,6287.18,0.00016,0.0,0.0
1.464,6248.668,0.00016,0.0,0.0
1.47,6220.923,0.00016,0.0,0.0
1.476,6221.293,0.00016,0.0,0.0
1.483,6252.487,0.00016,0.0,0.0
1.489,6230.241,0.00016,0.0,0.0
1.495,6213.583,0.00016,0.0,0.0
1.502,6222.634,0.00016,0.0,0.0
1.508,6224.811,0.00016,0.0,0.0
1.514,6230.92,0.00016,0.0,0.0
1.52,6241.891,0.00016,0.0,0.0
1.527,6219.877,0.00016,0.0,0.0
1.533,6255.311,0.00016,0.0,0.0
1.539,6225.404,0.00016,0.0,0.0
1.546,6211.822,0.00016,0.0,0.0
1.552,6250.867,0.00016,0.0,0.0
1.558,6265.946,0.00016,0.0,0.0
1.565,6275.525,0.00016,0.0,0.0
1.571,6318.828,0.00016,0.0,0.0
1.577,6253.272,0.00016,0.0,0.0
1.584,6315.156,0.00016,0.0,0.0
1.59,6334.801,0.00016,0.0,0.0
1.596,6307.047,0.00016,0.0,0.0
1.603,6374.479,0.00016,0.0,0.0
1.609,6315.833,0.00016,0.0,0.0
1.615,6338.125,0.00016,0.0,0.0
1.622,6371.21,0.00016,0.0,0.0
1.628,6369.768,0.00016,0.0,0.0
1.634,6389.406,0.00016,0.0,0.0
1.641,6430.266,0.00016,0.0,0.0
1.647,6409.298,0.00016,0.0,0.0
1.653,6464.686,0.00015,0.0,0.0
1.66,6494.515,0.00015,0.0,0.0
1.666,6494.238,0.00015,0.0,0.0
1.672,6484.842,0.00015,0.0,0.0
1.678,6536.168,0.00015,0.0,0.0
1.685,6520.267,0.00015,0.0,0.0
1.691,6540.227,0.00015,0.0,0.0
1.697,6583.957,0.00015,0.0,0.0
1.704,6569.535,0.00015,0.0,0.0
1.71,6596.831,0.00015,0.0,0.0
1.716,6638.845,0.00015,0.0,0.0
1.723,6608.429,0.00015,0.0,0.0
1.729,6650.992,0.00015,0.0,0.0
1.735,6642.608,0.00015,0.0,0.0
1.742,6682.258,0.00015,0.0,0.0
1.748,6653.975,0.00015,0.0,0.0
1.754,6717.202,0.00015,0.0,0.0
1.761,6720.957,0.00015,0.0,0.0
1.767,6706.789,0.00015,0.0,0.0
1.773,6742.958,0.00015,0.0,0.0
1.78,6715.324,0.00015,0.0,0.0
1.786,6757.943,0.00015,0.0,0.0
1.792,6780.29,0.00015,0.0,0.0
1.799,6783.28,0.00015,0.0,0.0
1.805,6783.761,0.00015,0.0,0.0
1.811,6768.999,0.00015,0.0,0.0
1.818,6762.176,0.00015,0.0,0.0
1.824,6774.858,0.00015,0.0,0.0
1.83,6809.888,0.00015,0.0,0.0
1.836,6776.576,0.00015,0.0,0.0
1.843,6815.939,0.00015,0.0,0.0
1.849,6785.588,0.00015,0.0,0.0
1.855,6822.973,0.00015,0.0,0.0
1.862,6818.731,0.00015,0.0,0.0
1.868,6823.646,0.00015,0.0,0.0
1.874,6815.2,0.00015,0.0,0.0
1.881,6825.382,0.00015,0.0,0.0
1.887,6816.861,0.00015,0.0,0.0
1.893,6801.77,0.00015,0.0,0.0
1.9,6808.248,0.00015,0.0,0.0
1.906,6832.931,0.00015,0.0,0.0
1.912,6828.908,0.00015,0.0,0.0
1.919,6796.253,0.00015,0.0,0.0
1.925,6843.556,0.00015,0.0,0.0
1.931,6805.615,0.00015,0.0,0.0
1.938,6789.935,0.00015,0.0,0.0
1.944,6808.66,0.00015,0.0,0.0
1.95,6859.412,0.00015,0.0,0.0
1.957,6800.846,0.00015,0.0,0.0
1.963,6825.329,0.00015,0.0,0.0
1.969,6796.0,0.00015,0.0,0.0
1.976,6818.562,0.00015,0.0,0.0
1.982,6850.191,0.00015,0.0,0.0
1.988,6812.85,0.00015,0.0,0.0
1.994,6837.939,0.00015,0.0,0.0
2.001,6824.565,0.00015,0.0,0.0
2.007,6870.772,0.00015,0.0,0.0
2.013,6874.26,0.00015,0.0,0.0
2.02,6830.697,0.00015,0.0,0.0
2.026,6863.738,0.00015,0.0,0.0
2.032,6850.902,0.00015,0.0,0.0
2.039,6870.771,0.00015,0.0,0.0
2.045,6857.934,0.00015,0.0,0.0
2.051,6828.734,0.00015,0.0,0.0
2.058,6867.957,0.00015,0.0,0.0
2.064,6906.076,0.00014,0.0,0.0
2.07,6918.729,0.00014,0.0,0.0
2.077,6935.36,0.00014,0.0,0.0
2.083,6920.888,0.00014,0.0,0.0
2.089,6886.664,0.00015,0.0,0.0
2.096,6933.672,0.00014,0.0,0.0
2.102,6964.157,0.00014,0.0,0.0
2.108,6978.383,0.00014,0.0,0.0
2.115,6944.443,0.00014,0.0,0.0
2.121,6953.675,0.00014,0.0,0.0
2.127,6987.213,0.00014,0.0,0.0
2.134,6990.041,0.00014,0.0,0.0
2.14,6988.627,0.00014,0.0,0.0
2.146,7035.796,0.00014,0.0,0.0
2.152,7064.108,0.00014,0.0,0.0
2.159,7040.159,0.00014,0.0,0.0
2.165,7041.819,0.00014,0.0,0.0
2.171,7053.681,0.00014,0.0,0.0
2.178,7071.815,0.00014,0.0,0.0
2.184,7122.54,0.00014,0.0,0.0
2.19,7134.685,0.00014,0.0,0.0
2.197,7099.348,0.00014,0.0,0.0
2.203,7149.892,0.00014,0.0,0.0
2.209,7163.573,0.00014,0.0,0.0
2.216,7178.249,0.00014,0.0,0.0
2.222,7186.417,0.00014,0.0,0.0
2.228,7310.848,0.00014,0.0,0.0
2.235,7232.897,0.00014,0.0,0.0
2.241,7259.362,0.00014,0.0,0.0
2.247,7299.767,0.00014,0.0,0.0
2.254,7293.211,0.00014,0.0,0.0
2.26,7303.432,0.00014,0.0,0.0
2.266,7306.835,0.00014,0.0,0.0
2.273,7377.786,0.00014,0.0,0.0
2.279,7359.219,0.00014,0.0,0.0
2.285,7440.885,0.00013,0.0,0.0
2.292,7413.106,0.00013,0.0,0.0
2.298,7440.641,0.00013,0.0,0.0
2.304,7467.767,0.00013,0.0,0.0
2.31,7514.183,0.00013,0.0,0.0
2.317,7515.565,0.00013,0.0,0.0
2.323,7540.418,0.00013,0.0,0.0
2.329,7594.027,0.00013,0.0,0.0
2.336,7590.931,0.00013,0.0,0.0
2.342,7630.932,0.00013,0.0,0.0
2.348,7659.199,0.00013,0.0,0.0
2.355,7721.176,0.00013,0.0,0.0
2.361,7743.749,0.00013,0.0,0.0
2.367,7784.575,0.00013,0.0,0.0
2.374,7806.1,0.00013,0.0,0.0
2.38,7876.943,0.00013,0.0,0.0
2.386,7877.864,0.00013,0.0,0.0
2.393,7949.13,0.00013,0.0,0.0
2.399,7953.477,0.00013,0.0,0.0
2.405,8028.196,0.00012,0.0,0.0
2.412,8061.421,0.00012,0.0,0.0
2.418,8102.312,0.00012,0.0,0.0
2.424,8131.818,0.00012,0.0,0.0
2.431,8195.626,0.00012,0.0,0.0
2.437,8259.217,0.00012,0.0,0.0
2.443,8271.409,0.00012,0.0,0.0
2.45,8355.086,0.00012,0.0,0.0
2.456,8392.104,0.00012,0.0,0.0
2.462,8480.812,0.00012,0.0,0.0
2.468,8558.895,0.00012,0.0,0.0
2.475,8600.375,0.00012,0.0,0.0
2.481,8690.976,0.00012,0.0,0.0
2.487,8743.329,0.00011,0.0,0.0
2.494,8826.568,0.00011,0.0,0.0
2.5,8930.984,0.00011,0.0,0.0
2.506,8960.684,0.00011,0.0,0.0
2.513,9102.691,0.00011,0.0,0.0
2.519,9155.703,0.00011,0.0,0.0
2.525,9188.135,0.00011,0.0,0.0
2.532,9254.492,0.00011,0.0,0.0
2.538,9325.364,0.00011,0.0,0.0
2.544,9329.739,0.00011,0.0,0.0
2.551,9431.911,0.00011,0.0,0.0
2.557,9370.532,0.00011,0.0,0.0
2.563,9447.988,0.00011,0.0,0.0
2.57,9433.739,0.00011,0.0,0.0
2.576,9426.92,0.00011,0.0,0.0
2.582,9422.505,0.00011,0.0,0.0
2.589,9377.621,0.00011,0.0,0.0
2.595,9347.041,0.00011,0.0,0.0
2.601,9343.895,0.00011,0.0,0.0
2.608,9276.237,0.00011,0.0,0.0
2.614,9280.803,0.00011,0.0,0.0
2.62,9278.772,0.00011,0.0,0.0
2.626,9236.039,0.00011,0.0,0.0
2.633,9280.922,0.00011,0.0,0.0
2.639,9286.227,0.00011,0.0,0.0
2.645,9295.473,0.00011,0.0,0.0
2.652,9290.281,0.00011,0.0,0.0
2.658,9307.76,0.00011,0.0,0.0
2.664,9331.74,0.00011,0.0,0.0
2.671,9351.832,0.00011,0.0,0.0
2.677,9338.398,0.00011,0.0,0.0
2.683,9417.987,0.00011,0.0,0.0
2.69,9427.401,0.00011,0.0,0.0
2.696,9427.108,0.00011,0.0,0.0
2.702,9513.37,0.00011,0.0,0.0
2.709,9518.544,0.00011,0.0,0.0
2.715,9552.929,0.0001,0.0,0.0
2.721,9573.657,0.0001,0.0,0.0
2.728,9590.899,0.0001,0.0,0.0
2.734,9631.549,0.0001,0.0,0.0
2.74,9676.712,0.0001,0.0,0.0
2.747,9697.499,0.0001,0.0,0.0
2.753,9742.223,0.0001,0.0,0.0
2.759,9771.441,0.0001,0.0,0.0
2.766,9755.362,0.0001,0.0,0.0
2.772,9800.112,0.0001,0.0,0.0
2.778,9795.656,0.0001,0.0,0.0
2.784,9849.477,0.0001,0.0,0.0
2.791,9870.837,0.0001,0.0,0.0
2.797,9881.855,0.0001,0.0,0.0
2.803,9928.354,0.0001,0.0,0.0
2.81,9927.661,0.0001,0.0,0.0
2.816,9937.239,0.0001,0.0,0.0
2.822,10020.934,0.0001,0.0,0.0
2.829,9951.111,0.0001,0.0,0.0
2.835,10006.159,0.0001,0.0,0.0
2.841,10010.288,0.0001,0.0,0.0
2.848,10032.07,0.0001,0.0,0.0
2.854,10049.429,0.0001,0.0,0.0
2.86,10067.071,0.0001,0.0,0.0
2.867,10058.938,0.0001,0.0,0.0
2.873,10093.76,0.0001,0.0,0.0
2.879,10124.79,0.0001,0.0,0.0
2.886,10132.844,0.0001,0.0,0.0
2.892,10180.559,0.0001,0.0,0.0
2.898,10175.467,0.0001,0.0,0.0
2.905,10201.956,0.0001,0.0,0.0
2.911,10221.564,0.0001,0.0,0.0
2.917,10257.807,0.0001,0.0,0.0
2.924,10286.178,0.0001,0.0,0.0
2.93,10267.579,0.0001,0.0,0.0
2.936,10311.577,0.0001,0.0,0.0
2.942,10318.954,0.0001,0.0,0.0
2.949,10345.722,0.0001,0.0,0.0
2.955,10335.236,0.0001,0.0,0.0
2.961,10370.29,0.0001,0.0,0.0
2.968,10367.499,0.0001,0.0,0.0
2.974,10419.897,0.0001,0.0,0.0
2.98,10453.229,0.0001,0.0,0.0
2.987,10428.599,0.0001,0.0,0.0
2.993,10444.547,0.0001,0.0,0.0
2.999,10505.766,0.0001,0.0,0.0
3.006,10448.345,0.0001,0.0,0.0
3.012,10490.522,0.0001,0.0,0.0
3.018,10484.122,0.0001,0.0,0.0
3.025,10508.263,0.0001,0.0,0.0
3.031,10489.391,0.0001,0.0,0.0
3.037,10509.269,0.0001,0.0,0.0
3.044,10500.951,0.0001,0.0,0.0
3.05,10533.01,0.00009,0.0,0.0
3.056,10525.164,0.0001,0.0,0.0
3.063,10520.875,0.0001,0.0,0.0
3.069,10528.312,0.00009,0.0,0.0
3.075,10538.156,0.00009,0.0,0.0
3.082,10537.945,0.00009,0.0,0.0
3.088,10483.899,0.0001,0.0,0.0
3.094,10514.581,0.0001,0.0,0.0
3.1,10521.629,0.0001,0.0,0.0
3.107,10542.606,0.00009,0.0,0.0
3.113,10503.75,0.0001,0.0,0.0
3.119,10503.857,0.0001,0.0,0.0
3.126,10494.685,0.0001,0.0,0.0
3.132,10525.253,0.0001,0.0,0.0
3.138,10491.885,0.0001,0.0,0.0
3.145,10468.322,0.0001,0.0,0.0
3.151,10485.177,0.0001,0.0,0.0
3.157,10456.66,0.0001,0.0,0.0
3.164,10455.534,0.0001,0.0,0.0
3.17,10441.006,0.0001,0.0,0.0
3.176,10393.867,0.0001,0.0,0.0
3.183,10423.206,0.0001,0.0,0.0
3.189,10419.076,0.0001,0.0,0.0
3.195,10380.083,0.0001,0.0,0.0
3.202,10378.579,0.0001,0.0,0.0
3.208,10356.431,0.0001,0.0,0.0
3.214,10338.618,0.0001,0.0,0.0
3.221,10295.279,0.0001,0.0,0.0
3.227,10300.448,0.0001,0.0,0.0
3.233,10276.426,0.0001,0.0,0.0
3.24,10264.944,0.0001,0.0,0.0
3.246,10251.234,0.0001,0.0,0.0
3.252,10237.935,0.0001,0.0,0.0
3.258,10210.826,0.0001,0.0,0.0
3.265,10201.306,0.0001,0.0,0.0
3.271,10171.634,0.0001,0.0,0.0
3.277,10141.089,0.0001,0.0,0.0
3.284,10121.197,0.0001,0.0,0.0
3.29,10109.445,0.0001,0.0,0.0
3.296,10108.161,0.0001,0.0,0.0
3.303,10050.728,0.0001,0.0,0.0
3.309,10042.781,0.0001,0.0,0.0
3.315,10014.298,0.0001,0.0,0.0
3.322,9986.768,0.0001,0.0,0.0
3.328,9977.325,0.0001,0.0,0.0
3.334,9959.573,0.0001,0.0,0.0
3.341,9945.162,0.0001,0.0,0.0
3.347,9921.835,0.0001,0.0,0.0
3.353,9876.229,0.0001,0.0,0.0
3.36,9860.925,0.0001,0.0,0.0
3.366,9857.107,0.0001,0.0,0.0
3.372,9837.362,0.0001,0.0,0.0
3.379,9800.285,0.0001,0.0,0.0
3.385,9780.894,0.0001,0.0,0.0
3.391,9756.135,0.0001,0.0,0.0
3.398,9724.5,0.0001,0.0,0.0
3.404,9727.04,0.0001,0.0,0.0
3.41,9725.75,0.0001,0.0,0.0
3.416,9702.734,0.0001,0.0,0.0
3.423,9712.131,0.0001,0.0,0.0
3.429,9656.593,0.0001,0.0,0.0
3.435,9653.849,0.0001,0.0,0.0
3.442,9638.136,0.0001,0.0,0.0
3.448,9611.043,0.0001,0.0,0.0
3.454,9579.196,0.0001,0.0,0.0
3.461,9549.312,0.0001,0.0,0.0
3.467,9553.555,0.0001,0.0,0.0
3.473,9539.32,0.0001,0.0,0.0
3.48,9533.273,0.0001,0.0,0.0
3.486,9535.949,0.0001,0.0,0.0
3.492,9506.381,0.00011,0.0,0.0
3.499,9494.399,0.00011,0.0,0.0
3.505,9433.281,0.00011,0.0,0.0
3.511,9432.561,0.00011,0.0,0.0
3.518,9409.935,0.00011,0.0,0.0
3.524,9391.29,0.00011,0.0,0.0
3.53,9398.376,0.00011,0.0,0.0
3.537,9389.294,0.00011,0.0,0.0
3.543,9372.649,0.00011,0.0,0.0
3.549,9380.019,0.00011,0.0,0.0
3.556,9363.924,0.00011,0.0,0.0
3.562,9343.771,0.00011,0.0,0.0
3.568,9323.133,0.00011,0.0,0.0
3.574,9319.932,0.00011,0.0,0.0
3.581,9322.22,0.00011,0.0,0.0
3.587,9272.912,0.00011,0.0,0.0
3.593,9311.86,0.00011,0.0,0.0
3.6,9317.765,0.00011,0.0,0.0
3.606,9299.726,0.00011,0.0,0.0
3.612,9305.764,0.00011,0.0,0.0
3.619,9294.529,0.00011,0.0,0.0
3.625,9287.53,0.00011,0.0,0.0
3.631,9282.29,0.00011,0.0,0.0
3.638,9286.274,0.00011,0.0,0.0
3.644,9323.298,0.00011,0.0,0.0
3.65,9302.525,0.00011,0.0,0.0
3.657,9331.3,0.00011,0.0,0.0
3.663,9328.345,0.00011,0.0,0.0
3.669,9320.749,0.00011,0.0,0.0
3.676,9348.157,0.00011,0.0,0.0
3.682,9328.056,0.00011,0.0,0.0
3.688,9386.512,0.00011,0.0,0.0
3.695,9368.33,0.00011,0.0,0.0
3.701,9391.769,0.00011,0.0,0.0
3.707,9425.961,0.00011,0.0,0.0
3.714,9471.669,0.00011,0.0,0.0
3.72,9460.266,0.00011,0.0,0.0
3.726,9514.012,0.00011,0.0,0.0
3.732,9532.505,0.0001,0.0,0.0
3.739,9565.03,0.0001,0.0,0.0
3.745,9609.035,0.0001,0.0,0.0
3.751,9613.993,0.0001,0.0,0.0
3.758,9688.615,0.0001,0.0,0.0
3.764,9703.067,0.0001,0.0,0.0
3.77,9745.357,0.0001,0.0,0.0
3.777,9794.44,0.0001,0.0,0.0
3.783,9831.623,0.0001,0.0,0.0
3.789,9853.433,0.0001,0.0,0.0
3.796,9918.558,0.0001,0.0,0.0
3.802,9934.038,0.0001,0.0,0.0
3.808,9995.605,0.0001,0.0,0.0
3.815,9994.432,0.0001,0.0,0.0
3.821,10080.915,0.0001,0.0,0.0
3.827,10074.7,0.0001,0.0,0.0
3.834,10112.646,0.0001,0.0,0.0
3.84,10152.25,0.0001,0.0,0.0
3.846,10187.139,0.0001,0.0,0.0
3.853,10176.082,0.0001,0.0,0.0
3.859,10210.082,0.0001,0.0,0.0
3.865,10201.099,0.0001,0.0,0.0
3.872,10208.412,0.0001,0.0,0.0
3.878,10241.259,0.0001,0.0,0.0
3.884,10204.932,0.0001,0.0,0.0
3.89,10216.61,0.0001,0.0,0.0
3.897,10194.561,0.0001,0.0,0.0
3.903,10167.286,0.0001,0.0,0.0
3.909,10138.733,0.0001,0.0,0.0
3.916,10120.208,0.0001,0.0,0.0
3.922,10084.863,0.0001,0.0,0.0
3.928,10051.999,0.0001,0.0,0.0
3.935,10046.573,0.0001,0.0,0.0
3.941,9975.633,0.0001,0.0,0.0
3.947,9941.777,0.0001,0.0,0.0
3.954,9893.926,0.0001,0.0,0.0
3.96,9868.351,0.0001,0.0,0.0
3.966,9791.757,0.0001,0.0,0.0
3.973,9781.69,0.0001,0.0,0.0
3.979,9716.117,0.0001,0.0,0.0
3.985,9666.66,0.0001,0.0,0.0
3.992,9626.538,0.0001,0.0,0.0
3.998,9577.933,0.0001,0.0,0.0
4.004,9525.689,0.0001,0.0,0.0
4.011,9488.1,0.00011,0.0,0.0
4.017,9416.212,0.00011,0.0,0.0
4.023,9384.683,0.00011,0.0,0.0
4.03,9376.121,0.00011,0.0,0.0
4.036,9313.563,0.00011,0.0,0.0
4.042,9314.824,0.00011,0.0,0.0
4.048,9252.035,0.00011,0.0,0.0
4.055,9204.731,0.00011,0.0,0.0
4.061,9184.185,0.00011,0.0,0.0
4.067,9152.826,0.00011,0.0,0.0
4.074,9105.362,0.00011,0.0,0.0
4.08,9090.655,0.00011,0.0,0.0
4.086,9044.843,0.00011,0.0,0.0
4.093,9057.696,0.00011,0.0,0.0
4.099,8990.25,0.00011,0.0,0.0
4.105,9006.443,0.00011,0.0,0.0
4.112,8950.496,0.00011,0.0,0.0
4.118,8935.051,0.00011,0.0,0.0
4.124,8903.131,0.00011,0.0,0.0
4.131,8929.788,0.00011,0.0,0.0
4.137,8861.505,0.00011,0.0,0.0
4.143,8858.824,0.00011,0.0,0.0
4.15,8828.219,0.00011,0.0,0.0
4.156,8836.652,0.00011,0.0,0.0
4.162,8826.427,0.00011,0.0,0.0
4.169,8784.003,0.00011,0.0,0.0
4.175,8796.675,0.00011,0.0,0.0
4.181,8751.811,0.00011,0.0,0.0
4.188,8749.762,0.00011,0.0,0.0
4.194,8736.977,0.00011,0.0,0.0
4.2,8747.12,0.00011,0.0,0.0
4.206,8728.333,0.00011,0.0,0.0
4.213,8785.65,0.00011,0.0,0.0
4.219,8706.35,0.00011,0.0,0.0
4.225,8706.627,0.00011,0.0,0.0
4.232,8696.262,0.00011,0.0,0.0
4.238,8679.702,0.00012,0.0,0.0
4.244,8708.079,0.00011,0.0,0.0
4.251,8699.172,0.00011,0.0,0.0
4.257,8690.001,0.00012,0.0,0.0
4.263,8655.947,0.00012,0.0,0.0
4.27,8670.548,0.00012,0.0,0.0
4.276,8656.333,0.00012,0.0,0.0
4.282,8664.482,0.00012,0.0,0.0
4.289,8635.32,0.00012,0.0,0.0
4.295,8622.305,0.00012,0.0,0.0
4.301,8618.924,0.00012,0.0,0.0
4.308,8661.792,0.00012,0.0,0.0
4.314,8638.184,0.00012,0.0,0.0
4.32,8629.349,0.00012,0.0,0.0
4.327,8634.754,0.00012,0.0,0.0
4.333,8628.835,0.00012,0.0,0.0
4.339,8619.543,0.00012,0.0,0.0
4.346,8610.226,0.00012,0.0,0.0
4.352,8629.022,0.00012,0.0,0.0
4.358,8616.365,0.00012,0.0,0.0
4.364,8630.797,0.00012,0.0,0.0
4.371,8674.199,0.00012,0.0,0.0
4.377,8618.816,0.00012,0.0,0.0
4.383,8642.647,0.00012,0.0,0.0
4.39,8685.766,0.00012,0.0,0.0
4.396,8664.12,0.00012,0.0,0.0
4.402,8687.816,0.00012,0.0,0.0
4.409,8668.115,0.00012,0.0,0.0
4.415,8683.017,0.00012,0.0,0.0
4.421,8714.544,0.00011,0.0,0.0
4.428,8719.823,0.00011,0.0,0.0
4.434,8688.386,0.00012,0.0,0.0
4.44,8775.076,0.00011,0.0,0.0
4.447,8796.019,0.00011,0.0,0.0
4.453,8841.629,0.00011,0.0,0.0
4.459,8791.875,0.00011,0.0,0.0
4.466,8895.362,0.00011,0.0,0.0
4.472,8922.529,0.00011,0.0,0.0
4.478,9038.285,0.00011,0.0,0.0
4.485,9222.861,0.00011,0.0,0.0
4.491,9418.16,0.00011,0.0,0.0
4.497,9785.92,0.0001,0.0,0.0
4.504,10009.316,0.0001,0.0,0.0
4.51,10639.966,0.00009,0.0,0.0
4.516,12197.735,0.00008,0.0,0.0
4.522,14488.759,0.00007,0.0,0.0
4.529,22537.353,0.00004,0.0,0.0
4.535,22600.564,0.00004,0.0,0.0
4.541,40382.58,0.00002,0.0,0.0
4.548,40249.439,0.00002,0.0,0.0
4.554,54906.195,0.00002,0.0,0.0
4.56,53960.936,0.00002,0.0,0.0
4.567,54641.562,0.00002,0.0,0.0
4.573,43992.669,0.00002,0.0,0.0
4.579,35049.668,0.00003,0.0,0.0
4.586,26953.177,0.00004,0.0,0.0
4.592,23145.42,0.00004,0.0,0.0
4.598,14847.49,0.00007,0.0,0.0
4.605,13428.117,0.00007,0.0,0.0
4.611,10824.109,0.00009,0.0,0.0
4.617,10090.668,0.0001,0.0,0.0
4.624,9646.968,0.0001,0.0,0.0
4.63,9219.763,0.00011,0.0,0.0
4.636,9113.261,0.00011,0.0,0.0
4.643,8856.168,0.00011,0.0,0.0
4.649,8724.018,0.00011,0.0,0.0
4.655,8689.953,0.00012,0.0,0.0
4.662,8477.439,0.00012,0.0,0.0
4.668,8509.054,0.00012,0.0,0.0
4.674,8352.549,0.00012,0.0,0.0
4.68,8376.809,0.00012,0.0,0.0
4.687,8247.425,0.00012,0.0,0.0
4.693,8287.314,0.00012,0.0,0.0
4.699,8196.975,0.00012,0.0,0.0
4.706,8150.778,0.00012,0.0,0.0
4.712,8113.845,0.00012,0.0,0.0
4.718,8092.852,0.00012,0.0,0.0
4.725,8054.104,0.00012,0.0,0.0
4.731,8020.025,0.00012,0.0,0.0
4.737,7965.239,0.00013,0.0,0.0
4.744,7947.096,0.00013,0.0,0.0
4.75,7873.65,0.00013,0.0,0.0
4.756,7877.043,0.00013,0.0,0.0
4.763,7886.441,0.00013,0.0,0.0
4.769,7769.527,0.00013,0.0,0.0
4.775,7795.222,0.00013,0.0,0.0
4.782,7701.105,0.00013,0.0,0.0
4.788,7726.782,0.00013,0.0,0.0
4.794,7664.391,0.00013,0.0,0.0
4.801,7634.611,0.00013,0.0,0.0
4.807,7601.621,0.00013,0.0,0.0
4.813,7631.072,0.00013,0.0,0.0
4.82,7564.301,0.00013,0.0,0.0
4.826,7551.442,0.00013,0.0,0.0
4.832,7484.875,0.00013,0.0,0.0
4.838,7493.988,0.00013,0.0,0.0
4.845,7505.383,0.00013,0.0,0.0
4.851,7444.295,0.00013,0.0,0.0
4.857,7445.944,0.00013,0.0,0.0
4.864,7376.057,0.00014,0.0,0.0
4.87,7373.383,0.00014,0.0,0.0
4.876,7333.171,0.00014,0.0,0.0
4.883,7348.331,0.00014,0.0,0.0
4.889,7261.497,0.00014,0.0,0.0
4.895,7307.618,0.00014,0.0,0.0
4.902,7199.62,0.00014,0.0,0.0
4.908,7229.739,0.00014,0.0,0.0
4.914,7181.979,0.00014,0.0,0.0
4.921,7188.302,0.00014,0.0,0.0
4.927,7171.324,0.00014,0.0,0.0
4.933,7118.405,0.00014,0.0,0.0
4.94,7110.445,0.00014,0.0,0.0
4.946,7099.189,0.00014,0.0,0.0
4.952,7062.151,0.00014,0.0,0.0
4.959,7047.91,0.00014,0.0,0.0
4.965,7050.284,0.00014,0.0,0.0
4.971,6992.261,0.00014,0.0,0.0
4.978,7023.722,0.00014,0.0,0.0
4.984,6959.874,0.00014,0.0,0.0
4.99,6962.037,0.00014,0.0,0.0
4.996,6925.909,0.00014,0.0,0.0
5.003,6908.594,0.00014,0.0,0.0
5.009,6909.356,0.00014,0.0,0.0
5.015,6879.394,0.00015,0.0,0.0
5.022,6866.539,0.00015,0.0,0.0
5.028,6871.466,0.00015,0.0,0.0
5.034,6827.848,0.00015,0.0,0.0
5.041,6807.185,0.00015,0.0,0.0
5.047,6810.092,0.00015,0.0,0.0
5.053,6782.026,0.00015,0.0,0.0
5.06,6809.192,0.00015,0.0,0.0
5.066,6752.733,0.00015,0.0,0.0
5.072,6762.944,0.00015,0.0,0.0
5.079,6759.677,0.00015,0.0,0.0
5.085,6740.147,0.00015,0.0,0.0
5.091,6737.116,0.00015,0.0,0.0
5.098,6700.761,0.00015,0.0,0.0
5.104,6691.85,0.00015,0.0,0.0
5.11,6717.801,0.00015,0.0,0.0
5.117,6670.137,0.00015,0.0,0.0
5.123,6658.425,0.00015,0.0,0.0
5.129,6645.826,0.00015,0.0,0.0
5.136,6612.6,0.00015,0.0,0.0
5.142,6627.257,0.00015,0.0,0.0
5.148,6601.438,0.00015,0.0,0.0
5.154,6578.623,0.00015,0.0,0.0
5.161,6574.383,0.00015,0.0,0.0
5.167,6551.195,0.00015,0.0,0.0
5.173,6518.179,0.00015,0.0,0.0
5.18,6565.696,0.00015,0.0,0.0
5.186,6482.073,0.00015,0.0,0.0
5.192,6486.766,0.00015,0.0,0.0
5.199,6420.636,0.00016,0.0,0.0
5.205,6435.951,0.00016,0.0,0.0
5.211,6423.728,0.00016,0.0,0.0
5.218,6382.53,0.00016,0.0,0.0
5.224,6387.545,0.00016,0.0,0.0
5.23,6331.201,0.00016,0.0,0.0
5.237,6334.125,0.00016,0.0,0.0
5.243,6331.044,0.00016,0.0,0.0
5.249,6324.683,0.00016,0.0,0.0
5.256,6279.172,0.00016,0.0,0.0
5.262,6287.557,0.00016,0.0,0.0
5.268,6257.593,0.00016,0.0,0.0
5.275,6239.581,0.00016,0.0,0.0
5.281,6248.161,0.00016,0.0,0.0
5.287,6206.396,0.00016,0.0,0.0
5.294,6201.596,0.00016,0.0,0.0
5.3,6176.798,0.00016,0.0,0.0
5.306,6198.022,0.00016,0.0,0.0
5.312,6189.397,0.00016,0.0,0.0
5.319,6182.875,0.00016,0.0,0.0
5.325,6151.01,0.00016,0.0,0.0
5.331,6125.542,0.00016,0.0,0.0
5.338,6132.091,0.00016,0.0,0.0
5.344,6125.314,0.00016,0.0,0.0
5.35,6119.818,0.00016,0.0,0.0
5.357,6146.648,0.00016,0.0,0.0
5.363,6086.302,0.00016,0.0,0.0
5.369,6112.731,0.00016,0.0,0.0
5.376,6101.824,0.00016,0.0,0.0
5.382,6114.057,0.00016,0.0,0.0
5.388,6078.737,0.00016,0.0,0.0
5.395,6094.826,0.00016,0.0,0.0
5.401,6059.579,0.00017,0.0,0.0
5.407,6064.482,0.00016,0.0,0.0
5.414,6060.519,0.00017,0.0,0.0
5.42,6027.629,0.00017,0.0,0.0
5.426,6048.611,0.00017,0.0,0.0
5.433,6027.145,0.00017,0.0,0.0
5.439,6036.857,0.00017,0.0,0.0
5.445,6013.237,0.00017,0.0,0.0
5.452,6042.592,0.00017,0.0,0.0
5.458,5982.249,0.00017,0.0,0.0
5.464,6021.432,0.00017,0.0,0.0
5.47,5991.497,0.00017,0.0,0.0
5.477,6017.289,0.00017,0.0,0.0
5.483,5992.469,0.00017,0.0,0.0
5.489,6002.304,0.00017,0.0,0.0
5.496,5994.769,0.00017,0.0,0.0
5.502,5993.351,0.00017,0.0,0.0
5.508,6006.639,0.00017,0.0,0.0
5.515,5989.792,0.00017,0.0,0.0
5.521,5985.596,0.00017,0.0,0.0
5.527,5943.786,0.00017,0.0,0.0
5.534,5966.885,0.00017,0.0,0.0
5.54,5983.549,0.00017,0.0,0.0
5.546,6003.624,0.00017,0.0,0.0
5.553,5977.378,0.00017,0.0,0.0
5.559,5976.622,0.00017,0.0,0.0
5.565,5955.238,0.00017,0.0,0.0
5.572,5951.24,0.00017,0.0,0.0
5.578,5961.178,0.00017,0.0,0.0
5.584,5956.476,0.00017,0.0,0.0
5.591,5971.412,0.00017,0.0,0.0
5.597,5954.556,0.00017,0.0,0.0
5.603,5968.367,0.00017,0.0,0.0
5.61,5968.771,0.00017,0.0,0.0
5.616,5980.581,0.00017,0.0,0.0
5.622,5978.731,0.00017,0.0,0.0
5.628,5976.431,0.00017,0.0,0.0
5.635,5964.546,0.00017,0.0,0.0
5.641,5969.727,0.00017,0.0,0.0
5.647,5965.25,0.00017,0.0,0.0
5.654,5972.341,0.00017,0.0,0.0
5.66,5960.583,0.00017,0.0,0.0
5.666,6012.455,0.00017,0.0,0.0
5.673,5995.922,0.00017,0.0,0.0
5.679,6003.768,0.00017,0.0,0.0
5.685,5998.691,0.00017,0.0,0.0
5.692,5998.761,0.00017,0.0,0.0
5.698,6001.353,0.00017,0.0,0.0
5.704,6014.988,0.00017,0.0,0.0
5.711,6018.232,0.00017,0.0,0.0
5.717,6038.078,0.00017,0.0,0.0
5.723,6043.161,0.00017,0.0,0.0
5.73,6026.088,0.00017,0.0,0.0
5.736,6070.174,0.00016,0.0,0.0
5.742,6040.956,0.00017,0.0,0.0
5.749,6107.236,0.00016,0.0,0.0
5.755,6040.034,0.00017,0.0,0.0
5.761,6099.419,0.00016,0.0,0.0
5.768,6083.519,0.00016,0.0,0.0
5.774,6106.541,0.00016,0.0,0.0
5.78,6141.816,0.00016,0.0,0.0
5.786,6118.082,0.00016,0.0,0.0
5.793,6160.578,0.00016,0.0,0.0
5.799,6158.303,0.00016,0.0,0.0
5.805,6179.005,0.00016,0.0,0.0
5.812,6171.906,0.00016,0.0,0.0
5.818,6232.182,0.00016,0.0,0.0
5.824,6200.391,0.00016,0.0,0.0
5.831,6283.911,0.00016,0.0,0.0
5.837,6252.046,0.00016,0.0,0.0
5.843,6317.671,0.00016,0.0,0.0
5.85,6305.728,0.00016,0.0,0.0
5.856,6404.397,0.00016,0.0,0.0
5.862,6454.86,0.00015,0.0,0.0
5.869,6522.078,0.00015,0.0,0.0
5.875,6575.774,0.00015,0.0,0.0
5.881,6573.147,0.00015,0.0,0.0
5.888,6507.627,0.00015,0.0,0.0
5.894,6433.098,0.00016,0.0,0.0
5.9,6338.651,0.00016,0.0,0.0
5.907,6252.552,0.00016,0.0,0.0
5.913,6246.032,0.00016,0.0,0.0
5.919,6112.541,0.00016,0.0,0.0
5.926,6157.531,0.00016,0.0,0.0
5.932,6058.68,0.00017,0.0,0.0
5.938,6076.168,0.00016,0.0,0.0
5.944,6020.087,0.00017,0.0,0.0
5.951,6044.274,0.00017,0.0,0.0
5.957,5997.092,0.00017,0.0,0.0
5.963,6004.233,0.00017,0.0,0.0
5.97,5985.252,0.00017,0.0,0.0
5.976,5950.803,0.00017,0.0,0.0
5.982,5965.25,0.00017,0.0,0.0
5.989,5913.067,0.00017,0.0,0.0
5.995,5958.889,0.00017,0.0,0.0
6.001,5903.802,0.00017,0.0,0.0
6.008,5935.955,0.00017,0.0,0.0
6.014,5866.588,0.00017,0.0,0.0
6.02,5919.852,0.00017,0.0,0.0
6.027,5853.675,0.00017,0.0,0.0
6.033,5944.454,0.00017,0.0,0.0
6.039,5853.916,0.00017,0.0,0.0
6.046,5896.184,0.00017,0.0,0.0
6.052,5858.096,0.00017,0.0,0.0
6.058,5838.001,0.00017,0.0,0.0
6.065,5871.329,0.00017,0.0,0.0
6.071,5840.187,0.00017,0.0,0.0
6.077,5886.554,0.00017,0.0,0.0
6.084,5830.676,0.00017,0.0,0.0
6.09,5876.134,0.00017,0.0,0.0
6.096,5791.621,0.00017,0.0,0.0
6.102,5885.965,0.00017,0.0,0.0
6.109,5786.678,0.00017,0.0,0.0
6.115,5924.409,0.00017,0.0,0.0
6.121,5812.548,0.00017,0.0,0.0
6.128,5924.718,0.00017,0.0,0.0
6.134,5865.328,0.00017,0.0,0.0
6.14,5881.707,0.00017,0.0,0.0
6.147,5862.807,0.00017,0.0,0.0
6.153,5868.925,0.00017,0.0,0.0
6.159,5921.836,0.00017,0.0,0.0
6.166,5903.026,0.00017,0.0,0.0
6.172,5950.614,0.00017,0.0,0.0
6.178,5846.348,0.00017,0.0,0.0
6.185,5982.277,0.00017,0.0,0.0
6.191,5887.085,0.00017,0.0,0.0
6.197,6051.194,0.00017,0.0,0.0
6.204,5913.043,0.00017,0.0,0.0
6.21,6073.435,0.00016,0.0,0.0
6.216,5904.038,0.00017,0.0,0.0
6.223,6122.22,0.00016,0.0,0.0
6.229,5994.029,0.00017,0.0,0.0
6.235,6103.806,0.00016,0.0,0.0
6.242,6137.493,0.00016,0.0,0.0
6.248,6069.037,0.00016,0.0,0.0
6.254,6203.878,0.00016,0.0,0.0
6.26,6033.583,0.00017,0.0,0.0
6.267,6245.864,0.00016,0.0,0.0
6.273,6036.784,0.00017,0.0,0.0
6.279,6328.977,0.00016,0.0,0.0
6.286,6106.714,0.00016,0.0,0.0
6.292,6329.121,0.00016,0.0,0.0
6.298,6150.991,0.00016,0.0,0.0
6.305,6435.322,0.00016,0.0,0.0
6.311,6159.147,0.00016,0.0,0.0
6.317,6465.549,0.00015,0.0,0.0
6.324,6356.279,0.00016,0.0,0.0
6.33,6465.475,0.00015,0.0,0.0
6.336,6455.215,0.00015,0.0,0.0
6.343,6458.417,0.00015,0.0,0.0
6.349,6592.548,0.00015,0.0,0.0
6.355,6551.985,0.00015,0.0,0.0
6.362,6716.092,0.00015,0.0,0.0
6.368,6660.713,0.00015,0.0,0.0
6.374,6911.497,0.00014,0.0,0.0
6.381,6744.04,0.00015,0.0,0.0
6.387,7313.646,0.00014,0.0,0.0
6.393,6696.072,0.00015,0.0,0.0
6.4,7910.429,0.00013,0.0,0.0
6.406,7194.434,0.00014,0.0,0.0
6.412,8808.108,0.00011,0.0,0.0
6.418,9130.538,0.00011,0.0,0.0
6.425,11229.579,0.00009,0.0,0.0
6.431,13349.205,0.00007,0.0,0.0
6.437,15356.616,0.00007,0.0,0.0
6.444,18696.543,0.00005,0.0,0.0
6.45,18617.003,0.00005,0.0,0.0
6.456,22709.123,0.00004,0.0,0.0
6.463,14382.521,0.00007,0.0,0.0
6.469,20047.489,0.00005,0.0,0.0
6.475,8471.449,0.00012,0.0,0.0
6.482,16627.262,0.00006,0.0,0.0
6.488,8793.265,0.00011,0.0,0.0
6.494,11357.61,0.00009,0.0,0.0
6.501,7736.757,0.00013,0.0,0.0
6.507,8943.432,0.00011,0.0,0.0
6.513,7743.199,0.00013,0.0,0.0
6.52,7841.215,0.00013,0.0,0.0
6.526,7769.957,0.00013,0.0,0.0
6.532,7838.717,0.00013,0.0,0.0
6.539,8052.514,0.00012,0.0,0.0
6.545,7921.826,0.00013,0.0,0.0
6.551,8603.164,0.00012,0.0,0.0
6.558,8724.08,0.00011,0.0,0.0
6.564,9912.221,0.0001,0.0,0.0
6.57,11050.958,0.00009,0.0,0.0
6.576,14233.052,0.00007,0.0,0.0
6.583,19668.38,0.00005,0.0,0.0
6.589,29275.132,0.00003,0.0,0.0
6.595,46225.962,0.00002,0.0,0.0
6.602,72533.594,0.00001,0.0,0.0
6.608,86049.002,0.00001,0.0,0.0
6.614,105320.938,0.00001,0.0,0.0
6.621,103962.871,0.00001,0.0,0.0
6.627,87228.324,0.00001,0.0,0.0
6.633,59561.425,0.00002,0.0,0.0
6.64,40856.141,0.00002,0.0,0.0
6.646,23597.736,0.00004,0.0,0.0
6.652,17355.765,0.00006,0.0,0.0
6.659,12733.33,0.00008,0.0,0.0
6.665,9900.655,0.0001,0.0,0.0
6.671,9067.803,0.00011,0.0,0.0
6.678,7959.96,0.00013,0.0,0.0
6.684,7480.3,0.00013,0.0,0.0
6.69,7197.385,0.00014,0.0,0.0
6.697,6885.55,0.00015,0.0,0.0
6.703,6797.604,0.00015,0.0,0.0
6.709,6535.388,0.00015,0.0,0.0
6.716,6539.019,0.00015,0.0,0.0
6.722,6341.692,0.00016,0.0,0.0
6.728,6358.929,0.00016,0.0,0.0
6.734,6214.302,0.00016,0.0,0.0
6.741,6285.024,0.00016,0.0,0.0
6.747,6126.27,0.00016,0.0,0.0
6.753,6194.31,0.00016,0.0,0.0
6.76,6110.337,0.00016,0.0,0.0
6.766,6109.658,0.00016,0.0,0.0
6.772,6070.442,0.00016,0.0,0.0
6.779,6043.008,0.00017,0.0,0.0
6.785,6056.45,0.00017,0.0,0.0
6.791,5982.138,0.00017,0.0,0.0
6.798,6049.933,0.00017,0.0,0.0
6.804,5941.714,0.00017,0.0,0.0
6.81,5987.534,0.00017,0.0,0.0
6.817,5918.635,0.00017,0.0,0.0
6.823,5999.338,0.00017,0.0,0.0
6.829,5871.055,0.00017,0.0,0.0
6.836,5952.498,0.00017,0.0,0.0
6.842,5874.594,0.00017,0.0,0.0
6.848,5956.196,0.00017,0.0,0.0
6.855,5874.118,0.00017,0.0,0.0
6.861,5897.733,0.00017,0.0,0.0
6.867,5907.481,0.00017,0.0,0.0
6.874,5890.474,0.00017,0.0,0.0
6.88,5907.845,0.00017,0.0,0.0
6.886,5851.066,0.00017,0.0,0.0
6.892,5907.982,0.00017,0.0,0.0
6.899,5851.014,0.00017,0.0,0.0
6.905,5900.108,0.00017,0.0,0.0
6.911,5867.979,0.00017,0.0,0.0
6.918,5913.406,0.00017,0.0,0.0
6.924,5842.016,0.00017,0.0,0.0
6.93,5889.897,0.00017,0.0,0.0
6.937,5861.095,0.00017,0.0,0.0
6.943,5882.854,0.00017,0.0,0.0
6.949,5883.343,0.00017,0.0,0.0
6.956,5895.944,0.00017,0.0,0.0
6.962,5900.6,0.00017,0.0,0.0
6.968,5900.537,0.00017,0.0,0.0
6.975,5931.888,0.00017,0.0,0.0
6.981,5893.395,0.00017,0.0,0.0
6.987,5947.125,0.00017,0.0,0.0
6.994,5906.03,0.00017,0.0,0.0
7.0,5951.872,0.00017,0.0,0.0
7.006,5945.356,0.00017,0.0,0.0
7.013,5975.362,0.00017,0.0,0.0
7.019,5940.152,0.00017,0.0,0.0
7.025,5983.101,0.00017,0.0,0.0
7.032,5963.422,0.00017,0.0,0.0
7.038,5983.594,0.00017,0.0,0.0
7.044,5993.365,0.00017,0.0,0.0
7.05,5984.866,0.00017,0.0,0.0
7.057,6010.589,0.00017,0.0,0.0
7.063,6014.915,0.00017,0.0,0.0
7.069,6035.298,0.00017,0.0,0.0
7.076,6033.72,0.00017,0.0,0.0
7.082,6056.792,0.00017,0.0,0.0
7.088,6038.508,0.00017,0.0,0.0
7.095,6061.16,0.00016,0.0,0.0
7.101,6062.336,0.00016,0.0,0.0
7.107,6082.906,0.00016,0.0,0.0
7.114,6087.644,0.00016,0.0,0.0
7.12,6078.271,0.00016,0.0,0.0
7.126,6090.045,0.00016,0.0,0.0
7.133,6084.921,0.00016,0.0,0.0
7.139,6089.757,0.00016,0.0,0.0
7.145,6078.311,0.00016,0.0,0.0
7.152,6077.301,0.00016,0.0,0.0
7.158,6058.135,0.00017,0.0,0.0
7.164,6103.73,0.00016,0.0,0.0
7.171,6036.216,0.00017,0.0,0.0
7.177,6042.975,0.00017,0.0,0.0
7.183,6045.898,0.00017,0.0,0.0
7.19,6062.646,0.00016,0.0,0.0
7.196,6027.933,0.00017,0.0,0.0
7.202,6011.848,0.00017,0.0,0.0
7.208,6017.909,0.00017,0.0,0.0
7.215,5998.451,0.00017,0.0,0.0
7.221,5980.872,0.00017,0.0,0.0
7.227,5994.735,0.00017,0.0,0.0
7.234,5974.294,0.00017,0.0,0.0
7.24,5969.817,0.00017,0.0,0.0
7.246,5972.01,0.00017,0.0,0.0
7.253,5935.219,0.00017,0.0,0.0
7.259,5944.696,0.00017,0.0,0.0
7.265,5889.18,0.00017,0.0,0.0
7.272,5896.861,0.00017,0.0,0.0
7.278,5878.854,0.00017,0.0,0.0
7.284,5879.127,0.00017,0.0,0.0
7.291,5876.448,0.00017,0.0,0.0
7.297,5850.99,0.00017,0.0,0.0
7.303,5847.234,0.00017,0.0,0.0
7.31,5835.875,0.00017,0.0,0.0
7.316,5827.132,0.00017,0.0,0.0
7.322,5800.615,0.00017,0.0,0.0
7.329,5805.31,0.00017,0.0,0.0
7.335,5778.928,0.00017,0.0,0.0
7.341,5791.999,0.00017,0.0,0.0
7.348,5771.243,0.00017,0.0,0.0
7.354,5775.499,0.00017,0.0,0.0
7.36,5747.546,0.00017,0.0,0.0
7.366,5769.404,0.00017,0.0,0.0
7.373,5754.165,0.00017,0.0,0.0
7.379,5743.165,0.00017,0.0,0.0
7.385,5738.244,0.00017,0.0,0.0
7.392,5725.378,0.00017,0.0,0.0
7.398,5717.402,0.00017,0.0,0.0
7.404,5717.742,0.00017,0.0,0.0
7.411,5723.538,0.00017,0.0,0.0
7.417,5712.885,0.00018,0.0,0.0
7.423,5735.912,0.00017,0.0,0.0
7.43,5723.65,0.00017,0.0,0.0
7.436,5748.869,0.00017,0.0,0.0
7.442,5720.115,0.00017,0.0,0.0
7.449,5757.564,0.00017,0.0,0.0
7.455,5758.145,0.00017,0.0,0.0
7.461,5761.342,0.00017,0.0,0.0
7.468,5765.286,0.00017,0.0,0.0
7.474,5797.29,0.00017,0.0,0.0
7.48,5797.645,0.00017,0.0,0.0
7.487,5786.081,0.00017,0.0,0.0
7.493,5813.651,0.00017,0.0,0.0
7.499,5817.067,0.00017,0.0,0.0
7.506,5834.527,0.00017,0.0,0.0
7.512,5852.797,0.00017,0.0,0.0
7.518,5862.275,0.00017,0.0,0.0
7.524,5894.995,0.00017,0.0,0.0
7.531,5942.137,0.00017,0.0,0.0
7.537,5978.676,0.00017,0.0,0.0
7.543,6019.622,0.00017,0.0,0.0
7.55,6069.204,0.00016,0.0,0.0
7.556,6148.768,0.00016,0.0,0.0
7.562,6259.793,0.00016,0.0,0.0
7.569,6408.631,0.00016,0.0,0.0
7.575,6610.226,0.00015,0.0,0.0
7.581,6980.09,0.00014,0.0,0.0
7.588,7339.332,0.00014,0.0,0.0
7.594,8354.994,0.00012,0.0,0.0
7.6,10003.948,0.0001,0.0,0.0
7.607,12957.244,0.00008,0.0,0.0
7.613,18437.869,0.00005,0.0,0.0
7.619,26011.769,0.00004,0.0,0.0
7.626,35550.01,0.00003,0.0,0.0
7.632,47454.162,0.00002,0.0,0.0
7.638,52449.144,0.00002,0.0,0.0
7.645,45865.118,0.00002,0.0,0.0
7.651,45268.116,0.00002,0.0,0.0
7.657,30599.35,0.00003,0.0,0.0
7.664,21828.207,0.00005,0.0,0.0
7.67,15431.17,0.00006,0.0,0.0
7.676,11123.207,0.00009,0.0,0.0
7.682,9076.387,0.00011,0.0,0.0
7.689,7994.058,0.00013,0.0,0.0
7.695,7269.574,0.00014,0.0,0.0
7.701,6929.13,0.00014,0.0,0.0
7.708,6645.46,0.00015,0.0,0.0
7.714,6500.109,0.00015,0.0,0.0
7.72,6449.527,0.00016,0.0,0.0
7.727,6333.687,0.00016,0.0,0.0
7.733,6293.828,0.00016,0.0,0.0
7.739,6264.544,0.00016,0.0,0.0
7.746,6291.707,0.00016,0.0,0.0
7.752,6275.439,0.00016,0.0,0.0
7.758,6299.975,0.00016,0.0,0.0
7.765,6259.254,0.00016,0.0,0.0
7.771,6316.678,0.00016,0.0,0.0
7.777,6307.66,0.00016,0.0,0.0
7.784,6360.999,0.00016,0.0,0.0
7.79,6417.41,0.00016,0.0,0.0
7.796,6394.644,0.00016,0.0,0.0
7.803,6460.927,0.00015,0.0,0.0
7.809,6491.887,0.00015,0.0,0.0
7.815,6574.001,0.00015,0.0,0.0
7.822,6602.325,0.00015,0.0,0.0
7.828,6662.502,0.00015,0.0,0.0
7.834,6743.468,0.00015,0.0,0.0
7.84,6838.776,0.00015,0.0,0.0
7.847,7019.593,0.00014,0.0,0.0
7.853,7146.582,0.00014,0.0,0.0
7.859,7369.919,0.00014,0.0,0.0
7.866,7525.713,0.00013,0.0,0.0
7.872,8385.718,0.00012,0.0,0.0
7.878,9557.623,0.0001,0.0,0.0
7.885,11961.624,0.00008,0.0,0.0
7.891,13724.0,0.00007,0.0,0.0
7.897,17144.491,0.00006,0.0,0.0
7.904,16875.069,0.00006,0.0,0.0
7.91,16731.107,0.00006,0.0,0.0
7.916,16995.036,0.00006,0.0,0.0
7.923,12108.282,0.00008,0.0,0.0
7.929,9717.092,0.0001,0.0,0.0
7.935,9374.508,0.00011,0.0,0.0
7.942,8268.617,0.00012,0.0,0.0
7.948,7585.35,0.00013,0.0,0.0
7.954,7310.59,0.00014,0.0,0.0
7.961,7106.412,0.00014,0.0,0.0
7.967,7142.708,0.00014,0.0,0.0
7.973,7017.707,0.00014,0.0,0.0
7.98,6970.455,0.00014,0.0,0.0
7.986,6866.167,0.00015,0.0,0.0
7.992,6835.586,0.00015,0.0,0.0
7.998,6851.427,0.00015,0.0,0.0
8.005,6866.714,0.00015,0.0,0.0
8.011,6816.639,0.00015,0.0,0.0
8.017,6820.791,0.00015,0.0,0.0
8.024,6798.14,0.00015,0.0,0.0
8.03,6795.606,0.00015,0.0,0.0
8.036,6789.295,0.00015,0.0,0.0
8.043,6744.282,0.00015,0.0,0.0
8.049,6760.953,0.00015,0.0,0.0
8.055,6739.878,0.00015,0.0,0.0
8.062,6733.771,0.00015,0.0,0.0
8.068,6722.44,0.00015,0.0,0.0
8.074,6725.33,0.00015,0.0,0.0
8.081,6678.403,0.00015,0.0,0.0
8.087,6745.613,0.00015,0.0,0.0
8.093,6739.853,0.00015,0.0,0.0
8.1,6736.968,0.00015,0.0,0.0
8.106,6709.718,0.00015,0.0,0.0
8.112,6706.416,0.00015,0.0,0.0
8.119,6775.088,0.00015,0.0,0.0
8.125,6758.843,0.00015,0.0,0.0
8.131,6785.558,0.00015,0.0,0.0
8.138,6782.909,0.00015,0.0,0.0
8.144,6761.441,0.00015,0.0,0.0
8.15,6727.105,0.00015,0.0,0.0
8.156,6715.348,0.00015,0.0,0.0
8.163,6690.599,0.00015,0.0,0.0
8.169,6650.501,0.00015,0.0,0.0
8.175,6635.254,0.00015,0.0,0.0
8.182,6603.084,0.00015,0.0,0.0
8.188,6647.319,0.00015,0.0,0.0
8.194,6540.153,0.00015,0.0,0.0
8.201,6579.919,0.00015,0.0,0.0
8.207,6545.085,0.00015,0.0,0.0
8.213,6534.587,0.00015,0.0,0.0
8.22,6524.472,0.00015,0.0,0.0
8.226,6500.789,0.00015,0.0,0.0
8.232,6484.075,0.00015,0.0,0.0
8.239,6455.338,0.00015,0.0,0.0
8.245,6441.118,0.00016,0.0,0.0
8.251,6427.02,0.00016,0.0,0.0
8.258,6419.348,0.00016,0.0,0.0
8.264,6392.959,0.00016,0.0,0.0
8.27,6398.315,0.00016,0.0,0.0
8.277,6344.291,0.00016,0.0,0.0
8.283,6340.852,0.00016,0.0,0.0
8.289,6299.683,0.00016,0.0,0.0
8.296,6311.827,0.00016,0.0,0.0
8.302,6284.679,0.00016,0.0,0.0
8.308,6270.481,0.00016,0.0,0.0
8.314,6243.408,0.00016,0.0,0.0
8.321,6249.319,0.00016,0.0,0.0
8.327,6208.09,0.00016,0.0,0.0
8.333,6200.405,0.00016,0.0,0.0
8.34,6220.238,0.00016,0.0,0.0
8.346,6169.652,0.00016,0.0,0.0
8.352,6178.311,0.00016,0.0,0.0
8.359,6156.301,0.00016,0.0,0.0
8.365,6155.331,0.00016,0.0,0.0
8.371,6122.756,0.00016,0.0,0.0
8.378,6124.53,0.00016,0.0,0.0
8.384,6091.087,0.00016,0.0,0.0
8.39,6096.069,0.00016,0.0,0.0
8.397,6073.137,0.00016,0.0,0.0
8.403,6054.35,0.00017,0.0,0.0
8.409,6027.619,0.00017,0.0,0.0
8.416,6004.412,0.00017,0.0,0.0
8.422,6011.691,0.00017,0.0,0.0
8.428,5982.612,0.00017,0.0,0.0
8.435,5992.513,0.00017,0.0,0.0
8.441,5964.861,0.00017,0.0,0.0
8.447,5955.533,0.00017,0.0,0.0
8.454,5948.041,0.00017,0.0,0.0
8.46,5927.862,0.00017,0.0,0.0
8.466,5917.1,0.00017,0.0,0.0
8.472,5908.57,0.00017,0.0,0.0
8.479,5903.477,0.00017,0.0,0.0
8.485,5893.458,0.00017,0.0,0.0
8.491,5891.983,0.00017,0.0,0.0
8.498,5895.422,0.00017,0.0,0.0
8.504,5879.504,0.00017,0.0,0.0
8.51,5862.735,0.00017,0.0,0.0
8.517,5863.681,0.00017,0.0,0.0
8.523,5845.358,0.00017,0.0,0.0
8.529,5822.791,0.00017,0.0,0.0
8.536,5840.421,0.00017,0.0,0.0
8.542,5805.132,0.00017,0.0,0.0
8.548,5824.331,0.00017,0.0,0.0
8.555,5794.96,0.00017,0.0,0.0
8.561,5791.65,0.00017,0.0,0.0
8.567,5782.773,0.00017,0.0,0.0
8.574,5771.539,0.00017,0.0,0.0
8.58,5778.337,0.00017,0.0,0.0
8.586,5777.075,0.00017,0.0,0.0
8.593,5747.647,0.00017,0.0,0.0
8.599,5745.327,0.00017,0.0,0.0
8.605,5723.504,0.00017,0.0,0.0
8.612,5716.632,0.00017,0.0,0.0
8.618,5723.799,0.00017,0.0,0.0
8.624,5708.471,0.00018,0.0,0.0
8.63,5718.535,0.00017,0.0,0.0
8.637,5694.949,0.00018,0.0,0.0
8.643,5689.051,0.00018,0.0,0.0
8.649,5716.444,0.00017,0.0,0.0
8.656,5675.21,0.00018,0.0,0.0
8.662,5679.218,0.00018,0.0,0.0
8.668,5692.373,0.00018,0.0,0.0
8.675,5673.294,0.00018,0.0,0.0
8.681,5679.679,0.00018,0.0,0.0
8.687,5678.985,0.00018,0.0,0.0
8.694,5650.145,0.00018,0.0,0.0
8.7,5649.836,0.00018,0.0,0.0
8.706,5653.048,0.00018,0.0,0.0
8.713,5653.181,0.00018,0.0,0.0
8.719,5658.297,0.00018,0.0,0.0
8.725,5632.262,0.00018,0.0,0.0
8.732,5656.418,0.00018,0.0,0.0
8.738,5624.534,0.00018,0.0,0.0
8.744,5626.058,0.00018,0.0,0.0
8.751,5638.613,0.00018,0.0,0.0
8.757,5641.398,0.00018,0.0,0.0
8.763,5610.885,0.00018,0.0,0.0
8.77,5625.897,0.00018,0.0,0.0
8.776,5625.502,0.00018,0.0,0.0
8.782,5607.272,0.00018,0.0,0.0
8.788,5596.071,0.00018,0.0,0.0
8.795,5600.669,0.00018,0.0,0.0
8.801,5613.466,0.00018,0.0,0.0
8.807,5605.383,0.00018,0.0,0.0
8.814,5591.18,0.00018,0.0,0.0
8.82,5596.342,0.00018,0.0,0.0
8.826,5590.657,0.00018,0.0,0.0
8.833,5601.769,0.00018,0.0,0.0
8.839,5584.537,0.00018,0.0,0.0
8.845,5590.84,0.00018,0.0,0.0
8.852,5570.264,0.00018,0.0,0.0
8.858,5569.439,0.00018,0.0,0.0
8.864,5576.615,0.00018,0.0,0.0
8.871,5574.584,0.00018,0.0,0.0
8.877,5579.346,0.00018,0.0,0.0
8.883,5572.029,0.00018,0.0,0.0
8.89,5573.373,0.00018,0.0,0.0
8.896,5575.41,0.00018,0.0,0.0
8.902,5571.899,0.00018,0.0,0.0
8.909,5570.473,0.00018,0.0,0.0
8.915,5597.994,0.00018,0.0,0.0
8.921,5575.341,0.00018,0.0,0.0
8.928,5573.231,0.00018,0.0,0.0
8.934,5570.063,0.00018,0.0,0.0
8.94,5564.079,0.00018,0.0,0.0
8.946,5559.636,0.00018,0.0,0.0
8.953,5572.732,0.00018,0.0,0.0
8.959,5580.171,0.00018,0.0,0.0
8.965,5571.029,0.00018,0.0,0.0
8.972,5578.267,0.00018,0.0,0.0
8.978,5586.736,0.00018,0.0,0.0
8.984,5595.421,0.00018,0.0,0.0
8.991,5593.647,0.00018,0.0,0.0
8.997,5585.367,0.00018,0.0,0.0
9.003,5605.182,0.00018,0.0,0.0
9.01,5618.696,0.00018,0.0,0.0
9.016,5606.241,0.00018,0.0,0.0
9.022,5623.941,0.00018,0.0,0.0
9.029,5631.076,0.00018,0.0,0.0
9.035,5641.051,0.00018,0.0,0.0
9.041,5662.128,0.00018,0.0,0.0
9.048,5672.019,0.00018,0.0,0.0
9.054,5674.99,0.00018,0.0,0.0
9.06,5699.759,0.00018,0.0,0.0
9.067,5724.026,0.00017,0.0,0.0
9.073,5760.264,0.00017,0.0,0.0
9.079,5805.387,0.00017,0.0,0.0
9.086,5841.455,0.00017,0.0,0.0
9.092,5948.516,0.00017,0.0,0.0
9.098,6155.936,0.00016,0.0,0.0
9.104,6395.414,0.00016,0.0,0.0
9.111,7272.161,0.00014,0.0,0.0
9.117,7593.8,0.00013,0.0,0.0
9.123,9614.142,0.0001,0.0,0.0
9.13,10222.377,0.0001,0.0,0.0
9.136,10331.064,0.0001,0.0,0.0
9.142,9898.692,0.0001,0.0,0.0
9.149,8274.324,0.00012,0.0,0.0
9.155,7285.94,0.00014,0.0,0.0
9.161,6716.766,0.00015,0.0,0.0
9.168,6192.601,0.00016,0.0,0.0
9.174,6056.605,0.00017,0.0,0.0
9.18,5975.876,0.00017,0.0,0.0
9.187,5908.599,0.00017,0.0,0.0
9.193,5899.71,0.00017,0.0,0.0
9.199,5855.502,0.00017,0.0,0.0
9.206,5841.251,0.00017,0.0,0.0
9.212,5820.951,0.00017,0.0,0.0
9.218,5816.983,0.00017,0.0,0.0
9.225,5791.707,0.00017,0.0,0.0
9.231,5777.119,0.00017,0.0,0.0
9.237,5790.249,0.00017,0.0,0.0
9.244,5770.54,0.00017,0.0,0.0
9.25,5750.547,0.00017,0.0,0.0
9.256,5762.795,0.00017,0.0,0.0
9.262,5735.939,0.00017,0.0,0.0
9.269,5731.123,0.00017,0.0,0.0
9.275,5717.239,0.00017,0.0,0.0
9.281,5721.677,0.00017,0.0,0.0
9.288,5708.476,0.00018,0.0,0.0
9.294,5673.756,0.00018,0.0,0.0
9.3,5667.116,0.00018,0.0,0.0
9.307,5665.371,0.00018,0.0,0.0
9.313,5652.042,0.00018,0.0,0.0
9.319,5629.534,0.00018,0.0,0.0
9.326,5616.513,0.00018,0.0,0.0
9.332,5605.649,0.00018,0.0,0.0
9.338,5598.585,0.00018,0.0,0.0
9.345,5576.068,0.00018,0.0,0.0
9.351,5554.709,0.00018,0.0,0.0
9.357,5542.582,0.00018,0.0,0.0
9.364,5516.018,0.00018,0.0,0.0
9.37,5525.168,0.00018,0.0,0.0
9.376,5478.259,0.00018,0.0,0.0
9.383,5475.35,0.00018,0.0,0.0
9.389,5463.254,0.00018,0.0,0.0
9.395,5447.16,0.00018,0.0,0.0
9.402,5414.255,0.00018,0.0,0.0
9.408,5392.372,0.00019,0.0,0.0
9.414,5397.402,0.00019,0.0,0.0
9.42,5382.688,0.00019,0.0,0.0
9.427,5365.754,0.00019,0.0,0.0
9.433,5360.317,0.00019,0.0,0.0
9.439,5330.603,0.00019,0.0,0.0
9.446,5330.064,0.00019,0.0,0.0
9.452,5302.281,0.00019,0.0,0.0
9.458,5283.987,0.00019,0.0,0.0
9.465,5306.732,0.00019,0.0,0.0
9.471,5282.312,0.00019,0.0,0.0
9.477,5285.364,0.00019,0.0,0.0
9.484,5254.925,0.00019,0.0,0.0
9.49,5250.915,0.00019,0.0,0.0
9.496,5237.18,0.00019,0.0,0.0
9.503,5228.136,0.00019,0.0,0.0
9.509,5215.425,0.00019,0.0,0.0
9.515,5220.209,0.00019,0.0,0.0
9.522,5187.125,0.00019,0.0,0.0
9.528,5176.153,0.00019,0.0,0.0
9.534,5165.776,0.00019,0.0,0.0
9.541,5159.251,0.00019,0.0,0.0
9.547,5151.494,0.00019,0.0,0.0
9.553,5122.635,0.0002,0.0,0.0
9.56,5122.646,0.0002,0.0,0.0
9.566,5130.788,0.00019,0.0,0.0
9.572,5094.748,0.0002,0.0,0.0
9.578,5107.051,0.0002,0.0,0.0
9.585,5089.465,0.0002,0.0,0.0
9.591,5085.272,0.0002,0.0,0.0
9.597,5097.064,0.0002,0.0,0.0
9.604,5080.44,0.0002,0.0,0.0
9.61,5075.236,0.0002,0.0,0.0
9.616,5068.147,0.0002,0.0,0.0
9.623,5055.911,0.0002,0.0,0.0
9.629,5059.899,0.0002,0.0,0.0
9.635,5053.067,0.0002,0.0,0.0
9.642,5025.976,0.0002,0.0,0.0
9.648,5048.106,0.0002,0.0,0.0
9.654,5038.278,0.0002,0.0,0.0
9.661,5031.97,0.0002,0.0,0.0
9.667,5032.5,0.0002,0.0,0.0
9.673,5006.187,0.0002,0.0,0.0
9.68,5015.22,0.0002,0.0,0.0
9.686,5011.924,0.0002,0.0,0.0
9.692,5021.501,0.0002,0.0,0.0
9.699,5005.61,0.0002,0.0,0.0
9.705,5007.139,0.0002,0.0,0.0
9.711,5006.336,0.0002,0.0,0.0
9.718,4995.933,0.0002,0.0,0.0
9.724,4977.978,0.0002,0.0,0.0
9.73,4990.588,0.0002,0.0,0.0
9.736,4980.005,0.0002,0.0,0.0
9.743,4998.202,0.0002,0.0,0.0
9.749,4997.78,0.0002,0.0,0.0
9.755,4969.013,0.0002,0.0,0.0
9.762,4991.837,0.0002,0.0,0.0
9.768,4988.109,0.0002,0.0,0.0
9.774,4983.382,0.0002,0.0,0.0
9.781,4993.484,0.0002,0.0,0.0
9.787,4972.159,0.0002,0.0,0.0
9.793,4995.347,0.0002,0.0,0.0
9.8,4993.584,0.0002,0.0,0.0
9.806,4977.049,0.0002,0.0,0.0
9.812,4987.081,0.0002,0.0,0.0
9.819,4972.616,0.0002,0.0,0.0
9.825,4985.605,0.0002,0.0,0.0
9.831,4998.382,0.0002,0.0,0.0
9.838,4995.982,0.0002,0.0,0.0
9.844,5001.753,0.0002,0.0,0.0
9.85,4993.25,0.0002,0.0,0.0
9.857,5005.574,0.0002,0.0,0.0
9.863,4986.853,0.0002,0.0,0.0
9.869,5001.695,0.0002,0.0,0.0
9.876,5001.218,0.0002,0.0,0.0
9.882,5008.427,0.0002,0.0,0.0
9.888,5003.026,0.0002,0.0,0.0
9.894,5024.142,0.0002,0.0,0.0
9.901,5015.072,0.0002,0.0,0.0
9.907,5004.078,0.0002,0.0,0.0
9.913,5013.901,0.0002,0.0,0.0
9.92,5004.509,0.0002,0.0,0.0
9.926,5011.818,0.0002,0.0,0.0
9.932,5008.853,0.0002,0.0,0.0
9.939,5019.798,0.0002,0.0,0.0
9.945,4996.536,0.0002,0.0,0.0
9.951,4998.514,0.0002,0.0,0.0
9.958,5037.621,0.0002,0.0,0.0
9.964,5009.701,0.0002,0.0,0.0
9.97,5016.906,0.0002,0.0,0.0
9.977,5037.451,0.0002,0.0,0.0
9.983,5008.295,0.0002,0.0,0.0
9.989,5020.794,0.0002,0.0,0.0
9.996,5007.926,0.0002,0.0,0.0
10.002,5003.107,0.0002,0.0,0.0
10.008,5042.777,0.0002,0.0,0.0
10.015,5026.244,0.0002,0.0,0.0
10.021,5024.894,0.0002,0.0,0.0
10.027,5044.173,0.0002,0.0,0.0
10.034,5025.139,0.0002,0.0,0.0
10.04,5022.066,0.0002,0.0,0.0
10.046,5000.747,0.0002,0.0,0.0
10.052,5037.897,0.0002,0.0,0.0
10.059,5042.778,0.0002,0.0,0.0
10.065,5046.408,0.0002,0.0,0.0
10.071,5040.855,0.0002,0.0,0.0
10.078,5041.896,0.0002,0.0,0.0
10.084,5023.626,0.0002,0.0,0.0
10.09,5050.842,0.0002,0.0,0.0
10.097,5051.348,0.0002,0.0,0.0
10.103,5072.738,0.0002,0.0,0.0
10.109,5066.138,0.0002,0.0,0.0
10.116,5054.904,0.0002,0.0,0.0
10.122,5062.536,0.0002,0.0,0.0
10.128,5059.293,0.0002,0.0,0.0
10.135,5053.479,0.0002,0.0,0.0
10.141,5068.496,0.0002,0.0,0.0
10.147,5082.081,0.0002,0.0,0.0
10.154,5098.835,0.0002,0.0,0.0
10.16,5116.619,0.0002,0.0,0.0
10.166,5114.762,0.0002,0.0,0.0
10.173,5187.841,0.00019,0.0,0.0
10.179,5211.993,0.00019,0.0,0.0
10.185,5464.063,0.00018,0.0,0.0
10.192,5743.165,0.00017,0.0,0.0
10.198,6183.364,0.00016,0.0,0.0
10.204,7405.676,0.00014,0.0,0.0
10.21,6609.344,0.00015,0.0,0.0
10.217,8446.664,0.00012,0.0,0.0
10.223,7455.644,0.00013,0.0,0.0
10.229,6507.949,0.00015,0.0,0.0
10.236,6423.349,0.00016,0.0,0.0
10.242,5490.675,0.00018,0.0,0.0
10.248,5346.144,0.00019,0.0,0.0
10.255,5119.029,0.0002,0.0,0.0
10.261,5096.123,0.0002,0.0,0.0
10.267,5043.187,0.0002,0.0,0.0
10.274,4998.216,0.0002,0.0,0.0
10.28,4973.264,0.0002,0.0,0.0
10.286,4980.694,0.0002,0.0,0.0
10.293,4949.025,0.0002,0.0,0.0
10.299,4966.848,0.0002,0.0,0.0
10.305,4941.433,0.0002,0.0,0.0
10.312,4921.838,0.0002,0.0,0.0
10.318,4908.009,0.0002,0.0,0.0
10.324,4898.684,0.0002,0.0,0.0
10.331,4896.379,0.0002,0.0,0.0
10.337,4903.296,0.0002,0.0,0.0
10.343,4873.227,0.00021,0.0,0.0
10.35,4873.56,0.00021,0.0,0.0
10.356,4878.095,0.0002,0.0,0.0
10.362,4843.247,0.00021,0.0,0.0
10.368,4863.129,0.00021,0.0,0.0
10.375,4866.443,0.00021,0.0,0.0
10.381,4843.812,0.00021,0.0,0.0
10.387,4846.362,0.00021,0.0,0.0
10.394,4850.053,0.00021,0.0,0.0
10.4,4836.863,0.00021,0.0,0.0
10.406,4831.12,0.00021,0.0,0.0
10.413,4827.296,0.00021,0.0,0.0
10.419,4796.709,0.00021,0.0,0.0
10.425,4820.796,0.00021,0.0,0.0
10.432,4805.084,0.00021,0.0,0.0
10.438,4817.71,0.00021,0.0,0.0
10.444,4802.477,0.00021,0.0,0.0
10.451,4818.103,0.00021,0.0,0.0
10.457,4800.565,0.00021,0.0,0.0
10.463,4805.575,0.00021,0.0,0.0
10.47,4810.601,0.00021,0.0,0.0
10.476,4793.816,0.00021,0.0,0.0
10.482,4816.493,0.00021,0.0,0.0
10.489,4776.577,0.00021,0.0,0.0
10.495,4821.474,0.00021,0.0,0.0
10.501,4785.975,0.00021,0.0,0.0
10.508,4799.246,0.00021,0.0,0.0
10.514,4794.592,0.00021,0.0,0.0
10.52,4800.54,0.00021,0.0,0.0
10.526,4792.097,0.00021,0.0,0.0
10.533,4784.111,0.00021,0.0,0.0
10.539,4783.325,0.00021,0.0,0.0
10.545,4775.761,0.00021,0.0,0.0
10.552,4805.263,0.00021,0.0,0.0
10.558,4761.883,0.00021,0.0,0.0
10.564,4787.454,0.00021,0.0,0.0
10.571,4785.371,0.00021,0.0,0.0
10.577,4781.645,0.00021,0.0,0.0
10.583,4777.993,0.00021,0.0,0.0
10.59,4774.915,0.00021,0.0,0.0
10.596,4777.749,0.00021,0.0,0.0
10.602,4776.029,0.00021,0.0,0.0
10.609,4796.884,0.00021,0.0,0.0
10.615,4767.399,0.00021,0.0,0.0
10.621,4784.784,0.00021,0.0,0.0
10.628,4774.973,0.00021,0.0,0.0
10.634,4783.737,0.00021,0.0,0.0
10.64,4798.276,0.00021,0.0,0.0
10.647,4792.026,0.00021,0.0,0.0
10.653,4806.65,0.00021,0.0,0.0
10.659,4813.472,0.00021,0.0,0.0
10.666,4821.507,0.00021,0.0,0.0
10.672,4809.869,0.00021,0.0,0.0
10.678,4832.582,0.00021,0.0,0.0
10.684,4816.173,0.00021,0.0,0.0
10.691,4854.428,0.00021,0.0,0.0
10.697,4846.751,0.00021,0.0,0.0
10.703,4850.138,0.00021,0.0,0.0
10.71,4890.271,0.0002,0.0,0.0
10.716,4890.135,0.0002,0.0,0.0
10.722,4942.102,0.0002,0.0,0.0
10.729,4951.971,0.0002,0.0,0.0
10.735,4988.128,0.0002,0.0,0.0
10.741,5074.332,0.0002,0.0,0.0
10.748,5134.06,0.00019,0.0,0.0
10.754,5280.246,0.00019,0.0,0.0
10.76,5471.704,0.00018,0.0,0.0
10.767,5774.259,0.00017,0.0,0.0
10.773,6517.279,0.00015,0.0,0.0
10.779,7327.286,0.00014,0.0,0.0
10.786,9134.389,0.00011,0.0,0.0
10.792,13405.88,0.00007,0.0,0.0
10.798,17133.812,0.00006,0.0,0.0
10.805,25957.847,0.00004,0.0,0.0
10.811,28882.201,0.00003,0.0,0.0
10.817,33096.353,0.00003,0.0,0.0
10.824,33043.86,0.00003,0.0,0.0
10.83,25915.305,0.00004,0.0,0.0
10.836,19440.135,0.00005,0.0,0.0
10.842,13897.69,0.00007,0.0,0.0
10.849,9869.358,0.0001,0.0,0.0
10.855,7923.979,0.00013,0.0,0.0
10.861,6555.964,0.00015,0.0,0.0
10.868,5984.597,0.00017,0.0,0.0
10.874,5610.322,0.00018,0.0,0.0
10.88,5343.708,0.00019,0.0,0.0
10.887,5220.991,0.00019,0.0,0.0
10.893,5115.78,0.0002,0.0,0.0
10.899,5055.001,0.0002,0.0,0.0
10.906,5023.04,0.0002,0.0,0.0
10.912,4960.061,0.0002,0.0,0.0
10.918,4955.82,0.0002,0.0,0.0
10.925,4932.114,0.0002,0.0,0.0
10.931,4919.753,0.0002,0.0,0.0
10.937,4899.816,0.0002,0.0,0.0
10.944,4896.657,0.0002,0.0,0.0
10.95,4880.21,0.0002,0.0,0.0
10.956,4868.841,0.00021,0.0,0.0
10.963,4861.241,0.00021,0.0,0.0
10.969,4846.13,0.00021,0.0,0.0
10.975,4837.573,0.00021,0.0,0.0
10.982,4814.521,0.00021,0.0,0.0
10.988,4825.748,0.00021,0.0,0.0
10.994,4793.262,0.00021,0.0,0.0
11.0,4801.173,0.00021,0.0,0.0
11.007,4790.365,0.00021,0.0,0.0
11.013,4795.692,0.00021,0.0,0.0
11.019,4775.982,0.00021,0.0,0.0
11.026,4774.162,0.00021,0.0,0.0
11.032,4756.081,0.00021,0.0,0.0
11.038,4746.89,0.00021,0.0,0.0
11.045,4745.908,0.00021,0.0,0.0
11.051,4733.693,0.00021,0.0,0.0
11.057,4730.942,0.00021,0.0,0.0
11.064,4724.084,0.00021,0.0,0.0
11.07,4719.719,0.00021,0.0,0.0
11.076,4709.035,0.00021,0.0,0.0
11.083,4712.136,0.00021,0.0,0.0
11.089,4699.506,0.00021,0.0,0.0
11.095,4693.882,0.00021,0.0,0.0
11.102,4709.388,0.00021,0.0,0.0
11.108,4685.619,0.00021,0.0,0.0
11.114,4690.043,0.00021,0.0,0.0
11.121,4668.633,0.00021,0.0,0.0
11.127,4677.474,0.00021,0.0,0.0
11.133,4667.0,0.00021,0.0,0.0
11.14,4666.264,0.00021,0.0,0.0
11.146,4653.566,0.00021,0.0,0.0
11.152,4655.999,0.00021,0.0,0.0
11.158,4658.069,0.00021,0.0,0.0
11.165,4646.61,0.00022,0.0,0.0
11.171,4653.346,0.00021,0.0,0.0
11.177,4638.604,0.00022,0.0,0.0
11.184,4641.999,0.00022,0.0,0.0
11.19,4646.211,0.00022,0.0,0.0
11.196,4634.066,0.00022,0.0,0.0
11.203,4648.415,0.00022,0.0,0.0
11.209,4635.33,0.00022,0.0,0.0
11.215,4609.12,0.00022,0.0,0.0
11.222,4623.334,0.00022,0.0,0.0
11.228,4604.091,0.00022,0.0,0.0
11.234,4602.485,0.00022,0.0,0.0
11.241,4604.703,0.00022,0.0,0.0
11.247,4623.844,0.00022,0.0,0.0
11.253,4616.739,0.00022,0.0,0.0
11.26,4593.031,0.00022,0.0,0.0
11.266,4606.624,0.00022,0.0,0.0
11.272,4600.807,0.00022,0.0,0.0
11.279,4601.807,0.00022,0.0,0.0
11.285,4589.095,0.00022,0.0,0.0
11.291,4600.153,0.00022,0.0,0.0
11.298,4602.755,0.00022,0.0,0.0
11.304,4594.005,0.00022,0.0,0.0
11.31,4578.77,0.00022,0.0,0.0
11.316,4585.826,0.00022,0.0,0.0
11.323,4585.67,0.00022,0.0,0.0
11.329,4582.456,0.00022,0.0,0.0
11.335,4594.787,0.00022,0.0,0.0
11.342,4586.208,0.00022,0.0,0.0
11.348,4591.157,0.00022,0.0,0.0
11.354,4586.733,0.00022,0.0,0.0
11.361,4575.445,0.00022,0.0,0.0
11.367,4603.143,0.00022,0.0,0.0
11.373,4581.387,0.00022,0.0,0.0
11.38,4582.103,0.00022,0.0,0.0
11.386,4564.267,0.00022,0.0,0.0
11.392,4575.745,0.00022,0.0,0.0
11.399,4592.14,0.00022,0.0,0.0
11.405,4574.933,0.00022,0.0,0.0
11.411,4584.51,0.00022,0.0,0.0
11.418,4601.22,0.00022,0.0,0.0
11.424,4575.299,0.00022,0.0,0.0
11.43,4587.312,0.00022,0.0,0.0
11.437,4573.149,0.00022,0.0,0.0
11.443,4577.645,0.00022,0.0,0.0
11.449,4585.889,0.00022,0.0,0.0
11.456,4587.196,0.00022,0.0,0.0
11.462,4584.866,0.00022,0.0,0.0
11.468,4590.771,0.00022,0.0,0.0
11.474,4582.908,0.00022,0.0,0.0
11.481,4590.871,0.00022,0.0,0.0
11.487,4584.195,0.00022,0.0,0.0
11.493,4590.872,0.00022,0.0,0.0
11.5,4607.738,0.00022,0.0,0.0
11.506,4602.909,0.00022,0.0,0.0
11.512,4624.253,0.00022,0.0,0.0
11.519,4616.476,0.00022,0.0,0.0
11.525,4612.609,0.00022,0.0,0.0
11.531,4622.029,0.00022,0.0,0.0
11.538,4626.396,0.00022,0.0,0.0
11.544,4626.297,0.00022,0.0,0.0
11.55,4623.807,0.00022,0.0,0.0
11.557,4626.298,0.00022,0.0,0.0
11.563,4629.235,0.00022,0.0,0.0
11.569,4627.823,0.00022,0.0,0.0
11.576,4632.211,0.00022,0.0,0.0
11.582,4636.997,0.00022,0.0,0.0
11.588,4638.022,0.00022,0.0,0.0
11.595,4639.53,0.00022,0.0,0.0
11.601,4645.916,0.00022,0.0,0.0
11.607,4650.375,0.00022,0.0,0.0
11.614,4654.818,0.00021,0.0,0.0
11.62,4656.884,0.00021,0.0,0.0
11.626,4670.205,0.00021,0.0,0.0
11.632,4664.465,0.00021,0.0,0.0
11.639,4660.13,0.00021,0.0,0.0
11.645,4689.442,0.00021,0.0,0.0
11.651,4674.039,0.00021,0.0,0.0
11.658,4681.885,0.00021,0.0,0.0
11.664,4680.443,0.00021,0.0,0.0
11.67,4688.289,0.00021,0.0,0.0
11.677,4709.217,0.00021,0.0,0.0
11.683,4690.895,0.00021,0.0,0.0
11.689,4698.37,0.00021,0.0,0.0
11.696,4712.043,0.00021,0.0,0.0
11.702,4701.913,0.00021,0.0,0.0
11.708,4710.184,0.00021,0.0,0.0
11.715,4702.861,0.00021,0.0,0.0
11.721,4696.287,0.00021,0.0,0.0
11.727,4707.797,0.00021,0.0,0.0
11.734,4699.842,0.00021,0.0,0.0
11.74,4724.792,0.00021,0.0,0.0
11.746,4691.381,0.00021,0.0,0.0
11.753,4701.261,0.00021,0.0,0.0
11.759,4691.597,0.00021,0.0,0.0
11.765,4686.453,0.00021,0.0,0.0
11.772,4716.912,0.00021,0.0,0.0
11.778,4681.806,0.00021,0.0,0.0
11.784,4691.265,0.00021,0.0,0.0
11.79,4699.47,0.00021,0.0,0.0
11.797,4680.231,0.00021,0.0,0.0
11.803,4700.857,0.00021,0.0,0.0
11.809,4683.231,0.00021,0.0,0.0
11.816,4689.906,0.00021,0.0,0.0
11.822,4702.746,0.00021,0.0,0.0
11.828,4679.044,0.00021,0.0,0.0
11.835,4684.099,0.00021,0.0,0.0
11.841,4671.471,0.00021,0.0,0.0
11.847,4668.846,0.00021,0.0,0.0
11.854,4685.009,0.00021,0.0,0.0
11.86,4655.154,0.00021,0.0,0.0
11.866,4668.888,0.00021,0.0,0.0
11.873,4680.356,0.00021,0.0,0.0
11.879,4664.161,0.00021,0.0,0.0
11.885,4675.449,0.00021,0.0,0.0
11.892,4671.138,0.00021,0.0,0.0
11.898,4666.931,0.00021,0.0,0.0
11.904,4657.875,0.00021,0.0,0.0
11.911,4657.535,0.00021,0.0,0.0
11.917,4680.564,0.00021,0.0,0.0
11.923,4669.305,0.00021,0.0,0.0
11.93,4665.617,0.00021,0.0,0.0
11.936,4668.63,0.00021,0.0,0.0
11.942,4659.704,0.00021,0.0,0.0
11.948,4687.027,0.00021,0.0,0.0
11.955,4667.572,0.00021,0.0,0.0
11.961,4680.414,0.00021,0.0,0.0
11.967,4682.151,0.00021,0.0,0.0
11.974,4686.446,0.00021,0.0,0.0
11.98,4672.858,0.00021,0.0,0.0
11.986,4691.305,0.00021,0.0,0.0
11.993,4691.713,0.00021,0.0,0.0
11.999,4694.817,0.00021,0.0,0.0
12.005,4688.708,0.00021,0.0,0.0
12.012,4703.995,0.00021,0.0,0.0
12.018,4714.678,0.00021,0.0,0.0
12.024,4731.169,0.00021,0.0,0.0
12.031,4758.102,0.00021,0.0,0.0
12.037,4759.945,0.00021,0.0,0.0
12.043,4811.171,0.00021,0.0,0.0
12.05,4811.913,0.00021,0.0,0.0
12.056,4896.341,0.0002,0.0,0.0
12.062,5044.683,0.0002,0.0,0.0
12.069,5182.695,0.00019,0.0,0.0
12.075,5609.988,0.00018,0.0,0.0
12.081,5979.981,0.00017,0.0,0.0
12.088,6756.462,0.00015,0.0,0.0
12.094,6175.443,0.00016,0.0,0.0
12.1,5844.722,0.00017,0.0,0.0
12.106,6339.509,0.00016,0.0,0.0
12.113,5260.871,0.00019,0.0,0.0
12.119,5005.241,0.0002,0.0,0.0
12.125,4941.195,0.0002,0.0,0.0
12.132,4732.089,0.00021,0.0,0.0
12.138,4730.798,0.00021,0.0,0.0
12.144,4672.546,0.00021,0.0,0.0
12.151,4643.454,0.00022,0.0,0.0
12.157,4628.715,0.00022,0.0,0.0
12.163,4603.219,0.00022,0.0,0.0
12.17,4603.329,0.00022,0.0,0.0
12.176,4583.689,0.00022,0.0,0.0
12.182,4559.379,0.00022,0.0,0.0
12.189,4556.609,0.00022,0.0,0.0
12.195,4542.261,0.00022,0.0,0.0
12.201,4539.852,0.00022,0.0,0.0
12.208,4518.762,0.00022,0.0,0.0
12.214,4504.431,0.00022,0.0,0.0
12.22,4505.66,0.00022,0.0,0.0
12.227,4502.368,0.00022,0.0,0.0
12.233,4471.882,0.00022,0.0,0.0
12.239,4478.944,0.00022,0.0,0.0
12.246,4466.956,0.00022,0.0,0.0
12.252,4466.021,0.00022,0.0,0.0
12.258,4459.493,0.00022,0.0,0.0
12.264,4445.039,0.00022,0.0,0.0
12.271,4447.93,0.00022,0.0,0.0
12.277,4430.107,0.00023,0.0,0.0
12.283,4428.791,0.00023,0.0,0.0
12.29,4422.419,0.00023,0.0,0.0
12.296,4413.238,0.00023,0.0,0.0
12.302,4401.006,0.00023,0.0,0.0
12.309,4396.136,0.00023,0.0,0.0
12.315,4393.36,0.00023,0.0,0.0
12.321,4391.191,0.00023,0.0,0.0
12.328,4390.789,0.00023,0.0,0.0
12.334,4383.71,0.00023,0.0,0.0
12.34,4366.001,0.00023,0.0,0.0
12.347,4378.468,0.00023,0.0,0.0
12.353,4375.288,0.00023,0.0,0.0
12.359,4356.985,0.00023,0.0,0.0
12.366,4363.861,0.00023,0.0,0.0
12.372,4354.835,0.00023,0.0,0.0
12.378,4345.402,0.00023,0.0,0.0
12.385,4365.087,0.00023,0.0,0.0
12.391,4335.707,0.00023,0.0,0.0
12.397,4348.095,0.00023,0.0,0.0
12.404,4336.635,0.00023,0.0,0.0
12.41,4325.562,0.00023,0.0,0.0
12.416,4336.931,0.00023,0.0,0.0
12.422,4316.886,0.00023,0.0,0.0
12.429,4311.028,0.00023,0.0,0.0
12.435,4325.621,0.00023,0.0,0.0
12.441,4317.215,0.00023,0.0,0.0
12.448,4322.788,0.00023,0.0,0.0
12.454,4314.568,0.00023,0.0,0.0
12.46,4314.984,0.00023,0.0,0.0
12.467,4311.827,0.00023,0.0,0.0
12.473,4312.386,0.00023,0.0,0.0
12.479,4324.256,0.00023,0.0,0.0
12.486,4311.293,0.00023,0.0,0.0
12.492,4324.694,0.00023,0.0,0.0
12.498,4310.892,0.00023,0.0,0.0
12.505,4325.361,0.00023,0.0,0.0
12.511,4326.839,0.00023,0.0,0.0
12.517,4326.947,0.00023,0.0,0.0
12.524,4330.857,0.00023,0.0,0.0
12.53,4327.077,0.00023,0.0,0.0
12.536,4321.297,0.00023,0.0,0.0
12.543,4327.807,0.00023,0.0,0.0
12.549,4341.509,0.00023,0.0,0.0
12.555,4340.886,0.00023,0.0,0.0
12.562,4355.06,0.00023,0.0,0.0
12.568,4337.813,0.00023,0.0,0.0
12.574,4361.921,0.00023,0.0,0.0
12.58,4383.942,0.00023,0.0,0.0
12.587,4383.264,0.00023,0.0,0.0
12.593,4418.776,0.00023,0.0,0.0
12.599,4447.707,0.00022,0.0,0.0
12.606,4484.47,0.00022,0.0,0.0
12.612,4535.658,0.00022,0.0,0.0
12.618,4624.647,0.00022,0.0,0.0
12.625,4736.898,0.00021,0.0,0.0
12.631,4945.432,0.0002,0.0,0.0
12.637,5186.033,0.00019,0.0,0.0
12.644,5723.848,0.00017,0.0,0.0
12.65,6581.54,0.00015,0.0,0.0
12.656,8136.987,0.00012,0.0,0.0
12.663,11042.566,0.00009,0.0,0.0
12.669,15723.268,0.00006,0.0,0.0
12.675,22410.747,0.00004,0.0,0.0
12.682,29296.077,0.00003,0.0,0.0
12.688,33653.043,0.00003,0.0,0.0
12.694,35774.57,0.00003,0.0,0.0
12.701,31102.007,0.00003,0.0,0.0
12.707,27471.001,0.00004,0.0,0.0
12.713,17076.896,0.00006,0.0,0.0
12.72,12780.214,0.00008,0.0,0.0
12.726,9261.387,0.00011,0.0,0.0
12.732,7081.676,0.00014,0.0,0.0
12.738,6012.352,0.00017,0.0,0.0
12.745,5322.474,0.00019,0.0,0.0
12.751,4933.674,0.0002,0.0,0.0
12.757,4727.186,0.00021,0.0,0.0
12.764,4574.103,0.00022,0.0,0.0
12.77,4477.034,0.00022,0.0,0.0
12.776,4411.661,0.00023,0.0,0.0
12.783,4353.574,0.00023,0.0,0.0
12.789,4330.003,0.00023,0.0,0.0
12.795,4295.41,0.00023,0.0,0.0
12.802,4272.965,0.00023,0.0,0.0
12.808,4259.057,0.00023,0.0,0.0
12.814,4244.246,0.00024,0.0,0.0
12.821,4235.877,0.00024,0.0,0.0
12.827,4195.057,0.00024,0.0,0.0
12.833,4201.001,0.00024,0.0,0.0
12.84,4203.819,0.00024,0.0,0.0
12.846,4185.717,0.00024,0.0,0.0
12.852,4180.443,0.00024,0.0,0.0
12.859,4165.478,0.00024,0.0,0.0
12.865,4168.215,0.00024,0.0,0.0
12.871,4162.552,0.00024,0.0,0.0
12.878,4150.836,0.00024,0.0,0.0
12.884,4153.64,0.00024,0.0,0.0
12.89,4150.859,0.00024,0.0,0.0
12.896,4144.714,0.00024,0.0,0.0
12.903,4162.335,0.00024,0.0,0.0
12.909,4147.885,0.00024,0.0,0.0
12.915,4169.043,0.00024,0.0,0.0
12.922,4157.327,0.00024,0.0,0.0
12.928,4155.548,0.00024,0.0,0.0
12.934,4187.259,0.00024,0.0,0.0
12.941,4162.393,0.00024,0.0,0.0
12.947,4159.011,0.00024,0.0,0.0
12.953,4144.099,0.00024,0.0,0.0
12.96,4131.504,0.00024,0.0,0.0
12.966,4113.42,0.00024,0.0,0.0
12.972,4095.37,0.00024,0.0,0.0
12.979,4107.68,0.00024,0.0,0.0
12.985,4095.963,0.00024,0.0,0.0
12.991,4078.957,0.00025,0.0,0.0
12.998,4086.638,0.00024,0.0,0.0
13.004,4058.147,0.00025,0.0,0.0
13.01,4087.126,0.00024,0.0,0.0
13.017,4056.448,0.00025,0.0,0.0
13.023,4062.195,0.00025,0.0,0.0
13.029,4066.263,0.00025,0.0,0.0
13.036,4065.728,0.00025,0.0,0.0
13.042,4054.564,0.00025,0.0,0.0
13.048,4053.131,0.00025,0.0,0.0
13.054,4051.597,0.00025,0.0,0.0
13.061,4051.046,0.00025,0.0,0.0
13.067,4049.946,0.00025,0.0,0.0
13.073,4059.22,0.00025,0.0,0.0
13.08,4040.314,0.00025,0.0,0.0
13.086,4049.424,0.00025,0.0,0.0
13.092,4043.317,0.00025,0.0,0.0
13.099,4043.456,0.00025,0.0,0.0
13.105,4032.57,0.00025,0.0,0.0
13.111,4041.182,0.00025,0.0,0.0
13.118,4042.44,0.00025,0.0,0.0
13.124,4031.562,0.00025,0.0,0.0
13.13,4036.411,0.00025,0.0,0.0
13.137,4026.312,0.00025,0.0,0.0
13.143,4043.384,0.00025,0.0,0.0
13.149,4034.579,0.00025,0.0,0.0
13.156,4036.711,0.00025,0.0,0.0
13.162,4049.886,0.00025,0.0,0.0
13.168,4045.471,0.00025,0.0,0.0
13.175,4053.302,0.00025,0.0,0.0
13.181,4055.253,0.00025,0.0,0.0
13.187,4086.529,0.00024,0.0,0.0
13.194,4104.65,0.00024,0.0,0.0
13.2,4157.922,0.00024,0.0,0.0
13.206,4230.347,0.00024,0.0,0.0
13.212,4349.047,0.00023,0.0,0.0
13.219,4596.505,0.00022,0.0,0.0
13.225,5024.23,0.0002,0.0,0.0
13.231,5783.395,0.00017,0.0,0.0
13.238,7029.216,0.00014,0.0,0.0
13.244,8800.699,0.00011,0.0,0.0
13.25,10675.275,0.00009,0.0,0.0
13.257,12319.256,0.00008,0.0,0.0
13.263,12352.664,0.00008,0.0,0.0
13.269,11062.286,0.00009,0.0,0.0
13.276,9361.895,0.00011,0.0,0.0
13.282,7332.261,0.00014,0.0,0.0
13.288,5919.77,0.00017,0.0,0.0
13.295,5077.581,0.0002,0.0,0.0
13.301,4566.043,0.00022,0.0,0.0
13.307,4319.494,0.00023,0.0,0.0
13.314,4173.669,0.00024,0.0,0.0
13.32,4092.083,0.00024,0.0,0.0
13.326,4039.371,0.00025,0.0,0.0
13.333,3994.295,0.00025,0.0,0.0
13.339,3969.728,0.00025,0.0,0.0
13.345,3952.976,0.00025,0.0,0.0
13.352,3947.878,0.00025,0.0,0.0
13.358,3916.835,0.00026,0.0,0.0
13.364,3927.185,0.00025,0.0,0.0
13.37,3900.16,0.00026,0.0,0.0
13.377,3909.191,0.00026,0.0,0.0
13.383,3889.448,0.00026,0.0,0.0
13.389,3894.639,0.00026,0.0,0.0
13.396,3895.441,0.00026,0.0,0.0
13.402,3880.774,0.00026,0.0,0.0
13.408,3883.744,0.00026,0.0,0.0
13.415,3859.901,0.00026,0.0,0.0
13.421,3872.695,0.00026,0.0,0.0
13.427,3866.708,0.00026,0.0,0.0
13.434,3850.683,0.00026,0.0,0.0
13.44,3871.654,0.00026,0.0,0.0
13.446,3844.802,0.00026,0.0,0.0
13.453,3846.902,0.00026,0.0,0.0
13.459,3844.282,0.00026,0.0,0.0
13.465,3841.175,0.00026,0.0,0.0
13.472,3846.635,0.00026,0.0,0.0
13.478,3827.532,0.00026,0.0,0.0
13.484,3837.308,0.00026,0.0,0.0
13.491,3824.141,0.00026,0.0,0.0
13.497,3830.256,0.00026,0.0,0.0
13.503,3829.602,0.00026,0.0,0.0
13.51,3813.725,0.00026,0.0,0.0
13.516,3830.11,0.00026,0.0,0.0
13.522,3815.166,0.00026,0.0,0.0
13.528,3822.957,0.00026,0.0,0.0
13.535,3816.929,0.00026,0.0,0.0
13.541,3827.973,0.00026,0.0,0.0
13.547,3816.444,0.00026,0.0,0.0
13.554,3824.049,0.00026,0.0,0.0
13.56,3809.333,0.00026,0.0,0.0
13.566,3815.876,0.00026,0.0,0.0
13.573,3818.653,0.00026,0.0,0.0
13.579,3822.654,0.00026,0.0,0.0
13.585,3815.191,0.00026,0.0,0.0
13.592,3799.38,0.00026,0.0,0.0
13.598,3820.935,0.00026,0.0,0.0
13.604,3820.857,0.00026,0.0,0.0
13.611,3815.901,0.00026,0.0,0.0
13.617,3822.839,0.00026,0.0,0.0
13.623,3810.037,0.00026,0.0,0.0
13.63,3827.297,0.00026,0.0,0.0
13.636,3820.715,0.00026,0.0,0.0
13.642,3822.496,0.00026,0.0,0.0
13.649,3822.267,0.00026,0.0,0.0
13.655,3822.937,0.00026,0.0,0.0
13.661,3849.137,0.00026,0.0,0.0
13.668,3841.28,0.00026,0.0,0.0
13.674,3878.7,0.00026,0.0,0.0
13.68,3928.967,0.00025,0.0,0.0
13.686,4063.348,0.00025,0.0,0.0
13.693,3997.21,0.00025,0.0,0.0
13.699,4237.907,0.00024,0.0,0.0
13.705,4502.756,0.00022,0.0,0.0
13.712,5184.098,0.00019,0.0,0.0
13.718,4365.804,0.00023,0.0,0.0
13.724,4459.72,0.00022,0.0,0.0
13.731,4115.449,0.00024,0.0,0.0
13.737,3970.936,0.00025,0.0,0.0
13.743,3911.554,0.00026,0.0,0.0
13.75,3846.256,0.00026,0.0,0.0
13.756,3836.473,0.00026,0.0,0.0
13.762,3801.311,0.00026,0.0,0.0
13.769,3789.346,0.00026,0.0,0.0
13.775,3789.899,0.00026,0.0,0.0
13.781,3764.578,0.00027,0.0,0.0
13.788,3763.673,0.00027,0.0,0.0
13.794,3756.502,0.00027,0.0,0.0
13.8,3773.136,0.00027,0.0,0.0
13.807,3743.771,0.00027,0.0,0.0
13.813,3753.515,0.00027,0.0,0.0
13.819,3740.011,0.00027,0.0,0.0
13.826,3722.627,0.00027,0.0,0.0
13.832,3717.699,0.00027,0.0,0.0
13.838,3725.849,0.00027,0.0,0.0
13.844,3710.882,0.00027,0.0,0.0
13.851,3715.86,0.00027,0.0,0.0
13.857,3710.609,0.00027,0.0,0.0
13.863,3710.372,0.00027,0.0,0.0
13.87,3699.924,0.00027,0.0,0.0
13.876,3696.568,0.00027,0.0,0.0
13.882,3689.39,0.00027,0.0,0.0
13.889,3693.451,0.00027,0.0,0.0
13.895,3675.289,0.00027,0.0,0.0
13.901,3686.787,0.00027,0.0,0.0
13.908,3677.984,0.00027,0.0,0.0
13.914,3680.023,0.00027,0.0,0.0
13.92,3672.819,0.00027,0.0,0.0
13.927,3666.695,0.00027,0.0,0.0
13.933,3660.739,0.00027,0.0,0.0
13.939,3652.502,0.00027,0.0,0.0
13.946,3657.25,0.00027,0.0,0.0
13.952,3636.671,0.00027,0.0,0.0
13.958,3639.43,0.00027,0.0,0.0
13.965,3641.305,0.00027,0.0,0.0
13.971,3638.464,0.00027,0.0,0.0
13.977,3638.256,0.00027,0.0,0.0
13.984,3638.554,0.00027,0.0,0.0
13.99,3631.119,0.00028,0.0,0.0
13.996,3634.99,0.00028,0.0,0.0
14.002,3626.916,0.00028,0.0,0.0
14.009,3640.698,0.00027,0.0,0.0
14.015,3625.241,0.00028,0.0,0.0
14.021,3628.731,0.00028,0.0,0.0
14.028,3617.565,0.00028,0.0,0.0
14.034,3617.392,0.00028,0.0,0.0
14.04,3599.968,0.00028,0.0,0.0
14.047,3601.054,0.00028,0.0,0.0
14.053,3593.627,0.00028,0.0,0.0
14.059,3595.478,0.00028,0.0,0.0
14.066,3608.037,0.00028,0.0,0.0
14.072,3579.33,0.00028,0.0,0.0
14.078,3601.987,0.00028,0.0,0.0
14.085,3589.447,0.00028,0.0,0.0
14.091,3601.762,0.00028,0.0,0.0
14.097,3593.666,0.00028,0.0,0.0
14.104,3592.229,0.00028,0.0,0.0
14.11,3588.968,0.00028,0.0,0.0
14.116,3574.011,0.00028,0.0,0.0
14.123,3571.165,0.00028,0.0,0.0
14.129,3565.841,0.00028,0.0,0.0
14.135,3572.159,0.00028,0.0,0.0
14.142,3573.286,0.00028,0.0,0.0
14.148,3565.784,0.00028,0.0,0.0
14.154,3570.106,0.00028,0.0,0.0
14.16,3566.697,0.00028,0.0,0.0
14.167,3567.179,0.00028,0.0,0.0
14.173,3553.521,0.00028,0.0,0.0
14.179,3560.317,0.00028,0.0,0.0
14.186,3549.335,0.00028,0.0,0.0
14.192,3539.863,0.00028,0.0,0.0
14.198,3561.124,0.00028,0.0,0.0
14.205,3536.78,0.00028,0.0,0.0
14.211,3552.989,0.00028,0.0,0.0
14.217,3540.357,0.00028,0.0,0.0
14.224,3547.773,0.00028,0.0,0.0
14.23,3546.31,0.00028,0.0,0.0
14.236,3551.107,0.00028,0.0,0.0
14.243,3538.794,0.00028,0.0,0.0
14.249,3545.516,0.00028,0.0,0.0
14.255,3542.366,0.00028,0.0,0.0
14.262,3546.073,0.00028,0.0,0.0
14.268,3551.291,0.00028,0.0,0.0
14.274,3525.91,0.00028,0.0,0.0
14.281,3542.618,0.00028,0.0,0.0
14.287,3538.864,0.00028,0.0,0.0
14.293,3550.619,0.00028,0.0,0.0
14.3,3531.236,0.00028,0.0,0.0
14.306,3539.909,0.00028,0.0,0.0
14.312,3516.978,0.00028,0.0,0.0
14.318,3535.492,0.00028,0.0,0.0
14.325,3525.445,0.00028,0.0,0.0
14.331,3533.751,0.00028,0.0,0.0
14.337,3532.865,0.00028,0.0,0.0
14.344,3517.333,0.00028,0.0,0.0
14.35,3524.855,0.00028,0.0,0.0
14.356,3527.183,0.00028,0.0,0.0
14.363,3512.381,0.00028,0.0,0.0
14.369,3523.266,0.00028,0.0,0.0
14.375,3515.639,0.00028,0.0,0.0
14.382,3515.067,0.00028,0.0,0.0
14.388,3512.553,0.00028,0.0,0.0
14.394,3520.753,0.00028,0.0,0.0
14.401,3515.492,0.00028,0.0,0.0
14.407,3509.691,0.00028,0.0,0.0
14.413,3536.411,0.00028,0.0,0.0
14.42,3519.229,0.00028,0.0,0.0
14.426,3549.279,0.00028,0.0,0.0
14.432,3556.824,0.00028,0.0,0.0
14.439,3585.711,0.00028,0.0,0.0
14.445,3626.98,0.00028,0.0,0.0
14.451,3614.024,0.00028,0.0,0.0
14.458,3621.207,0.00028,0.0,0.0
14.464,3566.079,0.00028,0.0,0.0
14.47,3586.689,0.00028,0.0,0.0
14.476,3546.461,0.00028,0.0,0.0
14.483,3546.855,0.00028,0.0,0.0
14.489,3564.175,0.00028,0.0,0.0
14.495,3487.386,0.00029,0.0,0.0
14.502,3486.363,0.00029,0.0,0.0
14.508,3474.969,0.00029,0.0,0.0
14.514,3480.194,0.00029,0.0,0.0
14.521,3458.9,0.00029,0.0,0.0
14.527,3459.473,0.00029,0.0,0.0
14.533,3468.168,0.00029,0.0,0.0
14.54,3460.733,0.00029,0.0,0.0
14.546,3452.41,0.00029,0.0,0.0
14.552,3456.206,0.00029,0.0,0.0
14.559,3454.852,0.00029,0.0,0.0
14.565,3446.58,0.00029,0.0,0.0
14.571,3446.075,0.00029,0.0,0.0
14.578,3446.04,0.00029,0.0,0.0
14.584,3440.511,0.00029,0.0,0.0
14.59,3438.381,0.00029,0.0,0.0
14.597,3435.743,0.00029,0.0,0.0
14.603,3434.522,0.00029,0.0,0.0
14.609,3432.762,0.00029,0.0,0.0
14.616,3427.944,0.00029,0.0,0.0
14.622,3424.273,0.00029,0.0,0.0
14.628,3422.445,0.00029,0.0,0.0
14.634,3434.754,0.00029,0.0,0.0
14.641,3418.68,0.00029,0.0,0.0
14.647,3417.152,0.00029,0.0,0.0
14.653,3414.005,0.00029,0.0,0.0
14.66,3396.279,0.00029,0.0,0.0
14.666,3415.152,0.00029,0.0,0.0
14.672,3406.456,0.00029,0.0,0.0
14.679,3407.971,0.00029,0.0,0.0
14.685,3405.765,0.00029,0.0,0.0
14.691,3400.697,0.00029,0.0,0.0
14.698,3383.487,0.0003,0.0,0.0
14.704,3390.969,0.00029,0.0,0.0
14.71,3398.49,0.00029,0.0,0.0
14.717,3391.408,0.00029,0.0,0.0
14.723,3380.25,0.0003,0.0,0.0
14.729,3391.935,0.00029,0.0,0.0
14.736,3382.944,0.0003,0.0,0.0
14.742,3388.156,0.0003,0.0,0.0
14.748,3385.179,0.0003,0.0,0.0
14.755,3370.293,0.0003,0.0,0.0
14.761,3377.686,0.0003,0.0,0.0
14.767,3371.27,0.0003,0.0,0.0
14.774,3368.816,0.0003,0.0,0.0
14.78,3381.618,0.0003,0.0,0.0
14.786,3368.344,0.0003,0.0,0.0
14.792,3374.647,0.0003,0.0,0.0
14.799,3374.441,0.0003,0.0,0.0
14.805,3380.832,0.0003,0.0,0.0
14.811,3380.298,0.0003,0.0,0.0
14.818,3376.305,0.0003,0.0,0.0
14.824,3373.043,0.0003,0.0,0.0
14.83,3363.72,0.0003,0.0,0.0
14.837,3362.624,0.0003,0.0,0.0
14.843,3367.103,0.0003,0.0,0.0
14.849,3362.351,0.0003,0.0,0.0
14.856,3361.96,0.0003,0.0,0.0
14.862,3359.466,0.0003,0.0,0.0
14.868,3362.082,0.0003,0.0,0.0
14.875,3359.647,0.0003,0.0,0.0
14.881,3351.486,0.0003,0.0,0.0
14.887,3359.369,0.0003,0.0,0.0
14.894,3359.364,0.0003,0.0,0.0
14.9,3364.804,0.0003,0.0,0.0
14.906,3353.838,0.0003,0.0,0.0
14.913,3360.635,0.0003,0.0,0.0
14.919,3367.77,0.0003,0.0,0.0
14.925,3348.448,0.0003,0.0,0.0
14.932,3359.214,0.0003,0.0,0.0
14.938,3353.632,0.0003,0.0,0.0
14.944,3360.408,0.0003,0.0,0.0
14.95,3359.532,0.0003,0.0,0.0
14.957,3348.055,0.0003,0.0,0.0
14.963,3352.638,0.0003,0.0,0.0
14.969,3350.617,0.0003,0.0,0.0
14.976,3342.349,0.0003,0.0,0.0
14.982,3350.395,0.0003,0.0,0.0
14.988,3336.492,0.0003,0.0,0.0
14.995,3335.056,0.0003,0.0,0.0
15.001,3348.207,0.0003,0.0,0.0
15.007,3338.318,0.0003,0.0,0.0
15.014,3335.726,0.0003,0.0,0.0
15.02,3337.504,0.0003,0.0,0.0
15.026,3328.651,0.0003,0.0,0.0
15.033,3338.311,0.0003,0.0,0.0
15.039,3330.354,0.0003,0.0,0.0
15.045,3327.077,0.0003,0.0,0.0
15.052,3318.864,0.0003,0.0,0.0
15.058,3324.629,0.0003,0.0,0.0
15.064,3331.616,0.0003,0.0,0.0
15.071,3333.189,0.0003,0.0,0.0
15.077,3321.138,0.0003,0.0,0.0
15.083,3333.43,0.0003,0.0,0.0
15.09,3306.0,0.0003,0.0,0.0
15.096,3308.597,0.0003,0.0,0.0
15.102,3307.956,0.0003,0.0,0.0
15.108,3323.538,0.0003,0.0,0.0
15.115,3315.437,0.0003,0.0,0.0
15.121,3310.725,0.0003,0.0,0.0
15.127,3313.92,0.0003,0.0,0.0
15.134,3308.858,0.0003,0.0,0.0
15.14,3322.527,0.0003,0.0,0.0
15.146,3316.921,0.0003,0.0,0.0
15.153,3342.636,0.0003,0.0,0.0
15.159,3332.112,0.0003,0.0,0.0
15.165,3372.259,0.0003,0.0,0.0
15.172,3344.263,0.0003,0.0,0.0
15.178,3336.937,0.0003,0.0,0.0
15.184,3338.248,0.0003,0.0,0.0
15.191,3319.058,0.0003,0.0,0.0
15.197,3303.486,0.0003,0.0,0.0
15.203,3311.787,0.0003,0.0,0.0
15.21,3304.107,0.0003,0.0,0.0
15.216,3314.724,0.0003,0.0,0.0
15.222,3312.611,0.0003,0.0,0.0
15.229,3299.242,0.0003,0.0,0.0
15.235,3315.596,0.0003,0.0,0.0
15.241,3312.123,0.0003,0.0,0.0
15.248,3328.51,0.0003,0.0,0.0
15.254,3339.581,0.0003,0.0,0.0
15.26,3363.061,0.0003,0.0,0.0
15.266,3384.227,0.0003,0.0,0.0
15.273,3467.492,0.00029,0.0,0.0
15.279,3560.09,0.00028,0.0,0.0
15.285,3744.69,0.00027,0.0,0.0
15.292,4016.816,0.00025,0.0,0.0
15.298,4443.615,0.00023,0.0,0.0
15.304,4886.104,0.0002,0.0,0.0
15.311,5400.382,0.00019,0.0,0.0
15.317,5751.901,0.00017,0.0,0.0
15.323,5625.504,0.00018,0.0,0.0
15.33,5511.709,0.00018,0.0,0.0
15.336,4910.654,0.0002,0.0,0.0
15.342,4546.83,0.00022,0.0,0.0
15.349,4080.402,0.00025,0.0,0.0
15.355,3756.098,0.00027,0.0,0.0
15.361,3573.623,0.00028,0.0,0.0
15.368,3448.735,0.00029,0.0,0.0
15.374,3398.125,0.00029,0.0,0.0
15.38,3352.982,0.0003,0.0,0.0
15.387,3321.329,0.0003,0.0,0.0
15.393,3312.009,0.0003,0.0,0.0
15.399,3300.648,0.0003,0.0,0.0
15.406,3301.547,0.0003,0.0,0.0
15.412,3285.352,0.0003,0.0,0.0
15.418,3293.102,0.0003,0.0,0.0
15.424,3289.325,0.0003,0.0,0.0
15.431,3284.934,0.0003,0.0,0.0
15.437,3298.064,0.0003,0.0,0.0
15.443,3289.886,0.0003,0.0,0.0
15.45,3281.915,0.0003,0.0,0.0
15.456,3281.286,0.0003,0.0,0.0
15.462,3288.747,0.0003,0.0,0.0
15.469,3285.415,0.0003,0.0,0.0
15.475,3280.67,0.0003,0.0,0.0
15.481,3282.86,0.0003,0.0,0.0
15.488,3286.393,0.0003,0.0,0.0
15.494,3290.66,0.0003,0.0,0.0
15.5,3285.071,0.0003,0.0,0.0
15.507,3275.787,0.00031,0.0,0.0
15.513,3285.421,0.0003,0.0,0.0
15.519,3278.675,0.00031,0.0,0.0
15.526,3281.172,0.0003,0.0,0.0
15.532,3276.15,0.00031,0.0,0.0
15.538,3275.406,0.00031,0.0,0.0
15.545,3271.484,0.00031,0.0,0.0
15.551,3274.273,0.00031,0.0,0.0
15.557,3266.976,0.00031,0.0,0.0
15.564,3262.594,0.00031,0.0,0.0
15.57,3259.28,0.00031,0.0,0.0
15.576,3264.857,0.00031,0.0,0.0
15.582,3259.681,0.00031,0.0,0.0
15.589,3257.296,0.00031,0.0,0.0
15.595,3252.055,0.00031,0.0,0.0
15.601,3248.615,0.00031,0.0,0.0
15.608,3251.559,0.00031,0.0,0.0
15.614,3251.139,0.00031,0.0,0.0
15.62,3240.512,0.00031,0.0,0.0
15.627,3241.892,0.00031,0.0,0.0
15.633,3232.414,0.00031,0.0,0.0
15.639,3243.998,0.00031,0.0,0.0
15.646,3229.706,0.00031,0.0,0.0
15.652,3226.801,0.00031,0.0,0.0
15.658,3231.117,0.00031,0.0,0.0
15.665,3205.585,0.00031,0.0,0.0
15.671,3213.188,0.00031,0.0,0.0
15.677,3207.543,0.00031,0.0,0.0
15.684,3216.015,0.00031,0.0,0.0
15.69,3215.275,0.00031,0.0,0.0
15.696,3200.609,0.00031,0.0,0.0
15.703,3199.55,0.00031,0.0,0.0
15.709,3192.046,0.00031,0.0,0.0
15.715,3205.084,0.00031,0.0,0.0
15.722,3186.046,0.00031,0.0,0.0
15.728,3184.197,0.00031,0.0,0.0
15.734,3196.518,0.00031,0.0,0.0
15.74,3179.157,0.00031,0.0,0.0
15.747,3174.202,0.00032,0.0,0.0
15.753,3181.123,0.00031,0.0,0.0
15.759,3164.487,0.00032,0.0,0.0
15.766,3177.108,0.00031,0.0,0.0
15.772,3169.896,0.00032,0.0,0.0
15.778,3173.185,0.00032,0.0,0.0
15.785,3158.226,0.00032,0.0,0.0
15.791,3165.405,0.00032,0.0,0.0
15.797,3161.25,0.00032,0.0,0.0
15.804,3160.838,0.00032,0.0,0.0
15.81,3154.324,0.00032,0.0,0.0
15.816,3159.909,0.00032,0.0,0.0
15.823,3159.935,0.00032,0.0,0.0
15.829,3150.21,0.00032,0.0,0.0
15.835,3151.73,0.00032,0.0,0.0
15.842,3161.84,0.00032,0.0,0.0
15.848,3147.515,0.00032,0.0,0.0
15.854,3170.137,0.00032,0.0,0.0
15.861,3154.472,0.00032,0.0,0.0
15.867,3138.274,0.00032,0.0,0.0
15.873,3152.929,0.00032,0.0,0.0
15.88,3146.192,0.00032,0.0,0.0
15.886,3134.938,0.00032,0.0,0.0
15.892,3139.748,0.00032,0.0,0.0
15.898,3131.524,0.00032,0.0,0.0
15.905,3128.553,0.00032,0.0,0.0
15.911,3128.058,0.00032,0.0,0.0
15.917,3119.488,0.00032,0.0,0.0
15.924,3130.153,0.00032,0.0,0.0
15.93,3127.712,0.00032,0.0,0.0
15.936,3126.218,0.00032,0.0,0.0
15.943,3128.324,0.00032,0.0,0.0
15.949,3123.239,0.00032,0.0,0.0
15.955,3133.691,0.00032,0.0,0.0
15.962,3133.651,0.00032,0.0,0.0
15.968,3128.999,0.00032,0.0,0.0
15.974,3117.811,0.00032,0.0,0.0
15.981,3112.821,0.00032,0.0,0.0
15.987,3107.96,0.00032,0.0,0.0
15.993,3106.029,0.00032,0.0,0.0
16.0,3108.493,0.00032,0.0,0.0
16.006,3105.137,0.00032,0.0,0.0
16.012,3106.91,0.00032,0.0,0.0
16.019,3114.287,0.00032,0.0,0.0
16.025,3115.821,0.00032,0.0,0.0
16.031,3102.873,0.00032,0.0,0.0
16.038,3102.785,0.00032,0.0,0.0
16.044,3096.321,0.00032,0.0,0.0
16.05,3118.146,0.00032,0.0,0.0
16.056,3107.436,0.00032,0.0,0.0
16.063,3103.641,0.00032,0.0,0.0
16.069,3100.993,0.00032,0.0,0.0
16.075,3083.29,0.00032,0.0,0.0
16.082,3093.076,0.00032,0.0,0.0
16.088,3099.06,0.00032,0.0,0.0
16.094,3099.886,0.00032,0.0,0.0
16.101,3095.334,0.00032,0.0,0.0
16.107,3097.343,0.00032,0.0,0.0
16.113,3092.79,0.00032,0.0,0.0
16.12,3099.638,0.00032,0.0,0.0
16.126,3087.591,0.00032,0.0,0.0
16.132,3104.312,0.00032,0.0,0.0
16.139,3091.154,0.00032,0.0,0.0
16.145,3094.525,0.00032,0.0,0.0
16.151,3092.898,0.00032,0.0,0.0
16.158,3090.067,0.00032,0.0,0.0
16.164,3085.372,0.00032,0.0,0.0
16.17,3089.903,0.00032,0.0,0.0
16.177,3090.162,0.00032,0.0,0.0
16.183,3087.828,0.00032,0.0,0.0
16.189,3089.462,0.00032,0.0,0.0
16.196,3087.9,0.00032,0.0,0.0
16.202,3084.331,0.00032,0.0,0.0
16.208,3086.926,0.00032,0.0,0.0
16.214,3084.775,0.00032,0.0,0.0
16.221,3077.52,0.00032,0.0,0.0
16.227,3085.582,0.00032,0.0,0.0
16.233,3076.016,0.00033,0.0,0.0
16.24,3081.424,0.00032,0.0,0.0
16.246,3070.972,0.00033,0.0,0.0
16.252,3078.881,0.00032,0.0,0.0
16.259,3073.443,0.00033,0.0,0.0
16.265,3079.679,0.00032,0.0,0.0
16.271,3080.378,0.00032,0.0,0.0
16.278,3071.946,0.00033,0.0,0.0
16.284,3075.82,0.00033,0.0,0.0
16.29,3080.552,0.00032,0.0,0.0
16.297,3083.957,0.00032,0.0,0.0
16.303,3071.062,0.00033,0.0,0.0
16.309,3078.143,0.00032,0.0,0.0
16.316,3091.351,0.00032,0.0,0.0
16.322,3074.946,0.00033,0.0,0.0
16.328,3080.796,0.00032,0.0,0.0
16.335,3072.619,0.00033,0.0,0.0
16.341,3080.384,0.00032,0.0,0.0
16.347,3082.886,0.00032,0.0,0.0
16.354,3081.104,0.00032,0.0,0.0
16.36,3081.464,0.00032,0.0,0.0
16.366,3066.642,0.00033,0.0,0.0
16.372,3079.05,0.00032,0.0,0.0
16.379,3061.39,0.00033,0.0,0.0
16.385,3071.536,0.00033,0.0,0.0
16.391,3074.283,0.00033,0.0,0.0
16.398,3070.294,0.00033,0.0,0.0
16.404,3074.583,0.00033,0.0,0.0
16.41,3070.132,0.00033,0.0,0.0
16.417,3078.62,0.00032,0.0,0.0
16.423,3075.431,0.00033,0.0,0.0
16.429,3081.394,0.00032,0.0,0.0
16.436,3077.347,0.00032,0.0,0.0
16.442,3072.43,0.00033,0.0,0.0
16.448,3080.256,0.00032,0.0,0.0
16.455,3090.147,0.00032,0.0,0.0
16.461,3090.991,0.00032,0.0,0.0
16.467,3093.371,0.00032,0.0,0.0
16.474,3099.452,0.00032,0.0,0.0
16.48,3100.443,0.00032,0.0,0.0
16.486,3137.21,0.00032,0.0,0.0
16.493,3136.85,0.00032,0.0,0.0
16.499,3140.612,0.00032,0.0,0.0
16.505,3152.401,0.00032,0.0,0.0
16.512,3141.978,0.00032,0.0,0.0
16.518,3117.955,0.00032,0.0,0.0
16.524,3122.621,0.00032,0.0,0.0
16.53,3110.119,0.00032,0.0,0.0
16.537,3106.192,0.00032,0.0,0.0
16.543,3109.245,0.00032,0.0,0.0
16.549,3105.57,0.00032,0.0,0.0
16.556,3114.989,0.00032,0.0,0.0
16.562,3109.856,0.00032,0.0,0.0
16.568,3112.296,0.00032,0.0,0.0
16.575,3105.01,0.00032,0.0,0.0
16.581,3098.226,0.00032,0.0,0.0
16.587,3109.712,0.00032,0.0,0.0
16.594,3120.306,0.00032,0.0,0.0
