"x","y_obs","weight","y_calc","y_bkg"
0.8,2872.987,0.00035,0.0,0.0
0.806,3338.38,0.0003,0.0,0.0
0.813,3519.929,0.00028,0.0,0.0
0.819,3401.956,0.00029,0.0,0.0
0.825,4081.526,0.00025,0.0,0.0
0.832,3811.487,0.00026,0.0,0.0
0.838,4117.003,0.00024,0.0,0.0
0.844,4528.454,0.00022,0.0,0.0
0.851,4401.737,0.00023,0.0,0.0
0.857,4857.105,0.00021,0.0,0.0
0.863,5277.472,0.00019,0.0,0.0
0.87,4860.19,0.00021,0.0,0.0
0.876,5816.679,0.00017,0.0,0.0
0.882,5646.071,0.00018,0.0,0.0
0.888,5927.536,0.00017,0.0,0.0
0.895,6245.521,0.00016,0.0,0.0
0.901,6221.63,0.00016,0.0,0.0
0.907,6795.025,0.00015,0.0,0.0
0.914,6949.853,0.00014,0.0,0.0
0.92,6602.158,0.00015,0.0,0.0
0.926,7345.519,0.00014,0.0,0.0
0.933,7388.161,0.00014,0.0,0.0
0.939,7196.712,0.00014,0.0,0.0
0.945,7834.702,0.00013,0.0,0.0
0.952,7423.247,0.00013,0.0,0.0
0.958,7862.92,0.00013,0.0,0.0
0.964,7878.523,0.00013,0.0,0.0
0.971,7608.85,0.00013,0.0,0.0
0.977,8116.258,0.00012,0.0,0.0
0.983,8141.813,0.00012,0.0,0.0
0.99,7893.026,0.00013,0.0,0.0
0.996,8344.078,0.00012,0.0,0.0
1.002,7992.994,0.00013,0.0,0.0
1.009,8191.614,0.00012,0.0,0.0
1.015,8377.718,0.00012,0.0,0.0
1.021,8083.628,0.00012,0.0,0.0
1.028,8430.571,0.00012,0.0,0.0
1.034,8223.3,0.00012,0.0,0.0
1.04,8153.577,0.00012,0.0,0.0
1.046,8233.371,0.00012,0.0,0.0
1.053,8243.189,0.00012,0.0,0.0
1.059,8191.796,0.00012,0.0,0.0
1.065,8265.914,0.00012,0.0,0.0
1.072,8055.669,0.00012,0.0,0.0
1.078,8182.116,0.00012,0.0,0.0
1.084,8032.335,0.00012,0.0,0.0
1.091,8064.212,0.00012,0.0,0.0
1.097,8095.277,0.00012,0.0,0.0
1.103,7975.062,0.00013,0.0,0.0
1.11,7923.505,0.00013,0.0,0.0
1.116,7929.989,0.00013,0.0,0.0
1.122,7826.483,0.00013,0.0,0.0
1.129,7837.933,0.00013,0.0,0.0
1.135,7782.592,0.00013,0.0,0.0
1.141,7701.163,0.00013,0.0,0.0
1.148,7702.681,0.00013,0.0,0.0
1.154,7577.781,0.00013,0.0,0.0
1.16,7555.178,0.00013,0.0,0.0
1.167,7535.821,0.00013,0.0,0.0
1.173,7544.183,0.00013,0.0,0.0
1.179,7418.941,0.00013,0.0,0.0
1.186,7353.01,0.00014,0.0,0.0
1.192,7258.475,0.00014,0.0,0.0
1.198,7225.097,0.00014,0.0,0.0
1.204,7156.948,0.00014,0.0,0.0
1.211,7176.558,0.00014,0.0,0.0
1.217,7083.916,0.00014,0.0,0.0
1.223,7067.279,0.00014,0.0,0.0
1.23,6980.978,0.00014,0.0,0.0
1.236,6978.648,0.00014,0.0,0.0
1.242,6926.343,0.00014,0.0,0.0
1.249,6892.736,0.00015,0.0,0.0
1.255,6864.692,0.00015,0.0,0.0
1.261,6823.303,0.00015,0.0,0.0
1.268,6779.039,0.00015,0.0,0.0
1.274,6706.423,0.00015,0.0,0.0
1.28,6720.837,0.00015,0.0,0.0
1.287,6660.101,0.00015,0.0,0.0
1.293,6637.224,0.00015,0.0,0.0
1.299,6616.537,0.00015,0.0,0.0
1.306,6586.304,0.00015,0.0,0.0
1.312,6532.687,0.00015,0.0,0.0
1.318,6523.962,0.00015,0.0,0.0
1.325,6496.696,0.00015,0.0,0.0
1.331,6538.475,0.00015,0.0,0.0
1.337,6448.03,0.00016,0.0,0.0
1.344,6441.496,0.00016,0.0,0.0
1.35,6429.029,0.00016,0.0,0.0
1.356,6413.554,0.00016,0.0,0.0
1.362,6387.251,0.00016,0.0,0.0
1.369,6419.393,0.00016,0.0,0.0
1.375,6386.475,0.00016,0.0,0.0
1.381,6353.569,0.00016,0.0,0.0
1.388,6369.957,0.00016,0.0,0.0
1.394,6248.119,0.00016,0.0,0.0
1.4,6338.764,0.00016,0.0,0.0
1.407,6236.32,0.00016,0.0,0.0
1.413,6282.472,0.00016,0.0,0.0
1.419,6260.49,0.00016,0.0,0.0
1.426,6233.289,0.00016,0.0,0.0
1.432,6255.638,0.00016,0.0,0.0
1.438,6207.531,0.00016,0.0,0.0
1.445,6211.422,0.00016,0.0,0.0
1.451,6275.092,0.00016,0.0,0.0
1.457,6217.394,0.00016,0.0,0.0
1.464,6211.413,0.00016,0.0,0.0
1.47,6253.372,0.00016,0.0,0.0
1.476,6185.168,0.00016,0.0,0.0
1.483,6185.991,0.00016,0.0,0.0
1.489,6210.9,0.00016,0.0,0.0
1.495,6193.871,0.00016,0.0,0.0
1.502,6187.35,0.00016,0.0,0.0
1.508,6200.969,0.00016,0.0,0.0
1.514,6191.648,0.00016,0.0,0.0
1.52,6216.436,0.00016,0.0,0.0
1.527,6201.399,0.00016,0.0,0.0
1.533,6218.985,0.00016,0.0,0.0
1.539,6162.319,0.00016,0.0,0.0
1.546,6212.923,0.00016,0.0,0.0
1.552,6265.301,0.00016,0.0,0.0
1.558,6283.807,0.00016,0.0,0.0
1.565,6218.582,0.00016,0.0,0.0
1.571,6249.536,0.00016,0.0,0.0
1.577,6279.714,0.00016,0.0,0.0
1.584,6249.3,0.00016,0.0,0.0
1.59,6298.119,0.00016,0.0,0.0
1.596,6247.108,0.00016,0.0,0.0
1.603,6322.661,0.00016,0.0,0.0
1.609,6285.62,0.00016,0.0,0.0
1.615,6318.116,0.00016,0.0,0.0
1.622,6303.07,0.00016,0.0,0.0
1.628,6337.386,0.00016,0.0,0.0
1.634,6360.681,0.00016,0.0,0.0
1.641,6411.875,0.00016,0.0,0.0
1.647,6403.018,0.00016,0.0,0.0
1.653,6437.006,0.00016,0.0,0.0
1.66,6441.806,0.00016,0.0,0.0
1.666,6462.567,0.00015,0.0,0.0
1.672,6472.613,0.00015,0.0,0.0
1.678,6470.811,0.00015,0.0,0.0
1.685,6504.215,0.00015,0.0,0.0
1.691,6515.355,0.00015,0.0,0.0
1.697,6532.234,0.00015,0.0,0.0
1.704,6546.559,0.00015,0.0,0.0
1.71,6543.069,0.00015,0.0,0.0
1.716,6564.528,0.00015,0.0,0.0
1.723,6595.734,0.00015,0.0,0.0
1.729,6592.806,0.00015,0.0,0.0
1.735,6616.216,0.00015,0.0,0.0
1.742,6626.782,0.00015,0.0,0.0
1.748,6638.748,0.00015,0.0,0.0
1.754,6654.378,0.00015,0.0,0.0
1.761,6679.951,0.00015,0.0,0.0
1.767,6692.444,0.00015,0.0,0.0
1.773,6720.882,0.00015,0.0,0.0
1.78,6716.494,0.00015,0.0,0.0
1.786,6729.04,0.00015,0.0,0.0
1.792,6733.748,0.00015,0.0,0.0
1.799,6744.765,0.00015,0.0,0.0
1.805,6753.948,0.00015,0.0,0.0
1.811,6770.851,0.00015,0.0,0.0
1.818,6750.437,0.00015,0.0,0.0
1.824,6756.395,0.00015,0.0,0.0
1.83,6770.268,0.00015,0.0,0.0
1.836,6759.479,0.00015,0.0,0.0
1.843,6785.419,0.00015,0.0,0.0
1.849,6760.637,0.00015,0.0,0.0
1.855,6758.175,0.00015,0.0,0.0
1.862,6768.734,0.00015,0.0,0.0
1.868,6778.487,0.00015,0.0,0.0
1.874,6766.843,0.00015,0.0,0.0
1.881,6791.221,0.00015,0.0,0.0
1.887,6773.967,0.00015,0.0,0.0
1.893,6794.154,0.00015,0.0,0.0
1.9,6770.488,0.00015,0.0,0.0
1.906,6805.138,0.00015,0.0,0.0
1.912,6818.005,0.00015,0.0,0.0
1.919,6766.297,0.00015,0.0,0.0
1.925,6770.658,0.00015,0.0,0.0
1.931,6774.155,0.00015,0.0,0.0
1.938,6800.022,0.00015,0.0,0.0
1.944,6766.358,0.00015,0.0,0.0
1.95,6799.799,0.00015,0.0,0.0
1.957,6773.14,0.00015,0.0,0.0
1.963,6793.21,0.00015,0.0,0.0
1.969,6750.457,0.00015,0.0,0.0
1.976,6811.614,0.00015,0.0,0.0
1.982,6777.418,0.00015,0.0,0.0
1.988,6779.436,0.00015,0.0,0.0
1.994,6829.182,0.00015,0.0,0.0
2.001,6802.704,0.00015,0.0,0.0
2.007,6833.187,0.00015,0.0,0.0
2.013,6789.383,0.00015,0.0,0.0
2.02,6797.074,0.00015,0.0,0.0
2.026,6800.05,0.00015,0.0,0.0
2.032,6852.126,0.00015,0.0,0.0
2.039,6817.83,0.00015,0.0,0.0
2.045,6815.758,0.00015,0.0,0.0
2.051,6862.958,0.00015,0.0,0.0
2.058,6867.674,0.00015,0.0,0.0
2.064,6845.836,0.00015,0.0,0.0
2.07,6856.341,0.00015,0.0,0.0
2.077,6877.74,0.00015,0.0,0.0
2.083,6870.735,0.00015,0.0,0.0
2.089,6879.233,0.00015,0.0,0.0
2.096,6876.102,0.00015,0.0,0.0
2.102,6871.859,0.00015,0.0,0.0
2.108,6919.982,0.00014,0.0,0.0
2.115,6937.595,0.00014,0.0,0.0
2.121,6916.614,0.00014,0.0,0.0
2.127,6966.447,0.00014,0.0,0.0
2.134,6940.04,0.00014,0.0,0.0
2.14,7004.969,0.00014,0.0,0.0
2.146,6995.936,0.00014,0.0,0.0
2.152,7008.857,0.00014,0.0,0.0
2.159,6995.645,0.00014,0.0,0.0
2.165,7019.584,0.00014,0.0,0.0
2.171,7023.276,0.00014,0.0,0.0
2.178,7077.972,0.00014,0.0,0.0
2.184,7081.12,0.00014,0.0,0.0
2.19,7089.011,0.00014,0.0,0.0
2.197,7078.598,0.00014,0.0,0.0
2.203,7109.918,0.00014,0.0,0.0
2.209,7108.512,0.00014,0.0,0.0
2.216,7185.594,0.00014,0.0,0.0
2.222,7159.539,0.00014,0.0,0.0
2.228,7437.02,0.00013,0.0,0.0
2.235,7183.218,0.00014,0.0,0.0
2.241,7208.956,0.00014,0.0,0.0
2.247,7219.338,0.00014,0.0,0.0
2.254,7245.986,0.00014,0.0,0.0
2.26,7290.822,0.00014,0.0,0.0
2.266,7301.293,0.00014,0.0,0.0
2.273,7356.354,0.00014,0.0,0.0
2.279,7354.105,0.00014,0.0,0.0
2.285,7374.198,0.00014,0.0,0.0
2.292,7396.363,0.00014,0.0,0.0
2.298,7435.534,0.00013,0.0,0.0
2.304,7464.559,0.00013,0.0,0.0
2.31,7486.04,0.00013,0.0,0.0
2.317,7491.711,0.00013,0.0,0.0
2.323,7493.497,0.00013,0.0,0.0
2.329,7554.035,0.00013,0.0,0.0
2.336,7573.775,0.00013,0.0,0.0
2.342,7628.056,0.00013,0.0,0.0
2.348,7606.823,0.00013,0.0,0.0
2.355,7673.101,0.00013,0.0,0.0
2.361,7692.32,0.00013,0.0,0.0
2.367,7741.845,0.00013,0.0,0.0
2.374,7733.999,0.00013,0.0,0.0
2.38,7821.702,0.00013,0.0,0.0
2.386,7833.732,0.00013,0.0,0.0
2.393,7881.614,0.00013,0.0,0.0
2.399,7926.238,0.00013,0.0,0.0
2.405,7952.154,0.00013,0.0,0.0
2.412,8023.612,0.00012,0.0,0.0
2.418,8077.934,0.00012,0.0,0.0
2.424,8099.608,0.00012,0.0,0.0
2.431,8180.365,0.00012,0.0,0.0
2.437,8212.288,0.00012,0.0,0.0
2.443,8253.402,0.00012,0.0,0.0
2.45,8288.237,0.00012,0.0,0.0
2.456,8345.292,0.00012,0.0,0.0
2.462,8414.001,0.00012,0.0,0.0
2.468,8481.686,0.00012,0.0,0.0
2.475,8535.126,0.00012,0.0,0.0
2.481,8643.365,0.00012,0.0,0.0
2.487,8695.422,0.00012,0.0,0.0
2.494,8762.83,0.00011,0.0,0.0
2.5,8890.185,0.00011,0.0,0.0
2.506,8904.344,0.00011,0.0,0.0
2.513,9035.938,0.00011,0.0,0.0
2.519,9060.95,0.00011,0.0,0.0
2.525,9101.626,0.00011,0.0,0.0
2.532,9198.385,0.00011,0.0,0.0
2.538,9294.554,0.00011,0.0,0.0
2.544,9280.61,0.00011,0.0,0.0
2.551,9361.027,0.00011,0.0,0.0
2.557,9298.908,0.00011,0.0,0.0
2.563,9349.887,0.00011,0.0,0.0
2.57,9378.563,0.00011,0.0,0.0
2.576,9289.067,0.00011,0.0,0.0
2.582,9358.814,0.00011,0.0,0.0
2.589,9298.051,0.00011,0.0,0.0
2.595,9289.531,0.00011,0.0,0.0
2.601,9248.997,0.00011,0.0,0.0
2.608,9218.834,0.00011,0.0,0.0
2.614,9243.655,0.00011,0.0,0.0
2.62,9234.34,0.00011,0.0,0.0
2.626,9182.702,0.00011,0.0,0.0
2.633,9230.829,0.00011,0.0,0.0
2.639,9214.867,0.00011,0.0,0.0
2.645,9208.742,0.00011,0.0,0.0
2.652,9258.017,0.00011,0.0,0.0
2.658,9234.936,0.00011,0.0,0.0
2.664,9269.268,0.00011,0.0,0.0
2.671,9289.72,0.00011,0.0,0.0
2.677,9305.265,0.00011,0.0,0.0
2.683,9342.961,0.00011,0.0,0.0
2.69,9346.872,0.00011,0.0,0.0
2.696,9379.058,0.00011,0.0,0.0
2.702,9433.919,0.00011,0.0,0.0
2.709,9440.682,0.00011,0.0,0.0
2.715,9494.776,0.00011,0.0,0.0
2.721,9521.976,0.00011,0.0,0.0
2.728,9539.602,0.0001,0.0,0.0
2.734,9548.951,0.0001,0.0,0.0
2.74,9580.437,0.0001,0.0,0.0
2.747,9648.966,0.0001,0.0,0.0
2.753,9669.883,0.0001,0.0,0.0
2.759,9683.816,0.0001,0.0,0.0
2.766,9710.746,0.0001,0.0,0.0
2.772,9726.633,0.0001,0.0,0.0
2.778,9761.194,0.0001,0.0,0.0
2.784,9781.656,0.0001,0.0,0.0
2.791,9773.225,0.0001,0.0,0.0
2.797,9805.891,0.0001,0.0,0.0
2.803,9820.898,0.0001,0.0,0.0
2.81,9843.555,0.0001,0.0,0.0
2.816,9870.042,0.0001,0.0,0.0
2.822,9905.731,0.0001,0.0,0.0
2.829,9908.388,0.0001,0.0,0.0
2.835,9950.615,0.0001,0.0,0.0
2.841,9940.249,0.0001,0.0,0.0
2.848,9965.989,0.0001,0.0,0.0
2.854,9976.62,0.0001,0.0,0.0
2.86,10042.611,0.0001,0.0,0.0
2.867,10036.045,0.0001,0.0,0.0
2.873,9978.287,0.0001,0.0,0.0
2.879,10072.672,0.0001,0.0,0.0
2.886,10060.836,0.0001,0.0,0.0
2.892,10065.081,0.0001,0.0,0.0
2.898,10092.566,0.0001,0.0,0.0
2.905,10134.983,0.0001,0.0,0.0
2.911,10134.798,0.0001,0.0,0.0
2.917,10150.953,0.0001,0.0,0.0
2.924,10200.828,0.0001,0.0,0.0
2.93,10195.512,0.0001,0.0,0.0
2.936,10216.523,0.0001,0.0,0.0
2.942,10230.766,0.0001,0.0,0.0
2.949,10271.938,0.0001,0.0,0.0
2.955,10285.084,0.0001,0.0,0.0
2.961,10292.377,0.0001,0.0,0.0
2.968,10291.192,0.0001,0.0,0.0
2.974,10322.044,0.0001,0.0,0.0
2.98,10326.246,0.0001,0.0,0.0
2.987,10350.912,0.0001,0.0,0.0
2.993,10333.005,0.0001,0.0,0.0
2.999,10374.158,0.0001,0.0,0.0
3.006,10379.173,0.0001,0.0,0.0
3.012,10373.591,0.0001,0.0,0.0
3.018,10404.424,0.0001,0.0,0.0
3.025,10397.509,0.0001,0.0,0.0
3.031,10396.706,0.0001,0.0,0.0
3.037,10401.759,0.0001,0.0,0.0
3.044,10400.103,0.0001,0.0,0.0
3.05,10436.773,0.0001,0.0,0.0
3.056,10399.168,0.0001,0.0,0.0
3.063,10443.755,0.0001,0.0,0.0
3.069,10428.872,0.0001,0.0,0.0
3.075,10399.647,0.0001,0.0,0.0
3.082,10440.379,0.0001,0.0,0.0
3.088,10415.011,0.0001,0.0,0.0
3.094,10424.723,0.0001,0.0,0.0
3.1,10422.894,0.0001,0.0,0.0
3.107,10431.157,0.0001,0.0,0.0
3.113,10409.064,0.0001,0.0,0.0
3.119,10410.962,0.0001,0.0,0.0
3.126,10392.187,0.0001,0.0,0.0
3.132,10382.769,0.0001,0.0,0.0
3.138,10416.804,0.0001,0.0,0.0
3.145,10349.569,0.0001,0.0,0.0
3.151,10391.143,0.0001,0.0,0.0
3.157,10361.345,0.0001,0.0,0.0
3.164,10347.362,0.0001,0.0,0.0
3.17,10373.727,0.0001,0.0,0.0
3.176,10326.865,0.0001,0.0,0.0
3.183,10321.134,0.0001,0.0,0.0
3.189,10326.274,0.0001,0.0,0.0
3.195,10279.695,0.0001,0.0,0.0
3.202,10306.695,0.0001,0.0,0.0
3.208,10235.203,0.0001,0.0,0.0
3.214,10250.326,0.0001,0.0,0.0
3.221,10239.179,0.0001,0.0,0.0
3.227,10193.314,0.0001,0.0,0.0
3.233,10180.281,0.0001,0.0,0.0
3.24,10201.717,0.0001,0.0,0.0
3.246,10127.531,0.0001,0.0,0.0
3.252,10138.34,0.0001,0.0,0.0
3.258,10101.371,0.0001,0.0,0.0
3.265,10096.739,0.0001,0.0,0.0
3.271,10080.405,0.0001,0.0,0.0
3.277,10018.839,0.0001,0.0,0.0
3.284,10036.046,0.0001,0.0,0.0
3.29,9997.345,0.0001,0.0,0.0
3.296,9978.017,0.0001,0.0,0.0
3.303,9969.859,0.0001,0.0,0.0
3.309,9970.75,0.0001,0.0,0.0
3.315,9925.031,0.0001,0.0,0.0
3.322,9890.134,0.0001,0.0,0.0
3.328,9871.15,0.0001,0.0,0.0
3.334,9858.879,0.0001,0.0,0.0
3.341,9801.223,0.0001,0.0,0.0
3.347,9784.918,0.0001,0.0,0.0
3.353,9791.492,0.0001,0.0,0.0
3.36,9749.903,0.0001,0.0,0.0
3.366,9731.839,0.0001,0.0,0.0
3.372,9732.095,0.0001,0.0,0.0
3.379,9716.052,0.0001,0.0,0.0
3.385,9698.145,0.0001,0.0,0.0
3.391,9681.567,0.0001,0.0,0.0
3.398,9633.698,0.0001,0.0,0.0
3.404,9679.507,0.0001,0.0,0.0
3.41,9620.008,0.0001,0.0,0.0
3.416,9580.896,0.0001,0.0,0.0
3.423,9603.718,0.0001,0.0,0.0
3.429,9601.836,0.0001,0.0,0.0
3.435,9548.973,0.0001,0.0,0.0
3.442,9550.161,0.0001,0.0,0.0
3.448,9507.576,0.00011,0.0,0.0
3.454,9521.355,0.00011,0.0,0.0
3.461,9482.473,0.00011,0.0,0.0
3.467,9495.305,0.00011,0.0,0.0
3.473,9465.564,0.00011,0.0,0.0
3.48,9421.073,0.00011,0.0,0.0
3.486,9421.437,0.00011,0.0,0.0
3.492,9410.533,0.00011,0.0,0.0
3.499,9373.33,0.00011,0.0,0.0
3.505,9380.488,0.00011,0.0,0.0
3.511,9335.614,0.00011,0.0,0.0
3.518,9338.749,0.00011,0.0,0.0
3.524,9323.3,0.00011,0.0,0.0
3.53,9336.323,0.00011,0.0,0.0
3.537,9291.172,0.00011,0.0,0.0
3.543,9320.197,0.00011,0.0,0.0
3.549,9284.935,0.00011,0.0,0.0
3.556,9291.059,0.00011,0.0,0.0
3.562,9278.488,0.00011,0.0,0.0
3.568,9262.834,0.00011,0.0,0.0
3.574,9265.376,0.00011,0.0,0.0
3.581,9226.657,0.00011,0.0,0.0
3.587,9231.271,0.00011,0.0,0.0
3.593,9229.134,0.00011,0.0,0.0
3.6,9208.439,0.00011,0.0,0.0
3.606,9228.291,0.00011,0.0,0.0
3.612,9206.262,0.00011,0.0,0.0
3.619,9206.334,0.00011,0.0,0.0
3.625,9203.698,0.00011,0.0,0.0
3.631,9219.167,0.00011,0.0,0.0
3.638,9206.834,0.00011,0.0,0.0
3.644,9225.847,0.00011,0.0,0.0
3.65,9241.062,0.00011,0.0,0.0
3.657,9257.167,0.00011,0.0,0.0
3.663,9255.921,0.00011,0.0,0.0
3.669,9268.666,0.00011,0.0,0.0
3.676,9283.532,0.00011,0.0,0.0
3.682,9282.351,0.00011,0.0,0.0
3.688,9293.233,0.00011,0.0,0.0
3.695,9299.042,0.00011,0.0,0.0
3.701,9340.147,0.00011,0.0,0.0
3.707,9353.529,0.00011,0.0,0.0
3.714,9372.595,0.00011,0.0,0.0
3.72,9398.962,0.00011,0.0,0.0
3.726,9445.451,0.00011,0.0,0.0
3.732,9428.951,0.00011,0.0,0.0
3.739,9503.71,0.00011,0.0,0.0
3.745,9516.485,0.00011,0.0,0.0
3.751,9541.605,0.0001,0.0,0.0
3.758,9583.557,0.0001,0.0,0.0
3.764,9626.736,0.0001,0.0,0.0
3.77,9687.664,0.0001,0.0,0.0
3.777,9719.144,0.0001,0.0,0.0
3.783,9754.09,0.0001,0.0,0.0
3.789,9813.113,0.0001,0.0,0.0
3.796,9874.906,0.0001,0.0,0.0
3.802,9895.967,0.0001,0.0,0.0
3.808,9957.674,0.0001,0.0,0.0
3.815,9973.902,0.0001,0.0,0.0
3.821,10056.096,0.0001,0.0,0.0
3.827,10092.439,0.0001,0.0,0.0
3.834,10096.305,0.0001,0.0,0.0
3.84,10180.786,0.0001,0.0,0.0
3.846,10188.096,0.0001,0.0,0.0
3.853,10233.023,0.0001,0.0,0.0
3.859,10265.882,0.0001,0.0,0.0
3.865,10247.666,0.0001,0.0,0.0
3.872,10263.485,0.0001,0.0,0.0
3.878,10291.245,0.0001,0.0,0.0
3.884,10269.976,0.0001,0.0,0.0
3.89,10299.149,0.0001,0.0,0.0
3.897,10267.585,0.0001,0.0,0.0
3.903,10255.695,0.0001,0.0,0.0
3.909,10266.649,0.0001,0.0,0.0
3.916,10199.519,0.0001,0.0,0.0
3.922,10171.969,0.0001,0.0,0.0
3.928,10172.068,0.0001,0.0,0.0
3.935,10105.368,0.0001,0.0,0.0
3.941,10084.822,0.0001,0.0,0.0
3.947,10047.157,0.0001,0.0,0.0
3.954,9960.509,0.0001,0.0,0.0
3.96,9967.927,0.0001,0.0,0.0
3.966,9882.103,0.0001,0.0,0.0
3.973,9888.934,0.0001,0.0,0.0
3.979,9798.426,0.0001,0.0,0.0
3.985,9755.664,0.0001,0.0,0.0
3.992,9699.784,0.0001,0.0,0.0
3.998,9682.387,0.0001,0.0,0.0
4.004,9582.83,0.0001,0.0,0.0
4.011,9586.329,0.0001,0.0,0.0
4.017,9496.195,0.00011,0.0,0.0
4.023,9469.527,0.00011,0.0,0.0
4.03,9415.874,0.00011,0.0,0.0
4.036,9379.874,0.00011,0.0,0.0
4.042,9359.248,0.00011,0.0,0.0
4.048,9316.656,0.00011,0.0,0.0
4.055,9241.798,0.00011,0.0,0.0
4.061,9211.386,0.00011,0.0,0.0
4.067,9269.397,0.00011,0.0,0.0
4.074,9144.373,0.00011,0.0,0.0
4.08,9121.62,0.00011,0.0,0.0
4.086,9074.4,0.00011,0.0,0.0
4.093,9049.453,0.00011,0.0,0.0
4.099,8998.131,0.00011,0.0,0.0
4.105,9008.452,0.00011,0.0,0.0
4.112,8986.747,0.00011,0.0,0.0
4.118,8938.608,0.00011,0.0,0.0
4.124,8936.6,0.00011,0.0,0.0
4.131,8919.603,0.00011,0.0,0.0
4.137,8884.307,0.00011,0.0,0.0
4.143,8863.303,0.00011,0.0,0.0
4.15,8853.657,0.00011,0.0,0.0
4.156,8836.292,0.00011,0.0,0.0
4.162,8835.025,0.00011,0.0,0.0
4.169,8786.109,0.00011,0.0,0.0
4.175,8792.203,0.00011,0.0,0.0
4.181,8761.355,0.00011,0.0,0.0
4.188,8767.435,0.00011,0.0,0.0
4.194,8720.766,0.00011,0.0,0.0
4.2,8731.62,0.00011,0.0,0.0
4.206,8713.184,0.00011,0.0,0.0
4.213,8754.966,0.00011,0.0,0.0
4.219,8689.791,0.00012,0.0,0.0
4.225,8701.183,0.00011,0.0,0.0
4.232,8703.878,0.00011,0.0,0.0
4.238,8663.205,0.00012,0.0,0.0
4.244,8697.725,0.00011,0.0,0.0
4.251,8675.756,0.00012,0.0,0.0
4.257,8643.91,0.00012,0.0,0.0
4.263,8614.511,0.00012,0.0,0.0
4.27,8649.375,0.00012,0.0,0.0
4.276,8632.913,0.00012,0.0,0.0
4.282,8675.24,0.00012,0.0,0.0
4.289,8624.707,0.00012,0.0,0.0
4.295,8629.421,0.00012,0.0,0.0
4.301,8589.978,0.00012,0.0,0.0
4.308,8634.884,0.00012,0.0,0.0
4.314,8608.231,0.00012,0.0,0.0
4.32,8597.68,0.00012,0.0,0.0
4.327,8609.65,0.00012,0.0,0.0
4.333,8575.174,0.00012,0.0,0.0
4.339,8556.899,0.00012,0.0,0.0
4.346,8611.602,0.00012,0.0,0.0
4.352,8566.954,0.00012,0.0,0.0
4.358,8578.238,0.00012,0.0,0.0
4.364,8620.193,0.00012,0.0,0.0
4.371,8622.861,0.00012,0.0,0.0
4.377,8588.853,0.00012,0.0,0.0
4.383,8603.561,0.00012,0.0,0.0
4.39,8616.616,0.00012,0.0,0.0
4.396,8606.664,0.00012,0.0,0.0
4.402,8648.61,0.00012,0.0,0.0
4.409,8621.011,0.00012,0.0,0.0
4.415,8623.981,0.00012,0.0,0.0
4.421,8626.696,0.00012,0.0,0.0
4.428,8654.249,0.00012,0.0,0.0
4.434,8609.617,0.00012,0.0,0.0
4.44,8686.585,0.00012,0.0,0.0
4.447,8706.883,0.00011,0.0,0.0
4.453,8737.4,0.00011,0.0,0.0
4.459,8726.259,0.00011,0.0,0.0
4.466,8795.223,0.00011,0.0,0.0
4.472,8837.495,0.00011,0.0,0.0
4.478,8962.299,0.00011,0.0,0.0
4.485,9068.857,0.00011,0.0,0.0
4.491,9252.007,0.00011,0.0,0.0
4.497,9504.502,0.00011,0.0,0.0
4.504,9716.466,0.0001,0.0,0.0
4.51,10276.47,0.0001,0.0,0.0
4.516,11012.416,0.00009,0.0,0.0
4.522,13644.12,0.00007,0.0,0.0
4.529,18220.298,0.00005,0.0,0.0
4.535,22808.993,0.00004,0.0,0.0
4.541,35117.015,0.00003,0.0,0.0
4.548,37925.265,0.00003,0.0,0.0
4.554,46680.923,0.00002,0.0,0.0
4.56,50755.157,0.00002,0.0,0.0
4.567,51672.453,0.00002,0.0,0.0
4.573,40728.438,0.00002,0.0,0.0
4.579,32106.231,0.00003,0.0,0.0
4.586,28824.994,0.00003,0.0,0.0
4.592,20212.708,0.00005,0.0,0.0
4.598,15456.07,0.00006,0.0,0.0
4.605,12420.722,0.00008,0.0,0.0
4.611,10636.79,0.00009,0.0,0.0
4.617,9839.21,0.0001,0.0,0.0
4.624,9350.066,0.00011,0.0,0.0
4.63,9084.11,0.00011,0.0,0.0
4.636,8923.808,0.00011,0.0,0.0
4.643,8780.524,0.00011,0.0,0.0
4.649,8624.525,0.00012,0.0,0.0
4.655,8581.609,0.00012,0.0,0.0
4.662,8410.296,0.00012,0.0,0.0
4.668,8431.842,0.00012,0.0,0.0
4.674,8309.019,0.00012,0.0,0.0
4.68,8315.81,0.00012,0.0,0.0
4.687,8217.821,0.00012,0.0,0.0
4.693,8220.251,0.00012,0.0,0.0
4.699,8133.095,0.00012,0.0,0.0
4.706,8078.959,0.00012,0.0,0.0
4.712,8056.959,0.00012,0.0,0.0
4.718,8035.805,0.00012,0.0,0.0
4.725,8025.231,0.00012,0.0,0.0
4.731,7979.888,0.00013,0.0,0.0
4.737,7914.493,0.00013,0.0,0.0
4.744,7902.429,0.00013,0.0,0.0
4.75,7849.41,0.00013,0.0,0.0
4.756,7815.807,0.00013,0.0,0.0
4.763,7839.985,0.00013,0.0,0.0
4.769,7724.832,0.00013,0.0,0.0
4.775,7765.505,0.00013,0.0,0.0
4.782,7673.826,0.00013,0.0,0.0
4.788,7673.288,0.00013,0.0,0.0
4.794,7616.458,0.00013,0.0,0.0
4.801,7585.163,0.00013,0.0,0.0
4.807,7534.217,0.00013,0.0,0.0
4.813,7572.356,0.00013,0.0,0.0
4.82,7492.055,0.00013,0.0,0.0
4.826,7506.114,0.00013,0.0,0.0
4.832,7437.691,0.00013,0.0,0.0
4.838,7444.627,0.00013,0.0,0.0
4.845,7439.344,0.00013,0.0,0.0
4.851,7398.573,0.00014,0.0,0.0
4.857,7391.09,0.00014,0.0,0.0
4.864,7366.147,0.00014,0.0,0.0
4.87,7328.424,0.00014,0.0,0.0
4.876,7290.264,0.00014,0.0,0.0
4.883,7319.0,0.00014,0.0,0.0
4.889,7219.842,0.00014,0.0,0.0
4.895,7255.134,0.00014,0.0,0.0
4.902,7151.302,0.00014,0.0,0.0
4.908,7196.096,0.00014,0.0,0.0
4.914,7142.196,0.00014,0.0,0.0
4.921,7147.136,0.00014,0.0,0.0
4.927,7126.077,0.00014,0.0,0.0
4.933,7082.466,0.00014,0.0,0.0
4.94,7079.011,0.00014,0.0,0.0
4.946,7084.156,0.00014,0.0,0.0
4.952,7014.072,0.00014,0.0,0.0
4.959,7021.881,0.00014,0.0,0.0
4.965,7013.371,0.00014,0.0,0.0
4.971,6956.013,0.00014,0.0,0.0
4.978,6988.749,0.00014,0.0,0.0
4.984,6924.942,0.00014,0.0,0.0
4.99,6928.818,0.00014,0.0,0.0
4.996,6888.037,0.00015,0.0,0.0
5.003,6885.81,0.00015,0.0,0.0
5.009,6877.776,0.00015,0.0,0.0
5.015,6866.135,0.00015,0.0,0.0
5.022,6841.237,0.00015,0.0,0.0
5.028,6831.619,0.00015,0.0,0.0
5.034,6812.779,0.00015,0.0,0.0
5.041,6798.935,0.00015,0.0,0.0
5.047,6780.081,0.00015,0.0,0.0
5.053,6770.864,0.00015,0.0,0.0
5.06,6767.792,0.00015,0.0,0.0
5.066,6722.856,0.00015,0.0,0.0
5.072,6719.411,0.00015,0.0,0.0
5.079,6718.149,0.00015,0.0,0.0
5.085,6713.006,0.00015,0.0,0.0
5.091,6682.933,0.00015,0.0,0.0
5.098,6672.869,0.00015,0.0,0.0
5.104,6669.647,0.00015,0.0,0.0
5.11,6661.326,0.00015,0.0,0.0
5.117,6646.478,0.00015,0.0,0.0
5.123,6622.401,0.00015,0.0,0.0
5.129,6613.602,0.00015,0.0,0.0
5.136,6596.019,0.00015,0.0,0.0
5.142,6590.071,0.00015,0.0,0.0
5.148,6573.129,0.00015,0.0,0.0
5.154,6564.296,0.00015,0.0,0.0
5.161,6535.429,0.00015,0.0,0.0
5.167,6512.817,0.00015,0.0,0.0
5.173,6476.263,0.00015,0.0,0.0
5.18,6517.835,0.00015,0.0,0.0
5.186,6438.827,0.00016,0.0,0.0
5.192,6452.592,0.00015,0.0,0.0
5.199,6419.951,0.00016,0.0,0.0
5.205,6410.53,0.00016,0.0,0.0
5.211,6385.25,0.00016,0.0,0.0
5.218,6355.68,0.00016,0.0,0.0
5.224,6357.501,0.00016,0.0,0.0
5.23,6332.748,0.00016,0.0,0.0
5.237,6336.641,0.00016,0.0,0.0
5.243,6309.379,0.00016,0.0,0.0
5.249,6301.598,0.00016,0.0,0.0
5.256,6273.048,0.00016,0.0,0.0
5.262,6270.803,0.00016,0.0,0.0
5.268,6221.101,0.00016,0.0,0.0
5.275,6207.19,0.00016,0.0,0.0
5.281,6217.656,0.00016,0.0,0.0
5.287,6191.628,0.00016,0.0,0.0
5.294,6160.415,0.00016,0.0,0.0
5.3,6157.342,0.00016,0.0,0.0
5.306,6172.225,0.00016,0.0,0.0
5.312,6147.713,0.00016,0.0,0.0
5.319,6143.018,0.00016,0.0,0.0
5.325,6116.769,0.00016,0.0,0.0
5.331,6123.459,0.00016,0.0,0.0
5.338,6096.168,0.00016,0.0,0.0
5.344,6124.287,0.00016,0.0,0.0
5.35,6081.678,0.00016,0.0,0.0
5.357,6078.683,0.00016,0.0,0.0
5.363,6066.548,0.00016,0.0,0.0
5.369,6077.425,0.00016,0.0,0.0
5.376,6060.564,0.00017,0.0,0.0
5.382,6067.935,0.00016,0.0,0.0
5.388,6027.429,0.00017,0.0,0.0
5.395,6041.36,0.00017,0.0,0.0
5.401,6009.394,0.00017,0.0,0.0
5.407,6031.162,0.00017,0.0,0.0
5.414,6053.748,0.00017,0.0,0.0
5.42,5993.099,0.00017,0.0,0.0
5.426,6014.88,0.00017,0.0,0.0
5.433,5991.868,0.00017,0.0,0.0
5.439,6004.736,0.00017,0.0,0.0
5.445,5996.13,0.00017,0.0,0.0
5.452,5995.831,0.00017,0.0,0.0
5.458,5976.863,0.00017,0.0,0.0
5.464,5995.545,0.00017,0.0,0.0
5.47,5956.133,0.00017,0.0,0.0
5.477,6008.242,0.00017,0.0,0.0
5.483,5965.007,0.00017,0.0,0.0
5.489,5976.913,0.00017,0.0,0.0
5.496,5952.311,0.00017,0.0,0.0
5.502,5958.101,0.00017,0.0,0.0
5.508,5965.922,0.00017,0.0,0.0
5.515,5967.62,0.00017,0.0,0.0
5.521,5950.906,0.00017,0.0,0.0
5.527,5937.236,0.00017,0.0,0.0
5.534,5947.831,0.00017,0.0,0.0
5.54,5936.847,0.00017,0.0,0.0
5.546,5943.324,0.00017,0.0,0.0
5.553,5940.268,0.00017,0.0,0.0
5.559,5945.495,0.00017,0.0,0.0
5.565,5948.53,0.00017,0.0,0.0
5.572,5960.109,0.00017,0.0,0.0
5.578,5949.935,0.00017,0.0,0.0
5.584,5951.447,0.00017,0.0,0.0
5.591,5945.507,0.00017,0.0,0.0
5.597,5958.995,0.00017,0.0,0.0
5.603,5957.21,0.00017,0.0,0.0
5.61,5937.846,0.00017,0.0,0.0
5.616,5960.412,0.00017,0.0,0.0
5.622,5943.17,0.00017,0.0,0.0
5.628,5968.004,0.00017,0.0,0.0
5.635,5957.576,0.00017,0.0,0.0
5.641,5959.931,0.00017,0.0,0.0
5.647,5953.488,0.00017,0.0,0.0
5.654,5961.288,0.00017,0.0,0.0
5.66,5959.008,0.00017,0.0,0.0
5.666,5983.547,0.00017,0.0,0.0
5.673,5959.267,0.00017,0.0,0.0
5.679,5982.419,0.00017,0.0,0.0
5.685,5965.018,0.00017,0.0,0.0
5.692,5975.194,0.00017,0.0,0.0
5.698,5976.172,0.00017,0.0,0.0
5.704,5999.6,0.00017,0.0,0.0
5.711,6016.548,0.00017,0.0,0.0
5.717,5992.467,0.00017,0.0,0.0
5.723,6024.926,0.00017,0.0,0.0
5.73,6017.109,0.00017,0.0,0.0
5.736,6048.489,0.00017,0.0,0.0
5.742,6022.859,0.00017,0.0,0.0
5.749,6096.127,0.00016,0.0,0.0
5.755,6052.382,0.00017,0.0,0.0
5.761,6099.508,0.00016,0.0,0.0
5.768,6080.16,0.00016,0.0,0.0
5.774,6121.165,0.00016,0.0,0.0
5.78,6137.71,0.00016,0.0,0.0
5.786,6132.06,0.00016,0.0,0.0
5.793,6132.96,0.00016,0.0,0.0
5.799,6159.977,0.00016,0.0,0.0
5.805,6173.638,0.00016,0.0,0.0
5.812,6169.486,0.00016,0.0,0.0
5.818,6206.883,0.00016,0.0,0.0
5.824,6203.572,0.00016,0.0,0.0
5.831,6268.591,0.00016,0.0,0.0
5.837,6250.508,0.00016,0.0,0.0
5.843,6314.466,0.00016,0.0,0.0
5.85,6327.778,0.00016,0.0,0.0
5.856,6381.284,0.00016,0.0,0.0
5.862,6462.259,0.00015,0.0,0.0
5.869,6502.373,0.00015,0.0,0.0
5.875,6564.849,0.00015,0.0,0.0
5.881,6534.857,0.00015,0.0,0.0
5.888,6486.412,0.00015,0.0,0.0
5.894,6399.94,0.00016,0.0,0.0
5.9,6317.37,0.00016,0.0,0.0
5.907,6218.279,0.00016,0.0,0.0
5.913,6232.953,0.00016,0.0,0.0
5.919,6102.856,0.00016,0.0,0.0
5.926,6109.85,0.00016,0.0,0.0
5.932,6040.211,0.00017,0.0,0.0
5.938,6059.298,0.00017,0.0,0.0
5.944,5999.677,0.00017,0.0,0.0
5.951,6025.825,0.00017,0.0,0.0
5.957,5992.469,0.00017,0.0,0.0
5.963,5972.89,0.00017,0.0,0.0
5.97,5954.901,0.00017,0.0,0.0
5.976,5902.12,0.00017,0.0,0.0
5.982,5930.94,0.00017,0.0,0.0
5.989,5892.466,0.00017,0.0,0.0
5.995,5932.545,0.00017,0.0,0.0
6.001,5871.278,0.00017,0.0,0.0
6.008,5901.952,0.00017,0.0,0.0
6.014,5840.039,0.00017,0.0,0.0
6.02,5889.22,0.00017,0.0,0.0
6.027,5830.332,0.00017,0.0,0.0
6.033,5929.455,0.00017,0.0,0.0
6.039,5833.647,0.00017,0.0,0.0
6.046,5893.066,0.00017,0.0,0.0
6.052,5833.947,0.00017,0.0,0.0
6.058,5811.119,0.00017,0.0,0.0
6.065,5831.577,0.00017,0.0,0.0
6.071,5822.768,0.00017,0.0,0.0
6.077,5857.308,0.00017,0.0,0.0
6.084,5801.473,0.00017,0.0,0.0
6.09,5847.714,0.00017,0.0,0.0
6.096,5797.992,0.00017,0.0,0.0
6.102,5839.485,0.00017,0.0,0.0
6.109,5757.272,0.00017,0.0,0.0
6.115,5881.619,0.00017,0.0,0.0
6.121,5781.487,0.00017,0.0,0.0
6.128,5897.339,0.00017,0.0,0.0
6.134,5828.82,0.00017,0.0,0.0
6.14,5872.62,0.00017,0.0,0.0
6.147,5829.523,0.00017,0.0,0.0
6.153,5854.848,0.00017,0.0,0.0
6.159,5921.702,0.00017,0.0,0.0
6.166,5888.7,0.00017,0.0,0.0
6.172,5937.73,0.00017,0.0,0.0
6.178,5846.927,0.00017,0.0,0.0
6.185,5969.354,0.00017,0.0,0.0
6.191,5858.727,0.00017,0.0,0.0
6.197,6036.709,0.00017,0.0,0.0
6.204,5882.782,0.00017,0.0,0.0
6.21,6051.986,0.00017,0.0,0.0
6.216,5909.176,0.00017,0.0,0.0
6.223,6110.907,0.00016,0.0,0.0
6.229,5968.473,0.00017,0.0,0.0
6.235,6117.505,0.00016,0.0,0.0
6.242,6125.267,0.00016,0.0,0.0
6.248,6087.514,0.00016,0.0,0.0
6.254,6200.169,0.00016,0.0,0.0
6.26,6036.989,0.00017,0.0,0.0
6.267,6234.89,0.00016,0.0,0.0
6.273,6021.59,0.00017,0.0,0.0
6.279,6355.098,0.00016,0.0,0.0
6.286,6142.937,0.00016,0.0,0.0
6.292,6372.851,0.00016,0.0,0.0
6.298,6166.826,0.00016,0.0,0.0
6.305,6429.245,0.00016,0.0,0.0
6.311,6154.54,0.00016,0.0,0.0
6.317,6501.895,0.00015,0.0,0.0
6.324,6403.217,0.00016,0.0,0.0
6.33,6517.79,0.00015,0.0,0.0
6.336,6472.654,0.00015,0.0,0.0
6.343,6501.919,0.00015,0.0,0.0
6.349,6623.236,0.00015,0.0,0.0
6.355,6621.448,0.00015,0.0,0.0
6.362,6864.574,0.00015,0.0,0.0
6.368,6905.906,0.00014,0.0,0.0
6.374,7162.734,0.00014,0.0,0.0
6.381,7238.775,0.00014,0.0,0.0
6.387,7436.787,0.00013,0.0,0.0
6.393,7494.96,0.00013,0.0,0.0
6.4,9318.554,0.00011,0.0,0.0
6.406,10301.186,0.0001,0.0,0.0
6.412,12647.394,0.00008,0.0,0.0
6.418,13065.367,0.00008,0.0,0.0
6.425,14017.405,0.00007,0.0,0.0
6.431,12801.558,0.00008,0.0,0.0
6.437,19162.765,0.00005,0.0,0.0
6.444,19937.35,0.00005,0.0,0.0
6.45,23551.739,0.00004,0.0,0.0
6.456,23584.855,0.00004,0.0,0.0
6.463,17087.793,0.00006,0.0,0.0
6.469,21422.784,0.00005,0.0,0.0
6.475,10060.79,0.0001,0.0,0.0
6.482,16301.581,0.00006,0.0,0.0
6.488,10645.27,0.00009,0.0,0.0
6.494,11057.875,0.00009,0.0,0.0
6.501,8239.391,0.00012,0.0,0.0
6.507,8788.735,0.00011,0.0,0.0
6.513,7715.139,0.00013,0.0,0.0
6.52,7963.113,0.00013,0.0,0.0
6.526,7814.704,0.00013,0.0,0.0
6.532,7956.976,0.00013,0.0,0.0
6.539,8119.861,0.00012,0.0,0.0
6.545,8025.583,0.00012,0.0,0.0
6.551,8636.734,0.00012,0.0,0.0
6.558,8881.967,0.00011,0.0,0.0
6.564,9929.483,0.0001,0.0,0.0
6.57,11314.88,0.00009,0.0,0.0
6.576,14638.59,0.00007,0.0,0.0
6.583,20095.688,0.00005,0.0,0.0
6.589,30985.825,0.00003,0.0,0.0
6.595,48823.633,0.00002,0.0,0.0
6.602,73158.001,0.00001,0.0,0.0
6.608,89515.408,0.00001,0.0,0.0
6.614,105914.961,0.00001,0.0,0.0
6.621,103595.578,0.00001,0.0,0.0
6.627,88549.254,0.00001,0.0,0.0
6.633,59838.579,0.00002,0.0,0.0
6.64,40466.104,0.00002,0.0,0.0
6.646,23253.976,0.00004,0.0,0.0
6.652,17427.145,0.00006,0.0,0.0
6.659,12888.509,0.00008,0.0,0.0
6.665,9898.668,0.0001,0.0,0.0
6.671,9052.388,0.00011,0.0,0.0
6.678,7975.322,0.00013,0.0,0.0
6.684,7434.3,0.00013,0.0,0.0
6.69,7213.075,0.00014,0.0,0.0
6.697,6875.943,0.00015,0.0,0.0
6.703,6781.03,0.00015,0.0,0.0
6.709,6509.057,0.00015,0.0,0.0
6.716,6523.682,0.00015,0.0,0.0
6.722,6320.742,0.00016,0.0,0.0
6.728,6308.941,0.00016,0.0,0.0
6.734,6195.901,0.00016,0.0,0.0
6.741,6263.222,0.00016,0.0,0.0
6.747,6099.262,0.00016,0.0,0.0
6.753,6178.5,0.00016,0.0,0.0
6.76,6076.126,0.00016,0.0,0.0
6.766,6067.947,0.00016,0.0,0.0
6.772,6029.985,0.00017,0.0,0.0
6.779,6023.377,0.00017,0.0,0.0
6.785,6022.491,0.00017,0.0,0.0
6.791,5968.666,0.00017,0.0,0.0
6.798,6022.896,0.00017,0.0,0.0
6.804,5916.203,0.00017,0.0,0.0
6.81,5964.974,0.00017,0.0,0.0
6.817,5880.046,0.00017,0.0,0.0
6.823,5992.392,0.00017,0.0,0.0
6.829,5844.35,0.00017,0.0,0.0
6.836,5922.876,0.00017,0.0,0.0
6.842,5860.553,0.00017,0.0,0.0
6.848,5894.231,0.00017,0.0,0.0
6.855,5872.778,0.00017,0.0,0.0
6.861,5847.076,0.00017,0.0,0.0
6.867,5863.165,0.00017,0.0,0.0
6.874,5826.54,0.00017,0.0,0.0
6.88,5865.586,0.00017,0.0,0.0
6.886,5814.986,0.00017,0.0,0.0
6.892,5848.484,0.00017,0.0,0.0
6.899,5800.159,0.00017,0.0,0.0
6.905,5863.878,0.00017,0.0,0.0
6.911,5817.311,0.00017,0.0,0.0
6.918,5829.907,0.00017,0.0,0.0
6.924,5801.442,0.00017,0.0,0.0
6.93,5843.393,0.00017,0.0,0.0
6.937,5813.802,0.00017,0.0,0.0
6.943,5819.73,0.00017,0.0,0.0
6.949,5848.367,0.00017,0.0,0.0
6.956,5825.214,0.00017,0.0,0.0
6.962,5864.189,0.00017,0.0,0.0
6.968,5836.024,0.00017,0.0,0.0
6.975,5847.937,0.00017,0.0,0.0
6.981,5851.134,0.00017,0.0,0.0
6.987,5891.688,0.00017,0.0,0.0
6.994,5851.428,0.00017,0.0,0.0
7.0,5898.855,0.00017,0.0,0.0
7.006,5857.596,0.00017,0.0,0.0
7.013,5897.173,0.00017,0.0,0.0
7.019,5876.644,0.00017,0.0,0.0
7.025,5913.347,0.00017,0.0,0.0
7.032,5908.11,0.00017,0.0,0.0
7.038,5928.093,0.00017,0.0,0.0
7.044,5936.15,0.00017,0.0,0.0
7.05,5934.141,0.00017,0.0,0.0
7.057,5953.418,0.00017,0.0,0.0
7.063,5932.843,0.00017,0.0,0.0
7.069,5991.489,0.00017,0.0,0.0
7.076,5972.254,0.00017,0.0,0.0
7.082,6004.363,0.00017,0.0,0.0
7.088,5986.512,0.00017,0.0,0.0
7.095,6045.798,0.00017,0.0,0.0
7.101,6009.332,0.00017,0.0,0.0
7.107,6052.365,0.00017,0.0,0.0
7.114,6065.275,0.00016,0.0,0.0
7.12,6051.332,0.00017,0.0,0.0
7.126,6075.836,0.00016,0.0,0.0
7.133,6067.741,0.00016,0.0,0.0
7.139,6077.735,0.00016,0.0,0.0
7.145,6058.371,0.00017,0.0,0.0
7.152,6083.932,0.00016,0.0,0.0
7.158,6088.888,0.00016,0.0,0.0
7.164,6105.525,0.00016,0.0,0.0
7.171,6079.099,0.00016,0.0,0.0
7.177,6109.153,0.00016,0.0,0.0
7.183,6044.094,0.00017,0.0,0.0
7.19,6093.927,0.00016,0.0,0.0
7.196,6074.496,0.00016,0.0,0.0
7.202,6067.087,0.00016,0.0,0.0
7.208,6060.747,0.00016,0.0,0.0
7.215,6035.564,0.00017,0.0,0.0
7.221,6041.967,0.00017,0.0,0.0
7.227,6011.217,0.00017,0.0,0.0
7.234,6022.811,0.00017,0.0,0.0
7.24,6003.775,0.00017,0.0,0.0
7.246,5997.277,0.00017,0.0,0.0
7.253,5965.733,0.00017,0.0,0.0
7.259,5967.389,0.00017,0.0,0.0
7.265,5951.564,0.00017,0.0,0.0
7.272,5938.381,0.00017,0.0,0.0
7.278,5936.668,0.00017,0.0,0.0
7.284,5926.675,0.00017,0.0,0.0
7.291,5924.202,0.00017,0.0,0.0
7.297,5902.334,0.00017,0.0,0.0
7.303,5871.437,0.00017,0.0,0.0
7.31,5878.442,0.00017,0.0,0.0
7.316,5865.74,0.00017,0.0,0.0
7.322,5855.815,0.00017,0.0,0.0
7.329,5858.888,0.00017,0.0,0.0
7.335,5811.296,0.00017,0.0,0.0
7.341,5811.529,0.00017,0.0,0.0
7.348,5795.342,0.00017,0.0,0.0
7.354,5789.143,0.00017,0.0,0.0
7.36,5763.912,0.00017,0.0,0.0
7.366,5767.489,0.00017,0.0,0.0
7.373,5774.436,0.00017,0.0,0.0
7.379,5744.532,0.00017,0.0,0.0
7.385,5753.121,0.00017,0.0,0.0
7.392,5740.03,0.00017,0.0,0.0
7.398,5735.387,0.00017,0.0,0.0
7.404,5715.119,0.00017,0.0,0.0
7.411,5740.979,0.00017,0.0,0.0
7.417,5731.654,0.00017,0.0,0.0
7.423,5735.448,0.00017,0.0,0.0
7.43,5738.496,0.00017,0.0,0.0
7.436,5730.392,0.00017,0.0,0.0
7.442,5726.387,0.00017,0.0,0.0
7.449,5761.566,0.00017,0.0,0.0
7.455,5743.301,0.00017,0.0,0.0
7.461,5745.331,0.00017,0.0,0.0
7.468,5756.036,0.00017,0.0,0.0
7.474,5770.482,0.00017,0.0,0.0
7.48,5793.708,0.00017,0.0,0.0
7.487,5787.681,0.00017,0.0,0.0
7.493,5829.437,0.00017,0.0,0.0
7.499,5823.76,0.00017,0.0,0.0
7.506,5840.274,0.00017,0.0,0.0
7.512,5850.926,0.00017,0.0,0.0
7.518,5864.91,0.00017,0.0,0.0
7.524,5886.461,0.00017,0.0,0.0
7.531,5937.528,0.00017,0.0,0.0
7.537,5962.052,0.00017,0.0,0.0
7.543,6002.609,0.00017,0.0,0.0
7.55,6077.806,0.00016,0.0,0.0
7.556,6125.574,0.00016,0.0,0.0
7.562,6243.385,0.00016,0.0,0.0
7.569,6390.997,0.00016,0.0,0.0
7.575,6575.722,0.00015,0.0,0.0
7.581,6984.3,0.00014,0.0,0.0
7.588,7305.541,0.00014,0.0,0.0
7.594,8307.887,0.00012,0.0,0.0
7.6,9832.355,0.0001,0.0,0.0
7.607,12740.672,0.00008,0.0,0.0
7.613,18084.306,0.00006,0.0,0.0
7.619,25007.252,0.00004,0.0,0.0
7.626,34470.613,0.00003,0.0,0.0
7.632,48359.552,0.00002,0.0,0.0
7.638,53805.769,0.00002,0.0,0.0
7.645,45983.298,0.00002,0.0,0.0
7.651,44025.305,0.00002,0.0,0.0
7.657,31458.234,0.00003,0.0,0.0
7.664,21871.255,0.00005,0.0,0.0
7.67,15700.751,0.00006,0.0,0.0
7.676,11153.159,0.00009,0.0,0.0
7.682,9120.488,0.00011,0.0,0.0
7.689,8037.624,0.00012,0.0,0.0
7.695,7279.12,0.00014,0.0,0.0
7.701,6928.759,0.00014,0.0,0.0
7.708,6619.348,0.00015,0.0,0.0
7.714,6481.943,0.00015,0.0,0.0
7.72,6431.385,0.00016,0.0,0.0
7.727,6340.903,0.00016,0.0,0.0
7.733,6275.87,0.00016,0.0,0.0
7.739,6257.867,0.00016,0.0,0.0
7.746,6271.101,0.00016,0.0,0.0
7.752,6270.937,0.00016,0.0,0.0
7.758,6287.629,0.00016,0.0,0.0
7.765,6259.18,0.00016,0.0,0.0
7.771,6292.11,0.00016,0.0,0.0
7.777,6293.554,0.00016,0.0,0.0
7.784,6341.267,0.00016,0.0,0.0
7.79,6411.564,0.00016,0.0,0.0
7.796,6388.77,0.00016,0.0,0.0
7.803,6417.042,0.00016,0.0,0.0
7.809,6447.864,0.00016,0.0,0.0
7.815,6564.986,0.00015,0.0,0.0
7.822,6572.825,0.00015,0.0,0.0
7.828,6662.579,0.00015,0.0,0.0
7.834,6685.25,0.00015,0.0,0.0
7.84,6804.966,0.00015,0.0,0.0
7.847,6979.305,0.00014,0.0,0.0
7.853,7109.085,0.00014,0.0,0.0
7.859,7333.009,0.00014,0.0,0.0
7.866,7490.064,0.00013,0.0,0.0
7.872,8322.37,0.00012,0.0,0.0
7.878,9529.165,0.0001,0.0,0.0
7.885,11755.926,0.00009,0.0,0.0
7.891,12619.192,0.00008,0.0,0.0
7.897,16368.238,0.00006,0.0,0.0
7.904,15570.772,0.00006,0.0,0.0
7.91,16749.121,0.00006,0.0,0.0
7.916,17106.436,0.00006,0.0,0.0
7.923,12266.172,0.00008,0.0,0.0
7.929,9637.338,0.0001,0.0,0.0
7.935,9599.348,0.0001,0.0,0.0
7.942,8334.702,0.00012,0.0,0.0
7.948,7603.083,0.00013,0.0,0.0
7.954,7301.344,0.00014,0.0,0.0
7.961,7074.911,0.00014,0.0,0.0
7.967,7112.662,0.00014,0.0,0.0
7.973,6999.95,0.00014,0.0,0.0
7.98,6936.024,0.00014,0.0,0.0
7.986,6850.256,0.00015,0.0,0.0
7.992,6835.141,0.00015,0.0,0.0
7.998,6823.611,0.00015,0.0,0.0
8.005,6850.628,0.00015,0.0,0.0
8.011,6780.242,0.00015,0.0,0.0
8.017,6793.897,0.00015,0.0,0.0
8.024,6800.302,0.00015,0.0,0.0
8.03,6755.755,0.00015,0.0,0.0
8.036,6766.742,0.00015,0.0,0.0
8.043,6732.497,0.00015,0.0,0.0
8.049,6727.277,0.00015,0.0,0.0
8.055,6727.42,0.00015,0.0,0.0
8.062,6734.766,0.00015,0.0,0.0
8.068,6718.607,0.00015,0.0,0.0
8.074,6714.947,0.00015,0.0,0.0
8.081,6693.387,0.00015,0.0,0.0
8.087,6751.915,0.00015,0.0,0.0
8.093,6724.282,0.00015,0.0,0.0
8.1,6741.246,0.00015,0.0,0.0
8.106,6725.995,0.00015,0.0,0.0
8.112,6696.552,0.00015,0.0,0.0
8.119,6792.735,0.00015,0.0,0.0
8.125,6779.809,0.00015,0.0,0.0
8.131,6792.36,0.00015,0.0,0.0
8.138,6795.602,0.00015,0.0,0.0
8.144,6788.458,0.00015,0.0,0.0
8.15,6761.527,0.00015,0.0,0.0
8.156,6747.436,0.00015,0.0,0.0
8.163,6703.486,0.00015,0.0,0.0
8.169,6666.778,0.00015,0.0,0.0
8.175,6649.657,0.00015,0.0,0.0
8.182,6633.667,0.00015,0.0,0.0
8.188,6656.996,0.00015,0.0,0.0
8.194,6570.426,0.00015,0.0,0.0
8.201,6623.469,0.00015,0.0,0.0
8.207,6558.883,0.00015,0.0,0.0
8.213,6567.336,0.00015,0.0,0.0
8.22,6563.098,0.00015,0.0,0.0
8.226,6518.734,0.00015,0.0,0.0
8.232,6513.04,0.00015,0.0,0.0
8.239,6485.731,0.00015,0.0,0.0
8.245,6484.698,0.00015,0.0,0.0
8.251,6457.757,0.00015,0.0,0.0
8.258,6445.82,0.00016,0.0,0.0
8.264,6397.409,0.00016,0.0,0.0
8.27,6398.993,0.00016,0.0,0.0
8.277,6365.794,0.00016,0.0,0.0
8.283,6367.067,0.00016,0.0,0.0
8.289,6326.96,0.00016,0.0,0.0
8.296,6311.603,0.00016,0.0,0.0
8.302,6302.645,0.00016,0.0,0.0
8.308,6305.671,0.00016,0.0,0.0
8.314,6232.37,0.00016,0.0,0.0
8.321,6266.073,0.00016,0.0,0.0
8.327,6209.5,0.00016,0.0,0.0
8.333,6228.487,0.00016,0.0,0.0
8.34,6200.825,0.00016,0.0,0.0
8.346,6164.761,0.00016,0.0,0.0
8.352,6188.286,0.00016,0.0,0.0
8.359,6144.674,0.00016,0.0,0.0
8.365,6153.263,0.00016,0.0,0.0
8.371,6119.337,0.00016,0.0,0.0
8.378,6107.842,0.00016,0.0,0.0
8.384,6098.584,0.00016,0.0,0.0
8.39,6077.94,0.00016,0.0,0.0
8.397,6057.952,0.00017,0.0,0.0
8.403,6049.983,0.00017,0.0,0.0
8.409,6018.013,0.00017,0.0,0.0
8.416,5995.263,0.00017,0.0,0.0
8.422,6005.829,0.00017,0.0,0.0
8.428,5979.508,0.00017,0.0,0.0
8.435,5988.109,0.00017,0.0,0.0
8.441,5937.168,0.00017,0.0,0.0
8.447,5952.768,0.00017,0.0,0.0
8.454,5928.985,0.00017,0.0,0.0
8.46,5940.884,0.00017,0.0,0.0
8.466,5912.164,0.00017,0.0,0.0
8.472,5915.135,0.00017,0.0,0.0
8.479,5884.734,0.00017,0.0,0.0
8.485,5899.599,0.00017,0.0,0.0
8.491,5868.714,0.00017,0.0,0.0
8.498,5871.478,0.00017,0.0,0.0
8.504,5868.725,0.00017,0.0,0.0
8.51,5836.024,0.00017,0.0,0.0
8.517,5840.112,0.00017,0.0,0.0
8.523,5830.508,0.00017,0.0,0.0
8.529,5811.109,0.00017,0.0,0.0
8.536,5824.131,0.00017,0.0,0.0
8.542,5800.684,0.00017,0.0,0.0
8.548,5799.991,0.00017,0.0,0.0
8.555,5777.072,0.00017,0.0,0.0
8.561,5766.154,0.00017,0.0,0.0
8.567,5794.639,0.00017,0.0,0.0
8.574,5746.954,0.00017,0.0,0.0
8.58,5756.257,0.00017,0.0,0.0
8.586,5751.265,0.00017,0.0,0.0
8.593,5718.19,0.00017,0.0,0.0
8.599,5757.528,0.00017,0.0,0.0
8.605,5713.644,0.00018,0.0,0.0
8.612,5696.588,0.00018,0.0,0.0
8.618,5706.852,0.00018,0.0,0.0
8.624,5692.61,0.00018,0.0,0.0
8.63,5708.618,0.00018,0.0,0.0
8.637,5702.847,0.00018,0.0,0.0
8.643,5698.878,0.00018,0.0,0.0
8.649,5687.461,0.00018,0.0,0.0
8.656,5670.738,0.00018,0.0,0.0
8.662,5670.459,0.00018,0.0,0.0
8.668,5674.682,0.00018,0.0,0.0
8.675,5645.466,0.00018,0.0,0.0
8.681,5667.737,0.00018,0.0,0.0
8.687,5651.292,0.00018,0.0,0.0
8.694,5638.202,0.00018,0.0,0.0
8.7,5634.398,0.00018,0.0,0.0
8.706,5629.036,0.00018,0.0,0.0
8.713,5645.342,0.00018,0.0,0.0
8.719,5621.663,0.00018,0.0,0.0
8.725,5608.727,0.00018,0.0,0.0
8.732,5628.038,0.00018,0.0,0.0
8.738,5628.586,0.00018,0.0,0.0
8.744,5613.905,0.00018,0.0,0.0
8.751,5627.775,0.00018,0.0,0.0
8.757,5614.445,0.00018,0.0,0.0
8.763,5604.071,0.00018,0.0,0.0
8.77,5616.994,0.00018,0.0,0.0
8.776,5618.462,0.00018,0.0,0.0
8.782,5609.278,0.00018,0.0,0.0
8.788,5604.875,0.00018,0.0,0.0
8.795,5583.624,0.00018,0.0,0.0
8.801,5606.776,0.00018,0.0,0.0
8.807,5580.86,0.00018,0.0,0.0
8.814,5580.355,0.00018,0.0,0.0
8.82,5575.705,0.00018,0.0,0.0
8.826,5582.698,0.00018,0.0,0.0
8.833,5574.206,0.00018,0.0,0.0
8.839,5572.66,0.00018,0.0,0.0
8.845,5573.445,0.00018,0.0,0.0
8.852,5556.552,0.00018,0.0,0.0
8.858,5556.258,0.00018,0.0,0.0
8.864,5555.351,0.00018,0.0,0.0
8.871,5580.077,0.00018,0.0,0.0
8.877,5559.216,0.00018,0.0,0.0
8.883,5566.596,0.00018,0.0,0.0
8.89,5572.62,0.00018,0.0,0.0
8.896,5556.515,0.00018,0.0,0.0
8.902,5548.918,0.00018,0.0,0.0
8.909,5541.881,0.00018,0.0,0.0
8.915,5563.311,0.00018,0.0,0.0
8.921,5546.326,0.00018,0.0,0.0
8.928,5558.885,0.00018,0.0,0.0
8.934,5533.163,0.00018,0.0,0.0
8.94,5542.567,0.00018,0.0,0.0
8.946,5546.411,0.00018,0.0,0.0
8.953,5553.215,0.00018,0.0,0.0
8.959,5563.003,0.00018,0.0,0.0
8.965,5554.927,0.00018,0.0,0.0
8.972,5552.944,0.00018,0.0,0.0
8.978,5556.145,0.00018,0.0,0.0
8.984,5574.326,0.00018,0.0,0.0
8.991,5567.366,0.00018,0.0,0.0
8.997,5572.535,0.00018,0.0,0.0
9.003,5569.422,0.00018,0.0,0.0
9.01,5594.448,0.00018,0.0,0.0
9.016,5584.216,0.00018,0.0,0.0
9.022,5610.845,0.00018,0.0,0.0
9.029,5581.219,0.00018,0.0,0.0
9.035,5620.197,0.00018,0.0,0.0
9.041,5621.797,0.00018,0.0,0.0
9.048,5629.705,0.00018,0.0,0.0
9.054,5661.186,0.00018,0.0,0.0
9.06,5682.45,0.00018,0.0,0.0
9.067,5705.508,0.00018,0.0,0.0
9.073,5728.454,0.00017,0.0,0.0
9.079,5777.061,0.00017,0.0,0.0
9.086,5818.028,0.00017,0.0,0.0
9.092,5956.841,0.00017,0.0,0.0
9.098,6129.834,0.00016,0.0,0.0
9.104,6548.384,0.00015,0.0,0.0
9.111,7361.723,0.00014,0.0,0.0
9.117,7702.363,0.00013,0.0,0.0
9.123,10624.486,0.00009,0.0,0.0
9.13,9655.534,0.0001,0.0,0.0
9.136,10393.113,0.0001,0.0,0.0
9.142,8816.659,0.00011,0.0,0.0
9.149,8485.8,0.00012,0.0,0.0
9.155,6828.02,0.00015,0.0,0.0
9.161,6631.339,0.00015,0.0,0.0
9.168,6132.36,0.00016,0.0,0.0
9.174,6010.09,0.00017,0.0,0.0
9.18,5907.133,0.00017,0.0,0.0
9.187,5882.745,0.00017,0.0,0.0
9.193,5866.87,0.00017,0.0,0.0
9.199,5813.898,0.00017,0.0,0.0
9.206,5808.778,0.00017,0.0,0.0
9.212,5797.322,0.00017,0.0,0.0
9.218,5785.654,0.00017,0.0,0.0
9.225,5781.779,0.00017,0.0,0.0
9.231,5764.177,0.00017,0.0,0.0
9.237,5752.947,0.00017,0.0,0.0
9.244,5764.429,0.00017,0.0,0.0
9.25,5747.195,0.00017,0.0,0.0
9.256,5741.422,0.00017,0.0,0.0
9.262,5742.543,0.00017,0.0,0.0
9.269,5714.434,0.00017,0.0,0.0
9.275,5736.326,0.00017,0.0,0.0
9.281,5730.708,0.00017,0.0,0.0
9.288,5718.915,0.00017,0.0,0.0
9.294,5693.682,0.00018,0.0,0.0
9.3,5683.349,0.00018,0.0,0.0
9.307,5680.948,0.00018,0.0,0.0
9.313,5667.696,0.00018,0.0,0.0
9.319,5632.124,0.00018,0.0,0.0
9.326,5630.949,0.00018,0.0,0.0
9.332,5618.625,0.00018,0.0,0.0
9.338,5633.49,0.00018,0.0,0.0
9.345,5596.707,0.00018,0.0,0.0
9.351,5578.292,0.00018,0.0,0.0
9.357,5552.476,0.00018,0.0,0.0
9.364,5529.425,0.00018,0.0,0.0
9.37,5538.987,0.00018,0.0,0.0
9.376,5501.766,0.00018,0.0,0.0
9.383,5484.188,0.00018,0.0,0.0
9.389,5479.629,0.00018,0.0,0.0
9.395,5452.837,0.00018,0.0,0.0
9.402,5438.588,0.00018,0.0,0.0
9.408,5413.744,0.00018,0.0,0.0
9.414,5404.419,0.00019,0.0,0.0
9.42,5384.139,0.00019,0.0,0.0
9.427,5378.605,0.00019,0.0,0.0
9.433,5355.256,0.00019,0.0,0.0
9.439,5335.059,0.00019,0.0,0.0
9.446,5334.911,0.00019,0.0,0.0
9.452,5308.359,0.00019,0.0,0.0
9.458,5287.816,0.00019,0.0,0.0
9.465,5312.129,0.00019,0.0,0.0
9.471,5280.735,0.00019,0.0,0.0
9.477,5263.411,0.00019,0.0,0.0
9.484,5255.968,0.00019,0.0,0.0
9.49,5245.298,0.00019,0.0,0.0
9.496,5233.256,0.00019,0.0,0.0
9.503,5209.298,0.00019,0.0,0.0
9.509,5196.314,0.00019,0.0,0.0
9.515,5204.415,0.00019,0.0,0.0
9.522,5168.857,0.00019,0.0,0.0
9.528,5151.131,0.00019,0.0,0.0
9.534,5156.713,0.00019,0.0,0.0
9.541,5137.557,0.00019,0.0,0.0
9.547,5129.275,0.00019,0.0,0.0
9.553,5121.131,0.0002,0.0,0.0
9.56,5114.825,0.0002,0.0,0.0
9.566,5112.795,0.0002,0.0,0.0
9.572,5097.235,0.0002,0.0,0.0
9.578,5094.65,0.0002,0.0,0.0
9.585,5069.521,0.0002,0.0,0.0
9.591,5064.902,0.0002,0.0,0.0
9.597,5084.094,0.0002,0.0,0.0
9.604,5051.151,0.0002,0.0,0.0
9.61,5051.061,0.0002,0.0,0.0
9.616,5045.568,0.0002,0.0,0.0
9.623,5035.481,0.0002,0.0,0.0
9.629,5054.105,0.0002,0.0,0.0
9.635,5044.586,0.0002,0.0,0.0
9.642,5026.056,0.0002,0.0,0.0
9.648,5032.34,0.0002,0.0,0.0
9.654,5022.976,0.0002,0.0,0.0
9.661,5017.712,0.0002,0.0,0.0
9.667,5010.216,0.0002,0.0,0.0
9.673,5012.962,0.0002,0.0,0.0
9.68,4998.192,0.0002,0.0,0.0
9.686,5003.761,0.0002,0.0,0.0
9.692,5001.783,0.0002,0.0,0.0
9.699,4999.509,0.0002,0.0,0.0
9.705,4990.844,0.0002,0.0,0.0
9.711,4992.427,0.0002,0.0,0.0
9.718,4985.812,0.0002,0.0,0.0
9.724,4973.48,0.0002,0.0,0.0
9.73,4978.669,0.0002,0.0,0.0
9.736,4962.483,0.0002,0.0,0.0
9.743,4994.816,0.0002,0.0,0.0
9.749,4964.338,0.0002,0.0,0.0
9.755,4972.343,0.0002,0.0,0.0
9.762,4982.329,0.0002,0.0,0.0
9.768,4955.504,0.0002,0.0,0.0
9.774,4973.296,0.0002,0.0,0.0
9.781,4966.912,0.0002,0.0,0.0
9.787,4960.283,0.0002,0.0,0.0
9.793,4970.091,0.0002,0.0,0.0
9.8,4967.058,0.0002,0.0,0.0
9.806,4982.496,0.0002,0.0,0.0
9.812,4972.351,0.0002,0.0,0.0
9.819,4956.064,0.0002,0.0,0.0
9.825,4988.03,0.0002,0.0,0.0
9.831,4973.841,0.0002,0.0,0.0
9.838,4966.556,0.0002,0.0,0.0
9.844,4988.707,0.0002,0.0,0.0
9.85,4971.374,0.0002,0.0,0.0
9.857,4972.627,0.0002,0.0,0.0
9.863,4978.663,0.0002,0.0,0.0
9.869,4989.337,0.0002,0.0,0.0
9.876,4972.563,0.0002,0.0,0.0
9.882,5004.431,0.0002,0.0,0.0
9.888,5000.272,0.0002,0.0,0.0
9.894,5000.907,0.0002,0.0,0.0
9.901,4975.471,0.0002,0.0,0.0
9.907,5000.808,0.0002,0.0,0.0
9.913,5001.921,0.0002,0.0,0.0
9.92,4987.536,0.0002,0.0,0.0
9.926,5014.467,0.0002,0.0,0.0
9.932,4982.817,0.0002,0.0,0.0
9.939,5004.59,0.0002,0.0,0.0
9.945,4985.486,0.0002,0.0,0.0
9.951,4985.22,0.0002,0.0,0.0
9.958,5001.761,0.0002,0.0,0.0
9.964,4985.66,0.0002,0.0,0.0
9.97,4985.899,0.0002,0.0,0.0
9.977,5005.642,0.0002,0.0,0.0
9.983,4990.147,0.0002,0.0,0.0
9.989,4999.066,0.0002,0.0,0.0
9.996,4994.803,0.0002,0.0,0.0
10.002,4992.73,0.0002,0.0,0.0
10.008,5025.79,0.0002,0.0,0.0
10.015,4999.101,0.0002,0.0,0.0
10.021,5018.118,0.0002,0.0,0.0
10.027,5030.475,0.0002,0.0,0.0
10.034,4998.537,0.0002,0.0,0.0
10.04,5017.818,0.0002,0.0,0.0
10.046,5004.166,0.0002,0.0,0.0
10.052,5039.397,0.0002,0.0,0.0
10.059,5031.525,0.0002,0.0,0.0
10.065,5045.526,0.0002,0.0,0.0
10.071,5057.365,0.0002,0.0,0.0
10.078,5042.072,0.0002,0.0,0.0
10.084,5035.292,0.0002,0.0,0.0
10.09,5049.372,0.0002,0.0,0.0
10.097,5042.661,0.0002,0.0,0.0
10.103,5064.846,0.0002,0.0,0.0
10.109,5102.548,0.0002,0.0,0.0
10.116,5067.058,0.0002,0.0,0.0
10.122,5063.364,0.0002,0.0,0.0
10.128,5064.555,0.0002,0.0,0.0
10.135,5058.856,0.0002,0.0,0.0
10.141,5074.946,0.0002,0.0,0.0
10.147,5089.539,0.0002,0.0,0.0
10.154,5112.349,0.0002,0.0,0.0
10.16,5117.883,0.0002,0.0,0.0
10.166,5142.111,0.00019,0.0,0.0
10.173,5217.695,0.00019,0.0,0.0
10.179,5370.293,0.00019,0.0,0.0
10.185,5505.054,0.00018,0.0,0.0
10.192,6185.836,0.00016,0.0,0.0
10.198,6174.277,0.00016,0.0,0.0
10.204,7050.134,0.00014,0.0,0.0
10.21,8151.792,0.00012,0.0,0.0
10.217,7071.594,0.00014,0.0,0.0
10.223,6575.913,0.00015,0.0,0.0
10.229,6077.808,0.00016,0.0,0.0
10.236,5662.925,0.00018,0.0,0.0
10.242,5472.892,0.00018,0.0,0.0
10.248,5191.372,0.00019,0.0,0.0
10.255,5097.595,0.0002,0.0,0.0
10.261,5089.875,0.0002,0.0,0.0
10.267,5036.366,0.0002,0.0,0.0
10.274,5005.369,0.0002,0.0,0.0
10.28,4961.953,0.0002,0.0,0.0
10.286,4993.883,0.0002,0.0,0.0
10.293,4947.335,0.0002,0.0,0.0
10.299,4976.062,0.0002,0.0,0.0
10.305,4942.196,0.0002,0.0,0.0
10.312,4926.536,0.0002,0.0,0.0
10.318,4912.423,0.0002,0.0,0.0
10.324,4888.147,0.0002,0.0,0.0
10.331,4915.841,0.0002,0.0,0.0
10.337,4902.482,0.0002,0.0,0.0
10.343,4875.271,0.00021,0.0,0.0
10.35,4867.766,0.00021,0.0,0.0
10.356,4887.535,0.0002,0.0,0.0
10.362,4857.515,0.00021,0.0,0.0
10.368,4860.846,0.00021,0.0,0.0
10.375,4847.296,0.00021,0.0,0.0
10.381,4859.964,0.00021,0.0,0.0
10.387,4835.418,0.00021,0.0,0.0
10.394,4833.866,0.00021,0.0,0.0
10.4,4832.674,0.00021,0.0,0.0
10.406,4813.382,0.00021,0.0,0.0
10.413,4816.509,0.00021,0.0,0.0
10.419,4806.701,0.00021,0.0,0.0
10.425,4823.928,0.00021,0.0,0.0
10.432,4809.561,0.00021,0.0,0.0
10.438,4813.166,0.00021,0.0,0.0
10.444,4794.514,0.00021,0.0,0.0
10.451,4805.475,0.00021,0.0,0.0
10.457,4791.459,0.00021,0.0,0.0
10.463,4790.022,0.00021,0.0,0.0
10.47,4788.733,0.00021,0.0,0.0
10.476,4790.0,0.00021,0.0,0.0
10.482,4800.176,0.00021,0.0,0.0
10.489,4773.31,0.00021,0.0,0.0
10.495,4798.72,0.00021,0.0,0.0
10.501,4770.0,0.00021,0.0,0.0
10.508,4761.376,0.00021,0.0,0.0
10.514,4775.66,0.00021,0.0,0.0
10.52,4788.276,0.00021,0.0,0.0
10.526,4782.307,0.00021,0.0,0.0
10.533,4783.186,0.00021,0.0,0.0
10.539,4767.104,0.00021,0.0,0.0
10.545,4756.758,0.00021,0.0,0.0
10.552,4789.149,0.00021,0.0,0.0
10.558,4744.327,0.00021,0.0,0.0
10.564,4789.771,0.00021,0.0,0.0
10.571,4771.143,0.00021,0.0,0.0
10.577,4783.956,0.00021,0.0,0.0
10.583,4769.129,0.00021,0.0,0.0
10.59,4766.612,0.00021,0.0,0.0
10.596,4775.699,0.00021,0.0,0.0
10.602,4763.902,0.00021,0.0,0.0
10.609,4771.188,0.00021,0.0,0.0
10.615,4758.813,0.00021,0.0,0.0
10.621,4775.218,0.00021,0.0,0.0
10.628,4763.337,0.00021,0.0,0.0
10.634,4772.97,0.00021,0.0,0.0
10.64,4784.659,0.00021,0.0,0.0
10.647,4779.117,0.00021,0.0,0.0
10.653,4790.565,0.00021,0.0,0.0
10.659,4798.753,0.00021,0.0,0.0
10.666,4796.21,0.00021,0.0,0.0
10.672,4789.605,0.00021,0.0,0.0
10.678,4817.218,0.00021,0.0,0.0
10.684,4800.85,0.00021,0.0,0.0
10.691,4839.41,0.00021,0.0,0.0
10.697,4820.175,0.00021,0.0,0.0
10.703,4839.082,0.00021,0.0,0.0
10.71,4873.144,0.00021,0.0,0.0
10.716,4884.961,0.0002,0.0,0.0
10.722,4919.623,0.0002,0.0,0.0
10.729,4948.229,0.0002,0.0,0.0
10.735,4985.498,0.0002,0.0,0.0
10.741,5069.7,0.0002,0.0,0.0
10.748,5129.129,0.00019,0.0,0.0
10.754,5296.225,0.00019,0.0,0.0
10.76,5459.911,0.00018,0.0,0.0
10.767,5795.792,0.00017,0.0,0.0
10.773,6544.899,0.00015,0.0,0.0
10.779,7390.793,0.00014,0.0,0.0
10.786,9319.568,0.00011,0.0,0.0
10.792,13508.743,0.00007,0.0,0.0
10.798,17346.583,0.00006,0.0,0.0
10.805,26197.673,0.00004,0.0,0.0
10.811,29291.745,0.00003,0.0,0.0
10.817,33959.071,0.00003,0.0,0.0
10.824,33015.462,0.00003,0.0,0.0
10.83,25573.963,0.00004,0.0,0.0
10.836,19757.047,0.00005,0.0,0.0
10.842,13977.987,0.00007,0.0,0.0
10.849,9805.904,0.0001,0.0,0.0
10.855,7904.044,0.00013,0.0,0.0
10.861,6577.659,0.00015,0.0,0.0
10.868,5994.92,0.00017,0.0,0.0
10.874,5615.057,0.00018,0.0,0.0
10.88,5340.204,0.00019,0.0,0.0
10.887,5230.557,0.00019,0.0,0.0
10.893,5121.177,0.0002,0.0,0.0
10.899,5072.555,0.0002,0.0,0.0
10.906,5035.329,0.0002,0.0,0.0
10.912,4994.17,0.0002,0.0,0.0
10.918,4977.043,0.0002,0.0,0.0
10.925,4940.956,0.0002,0.0,0.0
10.931,4931.971,0.0002,0.0,0.0
10.937,4918.567,0.0002,0.0,0.0
10.944,4908.314,0.0002,0.0,0.0
10.95,4886.925,0.0002,0.0,0.0
10.956,4872.426,0.00021,0.0,0.0
10.963,4861.525,0.00021,0.0,0.0
10.969,4856.039,0.00021,0.0,0.0
10.975,4855.962,0.00021,0.0,0.0
10.982,4833.055,0.00021,0.0,0.0
10.988,4840.441,0.00021,0.0,0.0
10.994,4803.911,0.00021,0.0,0.0
11.0,4811.84,0.00021,0.0,0.0
11.007,4811.769,0.00021,0.0,0.0
11.013,4789.593,0.00021,0.0,0.0
11.019,4775.467,0.00021,0.0,0.0
11.026,4795.878,0.00021,0.0,0.0
11.032,4765.208,0.00021,0.0,0.0
11.038,4756.723,0.00021,0.0,0.0
11.045,4747.61,0.00021,0.0,0.0
11.051,4758.54,0.00021,0.0,0.0
11.057,4738.672,0.00021,0.0,0.0
11.064,4733.064,0.00021,0.0,0.0
11.07,4742.496,0.00021,0.0,0.0
11.076,4711.3,0.00021,0.0,0.0
11.083,4718.748,0.00021,0.0,0.0
11.089,4715.08,0.00021,0.0,0.0
11.095,4703.545,0.00021,0.0,0.0
11.102,4694.458,0.00021,0.0,0.0
11.108,4689.742,0.00021,0.0,0.0
11.114,4700.827,0.00021,0.0,0.0
11.121,4676.113,0.00021,0.0,0.0
11.127,4675.021,0.00021,0.0,0.0
11.133,4669.521,0.00021,0.0,0.0
11.14,4658.023,0.00021,0.0,0.0
11.146,4670.777,0.00021,0.0,0.0
11.152,4653.902,0.00021,0.0,0.0
11.158,4647.281,0.00022,0.0,0.0
11.165,4638.704,0.00022,0.0,0.0
11.171,4634.763,0.00022,0.0,0.0
11.177,4638.088,0.00022,0.0,0.0
11.184,4648.147,0.00022,0.0,0.0
11.19,4634.524,0.00022,0.0,0.0
11.196,4642.498,0.00022,0.0,0.0
11.203,4639.402,0.00022,0.0,0.0
11.209,4630.872,0.00022,0.0,0.0
11.215,4628.846,0.00022,0.0,0.0
11.222,4612.271,0.00022,0.0,0.0
11.228,4610.681,0.00022,0.0,0.0
11.234,4621.446,0.00022,0.0,0.0
11.241,4605.861,0.00022,0.0,0.0
11.247,4605.436,0.00022,0.0,0.0
11.253,4609.326,0.00022,0.0,0.0
11.26,4589.751,0.00022,0.0,0.0
11.266,4594.639,0.00022,0.0,0.0
11.272,4596.539,0.00022,0.0,0.0
11.279,4580.827,0.00022,0.0,0.0
11.285,4583.226,0.00022,0.0,0.0
11.291,4589.615,0.00022,0.0,0.0
11.298,4595.752,0.00022,0.0,0.0
11.304,4575.717,0.00022,0.0,0.0
11.31,4580.261,0.00022,0.0,0.0
11.316,4575.455,0.00022,0.0,0.0
11.323,4571.642,0.00022,0.0,0.0
11.329,4580.949,0.00022,0.0,0.0
11.335,4569.59,0.00022,0.0,0.0
11.342,4567.859,0.00022,0.0,0.0
11.348,4568.372,0.00022,0.0,0.0
11.354,4572.133,0.00022,0.0,0.0
11.361,4576.845,0.00022,0.0,0.0
11.367,4580.355,0.00022,0.0,0.0
11.373,4565.875,0.00022,0.0,0.0
11.38,4572.657,0.00022,0.0,0.0
11.386,4558.598,0.00022,0.0,0.0
11.392,4560.044,0.00022,0.0,0.0
11.399,4569.417,0.00022,0.0,0.0
11.405,4558.849,0.00022,0.0,0.0
11.411,4558.345,0.00022,0.0,0.0
11.418,4561.711,0.00022,0.0,0.0
11.424,4567.97,0.00022,0.0,0.0
11.43,4568.456,0.00022,0.0,0.0
11.437,4566.865,0.00022,0.0,0.0
11.443,4566.225,0.00022,0.0,0.0
11.449,4575.96,0.00022,0.0,0.0
11.456,4563.221,0.00022,0.0,0.0
11.462,4560.73,0.00022,0.0,0.0
11.468,4569.739,0.00022,0.0,0.0
11.474,4581.842,0.00022,0.0,0.0
11.481,4585.921,0.00022,0.0,0.0
11.487,4592.695,0.00022,0.0,0.0
11.493,4587.663,0.00022,0.0,0.0
11.5,4590.93,0.00022,0.0,0.0
11.506,4584.503,0.00022,0.0,0.0
11.512,4603.462,0.00022,0.0,0.0
11.519,4608.131,0.00022,0.0,0.0
11.525,4609.121,0.00022,0.0,0.0
11.531,4616.073,0.00022,0.0,0.0
11.538,4603.748,0.00022,0.0,0.0
11.544,4596.074,0.00022,0.0,0.0
11.55,4597.45,0.00022,0.0,0.0
11.557,4612.641,0.00022,0.0,0.0
11.563,4607.672,0.00022,0.0,0.0
11.569,4614.129,0.00022,0.0,0.0
11.576,4609.62,0.00022,0.0,0.0
11.582,4611.898,0.00022,0.0,0.0
11.588,4616.252,0.00022,0.0,0.0
11.595,4621.536,0.00022,0.0,0.0
11.601,4627.522,0.00022,0.0,0.0
11.607,4633.403,0.00022,0.0,0.0
11.614,4658.11,0.00021,0.0,0.0
11.62,4643.052,0.00022,0.0,0.0
11.626,4667.809,0.00021,0.0,0.0
11.632,4650.328,0.00022,0.0,0.0
11.639,4666.064,0.00021,0.0,0.0
11.645,4671.62,0.00021,0.0,0.0
11.651,4667.543,0.00021,0.0,0.0
11.658,4686.339,0.00021,0.0,0.0
11.664,4686.973,0.00021,0.0,0.0
11.67,4681.457,0.00021,0.0,0.0
11.677,4694.99,0.00021,0.0,0.0
11.683,4691.036,0.00021,0.0,0.0
11.689,4702.319,0.00021,0.0,0.0
11.696,4700.569,0.00021,0.0,0.0
11.702,4689.89,0.00021,0.0,0.0
11.708,4708.588,0.00021,0.0,0.0
11.715,4696.143,0.00021,0.0,0.0
11.721,4702.83,0.00021,0.0,0.0
11.727,4711.942,0.00021,0.0,0.0
11.734,4712.193,0.00021,0.0,0.0
11.74,4711.54,0.00021,0.0,0.0
11.746,4696.926,0.00021,0.0,0.0
11.753,4688.334,0.00021,0.0,0.0
11.759,4709.544,0.00021,0.0,0.0
11.765,4682.044,0.00021,0.0,0.0
11.772,4724.898,0.00021,0.0,0.0
11.778,4693.537,0.00021,0.0,0.0
11.784,4708.125,0.00021,0.0,0.0
11.79,4711.756,0.00021,0.0,0.0
11.797,4698.102,0.00021,0.0,0.0
11.803,4701.428,0.00021,0.0,0.0
11.809,4692.881,0.00021,0.0,0.0
11.816,4695.395,0.00021,0.0,0.0
11.822,4718.971,0.00021,0.0,0.0
11.828,4688.763,0.00021,0.0,0.0
11.835,4694.046,0.00021,0.0,0.0
11.841,4698.019,0.00021,0.0,0.0
11.847,4685.191,0.00021,0.0,0.0
11.854,4696.155,0.00021,0.0,0.0
11.86,4679.426,0.00021,0.0,0.0
11.866,4678.086,0.00021,0.0,0.0
11.873,4679.889,0.00021,0.0,0.0
11.879,4660.267,0.00021,0.0,0.0
11.885,4678.918,0.00021,0.0,0.0
11.892,4669.814,0.00021,0.0,0.0
11.898,4666.215,0.00021,0.0,0.0
11.904,4681.215,0.00021,0.0,0.0
11.911,4674.282,0.00021,0.0,0.0
11.917,4664.928,0.00021,0.0,0.0
11.923,4660.371,0.00021,0.0,0.0
11.93,4662.621,0.00021,0.0,0.0
11.936,4682.168,0.00021,0.0,0.0
11.942,4677.23,0.00021,0.0,0.0
11.948,4669.206,0.00021,0.0,0.0
11.955,4666.262,0.00021,0.0,0.0
11.961,4675.858,0.00021,0.0,0.0
11.967,4685.202,0.00021,0.0,0.0
11.974,4689.001,0.00021,0.0,0.0
11.98,4682.405,0.00021,0.0,0.0
11.986,4678.482,0.00021,0.0,0.0
11.993,4695.721,0.00021,0.0,0.0
11.999,4694.967,0.00021,0.0,0.0
12.005,4705.724,0.00021,0.0,0.0
12.012,4721.946,0.00021,0.0,0.0
12.018,4724.821,0.00021,0.0,0.0
12.024,4727.33,0.00021,0.0,0.0
12.031,4757.975,0.00021,0.0,0.0
12.037,4755.504,0.00021,0.0,0.0
12.043,4799.487,0.00021,0.0,0.0
12.05,4808.361,0.00021,0.0,0.0
12.056,4940.38,0.0002,0.0,0.0
12.062,5017.929,0.0002,0.0,0.0
12.069,5162.983,0.00019,0.0,0.0
12.075,5649.655,0.00018,0.0,0.0
12.081,5532.221,0.00018,0.0,0.0
12.088,6190.119,0.00016,0.0,0.0
12.094,6106.744,0.00016,0.0,0.0
12.1,5875.757,0.00017,0.0,0.0
12.106,5523.591,0.00018,0.0,0.0
12.113,5396.456,0.00019,0.0,0.0
12.119,4954.788,0.0002,0.0,0.0
12.125,4851.593,0.00021,0.0,0.0
12.132,4729.133,0.00021,0.0,0.0
12.138,4694.142,0.00021,0.0,0.0
12.144,4671.609,0.00021,0.0,0.0
12.151,4639.495,0.00022,0.0,0.0
12.157,4622.564,0.00022,0.0,0.0
12.163,4595.078,0.00022,0.0,0.0
12.17,4596.269,0.00022,0.0,0.0
12.176,4568.729,0.00022,0.0,0.0
12.182,4565.752,0.00022,0.0,0.0
12.189,4544.485,0.00022,0.0,0.0
12.195,4538.91,0.00022,0.0,0.0
12.201,4534.116,0.00022,0.0,0.0
12.208,4518.945,0.00022,0.0,0.0
12.214,4490.512,0.00022,0.0,0.0
12.22,4491.629,0.00022,0.0,0.0
12.227,4491.557,0.00022,0.0,0.0
12.233,4470.808,0.00022,0.0,0.0
12.239,4459.926,0.00022,0.0,0.0
12.246,4460.465,0.00022,0.0,0.0
12.252,4465.515,0.00022,0.0,0.0
12.258,4442.085,0.00023,0.0,0.0
12.264,4440.683,0.00023,0.0,0.0
12.271,4434.956,0.00023,0.0,0.0
12.277,4422.174,0.00023,0.0,0.0
12.283,4422.04,0.00023,0.0,0.0
12.29,4417.639,0.00023,0.0,0.0
12.296,4416.911,0.00023,0.0,0.0
12.302,4398.234,0.00023,0.0,0.0
12.309,4397.031,0.00023,0.0,0.0
12.315,4394.347,0.00023,0.0,0.0
12.321,4390.046,0.00023,0.0,0.0
12.328,4380.286,0.00023,0.0,0.0
12.334,4382.937,0.00023,0.0,0.0
12.34,4363.007,0.00023,0.0,0.0
12.347,4362.964,0.00023,0.0,0.0
12.353,4360.571,0.00023,0.0,0.0
12.359,4355.677,0.00023,0.0,0.0
12.366,4364.516,0.00023,0.0,0.0
12.372,4344.354,0.00023,0.0,0.0
12.378,4348.34,0.00023,0.0,0.0
12.385,4336.663,0.00023,0.0,0.0
12.391,4322.688,0.00023,0.0,0.0
12.397,4325.301,0.00023,0.0,0.0
12.404,4326.901,0.00023,0.0,0.0
12.41,4315.075,0.00023,0.0,0.0
12.416,4314.165,0.00023,0.0,0.0
12.422,4309.853,0.00023,0.0,0.0
12.429,4306.456,0.00023,0.0,0.0
12.435,4301.467,0.00023,0.0,0.0
12.441,4312.111,0.00023,0.0,0.0
12.448,4304.781,0.00023,0.0,0.0
12.454,4295.673,0.00023,0.0,0.0
12.46,4311.464,0.00023,0.0,0.0
12.467,4307.432,0.00023,0.0,0.0
12.473,4291.363,0.00023,0.0,0.0
12.479,4314.024,0.00023,0.0,0.0
12.486,4305.992,0.00023,0.0,0.0
12.492,4313.192,0.00023,0.0,0.0
12.498,4304.43,0.00023,0.0,0.0
12.505,4312.102,0.00023,0.0,0.0
12.511,4312.526,0.00023,0.0,0.0
12.517,4322.566,0.00023,0.0,0.0
12.524,4308.957,0.00023,0.0,0.0
12.53,4336.138,0.00023,0.0,0.0
12.536,4329.588,0.00023,0.0,0.0
12.543,4319.894,0.00023,0.0,0.0
12.549,4327.262,0.00023,0.0,0.0
12.555,4323.276,0.00023,0.0,0.0
12.562,4343.054,0.00023,0.0,0.0
12.568,4333.71,0.00023,0.0,0.0
12.574,4342.968,0.00023,0.0,0.0
12.58,4361.352,0.00023,0.0,0.0
12.587,4369.603,0.00023,0.0,0.0
12.593,4412.407,0.00023,0.0,0.0
12.599,4429.522,0.00023,0.0,0.0
12.606,4465.808,0.00022,0.0,0.0
12.612,4533.066,0.00022,0.0,0.0
12.618,4622.444,0.00022,0.0,0.0
12.625,4726.237,0.00021,0.0,0.0
12.631,4912.162,0.0002,0.0,0.0
12.637,5190.243,0.00019,0.0,0.0
12.644,5734.305,0.00017,0.0,0.0
12.65,6650.8,0.00015,0.0,0.0
12.656,8177.794,0.00012,0.0,0.0
12.663,11369.777,0.00009,0.0,0.0
12.669,15941.02,0.00006,0.0,0.0
12.675,22993.793,0.00004,0.0,0.0
12.682,29562.798,0.00003,0.0,0.0
12.688,35240.199,0.00003,0.0,0.0
12.694,36198.416,0.00003,0.0,0.0
12.701,32073.203,0.00003,0.0,0.0
12.707,27770.377,0.00004,0.0,0.0
12.713,17205.099,0.00006,0.0,0.0
12.72,12835.638,0.00008,0.0,0.0
12.726,9211.598,0.00011,0.0,0.0
12.732,7103.55,0.00014,0.0,0.0
12.738,5986.42,0.00017,0.0,0.0
12.745,5305.902,0.00019,0.0,0.0
12.751,4928.731,0.0002,0.0,0.0
12.757,4723.257,0.00021,0.0,0.0
12.764,4545.524,0.00022,0.0,0.0
12.77,4462.311,0.00022,0.0,0.0
12.776,4384.911,0.00023,0.0,0.0
12.783,4337.242,0.00023,0.0,0.0
12.789,4307.451,0.00023,0.0,0.0
12.795,4286.405,0.00023,0.0,0.0
12.802,4258.715,0.00023,0.0,0.0
12.808,4233.424,0.00024,0.0,0.0
12.814,4218.593,0.00024,0.0,0.0
12.821,4212.922,0.00024,0.0,0.0
12.827,4194.021,0.00024,0.0,0.0
12.833,4189.776,0.00024,0.0,0.0
12.84,4183.793,0.00024,0.0,0.0
12.846,4172.503,0.00024,0.0,0.0
12.852,4183.426,0.00024,0.0,0.0
12.859,4154.332,0.00024,0.0,0.0
12.865,4154.921,0.00024,0.0,0.0
12.871,4155.785,0.00024,0.0,0.0
12.878,4158.024,0.00024,0.0,0.0
12.884,4184.656,0.00024,0.0,0.0
12.89,4152.498,0.00024,0.0,0.0
12.896,4158.128,0.00024,0.0,0.0
12.903,4241.231,0.00024,0.0,0.0
12.909,4173.626,0.00024,0.0,0.0
12.915,4173.319,0.00024,0.0,0.0
12.922,4156.384,0.00024,0.0,0.0
12.928,4191.355,0.00024,0.0,0.0
12.934,4163.901,0.00024,0.0,0.0
12.941,4137.193,0.00024,0.0,0.0
12.947,4138.254,0.00024,0.0,0.0
12.953,4116.687,0.00024,0.0,0.0
12.96,4100.225,0.00024,0.0,0.0
12.966,4106.103,0.00024,0.0,0.0
12.972,4089.532,0.00024,0.0,0.0
12.979,4085.73,0.00024,0.0,0.0
12.985,4078.456,0.00025,0.0,0.0
12.991,4079.124,0.00025,0.0,0.0
12.998,4070.193,0.00025,0.0,0.0
13.004,4056.895,0.00025,0.0,0.0
13.01,4069.376,0.00025,0.0,0.0
13.017,4054.731,0.00025,0.0,0.0
13.023,4075.114,0.00025,0.0,0.0
13.029,4054.088,0.00025,0.0,0.0
13.036,4057.454,0.00025,0.0,0.0
13.042,4051.251,0.00025,0.0,0.0
13.048,4051.3,0.00025,0.0,0.0
13.054,4042.272,0.00025,0.0,0.0
13.061,4041.381,0.00025,0.0,0.0
13.067,4038.534,0.00025,0.0,0.0
13.073,4042.081,0.00025,0.0,0.0
13.08,4040.41,0.00025,0.0,0.0
13.086,4035.062,0.00025,0.0,0.0
13.092,4050.621,0.00025,0.0,0.0
13.099,4039.687,0.00025,0.0,0.0
13.105,4039.355,0.00025,0.0,0.0
13.111,4039.124,0.00025,0.0,0.0
13.118,4024.412,0.00025,0.0,0.0
13.124,4029.645,0.00025,0.0,0.0
13.13,4034.913,0.00025,0.0,0.0
13.137,4036.894,0.00025,0.0,0.0
13.143,4034.162,0.00025,0.0,0.0
13.149,4031.992,0.00025,0.0,0.0
13.156,4029.058,0.00025,0.0,0.0
13.162,4047.837,0.00025,0.0,0.0
13.168,4037.9,0.00025,0.0,0.0
13.175,4054.118,0.00025,0.0,0.0
13.181,4063.016,0.00025,0.0,0.0
13.187,4081.028,0.00025,0.0,0.0
13.194,4112.686,0.00024,0.0,0.0
13.2,4151.709,0.00024,0.0,0.0
13.206,4225.396,0.00024,0.0,0.0
13.212,4352.557,0.00023,0.0,0.0
13.219,4620.437,0.00022,0.0,0.0
13.225,5042.524,0.0002,0.0,0.0
13.231,5840.485,0.00017,0.0,0.0
13.238,7077.238,0.00014,0.0,0.0
13.244,8952.787,0.00011,0.0,0.0
13.25,10630.563,0.00009,0.0,0.0
13.257,12292.167,0.00008,0.0,0.0
13.263,12491.606,0.00008,0.0,0.0
13.269,11222.345,0.00009,0.0,0.0
13.276,9515.219,0.00011,0.0,0.0
13.282,7338.425,0.00014,0.0,0.0
13.288,5990.835,0.00017,0.0,0.0
13.295,5098.658,0.0002,0.0,0.0
13.301,4558.087,0.00022,0.0,0.0
13.307,4318.748,0.00023,0.0,0.0
13.314,4175.028,0.00024,0.0,0.0
13.32,4089.321,0.00024,0.0,0.0
13.326,4020.277,0.00025,0.0,0.0
13.333,3970.4,0.00025,0.0,0.0
13.339,3972.886,0.00025,0.0,0.0
13.345,3948.065,0.00025,0.0,0.0
13.352,3937.493,0.00025,0.0,0.0
13.358,3922.253,0.00025,0.0,0.0
13.364,3913.276,0.00026,0.0,0.0
13.37,3891.136,0.00026,0.0,0.0
13.377,3905.698,0.00026,0.0,0.0
13.383,3883.472,0.00026,0.0,0.0
13.389,3883.069,0.00026,0.0,0.0
13.396,3887.968,0.00026,0.0,0.0
13.402,3882.078,0.00026,0.0,0.0
13.408,3875.371,0.00026,0.0,0.0
13.415,3885.303,0.00026,0.0,0.0
13.421,3864.18,0.00026,0.0,0.0
13.427,3846.525,0.00026,0.0,0.0
13.434,3857.188,0.00026,0.0,0.0
13.44,3852.19,0.00026,0.0,0.0
13.446,3834.513,0.00026,0.0,0.0
13.453,3858.16,0.00026,0.0,0.0
13.459,3830.496,0.00026,0.0,0.0
13.465,3840.032,0.00026,0.0,0.0
13.472,3848.329,0.00026,0.0,0.0
13.478,3818.805,0.00026,0.0,0.0
13.484,3833.675,0.00026,0.0,0.0
13.491,3812.525,0.00026,0.0,0.0
13.497,3816.465,0.00026,0.0,0.0
13.503,3817.728,0.00026,0.0,0.0
13.51,3814.286,0.00026,0.0,0.0
13.516,3821.735,0.00026,0.0,0.0
13.522,3813.08,0.00026,0.0,0.0
13.528,3812.319,0.00026,0.0,0.0
13.535,3809.171,0.00026,0.0,0.0
13.541,3812.126,0.00026,0.0,0.0
13.547,3804.618,0.00026,0.0,0.0
13.554,3800.807,0.00026,0.0,0.0
13.56,3790.545,0.00026,0.0,0.0
13.566,3808.339,0.00026,0.0,0.0
13.573,3807.448,0.00026,0.0,0.0
13.579,3799.963,0.00026,0.0,0.0
13.585,3808.783,0.00026,0.0,0.0
13.592,3796.121,0.00026,0.0,0.0
13.598,3803.99,0.00026,0.0,0.0
13.604,3797.011,0.00026,0.0,0.0
13.611,3804.444,0.00026,0.0,0.0
13.617,3810.827,0.00026,0.0,0.0
13.623,3813.651,0.00026,0.0,0.0
13.63,3813.687,0.00026,0.0,0.0
13.636,3806.873,0.00026,0.0,0.0
13.642,3814.368,0.00026,0.0,0.0
13.649,3822.068,0.00026,0.0,0.0
13.655,3822.73,0.00026,0.0,0.0
13.661,3834.235,0.00026,0.0,0.0
13.668,3849.227,0.00026,0.0,0.0
13.674,3911.64,0.00026,0.0,0.0
13.68,3986.562,0.00025,0.0,0.0
13.686,4243.648,0.00024,0.0,0.0
13.693,4034.564,0.00025,0.0,0.0
13.699,4470.738,0.00022,0.0,0.0
13.705,4487.81,0.00022,0.0,0.0
13.712,4796.516,0.00021,0.0,0.0
13.718,4222.265,0.00024,0.0,0.0
13.724,4168.21,0.00024,0.0,0.0
13.731,4012.554,0.00025,0.0,0.0
13.737,3962.22,0.00025,0.0,0.0
13.743,3888.399,0.00026,0.0,0.0
13.75,3825.228,0.00026,0.0,0.0
13.756,3827.534,0.00026,0.0,0.0
13.762,3803.497,0.00026,0.0,0.0
13.769,3779.477,0.00026,0.0,0.0
13.775,3772.072,0.00027,0.0,0.0
13.781,3756.416,0.00027,0.0,0.0
13.788,3761.084,0.00027,0.0,0.0
13.794,3747.1,0.00027,0.0,0.0
13.8,3743.811,0.00027,0.0,0.0
13.807,3736.836,0.00027,0.0,0.0
13.813,3726.778,0.00027,0.0,0.0
13.819,3725.832,0.00027,0.0,0.0
13.826,3715.191,0.00027,0.0,0.0
13.832,3717.961,0.00027,0.0,0.0
13.838,3718.815,0.00027,0.0,0.0
13.844,3701.745,0.00027,0.0,0.0
13.851,3712.319,0.00027,0.0,0.0
13.857,3706.517,0.00027,0.0,0.0
13.863,3696.531,0.00027,0.0,0.0
13.87,3681.602,0.00027,0.0,0.0
13.876,3683.455,0.00027,0.0,0.0
13.882,3685.394,0.00027,0.0,0.0
13.889,3680.55,0.00027,0.0,0.0
13.895,3677.724,0.00027,0.0,0.0
13.901,3672.815,0.00027,0.0,0.0
13.908,3664.547,0.00027,0.0,0.0
13.914,3666.701,0.00027,0.0,0.0
13.92,3666.311,0.00027,0.0,0.0
13.927,3661.756,0.00027,0.0,0.0
13.933,3642.207,0.00027,0.0,0.0
13.939,3654.102,0.00027,0.0,0.0
13.946,3643.615,0.00027,0.0,0.0
13.952,3638.946,0.00027,0.0,0.0
13.958,3628.936,0.00028,0.0,0.0
13.965,3643.179,0.00027,0.0,0.0
13.971,3625.209,0.00028,0.0,0.0
13.977,3626.858,0.00028,0.0,0.0
13.984,3622.373,0.00028,0.0,0.0
13.99,3625.071,0.00028,0.0,0.0
13.996,3626.287,0.00028,0.0,0.0
14.002,3606.317,0.00028,0.0,0.0
14.009,3610.508,0.00028,0.0,0.0
14.015,3621.548,0.00028,0.0,0.0
14.021,3619.194,0.00028,0.0,0.0
14.028,3604.544,0.00028,0.0,0.0
14.034,3592.662,0.00028,0.0,0.0
14.04,3600.203,0.00028,0.0,0.0
14.047,3592.972,0.00028,0.0,0.0
14.053,3599.399,0.00028,0.0,0.0
14.059,3588.298,0.00028,0.0,0.0
14.066,3580.987,0.00028,0.0,0.0
14.072,3585.645,0.00028,0.0,0.0
14.078,3582.788,0.00028,0.0,0.0
14.085,3586.205,0.00028,0.0,0.0
14.091,3576.656,0.00028,0.0,0.0
14.097,3576.289,0.00028,0.0,0.0
14.104,3576.958,0.00028,0.0,0.0
14.11,3577.617,0.00028,0.0,0.0
14.116,3566.767,0.00028,0.0,0.0
14.123,3567.357,0.00028,0.0,0.0
14.129,3554.332,0.00028,0.0,0.0
14.135,3562.314,0.00028,0.0,0.0
14.142,3571.727,0.00028,0.0,0.0
14.148,3561.601,0.00028,0.0,0.0
14.154,3557.745,0.00028,0.0,0.0
14.16,3559.769,0.00028,0.0,0.0
14.167,3551.675,0.00028,0.0,0.0
14.173,3542.864,0.00028,0.0,0.0
14.179,3546.991,0.00028,0.0,0.0
14.186,3542.485,0.00028,0.0,0.0
14.192,3538.784,0.00028,0.0,0.0
14.198,3538.647,0.00028,0.0,0.0
14.205,3544.922,0.00028,0.0,0.0
14.211,3540.985,0.00028,0.0,0.0
14.217,3524.218,0.00028,0.0,0.0
14.224,3541.257,0.00028,0.0,0.0
14.23,3531.172,0.00028,0.0,0.0
14.236,3541.893,0.00028,0.0,0.0
14.243,3534.328,0.00028,0.0,0.0
14.249,3530.63,0.00028,0.0,0.0
14.255,3537.47,0.00028,0.0,0.0
14.262,3536.277,0.00028,0.0,0.0
14.268,3538.539,0.00028,0.0,0.0
14.274,3521.861,0.00028,0.0,0.0
14.281,3531.686,0.00028,0.0,0.0
14.287,3522.498,0.00028,0.0,0.0
14.293,3521.416,0.00028,0.0,0.0
14.3,3523.439,0.00028,0.0,0.0
14.306,3523.269,0.00028,0.0,0.0
14.312,3519.346,0.00028,0.0,0.0
14.318,3520.86,0.00028,0.0,0.0
14.325,3518.633,0.00028,0.0,0.0
14.331,3510.574,0.00028,0.0,0.0
14.337,3521.772,0.00028,0.0,0.0
14.344,3509.027,0.00028,0.0,0.0
14.35,3519.27,0.00028,0.0,0.0
14.356,3516.714,0.00028,0.0,0.0
14.363,3503.09,0.00029,0.0,0.0
14.369,3524.105,0.00028,0.0,0.0
14.375,3511.918,0.00028,0.0,0.0
14.382,3501.194,0.00029,0.0,0.0
14.388,3507.596,0.00029,0.0,0.0
14.394,3512.011,0.00028,0.0,0.0
14.401,3503.361,0.00029,0.0,0.0
14.407,3508.279,0.00029,0.0,0.0
14.413,3511.912,0.00028,0.0,0.0
14.42,3492.96,0.00029,0.0,0.0
14.426,3508.976,0.00028,0.0,0.0
14.432,3502.068,0.00029,0.0,0.0
14.439,3515.442,0.00028,0.0,0.0
14.445,3522.923,0.00028,0.0,0.0
14.451,3517.5,0.00028,0.0,0.0
14.458,3529.14,0.00028,0.0,0.0
14.464,3514.705,0.00028,0.0,0.0
14.47,3518.192,0.00028,0.0,0.0
14.476,3515.305,0.00028,0.0,0.0
14.483,3519.76,0.00028,0.0,0.0
14.489,3510.34,0.00028,0.0,0.0
14.495,3495.442,0.00029,0.0,0.0
14.502,3479.403,0.00029,0.0,0.0
14.508,3470.488,0.00029,0.0,0.0
14.514,3467.079,0.00029,0.0,0.0
14.521,3455.696,0.00029,0.0,0.0
14.527,3464.167,0.00029,0.0,0.0
14.533,3454.861,0.00029,0.0,0.0
14.54,3452.432,0.00029,0.0,0.0
14.546,3447.11,0.00029,0.0,0.0
14.552,3445.278,0.00029,0.0,0.0
14.559,3455.829,0.00029,0.0,0.0
14.565,3435.879,0.00029,0.0,0.0
14.571,3447.692,0.00029,0.0,0.0
14.578,3430.319,0.00029,0.0,0.0
14.584,3427.565,0.00029,0.0,0.0
14.59,3427.81,0.00029,0.0,0.0
14.597,3415.337,0.00029,0.0,0.0
14.603,3425.796,0.00029,0.0,0.0
14.609,3418.93,0.00029,0.0,0.0
14.616,3407.477,0.00029,0.0,0.0
14.622,3409.487,0.00029,0.0,0.0
14.628,3393.476,0.00029,0.0,0.0
14.634,3413.831,0.00029,0.0,0.0
14.641,3400.422,0.00029,0.0,0.0
14.647,3412.885,0.00029,0.0,0.0
14.653,3388.342,0.0003,0.0,0.0
14.66,3393.656,0.00029,0.0,0.0
14.666,3399.938,0.00029,0.0,0.0
14.672,3381.038,0.0003,0.0,0.0
14.679,3384.567,0.0003,0.0,0.0
14.685,3402.729,0.00029,0.0,0.0
14.691,3384.872,0.0003,0.0,0.0
14.698,3382.812,0.0003,0.0,0.0
14.704,3383.66,0.0003,0.0,0.0
14.71,3381.277,0.0003,0.0,0.0
14.717,3385.55,0.0003,0.0,0.0
14.723,3378.869,0.0003,0.0,0.0
14.729,3383.868,0.0003,0.0,0.0
14.736,3379.604,0.0003,0.0,0.0
14.742,3362.35,0.0003,0.0,0.0
14.748,3374.929,0.0003,0.0,0.0
14.755,3368.315,0.0003,0.0,0.0
14.761,3373.345,0.0003,0.0,0.0
14.767,3359.239,0.0003,0.0,0.0
14.774,3374.805,0.0003,0.0,0.0
14.78,3360.714,0.0003,0.0,0.0
14.786,3364.764,0.0003,0.0,0.0
14.792,3364.606,0.0003,0.0,0.0
14.799,3350.081,0.0003,0.0,0.0
14.805,3367.179,0.0003,0.0,0.0
14.811,3360.906,0.0003,0.0,0.0
14.818,3363.972,0.0003,0.0,0.0
14.824,3349.987,0.0003,0.0,0.0
14.83,3353.387,0.0003,0.0,0.0
14.837,3361.272,0.0003,0.0,0.0
14.843,3364.494,0.0003,0.0,0.0
14.849,3354.24,0.0003,0.0,0.0
14.856,3354.849,0.0003,0.0,0.0
14.862,3367.595,0.0003,0.0,0.0
14.868,3355.738,0.0003,0.0,0.0
14.875,3346.888,0.0003,0.0,0.0
14.881,3356.494,0.0003,0.0,0.0
14.887,3360.713,0.0003,0.0,0.0
14.894,3360.266,0.0003,0.0,0.0
14.9,3355.587,0.0003,0.0,0.0
14.906,3352.106,0.0003,0.0,0.0
14.913,3357.658,0.0003,0.0,0.0
14.919,3345.422,0.0003,0.0,0.0
14.925,3348.007,0.0003,0.0,0.0
14.932,3349.372,0.0003,0.0,0.0
14.938,3354.67,0.0003,0.0,0.0
14.944,3346.616,0.0003,0.0,0.0
14.95,3351.715,0.0003,0.0,0.0
14.957,3336.594,0.0003,0.0,0.0
14.963,3327.361,0.0003,0.0,0.0
14.969,3338.97,0.0003,0.0,0.0
14.976,3342.977,0.0003,0.0,0.0
14.982,3346.905,0.0003,0.0,0.0
14.988,3338.419,0.0003,0.0,0.0
14.995,3342.685,0.0003,0.0,0.0
15.001,3338.001,0.0003,0.0,0.0
15.007,3326.931,0.0003,0.0,0.0
15.014,3331.47,0.0003,0.0,0.0
15.02,3324.402,0.0003,0.0,0.0
15.026,3324.93,0.0003,0.0,0.0
15.033,3325.793,0.0003,0.0,0.0
15.039,3326.189,0.0003,0.0,0.0
15.045,3325.096,0.0003,0.0,0.0
15.052,3331.402,0.0003,0.0,0.0
15.058,3310.273,0.0003,0.0,0.0
15.064,3317.745,0.0003,0.0,0.0
15.071,3316.196,0.0003,0.0,0.0
15.077,3318.969,0.0003,0.0,0.0
15.083,3321.463,0.0003,0.0,0.0
15.09,3311.186,0.0003,0.0,0.0
15.096,3305.704,0.0003,0.0,0.0
15.102,3311.43,0.0003,0.0,0.0
15.108,3317.138,0.0003,0.0,0.0
15.115,3322.806,0.0003,0.0,0.0
15.121,3307.444,0.0003,0.0,0.0
15.127,3311.511,0.0003,0.0,0.0
15.134,3321.692,0.0003,0.0,0.0
15.14,3309.61,0.0003,0.0,0.0
15.146,3320.718,0.0003,0.0,0.0
15.153,3342.8,0.0003,0.0,0.0
15.159,3328.852,0.0003,0.0,0.0
15.165,3387.052,0.0003,0.0,0.0
15.172,3365.268,0.0003,0.0,0.0
15.178,3348.842,0.0003,0.0,0.0
15.184,3375.233,0.0003,0.0,0.0
15.191,3325.657,0.0003,0.0,0.0
15.197,3317.898,0.0003,0.0,0.0
15.203,3302.901,0.0003,0.0,0.0
15.21,3292.839,0.0003,0.0,0.0
15.216,3302.146,0.0003,0.0,0.0
15.222,3295.796,0.0003,0.0,0.0
15.229,3299.661,0.0003,0.0,0.0
15.235,3301.668,0.0003,0.0,0.0
15.241,3308.711,0.0003,0.0,0.0
15.248,3320.781,0.0003,0.0,0.0
15.254,3336.509,0.0003,0.0,0.0
15.26,3356.859,0.0003,0.0,0.0
15.266,3385.808,0.0003,0.0,0.0
15.273,3458.06,0.00029,0.0,0.0
15.279,3554.627,0.00028,0.0,0.0
15.285,3725.952,0.00027,0.0,0.0
15.292,3999.523,0.00025,0.0,0.0
15.298,4417.702,0.00023,0.0,0.0
15.304,4867.231,0.00021,0.0,0.0
15.311,5437.759,0.00018,0.0,0.0
15.317,5704.307,0.00018,0.0,0.0
15.323,5625.074,0.00018,0.0,0.0
15.33,5539.103,0.00018,0.0,0.0
15.336,4885.909,0.0002,0.0,0.0
15.342,4494.798,0.00022,0.0,0.0
15.349,4087.344,0.00024,0.0,0.0
15.355,3725.196,0.00027,0.0,0.0
15.361,3575.298,0.00028,0.0,0.0
15.368,3439.545,0.00029,0.0,0.0
15.374,3381.049,0.0003,0.0,0.0
15.38,3349.903,0.0003,0.0,0.0
15.387,3319.053,0.0003,0.0,0.0
15.393,3319.269,0.0003,0.0,0.0
15.399,3295.688,0.0003,0.0,0.0
15.406,3295.693,0.0003,0.0,0.0
15.412,3293.009,0.0003,0.0,0.0
15.418,3280.071,0.0003,0.0,0.0
15.424,3279.987,0.0003,0.0,0.0
15.431,3285.259,0.0003,0.0,0.0
15.437,3283.338,0.0003,0.0,0.0
15.443,3286.843,0.0003,0.0,0.0
15.45,3271.604,0.00031,0.0,0.0
15.456,3281.651,0.0003,0.0,0.0
15.462,3275.739,0.00031,0.0,0.0
15.469,3278.405,0.00031,0.0,0.0
15.475,3279.923,0.0003,0.0,0.0
15.481,3287.266,0.0003,0.0,0.0
15.488,3279.514,0.0003,0.0,0.0
15.494,3276.324,0.00031,0.0,0.0
15.5,3275.816,0.00031,0.0,0.0
15.507,3275.804,0.00031,0.0,0.0
15.513,3288.11,0.0003,0.0,0.0
15.519,3280.531,0.0003,0.0,0.0
15.526,3273.883,0.00031,0.0,0.0
15.532,3281.283,0.0003,0.0,0.0
15.538,3270.37,0.00031,0.0,0.0
15.545,3267.269,0.00031,0.0,0.0
15.551,3279.401,0.0003,0.0,0.0
15.557,3266.04,0.00031,0.0,0.0
15.564,3262.237,0.00031,0.0,0.0
15.57,3266.785,0.00031,0.0,0.0
15.576,3258.996,0.00031,0.0,0.0
15.582,3260.222,0.00031,0.0,0.0
15.589,3260.754,0.00031,0.0,0.0
15.595,3252.815,0.00031,0.0,0.0
15.601,3253.866,0.00031,0.0,0.0
15.608,3243.735,0.00031,0.0,0.0
15.614,3239.634,0.00031,0.0,0.0
15.62,3245.132,0.00031,0.0,0.0
15.627,3238.349,0.00031,0.0,0.0
15.633,3222.621,0.00031,0.0,0.0
15.639,3230.27,0.00031,0.0,0.0
15.646,3226.047,0.00031,0.0,0.0
15.652,3225.798,0.00031,0.0,0.0
15.658,3214.993,0.00031,0.0,0.0
15.665,3219.684,0.00031,0.0,0.0
15.671,3215.612,0.00031,0.0,0.0
15.677,3215.483,0.00031,0.0,0.0
15.684,3205.548,0.00031,0.0,0.0
15.69,3203.635,0.00031,0.0,0.0
15.696,3210.033,0.00031,0.0,0.0
15.703,3204.105,0.00031,0.0,0.0
15.709,3192.728,0.00031,0.0,0.0
15.715,3183.836,0.00031,0.0,0.0
15.722,3183.816,0.00031,0.0,0.0
15.728,3180.611,0.00031,0.0,0.0
15.734,3192.415,0.00031,0.0,0.0
15.74,3171.472,0.00032,0.0,0.0
15.747,3171.313,0.00032,0.0,0.0
15.753,3173.235,0.00032,0.0,0.0
15.759,3174.709,0.00031,0.0,0.0
15.766,3168.462,0.00032,0.0,0.0
15.772,3156.836,0.00032,0.0,0.0
15.778,3173.608,0.00032,0.0,0.0
15.785,3167.638,0.00032,0.0,0.0
15.791,3159.076,0.00032,0.0,0.0
15.797,3160.406,0.00032,0.0,0.0
15.804,3150.287,0.00032,0.0,0.0
15.81,3157.776,0.00032,0.0,0.0
15.816,3149.331,0.00032,0.0,0.0
15.823,3152.37,0.00032,0.0,0.0
15.829,3150.519,0.00032,0.0,0.0
15.835,3144.964,0.00032,0.0,0.0
15.842,3152.044,0.00032,0.0,0.0
15.848,3169.464,0.00032,0.0,0.0
15.854,3163.911,0.00032,0.0,0.0
15.861,3195.37,0.00031,0.0,0.0
15.867,3143.686,0.00032,0.0,0.0
15.873,3157.054,0.00032,0.0,0.0
15.88,3122.524,0.00032,0.0,0.0
15.886,3136.265,0.00032,0.0,0.0
15.892,3137.222,0.00032,0.0,0.0
15.898,3121.095,0.00032,0.0,0.0
15.905,3136.019,0.00032,0.0,0.0
15.911,3141.303,0.00032,0.0,0.0
15.917,3132.947,0.00032,0.0,0.0
15.924,3122.843,0.00032,0.0,0.0
15.93,3113.554,0.00032,0.0,0.0
15.936,3118.258,0.00032,0.0,0.0
15.943,3120.974,0.00032,0.0,0.0
15.949,3127.411,0.00032,0.0,0.0
15.955,3114.156,0.00032,0.0,0.0
15.962,3114.83,0.00032,0.0,0.0
15.968,3102.476,0.00032,0.0,0.0
15.974,3102.878,0.00032,0.0,0.0
15.981,3108.497,0.00032,0.0,0.0
15.987,3109.368,0.00032,0.0,0.0
15.993,3108.638,0.00032,0.0,0.0
16.0,3097.423,0.00032,0.0,0.0
16.006,3099.252,0.00032,0.0,0.0
16.012,3097.154,0.00032,0.0,0.0
16.019,3104.788,0.00032,0.0,0.0
16.025,3087.703,0.00032,0.0,0.0
16.031,3107.501,0.00032,0.0,0.0
16.038,3095.986,0.00032,0.0,0.0
16.044,3099.236,0.00032,0.0,0.0
16.05,3107.312,0.00032,0.0,0.0
16.056,3097.84,0.00032,0.0,0.0
16.063,3093.249,0.00032,0.0,0.0
16.069,3085.936,0.00032,0.0,0.0
16.075,3109.165,0.00032,0.0,0.0
16.082,3093.679,0.00032,0.0,0.0
16.088,3090.531,0.00032,0.0,0.0
16.094,3084.377,0.00032,0.0,0.0
16.101,3094.631,0.00032,0.0,0.0
16.107,3087.053,0.00032,0.0,0.0
16.113,3083.294,0.00032,0.0,0.0
16.12,3082.049,0.00032,0.0,0.0
16.126,3093.601,0.00032,0.0,0.0
16.132,3078.217,0.00032,0.0,0.0
16.139,3075.064,0.00033,0.0,0.0
16.145,3084.851,0.00032,0.0,0.0
16.151,3083.815,0.00032,0.0,0.0
16.158,3083.467,0.00032,0.0,0.0
16.164,3076.281,0.00033,0.0,0.0
16.17,3077.938,0.00032,0.0,0.0
16.177,3076.84,0.00033,0.0,0.0
16.183,3072.891,0.00033,0.0,0.0
16.189,3077.38,0.00032,0.0,0.0
16.196,3072.833,0.00033,0.0,0.0
16.202,3071.264,0.00033,0.0,0.0
16.208,3063.809,0.00033,0.0,0.0
16.214,3075.848,0.00033,0.0,0.0
16.221,3072.678,0.00033,0.0,0.0
16.227,3074.32,0.00033,0.0,0.0
16.233,3068.58,0.00033,0.0,0.0
16.24,3078.253,0.00032,0.0,0.0
16.246,3063.87,0.00033,0.0,0.0
16.252,3072.178,0.00033,0.0,0.0
16.259,3075.804,0.00033,0.0,0.0
16.265,3074.888,0.00033,0.0,0.0
16.271,3075.081,0.00033,0.0,0.0
16.278,3079.365,0.00032,0.0,0.0
16.284,3081.859,0.00032,0.0,0.0
16.29,3065.376,0.00033,0.0,0.0
16.297,3085.507,0.00032,0.0,0.0
16.303,3069.082,0.00033,0.0,0.0
16.309,3065.333,0.00033,0.0,0.0
16.316,3074.939,0.00033,0.0,0.0
16.322,3065.641,0.00033,0.0,0.0
16.328,3069.417,0.00033,0.0,0.0
16.335,3070.959,0.00033,0.0,0.0
16.341,3066.604,0.00033,0.0,0.0
16.347,3075.034,0.00033,0.0,0.0
16.354,3058.548,0.00033,0.0,0.0
16.36,3068.862,0.00033,0.0,0.0
16.366,3068.356,0.00033,0.0,0.0
16.372,3068.488,0.00033,0.0,0.0
16.379,3060.202,0.00033,0.0,0.0
16.385,3066.993,0.00033,0.0,0.0
16.391,3069.316,0.00033,0.0,0.0
16.398,3065.566,0.00033,0.0,0.0
16.404,3062.45,0.00033,0.0,0.0
16.41,3062.781,0.00033,0.0,0.0
16.417,3071.625,0.00033,0.0,0.0
16.423,3069.49,0.00033,0.0,0.0
16.429,3078.512,0.00032,0.0,0.0
16.436,3089.659,0.00032,0.0,0.0
16.442,3068.148,0.00033,0.0,0.0
16.448,3074.754,0.00033,0.0,0.0
16.455,3077.074,0.00032,0.0,0.0
16.461,3079.387,0.00032,0.0,0.0
16.467,3081.887,0.00032,0.0,0.0
16.474,3097.413,0.00032,0.0,0.0
16.48,3106.273,0.00032,0.0,0.0
16.486,3131.241,0.00032,0.0,0.0
16.493,3121.019,0.00032,0.0,0.0
16.499,3141.216,0.00032,0.0,0.0
16.505,3127.655,0.00032,0.0,0.0
16.512,3147.76,0.00032,0.0,0.0
16.518,3117.995,0.00032,0.0,0.0
16.524,3109.5,0.00032,0.0,0.0
16.53,3100.905,0.00032,0.0,0.0
16.537,3102.547,0.00032,0.0,0.0
16.543,3102.91,0.00032,0.0,0.0
16.549,3106.713,0.00032,0.0,0.0
16.556,3103.793,0.00032,0.0,0.0
16.562,3094.171,0.00032,0.0,0.0
16.568,3100.318,0.00032,0.0,0.0
16.575,3103.902,0.00032,0.0,0.0
16.581,3114.149,0.00032,0.0,0.0
16.587,3098.476,0.00032,0.0,0.0
16.594,3111.153,0.00032,0.0,0.0
