"x","y_obs","weight","y_calc","y_bkg"
0.8,2851.502,0.00035,0.0,0.0
0.806,3379.682,0.0003,0.0,0.0
0.813,3481.325,0.00029,0.0,0.0
0.819,3317.895,0.0003,0.0,0.0
0.825,4033.191,0.00025,0.0,0.0
0.832,3796.841,0.00026,0.0,0.0
0.838,4160.297,0.00024,0.0,0.0
0.844,4522.293,0.00022,0.0,0.0
0.851,4329.787,0.00023,0.0,0.0
0.857,4888.788,0.0002,0.0,0.0
0.863,5282.813,0.00019,0.0,0.0
0.87,4840.843,0.00021,0.0,0.0
0.876,5776.022,0.00017,0.0,0.0
0.882,5641.906,0.00018,0.0,0.0
0.888,5912.062,0.00017,0.0,0.0
0.895,6235.047,0.00016,0.0,0.0
0.901,6210.022,0.00016,0.0,0.0
0.907,6801.901,0.00015,0.0,0.0
0.914,6964.991,0.00014,0.0,0.0
0.92,6577.078,0.00015,0.0,0.0
0.926,7298.47,0.00014,0.0,0.0
0.933,7403.785,0.00014,0.0,0.0
0.939,7137.15,0.00014,0.0,0.0
0.945,7880.162,0.00013,0.0,0.0
0.952,7472.061,0.00013,0.0,0.0
0.958,7870.36,0.00013,0.0,0.0
0.964,7941.918,0.00013,0.0,0.0
0.971,7603.848,0.00013,0.0,0.0
0.977,8123.317,0.00012,0.0,0.0
0.983,8098.104,0.00012,0.0,0.0
0.99,7910.404,0.00013,0.0,0.0
0.996,8300.496,0.00012,0.0,0.0
1.002,7980.331,0.00013,0.0,0.0
1.009,8195.434,0.00012,0.0,0.0
1.015,8349.105,0.00012,0.0,0.0
1.021,8071.618,0.00012,0.0,0.0
1.028,8414.598,0.00012,0.0,0.0
1.034,8227.799,0.00012,0.0,0.0
1.04,8164.826,0.00012,0.0,0.0
1.046,8255.78,0.00012,0.0,0.0
1.053,8193.87,0.00012,0.0,0.0
1.059,8168.01,0.00012,0.0,0.0
1.065,8287.573,0.00012,0.0,0.0
1.072,8025.775,0.00012,0.0,0.0
1.078,8195.25,0.00012,0.0,0.0
1.084,8035.668,0.00012,0.0,0.0
1.091,8093.169,0.00012,0.0,0.0
1.097,8089.94,0.00012,0.0,0.0
1.103,7991.278,0.00013,0.0,0.0
1.11,7954.996,0.00013,0.0,0.0
1.116,7873.533,0.00013,0.0,0.0
1.122,7821.091,0.00013,0.0,0.0
1.129,7838.767,0.00013,0.0,0.0
1.135,7786.201,0.00013,0.0,0.0
1.141,7705.683,0.00013,0.0,0.0
1.148,7675.996,0.00013,0.0,0.0
1.154,7564.139,0.00013,0.0,0.0
1.16,7546.044,0.00013,0.0,0.0
1.167,7436.3,0.00013,0.0,0.0
1.173,7445.618,0.00013,0.0,0.0
1.179,7420.31,0.00013,0.0,0.0
1.186,7332.141,0.00014,0.0,0.0
1.192,7269.188,0.00014,0.0,0.0
1.198,7282.378,0.00014,0.0,0.0
1.204,7145.529,0.00014,0.0,0.0
1.211,7158.848,0.00014,0.0,0.0
1.217,7082.979,0.00014,0.0,0.0
1.223,7014.64,0.00014,0.0,0.0
1.23,6954.288,0.00014,0.0,0.0
1.236,6954.11,0.00014,0.0,0.0
1.242,6886.293,0.00015,0.0,0.0
1.249,6945.692,0.00014,0.0,0.0
1.255,6852.096,0.00015,0.0,0.0
1.261,6783.071,0.00015,0.0,0.0
1.268,6761.085,0.00015,0.0,0.0
1.274,6722.04,0.00015,0.0,0.0
1.28,6713.815,0.00015,0.0,0.0
1.287,6662.264,0.00015,0.0,0.0
1.293,6675.363,0.00015,0.0,0.0
1.299,6586.98,0.00015,0.0,0.0
1.306,6585.195,0.00015,0.0,0.0
1.312,6558.799,0.00015,0.0,0.0
1.318,6531.442,0.00015,0.0,0.0
1.325,6517.32,0.00015,0.0,0.0
1.331,6514.87,0.00015,0.0,0.0
1.337,6448.85,0.00016,0.0,0.0
1.344,6461.146,0.00015,0.0,0.0
1.35,6414.752,0.00016,0.0,0.0
1.356,6388.333,0.00016,0.0,0.0
1.362,6375.513,0.00016,0.0,0.0
1.369,6359.763,0.00016,0.0,0.0
1.375,6355.211,0.00016,0.0,0.0
1.381,6322.78,0.00016,0.0,0.0
1.388,6332.151,0.00016,0.0,0.0
1.394,6303.46,0.00016,0.0,0.0
1.4,6313.156,0.00016,0.0,0.0
1.407,6264.567,0.00016,0.0,0.0
1.413,6265.407,0.00016,0.0,0.0
1.419,6240.435,0.00016,0.0,0.0
1.426,6222.359,0.00016,0.0,0.0
1.432,6220.466,0.00016,0.0,0.0
1.438,6216.052,0.00016,0.0,0.0
1.445,6226.673,0.00016,0.0,0.0
1.451,6215.399,0.00016,0.0,0.0
1.457,6234.686,0.00016,0.0,0.0
1.464,6217.346,0.00016,0.0,0.0
1.47,6239.341,0.00016,0.0,0.0
1.476,6168.073,0.00016,0.0,0.0
1.483,6198.734,0.00016,0.0,0.0
1.489,6194.36,0.00016,0.0,0.0
1.495,6168.421,0.00016,0.0,0.0
1.502,6213.078,0.00016,0.0,0.0
1.508,6208.452,0.00016,0.0,0.0
1.514,6178.238,0.00016,0.0,0.0
1.52,6246.291,0.00016,0.0,0.0
1.527,6244.265,0.00016,0.0,0.0
1.533,6224.083,0.00016,0.0,0.0
1.539,6226.618,0.00016,0.0,0.0
1.546,6230.98,0.00016,0.0,0.0
1.552,6279.088,0.00016,0.0,0.0
1.558,6218.862,0.00016,0.0,0.0
1.565,6268.583,0.00016,0.0,0.0
1.571,6298.307,0.00016,0.0,0.0
1.577,6242.262,0.00016,0.0,0.0
1.584,6284.025,0.00016,0.0,0.0
1.59,6287.461,0.00016,0.0,0.0
1.596,6259.014,0.00016,0.0,0.0
1.603,6317.378,0.00016,0.0,0.0
1.609,6300.075,0.00016,0.0,0.0
1.615,6322.441,0.00016,0.0,0.0
1.622,6342.059,0.00016,0.0,0.0
1.628,6344.657,0.00016,0.0,0.0
1.634,6348.99,0.00016,0.0,0.0
1.641,6373.63,0.00016,0.0,0.0
1.647,6375.86,0.00016,0.0,0.0
1.653,6433.871,0.00016,0.0,0.0
1.66,6437.435,0.00016,0.0,0.0
1.666,6479.352,0.00015,0.0,0.0
1.672,6498.702,0.00015,0.0,0.0
1.678,6478.783,0.00015,0.0,0.0
1.685,6522.081,0.00015,0.0,0.0
1.691,6544.221,0.00015,0.0,0.0
1.697,6522.966,0.00015,0.0,0.0
1.704,6523.501,0.00015,0.0,0.0
1.71,6552.803,0.00015,0.0,0.0
1.716,6552.333,0.00015,0.0,0.0
1.723,6578.663,0.00015,0.0,0.0
1.729,6630.667,0.00015,0.0,0.0
1.735,6658.967,0.00015,0.0,0.0
1.742,6644.746,0.00015,0.0,0.0
1.748,6697.921,0.00015,0.0,0.0
1.754,6669.584,0.00015,0.0,0.0
1.761,6698.164,0.00015,0.0,0.0
1.767,6694.494,0.00015,0.0,0.0
1.773,6699.855,0.00015,0.0,0.0
1.78,6689.427,0.00015,0.0,0.0
1.786,6745.294,0.00015,0.0,0.0
1.792,6726.157,0.00015,0.0,0.0
1.799,6759.799,0.00015,0.0,0.0
1.805,6768.164,0.00015,0.0,0.0
1.811,6731.309,0.00015,0.0,0.0
1.818,6728.894,0.00015,0.0,0.0
1.824,6766.604,0.00015,0.0,0.0
1.83,6777.41,0.00015,0.0,0.0
1.836,6746.399,0.00015,0.0,0.0
1.843,6794.103,0.00015,0.0,0.0
1.849,6743.49,0.00015,0.0,0.0
1.855,6798.657,0.00015,0.0,0.0
1.862,6720.168,0.00015,0.0,0.0
1.868,6806.511,0.00015,0.0,0.0
1.874,6803.605,0.00015,0.0,0.0
1.881,6802.527,0.00015,0.0,0.0
1.887,6774.911,0.00015,0.0,0.0
1.893,6804.478,0.00015,0.0,0.0
1.9,6758.944,0.00015,0.0,0.0
1.906,6784.217,0.00015,0.0,0.0
1.912,6797.386,0.00015,0.0,0.0
1.919,6771.679,0.00015,0.0,0.0
1.925,6770.345,0.00015,0.0,0.0
1.931,6768.637,0.00015,0.0,0.0
1.938,6791.269,0.00015,0.0,0.0
1.944,6766.541,0.00015,0.0,0.0
1.95,6795.73,0.00015,0.0,0.0
1.957,6787.793,0.00015,0.0,0.0
1.963,6790.813,0.00015,0.0,0.0
1.969,6787.501,0.00015,0.0,0.0
1.976,6793.495,0.00015,0.0,0.0
1.982,6784.25,0.00015,0.0,0.0
1.988,6785.052,0.00015,0.0,0.0
1.994,6810.647,0.00015,0.0,0.0
2.001,6819.315,0.00015,0.0,0.0
2.007,6830.141,0.00015,0.0,0.0
2.013,6826.52,0.00015,0.0,0.0
2.02,6802.031,0.00015,0.0,0.0
2.026,6847.393,0.00015,0.0,0.0
2.032,6847.429,0.00015,0.0,0.0
2.039,6863.057,0.00015,0.0,0.0
2.045,6835.017,0.00015,0.0,0.0
2.051,6875.832,0.00015,0.0,0.0
2.058,6875.677,0.00015,0.0,0.0
2.064,6888.622,0.00015,0.0,0.0
2.07,6903.511,0.00014,0.0,0.0
2.077,6899.157,0.00014,0.0,0.0
2.083,6844.46,0.00015,0.0,0.0
2.089,6891.661,0.00015,0.0,0.0
2.096,6891.301,0.00015,0.0,0.0
2.102,6909.242,0.00014,0.0,0.0
2.108,6934.724,0.00014,0.0,0.0
2.115,6922.157,0.00014,0.0,0.0
2.121,6930.471,0.00014,0.0,0.0
2.127,6964.174,0.00014,0.0,0.0
2.134,6955.602,0.00014,0.0,0.0
2.14,6989.884,0.00014,0.0,0.0
2.146,7021.764,0.00014,0.0,0.0
2.152,6979.779,0.00014,0.0,0.0
2.159,7021.313,0.00014,0.0,0.0
2.165,7036.555,0.00014,0.0,0.0
2.171,7032.339,0.00014,0.0,0.0
2.178,7068.263,0.00014,0.0,0.0
2.184,7071.515,0.00014,0.0,0.0
2.19,7102.259,0.00014,0.0,0.0
2.197,7095.844,0.00014,0.0,0.0
2.203,7125.444,0.00014,0.0,0.0
2.209,7155.213,0.00014,0.0,0.0
2.216,7189.03,0.00014,0.0,0.0
2.222,7178.87,0.00014,0.0,0.0
2.228,7151.86,0.00014,0.0,0.0
2.235,7220.351,0.00014,0.0,0.0
2.241,7210.431,0.00014,0.0,0.0
2.247,7269.663,0.00014,0.0,0.0
2.254,7281.098,0.00014,0.0,0.0
2.26,7308.867,0.00014,0.0,0.0
2.266,7319.226,0.00014,0.0,0.0
2.273,7340.486,0.00014,0.0,0.0
2.279,7370.142,0.00014,0.0,0.0
2.285,7410.622,0.00013,0.0,0.0
2.292,7405.61,0.00014,0.0,0.0
2.298,7463.926,0.00013,0.0,0.0
2.304,7448.441,0.00013,0.0,0.0
2.31,7477.499,0.00013,0.0,0.0
2.317,7477.939,0.00013,0.0,0.0
2.323,7536.198,0.00013,0.0,0.0
2.329,7600.197,0.00013,0.0,0.0
2.336,7609.662,0.00013,0.0,0.0
2.342,7626.394,0.00013,0.0,0.0
2.348,7644.712,0.00013,0.0,0.0
2.355,7678.328,0.00013,0.0,0.0
2.361,7725.059,0.00013,0.0,0.0
2.367,7753.189,0.00013,0.0,0.0
2.374,7785.703,0.00013,0.0,0.0
2.38,7839.856,0.00013,0.0,0.0
2.386,7841.648,0.00013,0.0,0.0
2.393,7885.645,0.00013,0.0,0.0
2.399,7969.078,0.00013,0.0,0.0
2.405,7984.936,0.00013,0.0,0.0
2.412,8026.451,0.00012,0.0,0.0
2.418,8105.153,0.00012,0.0,0.0
2.424,8118.584,0.00012,0.0,0.0
2.431,8161.844,0.00012,0.0,0.0
2.437,8213.245,0.00012,0.0,0.0
2.443,8258.086,0.00012,0.0,0.0
2.45,8319.87,0.00012,0.0,0.0
2.456,8359.949,0.00012,0.0,0.0
2.462,8410.28,0.00012,0.0,0.0
2.468,8515.061,0.00012,0.0,0.0
2.475,8569.801,0.00012,0.0,0.0
2.481,8666.826,0.00012,0.0,0.0
2.487,8717.39,0.00011,0.0,0.0
2.494,8796.435,0.00011,0.0,0.0
2.5,8892.825,0.00011,0.0,0.0
2.506,8941.328,0.00011,0.0,0.0
2.513,9028.193,0.00011,0.0,0.0
2.519,9122.581,0.00011,0.0,0.0
2.525,9170.503,0.00011,0.0,0.0
2.532,9238.649,0.00011,0.0,0.0
2.538,9315.143,0.00011,0.0,0.0
2.544,9306.058,0.00011,0.0,0.0
2.551,9417.35,0.00011,0.0,0.0
2.557,9324.349,0.00011,0.0,0.0
2.563,9400.898,0.00011,0.0,0.0
2.57,9416.803,0.00011,0.0,0.0
2.576,9374.188,0.00011,0.0,0.0
2.582,9369.097,0.00011,0.0,0.0
2.589,9357.727,0.00011,0.0,0.0
2.595,9312.053,0.00011,0.0,0.0
2.601,9310.641,0.00011,0.0,0.0
2.608,9288.784,0.00011,0.0,0.0
2.614,9290.962,0.00011,0.0,0.0
2.62,9282.101,0.00011,0.0,0.0
2.626,9223.271,0.00011,0.0,0.0
2.633,9279.351,0.00011,0.0,0.0
2.639,9230.635,0.00011,0.0,0.0
2.645,9283.413,0.00011,0.0,0.0
2.652,9272.937,0.00011,0.0,0.0
2.658,9284.552,0.00011,0.0,0.0
2.664,9301.813,0.00011,0.0,0.0
2.671,9321.76,0.00011,0.0,0.0
2.677,9340.566,0.00011,0.0,0.0
2.683,9381.124,0.00011,0.0,0.0
2.69,9411.333,0.00011,0.0,0.0
2.696,9431.623,0.00011,0.0,0.0
2.702,9468.332,0.00011,0.0,0.0
2.709,9454.831,0.00011,0.0,0.0
2.715,9511.901,0.00011,0.0,0.0
2.721,9577.688,0.0001,0.0,0.0
2.728,9581.472,0.0001,0.0,0.0
2.734,9614.447,0.0001,0.0,0.0
2.74,9654.033,0.0001,0.0,0.0
2.747,9665.858,0.0001,0.0,0.0
2.753,9727.86,0.0001,0.0,0.0
2.759,9712.475,0.0001,0.0,0.0
2.766,9759.11,0.0001,0.0,0.0
2.772,9819.039,0.0001,0.0,0.0
2.778,9777.119,0.0001,0.0,0.0
2.784,9828.325,0.0001,0.0,0.0
2.791,9848.441,0.0001,0.0,0.0
2.797,9860.095,0.0001,0.0,0.0
2.803,9900.855,0.0001,0.0,0.0
2.81,9925.165,0.0001,0.0,0.0
2.816,9930.953,0.0001,0.0,0.0
2.822,9963.178,0.0001,0.0,0.0
2.829,9942.396,0.0001,0.0,0.0
2.835,9974.336,0.0001,0.0,0.0
2.841,9987.059,0.0001,0.0,0.0
2.848,10020.731,0.0001,0.0,0.0
2.854,10019.174,0.0001,0.0,0.0
2.86,10038.104,0.0001,0.0,0.0
2.867,10056.38,0.0001,0.0,0.0
2.873,10082.45,0.0001,0.0,0.0
2.879,10110.994,0.0001,0.0,0.0
2.886,10120.392,0.0001,0.0,0.0
2.892,10119.836,0.0001,0.0,0.0
2.898,10152.766,0.0001,0.0,0.0
2.905,10161.887,0.0001,0.0,0.0
2.911,10199.951,0.0001,0.0,0.0
2.917,10239.802,0.0001,0.0,0.0
2.924,10219.158,0.0001,0.0,0.0
2.93,10276.109,0.0001,0.0,0.0
2.936,10274.592,0.0001,0.0,0.0
2.942,10276.737,0.0001,0.0,0.0
2.949,10293.056,0.0001,0.0,0.0
2.955,10329.614,0.0001,0.0,0.0
2.961,10336.731,0.0001,0.0,0.0
2.968,10367.539,0.0001,0.0,0.0
2.974,10385.237,0.0001,0.0,0.0
2.98,10404.263,0.0001,0.0,0.0
2.987,10415.274,0.0001,0.0,0.0
2.993,10429.439,0.0001,0.0,0.0
2.999,10444.047,0.0001,0.0,0.0
3.006,10404.697,0.0001,0.0,0.0
3.012,10453.562,0.0001,0.0,0.0
3.018,10465.22,0.0001,0.0,0.0
3.025,10467.385,0.0001,0.0,0.0
3.031,10456.593,0.0001,0.0,0.0
3.037,10457.08,0.0001,0.0,0.0
3.044,10486.18,0.0001,0.0,0.0
3.05,10491.572,0.0001,0.0,0.0
3.056,10457.492,0.0001,0.0,0.0
3.063,10465.733,0.0001,0.0,0.0
3.069,10475.42,0.0001,0.0,0.0
3.075,10498.477,0.0001,0.0,0.0
3.082,10495.683,0.0001,0.0,0.0
3.088,10488.32,0.0001,0.0,0.0
3.094,10507.54,0.0001,0.0,0.0
3.1,10493.496,0.0001,0.0,0.0
3.107,10497.541,0.0001,0.0,0.0
3.113,10502.107,0.0001,0.0,0.0
3.119,10490.835,0.0001,0.0,0.0
3.126,10459.017,0.0001,0.0,0.0
3.132,10485.962,0.0001,0.0,0.0
3.138,10461.849,0.0001,0.0,0.0
3.145,10459.199,0.0001,0.0,0.0
3.151,10438.453,0.0001,0.0,0.0
3.157,10412.346,0.0001,0.0,0.0
3.164,10438.099,0.0001,0.0,0.0
3.17,10426.16,0.0001,0.0,0.0
3.176,10393.727,0.0001,0.0,0.0
3.183,10363.253,0.0001,0.0,0.0
3.189,10352.14,0.0001,0.0,0.0
3.195,10330.911,0.0001,0.0,0.0
3.202,10331.905,0.0001,0.0,0.0
3.208,10290.25,0.0001,0.0,0.0
3.214,10301.334,0.0001,0.0,0.0
3.221,10266.903,0.0001,0.0,0.0
3.227,10268.063,0.0001,0.0,0.0
3.233,10254.156,0.0001,0.0,0.0
3.24,10217.949,0.0001,0.0,0.0
3.246,10204.605,0.0001,0.0,0.0
3.252,10216.151,0.0001,0.0,0.0
3.258,10156.359,0.0001,0.0,0.0
3.265,10152.128,0.0001,0.0,0.0
3.271,10149.884,0.0001,0.0,0.0
3.277,10107.674,0.0001,0.0,0.0
3.284,10099.797,0.0001,0.0,0.0
3.29,10084.185,0.0001,0.0,0.0
3.296,10011.821,0.0001,0.0,0.0
3.303,9997.344,0.0001,0.0,0.0
3.309,9986.751,0.0001,0.0,0.0
3.315,9952.064,0.0001,0.0,0.0
3.322,9927.488,0.0001,0.0,0.0
3.328,9929.977,0.0001,0.0,0.0
3.334,9907.772,0.0001,0.0,0.0
3.341,9919.313,0.0001,0.0,0.0
3.347,9881.809,0.0001,0.0,0.0
3.353,9867.948,0.0001,0.0,0.0
3.36,9828.36,0.0001,0.0,0.0
3.366,9811.816,0.0001,0.0,0.0
3.372,9795.97,0.0001,0.0,0.0
3.379,9762.932,0.0001,0.0,0.0
3.385,9777.504,0.0001,0.0,0.0
3.391,9733.733,0.0001,0.0,0.0
3.398,9692.164,0.0001,0.0,0.0
3.404,9702.956,0.0001,0.0,0.0
3.41,9660.972,0.0001,0.0,0.0
3.416,9655.422,0.0001,0.0,0.0
3.423,9617.1,0.0001,0.0,0.0
3.429,9616.918,0.0001,0.0,0.0
3.435,9598.433,0.0001,0.0,0.0
3.442,9579.727,0.0001,0.0,0.0
3.448,9577.006,0.0001,0.0,0.0
3.454,9572.684,0.0001,0.0,0.0
3.461,9531.796,0.0001,0.0,0.0
3.467,9521.813,0.00011,0.0,0.0
3.473,9493.342,0.00011,0.0,0.0
3.48,9452.369,0.00011,0.0,0.0
3.486,9474.268,0.00011,0.0,0.0
3.492,9444.188,0.00011,0.0,0.0
3.499,9425.261,0.00011,0.0,0.0
3.505,9419.036,0.00011,0.0,0.0
3.511,9392.305,0.00011,0.0,0.0
3.518,9389.059,0.00011,0.0,0.0
3.524,9382.271,0.00011,0.0,0.0
3.53,9355.832,0.00011,0.0,0.0
3.537,9377.574,0.00011,0.0,0.0
3.543,9346.019,0.00011,0.0,0.0
3.549,9320.295,0.00011,0.0,0.0
3.556,9344.046,0.00011,0.0,0.0
3.562,9298.244,0.00011,0.0,0.0
3.568,9295.758,0.00011,0.0,0.0
3.574,9290.284,0.00011,0.0,0.0
3.581,9282.041,0.00011,0.0,0.0
3.587,9270.304,0.00011,0.0,0.0
3.593,9283.205,0.00011,0.0,0.0
3.6,9236.366,0.00011,0.0,0.0
3.606,9291.843,0.00011,0.0,0.0
3.612,9237.767,0.00011,0.0,0.0
3.619,9242.909,0.00011,0.0,0.0
3.625,9242.263,0.00011,0.0,0.0
3.631,9219.082,0.00011,0.0,0.0
3.638,9230.678,0.00011,0.0,0.0
3.644,9249.807,0.00011,0.0,0.0
3.65,9251.338,0.00011,0.0,0.0
3.657,9267.155,0.00011,0.0,0.0
3.663,9300.247,0.00011,0.0,0.0
3.669,9289.464,0.00011,0.0,0.0
3.676,9317.042,0.00011,0.0,0.0
3.682,9306.978,0.00011,0.0,0.0
3.688,9331.069,0.00011,0.0,0.0
3.695,9345.865,0.00011,0.0,0.0
3.701,9374.423,0.00011,0.0,0.0
3.707,9375.081,0.00011,0.0,0.0
3.714,9433.009,0.00011,0.0,0.0
3.72,9430.352,0.00011,0.0,0.0
3.726,9475.492,0.00011,0.0,0.0
3.732,9498.552,0.00011,0.0,0.0
3.739,9520.93,0.00011,0.0,0.0
3.745,9555.375,0.0001,0.0,0.0
3.751,9586.882,0.0001,0.0,0.0
3.758,9613.5,0.0001,0.0,0.0
3.764,9665.434,0.0001,0.0,0.0
3.77,9707.081,0.0001,0.0,0.0
3.777,9732.129,0.0001,0.0,0.0
3.783,9773.385,0.0001,0.0,0.0
3.789,9823.269,0.0001,0.0,0.0
3.796,9878.688,0.0001,0.0,0.0
3.802,9894.938,0.0001,0.0,0.0
3.808,9973.377,0.0001,0.0,0.0
3.815,9977.913,0.0001,0.0,0.0
3.821,10051.0,0.0001,0.0,0.0
3.827,10081.62,0.0001,0.0,0.0
3.834,10102.859,0.0001,0.0,0.0
3.84,10151.816,0.0001,0.0,0.0
3.846,10177.59,0.0001,0.0,0.0
3.853,10197.622,0.0001,0.0,0.0
3.859,10228.011,0.0001,0.0,0.0
3.865,10230.246,0.0001,0.0,0.0
3.872,10228.984,0.0001,0.0,0.0
3.878,10275.423,0.0001,0.0,0.0
3.884,10212.75,0.0001,0.0,0.0
3.89,10267.776,0.0001,0.0,0.0
3.897,10243.927,0.0001,0.0,0.0
3.903,10207.751,0.0001,0.0,0.0
3.909,10206.866,0.0001,0.0,0.0
3.916,10195.335,0.0001,0.0,0.0
3.922,10120.457,0.0001,0.0,0.0
3.928,10124.16,0.0001,0.0,0.0
3.935,10075.31,0.0001,0.0,0.0
3.941,10032.323,0.0001,0.0,0.0
3.947,9976.356,0.0001,0.0,0.0
3.954,9921.278,0.0001,0.0,0.0
3.96,9921.886,0.0001,0.0,0.0
3.966,9850.776,0.0001,0.0,0.0
3.973,9838.261,0.0001,0.0,0.0
3.979,9766.887,0.0001,0.0,0.0
3.985,9710.312,0.0001,0.0,0.0
3.992,9635.708,0.0001,0.0,0.0
3.998,9619.117,0.0001,0.0,0.0
4.004,9545.892,0.0001,0.0,0.0
4.011,9527.034,0.0001,0.0,0.0
4.017,9489.37,0.00011,0.0,0.0
4.023,9454.318,0.00011,0.0,0.0
4.03,9394.185,0.00011,0.0,0.0
4.036,9346.09,0.00011,0.0,0.0
4.042,9303.844,0.00011,0.0,0.0
4.048,9263.388,0.00011,0.0,0.0
4.055,9228.049,0.00011,0.0,0.0
4.061,9180.192,0.00011,0.0,0.0
4.067,9167.815,0.00011,0.0,0.0
4.074,9102.44,0.00011,0.0,0.0
4.08,9101.384,0.00011,0.0,0.0
4.086,9021.573,0.00011,0.0,0.0
4.093,9036.172,0.00011,0.0,0.0
4.099,8973.907,0.00011,0.0,0.0
4.105,8998.132,0.00011,0.0,0.0
4.112,8965.106,0.00011,0.0,0.0
4.118,8921.356,0.00011,0.0,0.0
4.124,8902.038,0.00011,0.0,0.0
4.131,8890.173,0.00011,0.0,0.0
4.137,8856.234,0.00011,0.0,0.0
4.143,8856.567,0.00011,0.0,0.0
4.15,8804.471,0.00011,0.0,0.0
4.156,8795.295,0.00011,0.0,0.0
4.162,8804.811,0.00011,0.0,0.0
4.169,8768.174,0.00011,0.0,0.0
4.175,8770.433,0.00011,0.0,0.0
4.181,8763.524,0.00011,0.0,0.0
4.188,8751.095,0.00011,0.0,0.0
4.194,8707.832,0.00011,0.0,0.0
4.2,8710.996,0.00011,0.0,0.0
4.206,8698.952,0.00011,0.0,0.0
4.213,8729.135,0.00011,0.0,0.0
4.219,8687.942,0.00012,0.0,0.0
4.225,8670.933,0.00012,0.0,0.0
4.232,8691.249,0.00012,0.0,0.0
4.238,8653.775,0.00012,0.0,0.0
4.244,8675.426,0.00012,0.0,0.0
4.251,8675.504,0.00012,0.0,0.0
4.257,8626.635,0.00012,0.0,0.0
4.263,8617.147,0.00012,0.0,0.0
4.27,8633.617,0.00012,0.0,0.0
4.276,8596.545,0.00012,0.0,0.0
4.282,8640.587,0.00012,0.0,0.0
4.289,8604.559,0.00012,0.0,0.0
4.295,8590.15,0.00012,0.0,0.0
4.301,8574.333,0.00012,0.0,0.0
4.308,8602.173,0.00012,0.0,0.0
4.314,8570.435,0.00012,0.0,0.0
4.32,8559.335,0.00012,0.0,0.0
4.327,8574.389,0.00012,0.0,0.0
4.333,8554.39,0.00012,0.0,0.0
4.339,8552.916,0.00012,0.0,0.0
4.346,8590.45,0.00012,0.0,0.0
4.352,8565.788,0.00012,0.0,0.0
4.358,8562.835,0.00012,0.0,0.0
4.364,8587.711,0.00012,0.0,0.0
4.371,8584.332,0.00012,0.0,0.0
4.377,8566.613,0.00012,0.0,0.0
4.383,8600.033,0.00012,0.0,0.0
4.39,8579.944,0.00012,0.0,0.0
4.396,8564.938,0.00012,0.0,0.0
4.402,8602.166,0.00012,0.0,0.0
4.409,8589.322,0.00012,0.0,0.0
4.415,8616.808,0.00012,0.0,0.0
4.421,8603.103,0.00012,0.0,0.0
4.428,8644.858,0.00012,0.0,0.0
4.434,8588.586,0.00012,0.0,0.0
4.44,8668.21,0.00012,0.0,0.0
4.447,8664.992,0.00012,0.0,0.0
4.453,8736.42,0.00011,0.0,0.0
4.459,8706.556,0.00011,0.0,0.0
4.466,8774.55,0.00011,0.0,0.0
4.472,8784.314,0.00011,0.0,0.0
4.478,8916.355,0.00011,0.0,0.0
4.485,8979.286,0.00011,0.0,0.0
4.491,9190.562,0.00011,0.0,0.0
4.497,9374.092,0.00011,0.0,0.0
4.504,9564.245,0.0001,0.0,0.0
4.51,10103.619,0.0001,0.0,0.0
4.516,10803.389,0.00009,0.0,0.0
4.522,13378.704,0.00007,0.0,0.0
4.529,17881.284,0.00006,0.0,0.0
4.535,21452.729,0.00005,0.0,0.0
4.541,34164.814,0.00003,0.0,0.0
4.548,35181.13,0.00003,0.0,0.0
4.554,49931.438,0.00002,0.0,0.0
4.56,47953.954,0.00002,0.0,0.0
4.567,50811.473,0.00002,0.0,0.0
4.573,40212.632,0.00002,0.0,0.0
4.579,29939.098,0.00003,0.0,0.0
4.586,25226.475,0.00004,0.0,0.0
4.592,17566.347,0.00006,0.0,0.0
4.598,13901.582,0.00007,0.0,0.0
4.605,11479.179,0.00009,0.0,0.0
4.611,10108.24,0.0001,0.0,0.0
4.617,9522.024,0.00011,0.0,0.0
4.624,9158.442,0.00011,0.0,0.0
4.63,8959.048,0.00011,0.0,0.0
4.636,8813.804,0.00011,0.0,0.0
4.643,8695.937,0.00011,0.0,0.0
4.649,8561.696,0.00012,0.0,0.0
4.655,8520.22,0.00012,0.0,0.0
4.662,8362.412,0.00012,0.0,0.0
4.668,8399.045,0.00012,0.0,0.0
4.674,8268.692,0.00012,0.0,0.0
4.68,8297.654,0.00012,0.0,0.0
4.687,8202.197,0.00012,0.0,0.0
4.693,8186.642,0.00012,0.0,0.0
4.699,8116.731,0.00012,0.0,0.0
4.706,8084.666,0.00012,0.0,0.0
4.712,8034.993,0.00012,0.0,0.0
4.718,8023.158,0.00012,0.0,0.0
4.725,8021.785,0.00012,0.0,0.0
4.731,7943.346,0.00013,0.0,0.0
4.737,7898.503,0.00013,0.0,0.0
4.744,7864.63,0.00013,0.0,0.0
4.75,7826.566,0.00013,0.0,0.0
4.756,7794.424,0.00013,0.0,0.0
4.763,7812.564,0.00013,0.0,0.0
4.769,7701.267,0.00013,0.0,0.0
4.775,7735.999,0.00013,0.0,0.0
4.782,7677.475,0.00013,0.0,0.0
4.788,7670.728,0.00013,0.0,0.0
4.794,7631.543,0.00013,0.0,0.0
4.801,7584.525,0.00013,0.0,0.0
4.807,7575.058,0.00013,0.0,0.0
4.813,7564.816,0.00013,0.0,0.0
4.82,7505.683,0.00013,0.0,0.0
4.826,7508.188,0.00013,0.0,0.0
4.832,7440.785,0.00013,0.0,0.0
4.838,7431.18,0.00013,0.0,0.0
4.845,7464.811,0.00013,0.0,0.0
4.851,7389.756,0.00014,0.0,0.0
4.857,7402.569,0.00014,0.0,0.0
4.864,7367.702,0.00014,0.0,0.0
4.87,7356.41,0.00014,0.0,0.0
4.876,7296.353,0.00014,0.0,0.0
4.883,7321.045,0.00014,0.0,0.0
4.889,7226.792,0.00014,0.0,0.0
4.895,7252.493,0.00014,0.0,0.0
4.902,7173.989,0.00014,0.0,0.0
4.908,7211.838,0.00014,0.0,0.0
4.914,7128.291,0.00014,0.0,0.0
4.921,7171.093,0.00014,0.0,0.0
4.927,7125.172,0.00014,0.0,0.0
4.933,7086.574,0.00014,0.0,0.0
4.94,7066.725,0.00014,0.0,0.0
4.946,7074.203,0.00014,0.0,0.0
4.952,7026.037,0.00014,0.0,0.0
4.959,7021.18,0.00014,0.0,0.0
4.965,7009.496,0.00014,0.0,0.0
4.971,6965.433,0.00014,0.0,0.0
4.978,6980.504,0.00014,0.0,0.0
4.984,6925.143,0.00014,0.0,0.0
4.99,6934.609,0.00014,0.0,0.0
4.996,6898.691,0.00014,0.0,0.0
5.003,6879.817,0.00015,0.0,0.0
5.009,6865.367,0.00015,0.0,0.0
5.015,6860.723,0.00015,0.0,0.0
5.022,6829.308,0.00015,0.0,0.0
5.028,6831.917,0.00015,0.0,0.0
5.034,6789.365,0.00015,0.0,0.0
5.041,6782.129,0.00015,0.0,0.0
5.047,6764.772,0.00015,0.0,0.0
5.053,6746.584,0.00015,0.0,0.0
5.06,6776.344,0.00015,0.0,0.0
5.066,6725.882,0.00015,0.0,0.0
5.072,6732.072,0.00015,0.0,0.0
5.079,6729.59,0.00015,0.0,0.0
5.085,6706.861,0.00015,0.0,0.0
5.091,6684.136,0.00015,0.0,0.0
5.098,6669.73,0.00015,0.0,0.0
5.104,6633.201,0.00015,0.0,0.0
5.11,6660.645,0.00015,0.0,0.0
5.117,6621.144,0.00015,0.0,0.0
5.123,6635.989,0.00015,0.0,0.0
5.129,6614.768,0.00015,0.0,0.0
5.136,6580.039,0.00015,0.0,0.0
5.142,6591.434,0.00015,0.0,0.0
5.148,6569.098,0.00015,0.0,0.0
5.154,6553.474,0.00015,0.0,0.0
5.161,6543.468,0.00015,0.0,0.0
5.167,6515.364,0.00015,0.0,0.0
5.173,6472.537,0.00015,0.0,0.0
5.18,6510.43,0.00015,0.0,0.0
5.186,6424.723,0.00016,0.0,0.0
5.192,6449.101,0.00016,0.0,0.0
5.199,6427.846,0.00016,0.0,0.0
5.205,6408.576,0.00016,0.0,0.0
5.211,6400.807,0.00016,0.0,0.0
5.218,6380.866,0.00016,0.0,0.0
5.224,6382.345,0.00016,0.0,0.0
5.23,6334.164,0.00016,0.0,0.0
5.237,6326.554,0.00016,0.0,0.0
5.243,6297.855,0.00016,0.0,0.0
5.249,6309.68,0.00016,0.0,0.0
5.256,6246.86,0.00016,0.0,0.0
5.262,6270.72,0.00016,0.0,0.0
5.268,6231.088,0.00016,0.0,0.0
5.275,6215.233,0.00016,0.0,0.0
5.281,6235.834,0.00016,0.0,0.0
5.287,6209.895,0.00016,0.0,0.0
5.294,6198.118,0.00016,0.0,0.0
5.3,6191.285,0.00016,0.0,0.0
5.306,6158.605,0.00016,0.0,0.0
5.312,6161.549,0.00016,0.0,0.0
5.319,6143.137,0.00016,0.0,0.0
5.325,6121.242,0.00016,0.0,0.0
5.331,6109.668,0.00016,0.0,0.0
5.338,6088.447,0.00016,0.0,0.0
5.344,6114.636,0.00016,0.0,0.0
5.35,6080.895,0.00016,0.0,0.0
5.357,6093.904,0.00016,0.0,0.0
5.363,6084.864,0.00016,0.0,0.0
5.369,6062.976,0.00016,0.0,0.0
5.376,6052.52,0.00017,0.0,0.0
5.382,6071.977,0.00016,0.0,0.0
5.388,6046.96,0.00017,0.0,0.0
5.395,6075.964,0.00016,0.0,0.0
5.401,6033.4,0.00017,0.0,0.0
5.407,6049.082,0.00017,0.0,0.0
5.414,6036.321,0.00017,0.0,0.0
5.42,6037.032,0.00017,0.0,0.0
5.426,6039.872,0.00017,0.0,0.0
5.433,6010.981,0.00017,0.0,0.0
5.439,6017.785,0.00017,0.0,0.0
5.445,6008.7,0.00017,0.0,0.0
5.452,6006.195,0.00017,0.0,0.0
5.458,5956.311,0.00017,0.0,0.0
5.464,6013.512,0.00017,0.0,0.0
5.47,5958.114,0.00017,0.0,0.0
5.477,6006.424,0.00017,0.0,0.0
5.483,5973.402,0.00017,0.0,0.0
5.489,5971.525,0.00017,0.0,0.0
5.496,5970.257,0.00017,0.0,0.0
5.502,5960.488,0.00017,0.0,0.0
5.508,5988.504,0.00017,0.0,0.0
5.515,5981.545,0.00017,0.0,0.0
5.521,5952.996,0.00017,0.0,0.0
5.527,5947.69,0.00017,0.0,0.0
5.534,5963.14,0.00017,0.0,0.0
5.54,5929.309,0.00017,0.0,0.0
5.546,5985.385,0.00017,0.0,0.0
5.553,5934.51,0.00017,0.0,0.0
5.559,5945.088,0.00017,0.0,0.0
5.565,5931.167,0.00017,0.0,0.0
5.572,5931.692,0.00017,0.0,0.0
5.578,5943.108,0.00017,0.0,0.0
5.584,5941.889,0.00017,0.0,0.0
5.591,5935.15,0.00017,0.0,0.0
5.597,5939.844,0.00017,0.0,0.0
5.603,5953.946,0.00017,0.0,0.0
5.61,5943.549,0.00017,0.0,0.0
5.616,5966.182,0.00017,0.0,0.0
5.622,5951.927,0.00017,0.0,0.0
5.628,5975.605,0.00017,0.0,0.0
5.635,5958.733,0.00017,0.0,0.0
5.641,5964.617,0.00017,0.0,0.0
5.647,5946.168,0.00017,0.0,0.0
5.654,5957.259,0.00017,0.0,0.0
5.66,5937.964,0.00017,0.0,0.0
5.666,5988.427,0.00017,0.0,0.0
5.673,5927.602,0.00017,0.0,0.0
5.679,5978.636,0.00017,0.0,0.0
5.685,5956.589,0.00017,0.0,0.0
5.692,5970.041,0.00017,0.0,0.0
5.698,5983.999,0.00017,0.0,0.0
5.704,5988.863,0.00017,0.0,0.0
5.711,6016.425,0.00017,0.0,0.0
5.717,5997.42,0.00017,0.0,0.0
5.723,6030.622,0.00017,0.0,0.0
5.73,6011.466,0.00017,0.0,0.0
5.736,6040.941,0.00017,0.0,0.0
5.742,6021.007,0.00017,0.0,0.0
5.749,6078.796,0.00016,0.0,0.0
5.755,6032.463,0.00017,0.0,0.0
5.761,6080.622,0.00016,0.0,0.0
5.768,6089.455,0.00016,0.0,0.0
5.774,6086.041,0.00016,0.0,0.0
5.78,6139.928,0.00016,0.0,0.0
5.786,6088.356,0.00016,0.0,0.0
5.793,6158.359,0.00016,0.0,0.0
5.799,6133.242,0.00016,0.0,0.0
5.805,6164.355,0.00016,0.0,0.0
5.812,6166.208,0.00016,0.0,0.0
5.818,6198.297,0.00016,0.0,0.0
5.824,6199.518,0.00016,0.0,0.0
5.831,6263.507,0.00016,0.0,0.0
5.837,6222.448,0.00016,0.0,0.0
5.843,6307.384,0.00016,0.0,0.0
5.85,6289.729,0.00016,0.0,0.0
5.856,6386.661,0.00016,0.0,0.0
5.862,6422.741,0.00016,0.0,0.0
5.869,6489.529,0.00015,0.0,0.0
5.875,6538.204,0.00015,0.0,0.0
5.881,6499.168,0.00015,0.0,0.0
5.888,6478.143,0.00015,0.0,0.0
5.894,6399.744,0.00016,0.0,0.0
5.9,6324.482,0.00016,0.0,0.0
5.907,6222.045,0.00016,0.0,0.0
5.913,6209.847,0.00016,0.0,0.0
5.919,6082.383,0.00016,0.0,0.0
5.926,6100.685,0.00016,0.0,0.0
5.932,6021.752,0.00017,0.0,0.0
5.938,6048.959,0.00017,0.0,0.0
5.944,5982.557,0.00017,0.0,0.0
5.951,6035.112,0.00017,0.0,0.0
5.957,5964.79,0.00017,0.0,0.0
5.963,5969.385,0.00017,0.0,0.0
5.97,5945.234,0.00017,0.0,0.0
5.976,5899.802,0.00017,0.0,0.0
5.982,5913.372,0.00017,0.0,0.0
5.989,5899.957,0.00017,0.0,0.0
5.995,5925.567,0.00017,0.0,0.0
6.001,5870.16,0.00017,0.0,0.0
6.008,5882.254,0.00017,0.0,0.0
6.014,5845.796,0.00017,0.0,0.0
6.02,5879.453,0.00017,0.0,0.0
6.027,5803.693,0.00017,0.0,0.0
6.033,5883.324,0.00017,0.0,0.0
6.039,5815.847,0.00017,0.0,0.0
6.046,5859.041,0.00017,0.0,0.0
6.052,5823.212,0.00017,0.0,0.0
6.058,5807.742,0.00017,0.0,0.0
6.065,5836.118,0.00017,0.0,0.0
6.071,5803.26,0.00017,0.0,0.0
6.077,5872.029,0.00017,0.0,0.0
6.084,5781.686,0.00017,0.0,0.0
6.09,5834.876,0.00017,0.0,0.0
6.096,5758.102,0.00017,0.0,0.0
6.102,5862.976,0.00017,0.0,0.0
6.109,5743.139,0.00017,0.0,0.0
6.115,5877.97,0.00017,0.0,0.0
6.121,5783.72,0.00017,0.0,0.0
6.128,5891.867,0.00017,0.0,0.0
6.134,5822.197,0.00017,0.0,0.0
6.14,5844.088,0.00017,0.0,0.0
6.147,5821.848,0.00017,0.0,0.0
6.153,5843.878,0.00017,0.0,0.0
6.159,5896.829,0.00017,0.0,0.0
6.166,5855.217,0.00017,0.0,0.0
6.172,5925.159,0.00017,0.0,0.0
6.178,5831.781,0.00017,0.0,0.0
6.185,5960.153,0.00017,0.0,0.0
6.191,5840.298,0.00017,0.0,0.0
6.197,6041.821,0.00017,0.0,0.0
6.204,5870.09,0.00017,0.0,0.0
6.21,6028.077,0.00017,0.0,0.0
6.216,5891.73,0.00017,0.0,0.0
6.223,6086.683,0.00016,0.0,0.0
6.229,5951.774,0.00017,0.0,0.0
6.235,6066.053,0.00016,0.0,0.0
6.242,6106.594,0.00016,0.0,0.0
6.248,6033.997,0.00017,0.0,0.0
6.254,6177.962,0.00016,0.0,0.0
6.26,6008.714,0.00017,0.0,0.0
6.267,6215.071,0.00016,0.0,0.0
6.273,6011.355,0.00017,0.0,0.0
6.279,6308.232,0.00016,0.0,0.0
6.286,6089.689,0.00016,0.0,0.0
6.292,6317.181,0.00016,0.0,0.0
6.298,6137.412,0.00016,0.0,0.0
6.305,6390.615,0.00016,0.0,0.0
6.311,6122.574,0.00016,0.0,0.0
6.317,6414.182,0.00016,0.0,0.0
6.324,6322.686,0.00016,0.0,0.0
6.33,6447.415,0.00016,0.0,0.0
6.336,6412.203,0.00016,0.0,0.0
6.343,6450.319,0.00016,0.0,0.0
6.349,6562.432,0.00015,0.0,0.0
6.355,6581.473,0.00015,0.0,0.0
6.362,6701.098,0.00015,0.0,0.0
6.368,6722.513,0.00015,0.0,0.0
6.374,6844.233,0.00015,0.0,0.0
6.381,6955.808,0.00014,0.0,0.0
6.387,7225.144,0.00014,0.0,0.0
6.393,7226.004,0.00014,0.0,0.0
6.4,7740.104,0.00013,0.0,0.0
6.406,8674.914,0.00012,0.0,0.0
6.412,8538.227,0.00012,0.0,0.0
6.418,12001.173,0.00008,0.0,0.0
6.425,12712.311,0.00008,0.0,0.0
6.431,12282.374,0.00008,0.0,0.0
6.437,17640.782,0.00006,0.0,0.0
6.444,18725.607,0.00005,0.0,0.0
6.45,23138.943,0.00004,0.0,0.0
6.456,23113.551,0.00004,0.0,0.0
6.463,18073.449,0.00006,0.0,0.0
6.469,18456.247,0.00005,0.0,0.0
6.475,10362.467,0.0001,0.0,0.0
6.482,14379.921,0.00007,0.0,0.0
6.488,8566.222,0.00012,0.0,0.0
6.494,10272.101,0.0001,0.0,0.0
6.501,7659.314,0.00013,0.0,0.0
6.507,8627.731,0.00012,0.0,0.0
6.513,7649.906,0.00013,0.0,0.0
6.52,7771.779,0.00013,0.0,0.0
6.526,7683.311,0.00013,0.0,0.0
6.532,7808.124,0.00013,0.0,0.0
6.539,7977.887,0.00013,0.0,0.0
6.545,7936.025,0.00013,0.0,0.0
6.551,8561.103,0.00012,0.0,0.0
6.558,8798.678,0.00011,0.0,0.0
6.564,9858.637,0.0001,0.0,0.0
6.57,11184.964,0.00009,0.0,0.0
6.576,14418.702,0.00007,0.0,0.0
6.583,19897.676,0.00005,0.0,0.0
6.589,30567.161,0.00003,0.0,0.0
6.595,48087.265,0.00002,0.0,0.0
6.602,73298.763,0.00001,0.0,0.0
6.608,88992.496,0.00001,0.0,0.0
6.614,104570.805,0.00001,0.0,0.0
6.621,104704.609,0.00001,0.0,0.0
6.627,88384.19,0.00001,0.0,0.0
6.633,59937.928,0.00002,0.0,0.0
6.64,40743.066,0.00002,0.0,0.0
6.646,23317.711,0.00004,0.0,0.0
6.652,17378.146,0.00006,0.0,0.0
6.659,12818.445,0.00008,0.0,0.0
6.665,9854.427,0.0001,0.0,0.0
6.671,9044.907,0.00011,0.0,0.0
6.678,7964.575,0.00013,0.0,0.0
6.684,7424.453,0.00013,0.0,0.0
6.69,7206.006,0.00014,0.0,0.0
6.697,6854.868,0.00015,0.0,0.0
6.703,6750.191,0.00015,0.0,0.0
6.709,6508.7,0.00015,0.0,0.0
6.716,6514.483,0.00015,0.0,0.0
6.722,6310.77,0.00016,0.0,0.0
6.728,6330.169,0.00016,0.0,0.0
6.734,6216.635,0.00016,0.0,0.0
6.741,6251.997,0.00016,0.0,0.0
6.747,6111.376,0.00016,0.0,0.0
6.753,6184.98,0.00016,0.0,0.0
6.76,6081.911,0.00016,0.0,0.0
6.766,6059.079,0.00017,0.0,0.0
6.772,6048.888,0.00017,0.0,0.0
6.779,6006.749,0.00017,0.0,0.0
6.785,6031.077,0.00017,0.0,0.0
6.791,5949.0,0.00017,0.0,0.0
6.798,6035.894,0.00017,0.0,0.0
6.804,5908.657,0.00017,0.0,0.0
6.81,5968.494,0.00017,0.0,0.0
6.817,5890.647,0.00017,0.0,0.0
6.823,5985.777,0.00017,0.0,0.0
6.829,5855.555,0.00017,0.0,0.0
6.836,5935.021,0.00017,0.0,0.0
6.842,5855.6,0.00017,0.0,0.0
6.848,5928.017,0.00017,0.0,0.0
6.855,5863.213,0.00017,0.0,0.0
6.861,5870.979,0.00017,0.0,0.0
6.867,5864.428,0.00017,0.0,0.0
6.874,5826.386,0.00017,0.0,0.0
6.88,5863.681,0.00017,0.0,0.0
6.886,5820.23,0.00017,0.0,0.0
6.892,5851.522,0.00017,0.0,0.0
6.899,5803.356,0.00017,0.0,0.0
6.905,5858.304,0.00017,0.0,0.0
6.911,5809.841,0.00017,0.0,0.0
6.918,5863.938,0.00017,0.0,0.0
6.924,5801.66,0.00017,0.0,0.0
6.93,5846.178,0.00017,0.0,0.0
6.937,5834.235,0.00017,0.0,0.0
6.943,5837.177,0.00017,0.0,0.0
6.949,5835.494,0.00017,0.0,0.0
6.956,5836.466,0.00017,0.0,0.0
6.962,5861.296,0.00017,0.0,0.0
6.968,5843.376,0.00017,0.0,0.0
6.975,5861.164,0.00017,0.0,0.0
6.981,5851.413,0.00017,0.0,0.0
6.987,5898.492,0.00017,0.0,0.0
6.994,5849.685,0.00017,0.0,0.0
7.0,5890.591,0.00017,0.0,0.0
7.006,5856.888,0.00017,0.0,0.0
7.013,5928.571,0.00017,0.0,0.0
7.019,5886.014,0.00017,0.0,0.0
7.025,5936.009,0.00017,0.0,0.0
7.032,5925.455,0.00017,0.0,0.0
7.038,5932.531,0.00017,0.0,0.0
7.044,5934.506,0.00017,0.0,0.0
7.05,5942.05,0.00017,0.0,0.0
7.057,5971.125,0.00017,0.0,0.0
7.063,5961.972,0.00017,0.0,0.0
7.069,6003.383,0.00017,0.0,0.0
7.076,5998.77,0.00017,0.0,0.0
7.082,6015.1,0.00017,0.0,0.0
7.088,6002.35,0.00017,0.0,0.0
7.095,6043.902,0.00017,0.0,0.0
7.101,6020.229,0.00017,0.0,0.0
7.107,6052.964,0.00017,0.0,0.0
7.114,6072.049,0.00016,0.0,0.0
7.12,6048.73,0.00017,0.0,0.0
7.126,6060.209,0.00017,0.0,0.0
7.133,6053.526,0.00017,0.0,0.0
7.139,6071.98,0.00016,0.0,0.0
7.145,6062.444,0.00016,0.0,0.0
7.152,6099.2,0.00016,0.0,0.0
7.158,6067.429,0.00016,0.0,0.0
7.164,6083.452,0.00016,0.0,0.0
7.171,6045.43,0.00017,0.0,0.0
7.177,6076.249,0.00016,0.0,0.0
7.183,6054.339,0.00017,0.0,0.0
7.19,6064.116,0.00016,0.0,0.0
7.196,6045.214,0.00017,0.0,0.0
7.202,6046.494,0.00017,0.0,0.0
7.208,6021.78,0.00017,0.0,0.0
7.215,5998.994,0.00017,0.0,0.0
7.221,6006.079,0.00017,0.0,0.0
7.227,5991.966,0.00017,0.0,0.0
7.234,5986.334,0.00017,0.0,0.0
7.24,5978.951,0.00017,0.0,0.0
7.246,5976.001,0.00017,0.0,0.0
7.253,5942.415,0.00017,0.0,0.0
7.259,5952.882,0.00017,0.0,0.0
7.265,5924.892,0.00017,0.0,0.0
7.272,5941.94,0.00017,0.0,0.0
7.278,5887.641,0.00017,0.0,0.0
7.284,5913.852,0.00017,0.0,0.0
7.291,5883.317,0.00017,0.0,0.0
7.297,5885.507,0.00017,0.0,0.0
7.303,5845.951,0.00017,0.0,0.0
7.31,5849.107,0.00017,0.0,0.0
7.316,5844.173,0.00017,0.0,0.0
7.322,5834.123,0.00017,0.0,0.0
7.329,5828.007,0.00017,0.0,0.0
7.335,5818.704,0.00017,0.0,0.0
7.341,5809.154,0.00017,0.0,0.0
7.348,5787.486,0.00017,0.0,0.0
7.354,5769.564,0.00017,0.0,0.0
7.36,5760.978,0.00017,0.0,0.0
7.366,5759.316,0.00017,0.0,0.0
7.373,5766.103,0.00017,0.0,0.0
7.379,5743.66,0.00017,0.0,0.0
7.385,5728.642,0.00017,0.0,0.0
7.392,5732.58,0.00017,0.0,0.0
7.398,5714.196,0.00018,0.0,0.0
7.404,5728.724,0.00017,0.0,0.0
7.411,5736.923,0.00017,0.0,0.0
7.417,5732.963,0.00017,0.0,0.0
7.423,5719.346,0.00017,0.0,0.0
7.43,5710.023,0.00018,0.0,0.0
7.436,5721.947,0.00017,0.0,0.0
7.442,5724.934,0.00017,0.0,0.0
7.449,5746.538,0.00017,0.0,0.0
7.455,5742.374,0.00017,0.0,0.0
7.461,5747.015,0.00017,0.0,0.0
7.468,5741.211,0.00017,0.0,0.0
7.474,5776.068,0.00017,0.0,0.0
7.48,5774.165,0.00017,0.0,0.0
7.487,5775.674,0.00017,0.0,0.0
7.493,5802.327,0.00017,0.0,0.0
7.499,5804.488,0.00017,0.0,0.0
7.506,5837.35,0.00017,0.0,0.0
7.512,5853.104,0.00017,0.0,0.0
7.518,5851.285,0.00017,0.0,0.0
7.524,5892.09,0.00017,0.0,0.0
7.531,5918.183,0.00017,0.0,0.0
7.537,5979.849,0.00017,0.0,0.0
7.543,5997.939,0.00017,0.0,0.0
7.55,6061.709,0.00016,0.0,0.0
7.556,6130.571,0.00016,0.0,0.0
7.562,6245.659,0.00016,0.0,0.0
7.569,6392.223,0.00016,0.0,0.0
7.575,6546.169,0.00015,0.0,0.0
7.581,6958.03,0.00014,0.0,0.0
7.588,7269.681,0.00014,0.0,0.0
7.594,8299.053,0.00012,0.0,0.0
7.6,9785.454,0.0001,0.0,0.0
7.607,12679.839,0.00008,0.0,0.0
7.613,18009.156,0.00006,0.0,0.0
7.619,24731.29,0.00004,0.0,0.0
7.626,34505.488,0.00003,0.0,0.0
7.632,47242.218,0.00002,0.0,0.0
7.638,52966.17,0.00002,0.0,0.0
7.645,44885.579,0.00002,0.0,0.0
7.651,43308.682,0.00002,0.0,0.0
7.657,30545.134,0.00003,0.0,0.0
7.664,21424.777,0.00005,0.0,0.0
7.67,15396.134,0.00006,0.0,0.0
7.676,11013.932,0.00009,0.0,0.0
7.682,9046.851,0.00011,0.0,0.0
7.689,7968.307,0.00013,0.0,0.0
7.695,7243.345,0.00014,0.0,0.0
7.701,6899.67,0.00014,0.0,0.0
7.708,6612.701,0.00015,0.0,0.0
7.714,6478.172,0.00015,0.0,0.0
7.72,6409.145,0.00016,0.0,0.0
7.727,6328.693,0.00016,0.0,0.0
7.733,6283.923,0.00016,0.0,0.0
7.739,6233.007,0.00016,0.0,0.0
7.746,6276.815,0.00016,0.0,0.0
7.752,6278.491,0.00016,0.0,0.0
7.758,6272.299,0.00016,0.0,0.0
7.765,6254.48,0.00016,0.0,0.0
7.771,6282.718,0.00016,0.0,0.0
7.777,6288.409,0.00016,0.0,0.0
7.784,6322.592,0.00016,0.0,0.0
7.79,6388.276,0.00016,0.0,0.0
7.796,6380.724,0.00016,0.0,0.0
7.803,6437.969,0.00016,0.0,0.0
7.809,6442.003,0.00016,0.0,0.0
7.815,6559.365,0.00015,0.0,0.0
7.822,6592.473,0.00015,0.0,0.0
7.828,6640.537,0.00015,0.0,0.0
7.834,6700.368,0.00015,0.0,0.0
7.84,6791.176,0.00015,0.0,0.0
7.847,6981.688,0.00014,0.0,0.0
7.853,7094.007,0.00014,0.0,0.0
7.859,7325.767,0.00014,0.0,0.0
7.866,7469.228,0.00013,0.0,0.0
7.872,8328.358,0.00012,0.0,0.0
7.878,9434.26,0.00011,0.0,0.0
7.885,11691.059,0.00009,0.0,0.0
7.891,12695.546,0.00008,0.0,0.0
7.897,16284.845,0.00006,0.0,0.0
7.904,15495.096,0.00006,0.0,0.0
7.91,16450.395,0.00006,0.0,0.0
7.916,16610.49,0.00006,0.0,0.0
7.923,12178.381,0.00008,0.0,0.0
7.929,9455.016,0.00011,0.0,0.0
7.935,9373.311,0.00011,0.0,0.0
7.942,8266.448,0.00012,0.0,0.0
7.948,7561.076,0.00013,0.0,0.0
7.954,7287.242,0.00014,0.0,0.0
7.961,7086.453,0.00014,0.0,0.0
7.967,7111.484,0.00014,0.0,0.0
7.973,7001.082,0.00014,0.0,0.0
7.98,6930.15,0.00014,0.0,0.0
7.986,6830.92,0.00015,0.0,0.0
7.992,6829.003,0.00015,0.0,0.0
7.998,6824.346,0.00015,0.0,0.0
8.005,6842.951,0.00015,0.0,0.0
8.011,6786.212,0.00015,0.0,0.0
8.017,6773.641,0.00015,0.0,0.0
8.024,6788.113,0.00015,0.0,0.0
8.03,6776.691,0.00015,0.0,0.0
8.036,6776.767,0.00015,0.0,0.0
8.043,6728.011,0.00015,0.0,0.0
8.049,6737.253,0.00015,0.0,0.0
8.055,6735.055,0.00015,0.0,0.0
8.062,6726.005,0.00015,0.0,0.0
8.068,6718.172,0.00015,0.0,0.0
8.074,6694.324,0.00015,0.0,0.0
8.081,6665.408,0.00015,0.0,0.0
8.087,6743.872,0.00015,0.0,0.0
8.093,6726.106,0.00015,0.0,0.0
8.1,6719.676,0.00015,0.0,0.0
8.106,6682.993,0.00015,0.0,0.0
8.112,6696.17,0.00015,0.0,0.0
8.119,6769.084,0.00015,0.0,0.0
8.125,6758.621,0.00015,0.0,0.0
8.131,6791.669,0.00015,0.0,0.0
8.138,6769.526,0.00015,0.0,0.0
8.144,6765.161,0.00015,0.0,0.0
8.15,6735.97,0.00015,0.0,0.0
8.156,6754.074,0.00015,0.0,0.0
8.163,6706.261,0.00015,0.0,0.0
8.169,6662.037,0.00015,0.0,0.0
8.175,6646.963,0.00015,0.0,0.0
8.182,6602.127,0.00015,0.0,0.0
8.188,6642.915,0.00015,0.0,0.0
8.194,6546.953,0.00015,0.0,0.0
8.201,6593.383,0.00015,0.0,0.0
8.207,6558.435,0.00015,0.0,0.0
8.213,6551.129,0.00015,0.0,0.0
8.22,6537.379,0.00015,0.0,0.0
8.226,6512.687,0.00015,0.0,0.0
8.232,6495.047,0.00015,0.0,0.0
8.239,6462.305,0.00015,0.0,0.0
8.245,6447.823,0.00016,0.0,0.0
8.251,6433.398,0.00016,0.0,0.0
8.258,6430.196,0.00016,0.0,0.0
8.264,6376.32,0.00016,0.0,0.0
8.27,6381.004,0.00016,0.0,0.0
8.277,6346.946,0.00016,0.0,0.0
8.283,6355.886,0.00016,0.0,0.0
8.289,6312.281,0.00016,0.0,0.0
8.296,6291.696,0.00016,0.0,0.0
8.302,6279.819,0.00016,0.0,0.0
8.308,6283.656,0.00016,0.0,0.0
8.314,6210.888,0.00016,0.0,0.0
8.321,6233.921,0.00016,0.0,0.0
8.327,6198.011,0.00016,0.0,0.0
8.333,6190.088,0.00016,0.0,0.0
8.34,6196.946,0.00016,0.0,0.0
8.346,6166.829,0.00016,0.0,0.0
8.352,6172.858,0.00016,0.0,0.0
8.359,6132.38,0.00016,0.0,0.0
8.365,6156.568,0.00016,0.0,0.0
8.371,6099.498,0.00016,0.0,0.0
8.378,6088.388,0.00016,0.0,0.0
8.384,6076.66,0.00016,0.0,0.0
8.39,6060.752,0.00016,0.0,0.0
8.397,6040.571,0.00017,0.0,0.0
8.403,6037.775,0.00017,0.0,0.0
8.409,6018.055,0.00017,0.0,0.0
8.416,6001.164,0.00017,0.0,0.0
8.422,5992.961,0.00017,0.0,0.0
8.428,5965.798,0.00017,0.0,0.0
8.435,5985.032,0.00017,0.0,0.0
8.441,5949.426,0.00017,0.0,0.0
8.447,5954.435,0.00017,0.0,0.0
8.454,5913.695,0.00017,0.0,0.0
8.46,5933.349,0.00017,0.0,0.0
8.466,5914.726,0.00017,0.0,0.0
8.472,5897.636,0.00017,0.0,0.0
8.479,5883.755,0.00017,0.0,0.0
8.485,5872.997,0.00017,0.0,0.0
8.491,5853.519,0.00017,0.0,0.0
8.498,5855.168,0.00017,0.0,0.0
8.504,5851.362,0.00017,0.0,0.0
8.51,5834.83,0.00017,0.0,0.0
8.517,5846.223,0.00017,0.0,0.0
8.523,5809.209,0.00017,0.0,0.0
8.529,5818.519,0.00017,0.0,0.0
8.536,5820.214,0.00017,0.0,0.0
8.542,5774.096,0.00017,0.0,0.0
8.548,5791.786,0.00017,0.0,0.0
8.555,5775.598,0.00017,0.0,0.0
8.561,5767.234,0.00017,0.0,0.0
8.567,5772.342,0.00017,0.0,0.0
8.574,5748.424,0.00017,0.0,0.0
8.58,5730.799,0.00017,0.0,0.0
8.586,5739.318,0.00017,0.0,0.0
8.593,5710.653,0.00018,0.0,0.0
8.599,5732.437,0.00017,0.0,0.0
8.605,5723.563,0.00017,0.0,0.0
8.612,5709.965,0.00018,0.0,0.0
8.618,5720.498,0.00017,0.0,0.0
8.624,5708.837,0.00018,0.0,0.0
8.63,5685.954,0.00018,0.0,0.0
8.637,5666.843,0.00018,0.0,0.0
8.643,5682.708,0.00018,0.0,0.0
8.649,5674.825,0.00018,0.0,0.0
8.656,5670.306,0.00018,0.0,0.0
8.662,5663.916,0.00018,0.0,0.0
8.668,5677.313,0.00018,0.0,0.0
8.675,5648.297,0.00018,0.0,0.0
8.681,5662.139,0.00018,0.0,0.0
8.687,5660.089,0.00018,0.0,0.0
8.694,5650.377,0.00018,0.0,0.0
8.7,5643.146,0.00018,0.0,0.0
8.706,5643.846,0.00018,0.0,0.0
8.713,5633.939,0.00018,0.0,0.0
8.719,5630.217,0.00018,0.0,0.0
8.725,5609.682,0.00018,0.0,0.0
8.732,5625.612,0.00018,0.0,0.0
8.738,5605.776,0.00018,0.0,0.0
8.744,5614.143,0.00018,0.0,0.0
8.751,5616.281,0.00018,0.0,0.0
8.757,5608.719,0.00018,0.0,0.0
8.763,5602.192,0.00018,0.0,0.0
8.77,5600.771,0.00018,0.0,0.0
8.776,5601.142,0.00018,0.0,0.0
8.782,5605.738,0.00018,0.0,0.0
8.788,5581.441,0.00018,0.0,0.0
8.795,5570.38,0.00018,0.0,0.0
8.801,5596.916,0.00018,0.0,0.0
8.807,5580.106,0.00018,0.0,0.0
8.814,5572.256,0.00018,0.0,0.0
8.82,5581.089,0.00018,0.0,0.0
8.826,5566.625,0.00018,0.0,0.0
8.833,5574.982,0.00018,0.0,0.0
8.839,5566.351,0.00018,0.0,0.0
8.845,5580.285,0.00018,0.0,0.0
8.852,5553.796,0.00018,0.0,0.0
8.858,5564.949,0.00018,0.0,0.0
8.864,5561.204,0.00018,0.0,0.0
8.871,5562.985,0.00018,0.0,0.0
8.877,5540.429,0.00018,0.0,0.0
8.883,5553.846,0.00018,0.0,0.0
8.89,5556.998,0.00018,0.0,0.0
8.896,5544.671,0.00018,0.0,0.0
8.902,5546.408,0.00018,0.0,0.0
8.909,5538.474,0.00018,0.0,0.0
8.915,5560.808,0.00018,0.0,0.0
8.921,5542.866,0.00018,0.0,0.0
8.928,5551.382,0.00018,0.0,0.0
8.934,5549.268,0.00018,0.0,0.0
8.94,5548.719,0.00018,0.0,0.0
8.946,5541.779,0.00018,0.0,0.0
8.953,5547.646,0.00018,0.0,0.0
8.959,5553.115,0.00018,0.0,0.0
8.965,5548.649,0.00018,0.0,0.0
8.972,5553.238,0.00018,0.0,0.0
8.978,5558.132,0.00018,0.0,0.0
8.984,5561.135,0.00018,0.0,0.0
8.991,5577.185,0.00018,0.0,0.0
8.997,5576.248,0.00018,0.0,0.0
9.003,5578.523,0.00018,0.0,0.0
9.01,5586.191,0.00018,0.0,0.0
9.016,5591.343,0.00018,0.0,0.0
9.022,5610.103,0.00018,0.0,0.0
9.029,5595.396,0.00018,0.0,0.0
9.035,5618.034,0.00018,0.0,0.0
9.041,5629.343,0.00018,0.0,0.0
9.048,5644.47,0.00018,0.0,0.0
9.054,5665.05,0.00018,0.0,0.0
9.06,5659.525,0.00018,0.0,0.0
9.067,5697.655,0.00018,0.0,0.0
9.073,5721.195,0.00017,0.0,0.0
9.079,5768.81,0.00017,0.0,0.0
9.086,5815.089,0.00017,0.0,0.0
9.092,5924.686,0.00017,0.0,0.0
9.098,6094.344,0.00016,0.0,0.0
9.104,6435.682,0.00016,0.0,0.0
9.111,7170.07,0.00014,0.0,0.0
9.117,7441.065,0.00013,0.0,0.0
9.123,9881.048,0.0001,0.0,0.0
9.13,9508.876,0.00011,0.0,0.0
9.136,10189.256,0.0001,0.0,0.0
9.142,8760.619,0.00011,0.0,0.0
9.149,8359.019,0.00012,0.0,0.0
9.155,6832.216,0.00015,0.0,0.0
9.161,6637.803,0.00015,0.0,0.0
9.168,6112.535,0.00016,0.0,0.0
9.174,6004.782,0.00017,0.0,0.0
9.18,5903.962,0.00017,0.0,0.0
9.187,5869.637,0.00017,0.0,0.0
9.193,5871.389,0.00017,0.0,0.0
9.199,5819.091,0.00017,0.0,0.0
9.206,5807.174,0.00017,0.0,0.0
9.212,5785.545,0.00017,0.0,0.0
9.218,5782.948,0.00017,0.0,0.0
9.225,5765.611,0.00017,0.0,0.0
9.231,5760.807,0.00017,0.0,0.0
9.237,5762.247,0.00017,0.0,0.0
9.244,5749.33,0.00017,0.0,0.0
9.25,5730.369,0.00017,0.0,0.0
9.256,5730.943,0.00017,0.0,0.0
9.262,5726.104,0.00017,0.0,0.0
9.269,5691.15,0.00018,0.0,0.0
9.275,5714.129,0.00018,0.0,0.0
9.281,5715.602,0.00017,0.0,0.0
9.288,5696.895,0.00018,0.0,0.0
9.294,5667.425,0.00018,0.0,0.0
9.3,5657.21,0.00018,0.0,0.0
9.307,5673.672,0.00018,0.0,0.0
9.313,5651.542,0.00018,0.0,0.0
9.319,5625.624,0.00018,0.0,0.0
9.326,5623.311,0.00018,0.0,0.0
9.332,5599.12,0.00018,0.0,0.0
9.338,5598.061,0.00018,0.0,0.0
9.345,5575.354,0.00018,0.0,0.0
9.351,5554.958,0.00018,0.0,0.0
9.357,5524.431,0.00018,0.0,0.0
9.364,5524.163,0.00018,0.0,0.0
9.37,5516.715,0.00018,0.0,0.0
9.376,5486.628,0.00018,0.0,0.0
9.383,5475.614,0.00018,0.0,0.0
9.389,5448.229,0.00018,0.0,0.0
9.395,5447.201,0.00018,0.0,0.0
9.402,5426.428,0.00018,0.0,0.0
9.408,5406.69,0.00018,0.0,0.0
9.414,5381.557,0.00019,0.0,0.0
9.42,5373.589,0.00019,0.0,0.0
9.427,5358.093,0.00019,0.0,0.0
9.433,5339.497,0.00019,0.0,0.0
9.439,5324.176,0.00019,0.0,0.0
9.446,5316.145,0.00019,0.0,0.0
9.452,5302.958,0.00019,0.0,0.0
9.458,5287.426,0.00019,0.0,0.0
9.465,5297.405,0.00019,0.0,0.0
9.471,5264.309,0.00019,0.0,0.0
9.477,5283.792,0.00019,0.0,0.0
9.484,5242.309,0.00019,0.0,0.0
9.49,5232.06,0.00019,0.0,0.0
9.496,5226.758,0.00019,0.0,0.0
9.503,5209.62,0.00019,0.0,0.0
9.509,5203.914,0.00019,0.0,0.0
9.515,5182.758,0.00019,0.0,0.0
9.522,5175.566,0.00019,0.0,0.0
9.528,5170.843,0.00019,0.0,0.0
9.534,5151.959,0.00019,0.0,0.0
9.541,5127.69,0.0002,0.0,0.0
9.547,5122.945,0.0002,0.0,0.0
9.553,5119.951,0.0002,0.0,0.0
9.56,5095.599,0.0002,0.0,0.0
9.566,5111.775,0.0002,0.0,0.0
9.572,5091.145,0.0002,0.0,0.0
9.578,5097.308,0.0002,0.0,0.0
9.585,5066.212,0.0002,0.0,0.0
9.591,5079.337,0.0002,0.0,0.0
9.597,5070.751,0.0002,0.0,0.0
9.604,5055.452,0.0002,0.0,0.0
9.61,5044.81,0.0002,0.0,0.0
9.616,5048.997,0.0002,0.0,0.0
9.623,5032.512,0.0002,0.0,0.0
9.629,5029.676,0.0002,0.0,0.0
9.635,5024.528,0.0002,0.0,0.0
9.642,5018.649,0.0002,0.0,0.0
9.648,5028.266,0.0002,0.0,0.0
9.654,5015.556,0.0002,0.0,0.0
9.661,5016.919,0.0002,0.0,0.0
9.667,5008.379,0.0002,0.0,0.0
9.673,4997.049,0.0002,0.0,0.0
9.68,4997.076,0.0002,0.0,0.0
9.686,4985.253,0.0002,0.0,0.0
9.692,4983.718,0.0002,0.0,0.0
9.699,4994.591,0.0002,0.0,0.0
9.705,4982.892,0.0002,0.0,0.0
9.711,4982.467,0.0002,0.0,0.0
9.718,4964.03,0.0002,0.0,0.0
9.724,4959.059,0.0002,0.0,0.0
9.73,4976.165,0.0002,0.0,0.0
9.736,4950.8,0.0002,0.0,0.0
9.743,4971.784,0.0002,0.0,0.0
9.749,4967.506,0.0002,0.0,0.0
9.755,4957.775,0.0002,0.0,0.0
9.762,4959.995,0.0002,0.0,0.0
9.768,4948.558,0.0002,0.0,0.0
9.774,4963.889,0.0002,0.0,0.0
9.781,4969.501,0.0002,0.0,0.0
9.787,4958.059,0.0002,0.0,0.0
9.793,4959.378,0.0002,0.0,0.0
9.8,4966.714,0.0002,0.0,0.0
9.806,4953.379,0.0002,0.0,0.0
9.812,4973.359,0.0002,0.0,0.0
9.819,4959.87,0.0002,0.0,0.0
9.825,4979.156,0.0002,0.0,0.0
9.831,4970.121,0.0002,0.0,0.0
9.838,4974.944,0.0002,0.0,0.0
9.844,4972.882,0.0002,0.0,0.0
9.85,4971.476,0.0002,0.0,0.0
9.857,4985.433,0.0002,0.0,0.0
9.863,4974.741,0.0002,0.0,0.0
9.869,4973.747,0.0002,0.0,0.0
9.876,4975.067,0.0002,0.0,0.0
9.882,4992.584,0.0002,0.0,0.0
9.888,4988.86,0.0002,0.0,0.0
9.894,4985.106,0.0002,0.0,0.0
9.901,4980.326,0.0002,0.0,0.0
9.907,4992.329,0.0002,0.0,0.0
9.913,4995.481,0.0002,0.0,0.0
9.92,4971.433,0.0002,0.0,0.0
9.926,4995.217,0.0002,0.0,0.0
9.932,4989.508,0.0002,0.0,0.0
9.939,5001.824,0.0002,0.0,0.0
9.945,4993.028,0.0002,0.0,0.0
9.951,4964.727,0.0002,0.0,0.0
9.958,4998.936,0.0002,0.0,0.0
9.964,4985.931,0.0002,0.0,0.0
9.97,4989.381,0.0002,0.0,0.0
9.977,5012.512,0.0002,0.0,0.0
9.983,4998.505,0.0002,0.0,0.0
9.989,5001.056,0.0002,0.0,0.0
9.996,4987.529,0.0002,0.0,0.0
10.002,4982.153,0.0002,0.0,0.0
10.008,5015.985,0.0002,0.0,0.0
10.015,4992.907,0.0002,0.0,0.0
10.021,5008.465,0.0002,0.0,0.0
10.027,5025.342,0.0002,0.0,0.0
10.034,5016.243,0.0002,0.0,0.0
10.04,5018.044,0.0002,0.0,0.0
10.046,5004.818,0.0002,0.0,0.0
10.052,5028.142,0.0002,0.0,0.0
10.059,5039.783,0.0002,0.0,0.0
10.065,5006.365,0.0002,0.0,0.0
10.071,5026.245,0.0002,0.0,0.0
10.078,5043.608,0.0002,0.0,0.0
10.084,5027.7,0.0002,0.0,0.0
10.09,5050.174,0.0002,0.0,0.0
10.097,5037.546,0.0002,0.0,0.0
10.103,5052.33,0.0002,0.0,0.0
10.109,5054.046,0.0002,0.0,0.0
10.116,5057.23,0.0002,0.0,0.0
10.122,5056.306,0.0002,0.0,0.0
10.128,5047.618,0.0002,0.0,0.0
10.135,5044.098,0.0002,0.0,0.0
10.141,5069.347,0.0002,0.0,0.0
10.147,5075.091,0.0002,0.0,0.0
10.154,5098.627,0.0002,0.0,0.0
10.16,5113.614,0.0002,0.0,0.0
10.166,5119.187,0.0002,0.0,0.0
10.173,5192.96,0.00019,0.0,0.0
10.179,5273.584,0.00019,0.0,0.0
10.185,5422.961,0.00018,0.0,0.0
10.192,5925.631,0.00017,0.0,0.0
10.198,5959.718,0.00017,0.0,0.0
10.204,7206.375,0.00014,0.0,0.0
10.21,7449.618,0.00013,0.0,0.0
10.217,7544.0,0.00013,0.0,0.0
10.223,6818.764,0.00015,0.0,0.0
10.229,6289.634,0.00016,0.0,0.0
10.236,5794.636,0.00017,0.0,0.0
10.242,5485.9,0.00018,0.0,0.0
10.248,5216.784,0.00019,0.0,0.0
10.255,5092.535,0.0002,0.0,0.0
10.261,5075.027,0.0002,0.0,0.0
10.267,5005.347,0.0002,0.0,0.0
10.274,4991.848,0.0002,0.0,0.0
10.28,4947.038,0.0002,0.0,0.0
10.286,4979.115,0.0002,0.0,0.0
10.293,4944.645,0.0002,0.0,0.0
10.299,4941.923,0.0002,0.0,0.0
10.305,4926.98,0.0002,0.0,0.0
10.312,4909.114,0.0002,0.0,0.0
10.318,4899.472,0.0002,0.0,0.0
10.324,4880.335,0.0002,0.0,0.0
10.331,4908.0,0.0002,0.0,0.0
10.337,4890.417,0.0002,0.0,0.0
10.343,4883.634,0.0002,0.0,0.0
10.35,4884.22,0.0002,0.0,0.0
10.356,4881.078,0.0002,0.0,0.0
10.362,4850.041,0.00021,0.0,0.0
10.368,4848.37,0.00021,0.0,0.0
10.375,4829.799,0.00021,0.0,0.0
10.381,4847.204,0.00021,0.0,0.0
10.387,4835.339,0.00021,0.0,0.0
10.394,4830.182,0.00021,0.0,0.0
10.4,4836.77,0.00021,0.0,0.0
10.406,4812.122,0.00021,0.0,0.0
10.413,4803.813,0.00021,0.0,0.0
10.419,4782.37,0.00021,0.0,0.0
10.425,4819.03,0.00021,0.0,0.0
10.432,4789.769,0.00021,0.0,0.0
10.438,4802.24,0.00021,0.0,0.0
10.444,4788.417,0.00021,0.0,0.0
10.451,4786.312,0.00021,0.0,0.0
10.457,4789.764,0.00021,0.0,0.0
10.463,4781.983,0.00021,0.0,0.0
10.47,4786.344,0.00021,0.0,0.0
10.476,4773.927,0.00021,0.0,0.0
10.482,4786.974,0.00021,0.0,0.0
10.489,4767.472,0.00021,0.0,0.0
10.495,4811.546,0.00021,0.0,0.0
10.501,4767.928,0.00021,0.0,0.0
10.508,4754.949,0.00021,0.0,0.0
10.514,4769.478,0.00021,0.0,0.0
10.52,4765.619,0.00021,0.0,0.0
10.526,4775.752,0.00021,0.0,0.0
10.533,4770.892,0.00021,0.0,0.0
10.539,4772.123,0.00021,0.0,0.0
10.545,4759.115,0.00021,0.0,0.0
10.552,4782.188,0.00021,0.0,0.0
10.558,4738.511,0.00021,0.0,0.0
10.564,4781.263,0.00021,0.0,0.0
10.571,4763.004,0.00021,0.0,0.0
10.577,4758.264,0.00021,0.0,0.0
10.583,4763.497,0.00021,0.0,0.0
10.59,4740.317,0.00021,0.0,0.0
10.596,4765.725,0.00021,0.0,0.0
10.602,4767.21,0.00021,0.0,0.0
10.609,4765.623,0.00021,0.0,0.0
10.615,4762.816,0.00021,0.0,0.0
10.621,4775.61,0.00021,0.0,0.0
10.628,4742.248,0.00021,0.0,0.0
10.634,4770.704,0.00021,0.0,0.0
10.64,4772.521,0.00021,0.0,0.0
10.647,4779.208,0.00021,0.0,0.0
10.653,4772.768,0.00021,0.0,0.0
10.659,4786.401,0.00021,0.0,0.0
10.666,4801.972,0.00021,0.0,0.0
10.672,4781.788,0.00021,0.0,0.0
10.678,4804.109,0.00021,0.0,0.0
10.684,4820.415,0.00021,0.0,0.0
10.691,4822.129,0.00021,0.0,0.0
10.697,4836.867,0.00021,0.0,0.0
10.703,4834.283,0.00021,0.0,0.0
10.71,4868.775,0.00021,0.0,0.0
10.716,4858.841,0.00021,0.0,0.0
10.722,4924.166,0.0002,0.0,0.0
10.729,4940.636,0.0002,0.0,0.0
10.735,4973.619,0.0002,0.0,0.0
10.741,5051.367,0.0002,0.0,0.0
10.748,5126.106,0.0002,0.0,0.0
10.754,5262.654,0.00019,0.0,0.0
10.76,5451.794,0.00018,0.0,0.0
10.767,5773.683,0.00017,0.0,0.0
10.773,6549.776,0.00015,0.0,0.0
10.779,7328.769,0.00014,0.0,0.0
10.786,9274.377,0.00011,0.0,0.0
10.792,13556.505,0.00007,0.0,0.0
10.798,17210.077,0.00006,0.0,0.0
10.805,26281.389,0.00004,0.0,0.0
10.811,28935.444,0.00003,0.0,0.0
10.817,33747.004,0.00003,0.0,0.0
10.824,32810.036,0.00003,0.0,0.0
10.83,25544.608,0.00004,0.0,0.0
10.836,19465.455,0.00005,0.0,0.0
10.842,13861.78,0.00007,0.0,0.0
10.849,9806.952,0.0001,0.0,0.0
10.855,7867.252,0.00013,0.0,0.0
10.861,6553.506,0.00015,0.0,0.0
10.868,5978.512,0.00017,0.0,0.0
10.874,5595.692,0.00018,0.0,0.0
10.88,5350.461,0.00019,0.0,0.0
10.887,5222.143,0.00019,0.0,0.0
10.893,5111.284,0.0002,0.0,0.0
10.899,5038.357,0.0002,0.0,0.0
10.906,5024.934,0.0002,0.0,0.0
10.912,4987.928,0.0002,0.0,0.0
10.918,4954.864,0.0002,0.0,0.0
10.925,4932.172,0.0002,0.0,0.0
10.931,4910.706,0.0002,0.0,0.0
10.937,4910.559,0.0002,0.0,0.0
10.944,4894.561,0.0002,0.0,0.0
10.95,4868.997,0.00021,0.0,0.0
10.956,4865.184,0.00021,0.0,0.0
10.963,4856.387,0.00021,0.0,0.0
10.969,4845.431,0.00021,0.0,0.0
10.975,4826.617,0.00021,0.0,0.0
10.982,4830.226,0.00021,0.0,0.0
10.988,4801.105,0.00021,0.0,0.0
10.994,4787.663,0.00021,0.0,0.0
11.0,4796.747,0.00021,0.0,0.0
11.007,4787.195,0.00021,0.0,0.0
11.013,4779.496,0.00021,0.0,0.0
11.019,4759.765,0.00021,0.0,0.0
11.026,4758.078,0.00021,0.0,0.0
11.032,4757.48,0.00021,0.0,0.0
11.038,4749.452,0.00021,0.0,0.0
11.045,4735.698,0.00021,0.0,0.0
11.051,4731.295,0.00021,0.0,0.0
11.057,4733.426,0.00021,0.0,0.0
11.064,4717.129,0.00021,0.0,0.0
11.07,4725.131,0.00021,0.0,0.0
11.076,4699.969,0.00021,0.0,0.0
11.083,4698.207,0.00021,0.0,0.0
11.089,4684.686,0.00021,0.0,0.0
11.095,4691.068,0.00021,0.0,0.0
11.102,4695.294,0.00021,0.0,0.0
11.108,4684.265,0.00021,0.0,0.0
11.114,4686.742,0.00021,0.0,0.0
11.121,4660.933,0.00021,0.0,0.0
11.127,4665.945,0.00021,0.0,0.0
11.133,4652.098,0.00021,0.0,0.0
11.14,4643.556,0.00022,0.0,0.0
11.146,4645.679,0.00022,0.0,0.0
11.152,4643.078,0.00022,0.0,0.0
11.158,4647.283,0.00022,0.0,0.0
11.165,4636.757,0.00022,0.0,0.0
11.171,4651.342,0.00021,0.0,0.0
11.177,4635.696,0.00022,0.0,0.0
11.184,4637.482,0.00022,0.0,0.0
11.19,4627.899,0.00022,0.0,0.0
11.196,4617.064,0.00022,0.0,0.0
11.203,4623.167,0.00022,0.0,0.0
11.209,4616.904,0.00022,0.0,0.0
11.215,4620.457,0.00022,0.0,0.0
11.222,4611.35,0.00022,0.0,0.0
11.228,4600.606,0.00022,0.0,0.0
11.234,4594.496,0.00022,0.0,0.0
11.241,4597.051,0.00022,0.0,0.0
11.247,4594.496,0.00022,0.0,0.0
11.253,4596.204,0.00022,0.0,0.0
11.26,4585.496,0.00022,0.0,0.0
11.266,4588.15,0.00022,0.0,0.0
11.272,4588.783,0.00022,0.0,0.0
11.279,4583.0,0.00022,0.0,0.0
11.285,4581.721,0.00022,0.0,0.0
11.291,4578.392,0.00022,0.0,0.0
11.298,4560.621,0.00022,0.0,0.0
11.304,4575.037,0.00022,0.0,0.0
11.31,4578.991,0.00022,0.0,0.0
11.316,4569.105,0.00022,0.0,0.0
11.323,4567.415,0.00022,0.0,0.0
11.329,4551.79,0.00022,0.0,0.0
11.335,4569.108,0.00022,0.0,0.0
11.342,4569.997,0.00022,0.0,0.0
11.348,4554.63,0.00022,0.0,0.0
11.354,4588.822,0.00022,0.0,0.0
11.361,4571.013,0.00022,0.0,0.0
11.367,4570.831,0.00022,0.0,0.0
11.373,4562.782,0.00022,0.0,0.0
11.38,4566.652,0.00022,0.0,0.0
11.386,4572.425,0.00022,0.0,0.0
11.392,4558.725,0.00022,0.0,0.0
11.399,4568.259,0.00022,0.0,0.0
11.405,4564.485,0.00022,0.0,0.0
11.411,4556.503,0.00022,0.0,0.0
11.418,4563.261,0.00022,0.0,0.0
11.424,4563.051,0.00022,0.0,0.0
11.43,4572.701,0.00022,0.0,0.0
11.437,4565.819,0.00022,0.0,0.0
11.443,4565.096,0.00022,0.0,0.0
11.449,4568.523,0.00022,0.0,0.0
11.456,4561.28,0.00022,0.0,0.0
11.462,4576.679,0.00022,0.0,0.0
11.468,4570.256,0.00022,0.0,0.0
11.474,4564.731,0.00022,0.0,0.0
11.481,4579.845,0.00022,0.0,0.0
11.487,4561.884,0.00022,0.0,0.0
11.493,4577.967,0.00022,0.0,0.0
11.5,4589.337,0.00022,0.0,0.0
11.506,4598.172,0.00022,0.0,0.0
11.512,4600.25,0.00022,0.0,0.0
11.519,4594.148,0.00022,0.0,0.0
11.525,4606.785,0.00022,0.0,0.0
11.531,4607.997,0.00022,0.0,0.0
11.538,4591.56,0.00022,0.0,0.0
11.544,4603.493,0.00022,0.0,0.0
11.55,4605.45,0.00022,0.0,0.0
11.557,4611.158,0.00022,0.0,0.0
11.563,4617.278,0.00022,0.0,0.0
11.569,4602.233,0.00022,0.0,0.0
11.576,4617.7,0.00022,0.0,0.0
11.582,4619.139,0.00022,0.0,0.0
11.588,4619.46,0.00022,0.0,0.0
11.595,4629.903,0.00022,0.0,0.0
11.601,4625.135,0.00022,0.0,0.0
11.607,4640.128,0.00022,0.0,0.0
11.614,4644.359,0.00022,0.0,0.0
11.62,4642.624,0.00022,0.0,0.0
11.626,4651.637,0.00021,0.0,0.0
11.632,4650.457,0.00022,0.0,0.0
11.639,4653.042,0.00021,0.0,0.0
11.645,4671.959,0.00021,0.0,0.0
11.651,4658.678,0.00021,0.0,0.0
11.658,4666.917,0.00021,0.0,0.0
11.664,4679.15,0.00021,0.0,0.0
11.67,4681.078,0.00021,0.0,0.0
11.677,4684.26,0.00021,0.0,0.0
11.683,4671.99,0.00021,0.0,0.0
11.689,4692.802,0.00021,0.0,0.0
11.696,4682.199,0.00021,0.0,0.0
11.702,4693.781,0.00021,0.0,0.0
11.708,4696.903,0.00021,0.0,0.0
11.715,4680.678,0.00021,0.0,0.0
11.721,4685.312,0.00021,0.0,0.0
11.727,4698.397,0.00021,0.0,0.0
11.734,4695.735,0.00021,0.0,0.0
11.74,4707.015,0.00021,0.0,0.0
11.746,4692.214,0.00021,0.0,0.0
11.753,4695.72,0.00021,0.0,0.0
11.759,4705.175,0.00021,0.0,0.0
11.765,4685.364,0.00021,0.0,0.0
11.772,4693.354,0.00021,0.0,0.0
11.778,4688.486,0.00021,0.0,0.0
11.784,4682.582,0.00021,0.0,0.0
11.79,4699.762,0.00021,0.0,0.0
11.797,4679.17,0.00021,0.0,0.0
11.803,4693.64,0.00021,0.0,0.0
11.809,4689.068,0.00021,0.0,0.0
11.816,4680.789,0.00021,0.0,0.0
11.822,4676.899,0.00021,0.0,0.0
11.828,4661.41,0.00021,0.0,0.0
11.835,4673.716,0.00021,0.0,0.0
11.841,4681.42,0.00021,0.0,0.0
11.847,4672.072,0.00021,0.0,0.0
11.854,4667.536,0.00021,0.0,0.0
11.86,4675.791,0.00021,0.0,0.0
11.866,4673.818,0.00021,0.0,0.0
11.873,4660.196,0.00021,0.0,0.0
11.879,4648.922,0.00022,0.0,0.0
11.885,4672.12,0.00021,0.0,0.0
11.892,4657.928,0.00021,0.0,0.0
11.898,4670.582,0.00021,0.0,0.0
11.904,4665.564,0.00021,0.0,0.0
11.911,4656.051,0.00021,0.0,0.0
11.917,4669.683,0.00021,0.0,0.0
11.923,4668.13,0.00021,0.0,0.0
11.93,4656.643,0.00021,0.0,0.0
11.936,4656.858,0.00021,0.0,0.0
11.942,4664.961,0.00021,0.0,0.0
11.948,4658.69,0.00021,0.0,0.0
11.955,4634.648,0.00022,0.0,0.0
11.961,4651.253,0.00021,0.0,0.0
11.967,4658.637,0.00021,0.0,0.0
11.974,4661.847,0.00021,0.0,0.0
11.98,4674.116,0.00021,0.0,0.0
11.986,4693.385,0.00021,0.0,0.0
11.993,4677.231,0.00021,0.0,0.0
11.999,4692.484,0.00021,0.0,0.0
12.005,4685.407,0.00021,0.0,0.0
12.012,4721.382,0.00021,0.0,0.0
12.018,4705.181,0.00021,0.0,0.0
12.024,4728.321,0.00021,0.0,0.0
12.031,4738.154,0.00021,0.0,0.0
12.037,4745.33,0.00021,0.0,0.0
12.043,4791.466,0.00021,0.0,0.0
12.05,4796.258,0.00021,0.0,0.0
12.056,4933.712,0.0002,0.0,0.0
12.062,5007.335,0.0002,0.0,0.0
12.069,5167.087,0.00019,0.0,0.0
12.075,5801.834,0.00017,0.0,0.0
12.081,5691.726,0.00018,0.0,0.0
12.088,6671.792,0.00015,0.0,0.0
12.094,6227.152,0.00016,0.0,0.0
12.1,5728.992,0.00017,0.0,0.0
12.106,6025.099,0.00017,0.0,0.0
12.113,5301.678,0.00019,0.0,0.0
12.119,4954.357,0.0002,0.0,0.0
12.125,4874.466,0.00021,0.0,0.0
12.132,4716.634,0.00021,0.0,0.0
12.138,4709.758,0.00021,0.0,0.0
12.144,4664.219,0.00021,0.0,0.0
12.151,4629.525,0.00022,0.0,0.0
12.157,4626.503,0.00022,0.0,0.0
12.163,4582.031,0.00022,0.0,0.0
12.17,4593.757,0.00022,0.0,0.0
12.176,4569.783,0.00022,0.0,0.0
12.182,4560.251,0.00022,0.0,0.0
12.189,4534.174,0.00022,0.0,0.0
12.195,4523.329,0.00022,0.0,0.0
12.201,4522.987,0.00022,0.0,0.0
12.208,4509.944,0.00022,0.0,0.0
12.214,4489.555,0.00022,0.0,0.0
12.22,4488.931,0.00022,0.0,0.0
12.227,4477.659,0.00022,0.0,0.0
12.233,4465.631,0.00022,0.0,0.0
12.239,4479.695,0.00022,0.0,0.0
12.246,4439.4,0.00023,0.0,0.0
12.252,4452.355,0.00022,0.0,0.0
12.258,4442.584,0.00023,0.0,0.0
12.264,4427.947,0.00023,0.0,0.0
12.271,4432.715,0.00023,0.0,0.0
12.277,4421.102,0.00023,0.0,0.0
12.283,4423.801,0.00023,0.0,0.0
12.29,4410.487,0.00023,0.0,0.0
12.296,4400.983,0.00023,0.0,0.0
12.302,4401.557,0.00023,0.0,0.0
12.309,4376.911,0.00023,0.0,0.0
12.315,4378.351,0.00023,0.0,0.0
12.321,4383.456,0.00023,0.0,0.0
12.328,4365.366,0.00023,0.0,0.0
12.334,4370.608,0.00023,0.0,0.0
12.34,4365.614,0.00023,0.0,0.0
12.347,4365.041,0.00023,0.0,0.0
12.353,4358.242,0.00023,0.0,0.0
12.359,4341.921,0.00023,0.0,0.0
12.366,4349.729,0.00023,0.0,0.0
12.372,4337.582,0.00023,0.0,0.0
12.378,4339.058,0.00023,0.0,0.0
12.385,4339.48,0.00023,0.0,0.0
12.391,4322.126,0.00023,0.0,0.0
12.397,4326.938,0.00023,0.0,0.0
12.404,4320.98,0.00023,0.0,0.0
12.41,4332.343,0.00023,0.0,0.0
12.416,4319.46,0.00023,0.0,0.0
12.422,4302.924,0.00023,0.0,0.0
12.429,4311.353,0.00023,0.0,0.0
12.435,4310.797,0.00023,0.0,0.0
12.441,4307.964,0.00023,0.0,0.0
12.448,4316.943,0.00023,0.0,0.0
12.454,4306.499,0.00023,0.0,0.0
12.46,4305.316,0.00023,0.0,0.0
12.467,4309.511,0.00023,0.0,0.0
12.473,4304.798,0.00023,0.0,0.0
12.479,4295.752,0.00023,0.0,0.0
12.486,4298.897,0.00023,0.0,0.0
12.492,4303.058,0.00023,0.0,0.0
12.498,4308.983,0.00023,0.0,0.0
12.505,4299.786,0.00023,0.0,0.0
12.511,4304.664,0.00023,0.0,0.0
12.517,4316.293,0.00023,0.0,0.0
12.524,4299.641,0.00023,0.0,0.0
12.53,4323.598,0.00023,0.0,0.0
12.536,4303.326,0.00023,0.0,0.0
12.543,4309.337,0.00023,0.0,0.0
12.549,4315.607,0.00023,0.0,0.0
12.555,4322.245,0.00023,0.0,0.0
12.562,4327.16,0.00023,0.0,0.0
12.568,4342.039,0.00023,0.0,0.0
12.574,4352.266,0.00023,0.0,0.0
12.58,4366.72,0.00023,0.0,0.0
12.587,4370.596,0.00023,0.0,0.0
12.593,4409.143,0.00023,0.0,0.0
12.599,4409.685,0.00023,0.0,0.0
12.606,4468.948,0.00022,0.0,0.0
12.612,4528.2,0.00022,0.0,0.0
12.618,4599.486,0.00022,0.0,0.0
12.625,4714.471,0.00021,0.0,0.0
12.631,4924.224,0.0002,0.0,0.0
12.637,5180.865,0.00019,0.0,0.0
12.644,5722.983,0.00017,0.0,0.0
12.65,6624.957,0.00015,0.0,0.0
12.656,8126.133,0.00012,0.0,0.0
12.663,11215.878,0.00009,0.0,0.0
12.669,15830.157,0.00006,0.0,0.0
12.675,22606.878,0.00004,0.0,0.0
12.682,29446.881,0.00003,0.0,0.0
12.688,34635.589,0.00003,0.0,0.0
12.694,36087.703,0.00003,0.0,0.0
12.701,31711.733,0.00003,0.0,0.0
12.707,27803.224,0.00004,0.0,0.0
12.713,17153.337,0.00006,0.0,0.0
12.72,12763.688,0.00008,0.0,0.0
12.726,9254.691,0.00011,0.0,0.0
12.732,7073.79,0.00014,0.0,0.0
12.738,5996.305,0.00017,0.0,0.0
12.745,5298.601,0.00019,0.0,0.0
12.751,4922.562,0.0002,0.0,0.0
12.757,4722.472,0.00021,0.0,0.0
12.764,4564.172,0.00022,0.0,0.0
12.77,4462.073,0.00022,0.0,0.0
12.776,4400.499,0.00023,0.0,0.0
12.783,4349.496,0.00023,0.0,0.0
12.789,4306.851,0.00023,0.0,0.0
12.795,4279.918,0.00023,0.0,0.0
12.802,4260.856,0.00023,0.0,0.0
12.808,4234.4,0.00024,0.0,0.0
12.814,4220.483,0.00024,0.0,0.0
12.821,4213.803,0.00024,0.0,0.0
12.827,4193.746,0.00024,0.0,0.0
12.833,4181.591,0.00024,0.0,0.0
12.84,4192.617,0.00024,0.0,0.0
12.846,4156.59,0.00024,0.0,0.0
12.852,4168.929,0.00024,0.0,0.0
12.859,4153.757,0.00024,0.0,0.0
12.865,4153.878,0.00024,0.0,0.0
12.871,4149.872,0.00024,0.0,0.0
12.878,4142.895,0.00024,0.0,0.0
12.884,4144.143,0.00024,0.0,0.0
12.89,4158.783,0.00024,0.0,0.0
12.896,4154.532,0.00024,0.0,0.0
12.903,4180.01,0.00024,0.0,0.0
12.909,4260.889,0.00023,0.0,0.0
12.915,4333.077,0.00023,0.0,0.0
12.922,4588.188,0.00022,0.0,0.0
12.928,4636.094,0.00022,0.0,0.0
12.934,4804.861,0.00021,0.0,0.0
12.941,4476.458,0.00022,0.0,0.0
12.947,4542.06,0.00022,0.0,0.0
12.953,4198.339,0.00024,0.0,0.0
12.96,4175.04,0.00024,0.0,0.0
12.966,4151.787,0.00024,0.0,0.0
12.972,4124.923,0.00024,0.0,0.0
12.979,4099.404,0.00024,0.0,0.0
12.985,4073.304,0.00025,0.0,0.0
12.991,4071.19,0.00025,0.0,0.0
12.998,4074.729,0.00025,0.0,0.0
13.004,4063.797,0.00025,0.0,0.0
13.01,4064.656,0.00025,0.0,0.0
13.017,4053.275,0.00025,0.0,0.0
13.023,4053.668,0.00025,0.0,0.0
13.029,4066.148,0.00025,0.0,0.0
13.036,4052.581,0.00025,0.0,0.0
13.042,4059.553,0.00025,0.0,0.0
13.048,4048.265,0.00025,0.0,0.0
13.054,4052.052,0.00025,0.0,0.0
13.061,4034.221,0.00025,0.0,0.0
13.067,4045.872,0.00025,0.0,0.0
13.073,4030.378,0.00025,0.0,0.0
13.08,4038.587,0.00025,0.0,0.0
13.086,4030.932,0.00025,0.0,0.0
13.092,4034.953,0.00025,0.0,0.0
13.099,4030.033,0.00025,0.0,0.0
13.105,4030.31,0.00025,0.0,0.0
13.111,4029.677,0.00025,0.0,0.0
13.118,4031.18,0.00025,0.0,0.0
13.124,4034.602,0.00025,0.0,0.0
13.13,4021.269,0.00025,0.0,0.0
13.137,4020.909,0.00025,0.0,0.0
13.143,4034.528,0.00025,0.0,0.0
13.149,4033.722,0.00025,0.0,0.0
13.156,4034.697,0.00025,0.0,0.0
13.162,4036.159,0.00025,0.0,0.0
13.168,4042.146,0.00025,0.0,0.0
13.175,4042.397,0.00025,0.0,0.0
13.181,4055.37,0.00025,0.0,0.0
13.187,4080.81,0.00025,0.0,0.0
13.194,4100.815,0.00024,0.0,0.0
13.2,4145.859,0.00024,0.0,0.0
13.206,4212.932,0.00024,0.0,0.0
13.212,4348.562,0.00023,0.0,0.0
13.219,4606.542,0.00022,0.0,0.0
13.225,5022.603,0.0002,0.0,0.0
13.231,5817.739,0.00017,0.0,0.0
13.238,7039.65,0.00014,0.0,0.0
13.244,8877.274,0.00011,0.0,0.0
13.25,10567.281,0.00009,0.0,0.0
13.257,12244.59,0.00008,0.0,0.0
13.263,12429.703,0.00008,0.0,0.0
13.269,11058.462,0.00009,0.0,0.0
13.276,9528.418,0.0001,0.0,0.0
13.282,7319.284,0.00014,0.0,0.0
13.288,5922.759,0.00017,0.0,0.0
13.295,5103.025,0.0002,0.0,0.0
13.301,4557.917,0.00022,0.0,0.0
13.307,4317.771,0.00023,0.0,0.0
13.314,4156.638,0.00024,0.0,0.0
13.32,4070.335,0.00025,0.0,0.0
13.326,4021.459,0.00025,0.0,0.0
13.333,3981.821,0.00025,0.0,0.0
13.339,3964.697,0.00025,0.0,0.0
13.345,3931.817,0.00025,0.0,0.0
13.352,3923.67,0.00025,0.0,0.0
13.358,3914.017,0.00026,0.0,0.0
13.364,3908.108,0.00026,0.0,0.0
13.37,3885.34,0.00026,0.0,0.0
13.377,3887.816,0.00026,0.0,0.0
13.383,3891.262,0.00026,0.0,0.0
13.389,3876.593,0.00026,0.0,0.0
13.396,3898.858,0.00026,0.0,0.0
13.402,3868.683,0.00026,0.0,0.0
13.408,3865.843,0.00026,0.0,0.0
13.415,3861.098,0.00026,0.0,0.0
13.421,3859.135,0.00026,0.0,0.0
13.427,3858.835,0.00026,0.0,0.0
13.434,3856.427,0.00026,0.0,0.0
13.44,3860.479,0.00026,0.0,0.0
13.446,3847.982,0.00026,0.0,0.0
13.453,3842.046,0.00026,0.0,0.0
13.459,3832.548,0.00026,0.0,0.0
13.465,3848.069,0.00026,0.0,0.0
13.472,3833.207,0.00026,0.0,0.0
13.478,3817.528,0.00026,0.0,0.0
13.484,3826.786,0.00026,0.0,0.0
13.491,3829.637,0.00026,0.0,0.0
13.497,3829.898,0.00026,0.0,0.0
13.503,3817.725,0.00026,0.0,0.0
13.51,3829.363,0.00026,0.0,0.0
13.516,3816.888,0.00026,0.0,0.0
13.522,3803.128,0.00026,0.0,0.0
13.528,3813.509,0.00026,0.0,0.0
13.535,3820.52,0.00026,0.0,0.0
13.541,3814.761,0.00026,0.0,0.0
13.547,3805.095,0.00026,0.0,0.0
13.554,3816.161,0.00026,0.0,0.0
13.56,3806.807,0.00026,0.0,0.0
13.566,3811.368,0.00026,0.0,0.0
13.573,3808.152,0.00026,0.0,0.0
13.579,3816.076,0.00026,0.0,0.0
13.585,3809.399,0.00026,0.0,0.0
13.592,3788.758,0.00026,0.0,0.0
13.598,3797.927,0.00026,0.0,0.0
13.604,3800.263,0.00026,0.0,0.0
13.611,3806.504,0.00026,0.0,0.0
13.617,3806.781,0.00026,0.0,0.0
13.623,3799.181,0.00026,0.0,0.0
13.63,3818.214,0.00026,0.0,0.0
13.636,3802.021,0.00026,0.0,0.0
13.642,3811.468,0.00026,0.0,0.0
13.649,3816.876,0.00026,0.0,0.0
13.655,3828.728,0.00026,0.0,0.0
13.661,3844.2,0.00026,0.0,0.0
13.668,3867.499,0.00026,0.0,0.0
13.674,3950.931,0.00025,0.0,0.0
13.68,4068.324,0.00025,0.0,0.0
13.686,4472.197,0.00022,0.0,0.0
13.693,4092.128,0.00024,0.0,0.0
13.699,5058.357,0.0002,0.0,0.0
13.705,4959.909,0.0002,0.0,0.0
13.712,5260.961,0.00019,0.0,0.0
13.718,4491.463,0.00022,0.0,0.0
13.724,4409.751,0.00023,0.0,0.0
13.731,4084.4,0.00024,0.0,0.0
13.737,3979.224,0.00025,0.0,0.0
13.743,3909.863,0.00026,0.0,0.0
13.75,3829.732,0.00026,0.0,0.0
13.756,3829.042,0.00026,0.0,0.0
13.762,3804.122,0.00026,0.0,0.0
13.769,3790.2,0.00026,0.0,0.0
13.775,3767.91,0.00027,0.0,0.0
13.781,3760.212,0.00027,0.0,0.0
13.788,3757.748,0.00027,0.0,0.0
13.794,3754.773,0.00027,0.0,0.0
13.8,3749.889,0.00027,0.0,0.0
13.807,3745.277,0.00027,0.0,0.0
13.813,3737.216,0.00027,0.0,0.0
13.819,3725.917,0.00027,0.0,0.0
13.826,3715.777,0.00027,0.0,0.0
13.832,3726.686,0.00027,0.0,0.0
13.838,3711.353,0.00027,0.0,0.0
13.844,3706.094,0.00027,0.0,0.0
13.851,3712.117,0.00027,0.0,0.0
13.857,3691.811,0.00027,0.0,0.0
13.863,3693.794,0.00027,0.0,0.0
13.87,3681.274,0.00027,0.0,0.0
13.876,3690.448,0.00027,0.0,0.0
13.882,3671.64,0.00027,0.0,0.0
13.889,3685.605,0.00027,0.0,0.0
13.895,3679.732,0.00027,0.0,0.0
13.901,3669.696,0.00027,0.0,0.0
13.908,3680.82,0.00027,0.0,0.0
13.914,3666.465,0.00027,0.0,0.0
13.92,3672.844,0.00027,0.0,0.0
13.927,3657.761,0.00027,0.0,0.0
13.933,3664.843,0.00027,0.0,0.0
13.939,3647.241,0.00027,0.0,0.0
13.946,3651.067,0.00027,0.0,0.0
13.952,3635.961,0.00028,0.0,0.0
13.958,3634.611,0.00028,0.0,0.0
13.965,3647.632,0.00027,0.0,0.0
13.971,3628.976,0.00028,0.0,0.0
13.977,3640.705,0.00027,0.0,0.0
13.984,3628.236,0.00028,0.0,0.0
13.99,3617.862,0.00028,0.0,0.0
13.996,3613.249,0.00028,0.0,0.0
14.002,3632.355,0.00028,0.0,0.0
14.009,3625.922,0.00028,0.0,0.0
14.015,3613.41,0.00028,0.0,0.0
14.021,3611.445,0.00028,0.0,0.0
14.028,3595.904,0.00028,0.0,0.0
14.034,3602.521,0.00028,0.0,0.0
14.04,3599.659,0.00028,0.0,0.0
14.047,3604.125,0.00028,0.0,0.0
14.053,3603.813,0.00028,0.0,0.0
14.059,3595.911,0.00028,0.0,0.0
14.066,3604.879,0.00028,0.0,0.0
14.072,3582.802,0.00028,0.0,0.0
14.078,3580.575,0.00028,0.0,0.0
14.085,3582.092,0.00028,0.0,0.0
14.091,3571.979,0.00028,0.0,0.0
14.097,3581.397,0.00028,0.0,0.0
14.104,3559.231,0.00028,0.0,0.0
14.11,3567.138,0.00028,0.0,0.0
14.116,3547.033,0.00028,0.0,0.0
14.123,3545.884,0.00028,0.0,0.0
14.129,3549.009,0.00028,0.0,0.0
14.135,3557.52,0.00028,0.0,0.0
14.142,3559.183,0.00028,0.0,0.0
14.148,3559.753,0.00028,0.0,0.0
14.154,3551.04,0.00028,0.0,0.0
14.16,3553.67,0.00028,0.0,0.0
14.167,3561.177,0.00028,0.0,0.0
14.173,3555.994,0.00028,0.0,0.0
14.179,3549.218,0.00028,0.0,0.0
14.186,3543.809,0.00028,0.0,0.0
14.192,3549.779,0.00028,0.0,0.0
14.198,3545.148,0.00028,0.0,0.0
14.205,3543.584,0.00028,0.0,0.0
14.211,3535.45,0.00028,0.0,0.0
14.217,3540.49,0.00028,0.0,0.0
14.224,3533.272,0.00028,0.0,0.0
14.23,3535.953,0.00028,0.0,0.0
14.236,3540.613,0.00028,0.0,0.0
14.243,3537.616,0.00028,0.0,0.0
14.249,3532.736,0.00028,0.0,0.0
14.255,3529.348,0.00028,0.0,0.0
14.262,3530.503,0.00028,0.0,0.0
14.268,3540.709,0.00028,0.0,0.0
14.274,3529.56,0.00028,0.0,0.0
14.281,3530.974,0.00028,0.0,0.0
14.287,3511.587,0.00028,0.0,0.0
14.293,3526.661,0.00028,0.0,0.0
14.3,3528.325,0.00028,0.0,0.0
14.306,3521.265,0.00028,0.0,0.0
14.312,3521.89,0.00028,0.0,0.0
14.318,3523.749,0.00028,0.0,0.0
14.325,3520.126,0.00028,0.0,0.0
14.331,3506.819,0.00029,0.0,0.0
14.337,3508.57,0.00029,0.0,0.0
14.344,3518.149,0.00028,0.0,0.0
14.35,3520.191,0.00028,0.0,0.0
14.356,3507.937,0.00029,0.0,0.0
14.363,3511.921,0.00028,0.0,0.0
14.369,3509.281,0.00028,0.0,0.0
14.375,3504.546,0.00029,0.0,0.0
14.382,3515.037,0.00028,0.0,0.0
14.388,3497.357,0.00029,0.0,0.0
14.394,3504.119,0.00029,0.0,0.0
14.401,3500.299,0.00029,0.0,0.0
14.407,3501.667,0.00029,0.0,0.0
14.413,3501.518,0.00029,0.0,0.0
14.42,3495.99,0.00029,0.0,0.0
14.426,3501.3,0.00029,0.0,0.0
14.432,3513.223,0.00028,0.0,0.0
14.439,3526.741,0.00028,0.0,0.0
14.445,3529.919,0.00028,0.0,0.0
14.451,3532.455,0.00028,0.0,0.0
14.458,3544.135,0.00028,0.0,0.0
14.464,3523.506,0.00028,0.0,0.0
14.47,3557.219,0.00028,0.0,0.0
14.476,3525.855,0.00028,0.0,0.0
14.483,3523.272,0.00028,0.0,0.0
14.489,3553.973,0.00028,0.0,0.0
14.495,3493.116,0.00029,0.0,0.0
14.502,3467.488,0.00029,0.0,0.0
14.508,3465.524,0.00029,0.0,0.0
14.514,3458.628,0.00029,0.0,0.0
14.521,3458.735,0.00029,0.0,0.0
14.527,3446.399,0.00029,0.0,0.0
14.533,3441.112,0.00029,0.0,0.0
14.54,3456.161,0.00029,0.0,0.0
14.546,3442.549,0.00029,0.0,0.0
14.552,3450.617,0.00029,0.0,0.0
14.559,3441.959,0.00029,0.0,0.0
14.565,3442.461,0.00029,0.0,0.0
14.571,3439.158,0.00029,0.0,0.0
14.578,3437.711,0.00029,0.0,0.0
14.584,3427.047,0.00029,0.0,0.0
14.59,3419.095,0.00029,0.0,0.0
14.597,3420.172,0.00029,0.0,0.0
14.603,3420.458,0.00029,0.0,0.0
14.609,3422.252,0.00029,0.0,0.0
14.616,3418.449,0.00029,0.0,0.0
14.622,3412.286,0.00029,0.0,0.0
14.628,3408.185,0.00029,0.0,0.0
14.634,3418.967,0.00029,0.0,0.0
14.641,3404.327,0.00029,0.0,0.0
14.647,3408.557,0.00029,0.0,0.0
14.653,3403.862,0.00029,0.0,0.0
14.66,3393.473,0.00029,0.0,0.0
14.666,3403.945,0.00029,0.0,0.0
14.672,3391.715,0.00029,0.0,0.0
14.679,3386.982,0.0003,0.0,0.0
14.685,3391.848,0.00029,0.0,0.0
14.691,3378.487,0.0003,0.0,0.0
14.698,3381.553,0.0003,0.0,0.0
14.704,3384.263,0.0003,0.0,0.0
14.71,3376.955,0.0003,0.0,0.0
14.717,3385.943,0.0003,0.0,0.0
14.723,3381.914,0.0003,0.0,0.0
14.729,3378.874,0.0003,0.0,0.0
14.736,3368.346,0.0003,0.0,0.0
14.742,3373.405,0.0003,0.0,0.0
14.748,3378.492,0.0003,0.0,0.0
14.755,3374.1,0.0003,0.0,0.0
14.761,3362.29,0.0003,0.0,0.0
14.767,3372.166,0.0003,0.0,0.0
14.774,3362.564,0.0003,0.0,0.0
14.78,3355.875,0.0003,0.0,0.0
14.786,3369.449,0.0003,0.0,0.0
14.792,3368.843,0.0003,0.0,0.0
14.799,3367.607,0.0003,0.0,0.0
14.805,3361.129,0.0003,0.0,0.0
14.811,3364.042,0.0003,0.0,0.0
14.818,3359.905,0.0003,0.0,0.0
14.824,3352.253,0.0003,0.0,0.0
14.83,3356.766,0.0003,0.0,0.0
14.837,3358.495,0.0003,0.0,0.0
14.843,3364.025,0.0003,0.0,0.0
14.849,3354.638,0.0003,0.0,0.0
14.856,3355.012,0.0003,0.0,0.0
14.862,3362.339,0.0003,0.0,0.0
14.868,3351.49,0.0003,0.0,0.0
14.875,3350.492,0.0003,0.0,0.0
14.881,3361.952,0.0003,0.0,0.0
14.887,3353.585,0.0003,0.0,0.0
14.894,3353.643,0.0003,0.0,0.0
14.9,3343.596,0.0003,0.0,0.0
14.906,3352.521,0.0003,0.0,0.0
14.913,3348.163,0.0003,0.0,0.0
14.919,3360.534,0.0003,0.0,0.0
14.925,3350.632,0.0003,0.0,0.0
14.932,3351.62,0.0003,0.0,0.0
14.938,3351.481,0.0003,0.0,0.0
14.944,3333.099,0.0003,0.0,0.0
14.95,3352.051,0.0003,0.0,0.0
14.957,3338.359,0.0003,0.0,0.0
14.963,3339.247,0.0003,0.0,0.0
14.969,3342.751,0.0003,0.0,0.0
14.976,3332.618,0.0003,0.0,0.0
14.982,3343.441,0.0003,0.0,0.0
14.988,3333.325,0.0003,0.0,0.0
14.995,3336.301,0.0003,0.0,0.0
15.001,3324.829,0.0003,0.0,0.0
15.007,3339.634,0.0003,0.0,0.0
15.014,3336.664,0.0003,0.0,0.0
15.02,3313.782,0.0003,0.0,0.0
15.026,3341.264,0.0003,0.0,0.0
15.033,3318.158,0.0003,0.0,0.0
15.039,3319.161,0.0003,0.0,0.0
15.045,3319.954,0.0003,0.0,0.0
15.052,3329.749,0.0003,0.0,0.0
15.058,3325.004,0.0003,0.0,0.0
15.064,3324.435,0.0003,0.0,0.0
15.071,3319.437,0.0003,0.0,0.0
15.077,3317.916,0.0003,0.0,0.0
15.083,3328.199,0.0003,0.0,0.0
15.09,3304.039,0.0003,0.0,0.0
15.096,3308.642,0.0003,0.0,0.0
15.102,3302.426,0.0003,0.0,0.0
15.108,3303.699,0.0003,0.0,0.0
15.115,3315.6,0.0003,0.0,0.0
15.121,3310.571,0.0003,0.0,0.0
15.127,3311.374,0.0003,0.0,0.0
15.134,3301.06,0.0003,0.0,0.0
15.14,3303.793,0.0003,0.0,0.0
15.146,3315.025,0.0003,0.0,0.0
15.153,3311.521,0.0003,0.0,0.0
15.159,3308.058,0.0003,0.0,0.0
15.165,3353.419,0.0003,0.0,0.0
15.172,3343.109,0.0003,0.0,0.0
15.178,3335.511,0.0003,0.0,0.0
15.184,3343.674,0.0003,0.0,0.0
15.191,3322.795,0.0003,0.0,0.0
15.197,3307.266,0.0003,0.0,0.0
15.203,3301.92,0.0003,0.0,0.0
15.21,3305.436,0.0003,0.0,0.0
15.216,3294.383,0.0003,0.0,0.0
15.222,3290.267,0.0003,0.0,0.0
15.229,3304.157,0.0003,0.0,0.0
15.235,3297.253,0.0003,0.0,0.0
15.241,3318.604,0.0003,0.0,0.0
15.248,3316.903,0.0003,0.0,0.0
15.254,3343.142,0.0003,0.0,0.0
15.26,3346.163,0.0003,0.0,0.0
15.266,3385.941,0.0003,0.0,0.0
15.273,3457.543,0.00029,0.0,0.0
15.279,3541.188,0.00028,0.0,0.0
15.285,3713.382,0.00027,0.0,0.0
15.292,3991.44,0.00025,0.0,0.0
15.298,4399.398,0.00023,0.0,0.0
15.304,4831.331,0.00021,0.0,0.0
15.311,5375.393,0.00019,0.0,0.0
15.317,5675.933,0.00018,0.0,0.0
15.323,5570.465,0.00018,0.0,0.0
15.33,5501.634,0.00018,0.0,0.0
15.336,4874.827,0.00021,0.0,0.0
15.342,4503.041,0.00022,0.0,0.0
15.349,4077.063,0.00025,0.0,0.0
15.355,3746.735,0.00027,0.0,0.0
15.361,3559.303,0.00028,0.0,0.0
15.368,3443.191,0.00029,0.0,0.0
15.374,3390.384,0.00029,0.0,0.0
15.38,3360.609,0.0003,0.0,0.0
15.387,3318.094,0.0003,0.0,0.0
15.393,3307.832,0.0003,0.0,0.0
15.399,3303.359,0.0003,0.0,0.0
15.406,3286.51,0.0003,0.0,0.0
15.412,3282.659,0.0003,0.0,0.0
15.418,3286.332,0.0003,0.0,0.0
15.424,3276.255,0.00031,0.0,0.0
15.431,3280.597,0.0003,0.0,0.0
15.437,3279.395,0.0003,0.0,0.0
15.443,3268.421,0.00031,0.0,0.0
15.45,3274.662,0.00031,0.0,0.0
15.456,3270.872,0.00031,0.0,0.0
15.462,3276.409,0.00031,0.0,0.0
15.469,3276.797,0.00031,0.0,0.0
15.475,3280.853,0.0003,0.0,0.0
15.481,3269.841,0.00031,0.0,0.0
15.488,3278.371,0.00031,0.0,0.0
15.494,3277.732,0.00031,0.0,0.0
15.5,3270.037,0.00031,0.0,0.0
15.507,3280.074,0.0003,0.0,0.0
15.513,3277.727,0.00031,0.0,0.0
15.519,3284.901,0.0003,0.0,0.0
15.526,3264.131,0.00031,0.0,0.0
15.532,3268.421,0.00031,0.0,0.0
15.538,3274.922,0.00031,0.0,0.0
15.545,3265.824,0.00031,0.0,0.0
15.551,3261.971,0.00031,0.0,0.0
15.557,3262.449,0.00031,0.0,0.0
15.564,3261.629,0.00031,0.0,0.0
15.57,3263.693,0.00031,0.0,0.0
15.576,3257.746,0.00031,0.0,0.0
15.582,3263.571,0.00031,0.0,0.0
15.589,3243.986,0.00031,0.0,0.0
15.595,3253.468,0.00031,0.0,0.0
15.601,3236.117,0.00031,0.0,0.0
15.608,3236.06,0.00031,0.0,0.0
15.614,3236.949,0.00031,0.0,0.0
15.62,3225.11,0.00031,0.0,0.0
15.627,3240.244,0.00031,0.0,0.0
15.633,3232.079,0.00031,0.0,0.0
15.639,3232.506,0.00031,0.0,0.0
15.646,3228.711,0.00031,0.0,0.0
15.652,3221.702,0.00031,0.0,0.0
15.658,3222.782,0.00031,0.0,0.0
15.665,3215.001,0.00031,0.0,0.0
15.671,3208.307,0.00031,0.0,0.0
15.677,3205.289,0.00031,0.0,0.0
15.684,3208.013,0.00031,0.0,0.0
15.69,3202.278,0.00031,0.0,0.0
15.696,3189.777,0.00031,0.0,0.0
15.703,3193.623,0.00031,0.0,0.0
15.709,3180.945,0.00031,0.0,0.0
15.715,3191.61,0.00031,0.0,0.0
15.722,3191.942,0.00031,0.0,0.0
15.728,3177.001,0.00031,0.0,0.0
15.734,3177.208,0.00031,0.0,0.0
15.74,3175.805,0.00031,0.0,0.0
15.747,3180.172,0.00031,0.0,0.0
15.753,3181.018,0.00031,0.0,0.0
15.759,3170.878,0.00032,0.0,0.0
15.766,3172.554,0.00032,0.0,0.0
15.772,3165.313,0.00032,0.0,0.0
15.778,3160.335,0.00032,0.0,0.0
15.785,3159.797,0.00032,0.0,0.0
15.791,3157.691,0.00032,0.0,0.0
15.797,3163.41,0.00032,0.0,0.0
15.804,3146.735,0.00032,0.0,0.0
15.81,3150.466,0.00032,0.0,0.0
15.816,3143.573,0.00032,0.0,0.0
15.823,3159.412,0.00032,0.0,0.0
15.829,3152.272,0.00032,0.0,0.0
15.835,3136.873,0.00032,0.0,0.0
15.842,3142.206,0.00032,0.0,0.0
15.848,3141.293,0.00032,0.0,0.0
15.854,3151.473,0.00032,0.0,0.0
15.861,3154.473,0.00032,0.0,0.0
15.867,3129.158,0.00032,0.0,0.0
15.873,3144.252,0.00032,0.0,0.0
15.88,3129.588,0.00032,0.0,0.0
15.886,3138.433,0.00032,0.0,0.0
15.892,3114.382,0.00032,0.0,0.0
15.898,3127.238,0.00032,0.0,0.0
15.905,3118.906,0.00032,0.0,0.0
15.911,3117.314,0.00032,0.0,0.0
15.917,3113.364,0.00032,0.0,0.0
15.924,3113.064,0.00032,0.0,0.0
15.93,3111.978,0.00032,0.0,0.0
15.936,3124.569,0.00032,0.0,0.0
15.943,3117.297,0.00032,0.0,0.0
15.949,3110.445,0.00032,0.0,0.0
15.955,3113.663,0.00032,0.0,0.0
15.962,3108.65,0.00032,0.0,0.0
15.968,3106.116,0.00032,0.0,0.0
15.974,3106.745,0.00032,0.0,0.0
15.981,3109.691,0.00032,0.0,0.0
15.987,3099.529,0.00032,0.0,0.0
15.993,3098.971,0.00032,0.0,0.0
16.0,3108.309,0.00032,0.0,0.0
16.006,3110.747,0.00032,0.0,0.0
16.012,3106.096,0.00032,0.0,0.0
16.019,3104.998,0.00032,0.0,0.0
16.025,3101.729,0.00032,0.0,0.0
16.031,3099.934,0.00032,0.0,0.0
16.038,3084.323,0.00032,0.0,0.0
16.044,3099.916,0.00032,0.0,0.0
16.05,3105.064,0.00032,0.0,0.0
16.056,3090.923,0.00032,0.0,0.0
16.063,3091.245,0.00032,0.0,0.0
16.069,3091.35,0.00032,0.0,0.0
16.075,3078.358,0.00032,0.0,0.0
16.082,3086.011,0.00032,0.0,0.0
16.088,3092.206,0.00032,0.0,0.0
16.094,3095.503,0.00032,0.0,0.0
16.101,3093.832,0.00032,0.0,0.0
16.107,3091.222,0.00032,0.0,0.0
16.113,3089.156,0.00032,0.0,0.0
16.12,3086.551,0.00032,0.0,0.0
16.126,3083.343,0.00032,0.0,0.0
16.132,3086.487,0.00032,0.0,0.0
16.139,3084.457,0.00032,0.0,0.0
16.145,3085.442,0.00032,0.0,0.0
16.151,3084.033,0.00032,0.0,0.0
16.158,3074.594,0.00033,0.0,0.0
16.164,3083.432,0.00032,0.0,0.0
16.17,3081.852,0.00032,0.0,0.0
16.177,3083.764,0.00032,0.0,0.0
16.183,3070.702,0.00033,0.0,0.0
16.189,3074.123,0.00033,0.0,0.0
16.196,3071.281,0.00033,0.0,0.0
16.202,3081.199,0.00032,0.0,0.0
16.208,3083.406,0.00032,0.0,0.0
16.214,3083.303,0.00032,0.0,0.0
16.221,3076.062,0.00033,0.0,0.0
16.227,3074.71,0.00033,0.0,0.0
16.233,3082.601,0.00032,0.0,0.0
16.24,3071.73,0.00033,0.0,0.0
16.246,3079.791,0.00032,0.0,0.0
16.252,3082.045,0.00032,0.0,0.0
16.259,3072.203,0.00033,0.0,0.0
16.265,3077.109,0.00032,0.0,0.0
16.271,3073.743,0.00033,0.0,0.0
16.278,3065.943,0.00033,0.0,0.0
16.284,3066.428,0.00033,0.0,0.0
16.29,3062.816,0.00033,0.0,0.0
16.297,3080.408,0.00032,0.0,0.0
16.303,3071.763,0.00033,0.0,0.0
16.309,3076.457,0.00033,0.0,0.0
16.316,3069.734,0.00033,0.0,0.0
16.322,3072.213,0.00033,0.0,0.0
16.328,3082.408,0.00032,0.0,0.0
16.335,3073.012,0.00033,0.0,0.0
16.341,3066.091,0.00033,0.0,0.0
16.347,3071.558,0.00033,0.0,0.0
16.354,3080.416,0.00032,0.0,0.0
16.36,3067.349,0.00033,0.0,0.0
16.366,3069.115,0.00033,0.0,0.0
16.372,3067.555,0.00033,0.0,0.0
16.379,3062.222,0.00033,0.0,0.0
16.385,3071.013,0.00033,0.0,0.0
16.391,3069.824,0.00033,0.0,0.0
16.398,3076.752,0.00033,0.0,0.0
16.404,3068.42,0.00033,0.0,0.0
16.41,3068.914,0.00033,0.0,0.0
16.417,3076.693,0.00033,0.0,0.0
16.423,3066.957,0.00033,0.0,0.0
16.429,3072.379,0.00033,0.0,0.0
16.436,3067.071,0.00033,0.0,0.0
16.442,3077.386,0.00032,0.0,0.0
16.448,3073.491,0.00033,0.0,0.0
16.455,3077.835,0.00032,0.0,0.0
16.461,3080.551,0.00032,0.0,0.0
16.467,3105.868,0.00032,0.0,0.0
16.474,3095.166,0.00032,0.0,0.0
16.48,3147.805,0.00032,0.0,0.0
16.486,3237.557,0.00031,0.0,0.0
16.493,3125.228,0.00032,0.0,0.0
16.499,3198.068,0.00031,0.0,0.0
16.505,3143.531,0.00032,0.0,0.0
16.512,3166.324,0.00032,0.0,0.0
16.518,3125.241,0.00032,0.0,0.0
16.524,3120.266,0.00032,0.0,0.0
16.53,3147.87,0.00032,0.0,0.0
16.537,3108.365,0.00032,0.0,0.0
16.543,3107.316,0.00032,0.0,0.0
16.549,3095.467,0.00032,0.0,0.0
16.556,3104.686,0.00032,0.0,0.0
16.562,3085.654,0.00032,0.0,0.0
16.568,3097.364,0.00032,0.0,0.0
16.575,3098.055,0.00032,0.0,0.0
16.581,3086.364,0.00032,0.0,0.0
16.587,3103.52,0.00032,0.0,0.0
16.594,3101.853,0.00032,0.0,0.0
