"x","y_obs","weight","y_calc","y_bkg"
0.8,2842.951,0.00035,0.0,0.0
0.806,3303.821,0.0003,0.0,0.0
0.813,3436.734,0.00029,0.0,0.0
0.819,3314.461,0.0003,0.0,0.0
0.825,3971.241,0.00025,0.0,0.0
0.832,3767.743,0.00027,0.0,0.0
0.838,4094.766,0.00024,0.0,0.0
0.844,4473.884,0.00022,0.0,0.0
0.851,4284.617,0.00023,0.0,0.0
0.857,4843.892,0.00021,0.0,0.0
0.863,5235.311,0.00019,0.0,0.0
0.87,4763.685,0.00021,0.0,0.0
0.876,5764.595,0.00017,0.0,0.0
0.882,5615.174,0.00018,0.0,0.0
0.888,5887.209,0.00017,0.0,0.0
0.895,6154.983,0.00016,0.0,0.0
0.901,6159.601,0.00016,0.0,0.0
0.907,6724.784,0.00015,0.0,0.0
0.914,6869.454,0.00015,0.0,0.0
0.92,6523.913,0.00015,0.0,0.0
0.926,7279.167,0.00014,0.0,0.0
0.933,7338.015,0.00014,0.0,0.0
0.939,7096.402,0.00014,0.0,0.0
0.945,7776.439,0.00013,0.0,0.0
0.952,7321.643,0.00014,0.0,0.0
0.958,7801.858,0.00013,0.0,0.0
0.964,7821.679,0.00013,0.0,0.0
0.971,7553.168,0.00013,0.0,0.0
0.977,8130.99,0.00012,0.0,0.0
0.983,8032.159,0.00012,0.0,0.0
0.99,7861.788,0.00013,0.0,0.0
0.996,8248.987,0.00012,0.0,0.0
1.002,7963.11,0.00013,0.0,0.0
1.009,8143.324,0.00012,0.0,0.0
1.015,8273.161,0.00012,0.0,0.0
1.021,8044.322,0.00012,0.0,0.0
1.028,8318.296,0.00012,0.0,0.0
1.034,8205.666,0.00012,0.0,0.0
1.04,8125.452,0.00012,0.0,0.0
1.046,8216.787,0.00012,0.0,0.0
1.053,8235.5,0.00012,0.0,0.0
1.059,8144.963,0.00012,0.0,0.0
1.065,8208.212,0.00012,0.0,0.0
1.072,7981.831,0.00013,0.0,0.0
1.078,8121.049,0.00012,0.0,0.0
1.084,8028.352,0.00012,0.0,0.0
1.091,8044.01,0.00012,0.0,0.0
1.097,8038.31,0.00012,0.0,0.0
1.103,7988.564,0.00013,0.0,0.0
1.11,7914.838,0.00013,0.0,0.0
1.116,7932.058,0.00013,0.0,0.0
1.122,7803.968,0.00013,0.0,0.0
1.129,7835.027,0.00013,0.0,0.0
1.135,7779.685,0.00013,0.0,0.0
1.141,7716.629,0.00013,0.0,0.0
1.148,7690.525,0.00013,0.0,0.0
1.154,7567.951,0.00013,0.0,0.0
1.16,7562.029,0.00013,0.0,0.0
1.167,7501.057,0.00013,0.0,0.0
1.173,7483.867,0.00013,0.0,0.0
1.179,7375.241,0.00014,0.0,0.0
1.186,7327.155,0.00014,0.0,0.0
1.192,7279.187,0.00014,0.0,0.0
1.198,7246.743,0.00014,0.0,0.0
1.204,7152.05,0.00014,0.0,0.0
1.211,7154.79,0.00014,0.0,0.0
1.217,7111.041,0.00014,0.0,0.0
1.223,7064.466,0.00014,0.0,0.0
1.23,7021.362,0.00014,0.0,0.0
1.236,6953.62,0.00014,0.0,0.0
1.242,6932.641,0.00014,0.0,0.0
1.249,6918.567,0.00014,0.0,0.0
1.255,6866.801,0.00015,0.0,0.0
1.261,6848.837,0.00015,0.0,0.0
1.268,6814.362,0.00015,0.0,0.0
1.274,6734.766,0.00015,0.0,0.0
1.28,6721.461,0.00015,0.0,0.0
1.287,6705.109,0.00015,0.0,0.0
1.293,6664.473,0.00015,0.0,0.0
1.299,6640.606,0.00015,0.0,0.0
1.306,6584.867,0.00015,0.0,0.0
1.312,6559.522,0.00015,0.0,0.0
1.318,6568.961,0.00015,0.0,0.0
1.325,6538.734,0.00015,0.0,0.0
1.331,6547.594,0.00015,0.0,0.0
1.337,6493.707,0.00015,0.0,0.0
1.344,6456.038,0.00015,0.0,0.0
1.35,6463.515,0.00015,0.0,0.0
1.356,6429.683,0.00016,0.0,0.0
1.362,6421.476,0.00016,0.0,0.0
1.369,6427.573,0.00016,0.0,0.0
1.375,6390.937,0.00016,0.0,0.0
1.381,6380.139,0.00016,0.0,0.0
1.388,6396.446,0.00016,0.0,0.0
1.394,6326.32,0.00016,0.0,0.0
1.4,6356.273,0.00016,0.0,0.0
1.407,6314.735,0.00016,0.0,0.0
1.413,6334.398,0.00016,0.0,0.0
1.419,6317.237,0.00016,0.0,0.0
1.426,6303.401,0.00016,0.0,0.0
1.432,6289.36,0.00016,0.0,0.0
1.438,6305.975,0.00016,0.0,0.0
1.445,6286.393,0.00016,0.0,0.0
1.451,6295.058,0.00016,0.0,0.0
1.457,6300.962,0.00016,0.0,0.0
1.464,6252.377,0.00016,0.0,0.0
1.47,6280.735,0.00016,0.0,0.0
1.476,6245.206,0.00016,0.0,0.0
1.483,6329.227,0.00016,0.0,0.0
1.489,6238.744,0.00016,0.0,0.0
1.495,6271.354,0.00016,0.0,0.0
1.502,6260.545,0.00016,0.0,0.0
1.508,6206.58,0.00016,0.0,0.0
1.514,6271.744,0.00016,0.0,0.0
1.52,6289.675,0.00016,0.0,0.0
1.527,6281.185,0.00016,0.0,0.0
1.533,6304.704,0.00016,0.0,0.0
1.539,6278.893,0.00016,0.0,0.0
1.546,6265.454,0.00016,0.0,0.0
1.552,6309.838,0.00016,0.0,0.0
1.558,6320.532,0.00016,0.0,0.0
1.565,6325.148,0.00016,0.0,0.0
1.571,6322.898,0.00016,0.0,0.0
1.577,6308.454,0.00016,0.0,0.0
1.584,6352.816,0.00016,0.0,0.0
1.59,6330.785,0.00016,0.0,0.0
1.596,6346.837,0.00016,0.0,0.0
1.603,6386.486,0.00016,0.0,0.0
1.609,6400.465,0.00016,0.0,0.0
1.615,6411.425,0.00016,0.0,0.0
1.622,6450.444,0.00016,0.0,0.0
1.628,6438.83,0.00016,0.0,0.0
1.634,6460.846,0.00015,0.0,0.0
1.641,6473.966,0.00015,0.0,0.0
1.647,6479.079,0.00015,0.0,0.0
1.653,6531.857,0.00015,0.0,0.0
1.66,6482.822,0.00015,0.0,0.0
1.666,6532.079,0.00015,0.0,0.0
1.672,6612.591,0.00015,0.0,0.0
1.678,6553.376,0.00015,0.0,0.0
1.685,6588.025,0.00015,0.0,0.0
1.691,6584.949,0.00015,0.0,0.0
1.697,6616.66,0.00015,0.0,0.0
1.704,6637.451,0.00015,0.0,0.0
1.71,6648.148,0.00015,0.0,0.0
1.716,6649.977,0.00015,0.0,0.0
1.723,6697.635,0.00015,0.0,0.0
1.729,6656.598,0.00015,0.0,0.0
1.735,6723.089,0.00015,0.0,0.0
1.742,6711.925,0.00015,0.0,0.0
1.748,6681.16,0.00015,0.0,0.0
1.754,6716.544,0.00015,0.0,0.0
1.761,6759.484,0.00015,0.0,0.0
1.767,6796.273,0.00015,0.0,0.0
1.773,6836.322,0.00015,0.0,0.0
1.78,6767.69,0.00015,0.0,0.0
1.786,6793.058,0.00015,0.0,0.0
1.792,6787.267,0.00015,0.0,0.0
1.799,6819.431,0.00015,0.0,0.0
1.805,6827.798,0.00015,0.0,0.0
1.811,6846.491,0.00015,0.0,0.0
1.818,6846.488,0.00015,0.0,0.0
1.824,6866.592,0.00015,0.0,0.0
1.83,6830.759,0.00015,0.0,0.0
1.836,6824.842,0.00015,0.0,0.0
1.843,6863.687,0.00015,0.0,0.0
1.849,6840.43,0.00015,0.0,0.0
1.855,6840.535,0.00015,0.0,0.0
1.862,6848.15,0.00015,0.0,0.0
1.868,6875.887,0.00015,0.0,0.0
1.874,6881.387,0.00015,0.0,0.0
1.881,6897.468,0.00014,0.0,0.0
1.887,6880.599,0.00015,0.0,0.0
1.893,6860.362,0.00015,0.0,0.0
1.9,6861.303,0.00015,0.0,0.0
1.906,6867.499,0.00015,0.0,0.0
1.912,6922.487,0.00014,0.0,0.0
1.919,6863.755,0.00015,0.0,0.0
1.925,6901.657,0.00014,0.0,0.0
1.931,6870.442,0.00015,0.0,0.0
1.938,6910.692,0.00014,0.0,0.0
1.944,6877.709,0.00015,0.0,0.0
1.95,6876.084,0.00015,0.0,0.0
1.957,6904.71,0.00014,0.0,0.0
1.963,6865.361,0.00015,0.0,0.0
1.969,6879.446,0.00015,0.0,0.0
1.976,6922.554,0.00014,0.0,0.0
1.982,6913.527,0.00014,0.0,0.0
1.988,6882.634,0.00015,0.0,0.0
1.994,6904.506,0.00014,0.0,0.0
2.001,6911.837,0.00014,0.0,0.0
2.007,6932.836,0.00014,0.0,0.0
2.013,6953.628,0.00014,0.0,0.0
2.02,6908.781,0.00014,0.0,0.0
2.026,6951.216,0.00014,0.0,0.0
2.032,6995.2,0.00014,0.0,0.0
2.039,6957.1,0.00014,0.0,0.0
2.045,6956.223,0.00014,0.0,0.0
2.051,6950.964,0.00014,0.0,0.0
2.058,6939.606,0.00014,0.0,0.0
2.064,6971.728,0.00014,0.0,0.0
2.07,6965.589,0.00014,0.0,0.0
2.077,7003.677,0.00014,0.0,0.0
2.083,7021.121,0.00014,0.0,0.0
2.089,7035.504,0.00014,0.0,0.0
2.096,7008.222,0.00014,0.0,0.0
2.102,7025.794,0.00014,0.0,0.0
2.108,7030.012,0.00014,0.0,0.0
2.115,7038.289,0.00014,0.0,0.0
2.121,7040.234,0.00014,0.0,0.0
2.127,7087.621,0.00014,0.0,0.0
2.134,7077.695,0.00014,0.0,0.0
2.14,7067.784,0.00014,0.0,0.0
2.146,7111.569,0.00014,0.0,0.0
2.152,7129.985,0.00014,0.0,0.0
2.159,7149.022,0.00014,0.0,0.0
2.165,7184.677,0.00014,0.0,0.0
2.171,7170.275,0.00014,0.0,0.0
2.178,7223.857,0.00014,0.0,0.0
2.184,7203.899,0.00014,0.0,0.0
2.19,7247.53,0.00014,0.0,0.0
2.197,7196.8,0.00014,0.0,0.0
2.203,7268.983,0.00014,0.0,0.0
2.209,7256.679,0.00014,0.0,0.0
2.216,7290.767,0.00014,0.0,0.0
2.222,7300.711,0.00014,0.0,0.0
2.228,7634.165,0.00013,0.0,0.0
2.235,7340.684,0.00014,0.0,0.0
2.241,7375.841,0.00014,0.0,0.0
2.247,7378.225,0.00014,0.0,0.0
2.254,7419.83,0.00013,0.0,0.0
2.26,7431.487,0.00013,0.0,0.0
2.266,7445.295,0.00013,0.0,0.0
2.273,7466.304,0.00013,0.0,0.0
2.279,7486.672,0.00013,0.0,0.0
2.285,7530.96,0.00013,0.0,0.0
2.292,7538.752,0.00013,0.0,0.0
2.298,7588.725,0.00013,0.0,0.0
2.304,7608.172,0.00013,0.0,0.0
2.31,7593.16,0.00013,0.0,0.0
2.317,7670.231,0.00013,0.0,0.0
2.323,7705.932,0.00013,0.0,0.0
2.329,7714.058,0.00013,0.0,0.0
2.336,7776.634,0.00013,0.0,0.0
2.342,7804.087,0.00013,0.0,0.0
2.348,7808.578,0.00013,0.0,0.0
2.355,7849.46,0.00013,0.0,0.0
2.361,7861.992,0.00013,0.0,0.0
2.367,7918.933,0.00013,0.0,0.0
2.374,7962.946,0.00013,0.0,0.0
2.38,8003.053,0.00012,0.0,0.0
2.386,8007.631,0.00012,0.0,0.0
2.393,8042.217,0.00012,0.0,0.0
2.399,8110.422,0.00012,0.0,0.0
2.405,8143.02,0.00012,0.0,0.0
2.412,8175.38,0.00012,0.0,0.0
2.418,8241.143,0.00012,0.0,0.0
2.424,8283.475,0.00012,0.0,0.0
2.431,8334.49,0.00012,0.0,0.0
2.437,8372.69,0.00012,0.0,0.0
2.443,8417.86,0.00012,0.0,0.0
2.45,8478.496,0.00012,0.0,0.0
2.456,8519.459,0.00012,0.0,0.0
2.462,8577.225,0.00012,0.0,0.0
2.468,8678.799,0.00012,0.0,0.0
2.475,8741.314,0.00011,0.0,0.0
2.481,8827.517,0.00011,0.0,0.0
2.487,8878.537,0.00011,0.0,0.0
2.494,8961.393,0.00011,0.0,0.0
2.5,9071.283,0.00011,0.0,0.0
2.506,9115.862,0.00011,0.0,0.0
2.513,9198.509,0.00011,0.0,0.0
2.519,9264.356,0.00011,0.0,0.0
2.525,9298.455,0.00011,0.0,0.0
2.532,9406.068,0.00011,0.0,0.0
2.538,9485.92,0.00011,0.0,0.0
2.544,9464.906,0.00011,0.0,0.0
2.551,9569.467,0.0001,0.0,0.0
2.557,9496.314,0.00011,0.0,0.0
2.563,9541.292,0.0001,0.0,0.0
2.57,9562.168,0.0001,0.0,0.0
2.576,9538.158,0.0001,0.0,0.0
2.582,9561.386,0.0001,0.0,0.0
2.589,9508.286,0.00011,0.0,0.0
2.595,9461.19,0.00011,0.0,0.0
2.601,9454.151,0.00011,0.0,0.0
2.608,9493.807,0.00011,0.0,0.0
2.614,9443.134,0.00011,0.0,0.0
2.62,9465.773,0.00011,0.0,0.0
2.626,9416.494,0.00011,0.0,0.0
2.633,9445.794,0.00011,0.0,0.0
2.639,9472.289,0.00011,0.0,0.0
2.645,9470.515,0.00011,0.0,0.0
2.652,9457.117,0.00011,0.0,0.0
2.658,9488.88,0.00011,0.0,0.0
2.664,9492.579,0.00011,0.0,0.0
2.671,9501.0,0.00011,0.0,0.0
2.677,9543.383,0.0001,0.0,0.0
2.683,9581.579,0.0001,0.0,0.0
2.69,9614.199,0.0001,0.0,0.0
2.696,9625.069,0.0001,0.0,0.0
2.702,9691.547,0.0001,0.0,0.0
2.709,9684.62,0.0001,0.0,0.0
2.715,9735.408,0.0001,0.0,0.0
2.721,9774.406,0.0001,0.0,0.0
2.728,9774.876,0.0001,0.0,0.0
2.734,9825.647,0.0001,0.0,0.0
2.74,9863.142,0.0001,0.0,0.0
2.747,9885.258,0.0001,0.0,0.0
2.753,9948.941,0.0001,0.0,0.0
2.759,9988.736,0.0001,0.0,0.0
2.766,10032.45,0.0001,0.0,0.0
2.772,10046.07,0.0001,0.0,0.0
2.778,10033.101,0.0001,0.0,0.0
2.784,10077.849,0.0001,0.0,0.0
2.791,10080.42,0.0001,0.0,0.0
2.797,10105.835,0.0001,0.0,0.0
2.803,10136.872,0.0001,0.0,0.0
2.81,10162.214,0.0001,0.0,0.0
2.816,10161.28,0.0001,0.0,0.0
2.822,10212.672,0.0001,0.0,0.0
2.829,10194.936,0.0001,0.0,0.0
2.835,10233.076,0.0001,0.0,0.0
2.841,10257.968,0.0001,0.0,0.0
2.848,10293.73,0.0001,0.0,0.0
2.854,10278.41,0.0001,0.0,0.0
2.86,10305.444,0.0001,0.0,0.0
2.867,10323.95,0.0001,0.0,0.0
2.873,10331.927,0.0001,0.0,0.0
2.879,10360.646,0.0001,0.0,0.0
2.886,10378.396,0.0001,0.0,0.0
2.892,10410.203,0.0001,0.0,0.0
2.898,10431.749,0.0001,0.0,0.0
2.905,10447.914,0.0001,0.0,0.0
2.911,10478.611,0.0001,0.0,0.0
2.917,10532.438,0.00009,0.0,0.0
2.924,10524.902,0.0001,0.0,0.0
2.93,10542.204,0.00009,0.0,0.0
2.936,10547.969,0.00009,0.0,0.0
2.942,10579.46,0.00009,0.0,0.0
2.949,10601.317,0.00009,0.0,0.0
2.955,10616.848,0.00009,0.0,0.0
2.961,10625.353,0.00009,0.0,0.0
2.968,10628.452,0.00009,0.0,0.0
2.974,10684.239,0.00009,0.0,0.0
2.98,10691.562,0.00009,0.0,0.0
2.987,10699.806,0.00009,0.0,0.0
2.993,10705.371,0.00009,0.0,0.0
2.999,10713.897,0.00009,0.0,0.0
3.006,10737.327,0.00009,0.0,0.0
3.012,10752.43,0.00009,0.0,0.0
3.018,10756.96,0.00009,0.0,0.0
3.025,10784.136,0.00009,0.0,0.0
3.031,10766.129,0.00009,0.0,0.0
3.037,10784.67,0.00009,0.0,0.0
3.044,10811.104,0.00009,0.0,0.0
3.05,10814.047,0.00009,0.0,0.0
3.056,10801.717,0.00009,0.0,0.0
3.063,10812.498,0.00009,0.0,0.0
3.069,10819.692,0.00009,0.0,0.0
3.075,10765.149,0.00009,0.0,0.0
3.082,10816.747,0.00009,0.0,0.0
3.088,10808.956,0.00009,0.0,0.0
3.094,10800.979,0.00009,0.0,0.0
3.1,10802.449,0.00009,0.0,0.0
3.107,10796.193,0.00009,0.0,0.0
3.113,10796.449,0.00009,0.0,0.0
3.119,10803.78,0.00009,0.0,0.0
3.126,10770.786,0.00009,0.0,0.0
3.132,10769.213,0.00009,0.0,0.0
3.138,10756.059,0.00009,0.0,0.0
3.145,10789.668,0.00009,0.0,0.0
3.151,10764.395,0.00009,0.0,0.0
3.157,10745.043,0.00009,0.0,0.0
3.164,10740.349,0.00009,0.0,0.0
3.17,10726.267,0.00009,0.0,0.0
3.176,10713.068,0.00009,0.0,0.0
3.183,10663.272,0.00009,0.0,0.0
3.189,10671.168,0.00009,0.0,0.0
3.195,10623.221,0.00009,0.0,0.0
3.202,10637.552,0.00009,0.0,0.0
3.208,10592.081,0.00009,0.0,0.0
3.214,10584.342,0.00009,0.0,0.0
3.221,10564.621,0.00009,0.0,0.0
3.227,10546.689,0.00009,0.0,0.0
3.233,10515.151,0.0001,0.0,0.0
3.24,10520.341,0.0001,0.0,0.0
3.246,10492.579,0.0001,0.0,0.0
3.252,10459.376,0.0001,0.0,0.0
3.258,10480.426,0.0001,0.0,0.0
3.265,10425.886,0.0001,0.0,0.0
3.271,10440.233,0.0001,0.0,0.0
3.277,10390.948,0.0001,0.0,0.0
3.284,10346.145,0.0001,0.0,0.0
3.29,10324.745,0.0001,0.0,0.0
3.296,10312.95,0.0001,0.0,0.0
3.303,10303.686,0.0001,0.0,0.0
3.309,10288.365,0.0001,0.0,0.0
3.315,10247.576,0.0001,0.0,0.0
3.322,10199.485,0.0001,0.0,0.0
3.328,10155.929,0.0001,0.0,0.0
3.334,10168.131,0.0001,0.0,0.0
3.341,10150.289,0.0001,0.0,0.0
3.347,10128.706,0.0001,0.0,0.0
3.353,10128.465,0.0001,0.0,0.0
3.36,10099.09,0.0001,0.0,0.0
3.366,10053.319,0.0001,0.0,0.0
3.372,10023.481,0.0001,0.0,0.0
3.379,10011.776,0.0001,0.0,0.0
3.385,9986.636,0.0001,0.0,0.0
3.391,9975.865,0.0001,0.0,0.0
3.398,9940.482,0.0001,0.0,0.0
3.404,9943.518,0.0001,0.0,0.0
3.41,9887.05,0.0001,0.0,0.0
3.416,9898.131,0.0001,0.0,0.0
3.423,9867.286,0.0001,0.0,0.0
3.429,9856.235,0.0001,0.0,0.0
3.435,9826.392,0.0001,0.0,0.0
3.442,9813.614,0.0001,0.0,0.0
3.448,9761.954,0.0001,0.0,0.0
3.454,9754.467,0.0001,0.0,0.0
3.461,9753.963,0.0001,0.0,0.0
3.467,9727.962,0.0001,0.0,0.0
3.473,9724.469,0.0001,0.0,0.0
3.48,9674.944,0.0001,0.0,0.0
3.486,9662.208,0.0001,0.0,0.0
3.492,9658.611,0.0001,0.0,0.0
3.499,9671.817,0.0001,0.0,0.0
3.505,9617.333,0.0001,0.0,0.0
3.511,9619.91,0.0001,0.0,0.0
3.518,9585.913,0.0001,0.0,0.0
3.524,9557.432,0.0001,0.0,0.0
3.53,9563.165,0.0001,0.0,0.0
3.537,9540.821,0.0001,0.0,0.0
3.543,9531.108,0.0001,0.0,0.0
3.549,9520.998,0.00011,0.0,0.0
3.556,9488.918,0.00011,0.0,0.0
3.562,9491.278,0.00011,0.0,0.0
3.568,9484.998,0.00011,0.0,0.0
3.574,9468.663,0.00011,0.0,0.0
3.581,9430.371,0.00011,0.0,0.0
3.587,9445.974,0.00011,0.0,0.0
3.593,9446.193,0.00011,0.0,0.0
3.6,9430.606,0.00011,0.0,0.0
3.606,9434.258,0.00011,0.0,0.0
3.612,9410.505,0.00011,0.0,0.0
3.619,9423.828,0.00011,0.0,0.0
3.625,9398.953,0.00011,0.0,0.0
3.631,9410.426,0.00011,0.0,0.0
3.638,9387.156,0.00011,0.0,0.0
3.644,9423.576,0.00011,0.0,0.0
3.65,9400.074,0.00011,0.0,0.0
3.657,9399.091,0.00011,0.0,0.0
3.663,9413.107,0.00011,0.0,0.0
3.669,9420.696,0.00011,0.0,0.0
3.676,9446.501,0.00011,0.0,0.0
3.682,9445.122,0.00011,0.0,0.0
3.688,9464.86,0.00011,0.0,0.0
3.695,9481.845,0.00011,0.0,0.0
3.701,9506.91,0.00011,0.0,0.0
3.707,9529.434,0.0001,0.0,0.0
3.714,9519.299,0.00011,0.0,0.0
3.72,9519.396,0.00011,0.0,0.0
3.726,9576.132,0.0001,0.0,0.0
3.732,9588.542,0.0001,0.0,0.0
3.739,9630.688,0.0001,0.0,0.0
3.745,9667.41,0.0001,0.0,0.0
3.751,9699.591,0.0001,0.0,0.0
3.758,9745.266,0.0001,0.0,0.0
3.764,9762.277,0.0001,0.0,0.0
3.77,9826.158,0.0001,0.0,0.0
3.777,9879.886,0.0001,0.0,0.0
3.783,9884.102,0.0001,0.0,0.0
3.789,9950.227,0.0001,0.0,0.0
3.796,10003.282,0.0001,0.0,0.0
3.802,10020.734,0.0001,0.0,0.0
3.808,10104.149,0.0001,0.0,0.0
3.815,10164.565,0.0001,0.0,0.0
3.821,10201.35,0.0001,0.0,0.0
3.827,10249.129,0.0001,0.0,0.0
3.834,10264.256,0.0001,0.0,0.0
3.84,10322.902,0.0001,0.0,0.0
3.846,10351.946,0.0001,0.0,0.0
3.853,10398.08,0.0001,0.0,0.0
3.859,10449.296,0.0001,0.0,0.0
3.865,10452.124,0.0001,0.0,0.0
3.872,10486.791,0.0001,0.0,0.0
3.878,10520.454,0.0001,0.0,0.0
3.884,10507.345,0.0001,0.0,0.0
3.89,10529.628,0.00009,0.0,0.0
3.897,10503.652,0.0001,0.0,0.0
3.903,10507.19,0.0001,0.0,0.0
3.909,10499.904,0.0001,0.0,0.0
3.916,10473.513,0.0001,0.0,0.0
3.922,10444.967,0.0001,0.0,0.0
3.928,10425.0,0.0001,0.0,0.0
3.935,10406.528,0.0001,0.0,0.0
3.941,10344.309,0.0001,0.0,0.0
3.947,10331.074,0.0001,0.0,0.0
3.954,10245.7,0.0001,0.0,0.0
3.96,10252.253,0.0001,0.0,0.0
3.966,10180.957,0.0001,0.0,0.0
3.973,10165.288,0.0001,0.0,0.0
3.979,10085.106,0.0001,0.0,0.0
3.985,10009.21,0.0001,0.0,0.0
3.992,9993.35,0.0001,0.0,0.0
3.998,9934.4,0.0001,0.0,0.0
4.004,9884.078,0.0001,0.0,0.0
4.011,9837.569,0.0001,0.0,0.0
4.017,9751.528,0.0001,0.0,0.0
4.023,9727.308,0.0001,0.0,0.0
4.03,9678.719,0.0001,0.0,0.0
4.036,9634.851,0.0001,0.0,0.0
4.042,9595.377,0.0001,0.0,0.0
4.048,9542.723,0.0001,0.0,0.0
4.055,9480.374,0.00011,0.0,0.0
4.061,9443.77,0.00011,0.0,0.0
4.067,9394.715,0.00011,0.0,0.0
4.074,9350.008,0.00011,0.0,0.0
4.08,9304.056,0.00011,0.0,0.0
4.086,9247.941,0.00011,0.0,0.0
4.093,9273.561,0.00011,0.0,0.0
4.099,9205.609,0.00011,0.0,0.0
4.105,9154.939,0.00011,0.0,0.0
4.112,9146.783,0.00011,0.0,0.0
4.118,9092.933,0.00011,0.0,0.0
4.124,9082.353,0.00011,0.0,0.0
4.131,9078.727,0.00011,0.0,0.0
4.137,9027.585,0.00011,0.0,0.0
4.143,9020.562,0.00011,0.0,0.0
4.15,8986.061,0.00011,0.0,0.0
4.156,8966.216,0.00011,0.0,0.0
4.162,8959.916,0.00011,0.0,0.0
4.169,8928.221,0.00011,0.0,0.0
4.175,8941.237,0.00011,0.0,0.0
4.181,8893.114,0.00011,0.0,0.0
4.188,8888.546,0.00011,0.0,0.0
4.194,8859.703,0.00011,0.0,0.0
4.2,8853.865,0.00011,0.0,0.0
4.206,8828.027,0.00011,0.0,0.0
4.213,8858.371,0.00011,0.0,0.0
4.219,8818.567,0.00011,0.0,0.0
4.225,8805.69,0.00011,0.0,0.0
4.232,8804.735,0.00011,0.0,0.0
4.238,8765.876,0.00011,0.0,0.0
4.244,8800.298,0.00011,0.0,0.0
4.251,8762.271,0.00011,0.0,0.0
4.257,8764.37,0.00011,0.0,0.0
4.263,8740.095,0.00011,0.0,0.0
4.27,8742.902,0.00011,0.0,0.0
4.276,8746.483,0.00011,0.0,0.0
4.282,8753.697,0.00011,0.0,0.0
4.289,8699.168,0.00011,0.0,0.0
4.295,8717.281,0.00011,0.0,0.0
4.301,8676.447,0.00012,0.0,0.0
4.308,8715.059,0.00011,0.0,0.0
4.314,8705.226,0.00011,0.0,0.0
4.32,8690.695,0.00012,0.0,0.0
4.327,8692.793,0.00012,0.0,0.0
4.333,8670.684,0.00012,0.0,0.0
4.339,8688.421,0.00012,0.0,0.0
4.346,8704.461,0.00011,0.0,0.0
4.352,8650.088,0.00012,0.0,0.0
4.358,8654.579,0.00012,0.0,0.0
4.364,8702.109,0.00011,0.0,0.0
4.371,8704.707,0.00011,0.0,0.0
4.377,8645.703,0.00012,0.0,0.0
4.383,8676.001,0.00012,0.0,0.0
4.39,8677.587,0.00012,0.0,0.0
4.396,8659.041,0.00012,0.0,0.0
4.402,8687.706,0.00012,0.0,0.0
4.409,8684.542,0.00012,0.0,0.0
4.415,8704.667,0.00011,0.0,0.0
4.421,8710.661,0.00011,0.0,0.0
4.428,8745.619,0.00011,0.0,0.0
4.434,8691.547,0.00012,0.0,0.0
4.44,8776.522,0.00011,0.0,0.0
4.447,8765.087,0.00011,0.0,0.0
4.453,8847.337,0.00011,0.0,0.0
4.459,8793.792,0.00011,0.0,0.0
4.466,8880.201,0.00011,0.0,0.0
4.472,8913.594,0.00011,0.0,0.0
4.478,9044.57,0.00011,0.0,0.0
4.485,9135.148,0.00011,0.0,0.0
4.491,9305.325,0.00011,0.0,0.0
4.497,9564.868,0.0001,0.0,0.0
4.504,9830.062,0.0001,0.0,0.0
4.51,10541.133,0.00009,0.0,0.0
4.516,11172.457,0.00009,0.0,0.0
4.522,13625.26,0.00007,0.0,0.0
4.529,18055.008,0.00006,0.0,0.0
4.535,22759.07,0.00004,0.0,0.0
4.541,40393.239,0.00002,0.0,0.0
4.548,40461.816,0.00002,0.0,0.0
4.554,53163.303,0.00002,0.0,0.0
4.56,52615.187,0.00002,0.0,0.0
4.567,47919.204,0.00002,0.0,0.0
4.573,44331.195,0.00002,0.0,0.0
4.579,34255.671,0.00003,0.0,0.0
4.586,26047.341,0.00004,0.0,0.0
4.592,22832.016,0.00004,0.0,0.0
4.598,17590.654,0.00006,0.0,0.0
4.605,14022.825,0.00007,0.0,0.0
4.611,11844.208,0.00008,0.0,0.0
4.617,10408.358,0.0001,0.0,0.0
4.624,9531.975,0.0001,0.0,0.0
4.63,9386.458,0.00011,0.0,0.0
4.636,9137.535,0.00011,0.0,0.0
4.643,8914.019,0.00011,0.0,0.0
4.649,8724.018,0.00011,0.0,0.0
4.655,8670.278,0.00012,0.0,0.0
4.662,8501.339,0.00012,0.0,0.0
4.668,8501.423,0.00012,0.0,0.0
4.674,8353.113,0.00012,0.0,0.0
4.68,8421.711,0.00012,0.0,0.0
4.687,8283.461,0.00012,0.0,0.0
4.693,8280.963,0.00012,0.0,0.0
4.699,8222.462,0.00012,0.0,0.0
4.706,8133.589,0.00012,0.0,0.0
4.712,8117.384,0.00012,0.0,0.0
4.718,8092.119,0.00012,0.0,0.0
4.725,8040.24,0.00012,0.0,0.0
4.731,8005.837,0.00012,0.0,0.0
4.737,7962.416,0.00013,0.0,0.0
4.744,7949.357,0.00013,0.0,0.0
4.75,7897.961,0.00013,0.0,0.0
4.756,7866.59,0.00013,0.0,0.0
4.763,7907.184,0.00013,0.0,0.0
4.769,7767.295,0.00013,0.0,0.0
4.775,7815.651,0.00013,0.0,0.0
4.782,7734.332,0.00013,0.0,0.0
4.788,7699.766,0.00013,0.0,0.0
4.794,7688.709,0.00013,0.0,0.0
4.801,7620.851,0.00013,0.0,0.0
4.807,7616.027,0.00013,0.0,0.0
4.813,7654.244,0.00013,0.0,0.0
4.82,7570.31,0.00013,0.0,0.0
4.826,7546.311,0.00013,0.0,0.0
4.832,7475.174,0.00013,0.0,0.0
4.838,7482.328,0.00013,0.0,0.0
4.845,7494.17,0.00013,0.0,0.0
4.851,7464.211,0.00013,0.0,0.0
4.857,7443.516,0.00013,0.0,0.0
4.864,7387.903,0.00014,0.0,0.0
4.87,7379.286,0.00014,0.0,0.0
4.876,7352.822,0.00014,0.0,0.0
4.883,7332.562,0.00014,0.0,0.0
4.889,7250.366,0.00014,0.0,0.0
4.895,7315.999,0.00014,0.0,0.0
4.902,7190.344,0.00014,0.0,0.0
4.908,7260.754,0.00014,0.0,0.0
4.914,7181.3,0.00014,0.0,0.0
4.921,7165.27,0.00014,0.0,0.0
4.927,7164.409,0.00014,0.0,0.0
4.933,7106.756,0.00014,0.0,0.0
4.94,7094.293,0.00014,0.0,0.0
4.946,7088.765,0.00014,0.0,0.0
4.952,7060.42,0.00014,0.0,0.0
4.959,7058.385,0.00014,0.0,0.0
4.965,7045.096,0.00014,0.0,0.0
4.971,7001.681,0.00014,0.0,0.0
4.978,7005.852,0.00014,0.0,0.0
4.984,6941.453,0.00014,0.0,0.0
4.99,6958.087,0.00014,0.0,0.0
4.996,6919.298,0.00014,0.0,0.0
5.003,6916.011,0.00014,0.0,0.0
5.009,6889.348,0.00015,0.0,0.0
5.015,6907.278,0.00014,0.0,0.0
5.022,6868.842,0.00015,0.0,0.0
5.028,6872.656,0.00015,0.0,0.0
5.034,6845.396,0.00015,0.0,0.0
5.041,6811.165,0.00015,0.0,0.0
5.047,6811.988,0.00015,0.0,0.0
5.053,6789.906,0.00015,0.0,0.0
5.06,6790.87,0.00015,0.0,0.0
5.066,6724.183,0.00015,0.0,0.0
5.072,6743.046,0.00015,0.0,0.0
5.079,6739.128,0.00015,0.0,0.0
5.085,6716.508,0.00015,0.0,0.0
5.091,6687.708,0.00015,0.0,0.0
5.098,6679.193,0.00015,0.0,0.0
5.104,6675.639,0.00015,0.0,0.0
5.11,6676.855,0.00015,0.0,0.0
5.117,6649.472,0.00015,0.0,0.0
5.123,6652.61,0.00015,0.0,0.0
5.129,6653.824,0.00015,0.0,0.0
5.136,6619.126,0.00015,0.0,0.0
5.142,6632.304,0.00015,0.0,0.0
5.148,6598.504,0.00015,0.0,0.0
5.154,6598.185,0.00015,0.0,0.0
5.161,6565.332,0.00015,0.0,0.0
5.167,6542.621,0.00015,0.0,0.0
5.173,6507.994,0.00015,0.0,0.0
5.18,6524.779,0.00015,0.0,0.0
5.186,6469.88,0.00015,0.0,0.0
5.192,6477.645,0.00015,0.0,0.0
5.199,6448.468,0.00016,0.0,0.0
5.205,6424.628,0.00016,0.0,0.0
5.211,6406.08,0.00016,0.0,0.0
5.218,6395.918,0.00016,0.0,0.0
5.224,6385.521,0.00016,0.0,0.0
5.23,6346.178,0.00016,0.0,0.0
5.237,6310.217,0.00016,0.0,0.0
5.243,6317.917,0.00016,0.0,0.0
5.249,6324.965,0.00016,0.0,0.0
5.256,6249.817,0.00016,0.0,0.0
5.262,6273.065,0.00016,0.0,0.0
5.268,6253.583,0.00016,0.0,0.0
5.275,6235.327,0.00016,0.0,0.0
5.281,6245.755,0.00016,0.0,0.0
5.287,6214.099,0.00016,0.0,0.0
5.294,6198.962,0.00016,0.0,0.0
5.3,6203.195,0.00016,0.0,0.0
5.306,6189.559,0.00016,0.0,0.0
5.312,6192.025,0.00016,0.0,0.0
5.319,6159.429,0.00016,0.0,0.0
5.325,6159.703,0.00016,0.0,0.0
5.331,6156.66,0.00016,0.0,0.0
5.338,6115.164,0.00016,0.0,0.0
5.344,6134.038,0.00016,0.0,0.0
5.35,6115.887,0.00016,0.0,0.0
5.357,6105.478,0.00016,0.0,0.0
5.363,6057.485,0.00017,0.0,0.0
5.369,6068.203,0.00016,0.0,0.0
5.376,6090.218,0.00016,0.0,0.0
5.382,6084.867,0.00016,0.0,0.0
5.388,6041.51,0.00017,0.0,0.0
5.395,6076.386,0.00016,0.0,0.0
5.401,6057.927,0.00017,0.0,0.0
5.407,6042.075,0.00017,0.0,0.0
5.414,6049.464,0.00017,0.0,0.0
5.42,6029.508,0.00017,0.0,0.0
5.426,6026.3,0.00017,0.0,0.0
5.433,6016.217,0.00017,0.0,0.0
5.439,6026.754,0.00017,0.0,0.0
5.445,6014.808,0.00017,0.0,0.0
5.452,6023.678,0.00017,0.0,0.0
5.458,5984.202,0.00017,0.0,0.0
5.464,6013.356,0.00017,0.0,0.0
5.47,5977.32,0.00017,0.0,0.0
5.477,5999.954,0.00017,0.0,0.0
5.483,5972.423,0.00017,0.0,0.0
5.489,5977.226,0.00017,0.0,0.0
5.496,5974.641,0.00017,0.0,0.0
5.502,5983.938,0.00017,0.0,0.0
5.508,5996.58,0.00017,0.0,0.0
5.515,5955.86,0.00017,0.0,0.0
5.521,5977.17,0.00017,0.0,0.0
5.527,5949.965,0.00017,0.0,0.0
5.534,5975.403,0.00017,0.0,0.0
5.54,5948.091,0.00017,0.0,0.0
5.546,5964.197,0.00017,0.0,0.0
5.553,5948.877,0.00017,0.0,0.0
5.559,5946.071,0.00017,0.0,0.0
5.565,5954.725,0.00017,0.0,0.0
5.572,5963.151,0.00017,0.0,0.0
5.578,5980.822,0.00017,0.0,0.0
5.584,5954.465,0.00017,0.0,0.0
5.591,5955.256,0.00017,0.0,0.0
5.597,5966.394,0.00017,0.0,0.0
5.603,5956.928,0.00017,0.0,0.0
5.61,5950.42,0.00017,0.0,0.0
5.616,5996.714,0.00017,0.0,0.0
5.622,5959.264,0.00017,0.0,0.0
5.628,5994.092,0.00017,0.0,0.0
5.635,5964.278,0.00017,0.0,0.0
5.641,5990.759,0.00017,0.0,0.0
5.647,5974.104,0.00017,0.0,0.0
5.654,5988.702,0.00017,0.0,0.0
5.66,5970.188,0.00017,0.0,0.0
5.666,5999.51,0.00017,0.0,0.0
5.673,5974.358,0.00017,0.0,0.0
5.679,6011.054,0.00017,0.0,0.0
5.685,5985.265,0.00017,0.0,0.0
5.692,5997.659,0.00017,0.0,0.0
5.698,6011.695,0.00017,0.0,0.0
5.704,6017.176,0.00017,0.0,0.0
5.711,6049.014,0.00017,0.0,0.0
5.717,6036.9,0.00017,0.0,0.0
5.723,6034.521,0.00017,0.0,0.0
5.73,6058.153,0.00017,0.0,0.0
5.736,6097.486,0.00016,0.0,0.0
5.742,6061.522,0.00016,0.0,0.0
5.749,6129.824,0.00016,0.0,0.0
5.755,6093.515,0.00016,0.0,0.0
5.761,6148.048,0.00016,0.0,0.0
5.768,6128.752,0.00016,0.0,0.0
5.774,6160.08,0.00016,0.0,0.0
5.78,6186.269,0.00016,0.0,0.0
5.786,6178.037,0.00016,0.0,0.0
5.793,6218.608,0.00016,0.0,0.0
5.799,6219.296,0.00016,0.0,0.0
5.805,6238.561,0.00016,0.0,0.0
5.812,6231.995,0.00016,0.0,0.0
5.818,6280.567,0.00016,0.0,0.0
5.824,6260.58,0.00016,0.0,0.0
5.831,6315.564,0.00016,0.0,0.0
5.837,6297.945,0.00016,0.0,0.0
5.843,6330.838,0.00016,0.0,0.0
5.85,6342.582,0.00016,0.0,0.0
5.856,6436.238,0.00016,0.0,0.0
5.862,6494.33,0.00015,0.0,0.0
5.869,6519.231,0.00015,0.0,0.0
5.875,6551.936,0.00015,0.0,0.0
5.881,6552.703,0.00015,0.0,0.0
5.888,6484.644,0.00015,0.0,0.0
5.894,6423.535,0.00016,0.0,0.0
5.9,6337.361,0.00016,0.0,0.0
5.907,6226.58,0.00016,0.0,0.0
5.913,6220.794,0.00016,0.0,0.0
5.919,6116.544,0.00016,0.0,0.0
5.926,6099.731,0.00016,0.0,0.0
5.932,6016.609,0.00017,0.0,0.0
5.938,6068.955,0.00016,0.0,0.0
5.944,5968.647,0.00017,0.0,0.0
5.951,6019.88,0.00017,0.0,0.0
5.957,5980.379,0.00017,0.0,0.0
5.963,5948.169,0.00017,0.0,0.0
5.97,5936.28,0.00017,0.0,0.0
5.976,5902.414,0.00017,0.0,0.0
5.982,5917.583,0.00017,0.0,0.0
5.989,5888.6,0.00017,0.0,0.0
5.995,5934.085,0.00017,0.0,0.0
6.001,5869.882,0.00017,0.0,0.0
6.008,5884.673,0.00017,0.0,0.0
6.014,5846.652,0.00017,0.0,0.0
6.02,5892.718,0.00017,0.0,0.0
6.027,5796.936,0.00017,0.0,0.0
6.033,5884.882,0.00017,0.0,0.0
6.039,5802.717,0.00017,0.0,0.0
6.046,5857.943,0.00017,0.0,0.0
6.052,5825.522,0.00017,0.0,0.0
6.058,5803.005,0.00017,0.0,0.0
6.065,5824.087,0.00017,0.0,0.0
6.071,5797.506,0.00017,0.0,0.0
6.077,5874.57,0.00017,0.0,0.0
6.084,5783.49,0.00017,0.0,0.0
6.09,5851.787,0.00017,0.0,0.0
6.096,5786.242,0.00017,0.0,0.0
6.102,5840.841,0.00017,0.0,0.0
6.109,5738.747,0.00017,0.0,0.0
6.115,5880.263,0.00017,0.0,0.0
6.121,5775.395,0.00017,0.0,0.0
6.128,5894.108,0.00017,0.0,0.0
6.134,5823.142,0.00017,0.0,0.0
6.14,5848.52,0.00017,0.0,0.0
6.147,5810.46,0.00017,0.0,0.0
6.153,5845.65,0.00017,0.0,0.0
6.159,5904.563,0.00017,0.0,0.0
6.166,5855.997,0.00017,0.0,0.0
6.172,5912.957,0.00017,0.0,0.0
6.178,5825.279,0.00017,0.0,0.0
6.185,5932.482,0.00017,0.0,0.0
6.191,5858.715,0.00017,0.0,0.0
6.197,6017.615,0.00017,0.0,0.0
6.204,5862.608,0.00017,0.0,0.0
6.21,6018.246,0.00017,0.0,0.0
6.216,5885.438,0.00017,0.0,0.0
6.223,6103.393,0.00016,0.0,0.0
6.229,5949.478,0.00017,0.0,0.0
6.235,6040.269,0.00017,0.0,0.0
6.242,6090.36,0.00016,0.0,0.0
6.248,6022.448,0.00017,0.0,0.0
6.254,6158.26,0.00016,0.0,0.0
6.26,5987.807,0.00017,0.0,0.0
6.267,6193.8,0.00016,0.0,0.0
6.273,5979.108,0.00017,0.0,0.0
6.279,6300.45,0.00016,0.0,0.0
6.286,6060.579,0.00017,0.0,0.0
6.292,6319.359,0.00016,0.0,0.0
6.298,6098.634,0.00016,0.0,0.0
6.305,6358.738,0.00016,0.0,0.0
6.311,6093.472,0.00016,0.0,0.0
6.317,6392.949,0.00016,0.0,0.0
6.324,6319.317,0.00016,0.0,0.0
6.33,6419.58,0.00016,0.0,0.0
6.336,6377.994,0.00016,0.0,0.0
6.343,6403.248,0.00016,0.0,0.0
6.349,6537.772,0.00015,0.0,0.0
6.355,6501.094,0.00015,0.0,0.0
6.362,6655.835,0.00015,0.0,0.0
6.368,6611.491,0.00015,0.0,0.0
6.374,6827.287,0.00015,0.0,0.0
6.381,6718.352,0.00015,0.0,0.0
6.387,7189.599,0.00014,0.0,0.0
6.393,6714.919,0.00015,0.0,0.0
6.4,7719.948,0.00013,0.0,0.0
6.406,7213.731,0.00014,0.0,0.0
6.412,8570.597,0.00012,0.0,0.0
6.418,8257.494,0.00012,0.0,0.0
6.425,11694.592,0.00009,0.0,0.0
6.431,9983.878,0.0001,0.0,0.0
6.437,18214.23,0.00005,0.0,0.0
6.444,15967.494,0.00006,0.0,0.0
6.45,22963.533,0.00004,0.0,0.0
6.456,22381.301,0.00004,0.0,0.0
6.463,17771.724,0.00006,0.0,0.0
6.469,19480.364,0.00005,0.0,0.0
6.475,9312.616,0.00011,0.0,0.0
6.482,13684.964,0.00007,0.0,0.0
6.488,8469.672,0.00012,0.0,0.0
6.494,9579.576,0.0001,0.0,0.0
6.501,7564.083,0.00013,0.0,0.0
6.507,8358.679,0.00012,0.0,0.0
6.513,7507.531,0.00013,0.0,0.0
6.52,7723.874,0.00013,0.0,0.0
6.526,7609.907,0.00013,0.0,0.0
6.532,7779.187,0.00013,0.0,0.0
6.539,7947.14,0.00013,0.0,0.0
6.545,7899.965,0.00013,0.0,0.0
6.551,8493.162,0.00012,0.0,0.0
6.558,8754.241,0.00011,0.0,0.0
6.564,9726.071,0.0001,0.0,0.0
6.57,10984.679,0.00009,0.0,0.0
6.576,14222.478,0.00007,0.0,0.0
6.583,19529.4,0.00005,0.0,0.0
6.589,29436.925,0.00003,0.0,0.0
6.595,45045.902,0.00002,0.0,0.0
6.602,68031.348,0.00001,0.0,0.0
6.608,84806.283,0.00001,0.0,0.0
6.614,99686.659,0.00001,0.0,0.0
6.621,98193.981,0.00001,0.0,0.0
6.627,86192.569,0.00001,0.0,0.0
6.633,58532.114,0.00002,0.0,0.0
6.64,40243.722,0.00002,0.0,0.0
6.646,22473.42,0.00004,0.0,0.0
6.652,16974.106,0.00006,0.0,0.0
6.659,12761.587,0.00008,0.0,0.0
6.665,9761.877,0.0001,0.0,0.0
6.671,8955.436,0.00011,0.0,0.0
6.678,7907.805,0.00013,0.0,0.0
6.684,7383.72,0.00014,0.0,0.0
6.69,7154.226,0.00014,0.0,0.0
6.697,6850.507,0.00015,0.0,0.0
6.703,6737.91,0.00015,0.0,0.0
6.709,6508.249,0.00015,0.0,0.0
6.716,6487.829,0.00015,0.0,0.0
6.722,6305.664,0.00016,0.0,0.0
6.728,6300.745,0.00016,0.0,0.0
6.734,6177.742,0.00016,0.0,0.0
6.741,6225.865,0.00016,0.0,0.0
6.747,6075.245,0.00016,0.0,0.0
6.753,6143.836,0.00016,0.0,0.0
6.76,6066.325,0.00016,0.0,0.0
6.766,6045.828,0.00017,0.0,0.0
6.772,6007.217,0.00017,0.0,0.0
6.779,5997.432,0.00017,0.0,0.0
6.785,6021.052,0.00017,0.0,0.0
6.791,5948.766,0.00017,0.0,0.0
6.798,5986.575,0.00017,0.0,0.0
6.804,5883.021,0.00017,0.0,0.0
6.81,5931.709,0.00017,0.0,0.0
6.817,5853.462,0.00017,0.0,0.0
6.823,5948.847,0.00017,0.0,0.0
6.829,5840.541,0.00017,0.0,0.0
6.836,5912.713,0.00017,0.0,0.0
6.842,5824.836,0.00017,0.0,0.0
6.848,5870.452,0.00017,0.0,0.0
6.855,5818.185,0.00017,0.0,0.0
6.861,5835.441,0.00017,0.0,0.0
6.867,5842.317,0.00017,0.0,0.0
6.874,5813.062,0.00017,0.0,0.0
6.88,5814.392,0.00017,0.0,0.0
6.886,5773.246,0.00017,0.0,0.0
6.892,5819.042,0.00017,0.0,0.0
6.899,5769.278,0.00017,0.0,0.0
6.905,5827.854,0.00017,0.0,0.0
6.911,5770.695,0.00017,0.0,0.0
6.918,5797.571,0.00017,0.0,0.0
6.924,5773.917,0.00017,0.0,0.0
6.93,5799.967,0.00017,0.0,0.0
6.937,5764.077,0.00017,0.0,0.0
6.943,5793.383,0.00017,0.0,0.0
6.949,5799.163,0.00017,0.0,0.0
6.956,5794.206,0.00017,0.0,0.0
6.962,5823.12,0.00017,0.0,0.0
6.968,5773.168,0.00017,0.0,0.0
6.975,5825.84,0.00017,0.0,0.0
6.981,5790.762,0.00017,0.0,0.0
6.987,5817.729,0.00017,0.0,0.0
6.994,5794.321,0.00017,0.0,0.0
7.0,5852.463,0.00017,0.0,0.0
7.006,5802.635,0.00017,0.0,0.0
7.013,5832.159,0.00017,0.0,0.0
7.019,5821.456,0.00017,0.0,0.0
7.025,5862.727,0.00017,0.0,0.0
7.032,5865.074,0.00017,0.0,0.0
7.038,5861.55,0.00017,0.0,0.0
7.044,5880.337,0.00017,0.0,0.0
7.05,5874.719,0.00017,0.0,0.0
7.057,5905.985,0.00017,0.0,0.0
7.063,5904.478,0.00017,0.0,0.0
7.069,5933.422,0.00017,0.0,0.0
7.076,5917.306,0.00017,0.0,0.0
7.082,5961.143,0.00017,0.0,0.0
7.088,5946.483,0.00017,0.0,0.0
7.095,6000.995,0.00017,0.0,0.0
7.101,5989.069,0.00017,0.0,0.0
7.107,6007.352,0.00017,0.0,0.0
7.114,6039.452,0.00017,0.0,0.0
7.12,6031.192,0.00017,0.0,0.0
7.126,6045.46,0.00017,0.0,0.0
7.133,6062.032,0.00016,0.0,0.0
7.139,6070.031,0.00016,0.0,0.0
7.145,6067.899,0.00016,0.0,0.0
7.152,6096.702,0.00016,0.0,0.0
7.158,6082.889,0.00016,0.0,0.0
7.164,6117.11,0.00016,0.0,0.0
7.171,6071.056,0.00016,0.0,0.0
7.177,6118.168,0.00016,0.0,0.0
7.183,6097.691,0.00016,0.0,0.0
7.19,6118.748,0.00016,0.0,0.0
7.196,6118.755,0.00016,0.0,0.0
7.202,6110.547,0.00016,0.0,0.0
7.208,6100.879,0.00016,0.0,0.0
7.215,6102.478,0.00016,0.0,0.0
7.221,6097.416,0.00016,0.0,0.0
7.227,6106.262,0.00016,0.0,0.0
7.234,6096.271,0.00016,0.0,0.0
7.24,6091.368,0.00016,0.0,0.0
7.246,6094.621,0.00016,0.0,0.0
7.253,6054.708,0.00017,0.0,0.0
7.259,6073.579,0.00016,0.0,0.0
7.265,6037.755,0.00017,0.0,0.0
7.272,6039.812,0.00017,0.0,0.0
7.278,6007.749,0.00017,0.0,0.0
7.284,6030.083,0.00017,0.0,0.0
7.291,6005.64,0.00017,0.0,0.0
7.297,5995.267,0.00017,0.0,0.0
7.303,5984.085,0.00017,0.0,0.0
7.31,5952.411,0.00017,0.0,0.0
7.316,5957.007,0.00017,0.0,0.0
7.322,5947.573,0.00017,0.0,0.0
7.329,5939.389,0.00017,0.0,0.0
7.335,5892.715,0.00017,0.0,0.0
7.341,5888.203,0.00017,0.0,0.0
7.348,5877.256,0.00017,0.0,0.0
7.354,5869.936,0.00017,0.0,0.0
7.36,5860.391,0.00017,0.0,0.0
7.366,5846.704,0.00017,0.0,0.0
7.373,5848.975,0.00017,0.0,0.0
7.379,5842.514,0.00017,0.0,0.0
7.385,5809.441,0.00017,0.0,0.0
7.392,5834.261,0.00017,0.0,0.0
7.398,5780.997,0.00017,0.0,0.0
7.404,5796.001,0.00017,0.0,0.0
7.411,5819.492,0.00017,0.0,0.0
7.417,5795.885,0.00017,0.0,0.0
7.423,5795.27,0.00017,0.0,0.0
7.43,5779.508,0.00017,0.0,0.0
7.436,5793.34,0.00017,0.0,0.0
7.442,5790.908,0.00017,0.0,0.0
7.449,5816.529,0.00017,0.0,0.0
7.455,5792.077,0.00017,0.0,0.0
7.461,5814.951,0.00017,0.0,0.0
7.468,5790.961,0.00017,0.0,0.0
7.474,5813.391,0.00017,0.0,0.0
7.48,5811.681,0.00017,0.0,0.0
7.487,5820.837,0.00017,0.0,0.0
7.493,5850.514,0.00017,0.0,0.0
7.499,5869.871,0.00017,0.0,0.0
7.506,5875.644,0.00017,0.0,0.0
7.512,5876.306,0.00017,0.0,0.0
7.518,5906.406,0.00017,0.0,0.0
7.524,5924.397,0.00017,0.0,0.0
7.531,5964.591,0.00017,0.0,0.0
7.537,6014.662,0.00017,0.0,0.0
7.543,6035.504,0.00017,0.0,0.0
7.55,6098.139,0.00016,0.0,0.0
7.556,6172.438,0.00016,0.0,0.0
7.562,6277.935,0.00016,0.0,0.0
7.569,6416.73,0.00016,0.0,0.0
7.575,6596.646,0.00015,0.0,0.0
7.581,6999.089,0.00014,0.0,0.0
7.588,7304.071,0.00014,0.0,0.0
7.594,8303.997,0.00012,0.0,0.0
7.6,9789.942,0.0001,0.0,0.0
7.607,12518.017,0.00008,0.0,0.0
7.613,17769.275,0.00006,0.0,0.0
7.619,24715.159,0.00004,0.0,0.0
7.626,33940.067,0.00003,0.0,0.0
7.632,47971.364,0.00002,0.0,0.0
7.638,53704.901,0.00002,0.0,0.0
7.645,47434.071,0.00002,0.0,0.0
7.651,45007.588,0.00002,0.0,0.0
7.657,31799.832,0.00003,0.0,0.0
7.664,22733.804,0.00004,0.0,0.0
7.67,15869.665,0.00006,0.0,0.0
7.676,11441.212,0.00009,0.0,0.0
7.682,9251.304,0.00011,0.0,0.0
7.689,8121.711,0.00012,0.0,0.0
7.695,7323.253,0.00014,0.0,0.0
7.701,6970.597,0.00014,0.0,0.0
7.708,6654.655,0.00015,0.0,0.0
7.714,6523.047,0.00015,0.0,0.0
7.72,6473.439,0.00015,0.0,0.0
7.727,6358.998,0.00016,0.0,0.0
7.733,6318.944,0.00016,0.0,0.0
7.739,6292.858,0.00016,0.0,0.0
7.746,6296.87,0.00016,0.0,0.0
7.752,6302.09,0.00016,0.0,0.0
7.758,6318.714,0.00016,0.0,0.0
7.765,6278.499,0.00016,0.0,0.0
7.771,6309.253,0.00016,0.0,0.0
7.777,6326.636,0.00016,0.0,0.0
7.784,6348.657,0.00016,0.0,0.0
7.79,6412.555,0.00016,0.0,0.0
7.796,6399.032,0.00016,0.0,0.0
7.803,6460.879,0.00015,0.0,0.0
7.809,6466.312,0.00015,0.0,0.0
7.815,6581.931,0.00015,0.0,0.0
7.822,6616.066,0.00015,0.0,0.0
7.828,6695.741,0.00015,0.0,0.0
7.834,6737.895,0.00015,0.0,0.0
7.84,6843.868,0.00015,0.0,0.0
7.847,7013.821,0.00014,0.0,0.0
7.853,7184.984,0.00014,0.0,0.0
7.859,7588.746,0.00013,0.0,0.0
7.866,7745.186,0.00013,0.0,0.0
7.872,8881.915,0.00011,0.0,0.0
7.878,10624.126,0.00009,0.0,0.0
7.885,13229.833,0.00008,0.0,0.0
7.891,14702.663,0.00007,0.0,0.0
7.897,18723.924,0.00005,0.0,0.0
7.904,15955.307,0.00006,0.0,0.0
7.91,18474.385,0.00005,0.0,0.0
7.916,17847.547,0.00006,0.0,0.0
7.923,12597.803,0.00008,0.0,0.0
7.929,9496.364,0.00011,0.0,0.0
7.935,9589.886,0.0001,0.0,0.0
7.942,8387.194,0.00012,0.0,0.0
7.948,7659.422,0.00013,0.0,0.0
7.954,7329.175,0.00014,0.0,0.0
7.961,7089.991,0.00014,0.0,0.0
7.967,7116.204,0.00014,0.0,0.0
7.973,7001.922,0.00014,0.0,0.0
7.98,6955.088,0.00014,0.0,0.0
7.986,6865.231,0.00015,0.0,0.0
7.992,6837.348,0.00015,0.0,0.0
7.998,6841.768,0.00015,0.0,0.0
8.005,6865.552,0.00015,0.0,0.0
8.011,6801.545,0.00015,0.0,0.0
8.017,6780.897,0.00015,0.0,0.0
8.024,6787.358,0.00015,0.0,0.0
8.03,6767.483,0.00015,0.0,0.0
8.036,6779.235,0.00015,0.0,0.0
8.043,6748.997,0.00015,0.0,0.0
8.049,6731.618,0.00015,0.0,0.0
8.055,6740.699,0.00015,0.0,0.0
8.062,6756.266,0.00015,0.0,0.0
8.068,6744.765,0.00015,0.0,0.0
8.074,6730.218,0.00015,0.0,0.0
8.081,6719.024,0.00015,0.0,0.0
8.087,6774.822,0.00015,0.0,0.0
8.093,6771.662,0.00015,0.0,0.0
8.1,6759.59,0.00015,0.0,0.0
8.106,6758.022,0.00015,0.0,0.0
8.112,6754.14,0.00015,0.0,0.0
8.119,6826.692,0.00015,0.0,0.0
8.125,6818.116,0.00015,0.0,0.0
8.131,6850.345,0.00015,0.0,0.0
8.138,6831.837,0.00015,0.0,0.0
8.144,6848.529,0.00015,0.0,0.0
8.15,6822.464,0.00015,0.0,0.0
8.156,6821.074,0.00015,0.0,0.0
8.163,6772.427,0.00015,0.0,0.0
8.169,6733.258,0.00015,0.0,0.0
8.175,6727.348,0.00015,0.0,0.0
8.182,6703.473,0.00015,0.0,0.0
8.188,6732.979,0.00015,0.0,0.0
8.194,6648.513,0.00015,0.0,0.0
8.201,6678.652,0.00015,0.0,0.0
8.207,6639.812,0.00015,0.0,0.0
8.213,6618.837,0.00015,0.0,0.0
8.22,6645.026,0.00015,0.0,0.0
8.226,6587.076,0.00015,0.0,0.0
8.232,6583.941,0.00015,0.0,0.0
8.239,6575.348,0.00015,0.0,0.0
8.245,6550.575,0.00015,0.0,0.0
8.251,6542.823,0.00015,0.0,0.0
8.258,6509.887,0.00015,0.0,0.0
8.264,6489.686,0.00015,0.0,0.0
8.27,6488.655,0.00015,0.0,0.0
8.277,6447.019,0.00016,0.0,0.0
8.283,6428.228,0.00016,0.0,0.0
8.289,6408.926,0.00016,0.0,0.0
8.296,6382.038,0.00016,0.0,0.0
8.302,6378.386,0.00016,0.0,0.0
8.308,6360.248,0.00016,0.0,0.0
8.314,6326.226,0.00016,0.0,0.0
8.321,6327.055,0.00016,0.0,0.0
8.327,6299.237,0.00016,0.0,0.0
8.333,6278.607,0.00016,0.0,0.0
8.34,6267.781,0.00016,0.0,0.0
8.346,6234.136,0.00016,0.0,0.0
8.352,6241.117,0.00016,0.0,0.0
8.359,6206.777,0.00016,0.0,0.0
8.365,6227.639,0.00016,0.0,0.0
8.371,6169.743,0.00016,0.0,0.0
8.378,6157.559,0.00016,0.0,0.0
8.384,6147.971,0.00016,0.0,0.0
8.39,6139.27,0.00016,0.0,0.0
8.397,6100.542,0.00016,0.0,0.0
8.403,6096.653,0.00016,0.0,0.0
8.409,6058.654,0.00017,0.0,0.0
8.416,6056.102,0.00017,0.0,0.0
8.422,6040.534,0.00017,0.0,0.0
8.428,6024.189,0.00017,0.0,0.0
8.435,6024.634,0.00017,0.0,0.0
8.441,5991.93,0.00017,0.0,0.0
8.447,5996.181,0.00017,0.0,0.0
8.454,5972.589,0.00017,0.0,0.0
8.46,5955.196,0.00017,0.0,0.0
8.466,5967.3,0.00017,0.0,0.0
8.472,5948.563,0.00017,0.0,0.0
8.479,5925.115,0.00017,0.0,0.0
8.485,5927.819,0.00017,0.0,0.0
8.491,5891.473,0.00017,0.0,0.0
8.498,5899.92,0.00017,0.0,0.0
8.504,5905.148,0.00017,0.0,0.0
8.51,5872.132,0.00017,0.0,0.0
8.517,5876.009,0.00017,0.0,0.0
8.523,5866.78,0.00017,0.0,0.0
8.529,5836.694,0.00017,0.0,0.0
8.536,5853.291,0.00017,0.0,0.0
8.542,5835.099,0.00017,0.0,0.0
8.548,5818.443,0.00017,0.0,0.0
8.555,5822.216,0.00017,0.0,0.0
8.561,5777.168,0.00017,0.0,0.0
8.567,5812.273,0.00017,0.0,0.0
8.574,5774.37,0.00017,0.0,0.0
8.58,5773.758,0.00017,0.0,0.0
8.586,5768.117,0.00017,0.0,0.0
8.593,5755.316,0.00017,0.0,0.0
8.599,5762.394,0.00017,0.0,0.0
8.605,5740.427,0.00017,0.0,0.0
8.612,5730.882,0.00017,0.0,0.0
8.618,5730.527,0.00017,0.0,0.0
8.624,5723.938,0.00017,0.0,0.0
8.63,5708.271,0.00018,0.0,0.0
8.637,5716.481,0.00017,0.0,0.0
8.643,5703.657,0.00018,0.0,0.0
8.649,5690.848,0.00018,0.0,0.0
8.656,5688.369,0.00018,0.0,0.0
8.662,5689.087,0.00018,0.0,0.0
8.668,5696.7,0.00018,0.0,0.0
8.675,5669.723,0.00018,0.0,0.0
8.681,5680.635,0.00018,0.0,0.0
8.687,5667.664,0.00018,0.0,0.0
8.694,5661.67,0.00018,0.0,0.0
8.7,5661.187,0.00018,0.0,0.0
8.706,5666.316,0.00018,0.0,0.0
8.713,5650.764,0.00018,0.0,0.0
8.719,5645.261,0.00018,0.0,0.0
8.725,5640.021,0.00018,0.0,0.0
8.732,5648.367,0.00018,0.0,0.0
8.738,5636.667,0.00018,0.0,0.0
8.744,5632.855,0.00018,0.0,0.0
8.751,5631.816,0.00018,0.0,0.0
8.757,5635.306,0.00018,0.0,0.0
8.763,5631.443,0.00018,0.0,0.0
8.77,5624.637,0.00018,0.0,0.0
8.776,5622.555,0.00018,0.0,0.0
8.782,5622.881,0.00018,0.0,0.0
8.788,5609.976,0.00018,0.0,0.0
8.795,5608.823,0.00018,0.0,0.0
8.801,5602.042,0.00018,0.0,0.0
8.807,5607.474,0.00018,0.0,0.0
8.814,5604.966,0.00018,0.0,0.0
8.82,5587.178,0.00018,0.0,0.0
8.826,5583.027,0.00018,0.0,0.0
8.833,5594.185,0.00018,0.0,0.0
8.839,5593.41,0.00018,0.0,0.0
8.845,5593.557,0.00018,0.0,0.0
8.852,5562.239,0.00018,0.0,0.0
8.858,5575.017,0.00018,0.0,0.0
8.864,5560.104,0.00018,0.0,0.0
8.871,5572.995,0.00018,0.0,0.0
8.877,5560.48,0.00018,0.0,0.0
8.883,5572.118,0.00018,0.0,0.0
8.89,5580.851,0.00018,0.0,0.0
8.896,5574.335,0.00018,0.0,0.0
8.902,5568.284,0.00018,0.0,0.0
8.909,5554.685,0.00018,0.0,0.0
8.915,5565.363,0.00018,0.0,0.0
8.921,5556.662,0.00018,0.0,0.0
8.928,5566.28,0.00018,0.0,0.0
8.934,5557.527,0.00018,0.0,0.0
8.94,5563.832,0.00018,0.0,0.0
8.946,5545.166,0.00018,0.0,0.0
8.953,5565.253,0.00018,0.0,0.0
8.959,5558.254,0.00018,0.0,0.0
8.965,5564.072,0.00018,0.0,0.0
8.972,5548.387,0.00018,0.0,0.0
8.978,5568.625,0.00018,0.0,0.0
8.984,5584.021,0.00018,0.0,0.0
8.991,5585.725,0.00018,0.0,0.0
8.997,5562.128,0.00018,0.0,0.0
9.003,5574.355,0.00018,0.0,0.0
9.01,5601.181,0.00018,0.0,0.0
9.016,5591.371,0.00018,0.0,0.0
9.022,5600.084,0.00018,0.0,0.0
9.029,5609.832,0.00018,0.0,0.0
9.035,5624.841,0.00018,0.0,0.0
9.041,5626.755,0.00018,0.0,0.0
9.048,5631.72,0.00018,0.0,0.0
9.054,5665.891,0.00018,0.0,0.0
9.06,5656.914,0.00018,0.0,0.0
9.067,5705.464,0.00018,0.0,0.0
9.073,5705.965,0.00018,0.0,0.0
9.079,5765.208,0.00017,0.0,0.0
9.086,5795.546,0.00017,0.0,0.0
9.092,5946.566,0.00017,0.0,0.0
9.098,6098.084,0.00016,0.0,0.0
9.104,6474.277,0.00015,0.0,0.0
9.111,7228.727,0.00014,0.0,0.0
9.117,7713.885,0.00013,0.0,0.0
9.123,10121.834,0.0001,0.0,0.0
9.13,10111.124,0.0001,0.0,0.0
9.136,10291.337,0.0001,0.0,0.0
9.142,9711.955,0.0001,0.0,0.0
9.149,8649.611,0.00012,0.0,0.0
9.155,6898.091,0.00014,0.0,0.0
9.161,6797.58,0.00015,0.0,0.0
9.168,6127.718,0.00016,0.0,0.0
9.174,6032.531,0.00017,0.0,0.0
9.18,5915.144,0.00017,0.0,0.0
9.187,5865.245,0.00017,0.0,0.0
9.193,5860.011,0.00017,0.0,0.0
9.199,5821.559,0.00017,0.0,0.0
9.206,5812.144,0.00017,0.0,0.0
9.212,5777.949,0.00017,0.0,0.0
9.218,5796.738,0.00017,0.0,0.0
9.225,5758.837,0.00017,0.0,0.0
9.231,5758.268,0.00017,0.0,0.0
9.237,5755.427,0.00017,0.0,0.0
9.244,5754.327,0.00017,0.0,0.0
9.25,5744.73,0.00017,0.0,0.0
9.256,5749.932,0.00017,0.0,0.0
9.262,5732.583,0.00017,0.0,0.0
9.269,5726.979,0.00017,0.0,0.0
9.275,5746.165,0.00017,0.0,0.0
9.281,5733.506,0.00017,0.0,0.0
9.288,5722.735,0.00017,0.0,0.0
9.294,5716.639,0.00017,0.0,0.0
9.3,5706.172,0.00018,0.0,0.0
9.307,5713.69,0.00018,0.0,0.0
9.313,5681.887,0.00018,0.0,0.0
9.319,5663.42,0.00018,0.0,0.0
9.326,5677.649,0.00018,0.0,0.0
9.332,5644.845,0.00018,0.0,0.0
9.338,5654.115,0.00018,0.0,0.0
9.345,5616.171,0.00018,0.0,0.0
9.351,5613.534,0.00018,0.0,0.0
9.357,5588.716,0.00018,0.0,0.0
9.364,5581.713,0.00018,0.0,0.0
9.37,5577.223,0.00018,0.0,0.0
9.376,5549.305,0.00018,0.0,0.0
9.383,5536.69,0.00018,0.0,0.0
9.389,5509.647,0.00018,0.0,0.0
9.395,5517.404,0.00018,0.0,0.0
9.402,5483.08,0.00018,0.0,0.0
9.408,5461.191,0.00018,0.0,0.0
9.414,5448.345,0.00018,0.0,0.0
9.42,5440.949,0.00018,0.0,0.0
9.427,5391.867,0.00019,0.0,0.0
9.433,5400.788,0.00019,0.0,0.0
9.439,5365.375,0.00019,0.0,0.0
9.446,5383.502,0.00019,0.0,0.0
9.452,5365.467,0.00019,0.0,0.0
9.458,5334.984,0.00019,0.0,0.0
9.465,5325.635,0.00019,0.0,0.0
9.471,5316.264,0.00019,0.0,0.0
9.477,5318.323,0.00019,0.0,0.0
9.484,5291.548,0.00019,0.0,0.0
9.49,5287.578,0.00019,0.0,0.0
9.496,5268.127,0.00019,0.0,0.0
9.503,5250.933,0.00019,0.0,0.0
9.509,5219.679,0.00019,0.0,0.0
9.515,5212.311,0.00019,0.0,0.0
9.522,5204.732,0.00019,0.0,0.0
9.528,5172.485,0.00019,0.0,0.0
9.534,5181.37,0.00019,0.0,0.0
9.541,5152.293,0.00019,0.0,0.0
9.547,5163.613,0.00019,0.0,0.0
9.553,5142.8,0.00019,0.0,0.0
9.56,5156.272,0.00019,0.0,0.0
9.566,5126.701,0.0002,0.0,0.0
9.572,5126.35,0.0002,0.0,0.0
9.578,5127.836,0.0002,0.0,0.0
9.585,5097.009,0.0002,0.0,0.0
9.591,5089.82,0.0002,0.0,0.0
9.597,5100.267,0.0002,0.0,0.0
9.604,5075.018,0.0002,0.0,0.0
9.61,5077.929,0.0002,0.0,0.0
9.616,5064.533,0.0002,0.0,0.0
9.623,5044.617,0.0002,0.0,0.0
9.629,5056.905,0.0002,0.0,0.0
9.635,5034.779,0.0002,0.0,0.0
9.642,5038.902,0.0002,0.0,0.0
9.648,5041.22,0.0002,0.0,0.0
9.654,5013.628,0.0002,0.0,0.0
9.661,5019.713,0.0002,0.0,0.0
9.667,5016.331,0.0002,0.0,0.0
9.673,5008.424,0.0002,0.0,0.0
9.68,5016.298,0.0002,0.0,0.0
9.686,5012.253,0.0002,0.0,0.0
9.692,5000.254,0.0002,0.0,0.0
9.699,4994.133,0.0002,0.0,0.0
9.705,4987.594,0.0002,0.0,0.0
9.711,4999.063,0.0002,0.0,0.0
9.718,4987.226,0.0002,0.0,0.0
9.724,4982.728,0.0002,0.0,0.0
9.73,4979.007,0.0002,0.0,0.0
9.736,4966.394,0.0002,0.0,0.0
9.743,4977.853,0.0002,0.0,0.0
9.749,4973.509,0.0002,0.0,0.0
9.755,4972.784,0.0002,0.0,0.0
9.762,4974.922,0.0002,0.0,0.0
9.768,4959.051,0.0002,0.0,0.0
9.774,4964.977,0.0002,0.0,0.0
9.781,4969.265,0.0002,0.0,0.0
9.787,4964.676,0.0002,0.0,0.0
9.793,4958.941,0.0002,0.0,0.0
9.8,4972.383,0.0002,0.0,0.0
9.806,4970.549,0.0002,0.0,0.0
9.812,4977.67,0.0002,0.0,0.0
9.819,4954.115,0.0002,0.0,0.0
9.825,4956.449,0.0002,0.0,0.0
9.831,4965.362,0.0002,0.0,0.0
9.838,4968.939,0.0002,0.0,0.0
9.844,4977.117,0.0002,0.0,0.0
9.85,4962.812,0.0002,0.0,0.0
9.857,4980.851,0.0002,0.0,0.0
9.863,4952.533,0.0002,0.0,0.0
9.869,4980.223,0.0002,0.0,0.0
9.876,4970.707,0.0002,0.0,0.0
9.882,4983.765,0.0002,0.0,0.0
9.888,4993.329,0.0002,0.0,0.0
9.894,5010.9,0.0002,0.0,0.0
9.901,4979.505,0.0002,0.0,0.0
9.907,4980.725,0.0002,0.0,0.0
9.913,4977.265,0.0002,0.0,0.0
9.92,4973.003,0.0002,0.0,0.0
9.926,5012.53,0.0002,0.0,0.0
9.932,4988.087,0.0002,0.0,0.0
9.939,4985.146,0.0002,0.0,0.0
9.945,4985.771,0.0002,0.0,0.0
9.951,4976.143,0.0002,0.0,0.0
9.958,4993.974,0.0002,0.0,0.0
9.964,4992.299,0.0002,0.0,0.0
9.97,4993.849,0.0002,0.0,0.0
9.977,5002.985,0.0002,0.0,0.0
9.983,5007.836,0.0002,0.0,0.0
9.989,4997.219,0.0002,0.0,0.0
9.996,4993.037,0.0002,0.0,0.0
10.002,4982.004,0.0002,0.0,0.0
10.008,5027.014,0.0002,0.0,0.0
10.015,5000.628,0.0002,0.0,0.0
10.021,5002.468,0.0002,0.0,0.0
10.027,5028.745,0.0002,0.0,0.0
10.034,5009.104,0.0002,0.0,0.0
10.04,5026.164,0.0002,0.0,0.0
10.046,5010.779,0.0002,0.0,0.0
10.052,5043.929,0.0002,0.0,0.0
10.059,5035.697,0.0002,0.0,0.0
10.065,5054.046,0.0002,0.0,0.0
10.071,5056.407,0.0002,0.0,0.0
10.078,5041.748,0.0002,0.0,0.0
10.084,5046.982,0.0002,0.0,0.0
10.09,5051.781,0.0002,0.0,0.0
10.097,5068.9,0.0002,0.0,0.0
10.103,5081.862,0.0002,0.0,0.0
10.109,5088.49,0.0002,0.0,0.0
10.116,5087.133,0.0002,0.0,0.0
10.122,5101.935,0.0002,0.0,0.0
10.128,5077.933,0.0002,0.0,0.0
10.135,5094.055,0.0002,0.0,0.0
10.141,5111.138,0.0002,0.0,0.0
10.147,5092.109,0.0002,0.0,0.0
10.154,5124.881,0.0002,0.0,0.0
10.16,5152.796,0.00019,0.0,0.0
10.166,5145.595,0.00019,0.0,0.0
10.173,5218.86,0.00019,0.0,0.0
10.179,5222.614,0.00019,0.0,0.0
10.185,5444.422,0.00018,0.0,0.0
10.192,5737.719,0.00017,0.0,0.0
10.198,5578.169,0.00018,0.0,0.0
10.204,6301.741,0.00016,0.0,0.0
10.21,7118.64,0.00014,0.0,0.0
10.217,6233.269,0.00016,0.0,0.0
10.223,6588.023,0.00015,0.0,0.0
10.229,5802.459,0.00017,0.0,0.0
10.236,5473.505,0.00018,0.0,0.0
10.242,5411.199,0.00018,0.0,0.0
10.248,5167.846,0.00019,0.0,0.0
10.255,5139.044,0.00019,0.0,0.0
10.261,5093.426,0.0002,0.0,0.0
10.267,5043.627,0.0002,0.0,0.0
10.274,5019.54,0.0002,0.0,0.0
10.28,4988.706,0.0002,0.0,0.0
10.286,5013.299,0.0002,0.0,0.0
10.293,4971.17,0.0002,0.0,0.0
10.299,4988.709,0.0002,0.0,0.0
10.305,4966.039,0.0002,0.0,0.0
10.312,4938.964,0.0002,0.0,0.0
10.318,4938.601,0.0002,0.0,0.0
10.324,4919.364,0.0002,0.0,0.0
10.331,4918.537,0.0002,0.0,0.0
10.337,4918.274,0.0002,0.0,0.0
10.343,4904.664,0.0002,0.0,0.0
10.35,4894.54,0.0002,0.0,0.0
10.356,4898.864,0.0002,0.0,0.0
10.362,4870.422,0.00021,0.0,0.0
10.368,4877.624,0.00021,0.0,0.0
10.375,4873.381,0.00021,0.0,0.0
10.381,4863.155,0.00021,0.0,0.0
10.387,4876.311,0.00021,0.0,0.0
10.394,4859.341,0.00021,0.0,0.0
10.4,4844.322,0.00021,0.0,0.0
10.406,4836.651,0.00021,0.0,0.0
10.413,4835.253,0.00021,0.0,0.0
10.419,4818.968,0.00021,0.0,0.0
10.425,4828.691,0.00021,0.0,0.0
10.432,4821.63,0.00021,0.0,0.0
10.438,4826.815,0.00021,0.0,0.0
10.444,4811.849,0.00021,0.0,0.0
10.451,4810.301,0.00021,0.0,0.0
10.457,4799.727,0.00021,0.0,0.0
10.463,4801.916,0.00021,0.0,0.0
10.47,4819.868,0.00021,0.0,0.0
10.476,4800.572,0.00021,0.0,0.0
10.482,4795.765,0.00021,0.0,0.0
10.489,4783.651,0.00021,0.0,0.0
10.495,4798.917,0.00021,0.0,0.0
10.501,4783.998,0.00021,0.0,0.0
10.508,4787.09,0.00021,0.0,0.0
10.514,4790.275,0.00021,0.0,0.0
10.52,4785.449,0.00021,0.0,0.0
10.526,4782.567,0.00021,0.0,0.0
10.533,4785.168,0.00021,0.0,0.0
10.539,4778.782,0.00021,0.0,0.0
10.545,4777.824,0.00021,0.0,0.0
10.552,4787.126,0.00021,0.0,0.0
10.558,4767.105,0.00021,0.0,0.0
10.564,4792.927,0.00021,0.0,0.0
10.571,4780.789,0.00021,0.0,0.0
10.577,4782.733,0.00021,0.0,0.0
10.583,4768.823,0.00021,0.0,0.0
10.59,4782.331,0.00021,0.0,0.0
10.596,4775.307,0.00021,0.0,0.0
10.602,4761.181,0.00021,0.0,0.0
10.609,4779.544,0.00021,0.0,0.0
10.615,4781.063,0.00021,0.0,0.0
10.621,4784.507,0.00021,0.0,0.0
10.628,4780.491,0.00021,0.0,0.0
10.634,4785.601,0.00021,0.0,0.0
10.64,4775.239,0.00021,0.0,0.0
10.647,4795.201,0.00021,0.0,0.0
10.653,4787.181,0.00021,0.0,0.0
10.659,4789.797,0.00021,0.0,0.0
10.666,4797.355,0.00021,0.0,0.0
10.672,4793.569,0.00021,0.0,0.0
10.678,4811.404,0.00021,0.0,0.0
10.684,4813.13,0.00021,0.0,0.0
10.691,4826.833,0.00021,0.0,0.0
10.697,4829.759,0.00021,0.0,0.0
10.703,4835.214,0.00021,0.0,0.0
10.71,4881.326,0.0002,0.0,0.0
10.716,4872.447,0.00021,0.0,0.0
10.722,4925.081,0.0002,0.0,0.0
10.729,4952.849,0.0002,0.0,0.0
10.735,4981.565,0.0002,0.0,0.0
10.741,5052.506,0.0002,0.0,0.0
10.748,5121.49,0.0002,0.0,0.0
10.754,5272.691,0.00019,0.0,0.0
10.76,5456.307,0.00018,0.0,0.0
10.767,5774.419,0.00017,0.0,0.0
10.773,6462.609,0.00015,0.0,0.0
10.779,7351.867,0.00014,0.0,0.0
10.786,9219.024,0.00011,0.0,0.0
10.792,12919.206,0.00008,0.0,0.0
10.798,17760.782,0.00006,0.0,0.0
10.805,25024.613,0.00004,0.0,0.0
10.811,29528.261,0.00003,0.0,0.0
10.817,33778.518,0.00003,0.0,0.0
10.824,33223.42,0.00003,0.0,0.0
10.83,25163.058,0.00004,0.0,0.0
10.836,19964.165,0.00005,0.0,0.0
10.842,13631.614,0.00007,0.0,0.0
10.849,9673.504,0.0001,0.0,0.0
10.855,7822.307,0.00013,0.0,0.0
10.861,6562.41,0.00015,0.0,0.0
10.868,5991.659,0.00017,0.0,0.0
10.874,5603.31,0.00018,0.0,0.0
10.88,5366.171,0.00019,0.0,0.0
10.887,5249.545,0.00019,0.0,0.0
10.893,5141.592,0.00019,0.0,0.0
10.899,5085.381,0.0002,0.0,0.0
10.906,5049.208,0.0002,0.0,0.0
10.912,5008.296,0.0002,0.0,0.0
10.918,4987.417,0.0002,0.0,0.0
10.925,4968.213,0.0002,0.0,0.0
10.931,4949.119,0.0002,0.0,0.0
10.937,4927.248,0.0002,0.0,0.0
10.944,4919.678,0.0002,0.0,0.0
10.95,4898.308,0.0002,0.0,0.0
10.956,4912.98,0.0002,0.0,0.0
10.963,4893.75,0.0002,0.0,0.0
10.969,4863.76,0.00021,0.0,0.0
10.975,4874.633,0.00021,0.0,0.0
10.982,4850.427,0.00021,0.0,0.0
10.988,4848.966,0.00021,0.0,0.0
10.994,4833.205,0.00021,0.0,0.0
11.0,4835.739,0.00021,0.0,0.0
11.007,4824.608,0.00021,0.0,0.0
11.013,4813.605,0.00021,0.0,0.0
11.019,4815.023,0.00021,0.0,0.0
11.026,4795.765,0.00021,0.0,0.0
11.032,4782.637,0.00021,0.0,0.0
11.038,4784.873,0.00021,0.0,0.0
11.045,4769.213,0.00021,0.0,0.0
11.051,4779.372,0.00021,0.0,0.0
11.057,4755.107,0.00021,0.0,0.0
11.064,4761.568,0.00021,0.0,0.0
11.07,4748.289,0.00021,0.0,0.0
11.076,4737.775,0.00021,0.0,0.0
11.083,4739.721,0.00021,0.0,0.0
11.089,4729.099,0.00021,0.0,0.0
11.095,4721.743,0.00021,0.0,0.0
11.102,4729.167,0.00021,0.0,0.0
11.108,4707.541,0.00021,0.0,0.0
11.114,4708.203,0.00021,0.0,0.0
11.121,4702.443,0.00021,0.0,0.0
11.127,4699.442,0.00021,0.0,0.0
11.133,4676.552,0.00021,0.0,0.0
11.14,4680.096,0.00021,0.0,0.0
11.146,4660.758,0.00021,0.0,0.0
11.152,4672.624,0.00021,0.0,0.0
11.158,4667.238,0.00021,0.0,0.0
11.165,4664.991,0.00021,0.0,0.0
11.171,4673.99,0.00021,0.0,0.0
11.177,4661.902,0.00021,0.0,0.0
11.184,4652.471,0.00021,0.0,0.0
11.19,4662.325,0.00021,0.0,0.0
11.196,4664.259,0.00021,0.0,0.0
11.203,4644.988,0.00022,0.0,0.0
11.209,4635.201,0.00022,0.0,0.0
11.215,4632.369,0.00022,0.0,0.0
11.222,4622.529,0.00022,0.0,0.0
11.228,4630.285,0.00022,0.0,0.0
11.234,4613.002,0.00022,0.0,0.0
11.241,4617.199,0.00022,0.0,0.0
11.247,4617.452,0.00022,0.0,0.0
11.253,4600.003,0.00022,0.0,0.0
11.26,4609.195,0.00022,0.0,0.0
11.266,4604.692,0.00022,0.0,0.0
11.272,4604.251,0.00022,0.0,0.0
11.279,4604.352,0.00022,0.0,0.0
11.285,4596.126,0.00022,0.0,0.0
11.291,4592.011,0.00022,0.0,0.0
11.298,4595.012,0.00022,0.0,0.0
11.304,4603.233,0.00022,0.0,0.0
11.31,4579.866,0.00022,0.0,0.0
11.316,4576.64,0.00022,0.0,0.0
11.323,4581.794,0.00022,0.0,0.0
11.329,4576.513,0.00022,0.0,0.0
11.335,4573.385,0.00022,0.0,0.0
11.342,4582.95,0.00022,0.0,0.0
11.348,4575.814,0.00022,0.0,0.0
11.354,4586.479,0.00022,0.0,0.0
11.361,4580.366,0.00022,0.0,0.0
11.367,4574.704,0.00022,0.0,0.0
11.373,4570.913,0.00022,0.0,0.0
11.38,4577.854,0.00022,0.0,0.0
11.386,4574.518,0.00022,0.0,0.0
11.392,4581.194,0.00022,0.0,0.0
11.399,4580.905,0.00022,0.0,0.0
11.405,4581.106,0.00022,0.0,0.0
11.411,4573.723,0.00022,0.0,0.0
11.418,4574.968,0.00022,0.0,0.0
11.424,4570.475,0.00022,0.0,0.0
11.43,4567.621,0.00022,0.0,0.0
11.437,4564.936,0.00022,0.0,0.0
11.443,4581.628,0.00022,0.0,0.0
11.449,4578.056,0.00022,0.0,0.0
11.456,4573.587,0.00022,0.0,0.0
11.462,4571.137,0.00022,0.0,0.0
11.468,4578.231,0.00022,0.0,0.0
11.474,4581.234,0.00022,0.0,0.0
11.481,4598.434,0.00022,0.0,0.0
11.487,4581.027,0.00022,0.0,0.0
11.493,4584.009,0.00022,0.0,0.0
11.5,4585.693,0.00022,0.0,0.0
11.506,4592.055,0.00022,0.0,0.0
11.512,4596.096,0.00022,0.0,0.0
11.519,4596.687,0.00022,0.0,0.0
11.525,4591.859,0.00022,0.0,0.0
11.531,4607.68,0.00022,0.0,0.0
11.538,4611.334,0.00022,0.0,0.0
11.544,4607.116,0.00022,0.0,0.0
11.55,4612.377,0.00022,0.0,0.0
11.557,4619.836,0.00022,0.0,0.0
11.563,4607.929,0.00022,0.0,0.0
11.569,4616.738,0.00022,0.0,0.0
11.576,4608.858,0.00022,0.0,0.0
11.582,4615.27,0.00022,0.0,0.0
11.588,4619.404,0.00022,0.0,0.0
11.595,4630.34,0.00022,0.0,0.0
11.601,4626.106,0.00022,0.0,0.0
11.607,4643.66,0.00022,0.0,0.0
11.614,4649.882,0.00022,0.0,0.0
11.62,4632.474,0.00022,0.0,0.0
11.626,4656.37,0.00021,0.0,0.0
11.632,4677.745,0.00021,0.0,0.0
11.639,4670.365,0.00021,0.0,0.0
11.645,4681.691,0.00021,0.0,0.0
11.651,4664.113,0.00021,0.0,0.0
11.658,4681.287,0.00021,0.0,0.0
11.664,4687.905,0.00021,0.0,0.0
11.67,4681.159,0.00021,0.0,0.0
11.677,4694.031,0.00021,0.0,0.0
11.683,4688.43,0.00021,0.0,0.0
11.689,4697.962,0.00021,0.0,0.0
11.696,4701.614,0.00021,0.0,0.0
11.702,4700.139,0.00021,0.0,0.0
11.708,4717.61,0.00021,0.0,0.0
11.715,4718.713,0.00021,0.0,0.0
11.721,4715.81,0.00021,0.0,0.0
11.727,4721.167,0.00021,0.0,0.0
11.734,4714.006,0.00021,0.0,0.0
11.74,4720.06,0.00021,0.0,0.0
11.746,4715.461,0.00021,0.0,0.0
11.753,4726.796,0.00021,0.0,0.0
11.759,4731.114,0.00021,0.0,0.0
11.765,4723.989,0.00021,0.0,0.0
11.772,4724.174,0.00021,0.0,0.0
11.778,4728.359,0.00021,0.0,0.0
11.784,4713.648,0.00021,0.0,0.0
11.79,4729.657,0.00021,0.0,0.0
11.797,4712.936,0.00021,0.0,0.0
11.803,4722.25,0.00021,0.0,0.0
11.809,4707.542,0.00021,0.0,0.0
11.816,4706.392,0.00021,0.0,0.0
11.822,4700.971,0.00021,0.0,0.0
11.828,4698.86,0.00021,0.0,0.0
11.835,4703.494,0.00021,0.0,0.0
11.841,4716.059,0.00021,0.0,0.0
11.847,4701.008,0.00021,0.0,0.0
11.854,4715.348,0.00021,0.0,0.0
11.86,4708.245,0.00021,0.0,0.0
11.866,4699.65,0.00021,0.0,0.0
11.873,4691.439,0.00021,0.0,0.0
11.879,4680.892,0.00021,0.0,0.0
11.885,4706.659,0.00021,0.0,0.0
11.892,4695.007,0.00021,0.0,0.0
11.898,4703.129,0.00021,0.0,0.0
11.904,4703.315,0.00021,0.0,0.0
11.911,4692.71,0.00021,0.0,0.0
11.917,4701.176,0.00021,0.0,0.0
11.923,4690.519,0.00021,0.0,0.0
11.93,4694.941,0.00021,0.0,0.0
11.936,4696.559,0.00021,0.0,0.0
11.942,4697.982,0.00021,0.0,0.0
11.948,4700.611,0.00021,0.0,0.0
11.955,4695.007,0.00021,0.0,0.0
11.961,4699.86,0.00021,0.0,0.0
11.967,4701.913,0.00021,0.0,0.0
11.974,4707.745,0.00021,0.0,0.0
11.98,4718.91,0.00021,0.0,0.0
11.986,4712.791,0.00021,0.0,0.0
11.993,4706.664,0.00021,0.0,0.0
11.999,4720.657,0.00021,0.0,0.0
12.005,4723.007,0.00021,0.0,0.0
12.012,4720.549,0.00021,0.0,0.0
12.018,4741.846,0.00021,0.0,0.0
12.024,4755.533,0.00021,0.0,0.0
12.031,4780.604,0.00021,0.0,0.0
12.037,4786.158,0.00021,0.0,0.0
12.043,4818.459,0.00021,0.0,0.0
12.05,4859.179,0.00021,0.0,0.0
12.056,4906.366,0.0002,0.0,0.0
12.062,5232.928,0.00019,0.0,0.0
12.069,5178.009,0.00019,0.0,0.0
12.075,5546.951,0.00018,0.0,0.0
12.081,5581.415,0.00018,0.0,0.0
12.088,6238.4,0.00016,0.0,0.0
12.094,5842.412,0.00017,0.0,0.0
12.1,6019.983,0.00017,0.0,0.0
12.106,5327.097,0.00019,0.0,0.0
12.113,5373.192,0.00019,0.0,0.0
12.119,4985.952,0.0002,0.0,0.0
12.125,4840.123,0.00021,0.0,0.0
12.132,4747.047,0.00021,0.0,0.0
12.138,4706.862,0.00021,0.0,0.0
12.144,4681.37,0.00021,0.0,0.0
12.151,4662.831,0.00021,0.0,0.0
12.157,4635.652,0.00022,0.0,0.0
12.163,4612.84,0.00022,0.0,0.0
12.17,4607.108,0.00022,0.0,0.0
12.176,4600.449,0.00022,0.0,0.0
12.182,4576.763,0.00022,0.0,0.0
12.189,4567.665,0.00022,0.0,0.0
12.195,4548.307,0.00022,0.0,0.0
12.201,4549.349,0.00022,0.0,0.0
12.208,4528.083,0.00022,0.0,0.0
12.214,4511.289,0.00022,0.0,0.0
12.22,4511.296,0.00022,0.0,0.0
12.227,4492.47,0.00022,0.0,0.0
12.233,4491.268,0.00022,0.0,0.0
12.239,4483.971,0.00022,0.0,0.0
12.246,4460.395,0.00022,0.0,0.0
12.252,4485.418,0.00022,0.0,0.0
12.258,4465.993,0.00022,0.0,0.0
12.264,4459.809,0.00022,0.0,0.0
12.271,4440.032,0.00023,0.0,0.0
12.277,4463.584,0.00022,0.0,0.0
12.283,4434.32,0.00023,0.0,0.0
12.29,4423.182,0.00023,0.0,0.0
12.296,4411.542,0.00023,0.0,0.0
12.302,4413.784,0.00023,0.0,0.0
12.309,4403.589,0.00023,0.0,0.0
12.315,4409.766,0.00023,0.0,0.0
12.321,4399.724,0.00023,0.0,0.0
12.328,4390.338,0.00023,0.0,0.0
12.334,4397.32,0.00023,0.0,0.0
12.34,4365.667,0.00023,0.0,0.0
12.347,4372.04,0.00023,0.0,0.0
12.353,4381.983,0.00023,0.0,0.0
12.359,4345.881,0.00023,0.0,0.0
12.366,4366.516,0.00023,0.0,0.0
12.372,4355.888,0.00023,0.0,0.0
12.378,4350.718,0.00023,0.0,0.0
12.385,4349.747,0.00023,0.0,0.0
12.391,4335.111,0.00023,0.0,0.0
12.397,4345.973,0.00023,0.0,0.0
12.404,4341.927,0.00023,0.0,0.0
12.41,4333.588,0.00023,0.0,0.0
12.416,4344.687,0.00023,0.0,0.0
12.422,4337.602,0.00023,0.0,0.0
12.429,4328.375,0.00023,0.0,0.0
12.435,4336.285,0.00023,0.0,0.0
12.441,4316.165,0.00023,0.0,0.0
12.448,4317.695,0.00023,0.0,0.0
12.454,4317.184,0.00023,0.0,0.0
12.46,4315.878,0.00023,0.0,0.0
12.467,4312.744,0.00023,0.0,0.0
12.473,4328.62,0.00023,0.0,0.0
12.479,4326.544,0.00023,0.0,0.0
12.486,4334.256,0.00023,0.0,0.0
12.492,4328.549,0.00023,0.0,0.0
12.498,4312.917,0.00023,0.0,0.0
12.505,4318.513,0.00023,0.0,0.0
12.511,4320.001,0.00023,0.0,0.0
12.517,4323.888,0.00023,0.0,0.0
12.524,4315.287,0.00023,0.0,0.0
12.53,4331.89,0.00023,0.0,0.0
12.536,4323.517,0.00023,0.0,0.0
12.543,4333.624,0.00023,0.0,0.0
12.549,4342.166,0.00023,0.0,0.0
12.555,4341.396,0.00023,0.0,0.0
12.562,4355.16,0.00023,0.0,0.0
12.568,4350.88,0.00023,0.0,0.0
12.574,4356.531,0.00023,0.0,0.0
12.58,4381.138,0.00023,0.0,0.0
12.587,4385.639,0.00023,0.0,0.0
12.593,4419.805,0.00023,0.0,0.0
12.599,4442.655,0.00023,0.0,0.0
12.606,4480.337,0.00022,0.0,0.0
12.612,4527.948,0.00022,0.0,0.0
12.618,4623.256,0.00022,0.0,0.0
12.625,4728.198,0.00021,0.0,0.0
12.631,4929.886,0.0002,0.0,0.0
12.637,5192.451,0.00019,0.0,0.0
12.644,5726.901,0.00017,0.0,0.0
12.65,6609.249,0.00015,0.0,0.0
12.656,8087.227,0.00012,0.0,0.0
12.663,11176.727,0.00009,0.0,0.0
12.669,15688.459,0.00006,0.0,0.0
12.675,22414.459,0.00004,0.0,0.0
12.682,29255.655,0.00003,0.0,0.0
12.688,35378.845,0.00003,0.0,0.0
12.694,35492.708,0.00003,0.0,0.0
12.701,31980.34,0.00003,0.0,0.0
12.707,27846.782,0.00004,0.0,0.0
12.713,17220.057,0.00006,0.0,0.0
12.72,13185.69,0.00008,0.0,0.0
12.726,9169.479,0.00011,0.0,0.0
12.732,7156.57,0.00014,0.0,0.0
12.738,6021.296,0.00017,0.0,0.0
12.745,5323.356,0.00019,0.0,0.0
12.751,4954.109,0.0002,0.0,0.0
12.757,4724.114,0.00021,0.0,0.0
12.764,4561.947,0.00022,0.0,0.0
12.77,4482.902,0.00022,0.0,0.0
12.776,4396.232,0.00023,0.0,0.0
12.783,4361.65,0.00023,0.0,0.0
12.789,4320.967,0.00023,0.0,0.0
12.795,4290.328,0.00023,0.0,0.0
12.802,4262.923,0.00023,0.0,0.0
12.808,4247.605,0.00024,0.0,0.0
12.814,4229.065,0.00024,0.0,0.0
12.821,4218.44,0.00024,0.0,0.0
12.827,4214.994,0.00024,0.0,0.0
12.833,4205.23,0.00024,0.0,0.0
12.84,4191.501,0.00024,0.0,0.0
12.846,4189.469,0.00024,0.0,0.0
12.852,4166.783,0.00024,0.0,0.0
12.859,4170.28,0.00024,0.0,0.0
12.865,4148.642,0.00024,0.0,0.0
12.871,4161.687,0.00024,0.0,0.0
12.878,4139.429,0.00024,0.0,0.0
12.884,4135.577,0.00024,0.0,0.0
12.89,4134.143,0.00024,0.0,0.0
12.896,4133.171,0.00024,0.0,0.0
12.903,4128.054,0.00024,0.0,0.0
12.909,4130.852,0.00024,0.0,0.0
12.915,4128.204,0.00024,0.0,0.0
12.922,4127.391,0.00024,0.0,0.0
12.928,4121.143,0.00024,0.0,0.0
12.934,4132.971,0.00024,0.0,0.0
12.941,4138.668,0.00024,0.0,0.0
12.947,4121.049,0.00024,0.0,0.0
12.953,4118.803,0.00024,0.0,0.0
12.96,4119.664,0.00024,0.0,0.0
12.966,4099.112,0.00024,0.0,0.0
12.972,4098.212,0.00024,0.0,0.0
12.979,4101.331,0.00024,0.0,0.0
12.985,4077.781,0.00025,0.0,0.0
12.991,4073.014,0.00025,0.0,0.0
12.998,4073.221,0.00025,0.0,0.0
13.004,4070.189,0.00025,0.0,0.0
13.01,4080.805,0.00025,0.0,0.0
13.017,4075.511,0.00025,0.0,0.0
13.023,4072.763,0.00025,0.0,0.0
13.029,4070.286,0.00025,0.0,0.0
13.036,4082.362,0.00024,0.0,0.0
13.042,4078.364,0.00025,0.0,0.0
13.048,4064.14,0.00025,0.0,0.0
13.054,4066.461,0.00025,0.0,0.0
13.061,4067.348,0.00025,0.0,0.0
13.067,4059.756,0.00025,0.0,0.0
13.073,4051.258,0.00025,0.0,0.0
13.08,4069.371,0.00025,0.0,0.0
13.086,4060.175,0.00025,0.0,0.0
13.092,4060.169,0.00025,0.0,0.0
13.099,4062.63,0.00025,0.0,0.0
13.105,4075.743,0.00025,0.0,0.0
13.111,4054.881,0.00025,0.0,0.0
13.118,4059.914,0.00025,0.0,0.0
13.124,4063.096,0.00025,0.0,0.0
13.13,4051.051,0.00025,0.0,0.0
13.137,4060.468,0.00025,0.0,0.0
13.143,4054.396,0.00025,0.0,0.0
13.149,4050.504,0.00025,0.0,0.0
13.156,4059.891,0.00025,0.0,0.0
13.162,4066.119,0.00025,0.0,0.0
13.168,4061.71,0.00025,0.0,0.0
13.175,4090.236,0.00024,0.0,0.0
13.181,4092.314,0.00024,0.0,0.0
13.187,4103.036,0.00024,0.0,0.0
13.194,4139.401,0.00024,0.0,0.0
13.2,4192.172,0.00024,0.0,0.0
13.206,4255.832,0.00023,0.0,0.0
13.212,4368.665,0.00023,0.0,0.0
13.219,4629.453,0.00022,0.0,0.0
13.225,5019.614,0.0002,0.0,0.0
13.231,5779.493,0.00017,0.0,0.0
13.238,7110.955,0.00014,0.0,0.0
13.244,8919.795,0.00011,0.0,0.0
13.25,10835.244,0.00009,0.0,0.0
13.257,12696.31,0.00008,0.0,0.0
13.263,12835.184,0.00008,0.0,0.0
13.269,11709.482,0.00009,0.0,0.0
13.276,9696.631,0.0001,0.0,0.0
13.282,7516.259,0.00013,0.0,0.0
13.288,6060.046,0.00017,0.0,0.0
13.295,5127.712,0.0002,0.0,0.0
13.301,4584.187,0.00022,0.0,0.0
13.307,4353.279,0.00023,0.0,0.0
13.314,4187.089,0.00024,0.0,0.0
13.32,4103.208,0.00024,0.0,0.0
13.326,4063.264,0.00025,0.0,0.0
13.333,4017.921,0.00025,0.0,0.0
13.339,4005.912,0.00025,0.0,0.0
13.345,3968.544,0.00025,0.0,0.0
13.352,3965.699,0.00025,0.0,0.0
13.358,3941.739,0.00025,0.0,0.0
13.364,3927.052,0.00025,0.0,0.0
13.37,3933.491,0.00025,0.0,0.0
13.377,3932.405,0.00025,0.0,0.0
13.383,3911.115,0.00026,0.0,0.0
13.389,3911.313,0.00026,0.0,0.0
13.396,3914.184,0.00026,0.0,0.0
13.402,3896.209,0.00026,0.0,0.0
13.408,3904.886,0.00026,0.0,0.0
13.415,3892.043,0.00026,0.0,0.0
13.421,3881.842,0.00026,0.0,0.0
13.427,3892.401,0.00026,0.0,0.0
13.434,3876.18,0.00026,0.0,0.0
13.44,3870.179,0.00026,0.0,0.0
13.446,3858.894,0.00026,0.0,0.0
13.453,3867.544,0.00026,0.0,0.0
13.459,3858.002,0.00026,0.0,0.0
13.465,3864.512,0.00026,0.0,0.0
13.472,3847.266,0.00026,0.0,0.0
13.478,3844.296,0.00026,0.0,0.0
13.484,3861.017,0.00026,0.0,0.0
13.491,3853.229,0.00026,0.0,0.0
13.497,3838.532,0.00026,0.0,0.0
13.503,3843.915,0.00026,0.0,0.0
13.51,3849.962,0.00026,0.0,0.0
13.516,3846.311,0.00026,0.0,0.0
13.522,3833.957,0.00026,0.0,0.0
13.528,3847.335,0.00026,0.0,0.0
13.535,3838.376,0.00026,0.0,0.0
13.541,3822.196,0.00026,0.0,0.0
13.547,3829.325,0.00026,0.0,0.0
13.554,3832.257,0.00026,0.0,0.0
13.56,3836.909,0.00026,0.0,0.0
13.566,3826.721,0.00026,0.0,0.0
13.573,3839.846,0.00026,0.0,0.0
13.579,3832.574,0.00026,0.0,0.0
13.585,3835.293,0.00026,0.0,0.0
13.592,3828.288,0.00026,0.0,0.0
13.598,3816.005,0.00026,0.0,0.0
13.604,3822.953,0.00026,0.0,0.0
13.611,3833.698,0.00026,0.0,0.0
13.617,3821.733,0.00026,0.0,0.0
13.623,3820.024,0.00026,0.0,0.0
13.63,3838.731,0.00026,0.0,0.0
13.636,3830.108,0.00026,0.0,0.0
13.642,3842.846,0.00026,0.0,0.0
13.649,3835.144,0.00026,0.0,0.0
13.655,3845.621,0.00026,0.0,0.0
13.661,3839.738,0.00026,0.0,0.0
13.668,3845.545,0.00026,0.0,0.0
13.674,3865.006,0.00026,0.0,0.0
13.68,3879.145,0.00026,0.0,0.0
13.686,3901.483,0.00026,0.0,0.0
13.693,3954.228,0.00025,0.0,0.0
13.699,4055.752,0.00025,0.0,0.0
13.705,4264.358,0.00023,0.0,0.0
13.712,4456.765,0.00022,0.0,0.0
13.718,4613.262,0.00022,0.0,0.0
13.724,4932.818,0.0002,0.0,0.0
13.731,4142.058,0.00024,0.0,0.0
13.737,4152.006,0.00024,0.0,0.0
13.743,4270.642,0.00023,0.0,0.0
13.75,3898.058,0.00026,0.0,0.0
13.756,3856.011,0.00026,0.0,0.0
13.762,3822.458,0.00026,0.0,0.0
13.769,3817.314,0.00026,0.0,0.0
13.775,3799.054,0.00026,0.0,0.0
13.781,3779.379,0.00026,0.0,0.0
13.788,3779.392,0.00026,0.0,0.0
13.794,3779.44,0.00026,0.0,0.0
13.8,3766.836,0.00027,0.0,0.0
13.807,3764.469,0.00027,0.0,0.0
13.813,3751.331,0.00027,0.0,0.0
13.819,3750.313,0.00027,0.0,0.0
13.826,3748.663,0.00027,0.0,0.0
13.832,3734.221,0.00027,0.0,0.0
13.838,3731.779,0.00027,0.0,0.0
13.844,3720.955,0.00027,0.0,0.0
13.851,3723.963,0.00027,0.0,0.0
13.857,3717.839,0.00027,0.0,0.0
13.863,3710.632,0.00027,0.0,0.0
13.87,3710.24,0.00027,0.0,0.0
13.876,3709.789,0.00027,0.0,0.0
13.882,3697.39,0.00027,0.0,0.0
13.889,3697.165,0.00027,0.0,0.0
13.895,3696.93,0.00027,0.0,0.0
13.901,3686.422,0.00027,0.0,0.0
13.908,3685.201,0.00027,0.0,0.0
13.914,3681.683,0.00027,0.0,0.0
13.92,3682.205,0.00027,0.0,0.0
13.927,3670.826,0.00027,0.0,0.0
13.933,3670.398,0.00027,0.0,0.0
13.939,3676.427,0.00027,0.0,0.0
13.946,3667.862,0.00027,0.0,0.0
13.952,3654.725,0.00027,0.0,0.0
13.958,3640.457,0.00027,0.0,0.0
13.965,3663.158,0.00027,0.0,0.0
13.971,3644.765,0.00027,0.0,0.0
13.977,3643.179,0.00027,0.0,0.0
13.984,3643.313,0.00027,0.0,0.0
13.99,3630.912,0.00028,0.0,0.0
13.996,3624.802,0.00028,0.0,0.0
14.002,3631.141,0.00028,0.0,0.0
14.009,3630.027,0.00028,0.0,0.0
14.015,3638.908,0.00027,0.0,0.0
14.021,3624.202,0.00028,0.0,0.0
14.028,3623.588,0.00028,0.0,0.0
14.034,3614.709,0.00028,0.0,0.0
14.04,3622.963,0.00028,0.0,0.0
14.047,3624.911,0.00028,0.0,0.0
14.053,3600.629,0.00028,0.0,0.0
14.059,3600.67,0.00028,0.0,0.0
14.066,3607.147,0.00028,0.0,0.0
14.072,3594.474,0.00028,0.0,0.0
14.078,3587.825,0.00028,0.0,0.0
14.085,3599.331,0.00028,0.0,0.0
14.091,3588.84,0.00028,0.0,0.0
14.097,3592.214,0.00028,0.0,0.0
14.104,3576.653,0.00028,0.0,0.0
14.11,3582.491,0.00028,0.0,0.0
14.116,3572.371,0.00028,0.0,0.0
14.123,3581.551,0.00028,0.0,0.0
14.129,3568.917,0.00028,0.0,0.0
14.135,3565.609,0.00028,0.0,0.0
14.142,3561.338,0.00028,0.0,0.0
14.148,3567.335,0.00028,0.0,0.0
14.154,3556.937,0.00028,0.0,0.0
14.16,3564.167,0.00028,0.0,0.0
14.167,3565.897,0.00028,0.0,0.0
14.173,3559.003,0.00028,0.0,0.0
14.179,3564.123,0.00028,0.0,0.0
14.186,3554.788,0.00028,0.0,0.0
14.192,3559.781,0.00028,0.0,0.0
14.198,3548.046,0.00028,0.0,0.0
14.205,3533.986,0.00028,0.0,0.0
14.211,3548.975,0.00028,0.0,0.0
14.217,3552.899,0.00028,0.0,0.0
14.224,3556.511,0.00028,0.0,0.0
14.23,3545.563,0.00028,0.0,0.0
14.236,3547.233,0.00028,0.0,0.0
14.243,3538.547,0.00028,0.0,0.0
14.249,3549.036,0.00028,0.0,0.0
14.255,3547.781,0.00028,0.0,0.0
14.262,3541.032,0.00028,0.0,0.0
14.268,3533.715,0.00028,0.0,0.0
14.274,3536.829,0.00028,0.0,0.0
14.281,3552.91,0.00028,0.0,0.0
14.287,3550.847,0.00028,0.0,0.0
14.293,3543.404,0.00028,0.0,0.0
14.3,3543.201,0.00028,0.0,0.0
14.306,3534.301,0.00028,0.0,0.0
14.312,3539.945,0.00028,0.0,0.0
14.318,3528.531,0.00028,0.0,0.0
14.325,3539.011,0.00028,0.0,0.0
14.331,3522.276,0.00028,0.0,0.0
14.337,3523.158,0.00028,0.0,0.0
14.344,3529.2,0.00028,0.0,0.0
14.35,3520.314,0.00028,0.0,0.0
14.356,3524.708,0.00028,0.0,0.0
14.363,3521.317,0.00028,0.0,0.0
14.369,3534.221,0.00028,0.0,0.0
14.375,3513.114,0.00028,0.0,0.0
14.382,3532.987,0.00028,0.0,0.0
14.388,3521.898,0.00028,0.0,0.0
14.394,3528.552,0.00028,0.0,0.0
14.401,3528.636,0.00028,0.0,0.0
14.407,3522.832,0.00028,0.0,0.0
14.413,3528.374,0.00028,0.0,0.0
14.42,3530.473,0.00028,0.0,0.0
14.426,3524.531,0.00028,0.0,0.0
14.432,3509.205,0.00028,0.0,0.0
14.439,3551.264,0.00028,0.0,0.0
14.445,3559.707,0.00028,0.0,0.0
14.451,3571.021,0.00028,0.0,0.0
14.458,3615.626,0.00028,0.0,0.0
14.464,3615.451,0.00028,0.0,0.0
14.47,3554.822,0.00028,0.0,0.0
14.476,3537.489,0.00028,0.0,0.0
14.483,3560.267,0.00028,0.0,0.0
14.489,3539.488,0.00028,0.0,0.0
14.495,3513.581,0.00028,0.0,0.0
14.502,3485.516,0.00029,0.0,0.0
14.508,3499.896,0.00029,0.0,0.0
14.514,3477.994,0.00029,0.0,0.0
14.521,3482.18,0.00029,0.0,0.0
14.527,3475.269,0.00029,0.0,0.0
14.533,3464.683,0.00029,0.0,0.0
14.54,3468.165,0.00029,0.0,0.0
14.546,3471.291,0.00029,0.0,0.0
14.552,3446.458,0.00029,0.0,0.0
14.559,3457.32,0.00029,0.0,0.0
14.565,3460.744,0.00029,0.0,0.0
14.571,3463.165,0.00029,0.0,0.0
14.578,3442.378,0.00029,0.0,0.0
14.584,3453.121,0.00029,0.0,0.0
14.59,3439.838,0.00029,0.0,0.0
14.597,3429.59,0.00029,0.0,0.0
14.603,3450.941,0.00029,0.0,0.0
14.609,3434.983,0.00029,0.0,0.0
14.616,3423.512,0.00029,0.0,0.0
14.622,3438.293,0.00029,0.0,0.0
14.628,3427.908,0.00029,0.0,0.0
14.634,3428.11,0.00029,0.0,0.0
14.641,3414.8,0.00029,0.0,0.0
14.647,3403.301,0.00029,0.0,0.0
14.653,3416.688,0.00029,0.0,0.0
14.66,3406.969,0.00029,0.0,0.0
14.666,3417.788,0.00029,0.0,0.0
14.672,3412.477,0.00029,0.0,0.0
14.679,3404.077,0.00029,0.0,0.0
14.685,3405.943,0.00029,0.0,0.0
14.691,3413.281,0.00029,0.0,0.0
14.698,3395.289,0.00029,0.0,0.0
14.704,3408.074,0.00029,0.0,0.0
14.71,3404.485,0.00029,0.0,0.0
14.717,3394.587,0.00029,0.0,0.0
14.723,3385.414,0.0003,0.0,0.0
14.729,3376.342,0.0003,0.0,0.0
14.736,3391.472,0.00029,0.0,0.0
14.742,3387.158,0.0003,0.0,0.0
14.748,3393.406,0.00029,0.0,0.0
14.755,3372.09,0.0003,0.0,0.0
14.761,3369.36,0.0003,0.0,0.0
14.767,3376.516,0.0003,0.0,0.0
14.774,3368.572,0.0003,0.0,0.0
14.78,3364.768,0.0003,0.0,0.0
14.786,3367.375,0.0003,0.0,0.0
14.792,3363.276,0.0003,0.0,0.0
14.799,3374.742,0.0003,0.0,0.0
14.805,3367.027,0.0003,0.0,0.0
14.811,3364.692,0.0003,0.0,0.0
14.818,3359.869,0.0003,0.0,0.0
14.824,3364.789,0.0003,0.0,0.0
14.83,3368.155,0.0003,0.0,0.0
14.837,3360.861,0.0003,0.0,0.0
14.843,3372.539,0.0003,0.0,0.0
14.849,3364.247,0.0003,0.0,0.0
14.856,3363.54,0.0003,0.0,0.0
14.862,3378.396,0.0003,0.0,0.0
14.868,3366.872,0.0003,0.0,0.0
14.875,3368.84,0.0003,0.0,0.0
14.881,3364.143,0.0003,0.0,0.0
14.887,3364.98,0.0003,0.0,0.0
14.894,3352.589,0.0003,0.0,0.0
14.9,3367.147,0.0003,0.0,0.0
14.906,3359.333,0.0003,0.0,0.0
14.913,3362.893,0.0003,0.0,0.0
14.919,3364.066,0.0003,0.0,0.0
14.925,3360.594,0.0003,0.0,0.0
14.932,3359.594,0.0003,0.0,0.0
14.938,3381.01,0.0003,0.0,0.0
14.944,3357.424,0.0003,0.0,0.0
14.95,3358.293,0.0003,0.0,0.0
14.957,3368.314,0.0003,0.0,0.0
14.963,3362.976,0.0003,0.0,0.0
14.969,3362.827,0.0003,0.0,0.0
14.976,3357.419,0.0003,0.0,0.0
14.982,3367.345,0.0003,0.0,0.0
14.988,3357.443,0.0003,0.0,0.0
14.995,3358.458,0.0003,0.0,0.0
15.001,3351.826,0.0003,0.0,0.0
15.007,3345.276,0.0003,0.0,0.0
15.014,3354.378,0.0003,0.0,0.0
15.02,3342.283,0.0003,0.0,0.0
15.026,3361.667,0.0003,0.0,0.0
15.033,3346.884,0.0003,0.0,0.0
15.039,3346.457,0.0003,0.0,0.0
15.045,3340.921,0.0003,0.0,0.0
15.052,3328.651,0.0003,0.0,0.0
15.058,3339.832,0.0003,0.0,0.0
15.064,3343.877,0.0003,0.0,0.0
15.071,3335.044,0.0003,0.0,0.0
15.077,3337.822,0.0003,0.0,0.0
15.083,3334.848,0.0003,0.0,0.0
15.09,3345.106,0.0003,0.0,0.0
15.096,3327.914,0.0003,0.0,0.0
15.102,3324.296,0.0003,0.0,0.0
15.108,3327.07,0.0003,0.0,0.0
15.115,3328.442,0.0003,0.0,0.0
15.121,3328.936,0.0003,0.0,0.0
15.127,3326.474,0.0003,0.0,0.0
15.134,3315.605,0.0003,0.0,0.0
15.14,3316.499,0.0003,0.0,0.0
15.146,3333.489,0.0003,0.0,0.0
15.153,3335.917,0.0003,0.0,0.0
15.159,3339.247,0.0003,0.0,0.0
15.165,3351.779,0.0003,0.0,0.0
15.172,3342.108,0.0003,0.0,0.0
15.178,3346.222,0.0003,0.0,0.0
15.184,3330.21,0.0003,0.0,0.0
15.191,3335.578,0.0003,0.0,0.0
15.197,3321.305,0.0003,0.0,0.0
15.203,3305.566,0.0003,0.0,0.0
15.21,3318.873,0.0003,0.0,0.0
15.216,3313.393,0.0003,0.0,0.0
15.222,3303.687,0.0003,0.0,0.0
15.229,3314.561,0.0003,0.0,0.0
15.235,3320.405,0.0003,0.0,0.0
15.241,3327.505,0.0003,0.0,0.0
15.248,3335.824,0.0003,0.0,0.0
15.254,3355.329,0.0003,0.0,0.0
15.26,3366.867,0.0003,0.0,0.0
15.266,3400.457,0.00029,0.0,0.0
15.273,3478.058,0.00029,0.0,0.0
15.279,3576.711,0.00028,0.0,0.0
15.285,3749.869,0.00027,0.0,0.0
15.292,4069.736,0.00025,0.0,0.0
15.298,4474.817,0.00022,0.0,0.0
15.304,4914.929,0.0002,0.0,0.0
15.311,5604.118,0.00018,0.0,0.0
15.317,5802.248,0.00017,0.0,0.0
15.323,5751.572,0.00017,0.0,0.0
15.33,5666.855,0.00018,0.0,0.0
15.336,4936.957,0.0002,0.0,0.0
15.342,4555.714,0.00022,0.0,0.0
15.349,4139.674,0.00024,0.0,0.0
15.355,3743.213,0.00027,0.0,0.0
15.361,3596.928,0.00028,0.0,0.0
15.368,3458.055,0.00029,0.0,0.0
15.374,3399.018,0.00029,0.0,0.0
15.38,3361.256,0.0003,0.0,0.0
15.387,3339.526,0.0003,0.0,0.0
15.393,3325.847,0.0003,0.0,0.0
15.399,3309.695,0.0003,0.0,0.0
15.406,3308.536,0.0003,0.0,0.0
15.412,3310.043,0.0003,0.0,0.0
15.418,3303.053,0.0003,0.0,0.0
15.424,3302.436,0.0003,0.0,0.0
15.431,3285.616,0.0003,0.0,0.0
15.437,3300.522,0.0003,0.0,0.0
15.443,3300.446,0.0003,0.0,0.0
15.45,3287.891,0.0003,0.0,0.0
15.456,3304.646,0.0003,0.0,0.0
15.462,3287.462,0.0003,0.0,0.0
15.469,3297.312,0.0003,0.0,0.0
15.475,3291.956,0.0003,0.0,0.0
15.481,3298.307,0.0003,0.0,0.0
15.488,3294.708,0.0003,0.0,0.0
15.494,3300.68,0.0003,0.0,0.0
15.5,3294.361,0.0003,0.0,0.0
15.507,3301.611,0.0003,0.0,0.0
15.513,3292.43,0.0003,0.0,0.0
15.519,3302.499,0.0003,0.0,0.0
15.526,3300.409,0.0003,0.0,0.0
15.532,3294.062,0.0003,0.0,0.0
15.538,3290.494,0.0003,0.0,0.0
15.545,3285.264,0.0003,0.0,0.0
15.551,3281.161,0.0003,0.0,0.0
15.557,3275.72,0.00031,0.0,0.0
15.564,3281.467,0.0003,0.0,0.0
15.57,3273.09,0.00031,0.0,0.0
15.576,3276.005,0.00031,0.0,0.0
15.582,3282.441,0.0003,0.0,0.0
15.589,3276.105,0.00031,0.0,0.0
15.595,3269.056,0.00031,0.0,0.0
15.601,3270.12,0.00031,0.0,0.0
15.608,3266.358,0.00031,0.0,0.0
15.614,3271.218,0.00031,0.0,0.0
15.62,3265.889,0.00031,0.0,0.0
15.627,3264.425,0.00031,0.0,0.0
15.633,3253.438,0.00031,0.0,0.0
15.639,3247.45,0.00031,0.0,0.0
15.646,3256.86,0.00031,0.0,0.0
15.652,3243.757,0.00031,0.0,0.0
15.658,3239.457,0.00031,0.0,0.0
15.665,3241.742,0.00031,0.0,0.0
15.671,3248.078,0.00031,0.0,0.0
15.677,3237.129,0.00031,0.0,0.0
15.684,3223.855,0.00031,0.0,0.0
15.69,3235.79,0.00031,0.0,0.0
15.696,3213.18,0.00031,0.0,0.0
15.703,3224.52,0.00031,0.0,0.0
15.709,3217.566,0.00031,0.0,0.0
15.715,3209.324,0.00031,0.0,0.0
15.722,3206.795,0.00031,0.0,0.0
15.728,3205.506,0.00031,0.0,0.0
15.734,3201.941,0.00031,0.0,0.0
15.74,3205.46,0.00031,0.0,0.0
15.747,3196.984,0.00031,0.0,0.0
15.753,3199.232,0.00031,0.0,0.0
15.759,3181.132,0.00031,0.0,0.0
15.766,3183.206,0.00031,0.0,0.0
15.772,3183.875,0.00031,0.0,0.0
15.778,3184.39,0.00031,0.0,0.0
15.785,3178.13,0.00031,0.0,0.0
15.791,3172.739,0.00032,0.0,0.0
15.797,3168.51,0.00032,0.0,0.0
15.804,3164.125,0.00032,0.0,0.0
15.81,3173.716,0.00032,0.0,0.0
15.816,3165.383,0.00032,0.0,0.0
15.823,3164.926,0.00032,0.0,0.0
15.829,3166.372,0.00032,0.0,0.0
15.835,3160.299,0.00032,0.0,0.0
15.842,3169.448,0.00032,0.0,0.0
15.848,3163.736,0.00032,0.0,0.0
15.854,3169.355,0.00032,0.0,0.0
15.861,3162.083,0.00032,0.0,0.0
15.867,3150.629,0.00032,0.0,0.0
15.873,3164.797,0.00032,0.0,0.0
15.88,3138.246,0.00032,0.0,0.0
15.886,3151.856,0.00032,0.0,0.0
15.892,3139.232,0.00032,0.0,0.0
15.898,3137.495,0.00032,0.0,0.0
15.905,3132.402,0.00032,0.0,0.0
15.911,3131.892,0.00032,0.0,0.0
15.917,3136.698,0.00032,0.0,0.0
15.924,3127.286,0.00032,0.0,0.0
15.93,3127.169,0.00032,0.0,0.0
15.936,3133.26,0.00032,0.0,0.0
15.943,3124.963,0.00032,0.0,0.0
15.949,3130.551,0.00032,0.0,0.0
15.955,3120.257,0.00032,0.0,0.0
15.962,3122.815,0.00032,0.0,0.0
15.968,3116.522,0.00032,0.0,0.0
15.974,3119.591,0.00032,0.0,0.0
15.981,3110.536,0.00032,0.0,0.0
15.987,3107.515,0.00032,0.0,0.0
15.993,3116.503,0.00032,0.0,0.0
16.0,3111.526,0.00032,0.0,0.0
16.006,3115.484,0.00032,0.0,0.0
16.012,3121.233,0.00032,0.0,0.0
16.019,3104.821,0.00032,0.0,0.0
16.025,3111.174,0.00032,0.0,0.0
16.031,3104.518,0.00032,0.0,0.0
16.038,3101.019,0.00032,0.0,0.0
16.044,3110.813,0.00032,0.0,0.0
16.05,3118.302,0.00032,0.0,0.0
16.056,3109.912,0.00032,0.0,0.0
16.063,3104.009,0.00032,0.0,0.0
16.069,3107.308,0.00032,0.0,0.0
16.075,3111.737,0.00032,0.0,0.0
16.082,3105.988,0.00032,0.0,0.0
16.088,3111.697,0.00032,0.0,0.0
16.094,3100.06,0.00032,0.0,0.0
16.101,3111.673,0.00032,0.0,0.0
16.107,3108.462,0.00032,0.0,0.0
16.113,3099.517,0.00032,0.0,0.0
16.12,3105.32,0.00032,0.0,0.0
16.126,3105.158,0.00032,0.0,0.0
16.132,3097.096,0.00032,0.0,0.0
16.139,3104.622,0.00032,0.0,0.0
16.145,3097.606,0.00032,0.0,0.0
16.151,3098.46,0.00032,0.0,0.0
16.158,3093.954,0.00032,0.0,0.0
16.164,3089.671,0.00032,0.0,0.0
16.17,3081.554,0.00032,0.0,0.0
16.177,3101.182,0.00032,0.0,0.0
16.183,3097.14,0.00032,0.0,0.0
16.189,3098.706,0.00032,0.0,0.0
16.196,3099.81,0.00032,0.0,0.0
16.202,3091.341,0.00032,0.0,0.0
16.208,3100.149,0.00032,0.0,0.0
16.214,3097.905,0.00032,0.0,0.0
16.221,3094.11,0.00032,0.0,0.0
16.227,3090.106,0.00032,0.0,0.0
16.233,3098.308,0.00032,0.0,0.0
16.24,3084.186,0.00032,0.0,0.0
16.246,3085.039,0.00032,0.0,0.0
16.252,3097.258,0.00032,0.0,0.0
16.259,3094.835,0.00032,0.0,0.0
16.265,3088.515,0.00032,0.0,0.0
16.271,3095.078,0.00032,0.0,0.0
16.278,3077.198,0.00032,0.0,0.0
16.284,3094.095,0.00032,0.0,0.0
16.29,3081.522,0.00032,0.0,0.0
16.297,3083.249,0.00032,0.0,0.0
16.303,3073.977,0.00033,0.0,0.0
16.309,3087.064,0.00032,0.0,0.0
16.316,3081.806,0.00032,0.0,0.0
16.322,3080.639,0.00032,0.0,0.0
16.328,3086.917,0.00032,0.0,0.0
16.335,3081.278,0.00032,0.0,0.0
16.341,3081.938,0.00032,0.0,0.0
16.347,3081.928,0.00032,0.0,0.0
16.354,3078.469,0.00032,0.0,0.0
16.36,3091.021,0.00032,0.0,0.0
16.366,3076.213,0.00033,0.0,0.0
16.372,3086.004,0.00032,0.0,0.0
16.379,3089.989,0.00032,0.0,0.0
16.385,3085.576,0.00032,0.0,0.0
16.391,3085.876,0.00032,0.0,0.0
16.398,3078.214,0.00032,0.0,0.0
16.404,3080.507,0.00032,0.0,0.0
16.41,3075.578,0.00033,0.0,0.0
16.417,3087.29,0.00032,0.0,0.0
16.423,3089.445,0.00032,0.0,0.0
16.429,3079.452,0.00032,0.0,0.0
16.436,3089.155,0.00032,0.0,0.0
16.442,3089.748,0.00032,0.0,0.0
16.448,3086.789,0.00032,0.0,0.0
16.455,3097.848,0.00032,0.0,0.0
16.461,3096.631,0.00032,0.0,0.0
16.467,3141.978,0.00032,0.0,0.0
16.474,3127.835,0.00032,0.0,0.0
16.48,3161.528,0.00032,0.0,0.0
16.486,3441.035,0.00029,0.0,0.0
16.493,3169.341,0.00032,0.0,0.0
16.499,3460.13,0.00029,0.0,0.0
16.505,3207.728,0.00031,0.0,0.0
16.512,3184.978,0.00031,0.0,0.0
16.518,3185.969,0.00031,0.0,0.0
16.524,3129.408,0.00032,0.0,0.0
16.53,3120.856,0.00032,0.0,0.0
16.537,3126.594,0.00032,0.0,0.0
16.543,3109.44,0.00032,0.0,0.0
16.549,3104.309,0.00032,0.0,0.0
16.556,3105.416,0.00032,0.0,0.0
16.562,3115.001,0.00032,0.0,0.0
16.568,3118.111,0.00032,0.0,0.0
16.575,3106.722,0.00032,0.0,0.0
16.581,3117.203,0.00032,0.0,0.0
16.587,3117.46,0.00032,0.0,0.0
16.594,3125.736,0.00032,0.0,0.0
