"x","y_obs","weight","y_calc","y_bkg"
0.8,2767.621,0.00036,0.0,0.0
0.806,3213.676,0.00031,0.0,0.0
0.813,3326.86,0.0003,0.0,0.0
0.819,3241.847,0.00031,0.0,0.0
0.825,3938.758,0.00025,0.0,0.0
0.832,3693.783,0.00027,0.0,0.0
0.838,3963.019,0.00025,0.0,0.0
0.844,4369.981,0.00023,0.0,0.0
0.851,4234.042,0.00024,0.0,0.0
0.857,4677.144,0.00021,0.0,0.0
0.863,5113.804,0.0002,0.0,0.0
0.87,4735.437,0.00021,0.0,0.0
0.876,5631.539,0.00018,0.0,0.0
0.882,5458.457,0.00018,0.0,0.0
0.888,5756.899,0.00017,0.0,0.0
0.895,5985.288,0.00017,0.0,0.0
0.901,6033.346,0.00017,0.0,0.0
0.907,6558.562,0.00015,0.0,0.0
0.914,6792.215,0.00015,0.0,0.0
0.92,6391.994,0.00016,0.0,0.0
0.926,7040.354,0.00014,0.0,0.0
0.933,7159.86,0.00014,0.0,0.0
0.939,6957.027,0.00014,0.0,0.0
0.945,7650.774,0.00013,0.0,0.0
0.952,7176.547,0.00014,0.0,0.0
0.958,7664.517,0.00013,0.0,0.0
0.964,7711.468,0.00013,0.0,0.0
0.971,7424.123,0.00013,0.0,0.0
0.977,7972.485,0.00013,0.0,0.0
0.983,7915.7,0.00013,0.0,0.0
0.99,7767.639,0.00013,0.0,0.0
0.996,8135.444,0.00012,0.0,0.0
1.002,7815.564,0.00013,0.0,0.0
1.009,8028.149,0.00012,0.0,0.0
1.015,8228.567,0.00012,0.0,0.0
1.021,7912.96,0.00013,0.0,0.0
1.028,8278.49,0.00012,0.0,0.0
1.034,8106.722,0.00012,0.0,0.0
1.04,8045.535,0.00012,0.0,0.0
1.046,8189.221,0.00012,0.0,0.0
1.053,8207.678,0.00012,0.0,0.0
1.059,8159.661,0.00012,0.0,0.0
1.065,8258.695,0.00012,0.0,0.0
1.072,8020.508,0.00012,0.0,0.0
1.078,8191.953,0.00012,0.0,0.0
1.084,8031.778,0.00012,0.0,0.0
1.091,8096.48,0.00012,0.0,0.0
1.097,8124.703,0.00012,0.0,0.0
1.103,8032.455,0.00012,0.0,0.0
1.11,7984.867,0.00013,0.0,0.0
1.116,7999.865,0.00013,0.0,0.0
1.122,7912.34,0.00013,0.0,0.0
1.129,7912.901,0.00013,0.0,0.0
1.135,7879.081,0.00013,0.0,0.0
1.141,7852.512,0.00013,0.0,0.0
1.148,7860.128,0.00013,0.0,0.0
1.154,7736.345,0.00013,0.0,0.0
1.16,7732.879,0.00013,0.0,0.0
1.167,7707.31,0.00013,0.0,0.0
1.173,7650.08,0.00013,0.0,0.0
1.179,7653.258,0.00013,0.0,0.0
1.186,7568.814,0.00013,0.0,0.0
1.192,7523.272,0.00013,0.0,0.0
1.198,7472.031,0.00013,0.0,0.0
1.204,7391.295,0.00014,0.0,0.0
1.211,7442.741,0.00013,0.0,0.0
1.217,7391.888,0.00014,0.0,0.0
1.223,7323.443,0.00014,0.0,0.0
1.23,7256.81,0.00014,0.0,0.0
1.236,7263.458,0.00014,0.0,0.0
1.242,7205.703,0.00014,0.0,0.0
1.249,7216.869,0.00014,0.0,0.0
1.255,7212.72,0.00014,0.0,0.0
1.261,7141.253,0.00014,0.0,0.0
1.268,7151.089,0.00014,0.0,0.0
1.274,7124.449,0.00014,0.0,0.0
1.28,7098.655,0.00014,0.0,0.0
1.287,7021.772,0.00014,0.0,0.0
1.293,7064.433,0.00014,0.0,0.0
1.299,7035.848,0.00014,0.0,0.0
1.306,6950.118,0.00014,0.0,0.0
1.312,6961.196,0.00014,0.0,0.0
1.318,6972.535,0.00014,0.0,0.0
1.325,6895.687,0.00015,0.0,0.0
1.331,6934.426,0.00014,0.0,0.0
1.337,6876.672,0.00015,0.0,0.0
1.344,6887.38,0.00015,0.0,0.0
1.35,6881.138,0.00015,0.0,0.0
1.356,6834.485,0.00015,0.0,0.0
1.362,6849.421,0.00015,0.0,0.0
1.369,6832.277,0.00015,0.0,0.0
1.375,6839.752,0.00015,0.0,0.0
1.381,6846.06,0.00015,0.0,0.0
1.388,6841.394,0.00015,0.0,0.0
1.394,6777.578,0.00015,0.0,0.0
1.4,6873.708,0.00015,0.0,0.0
1.407,6789.201,0.00015,0.0,0.0
1.413,6826.809,0.00015,0.0,0.0
1.419,6813.19,0.00015,0.0,0.0
1.426,6808.743,0.00015,0.0,0.0
1.432,6782.637,0.00015,0.0,0.0
1.438,6807.11,0.00015,0.0,0.0
1.445,6787.085,0.00015,0.0,0.0
1.451,6834.07,0.00015,0.0,0.0
1.457,6804.958,0.00015,0.0,0.0
1.464,6799.527,0.00015,0.0,0.0
1.47,6860.987,0.00015,0.0,0.0
1.476,6781.275,0.00015,0.0,0.0
1.483,6795.707,0.00015,0.0,0.0
1.489,6789.684,0.00015,0.0,0.0
1.495,6796.376,0.00015,0.0,0.0
1.502,6802.625,0.00015,0.0,0.0
1.508,6801.833,0.00015,0.0,0.0
1.514,6806.151,0.00015,0.0,0.0
1.52,6849.739,0.00015,0.0,0.0
1.527,6889.868,0.00015,0.0,0.0
1.533,6880.989,0.00015,0.0,0.0
1.539,6849.312,0.00015,0.0,0.0
1.546,6880.06,0.00015,0.0,0.0
1.552,6881.278,0.00015,0.0,0.0
1.558,6902.11,0.00014,0.0,0.0
1.565,6936.51,0.00014,0.0,0.0
1.571,6905.558,0.00014,0.0,0.0
1.577,6942.909,0.00014,0.0,0.0
1.584,6959.045,0.00014,0.0,0.0
1.59,6983.465,0.00014,0.0,0.0
1.596,6998.556,0.00014,0.0,0.0
1.603,7058.055,0.00014,0.0,0.0
1.609,6995.379,0.00014,0.0,0.0
1.615,7033.912,0.00014,0.0,0.0
1.622,7031.631,0.00014,0.0,0.0
1.628,7053.92,0.00014,0.0,0.0
1.634,7129.125,0.00014,0.0,0.0
1.641,7084.483,0.00014,0.0,0.0
1.647,7108.131,0.00014,0.0,0.0
1.653,7132.883,0.00014,0.0,0.0
1.66,7140.758,0.00014,0.0,0.0
1.666,7159.569,0.00014,0.0,0.0
1.672,7175.851,0.00014,0.0,0.0
1.678,7229.656,0.00014,0.0,0.0
1.685,7220.269,0.00014,0.0,0.0
1.691,7233.588,0.00014,0.0,0.0
1.697,7290.674,0.00014,0.0,0.0
1.704,7312.268,0.00014,0.0,0.0
1.71,7298.51,0.00014,0.0,0.0
1.716,7331.958,0.00014,0.0,0.0
1.723,7394.32,0.00014,0.0,0.0
1.729,7368.957,0.00014,0.0,0.0
1.735,7406.659,0.00014,0.0,0.0
1.742,7357.641,0.00014,0.0,0.0
1.748,7432.44,0.00013,0.0,0.0
1.754,7426.691,0.00013,0.0,0.0
1.761,7445.976,0.00013,0.0,0.0
1.767,7455.413,0.00013,0.0,0.0
1.773,7513.151,0.00013,0.0,0.0
1.78,7469.972,0.00013,0.0,0.0
1.786,7502.155,0.00013,0.0,0.0
1.792,7495.82,0.00013,0.0,0.0
1.799,7542.013,0.00013,0.0,0.0
1.805,7510.764,0.00013,0.0,0.0
1.811,7526.232,0.00013,0.0,0.0
1.818,7547.147,0.00013,0.0,0.0
1.824,7545.168,0.00013,0.0,0.0
1.83,7569.216,0.00013,0.0,0.0
1.836,7585.825,0.00013,0.0,0.0
1.843,7608.887,0.00013,0.0,0.0
1.849,7559.777,0.00013,0.0,0.0
1.855,7592.827,0.00013,0.0,0.0
1.862,7587.287,0.00013,0.0,0.0
1.868,7666.459,0.00013,0.0,0.0
1.874,7618.221,0.00013,0.0,0.0
1.881,7620.24,0.00013,0.0,0.0
1.887,7624.073,0.00013,0.0,0.0
1.893,7662.616,0.00013,0.0,0.0
1.9,7615.674,0.00013,0.0,0.0
1.906,7662.408,0.00013,0.0,0.0
1.912,7693.336,0.00013,0.0,0.0
1.919,7647.805,0.00013,0.0,0.0
1.925,7671.314,0.00013,0.0,0.0
1.931,7660.552,0.00013,0.0,0.0
1.938,7666.148,0.00013,0.0,0.0
1.944,7672.903,0.00013,0.0,0.0
1.95,7687.814,0.00013,0.0,0.0
1.957,7672.452,0.00013,0.0,0.0
1.963,7712.823,0.00013,0.0,0.0
1.969,7686.431,0.00013,0.0,0.0
1.976,7693.723,0.00013,0.0,0.0
1.982,7718.515,0.00013,0.0,0.0
1.988,7706.292,0.00013,0.0,0.0
1.994,7736.106,0.00013,0.0,0.0
2.001,7757.46,0.00013,0.0,0.0
2.007,7784.95,0.00013,0.0,0.0
2.013,7785.985,0.00013,0.0,0.0
2.02,7781.875,0.00013,0.0,0.0
2.026,7819.093,0.00013,0.0,0.0
2.032,7791.0,0.00013,0.0,0.0
2.039,7846.575,0.00013,0.0,0.0
2.045,7870.926,0.00013,0.0,0.0
2.051,7851.987,0.00013,0.0,0.0
2.058,7855.281,0.00013,0.0,0.0
2.064,7851.676,0.00013,0.0,0.0
2.07,7907.855,0.00013,0.0,0.0
2.077,7901.523,0.00013,0.0,0.0
2.083,7915.915,0.00013,0.0,0.0
2.089,7925.184,0.00013,0.0,0.0
2.096,7914.146,0.00013,0.0,0.0
2.102,7986.596,0.00013,0.0,0.0
2.108,7978.601,0.00013,0.0,0.0
2.115,7975.791,0.00013,0.0,0.0
2.121,8039.11,0.00012,0.0,0.0
2.127,8047.302,0.00012,0.0,0.0
2.134,8050.808,0.00012,0.0,0.0
2.14,8074.377,0.00012,0.0,0.0
2.146,8125.134,0.00012,0.0,0.0
2.152,8127.616,0.00012,0.0,0.0
2.159,8150.185,0.00012,0.0,0.0
2.165,8147.331,0.00012,0.0,0.0
2.171,8160.444,0.00012,0.0,0.0
2.178,8238.374,0.00012,0.0,0.0
2.184,8245.361,0.00012,0.0,0.0
2.19,8282.127,0.00012,0.0,0.0
2.197,8248.628,0.00012,0.0,0.0
2.203,8332.451,0.00012,0.0,0.0
2.209,8303.474,0.00012,0.0,0.0
2.216,8390.94,0.00012,0.0,0.0
2.222,8404.801,0.00012,0.0,0.0
2.228,8390.138,0.00012,0.0,0.0
2.235,8440.83,0.00012,0.0,0.0
2.241,8451.554,0.00012,0.0,0.0
2.247,8513.757,0.00012,0.0,0.0
2.254,8538.09,0.00012,0.0,0.0
2.26,8560.261,0.00012,0.0,0.0
2.266,8565.467,0.00012,0.0,0.0
2.273,8604.822,0.00012,0.0,0.0
2.279,8626.739,0.00012,0.0,0.0
2.285,8690.018,0.00012,0.0,0.0
2.292,8697.866,0.00011,0.0,0.0
2.298,8735.471,0.00011,0.0,0.0
2.304,8794.173,0.00011,0.0,0.0
2.31,8804.587,0.00011,0.0,0.0
2.317,8836.304,0.00011,0.0,0.0
2.323,8916.22,0.00011,0.0,0.0
2.329,8934.02,0.00011,0.0,0.0
2.336,8982.33,0.00011,0.0,0.0
2.342,9013.595,0.00011,0.0,0.0
2.348,9052.85,0.00011,0.0,0.0
2.355,9122.938,0.00011,0.0,0.0
2.361,9117.657,0.00011,0.0,0.0
2.367,9179.458,0.00011,0.0,0.0
2.374,9242.539,0.00011,0.0,0.0
2.38,9291.207,0.00011,0.0,0.0
2.386,9330.912,0.00011,0.0,0.0
2.393,9379.743,0.00011,0.0,0.0
2.399,9442.741,0.00011,0.0,0.0
2.405,9495.577,0.00011,0.0,0.0
2.412,9546.897,0.0001,0.0,0.0
2.418,9614.524,0.0001,0.0,0.0
2.424,9702.352,0.0001,0.0,0.0
2.431,9748.076,0.0001,0.0,0.0
2.437,9835.445,0.0001,0.0,0.0
2.443,9868.408,0.0001,0.0,0.0
2.45,9958.044,0.0001,0.0,0.0
2.456,10073.896,0.0001,0.0,0.0
2.462,10135.859,0.0001,0.0,0.0
2.468,10197.603,0.0001,0.0,0.0
2.475,10339.389,0.0001,0.0,0.0
2.481,10365.315,0.0001,0.0,0.0
2.487,10475.765,0.0001,0.0,0.0
2.494,10615.405,0.00009,0.0,0.0
2.5,10645.107,0.00009,0.0,0.0
2.506,10787.715,0.00009,0.0,0.0
2.513,10786.854,0.00009,0.0,0.0
2.519,10876.354,0.00009,0.0,0.0
2.525,11064.916,0.00009,0.0,0.0
2.532,11009.704,0.00009,0.0,0.0
2.538,11100.792,0.00009,0.0,0.0
2.544,11188.465,0.00009,0.0,0.0
2.551,11107.716,0.00009,0.0,0.0
2.557,11240.494,0.00009,0.0,0.0
2.563,11186.788,0.00009,0.0,0.0
2.57,11135.369,0.00009,0.0,0.0
2.576,11209.274,0.00009,0.0,0.0
2.582,11090.026,0.00009,0.0,0.0
2.589,11116.527,0.00009,0.0,0.0
2.595,11138.726,0.00009,0.0,0.0
2.601,11103.238,0.00009,0.0,0.0
2.608,11149.394,0.00009,0.0,0.0
2.614,11140.988,0.00009,0.0,0.0
2.62,11103.249,0.00009,0.0,0.0
2.626,11158.757,0.00009,0.0,0.0
2.633,11177.297,0.00009,0.0,0.0
2.639,11189.805,0.00009,0.0,0.0
2.645,11245.431,0.00009,0.0,0.0
2.652,11276.187,0.00009,0.0,0.0
2.658,11322.185,0.00009,0.0,0.0
2.664,11367.309,0.00009,0.0,0.0
2.671,11417.904,0.00009,0.0,0.0
2.677,11437.406,0.00009,0.0,0.0
2.683,11473.188,0.00009,0.0,0.0
2.69,11519.987,0.00009,0.0,0.0
2.696,11585.969,0.00009,0.0,0.0
2.702,11662.273,0.00009,0.0,0.0
2.709,11709.356,0.00009,0.0,0.0
2.715,11740.362,0.00009,0.0,0.0
2.721,11775.407,0.00008,0.0,0.0
2.728,11888.159,0.00008,0.0,0.0
2.734,11899.116,0.00008,0.0,0.0
2.74,11943.419,0.00008,0.0,0.0
2.747,11987.989,0.00008,0.0,0.0
2.753,12011.531,0.00008,0.0,0.0
2.759,12119.264,0.00008,0.0,0.0
2.766,12116.006,0.00008,0.0,0.0
2.772,12172.964,0.00008,0.0,0.0
2.778,12229.48,0.00008,0.0,0.0
2.784,12267.147,0.00008,0.0,0.0
2.791,12288.69,0.00008,0.0,0.0
2.797,12365.61,0.00008,0.0,0.0
2.803,12366.052,0.00008,0.0,0.0
2.81,12459.095,0.00008,0.0,0.0
2.816,12475.578,0.00008,0.0,0.0
2.822,12520.866,0.00008,0.0,0.0
2.829,12573.871,0.00008,0.0,0.0
2.835,12593.446,0.00008,0.0,0.0
2.841,12621.704,0.00008,0.0,0.0
2.848,12713.722,0.00008,0.0,0.0
2.854,12721.83,0.00008,0.0,0.0
2.86,12798.02,0.00008,0.0,0.0
2.867,12829.492,0.00008,0.0,0.0
2.873,12850.806,0.00008,0.0,0.0
2.879,12930.985,0.00008,0.0,0.0
2.886,12977.447,0.00008,0.0,0.0
2.892,13009.836,0.00008,0.0,0.0
2.898,13071.129,0.00008,0.0,0.0
2.905,13111.032,0.00008,0.0,0.0
2.911,13189.02,0.00008,0.0,0.0
2.917,13223.414,0.00008,0.0,0.0
2.924,13220.297,0.00008,0.0,0.0
2.93,13315.275,0.00008,0.0,0.0
2.936,13297.586,0.00008,0.0,0.0
2.942,13370.515,0.00007,0.0,0.0
2.949,13411.028,0.00007,0.0,0.0
2.955,13431.0,0.00007,0.0,0.0
2.961,13497.831,0.00007,0.0,0.0
2.968,13508.898,0.00007,0.0,0.0
2.974,13546.551,0.00007,0.0,0.0
2.98,13599.842,0.00007,0.0,0.0
2.987,13610.621,0.00007,0.0,0.0
2.993,13634.875,0.00007,0.0,0.0
2.999,13675.143,0.00007,0.0,0.0
3.006,13696.173,0.00007,0.0,0.0
3.012,13689.435,0.00007,0.0,0.0
3.018,13733.284,0.00007,0.0,0.0
3.025,13729.855,0.00007,0.0,0.0
3.031,13740.831,0.00007,0.0,0.0
3.037,13791.643,0.00007,0.0,0.0
3.044,13774.049,0.00007,0.0,0.0
3.05,13840.848,0.00007,0.0,0.0
3.056,13811.184,0.00007,0.0,0.0
3.063,13811.445,0.00007,0.0,0.0
3.069,13831.603,0.00007,0.0,0.0
3.075,13818.297,0.00007,0.0,0.0
3.082,13864.05,0.00007,0.0,0.0
3.088,13843.544,0.00007,0.0,0.0
3.094,13857.108,0.00007,0.0,0.0
3.1,13836.065,0.00007,0.0,0.0
3.107,13821.761,0.00007,0.0,0.0
3.113,13840.701,0.00007,0.0,0.0
3.119,13826.352,0.00007,0.0,0.0
3.126,13819.35,0.00007,0.0,0.0
3.132,13808.873,0.00007,0.0,0.0
3.138,13769.015,0.00007,0.0,0.0
3.145,13779.933,0.00007,0.0,0.0
3.151,13764.529,0.00007,0.0,0.0
3.157,13775.795,0.00007,0.0,0.0
3.164,13717.332,0.00007,0.0,0.0
3.17,13706.847,0.00007,0.0,0.0
3.176,13696.33,0.00007,0.0,0.0
3.183,13647.567,0.00007,0.0,0.0
3.189,13604.319,0.00007,0.0,0.0
3.195,13602.171,0.00007,0.0,0.0
3.202,13549.103,0.00007,0.0,0.0
3.208,13532.487,0.00007,0.0,0.0
3.214,13498.467,0.00007,0.0,0.0
3.221,13453.391,0.00007,0.0,0.0
3.227,13457.569,0.00007,0.0,0.0
3.233,13387.034,0.00007,0.0,0.0
3.24,13420.194,0.00007,0.0,0.0
3.246,13369.857,0.00007,0.0,0.0
3.252,13330.42,0.00008,0.0,0.0
3.258,13294.845,0.00008,0.0,0.0
3.265,13277.312,0.00008,0.0,0.0
3.271,13227.096,0.00008,0.0,0.0
3.277,13194.874,0.00008,0.0,0.0
3.284,13143.13,0.00008,0.0,0.0
3.29,13099.646,0.00008,0.0,0.0
3.296,13083.637,0.00008,0.0,0.0
3.303,13028.606,0.00008,0.0,0.0
3.309,13003.2,0.00008,0.0,0.0
3.315,12958.497,0.00008,0.0,0.0
3.322,12923.285,0.00008,0.0,0.0
3.328,12901.789,0.00008,0.0,0.0
3.334,12873.408,0.00008,0.0,0.0
3.341,12818.835,0.00008,0.0,0.0
3.347,12804.391,0.00008,0.0,0.0
3.353,12784.846,0.00008,0.0,0.0
3.36,12697.287,0.00008,0.0,0.0
3.366,12688.084,0.00008,0.0,0.0
3.372,12621.63,0.00008,0.0,0.0
3.379,12592.695,0.00008,0.0,0.0
3.385,12555.998,0.00008,0.0,0.0
3.391,12488.9,0.00008,0.0,0.0
3.398,12488.484,0.00008,0.0,0.0
3.404,12429.675,0.00008,0.0,0.0
3.41,12410.79,0.00008,0.0,0.0
3.416,12363.454,0.00008,0.0,0.0
3.423,12375.891,0.00008,0.0,0.0
3.429,12357.514,0.00008,0.0,0.0
3.435,12425.457,0.00008,0.0,0.0
3.442,12449.021,0.00008,0.0,0.0
3.448,12284.541,0.00008,0.0,0.0
3.454,12236.501,0.00008,0.0,0.0
3.461,12110.857,0.00008,0.0,0.0
3.467,12090.475,0.00008,0.0,0.0
3.473,12058.389,0.00008,0.0,0.0
3.48,11996.895,0.00008,0.0,0.0
3.486,11974.971,0.00008,0.0,0.0
3.492,11937.081,0.00008,0.0,0.0
3.499,11888.012,0.00008,0.0,0.0
3.505,11884.666,0.00008,0.0,0.0
3.511,11836.873,0.00008,0.0,0.0
3.518,11803.903,0.00008,0.0,0.0
3.524,11740.259,0.00009,0.0,0.0
3.53,11723.267,0.00009,0.0,0.0
3.537,11714.248,0.00009,0.0,0.0
3.543,11667.299,0.00009,0.0,0.0
3.549,11661.949,0.00009,0.0,0.0
3.556,11614.036,0.00009,0.0,0.0
3.562,11580.16,0.00009,0.0,0.0
3.568,11560.685,0.00009,0.0,0.0
3.574,11559.432,0.00009,0.0,0.0
3.581,11521.464,0.00009,0.0,0.0
3.587,11510.247,0.00009,0.0,0.0
3.593,11492.551,0.00009,0.0,0.0
3.6,11460.148,0.00009,0.0,0.0
3.606,11452.21,0.00009,0.0,0.0
3.612,11413.12,0.00009,0.0,0.0
3.619,11401.404,0.00009,0.0,0.0
3.625,11411.664,0.00009,0.0,0.0
3.631,11409.233,0.00009,0.0,0.0
3.638,11379.689,0.00009,0.0,0.0
3.644,11325.053,0.00009,0.0,0.0
3.65,11340.872,0.00009,0.0,0.0
3.657,11318.296,0.00009,0.0,0.0
3.663,11305.907,0.00009,0.0,0.0
3.669,11307.137,0.00009,0.0,0.0
3.676,11280.665,0.00009,0.0,0.0
3.682,11271.402,0.00009,0.0,0.0
3.688,11275.832,0.00009,0.0,0.0
3.695,11284.689,0.00009,0.0,0.0
3.701,11256.503,0.00009,0.0,0.0
3.707,11278.616,0.00009,0.0,0.0
3.714,11258.48,0.00009,0.0,0.0
3.72,11258.794,0.00009,0.0,0.0
3.726,11212.34,0.00009,0.0,0.0
3.732,11222.492,0.00009,0.0,0.0
3.739,11244.411,0.00009,0.0,0.0
3.745,11243.952,0.00009,0.0,0.0
3.751,11235.914,0.00009,0.0,0.0
3.758,11244.744,0.00009,0.0,0.0
3.764,11212.116,0.00009,0.0,0.0
3.77,11237.137,0.00009,0.0,0.0
3.777,11240.111,0.00009,0.0,0.0
3.783,11212.239,0.00009,0.0,0.0
3.789,11226.673,0.00009,0.0,0.0
3.796,11180.775,0.00009,0.0,0.0
3.802,11190.392,0.00009,0.0,0.0
3.808,11195.551,0.00009,0.0,0.0
3.815,11171.19,0.00009,0.0,0.0
3.821,11191.725,0.00009,0.0,0.0
3.827,11178.878,0.00009,0.0,0.0
3.834,11135.038,0.00009,0.0,0.0
3.84,11166.541,0.00009,0.0,0.0
3.846,11114.458,0.00009,0.0,0.0
3.853,11086.074,0.00009,0.0,0.0
3.859,11139.907,0.00009,0.0,0.0
3.865,11028.175,0.00009,0.0,0.0
3.872,11066.274,0.00009,0.0,0.0
3.878,11029.312,0.00009,0.0,0.0
3.884,10993.701,0.00009,0.0,0.0
3.89,10969.773,0.00009,0.0,0.0
3.897,10941.369,0.00009,0.0,0.0
3.903,10916.42,0.00009,0.0,0.0
3.909,10886.912,0.00009,0.0,0.0
3.916,10839.685,0.00009,0.0,0.0
3.922,10826.881,0.00009,0.0,0.0
3.928,10778.88,0.00009,0.0,0.0
3.935,10745.333,0.00009,0.0,0.0
3.941,10732.237,0.00009,0.0,0.0
3.947,10666.875,0.00009,0.0,0.0
3.954,10638.217,0.00009,0.0,0.0
3.96,10631.968,0.00009,0.0,0.0
3.966,10620.053,0.00009,0.0,0.0
3.973,10583.167,0.00009,0.0,0.0
3.979,10553.475,0.00009,0.0,0.0
3.985,10494.678,0.0001,0.0,0.0
3.992,10482.638,0.0001,0.0,0.0
3.998,10433.084,0.0001,0.0,0.0
4.004,10392.623,0.0001,0.0,0.0
4.011,10404.367,0.0001,0.0,0.0
4.017,10349.041,0.0001,0.0,0.0
4.023,10324.755,0.0001,0.0,0.0
4.03,10305.574,0.0001,0.0,0.0
4.036,10266.158,0.0001,0.0,0.0
4.042,10290.313,0.0001,0.0,0.0
4.048,10237.364,0.0001,0.0,0.0
4.055,10199.745,0.0001,0.0,0.0
4.061,10191.429,0.0001,0.0,0.0
4.067,10158.615,0.0001,0.0,0.0
4.074,10157.277,0.0001,0.0,0.0
4.08,10130.744,0.0001,0.0,0.0
4.086,10102.841,0.0001,0.0,0.0
4.093,10099.234,0.0001,0.0,0.0
4.099,10052.122,0.0001,0.0,0.0
4.105,10035.037,0.0001,0.0,0.0
4.112,10091.099,0.0001,0.0,0.0
4.118,9974.054,0.0001,0.0,0.0
4.124,10039.581,0.0001,0.0,0.0
4.131,10038.465,0.0001,0.0,0.0
4.137,9977.22,0.0001,0.0,0.0
4.143,9991.083,0.0001,0.0,0.0
4.15,9939.119,0.0001,0.0,0.0
4.156,9926.848,0.0001,0.0,0.0
4.162,9962.026,0.0001,0.0,0.0
4.169,9901.69,0.0001,0.0,0.0
4.175,9956.064,0.0001,0.0,0.0
4.181,9881.072,0.0001,0.0,0.0
4.188,9863.517,0.0001,0.0,0.0
4.194,9886.022,0.0001,0.0,0.0
4.2,9861.492,0.0001,0.0,0.0
4.206,9858.496,0.0001,0.0,0.0
4.213,9891.835,0.0001,0.0,0.0
4.219,9843.212,0.0001,0.0,0.0
4.225,9833.71,0.0001,0.0,0.0
4.232,9849.542,0.0001,0.0,0.0
4.238,9798.87,0.0001,0.0,0.0
4.244,9858.101,0.0001,0.0,0.0
4.251,9840.078,0.0001,0.0,0.0
4.257,9797.282,0.0001,0.0,0.0
4.263,9812.533,0.0001,0.0,0.0
4.27,9799.261,0.0001,0.0,0.0
4.276,9817.229,0.0001,0.0,0.0
4.282,9853.554,0.0001,0.0,0.0
4.289,9785.023,0.0001,0.0,0.0
4.295,9823.652,0.0001,0.0,0.0
4.301,9762.289,0.0001,0.0,0.0
4.308,9800.197,0.0001,0.0,0.0
4.314,9801.224,0.0001,0.0,0.0
4.32,9765.849,0.0001,0.0,0.0
4.327,9846.533,0.0001,0.0,0.0
4.333,9809.907,0.0001,0.0,0.0
4.339,9776.354,0.0001,0.0,0.0
4.346,9867.884,0.0001,0.0,0.0
4.352,9771.61,0.0001,0.0,0.0
4.358,9763.006,0.0001,0.0,0.0
4.364,9864.791,0.0001,0.0,0.0
4.371,9833.562,0.0001,0.0,0.0
4.377,9879.799,0.0001,0.0,0.0
4.383,9794.837,0.0001,0.0,0.0
4.39,9797.392,0.0001,0.0,0.0
4.396,9874.573,0.0001,0.0,0.0
4.402,9917.279,0.0001,0.0,0.0
4.409,9931.475,0.0001,0.0,0.0
4.415,9966.255,0.0001,0.0,0.0
4.421,9872.556,0.0001,0.0,0.0
4.428,10033.268,0.0001,0.0,0.0
4.434,9855.716,0.0001,0.0,0.0
4.44,10013.912,0.0001,0.0,0.0
4.447,10195.043,0.0001,0.0,0.0
4.453,10072.086,0.0001,0.0,0.0
4.459,10146.142,0.0001,0.0,0.0
4.466,10156.96,0.0001,0.0,0.0
4.472,10134.225,0.0001,0.0,0.0
4.478,10312.704,0.0001,0.0,0.0
4.485,10378.867,0.0001,0.0,0.0
4.491,10367.771,0.0001,0.0,0.0
4.497,10648.877,0.00009,0.0,0.0
4.504,10370.874,0.0001,0.0,0.0
4.51,10801.286,0.00009,0.0,0.0
4.516,10749.847,0.00009,0.0,0.0
4.522,11074.882,0.00009,0.0,0.0
4.529,11403.059,0.00009,0.0,0.0
4.535,11786.544,0.00008,0.0,0.0
4.541,12948.459,0.00008,0.0,0.0
4.548,14648.964,0.00007,0.0,0.0
4.554,15341.384,0.00007,0.0,0.0
4.56,15749.71,0.00006,0.0,0.0
4.567,15644.917,0.00006,0.0,0.0
4.573,13104.601,0.00008,0.0,0.0
4.579,12688.029,0.00008,0.0,0.0
4.586,11539.457,0.00009,0.0,0.0
4.592,11117.645,0.00009,0.0,0.0
4.598,10886.947,0.00009,0.0,0.0
4.605,10708.433,0.00009,0.0,0.0
4.611,10815.091,0.00009,0.0,0.0
4.617,10618.267,0.00009,0.0,0.0
4.624,10264.186,0.0001,0.0,0.0
4.63,10371.409,0.0001,0.0,0.0
4.636,10249.309,0.0001,0.0,0.0
4.643,10131.549,0.0001,0.0,0.0
4.649,10307.338,0.0001,0.0,0.0
4.655,9839.141,0.0001,0.0,0.0
4.662,9925.355,0.0001,0.0,0.0
4.668,9835.32,0.0001,0.0,0.0
4.674,9685.807,0.0001,0.0,0.0
4.68,9817.297,0.0001,0.0,0.0
4.687,9590.508,0.0001,0.0,0.0
4.693,9483.201,0.00011,0.0,0.0
4.699,9628.735,0.0001,0.0,0.0
4.706,9287.844,0.00011,0.0,0.0
4.712,9453.291,0.00011,0.0,0.0
4.718,9343.316,0.00011,0.0,0.0
4.725,9276.57,0.00011,0.0,0.0
4.731,9387.802,0.00011,0.0,0.0
4.737,9139.97,0.00011,0.0,0.0
4.744,9148.781,0.00011,0.0,0.0
4.75,9165.191,0.00011,0.0,0.0
4.756,8999.969,0.00011,0.0,0.0
4.763,9152.754,0.00011,0.0,0.0
4.769,9043.045,0.00011,0.0,0.0
4.775,8879.766,0.00011,0.0,0.0
4.782,9053.093,0.00011,0.0,0.0
4.788,8770.357,0.00011,0.0,0.0
4.794,8873.632,0.00011,0.0,0.0
4.801,8814.958,0.00011,0.0,0.0
4.807,8726.21,0.00011,0.0,0.0
4.813,8791.503,0.00011,0.0,0.0
4.82,8745.411,0.00011,0.0,0.0
4.826,8631.852,0.00012,0.0,0.0
4.832,8725.573,0.00011,0.0,0.0
4.838,8586.297,0.00012,0.0,0.0
4.845,8620.492,0.00012,0.0,0.0
4.851,8652.188,0.00012,0.0,0.0
4.857,8503.78,0.00012,0.0,0.0
4.864,8642.017,0.00012,0.0,0.0
4.87,8416.683,0.00012,0.0,0.0
4.876,8492.773,0.00012,0.0,0.0
4.883,8501.796,0.00012,0.0,0.0
4.889,8404.367,0.00012,0.0,0.0
4.895,8362.407,0.00012,0.0,0.0
4.902,8410.661,0.00012,0.0,0.0
4.908,8302.625,0.00012,0.0,0.0
4.914,8350.091,0.00012,0.0,0.0
4.921,8266.521,0.00012,0.0,0.0
4.927,8254.725,0.00012,0.0,0.0
4.933,8257.382,0.00012,0.0,0.0
4.94,8119.129,0.00012,0.0,0.0
4.946,8182.937,0.00012,0.0,0.0
4.952,8138.052,0.00012,0.0,0.0
4.959,8132.671,0.00012,0.0,0.0
4.965,8109.723,0.00012,0.0,0.0
4.971,8071.987,0.00012,0.0,0.0
4.978,8037.397,0.00012,0.0,0.0
4.984,8041.537,0.00012,0.0,0.0
4.99,7970.59,0.00013,0.0,0.0
4.996,8002.286,0.00012,0.0,0.0
5.003,7951.615,0.00013,0.0,0.0
5.009,7928.508,0.00013,0.0,0.0
5.015,7924.394,0.00013,0.0,0.0
5.022,7919.889,0.00013,0.0,0.0
5.028,7877.307,0.00013,0.0,0.0
5.034,7880.108,0.00013,0.0,0.0
5.041,7844.273,0.00013,0.0,0.0
5.047,7884.435,0.00013,0.0,0.0
5.053,7844.275,0.00013,0.0,0.0
5.06,7821.396,0.00013,0.0,0.0
5.066,7816.282,0.00013,0.0,0.0
5.072,7727.502,0.00013,0.0,0.0
5.079,7773.221,0.00013,0.0,0.0
5.085,7745.551,0.00013,0.0,0.0
5.091,7733.56,0.00013,0.0,0.0
5.098,7694.343,0.00013,0.0,0.0
5.104,7717.96,0.00013,0.0,0.0
5.11,7647.69,0.00013,0.0,0.0
5.117,7697.695,0.00013,0.0,0.0
5.123,7653.31,0.00013,0.0,0.0
5.129,7637.027,0.00013,0.0,0.0
5.136,7591.0,0.00013,0.0,0.0
5.142,7569.424,0.00013,0.0,0.0
5.148,7595.223,0.00013,0.0,0.0
5.154,7533.075,0.00013,0.0,0.0
5.161,7532.856,0.00013,0.0,0.0
5.167,7469.334,0.00013,0.0,0.0
5.173,7491.973,0.00013,0.0,0.0
5.18,7462.145,0.00013,0.0,0.0
5.186,7420.264,0.00013,0.0,0.0
5.192,7416.687,0.00013,0.0,0.0
5.199,7387.262,0.00014,0.0,0.0
5.205,7352.711,0.00014,0.0,0.0
5.211,7354.259,0.00014,0.0,0.0
5.218,7336.581,0.00014,0.0,0.0
5.224,7308.066,0.00014,0.0,0.0
5.23,7285.802,0.00014,0.0,0.0
5.237,7266.061,0.00014,0.0,0.0
5.243,7273.226,0.00014,0.0,0.0
5.249,7231.864,0.00014,0.0,0.0
5.256,7217.808,0.00014,0.0,0.0
5.262,7222.562,0.00014,0.0,0.0
5.268,7178.138,0.00014,0.0,0.0
5.275,7195.908,0.00014,0.0,0.0
5.281,7150.574,0.00014,0.0,0.0
5.287,7168.032,0.00014,0.0,0.0
5.294,7146.23,0.00014,0.0,0.0
5.3,7113.177,0.00014,0.0,0.0
5.306,7100.161,0.00014,0.0,0.0
5.312,7107.881,0.00014,0.0,0.0
5.319,7056.56,0.00014,0.0,0.0
5.325,7111.092,0.00014,0.0,0.0
5.331,7073.499,0.00014,0.0,0.0
5.338,7126.893,0.00014,0.0,0.0
5.344,7054.311,0.00014,0.0,0.0
5.35,7070.008,0.00014,0.0,0.0
5.357,7042.169,0.00014,0.0,0.0
5.363,7028.488,0.00014,0.0,0.0
5.369,6981.422,0.00014,0.0,0.0
5.376,7027.235,0.00014,0.0,0.0
5.382,6981.934,0.00014,0.0,0.0
5.388,6985.105,0.00014,0.0,0.0
5.395,6987.52,0.00014,0.0,0.0
5.401,6936.772,0.00014,0.0,0.0
5.407,6974.704,0.00014,0.0,0.0
5.414,6949.044,0.00014,0.0,0.0
5.42,6942.692,0.00014,0.0,0.0
5.426,6942.407,0.00014,0.0,0.0
5.433,6925.463,0.00014,0.0,0.0
5.439,6903.578,0.00014,0.0,0.0
5.445,6930.023,0.00014,0.0,0.0
5.452,6879.83,0.00015,0.0,0.0
5.458,6940.515,0.00014,0.0,0.0
5.464,6883.383,0.00015,0.0,0.0
5.47,6881.009,0.00015,0.0,0.0
5.477,6915.231,0.00014,0.0,0.0
5.483,6862.778,0.00015,0.0,0.0
5.489,6885.403,0.00015,0.0,0.0
5.496,6895.943,0.00015,0.0,0.0
5.502,6858.38,0.00015,0.0,0.0
5.508,6898.898,0.00014,0.0,0.0
5.515,6876.583,0.00015,0.0,0.0
5.521,6832.283,0.00015,0.0,0.0
5.527,6870.371,0.00015,0.0,0.0
5.534,6816.088,0.00015,0.0,0.0
5.54,6829.496,0.00015,0.0,0.0
5.546,6833.174,0.00015,0.0,0.0
5.553,6797.343,0.00015,0.0,0.0
5.559,6855.545,0.00015,0.0,0.0
5.565,6789.542,0.00015,0.0,0.0
5.572,6800.935,0.00015,0.0,0.0
5.578,6830.102,0.00015,0.0,0.0
5.584,6789.659,0.00015,0.0,0.0
5.591,6783.496,0.00015,0.0,0.0
5.597,6808.172,0.00015,0.0,0.0
5.603,6749.74,0.00015,0.0,0.0
5.61,6790.464,0.00015,0.0,0.0
5.616,6764.892,0.00015,0.0,0.0
5.622,6779.754,0.00015,0.0,0.0
5.628,6778.841,0.00015,0.0,0.0
5.635,6738.55,0.00015,0.0,0.0
5.641,6785.774,0.00015,0.0,0.0
5.647,6773.701,0.00015,0.0,0.0
5.654,6725.688,0.00015,0.0,0.0
5.66,6798.079,0.00015,0.0,0.0
5.666,6762.452,0.00015,0.0,0.0
5.673,6723.641,0.00015,0.0,0.0
5.679,6751.05,0.00015,0.0,0.0
5.685,6711.711,0.00015,0.0,0.0
5.692,6740.845,0.00015,0.0,0.0
5.698,6729.557,0.00015,0.0,0.0
5.704,6680.534,0.00015,0.0,0.0
5.711,6764.648,0.00015,0.0,0.0
5.717,6716.445,0.00015,0.0,0.0
5.723,6717.558,0.00015,0.0,0.0
5.73,6751.959,0.00015,0.0,0.0
5.736,6668.751,0.00015,0.0,0.0
5.742,6752.487,0.00015,0.0,0.0
5.749,6708.618,0.00015,0.0,0.0
5.755,6684.02,0.00015,0.0,0.0
5.761,6741.077,0.00015,0.0,0.0
5.768,6696.955,0.00015,0.0,0.0
5.774,6713.592,0.00015,0.0,0.0
5.78,6743.596,0.00015,0.0,0.0
5.786,6692.61,0.00015,0.0,0.0
5.793,6756.4,0.00015,0.0,0.0
5.799,6709.146,0.00015,0.0,0.0
5.805,6689.206,0.00015,0.0,0.0
5.812,6780.974,0.00015,0.0,0.0
5.818,6702.684,0.00015,0.0,0.0
5.824,6784.285,0.00015,0.0,0.0
5.831,6776.202,0.00015,0.0,0.0
5.837,6767.958,0.00015,0.0,0.0
5.843,6842.629,0.00015,0.0,0.0
5.85,6823.486,0.00015,0.0,0.0
5.856,6868.554,0.00015,0.0,0.0
5.862,6971.575,0.00014,0.0,0.0
5.869,6960.369,0.00014,0.0,0.0
5.875,7045.646,0.00014,0.0,0.0
5.881,7059.604,0.00014,0.0,0.0
5.888,6969.578,0.00014,0.0,0.0
5.894,6992.896,0.00014,0.0,0.0
5.9,6874.636,0.00015,0.0,0.0
5.907,6838.979,0.00015,0.0,0.0
5.913,6832.483,0.00015,0.0,0.0
5.919,6728.875,0.00015,0.0,0.0
5.926,6781.71,0.00015,0.0,0.0
5.932,6735.764,0.00015,0.0,0.0
5.938,6683.684,0.00015,0.0,0.0
5.944,6787.15,0.00015,0.0,0.0
5.951,6694.361,0.00015,0.0,0.0
5.957,6722.67,0.00015,0.0,0.0
5.963,6740.683,0.00015,0.0,0.0
5.97,6648.46,0.00015,0.0,0.0
5.976,6722.109,0.00015,0.0,0.0
5.982,6689.411,0.00015,0.0,0.0
5.989,6627.256,0.00015,0.0,0.0
5.995,6747.121,0.00015,0.0,0.0
6.001,6660.251,0.00015,0.0,0.0
6.008,6651.017,0.00015,0.0,0.0
6.014,6685.273,0.00015,0.0,0.0
6.02,6574.383,0.00015,0.0,0.0
6.027,6710.235,0.00015,0.0,0.0
6.033,6632.048,0.00015,0.0,0.0
6.039,6575.528,0.00015,0.0,0.0
6.046,6692.456,0.00015,0.0,0.0
6.052,6581.824,0.00015,0.0,0.0
6.058,6623.935,0.00015,0.0,0.0
6.065,6638.632,0.00015,0.0,0.0
6.071,6529.464,0.00015,0.0,0.0
6.077,6645.321,0.00015,0.0,0.0
6.084,6585.106,0.00015,0.0,0.0
6.09,6555.726,0.00015,0.0,0.0
6.096,6687.348,0.00015,0.0,0.0
6.102,6648.395,0.00015,0.0,0.0
6.109,6859.988,0.00015,0.0,0.0
6.115,6990.992,0.00014,0.0,0.0
6.121,6538.176,0.00015,0.0,0.0
6.128,7344.595,0.00014,0.0,0.0
6.134,6743.83,0.00015,0.0,0.0
6.14,6691.912,0.00015,0.0,0.0
6.147,6650.578,0.00015,0.0,0.0
6.153,6520.906,0.00015,0.0,0.0
6.159,6600.102,0.00015,0.0,0.0
6.166,6564.714,0.00015,0.0,0.0
6.172,6496.221,0.00015,0.0,0.0
6.178,6666.174,0.00015,0.0,0.0
6.185,6517.569,0.00015,0.0,0.0
6.191,6560.37,0.00015,0.0,0.0
6.197,6587.36,0.00015,0.0,0.0
6.204,6490.217,0.00015,0.0,0.0
6.21,6612.372,0.00015,0.0,0.0
6.216,6528.434,0.00015,0.0,0.0
6.223,6484.561,0.00015,0.0,0.0
6.229,6632.971,0.00015,0.0,0.0
6.235,6508.507,0.00015,0.0,0.0
6.242,6580.894,0.00015,0.0,0.0
6.248,6578.741,0.00015,0.0,0.0
6.254,6517.859,0.00015,0.0,0.0
6.26,6606.648,0.00015,0.0,0.0
6.267,6528.388,0.00015,0.0,0.0
6.273,6526.494,0.00015,0.0,0.0
6.279,6617.429,0.00015,0.0,0.0
6.286,6528.338,0.00015,0.0,0.0
6.292,6577.531,0.00015,0.0,0.0
6.298,6580.199,0.00015,0.0,0.0
6.305,6537.928,0.00015,0.0,0.0
6.311,6626.149,0.00015,0.0,0.0
6.317,6565.244,0.00015,0.0,0.0
6.324,6567.214,0.00015,0.0,0.0
6.33,6656.714,0.00015,0.0,0.0
6.336,6564.954,0.00015,0.0,0.0
6.343,6624.161,0.00015,0.0,0.0
6.349,6627.788,0.00015,0.0,0.0
6.355,6588.518,0.00015,0.0,0.0
6.362,6711.446,0.00015,0.0,0.0
6.368,6642.54,0.00015,0.0,0.0
6.374,6662.276,0.00015,0.0,0.0
6.381,6728.153,0.00015,0.0,0.0
6.387,6665.478,0.00015,0.0,0.0
6.393,6757.772,0.00015,0.0,0.0
6.4,6779.94,0.00015,0.0,0.0
6.406,6749.452,0.00015,0.0,0.0
6.412,6893.935,0.00015,0.0,0.0
6.418,6812.454,0.00015,0.0,0.0
6.425,6870.459,0.00015,0.0,0.0
6.431,6942.333,0.00014,0.0,0.0
6.437,6897.708,0.00014,0.0,0.0
6.444,7089.406,0.00014,0.0,0.0
6.45,7123.927,0.00014,0.0,0.0
6.456,7123.208,0.00014,0.0,0.0
6.463,7271.374,0.00014,0.0,0.0
6.469,7179.673,0.00014,0.0,0.0
6.475,7220.956,0.00014,0.0,0.0
6.482,7264.603,0.00014,0.0,0.0
6.488,7236.703,0.00014,0.0,0.0
6.494,7399.711,0.00014,0.0,0.0
6.501,7430.323,0.00013,0.0,0.0
6.507,7428.747,0.00013,0.0,0.0
6.513,7660.302,0.00013,0.0,0.0
6.52,7607.321,0.00013,0.0,0.0
6.526,7818.472,0.00013,0.0,0.0
6.532,7943.322,0.00013,0.0,0.0
6.539,8080.368,0.00012,0.0,0.0
6.545,8475.74,0.00012,0.0,0.0
6.551,8791.462,0.00011,0.0,0.0
6.558,9456.065,0.00011,0.0,0.0
6.564,10761.44,0.00009,0.0,0.0
6.57,12474.618,0.00008,0.0,0.0
6.576,16074.459,0.00006,0.0,0.0
6.583,22971.973,0.00004,0.0,0.0
6.589,35801.195,0.00003,0.0,0.0
6.595,57074.228,0.00002,0.0,0.0
6.602,77569.878,0.00001,0.0,0.0
6.608,100178.273,0.00001,0.0,0.0
6.614,118135.735,0.00001,0.0,0.0
6.621,104775.332,0.00001,0.0,0.0
6.627,81770.939,0.00001,0.0,0.0
6.633,60919.913,0.00002,0.0,0.0
6.64,33936.445,0.00003,0.0,0.0
6.646,23583.63,0.00004,0.0,0.0
6.652,16255.454,0.00006,0.0,0.0
6.659,12219.767,0.00008,0.0,0.0
6.665,10362.162,0.0001,0.0,0.0
6.671,9106.777,0.00011,0.0,0.0
6.678,8468.034,0.00012,0.0,0.0
6.684,7998.018,0.00013,0.0,0.0
6.69,7676.337,0.00013,0.0,0.0
6.697,7590.665,0.00013,0.0,0.0
6.703,7339.104,0.00014,0.0,0.0
6.709,7255.113,0.00014,0.0,0.0
6.716,7218.367,0.00014,0.0,0.0
6.722,7061.664,0.00014,0.0,0.0
6.728,7103.046,0.00014,0.0,0.0
6.734,7010.33,0.00014,0.0,0.0
6.741,6973.074,0.00014,0.0,0.0
6.747,7033.266,0.00014,0.0,0.0
6.753,6935.537,0.00014,0.0,0.0
6.76,6972.539,0.00014,0.0,0.0
6.766,6924.498,0.00014,0.0,0.0
6.772,6882.56,0.00015,0.0,0.0
6.779,6965.65,0.00014,0.0,0.0
6.785,6903.795,0.00014,0.0,0.0
6.791,6884.648,0.00015,0.0,0.0
6.798,6937.32,0.00014,0.0,0.0
6.804,6862.36,0.00015,0.0,0.0
6.81,6923.114,0.00014,0.0,0.0
6.817,6880.145,0.00015,0.0,0.0
6.823,6844.192,0.00015,0.0,0.0
6.829,6939.802,0.00014,0.0,0.0
6.836,6837.644,0.00015,0.0,0.0
6.842,6881.887,0.00015,0.0,0.0
6.848,6886.598,0.00015,0.0,0.0
6.855,6834.101,0.00015,0.0,0.0
6.861,6914.127,0.00014,0.0,0.0
6.867,6894.923,0.00015,0.0,0.0
6.874,6832.804,0.00015,0.0,0.0
6.88,6950.388,0.00014,0.0,0.0
6.886,6867.956,0.00015,0.0,0.0
6.892,6859.745,0.00015,0.0,0.0
6.899,6892.708,0.00015,0.0,0.0
6.905,6843.976,0.00015,0.0,0.0
6.911,6936.93,0.00014,0.0,0.0
6.918,6874.738,0.00015,0.0,0.0
6.924,6843.91,0.00015,0.0,0.0
6.93,6946.141,0.00014,0.0,0.0
6.937,6877.385,0.00015,0.0,0.0
6.943,6909.291,0.00014,0.0,0.0
6.949,6915.176,0.00014,0.0,0.0
6.956,6871.477,0.00015,0.0,0.0
6.962,6948.642,0.00014,0.0,0.0
6.968,6901.102,0.00014,0.0,0.0
6.975,6897.765,0.00014,0.0,0.0
6.981,6932.072,0.00014,0.0,0.0
6.987,6900.434,0.00014,0.0,0.0
6.994,6946.554,0.00014,0.0,0.0
7.0,6926.742,0.00014,0.0,0.0
7.006,6908.229,0.00014,0.0,0.0
7.013,6946.97,0.00014,0.0,0.0
7.019,6909.272,0.00014,0.0,0.0
7.025,6918.378,0.00014,0.0,0.0
7.032,6946.588,0.00014,0.0,0.0
7.038,6909.69,0.00014,0.0,0.0
7.044,6959.371,0.00014,0.0,0.0
7.05,6947.044,0.00014,0.0,0.0
7.057,6895.81,0.00015,0.0,0.0
7.063,6991.817,0.00014,0.0,0.0
7.069,6946.284,0.00014,0.0,0.0
7.076,6959.222,0.00014,0.0,0.0
7.082,6950.312,0.00014,0.0,0.0
7.088,6955.217,0.00014,0.0,0.0
7.095,6980.346,0.00014,0.0,0.0
7.101,6947.102,0.00014,0.0,0.0
7.107,6943.291,0.00014,0.0,0.0
7.114,6968.207,0.00014,0.0,0.0
7.12,6956.455,0.00014,0.0,0.0
7.126,6970.675,0.00014,0.0,0.0
7.133,6960.514,0.00014,0.0,0.0
7.139,6952.609,0.00014,0.0,0.0
7.145,6987.656,0.00014,0.0,0.0
7.152,6962.167,0.00014,0.0,0.0
7.158,6977.667,0.00014,0.0,0.0
7.164,6966.017,0.00014,0.0,0.0
7.171,6969.311,0.00014,0.0,0.0
7.177,6966.498,0.00014,0.0,0.0
7.183,6998.51,0.00014,0.0,0.0
7.19,6959.552,0.00014,0.0,0.0
7.196,7001.839,0.00014,0.0,0.0
7.202,6999.648,0.00014,0.0,0.0
7.208,6973.361,0.00014,0.0,0.0
7.215,7005.414,0.00014,0.0,0.0
7.221,6987.47,0.00014,0.0,0.0
7.227,7043.371,0.00014,0.0,0.0
7.234,7003.614,0.00014,0.0,0.0
7.24,6994.469,0.00014,0.0,0.0
7.246,7004.243,0.00014,0.0,0.0
7.253,7036.81,0.00014,0.0,0.0
7.259,6994.717,0.00014,0.0,0.0
7.265,7018.447,0.00014,0.0,0.0
7.272,6977.496,0.00014,0.0,0.0
7.278,7004.894,0.00014,0.0,0.0
7.284,7045.492,0.00014,0.0,0.0
7.291,7008.701,0.00014,0.0,0.0
7.297,7039.611,0.00014,0.0,0.0
7.303,7040.53,0.00014,0.0,0.0
7.31,7044.248,0.00014,0.0,0.0
7.316,7046.612,0.00014,0.0,0.0
7.322,7060.942,0.00014,0.0,0.0
7.329,7055.381,0.00014,0.0,0.0
7.335,7081.765,0.00014,0.0,0.0
7.341,7056.644,0.00014,0.0,0.0
7.348,7110.297,0.00014,0.0,0.0
7.354,7080.808,0.00014,0.0,0.0
7.36,7090.6,0.00014,0.0,0.0
7.366,7130.683,0.00014,0.0,0.0
7.373,7119.052,0.00014,0.0,0.0
7.379,7113.167,0.00014,0.0,0.0
7.385,7189.655,0.00014,0.0,0.0
7.392,7145.772,0.00014,0.0,0.0
7.398,7158.008,0.00014,0.0,0.0
7.404,7212.206,0.00014,0.0,0.0
7.411,7199.396,0.00014,0.0,0.0
7.417,7239.589,0.00014,0.0,0.0
7.423,7218.551,0.00014,0.0,0.0
7.43,7249.165,0.00014,0.0,0.0
7.436,7312.666,0.00014,0.0,0.0
7.442,7283.192,0.00014,0.0,0.0
7.449,7322.776,0.00014,0.0,0.0
7.455,7368.111,0.00014,0.0,0.0
7.461,7358.981,0.00014,0.0,0.0
7.468,7429.638,0.00013,0.0,0.0
7.474,7420.817,0.00013,0.0,0.0
7.48,7439.834,0.00013,0.0,0.0
7.487,7520.806,0.00013,0.0,0.0
7.493,7463.265,0.00013,0.0,0.0
7.499,7575.468,0.00013,0.0,0.0
7.506,7565.401,0.00013,0.0,0.0
7.512,7577.575,0.00013,0.0,0.0
7.518,7689.435,0.00013,0.0,0.0
7.524,7636.448,0.00013,0.0,0.0
7.531,7708.3,0.00013,0.0,0.0
7.537,7840.052,0.00013,0.0,0.0
7.543,7809.424,0.00013,0.0,0.0
7.55,7966.619,0.00013,0.0,0.0
7.556,8033.514,0.00012,0.0,0.0
7.562,8087.625,0.00012,0.0,0.0
7.569,8405.789,0.00012,0.0,0.0
7.575,8480.761,0.00012,0.0,0.0
7.581,8963.607,0.00011,0.0,0.0
7.588,9487.82,0.00011,0.0,0.0
7.594,10483.126,0.0001,0.0,0.0
7.6,12838.628,0.00008,0.0,0.0
7.607,15758.954,0.00006,0.0,0.0
7.613,20851.238,0.00005,0.0,0.0
7.619,31529.308,0.00003,0.0,0.0
7.626,39502.31,0.00003,0.0,0.0
7.632,52207.641,0.00002,0.0,0.0
7.638,54674.01,0.00002,0.0,0.0
7.645,50319.329,0.00002,0.0,0.0
7.651,43828.338,0.00002,0.0,0.0
7.657,29816.32,0.00003,0.0,0.0
7.664,23369.56,0.00004,0.0,0.0
7.67,16209.935,0.00006,0.0,0.0
7.676,12714.608,0.00008,0.0,0.0
7.682,11288.045,0.00009,0.0,0.0
7.689,9855.871,0.0001,0.0,0.0
7.695,9320.434,0.00011,0.0,0.0
7.701,9170.079,0.00011,0.0,0.0
7.708,8798.954,0.00011,0.0,0.0
7.714,8859.2,0.00011,0.0,0.0
7.72,8735.4,0.00011,0.0,0.0
7.727,8577.414,0.00012,0.0,0.0
7.733,8811.007,0.00011,0.0,0.0
7.739,8639.238,0.00012,0.0,0.0
7.746,8648.724,0.00012,0.0,0.0
7.752,8906.277,0.00011,0.0,0.0
7.758,8713.394,0.00011,0.0,0.0
7.765,8786.403,0.00011,0.0,0.0
7.771,8965.935,0.00011,0.0,0.0
7.777,8886.284,0.00011,0.0,0.0
7.784,9129.327,0.00011,0.0,0.0
7.79,9186.687,0.00011,0.0,0.0
7.796,9107.752,0.00011,0.0,0.0
7.803,9889.735,0.0001,0.0,0.0
7.809,9491.999,0.00011,0.0,0.0
7.815,9946.939,0.0001,0.0,0.0
7.822,11213.457,0.00009,0.0,0.0
7.828,9793.189,0.0001,0.0,0.0
7.834,14254.788,0.00007,0.0,0.0
7.84,12813.705,0.00008,0.0,0.0
7.847,11780.931,0.00008,0.0,0.0
7.853,17915.585,0.00006,0.0,0.0
7.859,12930.592,0.00008,0.0,0.0
7.866,16484.884,0.00006,0.0,0.0
7.872,19137.28,0.00005,0.0,0.0
7.878,15956.072,0.00006,0.0,0.0
7.885,21053.432,0.00005,0.0,0.0
7.891,20811.378,0.00005,0.0,0.0
7.897,21641.284,0.00005,0.0,0.0
7.904,20755.858,0.00005,0.0,0.0
7.91,17767.961,0.00006,0.0,0.0
7.916,19003.928,0.00005,0.0,0.0
7.923,18753.92,0.00005,0.0,0.0
7.929,13286.671,0.00008,0.0,0.0
7.935,18196.784,0.00005,0.0,0.0
7.942,13633.374,0.00007,0.0,0.0
7.948,12577.224,0.00008,0.0,0.0
7.954,13248.647,0.00008,0.0,0.0
7.961,10133.386,0.0001,0.0,0.0
7.967,11283.336,0.00009,0.0,0.0
7.973,10109.985,0.0001,0.0,0.0
7.98,9839.106,0.0001,0.0,0.0
7.986,10217.305,0.0001,0.0,0.0
7.992,9461.08,0.00011,0.0,0.0
7.998,9560.377,0.0001,0.0,0.0
8.005,9420.549,0.00011,0.0,0.0
8.011,9289.93,0.00011,0.0,0.0
8.017,9406.989,0.00011,0.0,0.0
8.024,9016.312,0.00011,0.0,0.0
8.03,9125.783,0.00011,0.0,0.0
8.036,9070.499,0.00011,0.0,0.0
8.043,8857.9,0.00011,0.0,0.0
8.049,9090.661,0.00011,0.0,0.0
8.055,8833.997,0.00011,0.0,0.0
8.062,8806.483,0.00011,0.0,0.0
8.068,8806.064,0.00011,0.0,0.0
8.074,8623.757,0.00012,0.0,0.0
8.081,8741.774,0.00011,0.0,0.0
8.087,8633.303,0.00012,0.0,0.0
8.093,8507.661,0.00012,0.0,0.0
8.1,8666.186,0.00012,0.0,0.0
8.106,8383.591,0.00012,0.0,0.0
8.112,8559.697,0.00012,0.0,0.0
8.119,8442.56,0.00012,0.0,0.0
8.125,8319.17,0.00012,0.0,0.0
8.131,8539.147,0.00012,0.0,0.0
8.138,8360.158,0.00012,0.0,0.0
8.144,8340.781,0.00012,0.0,0.0
8.15,8342.132,0.00012,0.0,0.0
8.156,8189.603,0.00012,0.0,0.0
8.163,8246.318,0.00012,0.0,0.0
8.169,8213.977,0.00012,0.0,0.0
8.175,7968.06,0.00013,0.0,0.0
8.182,8293.404,0.00012,0.0,0.0
8.188,8027.652,0.00012,0.0,0.0
8.194,8114.758,0.00012,0.0,0.0
8.201,8014.306,0.00012,0.0,0.0
8.207,7935.682,0.00013,0.0,0.0
8.213,8059.291,0.00012,0.0,0.0
8.22,7921.173,0.00013,0.0,0.0
8.226,7899.682,0.00013,0.0,0.0
8.232,7944.165,0.00013,0.0,0.0
8.239,7870.95,0.00013,0.0,0.0
8.245,7880.549,0.00013,0.0,0.0
8.251,7868.848,0.00013,0.0,0.0
8.258,7692.241,0.00013,0.0,0.0
8.264,7912.921,0.00013,0.0,0.0
8.27,7754.947,0.00013,0.0,0.0
8.277,7768.371,0.00013,0.0,0.0
8.283,7758.128,0.00013,0.0,0.0
8.289,7655.943,0.00013,0.0,0.0
8.296,7738.375,0.00013,0.0,0.0
8.302,7665.705,0.00013,0.0,0.0
8.308,7586.658,0.00013,0.0,0.0
8.314,7682.212,0.00013,0.0,0.0
8.321,7586.027,0.00013,0.0,0.0
8.327,7588.15,0.00013,0.0,0.0
8.333,7617.801,0.00013,0.0,0.0
8.34,7450.914,0.00013,0.0,0.0
8.346,7603.366,0.00013,0.0,0.0
8.352,7479.179,0.00013,0.0,0.0
8.359,7502.56,0.00013,0.0,0.0
8.365,7519.972,0.00013,0.0,0.0
8.371,7423.906,0.00013,0.0,0.0
8.378,7444.537,0.00013,0.0,0.0
8.384,7439.775,0.00013,0.0,0.0
8.39,7360.153,0.00014,0.0,0.0
8.397,7428.924,0.00013,0.0,0.0
8.403,7401.956,0.00014,0.0,0.0
8.409,7353.041,0.00014,0.0,0.0
8.416,7375.985,0.00014,0.0,0.0
8.422,7269.538,0.00014,0.0,0.0
8.428,7350.233,0.00014,0.0,0.0
8.435,7289.826,0.00014,0.0,0.0
8.441,7285.303,0.00014,0.0,0.0
8.447,7299.339,0.00014,0.0,0.0
8.454,7253.676,0.00014,0.0,0.0
8.46,7255.304,0.00014,0.0,0.0
8.466,7243.697,0.00014,0.0,0.0
8.472,7198.162,0.00014,0.0,0.0
8.479,7240.696,0.00014,0.0,0.0
8.485,7215.496,0.00014,0.0,0.0
8.491,7175.724,0.00014,0.0,0.0
8.498,7193.046,0.00014,0.0,0.0
8.504,7131.075,0.00014,0.0,0.0
8.51,7190.376,0.00014,0.0,0.0
8.517,7116.661,0.00014,0.0,0.0
8.523,7137.414,0.00014,0.0,0.0
8.529,7126.252,0.00014,0.0,0.0
8.536,7220.854,0.00014,0.0,0.0
8.542,7130.129,0.00014,0.0,0.0
8.548,7220.735,0.00014,0.0,0.0
8.555,7104.03,0.00014,0.0,0.0
8.561,7054.908,0.00014,0.0,0.0
8.567,7078.549,0.00014,0.0,0.0
8.574,7032.136,0.00014,0.0,0.0
8.58,7057.196,0.00014,0.0,0.0
8.586,6994.478,0.00014,0.0,0.0
8.593,6998.642,0.00014,0.0,0.0
8.599,7003.39,0.00014,0.0,0.0
8.605,6956.936,0.00014,0.0,0.0
8.612,6975.972,0.00014,0.0,0.0
8.618,6959.413,0.00014,0.0,0.0
8.624,6967.029,0.00014,0.0,0.0
8.63,6950.827,0.00014,0.0,0.0
8.637,6920.912,0.00014,0.0,0.0
8.643,6914.365,0.00014,0.0,0.0
8.649,6919.379,0.00014,0.0,0.0
8.656,6892.81,0.00015,0.0,0.0
8.662,6906.887,0.00014,0.0,0.0
8.668,6885.513,0.00015,0.0,0.0
8.675,6865.161,0.00015,0.0,0.0
8.681,6898.168,0.00014,0.0,0.0
8.687,6865.63,0.00015,0.0,0.0
8.694,6893.193,0.00015,0.0,0.0
8.7,6922.046,0.00014,0.0,0.0
8.706,6854.759,0.00015,0.0,0.0
8.713,6900.456,0.00014,0.0,0.0
8.719,6887.252,0.00015,0.0,0.0
8.725,6864.755,0.00015,0.0,0.0
8.732,6838.085,0.00015,0.0,0.0
8.738,6815.193,0.00015,0.0,0.0
8.744,6815.744,0.00015,0.0,0.0
8.751,6846.18,0.00015,0.0,0.0
8.757,6796.848,0.00015,0.0,0.0
8.763,6800.442,0.00015,0.0,0.0
8.77,6776.628,0.00015,0.0,0.0
8.776,6790.262,0.00015,0.0,0.0
8.782,6777.17,0.00015,0.0,0.0
8.788,6757.981,0.00015,0.0,0.0
8.795,6772.467,0.00015,0.0,0.0
8.801,6771.204,0.00015,0.0,0.0
8.807,6769.738,0.00015,0.0,0.0
8.814,6755.678,0.00015,0.0,0.0
8.82,6732.975,0.00015,0.0,0.0
8.826,6721.173,0.00015,0.0,0.0
8.833,6769.807,0.00015,0.0,0.0
8.839,6728.957,0.00015,0.0,0.0
8.845,6738.092,0.00015,0.0,0.0
8.852,6723.794,0.00015,0.0,0.0
8.858,6714.471,0.00015,0.0,0.0
8.864,6741.969,0.00015,0.0,0.0
8.871,6700.921,0.00015,0.0,0.0
8.877,6712.888,0.00015,0.0,0.0
8.883,6715.832,0.00015,0.0,0.0
8.89,6712.335,0.00015,0.0,0.0
8.896,6720.981,0.00015,0.0,0.0
8.902,6714.146,0.00015,0.0,0.0
8.909,6678.62,0.00015,0.0,0.0
8.915,6741.471,0.00015,0.0,0.0
8.921,6720.592,0.00015,0.0,0.0
8.928,6736.373,0.00015,0.0,0.0
8.934,6689.774,0.00015,0.0,0.0
8.94,6737.458,0.00015,0.0,0.0
8.946,6736.59,0.00015,0.0,0.0
8.953,6717.519,0.00015,0.0,0.0
8.959,6754.689,0.00015,0.0,0.0
8.965,6706.685,0.00015,0.0,0.0
8.972,6732.091,0.00015,0.0,0.0
8.978,6758.028,0.00015,0.0,0.0
8.984,6742.99,0.00015,0.0,0.0
8.991,6754.838,0.00015,0.0,0.0
8.997,6743.146,0.00015,0.0,0.0
9.003,6778.219,0.00015,0.0,0.0
9.01,6782.539,0.00015,0.0,0.0
9.016,6805.742,0.00015,0.0,0.0
9.022,6775.981,0.00015,0.0,0.0
9.029,6815.779,0.00015,0.0,0.0
9.035,6786.931,0.00015,0.0,0.0
9.041,6817.916,0.00015,0.0,0.0
9.048,6848.914,0.00015,0.0,0.0
9.054,6821.111,0.00015,0.0,0.0
9.06,6845.337,0.00015,0.0,0.0
9.067,6829.288,0.00015,0.0,0.0
9.073,6867.161,0.00015,0.0,0.0
9.079,6847.528,0.00015,0.0,0.0
9.086,6853.86,0.00015,0.0,0.0
9.092,6879.437,0.00015,0.0,0.0
9.098,6911.504,0.00014,0.0,0.0
9.104,6936.052,0.00014,0.0,0.0
9.111,7138.648,0.00014,0.0,0.0
9.117,7072.653,0.00014,0.0,0.0
9.123,7181.834,0.00014,0.0,0.0
9.13,7161.787,0.00014,0.0,0.0
9.136,7032.208,0.00014,0.0,0.0
9.142,7001.204,0.00014,0.0,0.0
9.149,6922.919,0.00014,0.0,0.0
9.155,6895.826,0.00015,0.0,0.0
9.161,6898.21,0.00014,0.0,0.0
9.168,6853.002,0.00015,0.0,0.0
9.174,6812.776,0.00015,0.0,0.0
9.18,6784.961,0.00015,0.0,0.0
9.187,6804.628,0.00015,0.0,0.0
9.193,6798.475,0.00015,0.0,0.0
9.199,6777.793,0.00015,0.0,0.0
9.206,6714.433,0.00015,0.0,0.0
9.212,6759.38,0.00015,0.0,0.0
9.218,6718.509,0.00015,0.0,0.0
9.225,6693.618,0.00015,0.0,0.0
9.231,6627.317,0.00015,0.0,0.0
9.237,6660.128,0.00015,0.0,0.0
9.244,6643.214,0.00015,0.0,0.0
9.25,6609.343,0.00015,0.0,0.0
9.256,6572.758,0.00015,0.0,0.0
9.262,6571.188,0.00015,0.0,0.0
9.269,6527.647,0.00015,0.0,0.0
9.275,6549.332,0.00015,0.0,0.0
9.281,6519.988,0.00015,0.0,0.0
9.288,6477.341,0.00015,0.0,0.0
9.294,6500.056,0.00015,0.0,0.0
9.3,6437.634,0.00016,0.0,0.0
9.307,6467.401,0.00015,0.0,0.0
9.313,6401.063,0.00016,0.0,0.0
9.319,6401.837,0.00016,0.0,0.0
9.326,6388.304,0.00016,0.0,0.0
9.332,6381.972,0.00016,0.0,0.0
9.338,6381.374,0.00016,0.0,0.0
9.345,6334.527,0.00016,0.0,0.0
9.351,6339.829,0.00016,0.0,0.0
9.357,6294.603,0.00016,0.0,0.0
9.364,6307.518,0.00016,0.0,0.0
9.37,6256.114,0.00016,0.0,0.0
9.376,6294.134,0.00016,0.0,0.0
9.383,6228.514,0.00016,0.0,0.0
9.389,6259.46,0.00016,0.0,0.0
9.395,6216.156,0.00016,0.0,0.0
9.402,6221.614,0.00016,0.0,0.0
9.408,6170.922,0.00016,0.0,0.0
9.414,6177.289,0.00016,0.0,0.0
9.42,6156.625,0.00016,0.0,0.0
9.427,6139.629,0.00016,0.0,0.0
9.433,6147.07,0.00016,0.0,0.0
9.439,6122.457,0.00016,0.0,0.0
9.446,6119.512,0.00016,0.0,0.0
9.452,6084.039,0.00016,0.0,0.0
9.458,6100.152,0.00016,0.0,0.0
9.465,6080.636,0.00016,0.0,0.0
9.471,6070.744,0.00016,0.0,0.0
9.477,6056.479,0.00017,0.0,0.0
9.484,6060.22,0.00017,0.0,0.0
9.49,6039.899,0.00017,0.0,0.0
9.496,6009.835,0.00017,0.0,0.0
9.503,6011.534,0.00017,0.0,0.0
9.509,6006.676,0.00017,0.0,0.0
9.515,6021.406,0.00017,0.0,0.0
9.522,5976.081,0.00017,0.0,0.0
9.528,5993.193,0.00017,0.0,0.0
9.534,5951.477,0.00017,0.0,0.0
9.541,5973.437,0.00017,0.0,0.0
9.547,5951.099,0.00017,0.0,0.0
9.553,5952.599,0.00017,0.0,0.0
9.56,5926.962,0.00017,0.0,0.0
9.566,5931.111,0.00017,0.0,0.0
9.572,5923.314,0.00017,0.0,0.0
9.578,5928.795,0.00017,0.0,0.0
9.585,5892.43,0.00017,0.0,0.0
9.591,5865.355,0.00017,0.0,0.0
9.597,5920.254,0.00017,0.0,0.0
9.604,5881.117,0.00017,0.0,0.0
9.61,5900.072,0.00017,0.0,0.0
9.616,5856.626,0.00017,0.0,0.0
9.623,5867.223,0.00017,0.0,0.0
9.629,5880.007,0.00017,0.0,0.0
9.635,5836.901,0.00017,0.0,0.0
9.642,5851.614,0.00017,0.0,0.0
9.648,5842.369,0.00017,0.0,0.0
9.654,5848.558,0.00017,0.0,0.0
9.661,5835.193,0.00017,0.0,0.0
9.667,5824.586,0.00017,0.0,0.0
9.673,5825.533,0.00017,0.0,0.0
9.68,5817.247,0.00017,0.0,0.0
9.686,5804.918,0.00017,0.0,0.0
9.692,5822.263,0.00017,0.0,0.0
9.699,5797.965,0.00017,0.0,0.0
9.705,5779.415,0.00017,0.0,0.0
9.711,5813.104,0.00017,0.0,0.0
9.718,5785.797,0.00017,0.0,0.0
9.724,5786.207,0.00017,0.0,0.0
9.73,5783.671,0.00017,0.0,0.0
9.736,5814.469,0.00017,0.0,0.0
9.743,5765.281,0.00017,0.0,0.0
9.749,5789.733,0.00017,0.0,0.0
9.755,5768.387,0.00017,0.0,0.0
9.762,5785.866,0.00017,0.0,0.0
9.768,5768.362,0.00017,0.0,0.0
9.774,5754.811,0.00017,0.0,0.0
9.781,5770.142,0.00017,0.0,0.0
9.787,5760.831,0.00017,0.0,0.0
9.793,5768.698,0.00017,0.0,0.0
9.8,5739.171,0.00017,0.0,0.0
9.806,5772.637,0.00017,0.0,0.0
9.812,5754.895,0.00017,0.0,0.0
9.819,5762.785,0.00017,0.0,0.0
9.825,5747.752,0.00017,0.0,0.0
9.831,5764.695,0.00017,0.0,0.0
9.838,5729.941,0.00017,0.0,0.0
9.844,5752.713,0.00017,0.0,0.0
9.85,5739.861,0.00017,0.0,0.0
9.857,5737.792,0.00017,0.0,0.0
9.863,5741.525,0.00017,0.0,0.0
9.869,5727.281,0.00017,0.0,0.0
9.876,5756.194,0.00017,0.0,0.0
9.882,5703.411,0.00018,0.0,0.0
9.888,5715.119,0.00017,0.0,0.0
9.894,5704.732,0.00018,0.0,0.0
9.901,5700.378,0.00018,0.0,0.0
9.907,5707.567,0.00018,0.0,0.0
9.913,5688.843,0.00018,0.0,0.0
9.92,5702.264,0.00018,0.0,0.0
9.926,5674.026,0.00018,0.0,0.0
9.932,5654.278,0.00018,0.0,0.0
9.939,5670.782,0.00018,0.0,0.0
9.945,5683.013,0.00018,0.0,0.0
9.951,5650.041,0.00018,0.0,0.0
9.958,5672.216,0.00018,0.0,0.0
9.964,5659.345,0.00018,0.0,0.0
9.97,5639.954,0.00018,0.0,0.0
9.977,5667.811,0.00018,0.0,0.0
9.983,5620.234,0.00018,0.0,0.0
9.989,5652.47,0.00018,0.0,0.0
9.996,5624.215,0.00018,0.0,0.0
10.002,5622.361,0.00018,0.0,0.0
10.008,5635.143,0.00018,0.0,0.0
10.015,5611.602,0.00018,0.0,0.0
10.021,5614.757,0.00018,0.0,0.0
10.027,5616.936,0.00018,0.0,0.0
10.034,5605.344,0.00018,0.0,0.0
10.04,5626.275,0.00018,0.0,0.0
10.046,5614.788,0.00018,0.0,0.0
10.052,5603.795,0.00018,0.0,0.0
10.059,5619.82,0.00018,0.0,0.0
10.065,5579.734,0.00018,0.0,0.0
10.071,5600.618,0.00018,0.0,0.0
10.078,5577.064,0.00018,0.0,0.0
10.084,5600.596,0.00018,0.0,0.0
10.09,5590.073,0.00018,0.0,0.0
10.097,5572.599,0.00018,0.0,0.0
10.103,5588.535,0.00018,0.0,0.0
10.109,5579.778,0.00018,0.0,0.0
10.116,5593.153,0.00018,0.0,0.0
10.122,5566.113,0.00018,0.0,0.0
10.128,5583.333,0.00018,0.0,0.0
10.135,5593.023,0.00018,0.0,0.0
10.141,5568.785,0.00018,0.0,0.0
10.147,5572.398,0.00018,0.0,0.0
10.154,5597.661,0.00018,0.0,0.0
10.16,5567.693,0.00018,0.0,0.0
10.166,5550.846,0.00018,0.0,0.0
10.173,5594.078,0.00018,0.0,0.0
10.179,5595.741,0.00018,0.0,0.0
10.185,5641.482,0.00018,0.0,0.0
10.192,5651.88,0.00018,0.0,0.0
10.198,5660.396,0.00018,0.0,0.0
10.204,5687.371,0.00018,0.0,0.0
10.21,5626.886,0.00018,0.0,0.0
10.217,5644.776,0.00018,0.0,0.0
10.223,5669.834,0.00018,0.0,0.0
10.229,5629.67,0.00018,0.0,0.0
10.236,5643.88,0.00018,0.0,0.0
10.242,5588.839,0.00018,0.0,0.0
10.248,5623.255,0.00018,0.0,0.0
10.255,5568.932,0.00018,0.0,0.0
10.261,5531.93,0.00018,0.0,0.0
10.267,5595.028,0.00018,0.0,0.0
10.274,5617.504,0.00018,0.0,0.0
10.28,5629.303,0.00018,0.0,0.0
10.286,5620.659,0.00018,0.0,0.0
10.293,5616.885,0.00018,0.0,0.0
10.299,5577.319,0.00018,0.0,0.0
10.305,5594.732,0.00018,0.0,0.0
10.312,5616.25,0.00018,0.0,0.0
10.318,5637.525,0.00018,0.0,0.0
10.324,5665.646,0.00018,0.0,0.0
10.331,5580.009,0.00018,0.0,0.0
10.337,5609.707,0.00018,0.0,0.0
10.343,5566.239,0.00018,0.0,0.0
10.35,5577.341,0.00018,0.0,0.0
10.356,5517.785,0.00018,0.0,0.0
10.362,5580.4,0.00018,0.0,0.0
10.368,5574.234,0.00018,0.0,0.0
10.375,5544.662,0.00018,0.0,0.0
10.381,5542.534,0.00018,0.0,0.0
10.387,5552.213,0.00018,0.0,0.0
10.394,5541.543,0.00018,0.0,0.0
10.4,5485.095,0.00018,0.0,0.0
10.406,5550.54,0.00018,0.0,0.0
10.413,5520.15,0.00018,0.0,0.0
10.419,5563.146,0.00018,0.0,0.0
10.425,5520.909,0.00018,0.0,0.0
10.432,5521.894,0.00018,0.0,0.0
10.438,5501.297,0.00018,0.0,0.0
10.444,5507.447,0.00018,0.0,0.0
10.451,5505.392,0.00018,0.0,0.0
10.457,5510.613,0.00018,0.0,0.0
10.463,5512.798,0.00018,0.0,0.0
10.47,5516.674,0.00018,0.0,0.0
10.476,5514.713,0.00018,0.0,0.0
10.482,5497.177,0.00018,0.0,0.0
10.489,5499.096,0.00018,0.0,0.0
10.495,5494.11,0.00018,0.0,0.0
10.501,5516.025,0.00018,0.0,0.0
10.508,5514.453,0.00018,0.0,0.0
10.514,5493.991,0.00018,0.0,0.0
10.52,5503.014,0.00018,0.0,0.0
10.526,5492.14,0.00018,0.0,0.0
10.533,5491.278,0.00018,0.0,0.0
10.539,5484.324,0.00018,0.0,0.0
10.545,5519.377,0.00018,0.0,0.0
10.552,5475.087,0.00018,0.0,0.0
10.558,5494.548,0.00018,0.0,0.0
10.564,5494.704,0.00018,0.0,0.0
10.571,5483.825,0.00018,0.0,0.0
10.577,5476.151,0.00018,0.0,0.0
10.583,5490.788,0.00018,0.0,0.0
10.59,5479.303,0.00018,0.0,0.0
10.596,5496.28,0.00018,0.0,0.0
10.602,5499.014,0.00018,0.0,0.0
10.609,5473.742,0.00018,0.0,0.0
10.615,5507.253,0.00018,0.0,0.0
10.621,5486.438,0.00018,0.0,0.0
10.628,5505.073,0.00018,0.0,0.0
10.634,5499.887,0.00018,0.0,0.0
10.64,5496.11,0.00018,0.0,0.0
10.647,5503.527,0.00018,0.0,0.0
10.653,5494.839,0.00018,0.0,0.0
10.659,5507.017,0.00018,0.0,0.0
10.666,5516.709,0.00018,0.0,0.0
10.672,5504.747,0.00018,0.0,0.0
10.678,5508.619,0.00018,0.0,0.0
10.684,5526.76,0.00018,0.0,0.0
10.691,5525.062,0.00018,0.0,0.0
10.697,5546.819,0.00018,0.0,0.0
10.703,5555.276,0.00018,0.0,0.0
10.71,5574.616,0.00018,0.0,0.0
10.716,5590.996,0.00018,0.0,0.0
10.722,5608.03,0.00018,0.0,0.0
10.729,5652.141,0.00018,0.0,0.0
10.735,5688.944,0.00018,0.0,0.0
10.741,5770.772,0.00017,0.0,0.0
10.748,5858.763,0.00017,0.0,0.0
10.754,6009.5,0.00017,0.0,0.0
10.76,6208.387,0.00016,0.0,0.0
10.767,6667.565,0.00015,0.0,0.0
10.773,7380.248,0.00014,0.0,0.0
10.779,8641.228,0.00012,0.0,0.0
10.786,11144.768,0.00009,0.0,0.0
10.792,14568.127,0.00007,0.0,0.0
10.798,19526.978,0.00005,0.0,0.0
10.805,23973.621,0.00004,0.0,0.0
10.811,27953.879,0.00004,0.0,0.0
10.817,27351.195,0.00004,0.0,0.0
10.824,24440.797,0.00004,0.0,0.0
10.83,19038.421,0.00005,0.0,0.0
10.836,14604.344,0.00007,0.0,0.0
10.842,11080.68,0.00009,0.0,0.0
10.849,8933.776,0.00011,0.0,0.0
10.855,7377.176,0.00014,0.0,0.0
10.861,6744.781,0.00015,0.0,0.0
10.868,6256.561,0.00016,0.0,0.0
10.874,6039.459,0.00017,0.0,0.0
10.88,5881.828,0.00017,0.0,0.0
10.887,5767.204,0.00017,0.0,0.0
10.893,5728.878,0.00017,0.0,0.0
10.899,5666.338,0.00018,0.0,0.0
10.906,5611.079,0.00018,0.0,0.0
10.912,5592.805,0.00018,0.0,0.0
10.918,5579.819,0.00018,0.0,0.0
10.925,5578.709,0.00018,0.0,0.0
10.931,5552.293,0.00018,0.0,0.0
10.937,5553.07,0.00018,0.0,0.0
10.944,5530.469,0.00018,0.0,0.0
10.95,5540.459,0.00018,0.0,0.0
10.956,5516.868,0.00018,0.0,0.0
10.963,5524.74,0.00018,0.0,0.0
10.969,5515.329,0.00018,0.0,0.0
10.975,5519.809,0.00018,0.0,0.0
10.982,5519.063,0.00018,0.0,0.0
10.988,5506.736,0.00018,0.0,0.0
10.994,5491.537,0.00018,0.0,0.0
11.0,5501.81,0.00018,0.0,0.0
11.007,5499.749,0.00018,0.0,0.0
11.013,5491.931,0.00018,0.0,0.0
11.019,5496.015,0.00018,0.0,0.0
11.026,5483.882,0.00018,0.0,0.0
11.032,5494.693,0.00018,0.0,0.0
11.038,5497.679,0.00018,0.0,0.0
11.045,5499.18,0.00018,0.0,0.0
11.051,5488.848,0.00018,0.0,0.0
11.057,5486.835,0.00018,0.0,0.0
11.064,5503.667,0.00018,0.0,0.0
11.07,5492.707,0.00018,0.0,0.0
11.076,5505.14,0.00018,0.0,0.0
11.083,5496.564,0.00018,0.0,0.0
11.089,5501.907,0.00018,0.0,0.0
11.095,5512.605,0.00018,0.0,0.0
11.102,5525.457,0.00018,0.0,0.0
11.108,5530.862,0.00018,0.0,0.0
11.114,5529.012,0.00018,0.0,0.0
11.121,5559.871,0.00018,0.0,0.0
11.127,5542.639,0.00018,0.0,0.0
11.133,5566.324,0.00018,0.0,0.0
11.14,5558.896,0.00018,0.0,0.0
11.146,5604.748,0.00018,0.0,0.0
11.152,5634.817,0.00018,0.0,0.0
11.158,5703.518,0.00018,0.0,0.0
11.165,5734.972,0.00017,0.0,0.0
11.171,6023.008,0.00017,0.0,0.0
11.177,6079.977,0.00016,0.0,0.0
11.184,7128.991,0.00014,0.0,0.0
11.19,7344.241,0.00014,0.0,0.0
11.196,7604.768,0.00013,0.0,0.0
11.203,7482.803,0.00013,0.0,0.0
11.209,6763.871,0.00015,0.0,0.0
11.215,6474.567,0.00015,0.0,0.0
11.222,6181.777,0.00016,0.0,0.0
11.228,5910.298,0.00017,0.0,0.0
11.234,5741.951,0.00017,0.0,0.0
11.241,5648.332,0.00018,0.0,0.0
11.247,5627.707,0.00018,0.0,0.0
11.253,5581.858,0.00018,0.0,0.0
11.26,5581.483,0.00018,0.0,0.0
11.266,5539.822,0.00018,0.0,0.0
11.272,5542.386,0.00018,0.0,0.0
11.279,5511.027,0.00018,0.0,0.0
11.285,5526.882,0.00018,0.0,0.0
11.291,5522.575,0.00018,0.0,0.0
11.298,5500.882,0.00018,0.0,0.0
11.304,5507.567,0.00018,0.0,0.0
11.31,5471.465,0.00018,0.0,0.0
11.316,5509.492,0.00018,0.0,0.0
11.323,5473.463,0.00018,0.0,0.0
11.329,5485.425,0.00018,0.0,0.0
11.335,5474.395,0.00018,0.0,0.0
11.342,5476.759,0.00018,0.0,0.0
11.348,5484.342,0.00018,0.0,0.0
11.354,5465.802,0.00018,0.0,0.0
11.361,5480.535,0.00018,0.0,0.0
11.367,5475.596,0.00018,0.0,0.0
11.373,5483.551,0.00018,0.0,0.0
11.38,5463.302,0.00018,0.0,0.0
11.386,5470.612,0.00018,0.0,0.0
11.392,5455.155,0.00018,0.0,0.0
11.399,5470.014,0.00018,0.0,0.0
11.405,5470.126,0.00018,0.0,0.0
11.411,5480.412,0.00018,0.0,0.0
11.418,5479.05,0.00018,0.0,0.0
11.424,5477.939,0.00018,0.0,0.0
11.43,5476.918,0.00018,0.0,0.0
11.437,5470.519,0.00018,0.0,0.0
11.443,5485.771,0.00018,0.0,0.0
11.449,5484.061,0.00018,0.0,0.0
11.456,5484.415,0.00018,0.0,0.0
11.462,5462.737,0.00018,0.0,0.0
11.468,5461.779,0.00018,0.0,0.0
11.474,5482.723,0.00018,0.0,0.0
11.481,5487.137,0.00018,0.0,0.0
11.487,5479.709,0.00018,0.0,0.0
11.493,5487.001,0.00018,0.0,0.0
11.5,5494.166,0.00018,0.0,0.0
11.506,5490.634,0.00018,0.0,0.0
11.512,5502.666,0.00018,0.0,0.0
11.519,5501.235,0.00018,0.0,0.0
11.525,5504.871,0.00018,0.0,0.0
11.531,5493.285,0.00018,0.0,0.0
11.538,5506.136,0.00018,0.0,0.0
11.544,5514.273,0.00018,0.0,0.0
11.55,5499.133,0.00018,0.0,0.0
11.557,5507.213,0.00018,0.0,0.0
11.563,5520.813,0.00018,0.0,0.0
11.569,5494.748,0.00018,0.0,0.0
11.576,5511.365,0.00018,0.0,0.0
11.582,5505.779,0.00018,0.0,0.0
11.588,5515.167,0.00018,0.0,0.0
11.595,5536.954,0.00018,0.0,0.0
11.601,5507.4,0.00018,0.0,0.0
11.607,5531.004,0.00018,0.0,0.0
11.614,5535.202,0.00018,0.0,0.0
11.62,5518.276,0.00018,0.0,0.0
11.626,5532.22,0.00018,0.0,0.0
11.632,5519.224,0.00018,0.0,0.0
11.639,5543.258,0.00018,0.0,0.0
11.645,5530.846,0.00018,0.0,0.0
11.651,5516.707,0.00018,0.0,0.0
11.658,5538.604,0.00018,0.0,0.0
11.664,5520.807,0.00018,0.0,0.0
11.67,5529.452,0.00018,0.0,0.0
11.677,5528.6,0.00018,0.0,0.0
11.683,5507.865,0.00018,0.0,0.0
11.689,5510.107,0.00018,0.0,0.0
11.696,5522.999,0.00018,0.0,0.0
11.702,5503.548,0.00018,0.0,0.0
11.708,5519.184,0.00018,0.0,0.0
11.715,5499.559,0.00018,0.0,0.0
11.721,5522.713,0.00018,0.0,0.0
11.727,5494.197,0.00018,0.0,0.0
11.734,5506.55,0.00018,0.0,0.0
11.74,5510.366,0.00018,0.0,0.0
11.746,5514.974,0.00018,0.0,0.0
11.753,5501.458,0.00018,0.0,0.0
11.759,5506.588,0.00018,0.0,0.0
11.765,5501.36,0.00018,0.0,0.0
11.772,5517.307,0.00018,0.0,0.0
11.778,5516.218,0.00018,0.0,0.0
11.784,5500.894,0.00018,0.0,0.0
11.79,5518.888,0.00018,0.0,0.0
11.797,5512.998,0.00018,0.0,0.0
11.803,5523.688,0.00018,0.0,0.0
11.809,5511.057,0.00018,0.0,0.0
11.816,5521.224,0.00018,0.0,0.0
11.822,5511.298,0.00018,0.0,0.0
11.828,5520.626,0.00018,0.0,0.0
11.835,5509.924,0.00018,0.0,0.0
11.841,5515.536,0.00018,0.0,0.0
11.847,5504.219,0.00018,0.0,0.0
11.854,5520.089,0.00018,0.0,0.0
11.86,5501.471,0.00018,0.0,0.0
11.866,5514.602,0.00018,0.0,0.0
11.873,5524.951,0.00018,0.0,0.0
11.879,5524.289,0.00018,0.0,0.0
11.885,5531.333,0.00018,0.0,0.0
11.892,5515.401,0.00018,0.0,0.0
11.898,5520.31,0.00018,0.0,0.0
11.904,5543.415,0.00018,0.0,0.0
11.911,5525.79,0.00018,0.0,0.0
11.917,5548.139,0.00018,0.0,0.0
11.923,5532.443,0.00018,0.0,0.0
11.93,5528.589,0.00018,0.0,0.0
11.936,5556.686,0.00018,0.0,0.0
11.942,5536.456,0.00018,0.0,0.0
11.948,5554.603,0.00018,0.0,0.0
11.955,5535.184,0.00018,0.0,0.0
11.961,5550.816,0.00018,0.0,0.0
11.967,5559.184,0.00018,0.0,0.0
11.974,5536.058,0.00018,0.0,0.0
11.98,5559.329,0.00018,0.0,0.0
11.986,5555.576,0.00018,0.0,0.0
11.993,5566.044,0.00018,0.0,0.0
11.999,5563.242,0.00018,0.0,0.0
12.005,5554.63,0.00018,0.0,0.0
12.012,5579.798,0.00018,0.0,0.0
12.018,5578.381,0.00018,0.0,0.0
12.024,5568.847,0.00018,0.0,0.0
12.031,5575.543,0.00018,0.0,0.0
12.037,5561.423,0.00018,0.0,0.0
12.043,5587.358,0.00018,0.0,0.0
12.05,5600.179,0.00018,0.0,0.0
12.056,5618.305,0.00018,0.0,0.0
12.062,5654.257,0.00018,0.0,0.0
12.069,5703.072,0.00018,0.0,0.0
12.075,5801.045,0.00017,0.0,0.0
12.081,5898.83,0.00017,0.0,0.0
12.088,5842.923,0.00017,0.0,0.0
12.094,5975.072,0.00017,0.0,0.0
12.1,5720.583,0.00017,0.0,0.0
12.106,5722.812,0.00017,0.0,0.0
12.113,5742.413,0.00017,0.0,0.0
12.119,5650.432,0.00018,0.0,0.0
12.125,5610.639,0.00018,0.0,0.0
12.132,5564.284,0.00018,0.0,0.0
12.138,5533.207,0.00018,0.0,0.0
12.144,5503.779,0.00018,0.0,0.0
12.151,5497.861,0.00018,0.0,0.0
12.157,5475.803,0.00018,0.0,0.0
12.163,5463.496,0.00018,0.0,0.0
12.17,5468.21,0.00018,0.0,0.0
12.176,5447.025,0.00018,0.0,0.0
12.182,5447.646,0.00018,0.0,0.0
12.189,5425.437,0.00018,0.0,0.0
12.195,5440.375,0.00018,0.0,0.0
12.201,5423.82,0.00018,0.0,0.0
12.208,5411.828,0.00018,0.0,0.0
12.214,5416.893,0.00018,0.0,0.0
12.22,5407.571,0.00018,0.0,0.0
12.227,5393.676,0.00019,0.0,0.0
12.233,5376.631,0.00019,0.0,0.0
12.239,5367.99,0.00019,0.0,0.0
12.246,5366.521,0.00019,0.0,0.0
12.252,5376.753,0.00019,0.0,0.0
12.258,5337.43,0.00019,0.0,0.0
12.264,5341.081,0.00019,0.0,0.0
12.271,5345.282,0.00019,0.0,0.0
12.277,5332.791,0.00019,0.0,0.0
12.283,5342.118,0.00019,0.0,0.0
12.29,5310.19,0.00019,0.0,0.0
12.296,5311.998,0.00019,0.0,0.0
12.302,5316.201,0.00019,0.0,0.0
12.309,5298.173,0.00019,0.0,0.0
12.315,5301.258,0.00019,0.0,0.0
12.321,5280.886,0.00019,0.0,0.0
12.328,5288.414,0.00019,0.0,0.0
12.334,5273.249,0.00019,0.0,0.0
12.34,5279.258,0.00019,0.0,0.0
12.347,5259.918,0.00019,0.0,0.0
12.353,5275.001,0.00019,0.0,0.0
12.359,5255.286,0.00019,0.0,0.0
12.366,5250.014,0.00019,0.0,0.0
12.372,5257.609,0.00019,0.0,0.0
12.378,5245.624,0.00019,0.0,0.0
12.385,5249.488,0.00019,0.0,0.0
12.391,5219.525,0.00019,0.0,0.0
12.397,5247.041,0.00019,0.0,0.0
12.404,5238.428,0.00019,0.0,0.0
12.41,5234.185,0.00019,0.0,0.0
12.416,5232.311,0.00019,0.0,0.0
12.422,5244.372,0.00019,0.0,0.0
12.429,5247.363,0.00019,0.0,0.0
12.435,5229.167,0.00019,0.0,0.0
12.441,5221.395,0.00019,0.0,0.0
12.448,5204.822,0.00019,0.0,0.0
12.454,5216.7,0.00019,0.0,0.0
12.46,5196.212,0.00019,0.0,0.0
12.467,5223.116,0.00019,0.0,0.0
12.473,5200.801,0.00019,0.0,0.0
12.479,5190.953,0.00019,0.0,0.0
12.486,5213.65,0.00019,0.0,0.0
12.492,5198.204,0.00019,0.0,0.0
12.498,5197.828,0.00019,0.0,0.0
12.505,5198.237,0.00019,0.0,0.0
12.511,5212.662,0.00019,0.0,0.0
12.517,5197.104,0.00019,0.0,0.0
12.524,5190.335,0.00019,0.0,0.0
12.53,5204.389,0.00019,0.0,0.0
12.536,5204.386,0.00019,0.0,0.0
12.543,5198.808,0.00019,0.0,0.0
12.549,5210.848,0.00019,0.0,0.0
12.555,5198.694,0.00019,0.0,0.0
12.562,5213.344,0.00019,0.0,0.0
12.568,5238.722,0.00019,0.0,0.0
12.574,5209.321,0.00019,0.0,0.0
12.58,5257.496,0.00019,0.0,0.0
12.587,5268.574,0.00019,0.0,0.0
12.593,5282.058,0.00019,0.0,0.0
12.599,5329.31,0.00019,0.0,0.0
12.606,5354.602,0.00019,0.0,0.0
12.612,5445.888,0.00018,0.0,0.0
12.618,5550.828,0.00018,0.0,0.0
12.625,5704.574,0.00018,0.0,0.0
12.631,6002.646,0.00017,0.0,0.0
12.637,6403.224,0.00016,0.0,0.0
12.644,7325.676,0.00014,0.0,0.0
12.65,8596.733,0.00012,0.0,0.0
12.656,10916.015,0.00009,0.0,0.0
12.663,15466.055,0.00006,0.0,0.0
12.669,19179.037,0.00005,0.0,0.0
12.675,28043.374,0.00004,0.0,0.0
12.682,32224.764,0.00003,0.0,0.0
12.688,34744.1,0.00003,0.0,0.0
12.694,32532.258,0.00003,0.0,0.0
12.701,26691.485,0.00004,0.0,0.0
12.707,21204.397,0.00005,0.0,0.0
12.713,14798.511,0.00007,0.0,0.0
12.72,10794.98,0.00009,0.0,0.0
12.726,8430.574,0.00012,0.0,0.0
12.732,7036.638,0.00014,0.0,0.0
12.738,6264.554,0.00016,0.0,0.0
12.745,5874.877,0.00017,0.0,0.0
12.751,5579.002,0.00018,0.0,0.0
12.757,5446.464,0.00018,0.0,0.0
12.764,5311.762,0.00019,0.0,0.0
12.77,5229.957,0.00019,0.0,0.0
12.776,5198.465,0.00019,0.0,0.0
12.783,5130.34,0.00019,0.0,0.0
12.789,5124.648,0.0002,0.0,0.0
12.795,5084.924,0.0002,0.0,0.0
12.802,5070.455,0.0002,0.0,0.0
12.808,5062.853,0.0002,0.0,0.0
12.814,5003.481,0.0002,0.0,0.0
12.821,5023.53,0.0002,0.0,0.0
12.827,5014.306,0.0002,0.0,0.0
12.833,4984.459,0.0002,0.0,0.0
12.84,4999.296,0.0002,0.0,0.0
12.846,4963.571,0.0002,0.0,0.0
12.852,4994.03,0.0002,0.0,0.0
12.859,4959.755,0.0002,0.0,0.0
12.865,4948.482,0.0002,0.0,0.0
12.871,4978.886,0.0002,0.0,0.0
12.878,4918.168,0.0002,0.0,0.0
12.884,4949.78,0.0002,0.0,0.0
12.89,4938.362,0.0002,0.0,0.0
12.896,4916.455,0.0002,0.0,0.0
12.903,4978.803,0.0002,0.0,0.0
12.909,4894.82,0.0002,0.0,0.0
12.915,4911.544,0.0002,0.0,0.0
12.922,5223.526,0.00019,0.0,0.0
12.928,4903.752,0.0002,0.0,0.0
12.934,5669.081,0.00018,0.0,0.0
12.941,4889.422,0.0002,0.0,0.0
12.947,4901.267,0.0002,0.0,0.0
12.953,5287.742,0.00019,0.0,0.0
12.96,4860.458,0.00021,0.0,0.0
12.966,4973.919,0.0002,0.0,0.0
12.972,4848.494,0.00021,0.0,0.0
12.979,4844.796,0.00021,0.0,0.0
12.985,4880.196,0.0002,0.0,0.0
12.991,4819.327,0.00021,0.0,0.0
12.998,4856.704,0.00021,0.0,0.0
13.004,4825.198,0.00021,0.0,0.0
13.01,4810.005,0.00021,0.0,0.0
13.017,4843.655,0.00021,0.0,0.0
13.023,4800.64,0.00021,0.0,0.0
13.029,4837.486,0.00021,0.0,0.0
13.036,4796.983,0.00021,0.0,0.0
13.042,4788.466,0.00021,0.0,0.0
13.048,4834.687,0.00021,0.0,0.0
13.054,4787.478,0.00021,0.0,0.0
13.061,4799.161,0.00021,0.0,0.0
13.067,4781.992,0.00021,0.0,0.0
13.073,4773.21,0.00021,0.0,0.0
13.08,4809.428,0.00021,0.0,0.0
13.086,4774.047,0.00021,0.0,0.0
13.092,4783.855,0.00021,0.0,0.0
13.099,4768.557,0.00021,0.0,0.0
13.105,4766.324,0.00021,0.0,0.0
13.111,4788.85,0.00021,0.0,0.0
13.118,4749.098,0.00021,0.0,0.0
13.124,4780.806,0.00021,0.0,0.0
13.13,4773.681,0.00021,0.0,0.0
13.137,4756.858,0.00021,0.0,0.0
13.143,4789.28,0.00021,0.0,0.0
13.149,4757.324,0.00021,0.0,0.0
13.156,4768.526,0.00021,0.0,0.0
13.162,4775.017,0.00021,0.0,0.0
13.168,4775.311,0.00021,0.0,0.0
13.175,4794.427,0.00021,0.0,0.0
13.181,4803.702,0.00021,0.0,0.0
13.187,4819.86,0.00021,0.0,0.0
13.194,4864.826,0.00021,0.0,0.0
13.2,4921.698,0.0002,0.0,0.0
13.206,5034.008,0.0002,0.0,0.0
13.212,5195.737,0.00019,0.0,0.0
13.219,5566.653,0.00018,0.0,0.0
13.225,6176.662,0.00016,0.0,0.0
13.231,7403.189,0.00014,0.0,0.0
13.238,8591.884,0.00012,0.0,0.0
13.244,11134.873,0.00009,0.0,0.0
13.25,12006.68,0.00008,0.0,0.0
13.257,12915.213,0.00008,0.0,0.0
13.263,12061.463,0.00008,0.0,0.0
13.269,10015.93,0.0001,0.0,0.0
13.276,8602.7,0.00012,0.0,0.0
13.282,6966.111,0.00014,0.0,0.0
13.288,6037.886,0.00017,0.0,0.0
13.295,5424.858,0.00018,0.0,0.0
13.301,5120.9,0.0002,0.0,0.0
13.307,4932.941,0.0002,0.0,0.0
13.314,4830.771,0.00021,0.0,0.0
13.32,4771.38,0.00021,0.0,0.0
13.326,4728.496,0.00021,0.0,0.0
13.333,4708.299,0.00021,0.0,0.0
13.339,4677.835,0.00021,0.0,0.0
13.345,4656.779,0.00021,0.0,0.0
13.352,4655.697,0.00021,0.0,0.0
13.358,4639.397,0.00022,0.0,0.0
13.364,4631.676,0.00022,0.0,0.0
13.37,4620.636,0.00022,0.0,0.0
13.377,4610.551,0.00022,0.0,0.0
13.383,4629.385,0.00022,0.0,0.0
13.389,4606.402,0.00022,0.0,0.0
13.396,4615.809,0.00022,0.0,0.0
13.402,4600.063,0.00022,0.0,0.0
13.408,4595.243,0.00022,0.0,0.0
13.415,4582.771,0.00022,0.0,0.0
13.421,4571.869,0.00022,0.0,0.0
13.427,4585.903,0.00022,0.0,0.0
13.434,4563.725,0.00022,0.0,0.0
13.44,4561.89,0.00022,0.0,0.0
13.446,4560.883,0.00022,0.0,0.0
13.453,4559.416,0.00022,0.0,0.0
13.459,4543.838,0.00022,0.0,0.0
13.465,4546.572,0.00022,0.0,0.0
13.472,4541.141,0.00022,0.0,0.0
13.478,4543.36,0.00022,0.0,0.0
13.484,4537.079,0.00022,0.0,0.0
13.491,4531.996,0.00022,0.0,0.0
13.497,4533.655,0.00022,0.0,0.0
13.503,4514.794,0.00022,0.0,0.0
13.51,4531.409,0.00022,0.0,0.0
13.516,4523.451,0.00022,0.0,0.0
13.522,4525.669,0.00022,0.0,0.0
13.528,4519.849,0.00022,0.0,0.0
13.535,4505.512,0.00022,0.0,0.0
13.541,4504.779,0.00022,0.0,0.0
13.547,4497.118,0.00022,0.0,0.0
13.554,4521.208,0.00022,0.0,0.0
13.56,4513.722,0.00022,0.0,0.0
13.566,4506.988,0.00022,0.0,0.0
13.573,4497.655,0.00022,0.0,0.0
13.579,4478.741,0.00022,0.0,0.0
13.585,4482.843,0.00022,0.0,0.0
13.592,4482.76,0.00022,0.0,0.0
13.598,4477.282,0.00022,0.0,0.0
13.604,4485.717,0.00022,0.0,0.0
13.611,4488.903,0.00022,0.0,0.0
13.617,4487.485,0.00022,0.0,0.0
13.623,4489.034,0.00022,0.0,0.0
13.63,4472.719,0.00022,0.0,0.0
13.636,4465.698,0.00022,0.0,0.0
13.642,4468.998,0.00022,0.0,0.0
13.649,4476.372,0.00022,0.0,0.0
13.655,4476.2,0.00022,0.0,0.0
13.661,4472.762,0.00022,0.0,0.0
13.668,4468.721,0.00022,0.0,0.0
13.674,4479.426,0.00022,0.0,0.0
13.68,4467.06,0.00022,0.0,0.0
13.686,4481.278,0.00022,0.0,0.0
13.693,4466.559,0.00022,0.0,0.0
13.699,4482.083,0.00022,0.0,0.0
13.705,4476.275,0.00022,0.0,0.0
13.712,4485.874,0.00022,0.0,0.0
13.718,4459.915,0.00022,0.0,0.0
13.724,4456.778,0.00022,0.0,0.0
13.731,4454.18,0.00022,0.0,0.0
13.737,4442.2,0.00023,0.0,0.0
13.743,4441.182,0.00023,0.0,0.0
13.75,4430.218,0.00023,0.0,0.0
13.756,4421.633,0.00023,0.0,0.0
13.762,4414.441,0.00023,0.0,0.0
13.769,4414.582,0.00023,0.0,0.0
13.775,4404.287,0.00023,0.0,0.0
13.781,4408.734,0.00023,0.0,0.0
13.788,4405.002,0.00023,0.0,0.0
13.794,4406.864,0.00023,0.0,0.0
13.8,4391.622,0.00023,0.0,0.0
13.807,4391.381,0.00023,0.0,0.0
13.813,4390.143,0.00023,0.0,0.0
13.819,4378.994,0.00023,0.0,0.0
13.826,4385.362,0.00023,0.0,0.0
13.832,4375.994,0.00023,0.0,0.0
13.838,4375.037,0.00023,0.0,0.0
13.844,4373.901,0.00023,0.0,0.0
13.851,4372.522,0.00023,0.0,0.0
13.857,4363.692,0.00023,0.0,0.0
13.863,4356.993,0.00023,0.0,0.0
13.87,4358.035,0.00023,0.0,0.0
13.876,4353.982,0.00023,0.0,0.0
13.882,4346.309,0.00023,0.0,0.0
13.889,4347.899,0.00023,0.0,0.0
13.895,4345.24,0.00023,0.0,0.0
13.901,4354.452,0.00023,0.0,0.0
13.908,4330.402,0.00023,0.0,0.0
13.914,4334.927,0.00023,0.0,0.0
13.92,4324.95,0.00023,0.0,0.0
13.927,4320.16,0.00023,0.0,0.0
13.933,4322.117,0.00023,0.0,0.0
13.939,4322.359,0.00023,0.0,0.0
13.946,4314.586,0.00023,0.0,0.0
13.952,4302.076,0.00023,0.0,0.0
13.958,4307.228,0.00023,0.0,0.0
13.965,4300.188,0.00023,0.0,0.0
13.971,4298.577,0.00023,0.0,0.0
13.977,4297.04,0.00023,0.0,0.0
13.984,4294.147,0.00023,0.0,0.0
13.99,4288.223,0.00023,0.0,0.0
13.996,4287.85,0.00023,0.0,0.0
14.002,4282.135,0.00023,0.0,0.0
14.009,4271.233,0.00023,0.0,0.0
14.015,4287.038,0.00023,0.0,0.0
14.021,4276.69,0.00023,0.0,0.0
14.028,4277.39,0.00023,0.0,0.0
14.034,4271.804,0.00023,0.0,0.0
14.04,4256.821,0.00023,0.0,0.0
14.047,4270.084,0.00023,0.0,0.0
14.053,4250.723,0.00024,0.0,0.0
14.059,4260.899,0.00023,0.0,0.0
14.066,4252.132,0.00024,0.0,0.0
14.072,4244.883,0.00024,0.0,0.0
14.078,4251.322,0.00024,0.0,0.0
14.085,4256.671,0.00023,0.0,0.0
14.091,4239.239,0.00024,0.0,0.0
14.097,4247.75,0.00024,0.0,0.0
14.104,4225.425,0.00024,0.0,0.0
14.11,4236.559,0.00024,0.0,0.0
14.116,4231.12,0.00024,0.0,0.0
14.123,4216.169,0.00024,0.0,0.0
14.129,4220.069,0.00024,0.0,0.0
14.135,4215.14,0.00024,0.0,0.0
14.142,4223.926,0.00024,0.0,0.0
14.148,4203.391,0.00024,0.0,0.0
14.154,4207.16,0.00024,0.0,0.0
14.16,4217.131,0.00024,0.0,0.0
14.167,4197.652,0.00024,0.0,0.0
14.173,4200.685,0.00024,0.0,0.0
14.179,4206.547,0.00024,0.0,0.0
14.186,4193.189,0.00024,0.0,0.0
14.192,4205.016,0.00024,0.0,0.0
14.198,4186.22,0.00024,0.0,0.0
14.205,4186.03,0.00024,0.0,0.0
14.211,4186.424,0.00024,0.0,0.0
14.217,4174.292,0.00024,0.0,0.0
14.224,4185.11,0.00024,0.0,0.0
14.23,4183.799,0.00024,0.0,0.0
14.236,4190.587,0.00024,0.0,0.0
14.243,4178.025,0.00024,0.0,0.0
14.249,4184.553,0.00024,0.0,0.0
14.255,4170.048,0.00024,0.0,0.0
14.262,4163.237,0.00024,0.0,0.0
14.268,4168.535,0.00024,0.0,0.0
14.274,4159.7,0.00024,0.0,0.0
14.281,4178.659,0.00024,0.0,0.0
14.287,4163.466,0.00024,0.0,0.0
14.293,4149.192,0.00024,0.0,0.0
14.3,4155.256,0.00024,0.0,0.0
14.306,4154.366,0.00024,0.0,0.0
14.312,4152.301,0.00024,0.0,0.0
14.318,4160.44,0.00024,0.0,0.0
14.325,4148.373,0.00024,0.0,0.0
14.331,4145.061,0.00024,0.0,0.0
14.337,4146.551,0.00024,0.0,0.0
14.344,4155.377,0.00024,0.0,0.0
14.35,4159.104,0.00024,0.0,0.0
14.356,4134.646,0.00024,0.0,0.0
14.363,4147.289,0.00024,0.0,0.0
14.369,4126.572,0.00024,0.0,0.0
14.375,4125.421,0.00024,0.0,0.0
14.382,4130.17,0.00024,0.0,0.0
14.388,4117.653,0.00024,0.0,0.0
14.394,4131.378,0.00024,0.0,0.0
14.401,4124.128,0.00024,0.0,0.0
14.407,4116.631,0.00024,0.0,0.0
14.413,4133.117,0.00024,0.0,0.0
14.42,4107.862,0.00024,0.0,0.0
14.426,4137.201,0.00024,0.0,0.0
14.432,4150.138,0.00024,0.0,0.0
14.439,4136.326,0.00024,0.0,0.0
14.445,4265.228,0.00023,0.0,0.0
14.451,4158.746,0.00024,0.0,0.0
14.458,4181.653,0.00024,0.0,0.0
14.464,4226.907,0.00024,0.0,0.0
14.47,4175.156,0.00024,0.0,0.0
14.476,4161.23,0.00024,0.0,0.0
14.483,4126.777,0.00024,0.0,0.0
14.489,4116.803,0.00024,0.0,0.0
14.495,4117.718,0.00024,0.0,0.0
14.502,4090.83,0.00024,0.0,0.0
14.508,4096.672,0.00024,0.0,0.0
14.514,4082.333,0.00024,0.0,0.0
14.521,4084.957,0.00024,0.0,0.0
14.527,4078.213,0.00025,0.0,0.0
14.533,4071.805,0.00025,0.0,0.0
14.54,4084.117,0.00024,0.0,0.0
14.546,4058.264,0.00025,0.0,0.0
14.552,4085.74,0.00024,0.0,0.0
14.559,4064.739,0.00025,0.0,0.0
14.565,4061.208,0.00025,0.0,0.0
14.571,4062.856,0.00025,0.0,0.0
14.578,4047.964,0.00025,0.0,0.0
14.584,4058.844,0.00025,0.0,0.0
14.59,4048.502,0.00025,0.0,0.0
14.597,4056.177,0.00025,0.0,0.0
14.603,4035.465,0.00025,0.0,0.0
14.609,4034.407,0.00025,0.0,0.0
14.616,4044.649,0.00025,0.0,0.0
14.622,4035.991,0.00025,0.0,0.0
14.628,4053.411,0.00025,0.0,0.0
14.634,4040.297,0.00025,0.0,0.0
14.641,4021.852,0.00025,0.0,0.0
14.647,4028.039,0.00025,0.0,0.0
14.653,4018.344,0.00025,0.0,0.0
14.66,4031.28,0.00025,0.0,0.0
14.666,4023.593,0.00025,0.0,0.0
14.672,4018.168,0.00025,0.0,0.0
14.679,4015.483,0.00025,0.0,0.0
14.685,4003.816,0.00025,0.0,0.0
14.691,4014.215,0.00025,0.0,0.0
14.698,4009.868,0.00025,0.0,0.0
14.704,4006.021,0.00025,0.0,0.0
14.71,4001.972,0.00025,0.0,0.0
14.717,3995.582,0.00025,0.0,0.0
14.723,3993.148,0.00025,0.0,0.0
14.729,4002.305,0.00025,0.0,0.0
14.736,3992.905,0.00025,0.0,0.0
14.742,3989.594,0.00025,0.0,0.0
14.748,3983.314,0.00025,0.0,0.0
14.755,3996.304,0.00025,0.0,0.0
14.761,3998.221,0.00025,0.0,0.0
14.767,3987.62,0.00025,0.0,0.0
14.774,4003.323,0.00025,0.0,0.0
14.78,3979.716,0.00025,0.0,0.0
14.786,3978.515,0.00025,0.0,0.0
14.792,3974.167,0.00025,0.0,0.0
14.799,3976.888,0.00025,0.0,0.0
14.805,3978.787,0.00025,0.0,0.0
14.811,3966.098,0.00025,0.0,0.0
14.818,3976.177,0.00025,0.0,0.0
14.824,3967.06,0.00025,0.0,0.0
14.83,3961.331,0.00025,0.0,0.0
14.837,3982.534,0.00025,0.0,0.0
14.843,3961.711,0.00025,0.0,0.0
14.849,3961.903,0.00025,0.0,0.0
14.856,3962.676,0.00025,0.0,0.0
14.862,3960.137,0.00025,0.0,0.0
14.868,3958.18,0.00025,0.0,0.0
14.875,3959.099,0.00025,0.0,0.0
14.881,3958.541,0.00025,0.0,0.0
14.887,3949.289,0.00025,0.0,0.0
14.894,3955.509,0.00025,0.0,0.0
14.9,3951.127,0.00025,0.0,0.0
14.906,3949.215,0.00025,0.0,0.0
14.913,3953.035,0.00025,0.0,0.0
14.919,3942.75,0.00025,0.0,0.0
14.925,3937.341,0.00025,0.0,0.0
14.932,3945.889,0.00025,0.0,0.0
14.938,3938.102,0.00025,0.0,0.0
14.944,3936.067,0.00025,0.0,0.0
14.95,3937.43,0.00025,0.0,0.0
14.957,3938.982,0.00025,0.0,0.0
14.963,3953.996,0.00025,0.0,0.0
14.969,3940.146,0.00025,0.0,0.0
14.976,3937.631,0.00025,0.0,0.0
14.982,3944.482,0.00025,0.0,0.0
14.988,3930.996,0.00025,0.0,0.0
14.995,3935.012,0.00025,0.0,0.0
15.001,3940.685,0.00025,0.0,0.0
15.007,3938.158,0.00025,0.0,0.0
15.014,3926.289,0.00025,0.0,0.0
15.02,3938.532,0.00025,0.0,0.0
15.026,3923.999,0.00025,0.0,0.0
15.033,3924.304,0.00025,0.0,0.0
15.039,3939.12,0.00025,0.0,0.0
15.045,3918.213,0.00026,0.0,0.0
15.052,3921.834,0.00025,0.0,0.0
15.058,3923.945,0.00025,0.0,0.0
15.064,3905.518,0.00026,0.0,0.0
15.071,3926.802,0.00025,0.0,0.0
15.077,3913.433,0.00026,0.0,0.0
15.083,3931.321,0.00025,0.0,0.0
15.09,3913.47,0.00026,0.0,0.0
15.096,3922.223,0.00025,0.0,0.0
15.102,3919.608,0.00026,0.0,0.0
15.108,3907.446,0.00026,0.0,0.0
15.115,3925.257,0.00025,0.0,0.0
15.121,3933.639,0.00025,0.0,0.0
15.127,3927.627,0.00025,0.0,0.0
15.134,3929.782,0.00025,0.0,0.0
15.14,3931.093,0.00025,0.0,0.0
15.146,4029.597,0.00025,0.0,0.0
15.153,3957.815,0.00025,0.0,0.0
15.159,4065.136,0.00025,0.0,0.0
15.165,4042.173,0.00025,0.0,0.0
15.172,4013.545,0.00025,0.0,0.0
15.178,4051.357,0.00025,0.0,0.0
15.184,4018.137,0.00025,0.0,0.0
15.191,3978.046,0.00025,0.0,0.0
15.197,3956.52,0.00025,0.0,0.0
15.203,3921.885,0.00025,0.0,0.0
15.21,3921.292,0.00026,0.0,0.0
15.216,3912.753,0.00026,0.0,0.0
15.222,3909.935,0.00026,0.0,0.0
15.229,3928.113,0.00025,0.0,0.0
15.235,3921.976,0.00025,0.0,0.0
15.241,3940.837,0.00025,0.0,0.0
15.248,3948.524,0.00025,0.0,0.0
15.254,3971.89,0.00025,0.0,0.0
15.26,4008.496,0.00025,0.0,0.0
15.266,4075.966,0.00025,0.0,0.0
15.273,4197.111,0.00024,0.0,0.0
15.279,4365.433,0.00023,0.0,0.0
15.285,4710.913,0.00021,0.0,0.0
15.292,4984.843,0.0002,0.0,0.0
15.298,5643.779,0.00018,0.0,0.0
15.304,5972.776,0.00017,0.0,0.0
15.311,6250.523,0.00016,0.0,0.0
15.317,6435.436,0.00016,0.0,0.0
15.323,5981.005,0.00017,0.0,0.0
15.33,5729.252,0.00017,0.0,0.0
15.336,5110.35,0.0002,0.0,0.0
15.342,4719.254,0.00021,0.0,0.0
15.349,4435.539,0.00023,0.0,0.0
15.355,4183.565,0.00024,0.0,0.0
15.361,4061.507,0.00025,0.0,0.0
15.368,3992.776,0.00025,0.0,0.0
15.374,3934.509,0.00025,0.0,0.0
15.38,3912.15,0.00026,0.0,0.0
15.387,3893.0,0.00026,0.0,0.0
15.393,3879.014,0.00026,0.0,0.0
15.399,3881.476,0.00026,0.0,0.0
15.406,3864.442,0.00026,0.0,0.0
15.412,3856.644,0.00026,0.0,0.0
15.418,3857.763,0.00026,0.0,0.0
15.424,3847.121,0.00026,0.0,0.0
15.431,3852.632,0.00026,0.0,0.0
15.437,3838.097,0.00026,0.0,0.0
15.443,3843.949,0.00026,0.0,0.0
15.45,3829.999,0.00026,0.0,0.0
15.456,3825.024,0.00026,0.0,0.0
15.462,3823.52,0.00026,0.0,0.0
15.469,3822.725,0.00026,0.0,0.0
15.475,3822.426,0.00026,0.0,0.0
15.481,3829.806,0.00026,0.0,0.0
15.488,3817.914,0.00026,0.0,0.0
15.494,3823.352,0.00026,0.0,0.0
15.5,3807.911,0.00026,0.0,0.0
15.507,3832.151,0.00026,0.0,0.0
15.513,3805.547,0.00026,0.0,0.0
15.519,3817.762,0.00026,0.0,0.0
15.526,3823.561,0.00026,0.0,0.0
15.532,3798.622,0.00026,0.0,0.0
15.538,3802.62,0.00026,0.0,0.0
15.545,3817.164,0.00026,0.0,0.0
15.551,3803.698,0.00026,0.0,0.0
15.557,3813.13,0.00026,0.0,0.0
15.564,3795.611,0.00026,0.0,0.0
15.57,3810.808,0.00026,0.0,0.0
15.576,3797.99,0.00026,0.0,0.0
15.582,3800.223,0.00026,0.0,0.0
15.589,3789.946,0.00026,0.0,0.0
15.595,3785.2,0.00026,0.0,0.0
15.601,3796.155,0.00026,0.0,0.0
15.608,3781.38,0.00026,0.0,0.0
15.614,3770.438,0.00027,0.0,0.0
15.62,3779.259,0.00026,0.0,0.0
15.627,3767.363,0.00027,0.0,0.0
15.633,3770.719,0.00027,0.0,0.0
15.639,3763.282,0.00027,0.0,0.0
15.646,3772.997,0.00027,0.0,0.0
15.652,3774.402,0.00026,0.0,0.0
15.658,3765.543,0.00027,0.0,0.0
15.665,3768.974,0.00027,0.0,0.0
15.671,3758.865,0.00027,0.0,0.0
15.677,3757.781,0.00027,0.0,0.0
15.684,3746.397,0.00027,0.0,0.0
15.69,3758.637,0.00027,0.0,0.0
15.696,3754.051,0.00027,0.0,0.0
15.703,3752.877,0.00027,0.0,0.0
15.709,3756.295,0.00027,0.0,0.0
15.715,3746.412,0.00027,0.0,0.0
15.722,3747.664,0.00027,0.0,0.0
15.728,3743.425,0.00027,0.0,0.0
15.734,3741.036,0.00027,0.0,0.0
15.74,3743.465,0.00027,0.0,0.0
15.747,3738.222,0.00027,0.0,0.0
15.753,3728.381,0.00027,0.0,0.0
15.759,3740.908,0.00027,0.0,0.0
15.766,3727.456,0.00027,0.0,0.0
15.772,3739.923,0.00027,0.0,0.0
15.778,3729.56,0.00027,0.0,0.0
15.785,3725.241,0.00027,0.0,0.0
15.791,3737.373,0.00027,0.0,0.0
15.797,3718.555,0.00027,0.0,0.0
15.804,3727.54,0.00027,0.0,0.0
15.81,3724.206,0.00027,0.0,0.0
15.816,3731.918,0.00027,0.0,0.0
15.823,3727.41,0.00027,0.0,0.0
15.829,3717.529,0.00027,0.0,0.0
15.835,3721.009,0.00027,0.0,0.0
15.842,3726.684,0.00027,0.0,0.0
15.848,3733.955,0.00027,0.0,0.0
15.854,3739.228,0.00027,0.0,0.0
15.861,3727.264,0.00027,0.0,0.0
15.867,3726.549,0.00027,0.0,0.0
15.873,3720.307,0.00027,0.0,0.0
15.88,3717.211,0.00027,0.0,0.0
15.886,3708.488,0.00027,0.0,0.0
15.892,3706.958,0.00027,0.0,0.0
15.898,3693.292,0.00027,0.0,0.0
15.905,3696.575,0.00027,0.0,0.0
15.911,3698.286,0.00027,0.0,0.0
15.917,3710.47,0.00027,0.0,0.0
15.924,3699.702,0.00027,0.0,0.0
15.93,3704.941,0.00027,0.0,0.0
15.936,3695.854,0.00027,0.0,0.0
15.943,3696.215,0.00027,0.0,0.0
15.949,3698.56,0.00027,0.0,0.0
15.955,3685.998,0.00027,0.0,0.0
15.962,3690.196,0.00027,0.0,0.0
15.968,3685.288,0.00027,0.0,0.0
15.974,3695.938,0.00027,0.0,0.0
15.981,3692.83,0.00027,0.0,0.0
15.987,3684.993,0.00027,0.0,0.0
15.993,3683.65,0.00027,0.0,0.0
16.0,3684.325,0.00027,0.0,0.0
16.006,3688.147,0.00027,0.0,0.0
16.012,3672.948,0.00027,0.0,0.0
16.019,3671.775,0.00027,0.0,0.0
16.025,3676.935,0.00027,0.0,0.0
16.031,3671.086,0.00027,0.0,0.0
16.038,3672.904,0.00027,0.0,0.0
16.044,3663.775,0.00027,0.0,0.0
16.05,3676.779,0.00027,0.0,0.0
16.056,3680.769,0.00027,0.0,0.0
16.063,3671.263,0.00027,0.0,0.0
16.069,3677.895,0.00027,0.0,0.0
16.075,3663.515,0.00027,0.0,0.0
16.082,3655.251,0.00027,0.0,0.0
16.088,3669.772,0.00027,0.0,0.0
16.094,3646.985,0.00027,0.0,0.0
16.101,3674.014,0.00027,0.0,0.0
16.107,3663.354,0.00027,0.0,0.0
16.113,3665.295,0.00027,0.0,0.0
16.12,3662.103,0.00027,0.0,0.0
16.126,3657.387,0.00027,0.0,0.0
16.132,3661.009,0.00027,0.0,0.0
16.139,3657.099,0.00027,0.0,0.0
16.145,3661.909,0.00027,0.0,0.0
16.151,3670.991,0.00027,0.0,0.0
16.158,3653.413,0.00027,0.0,0.0
16.164,3657.083,0.00027,0.0,0.0
16.17,3646.35,0.00027,0.0,0.0
16.177,3656.394,0.00027,0.0,0.0
16.183,3649.156,0.00027,0.0,0.0
16.189,3657.92,0.00027,0.0,0.0
16.196,3652.291,0.00027,0.0,0.0
16.202,3648.508,0.00027,0.0,0.0
16.208,3644.31,0.00027,0.0,0.0
16.214,3638.038,0.00027,0.0,0.0
16.221,3653.76,0.00027,0.0,0.0
16.227,3653.336,0.00027,0.0,0.0
16.233,3643.67,0.00027,0.0,0.0
16.24,3645.789,0.00027,0.0,0.0
16.246,3645.341,0.00027,0.0,0.0
16.252,3639.886,0.00027,0.0,0.0
16.259,3645.949,0.00027,0.0,0.0
16.265,3641.949,0.00027,0.0,0.0
16.271,3643.749,0.00027,0.0,0.0
16.278,3632.917,0.00028,0.0,0.0
16.284,3647.516,0.00027,0.0,0.0
16.29,3648.133,0.00027,0.0,0.0
16.297,3635.373,0.00028,0.0,0.0
16.303,3643.132,0.00027,0.0,0.0
16.309,3628.47,0.00028,0.0,0.0
16.316,3647.981,0.00027,0.0,0.0
16.322,3638.879,0.00027,0.0,0.0
16.328,3643.472,0.00027,0.0,0.0
16.335,3642.109,0.00027,0.0,0.0
16.341,3641.716,0.00027,0.0,0.0
16.347,3641.302,0.00027,0.0,0.0
16.354,3645.959,0.00027,0.0,0.0
16.36,3646.675,0.00027,0.0,0.0
16.366,3633.325,0.00028,0.0,0.0
16.372,3633.133,0.00028,0.0,0.0
16.379,3641.144,0.00027,0.0,0.0
16.385,3632.5,0.00028,0.0,0.0
16.391,3641.828,0.00027,0.0,0.0
16.398,3639.615,0.00027,0.0,0.0
16.404,3635.338,0.00028,0.0,0.0
16.41,3643.361,0.00027,0.0,0.0
16.417,3642.161,0.00027,0.0,0.0
16.423,3645.132,0.00027,0.0,0.0
16.429,3639.95,0.00027,0.0,0.0
16.436,3648.654,0.00027,0.0,0.0
16.442,3635.044,0.00028,0.0,0.0
16.448,3646.475,0.00027,0.0,0.0
16.455,3655.105,0.00027,0.0,0.0
16.461,3672.918,0.00027,0.0,0.0
16.467,3677.75,0.00027,0.0,0.0
16.474,3675.734,0.00027,0.0,0.0
16.48,3841.818,0.00026,0.0,0.0
16.486,3753.473,0.00027,0.0,0.0
16.493,3776.791,0.00026,0.0,0.0
16.499,3962.191,0.00025,0.0,0.0
16.505,3718.784,0.00027,0.0,0.0
16.512,3814.287,0.00026,0.0,0.0
16.518,3728.061,0.00027,0.0,0.0
16.524,3694.766,0.00027,0.0,0.0
16.53,3678.624,0.00027,0.0,0.0
16.537,3668.607,0.00027,0.0,0.0
16.543,3672.038,0.00027,0.0,0.0
16.549,3655.498,0.00027,0.0,0.0
16.556,3660.809,0.00027,0.0,0.0
16.562,3660.344,0.00027,0.0,0.0
16.568,3657.64,0.00027,0.0,0.0
16.575,3663.337,0.00027,0.0,0.0
16.581,3673.29,0.00027,0.0,0.0
16.587,3664.162,0.00027,0.0,0.0
16.594,3672.038,0.00027,0.0,0.0
