"x","y_obs","weight","y_calc","y_bkg"
0.8,2724.805,0.00037,0.0,0.0
0.806,3206.603,0.00031,0.0,0.0
0.813,3333.339,0.0003,0.0,0.0
0.819,3192.788,0.00031,0.0,0.0
0.825,3915.156,0.00026,0.0,0.0
0.832,3644.821,0.00027,0.0,0.0
0.838,3973.871,0.00025,0.0,0.0
0.844,4369.357,0.00023,0.0,0.0
0.851,4178.677,0.00024,0.0,0.0
0.857,4699.793,0.00021,0.0,0.0
0.863,5037.115,0.0002,0.0,0.0
0.87,4636.689,0.00022,0.0,0.0
0.876,5552.617,0.00018,0.0,0.0
0.882,5407.81,0.00018,0.0,0.0
0.888,5690.887,0.00018,0.0,0.0
0.895,5948.502,0.00017,0.0,0.0
0.901,5956.805,0.00017,0.0,0.0
0.907,6563.077,0.00015,0.0,0.0
0.914,6715.626,0.00015,0.0,0.0
0.92,6351.107,0.00016,0.0,0.0
0.926,7144.065,0.00014,0.0,0.0
0.933,7116.776,0.00014,0.0,0.0
0.939,6930.395,0.00014,0.0,0.0
0.945,7586.423,0.00013,0.0,0.0
0.952,7173.052,0.00014,0.0,0.0
0.958,7582.982,0.00013,0.0,0.0
0.964,7671.849,0.00013,0.0,0.0
0.971,7363.543,0.00014,0.0,0.0
0.977,7960.384,0.00013,0.0,0.0
0.983,7912.599,0.00013,0.0,0.0
0.99,7713.512,0.00013,0.0,0.0
0.996,8117.847,0.00012,0.0,0.0
1.002,7822.228,0.00013,0.0,0.0
1.009,8042.993,0.00012,0.0,0.0
1.015,8196.621,0.00012,0.0,0.0
1.021,7927.661,0.00013,0.0,0.0
1.028,8264.279,0.00012,0.0,0.0
1.034,8132.308,0.00012,0.0,0.0
1.04,8072.075,0.00012,0.0,0.0
1.046,8177.503,0.00012,0.0,0.0
1.053,8150.334,0.00012,0.0,0.0
1.059,8054.261,0.00012,0.0,0.0
1.065,8245.156,0.00012,0.0,0.0
1.072,7983.586,0.00013,0.0,0.0
1.078,8117.71,0.00012,0.0,0.0
1.084,8009.405,0.00012,0.0,0.0
1.091,8057.267,0.00012,0.0,0.0
1.097,8079.465,0.00012,0.0,0.0
1.103,8002.799,0.00012,0.0,0.0
1.11,7947.86,0.00013,0.0,0.0
1.116,7917.873,0.00013,0.0,0.0
1.122,7858.218,0.00013,0.0,0.0
1.129,7896.282,0.00013,0.0,0.0
1.135,7835.204,0.00013,0.0,0.0
1.141,7746.381,0.00013,0.0,0.0
1.148,7766.019,0.00013,0.0,0.0
1.154,7660.638,0.00013,0.0,0.0
1.16,7664.596,0.00013,0.0,0.0
1.167,7601.248,0.00013,0.0,0.0
1.173,7630.874,0.00013,0.0,0.0
1.179,7583.504,0.00013,0.0,0.0
1.186,7478.057,0.00013,0.0,0.0
1.192,7471.248,0.00013,0.0,0.0
1.198,7427.073,0.00013,0.0,0.0
1.204,7350.658,0.00014,0.0,0.0
1.211,7370.397,0.00014,0.0,0.0
1.217,7306.542,0.00014,0.0,0.0
1.223,7251.282,0.00014,0.0,0.0
1.23,7240.035,0.00014,0.0,0.0
1.236,7218.961,0.00014,0.0,0.0
1.242,7096.44,0.00014,0.0,0.0
1.249,7143.177,0.00014,0.0,0.0
1.255,7128.007,0.00014,0.0,0.0
1.261,7083.036,0.00014,0.0,0.0
1.268,7078.05,0.00014,0.0,0.0
1.274,6981.368,0.00014,0.0,0.0
1.28,7054.186,0.00014,0.0,0.0
1.287,6994.883,0.00014,0.0,0.0
1.293,6989.181,0.00014,0.0,0.0
1.299,6934.62,0.00014,0.0,0.0
1.306,6972.471,0.00014,0.0,0.0
1.312,6858.012,0.00015,0.0,0.0
1.318,6880.448,0.00015,0.0,0.0
1.325,6873.042,0.00015,0.0,0.0
1.331,6861.865,0.00015,0.0,0.0
1.337,6831.501,0.00015,0.0,0.0
1.344,6809.704,0.00015,0.0,0.0
1.35,6865.952,0.00015,0.0,0.0
1.356,6792.506,0.00015,0.0,0.0
1.362,6772.705,0.00015,0.0,0.0
1.369,6754.791,0.00015,0.0,0.0
1.375,6779.303,0.00015,0.0,0.0
1.381,6755.231,0.00015,0.0,0.0
1.388,6789.331,0.00015,0.0,0.0
1.394,6763.246,0.00015,0.0,0.0
1.4,6810.186,0.00015,0.0,0.0
1.407,6720.38,0.00015,0.0,0.0
1.413,6779.316,0.00015,0.0,0.0
1.419,6664.628,0.00015,0.0,0.0
1.426,6718.548,0.00015,0.0,0.0
1.432,6711.699,0.00015,0.0,0.0
1.438,6709.833,0.00015,0.0,0.0
1.445,6705.715,0.00015,0.0,0.0
1.451,6768.726,0.00015,0.0,0.0
1.457,6708.513,0.00015,0.0,0.0
1.464,6718.952,0.00015,0.0,0.0
1.47,6728.326,0.00015,0.0,0.0
1.476,6662.632,0.00015,0.0,0.0
1.483,6772.307,0.00015,0.0,0.0
1.489,6735.786,0.00015,0.0,0.0
1.495,6712.101,0.00015,0.0,0.0
1.502,6724.753,0.00015,0.0,0.0
1.508,6697.603,0.00015,0.0,0.0
1.514,6743.267,0.00015,0.0,0.0
1.52,6768.352,0.00015,0.0,0.0
1.527,6775.111,0.00015,0.0,0.0
1.533,6784.099,0.00015,0.0,0.0
1.539,6768.784,0.00015,0.0,0.0
1.546,6756.486,0.00015,0.0,0.0
1.552,6837.578,0.00015,0.0,0.0
1.558,6776.686,0.00015,0.0,0.0
1.565,6868.2,0.00015,0.0,0.0
1.571,6811.352,0.00015,0.0,0.0
1.577,6824.504,0.00015,0.0,0.0
1.584,6848.901,0.00015,0.0,0.0
1.59,6885.336,0.00015,0.0,0.0
1.596,6866.659,0.00015,0.0,0.0
1.603,6917.176,0.00014,0.0,0.0
1.609,6870.629,0.00015,0.0,0.0
1.615,6896.159,0.00015,0.0,0.0
1.622,6950.974,0.00014,0.0,0.0
1.628,6922.28,0.00014,0.0,0.0
1.634,6972.42,0.00014,0.0,0.0
1.641,6986.656,0.00014,0.0,0.0
1.647,7020.402,0.00014,0.0,0.0
1.653,7016.296,0.00014,0.0,0.0
1.66,7027.441,0.00014,0.0,0.0
1.666,7045.004,0.00014,0.0,0.0
1.672,7069.806,0.00014,0.0,0.0
1.678,7110.298,0.00014,0.0,0.0
1.685,7128.142,0.00014,0.0,0.0
1.691,7136.634,0.00014,0.0,0.0
1.697,7136.851,0.00014,0.0,0.0
1.704,7188.874,0.00014,0.0,0.0
1.71,7193.876,0.00014,0.0,0.0
1.716,7186.095,0.00014,0.0,0.0
1.723,7237.112,0.00014,0.0,0.0
1.729,7238.329,0.00014,0.0,0.0
1.735,7280.161,0.00014,0.0,0.0
1.742,7268.02,0.00014,0.0,0.0
1.748,7271.655,0.00014,0.0,0.0
1.754,7321.198,0.00014,0.0,0.0
1.761,7334.829,0.00014,0.0,0.0
1.767,7312.931,0.00014,0.0,0.0
1.773,7354.596,0.00014,0.0,0.0
1.78,7292.57,0.00014,0.0,0.0
1.786,7383.95,0.00014,0.0,0.0
1.792,7380.139,0.00014,0.0,0.0
1.799,7384.33,0.00014,0.0,0.0
1.805,7372.415,0.00014,0.0,0.0
1.811,7415.71,0.00013,0.0,0.0
1.818,7418.01,0.00013,0.0,0.0
1.824,7434.859,0.00013,0.0,0.0
1.83,7428.528,0.00013,0.0,0.0
1.836,7435.076,0.00013,0.0,0.0
1.843,7482.345,0.00013,0.0,0.0
1.849,7404.413,0.00014,0.0,0.0
1.855,7495.397,0.00013,0.0,0.0
1.862,7434.903,0.00013,0.0,0.0
1.868,7471.724,0.00013,0.0,0.0
1.874,7502.519,0.00013,0.0,0.0
1.881,7477.712,0.00013,0.0,0.0
1.887,7455.688,0.00013,0.0,0.0
1.893,7536.449,0.00013,0.0,0.0
1.9,7494.456,0.00013,0.0,0.0
1.906,7504.894,0.00013,0.0,0.0
1.912,7526.504,0.00013,0.0,0.0
1.919,7499.027,0.00013,0.0,0.0
1.925,7526.322,0.00013,0.0,0.0
1.931,7518.252,0.00013,0.0,0.0
1.938,7543.155,0.00013,0.0,0.0
1.944,7505.972,0.00013,0.0,0.0
1.95,7550.52,0.00013,0.0,0.0
1.957,7559.566,0.00013,0.0,0.0
1.963,7578.015,0.00013,0.0,0.0
1.969,7563.41,0.00013,0.0,0.0
1.976,7583.162,0.00013,0.0,0.0
1.982,7594.197,0.00013,0.0,0.0
1.988,7615.034,0.00013,0.0,0.0
1.994,7607.798,0.00013,0.0,0.0
2.001,7588.763,0.00013,0.0,0.0
2.007,7637.135,0.00013,0.0,0.0
2.013,7597.519,0.00013,0.0,0.0
2.02,7629.303,0.00013,0.0,0.0
2.026,7633.308,0.00013,0.0,0.0
2.032,7642.788,0.00013,0.0,0.0
2.039,7715.444,0.00013,0.0,0.0
2.045,7660.42,0.00013,0.0,0.0
2.051,7694.225,0.00013,0.0,0.0
2.058,7726.468,0.00013,0.0,0.0
2.064,7726.375,0.00013,0.0,0.0
2.07,7771.14,0.00013,0.0,0.0
2.077,7740.317,0.00013,0.0,0.0
2.083,7772.223,0.00013,0.0,0.0
2.089,7774.826,0.00013,0.0,0.0
2.096,7791.47,0.00013,0.0,0.0
2.102,7807.525,0.00013,0.0,0.0
2.108,7833.524,0.00013,0.0,0.0
2.115,7824.255,0.00013,0.0,0.0
2.121,7858.598,0.00013,0.0,0.0
2.127,7858.221,0.00013,0.0,0.0
2.134,7890.655,0.00013,0.0,0.0
2.14,7869.447,0.00013,0.0,0.0
2.146,7935.063,0.00013,0.0,0.0
2.152,7956.902,0.00013,0.0,0.0
2.159,7983.811,0.00013,0.0,0.0
2.165,8000.841,0.00012,0.0,0.0
2.171,8007.326,0.00012,0.0,0.0
2.178,8079.234,0.00012,0.0,0.0
2.184,8051.923,0.00012,0.0,0.0
2.19,8096.761,0.00012,0.0,0.0
2.197,8088.963,0.00012,0.0,0.0
2.203,8115.617,0.00012,0.0,0.0
2.209,8142.28,0.00012,0.0,0.0
2.216,8184.156,0.00012,0.0,0.0
2.222,8223.313,0.00012,0.0,0.0
2.228,8199.601,0.00012,0.0,0.0
2.235,8230.069,0.00012,0.0,0.0
2.241,8246.131,0.00012,0.0,0.0
2.247,8305.127,0.00012,0.0,0.0
2.254,8363.44,0.00012,0.0,0.0
2.26,8379.22,0.00012,0.0,0.0
2.266,8427.207,0.00012,0.0,0.0
2.273,8467.285,0.00012,0.0,0.0
2.279,8467.703,0.00012,0.0,0.0
2.285,8509.761,0.00012,0.0,0.0
2.292,8528.269,0.00012,0.0,0.0
2.298,8542.206,0.00012,0.0,0.0
2.304,8584.369,0.00012,0.0,0.0
2.31,8621.49,0.00012,0.0,0.0
2.317,8654.614,0.00012,0.0,0.0
2.323,8690.662,0.00012,0.0,0.0
2.329,8746.838,0.00011,0.0,0.0
2.336,8807.391,0.00011,0.0,0.0
2.342,8824.651,0.00011,0.0,0.0
2.348,8852.479,0.00011,0.0,0.0
2.355,8928.439,0.00011,0.0,0.0
2.361,8931.89,0.00011,0.0,0.0
2.367,8979.013,0.00011,0.0,0.0
2.374,9009.107,0.00011,0.0,0.0
2.38,9079.229,0.00011,0.0,0.0
2.386,9126.374,0.00011,0.0,0.0
2.393,9181.193,0.00011,0.0,0.0
2.399,9230.463,0.00011,0.0,0.0
2.405,9299.321,0.00011,0.0,0.0
2.412,9350.62,0.00011,0.0,0.0
2.418,9401.631,0.00011,0.0,0.0
2.424,9495.281,0.00011,0.0,0.0
2.431,9541.649,0.0001,0.0,0.0
2.437,9603.822,0.0001,0.0,0.0
2.443,9668.851,0.0001,0.0,0.0
2.45,9713.199,0.0001,0.0,0.0
2.456,9822.775,0.0001,0.0,0.0
2.462,9881.848,0.0001,0.0,0.0
2.468,9953.819,0.0001,0.0,0.0
2.475,10115.874,0.0001,0.0,0.0
2.481,10131.502,0.0001,0.0,0.0
2.487,10258.347,0.0001,0.0,0.0
2.494,10414.21,0.0001,0.0,0.0
2.5,10401.242,0.0001,0.0,0.0
2.506,10557.67,0.00009,0.0,0.0
2.513,10594.43,0.00009,0.0,0.0
2.519,10610.396,0.00009,0.0,0.0
2.525,10815.618,0.00009,0.0,0.0
2.532,10740.071,0.00009,0.0,0.0
2.538,10856.828,0.00009,0.0,0.0
2.544,10907.306,0.00009,0.0,0.0
2.551,10821.343,0.00009,0.0,0.0
2.557,10960.164,0.00009,0.0,0.0
2.563,10890.48,0.00009,0.0,0.0
2.57,10866.957,0.00009,0.0,0.0
2.576,10917.946,0.00009,0.0,0.0
2.582,10830.149,0.00009,0.0,0.0
2.589,10838.905,0.00009,0.0,0.0
2.595,10881.926,0.00009,0.0,0.0
2.601,10816.635,0.00009,0.0,0.0
2.608,10873.128,0.00009,0.0,0.0
2.614,10848.627,0.00009,0.0,0.0
2.62,10846.657,0.00009,0.0,0.0
2.626,10950.736,0.00009,0.0,0.0
2.633,10917.981,0.00009,0.0,0.0
2.639,10922.438,0.00009,0.0,0.0
2.645,10989.053,0.00009,0.0,0.0
2.652,10973.509,0.00009,0.0,0.0
2.658,11051.98,0.00009,0.0,0.0
2.664,11091.506,0.00009,0.0,0.0
2.671,11094.876,0.00009,0.0,0.0
2.677,11185.739,0.00009,0.0,0.0
2.683,11207.394,0.00009,0.0,0.0
2.69,11269.837,0.00009,0.0,0.0
2.696,11326.249,0.00009,0.0,0.0
2.702,11371.581,0.00009,0.0,0.0
2.709,11395.028,0.00009,0.0,0.0
2.715,11467.714,0.00009,0.0,0.0
2.721,11493.376,0.00009,0.0,0.0
2.728,11621.875,0.00009,0.0,0.0
2.734,11596.879,0.00009,0.0,0.0
2.74,11646.757,0.00009,0.0,0.0
2.747,11686.791,0.00009,0.0,0.0
2.753,11746.112,0.00009,0.0,0.0
2.759,11775.343,0.00008,0.0,0.0
2.766,11847.56,0.00008,0.0,0.0
2.772,11880.347,0.00008,0.0,0.0
2.778,11931.927,0.00008,0.0,0.0
2.784,11946.977,0.00008,0.0,0.0
2.791,11976.104,0.00008,0.0,0.0
2.797,12048.409,0.00008,0.0,0.0
2.803,12036.767,0.00008,0.0,0.0
2.81,12143.036,0.00008,0.0,0.0
2.816,12138.265,0.00008,0.0,0.0
2.822,12207.173,0.00008,0.0,0.0
2.829,12266.903,0.00008,0.0,0.0
2.835,12288.83,0.00008,0.0,0.0
2.841,12297.44,0.00008,0.0,0.0
2.848,12397.777,0.00008,0.0,0.0
2.854,12428.185,0.00008,0.0,0.0
2.86,12460.299,0.00008,0.0,0.0
2.867,12503.11,0.00008,0.0,0.0
2.873,12514.688,0.00008,0.0,0.0
2.879,12613.097,0.00008,0.0,0.0
2.886,12635.515,0.00008,0.0,0.0
2.892,12661.001,0.00008,0.0,0.0
2.898,12758.144,0.00008,0.0,0.0
2.905,12764.384,0.00008,0.0,0.0
2.911,12779.163,0.00008,0.0,0.0
2.917,12833.756,0.00008,0.0,0.0
2.924,12867.157,0.00008,0.0,0.0
2.93,12965.92,0.00008,0.0,0.0
2.936,12945.66,0.00008,0.0,0.0
2.942,12983.183,0.00008,0.0,0.0
2.949,13061.77,0.00008,0.0,0.0
2.955,13062.204,0.00008,0.0,0.0
2.961,13105.874,0.00008,0.0,0.0
2.968,13136.164,0.00008,0.0,0.0
2.974,13172.089,0.00008,0.0,0.0
2.98,13187.669,0.00008,0.0,0.0
2.987,13235.25,0.00008,0.0,0.0
2.993,13266.72,0.00008,0.0,0.0
2.999,13304.521,0.00008,0.0,0.0
3.006,13307.667,0.00008,0.0,0.0
3.012,13341.838,0.00007,0.0,0.0
3.018,13345.62,0.00007,0.0,0.0
3.025,13399.408,0.00007,0.0,0.0
3.031,13356.544,0.00007,0.0,0.0
3.037,13379.433,0.00007,0.0,0.0
3.044,13399.887,0.00007,0.0,0.0
3.05,13436.623,0.00007,0.0,0.0
3.056,13399.651,0.00007,0.0,0.0
3.063,13429.445,0.00007,0.0,0.0
3.069,13473.318,0.00007,0.0,0.0
3.075,13443.686,0.00007,0.0,0.0
3.082,13459.093,0.00007,0.0,0.0
3.088,13467.943,0.00007,0.0,0.0
3.094,13446.563,0.00007,0.0,0.0
3.1,13476.487,0.00007,0.0,0.0
3.107,13443.607,0.00007,0.0,0.0
3.113,13417.037,0.00007,0.0,0.0
3.119,13455.704,0.00007,0.0,0.0
3.126,13414.257,0.00007,0.0,0.0
3.132,13436.718,0.00007,0.0,0.0
3.138,13397.546,0.00007,0.0,0.0
3.145,13391.908,0.00007,0.0,0.0
3.151,13382.624,0.00007,0.0,0.0
3.157,13367.118,0.00007,0.0,0.0
3.164,13326.513,0.00008,0.0,0.0
3.17,13330.547,0.00008,0.0,0.0
3.176,13266.772,0.00008,0.0,0.0
3.183,13288.336,0.00008,0.0,0.0
3.189,13273.7,0.00008,0.0,0.0
3.195,13207.532,0.00008,0.0,0.0
3.202,13212.789,0.00008,0.0,0.0
3.208,13153.282,0.00008,0.0,0.0
3.214,13145.972,0.00008,0.0,0.0
3.221,13095.692,0.00008,0.0,0.0
3.227,13109.348,0.00008,0.0,0.0
3.233,13066.79,0.00008,0.0,0.0
3.24,13013.762,0.00008,0.0,0.0
3.246,13003.185,0.00008,0.0,0.0
3.252,12981.563,0.00008,0.0,0.0
3.258,12935.265,0.00008,0.0,0.0
3.265,12915.001,0.00008,0.0,0.0
3.271,12897.359,0.00008,0.0,0.0
3.277,12808.336,0.00008,0.0,0.0
3.284,12811.011,0.00008,0.0,0.0
3.29,12744.62,0.00008,0.0,0.0
3.296,12728.218,0.00008,0.0,0.0
3.303,12693.145,0.00008,0.0,0.0
3.309,12639.006,0.00008,0.0,0.0
3.315,12591.112,0.00008,0.0,0.0
3.322,12579.236,0.00008,0.0,0.0
3.328,12516.965,0.00008,0.0,0.0
3.334,12505.164,0.00008,0.0,0.0
3.341,12501.712,0.00008,0.0,0.0
3.347,12426.523,0.00008,0.0,0.0
3.353,12415.759,0.00008,0.0,0.0
3.36,12337.036,0.00008,0.0,0.0
3.366,12322.263,0.00008,0.0,0.0
3.372,12282.601,0.00008,0.0,0.0
3.379,12235.723,0.00008,0.0,0.0
3.385,12217.955,0.00008,0.0,0.0
3.391,12207.061,0.00008,0.0,0.0
3.398,12174.888,0.00008,0.0,0.0
3.404,12095.901,0.00008,0.0,0.0
3.41,12093.203,0.00008,0.0,0.0
3.416,12055.827,0.00008,0.0,0.0
3.423,12021.513,0.00008,0.0,0.0
3.429,12008.033,0.00008,0.0,0.0
3.435,11933.781,0.00008,0.0,0.0
3.442,11912.312,0.00008,0.0,0.0
3.448,11846.73,0.00008,0.0,0.0
3.454,11858.181,0.00008,0.0,0.0
3.461,11767.443,0.00008,0.0,0.0
3.467,11794.8,0.00008,0.0,0.0
3.473,11747.412,0.00009,0.0,0.0
3.48,11692.197,0.00009,0.0,0.0
3.486,11671.748,0.00009,0.0,0.0
3.492,11656.049,0.00009,0.0,0.0
3.499,11619.494,0.00009,0.0,0.0
3.505,11610.513,0.00009,0.0,0.0
3.511,11567.655,0.00009,0.0,0.0
3.518,11526.85,0.00009,0.0,0.0
3.524,11524.818,0.00009,0.0,0.0
3.53,11449.811,0.00009,0.0,0.0
3.537,11457.018,0.00009,0.0,0.0
3.543,11413.844,0.00009,0.0,0.0
3.549,11393.874,0.00009,0.0,0.0
3.556,11393.898,0.00009,0.0,0.0
3.562,11339.157,0.00009,0.0,0.0
3.568,11299.107,0.00009,0.0,0.0
3.574,11291.104,0.00009,0.0,0.0
3.581,11256.742,0.00009,0.0,0.0
3.587,11263.191,0.00009,0.0,0.0
3.593,11227.065,0.00009,0.0,0.0
3.6,11199.844,0.00009,0.0,0.0
3.606,11209.537,0.00009,0.0,0.0
3.612,11184.38,0.00009,0.0,0.0
3.619,11166.56,0.00009,0.0,0.0
3.625,11144.731,0.00009,0.0,0.0
3.631,11090.674,0.00009,0.0,0.0
3.638,11094.549,0.00009,0.0,0.0
3.644,11084.205,0.00009,0.0,0.0
3.65,11069.14,0.00009,0.0,0.0
3.657,11041.655,0.00009,0.0,0.0
3.663,11044.263,0.00009,0.0,0.0
3.669,11009.914,0.00009,0.0,0.0
3.676,11002.541,0.00009,0.0,0.0
3.682,11016.397,0.00009,0.0,0.0
3.688,10986.672,0.00009,0.0,0.0
3.695,10975.061,0.00009,0.0,0.0
3.701,10966.982,0.00009,0.0,0.0
3.707,10961.518,0.00009,0.0,0.0
3.714,10902.486,0.00009,0.0,0.0
3.72,10935.44,0.00009,0.0,0.0
3.726,10909.864,0.00009,0.0,0.0
3.732,10922.932,0.00009,0.0,0.0
3.739,10864.248,0.00009,0.0,0.0
3.745,10882.472,0.00009,0.0,0.0
3.751,10853.858,0.00009,0.0,0.0
3.758,10854.889,0.00009,0.0,0.0
3.764,10827.713,0.00009,0.0,0.0
3.77,10825.368,0.00009,0.0,0.0
3.777,10849.945,0.00009,0.0,0.0
3.783,10821.623,0.00009,0.0,0.0
3.789,10864.614,0.00009,0.0,0.0
3.796,10792.201,0.00009,0.0,0.0
3.802,10811.8,0.00009,0.0,0.0
3.808,10777.786,0.00009,0.0,0.0
3.815,10806.786,0.00009,0.0,0.0
3.821,10797.414,0.00009,0.0,0.0
3.827,10782.374,0.00009,0.0,0.0
3.834,10752.204,0.00009,0.0,0.0
3.84,10749.604,0.00009,0.0,0.0
3.846,10728.689,0.00009,0.0,0.0
3.853,10714.138,0.00009,0.0,0.0
3.859,10742.865,0.00009,0.0,0.0
3.865,10647.29,0.00009,0.0,0.0
3.872,10685.498,0.00009,0.0,0.0
3.878,10609.911,0.00009,0.0,0.0
3.884,10577.439,0.00009,0.0,0.0
3.89,10574.186,0.00009,0.0,0.0
3.897,10577.535,0.00009,0.0,0.0
3.903,10540.639,0.00009,0.0,0.0
3.909,10521.505,0.0001,0.0,0.0
3.916,10452.879,0.0001,0.0,0.0
3.922,10470.209,0.0001,0.0,0.0
3.928,10429.143,0.0001,0.0,0.0
3.935,10381.711,0.0001,0.0,0.0
3.941,10384.73,0.0001,0.0,0.0
3.947,10327.793,0.0001,0.0,0.0
3.954,10332.532,0.0001,0.0,0.0
3.96,10282.025,0.0001,0.0,0.0
3.966,10252.487,0.0001,0.0,0.0
3.973,10226.173,0.0001,0.0,0.0
3.979,10230.737,0.0001,0.0,0.0
3.985,10181.297,0.0001,0.0,0.0
3.992,10198.151,0.0001,0.0,0.0
3.998,10160.654,0.0001,0.0,0.0
4.004,10106.531,0.0001,0.0,0.0
4.011,10124.424,0.0001,0.0,0.0
4.017,10067.597,0.0001,0.0,0.0
4.023,10053.875,0.0001,0.0,0.0
4.03,10043.917,0.0001,0.0,0.0
4.036,9971.579,0.0001,0.0,0.0
4.042,10004.54,0.0001,0.0,0.0
4.048,9961.789,0.0001,0.0,0.0
4.055,9944.732,0.0001,0.0,0.0
4.061,9934.804,0.0001,0.0,0.0
4.067,9920.792,0.0001,0.0,0.0
4.074,9888.219,0.0001,0.0,0.0
4.08,9903.249,0.0001,0.0,0.0
4.086,9847.717,0.0001,0.0,0.0
4.093,9879.797,0.0001,0.0,0.0
4.099,9818.245,0.0001,0.0,0.0
4.105,9816.731,0.0001,0.0,0.0
4.112,9837.346,0.0001,0.0,0.0
4.118,9766.678,0.0001,0.0,0.0
4.124,9801.951,0.0001,0.0,0.0
4.131,9788.164,0.0001,0.0,0.0
4.137,9747.08,0.0001,0.0,0.0
4.143,9761.79,0.0001,0.0,0.0
4.15,9738.451,0.0001,0.0,0.0
4.156,9736.644,0.0001,0.0,0.0
4.162,9756.496,0.0001,0.0,0.0
4.169,9717.482,0.0001,0.0,0.0
4.175,9749.994,0.0001,0.0,0.0
4.181,9695.922,0.0001,0.0,0.0
4.188,9653.666,0.0001,0.0,0.0
4.194,9703.619,0.0001,0.0,0.0
4.2,9686.762,0.0001,0.0,0.0
4.206,9675.75,0.0001,0.0,0.0
4.213,9728.793,0.0001,0.0,0.0
4.219,9633.483,0.0001,0.0,0.0
4.225,9665.163,0.0001,0.0,0.0
4.232,9653.656,0.0001,0.0,0.0
4.238,9611.145,0.0001,0.0,0.0
4.244,9688.456,0.0001,0.0,0.0
4.251,9654.884,0.0001,0.0,0.0
4.257,9614.947,0.0001,0.0,0.0
4.263,9646.213,0.0001,0.0,0.0
4.27,9634.041,0.0001,0.0,0.0
4.276,9626.441,0.0001,0.0,0.0
4.282,9677.652,0.0001,0.0,0.0
4.289,9600.188,0.0001,0.0,0.0
4.295,9645.051,0.0001,0.0,0.0
4.301,9605.606,0.0001,0.0,0.0
4.308,9652.956,0.0001,0.0,0.0
4.314,9621.846,0.0001,0.0,0.0
4.32,9580.052,0.0001,0.0,0.0
4.327,9655.194,0.0001,0.0,0.0
4.333,9623.716,0.0001,0.0,0.0
4.339,9606.982,0.0001,0.0,0.0
4.346,9686.056,0.0001,0.0,0.0
4.352,9619.503,0.0001,0.0,0.0
4.358,9604.496,0.0001,0.0,0.0
4.364,9685.446,0.0001,0.0,0.0
4.371,9669.775,0.0001,0.0,0.0
4.377,9689.929,0.0001,0.0,0.0
4.383,9666.277,0.0001,0.0,0.0
4.39,9649.322,0.0001,0.0,0.0
4.396,9729.355,0.0001,0.0,0.0
4.402,9758.405,0.0001,0.0,0.0
4.409,9785.403,0.0001,0.0,0.0
4.415,9823.272,0.0001,0.0,0.0
4.421,9708.126,0.0001,0.0,0.0
4.428,9895.128,0.0001,0.0,0.0
4.434,9703.665,0.0001,0.0,0.0
4.44,9886.578,0.0001,0.0,0.0
4.447,10062.512,0.0001,0.0,0.0
4.453,9963.777,0.0001,0.0,0.0
4.459,10017.955,0.0001,0.0,0.0
4.466,10053.892,0.0001,0.0,0.0
4.472,10049.26,0.0001,0.0,0.0
4.478,10226.844,0.0001,0.0,0.0
4.485,10335.718,0.0001,0.0,0.0
4.491,10347.531,0.0001,0.0,0.0
4.497,10642.107,0.00009,0.0,0.0
4.504,10375.908,0.0001,0.0,0.0
4.51,10828.217,0.00009,0.0,0.0
4.516,10838.552,0.00009,0.0,0.0
4.522,11396.967,0.00009,0.0,0.0
4.529,12017.136,0.00008,0.0,0.0
4.535,12055.567,0.00008,0.0,0.0
4.541,13611.541,0.00007,0.0,0.0
4.548,14902.632,0.00007,0.0,0.0
4.554,15660.481,0.00006,0.0,0.0
4.56,16198.429,0.00006,0.0,0.0
4.567,16204.175,0.00006,0.0,0.0
4.573,14316.747,0.00007,0.0,0.0
4.579,12840.225,0.00008,0.0,0.0
4.586,11887.595,0.00008,0.0,0.0
4.592,11476.678,0.00009,0.0,0.0
4.598,11034.906,0.00009,0.0,0.0
4.605,10826.924,0.00009,0.0,0.0
4.611,10920.141,0.00009,0.0,0.0
4.617,10650.343,0.00009,0.0,0.0
4.624,10246.828,0.0001,0.0,0.0
4.63,10323.601,0.0001,0.0,0.0
4.636,10177.603,0.0001,0.0,0.0
4.643,10075.807,0.0001,0.0,0.0
4.649,10200.828,0.0001,0.0,0.0
4.655,9751.067,0.0001,0.0,0.0
4.662,9817.746,0.0001,0.0,0.0
4.668,9704.001,0.0001,0.0,0.0
4.674,9563.216,0.0001,0.0,0.0
4.68,9724.223,0.0001,0.0,0.0
4.687,9468.886,0.00011,0.0,0.0
4.693,9415.821,0.00011,0.0,0.0
4.699,9512.713,0.00011,0.0,0.0
4.706,9145.117,0.00011,0.0,0.0
4.712,9325.423,0.00011,0.0,0.0
4.718,9216.002,0.00011,0.0,0.0
4.725,9143.992,0.00011,0.0,0.0
4.731,9263.503,0.00011,0.0,0.0
4.737,8974.851,0.00011,0.0,0.0
4.744,9017.972,0.00011,0.0,0.0
4.75,9039.809,0.00011,0.0,0.0
4.756,8854.227,0.00011,0.0,0.0
4.763,9034.857,0.00011,0.0,0.0
4.769,8888.075,0.00011,0.0,0.0
4.775,8758.961,0.00011,0.0,0.0
4.782,8931.226,0.00011,0.0,0.0
4.788,8651.78,0.00012,0.0,0.0
4.794,8730.136,0.00011,0.0,0.0
4.801,8719.651,0.00011,0.0,0.0
4.807,8640.784,0.00012,0.0,0.0
4.813,8723.347,0.00011,0.0,0.0
4.82,8621.392,0.00012,0.0,0.0
4.826,8522.029,0.00012,0.0,0.0
4.832,8607.287,0.00012,0.0,0.0
4.838,8490.419,0.00012,0.0,0.0
4.845,8510.69,0.00012,0.0,0.0
4.851,8574.857,0.00012,0.0,0.0
4.857,8389.794,0.00012,0.0,0.0
4.864,8542.652,0.00012,0.0,0.0
4.87,8338.421,0.00012,0.0,0.0
4.876,8407.942,0.00012,0.0,0.0
4.883,8410.943,0.00012,0.0,0.0
4.889,8332.086,0.00012,0.0,0.0
4.895,8277.444,0.00012,0.0,0.0
4.902,8326.606,0.00012,0.0,0.0
4.908,8183.643,0.00012,0.0,0.0
4.914,8251.686,0.00012,0.0,0.0
4.921,8184.31,0.00012,0.0,0.0
4.927,8151.97,0.00012,0.0,0.0
4.933,8167.297,0.00012,0.0,0.0
4.94,8037.94,0.00012,0.0,0.0
4.946,8087.551,0.00012,0.0,0.0
4.952,8036.296,0.00012,0.0,0.0
4.959,8017.194,0.00012,0.0,0.0
4.965,8018.447,0.00012,0.0,0.0
4.971,7988.388,0.00013,0.0,0.0
4.978,7926.826,0.00013,0.0,0.0
4.984,7950.383,0.00013,0.0,0.0
4.99,7888.074,0.00013,0.0,0.0
4.996,7903.851,0.00013,0.0,0.0
5.003,7876.964,0.00013,0.0,0.0
5.009,7811.381,0.00013,0.0,0.0
5.015,7812.46,0.00013,0.0,0.0
5.022,7800.451,0.00013,0.0,0.0
5.028,7769.049,0.00013,0.0,0.0
5.034,7789.203,0.00013,0.0,0.0
5.041,7733.777,0.00013,0.0,0.0
5.047,7748.936,0.00013,0.0,0.0
5.053,7727.155,0.00013,0.0,0.0
5.06,7697.891,0.00013,0.0,0.0
5.066,7705.077,0.00013,0.0,0.0
5.072,7632.962,0.00013,0.0,0.0
5.079,7656.377,0.00013,0.0,0.0
5.085,7651.571,0.00013,0.0,0.0
5.091,7657.85,0.00013,0.0,0.0
5.098,7598.437,0.00013,0.0,0.0
5.104,7603.509,0.00013,0.0,0.0
5.11,7554.944,0.00013,0.0,0.0
5.117,7580.774,0.00013,0.0,0.0
5.123,7532.091,0.00013,0.0,0.0
5.129,7530.962,0.00013,0.0,0.0
5.136,7487.763,0.00013,0.0,0.0
5.142,7459.508,0.00013,0.0,0.0
5.148,7499.734,0.00013,0.0,0.0
5.154,7427.908,0.00013,0.0,0.0
5.161,7433.262,0.00013,0.0,0.0
5.167,7363.561,0.00014,0.0,0.0
5.173,7393.428,0.00014,0.0,0.0
5.18,7355.486,0.00014,0.0,0.0
5.186,7331.703,0.00014,0.0,0.0
5.192,7294.787,0.00014,0.0,0.0
5.199,7289.633,0.00014,0.0,0.0
5.205,7262.644,0.00014,0.0,0.0
5.211,7250.03,0.00014,0.0,0.0
5.218,7217.129,0.00014,0.0,0.0
5.224,7229.157,0.00014,0.0,0.0
5.23,7185.681,0.00014,0.0,0.0
5.237,7165.512,0.00014,0.0,0.0
5.243,7166.645,0.00014,0.0,0.0
5.249,7125.312,0.00014,0.0,0.0
5.256,7139.136,0.00014,0.0,0.0
5.262,7111.257,0.00014,0.0,0.0
5.268,7076.326,0.00014,0.0,0.0
5.275,7084.647,0.00014,0.0,0.0
5.281,7065.583,0.00014,0.0,0.0
5.287,7059.619,0.00014,0.0,0.0
5.294,7027.246,0.00014,0.0,0.0
5.3,7025.777,0.00014,0.0,0.0
5.306,7027.788,0.00014,0.0,0.0
5.312,7008.931,0.00014,0.0,0.0
5.319,6954.893,0.00014,0.0,0.0
5.325,6989.476,0.00014,0.0,0.0
5.331,6948.477,0.00014,0.0,0.0
5.338,6954.607,0.00014,0.0,0.0
5.344,6985.738,0.00014,0.0,0.0
5.35,6918.473,0.00014,0.0,0.0
5.357,6953.052,0.00014,0.0,0.0
5.363,6946.293,0.00014,0.0,0.0
5.369,6899.374,0.00014,0.0,0.0
5.376,6946.03,0.00014,0.0,0.0
5.382,6911.834,0.00014,0.0,0.0
5.388,6909.688,0.00014,0.0,0.0
5.395,6910.37,0.00014,0.0,0.0
5.401,6851.306,0.00015,0.0,0.0
5.407,6893.678,0.00015,0.0,0.0
5.414,6891.907,0.00015,0.0,0.0
5.42,6861.935,0.00015,0.0,0.0
5.426,6869.629,0.00015,0.0,0.0
5.433,6859.479,0.00015,0.0,0.0
5.439,6840.737,0.00015,0.0,0.0
5.445,6851.599,0.00015,0.0,0.0
5.452,6813.652,0.00015,0.0,0.0
5.458,6843.938,0.00015,0.0,0.0
5.464,6821.36,0.00015,0.0,0.0
5.47,6809.951,0.00015,0.0,0.0
5.477,6835.16,0.00015,0.0,0.0
5.483,6805.158,0.00015,0.0,0.0
5.489,6797.734,0.00015,0.0,0.0
5.496,6804.824,0.00015,0.0,0.0
5.502,6767.235,0.00015,0.0,0.0
5.508,6821.168,0.00015,0.0,0.0
5.515,6786.115,0.00015,0.0,0.0
5.521,6758.989,0.00015,0.0,0.0
5.527,6796.053,0.00015,0.0,0.0
5.534,6748.006,0.00015,0.0,0.0
5.54,6776.166,0.00015,0.0,0.0
5.546,6756.189,0.00015,0.0,0.0
5.553,6740.291,0.00015,0.0,0.0
5.559,6767.29,0.00015,0.0,0.0
5.565,6721.999,0.00015,0.0,0.0
5.572,6709.079,0.00015,0.0,0.0
5.578,6740.953,0.00015,0.0,0.0
5.584,6706.245,0.00015,0.0,0.0
5.591,6708.572,0.00015,0.0,0.0
5.597,6717.397,0.00015,0.0,0.0
5.603,6662.817,0.00015,0.0,0.0
5.61,6720.402,0.00015,0.0,0.0
5.616,6674.393,0.00015,0.0,0.0
5.622,6684.253,0.00015,0.0,0.0
5.628,6683.881,0.00015,0.0,0.0
5.635,6631.088,0.00015,0.0,0.0
5.641,6662.299,0.00015,0.0,0.0
5.647,6651.649,0.00015,0.0,0.0
5.654,6593.233,0.00015,0.0,0.0
5.66,6681.604,0.00015,0.0,0.0
5.666,6616.948,0.00015,0.0,0.0
5.673,6606.392,0.00015,0.0,0.0
5.679,6619.576,0.00015,0.0,0.0
5.685,6579.559,0.00015,0.0,0.0
5.692,6630.761,0.00015,0.0,0.0
5.698,6594.228,0.00015,0.0,0.0
5.704,6574.285,0.00015,0.0,0.0
5.711,6615.883,0.00015,0.0,0.0
5.717,6577.814,0.00015,0.0,0.0
5.723,6556.297,0.00015,0.0,0.0
5.73,6600.823,0.00015,0.0,0.0
5.736,6534.391,0.00015,0.0,0.0
5.742,6592.372,0.00015,0.0,0.0
5.749,6561.91,0.00015,0.0,0.0
5.755,6529.501,0.00015,0.0,0.0
5.761,6619.881,0.00015,0.0,0.0
5.768,6555.176,0.00015,0.0,0.0
5.774,6565.745,0.00015,0.0,0.0
5.78,6585.657,0.00015,0.0,0.0
5.786,6527.47,0.00015,0.0,0.0
5.793,6603.022,0.00015,0.0,0.0
5.799,6589.73,0.00015,0.0,0.0
5.805,6531.651,0.00015,0.0,0.0
5.812,6618.587,0.00015,0.0,0.0
5.818,6556.041,0.00015,0.0,0.0
5.824,6607.508,0.00015,0.0,0.0
5.831,6625.542,0.00015,0.0,0.0
5.837,6600.471,0.00015,0.0,0.0
5.843,6671.534,0.00015,0.0,0.0
5.85,6666.157,0.00015,0.0,0.0
5.856,6682.35,0.00015,0.0,0.0
5.862,6785.499,0.00015,0.0,0.0
5.869,6800.358,0.00015,0.0,0.0
5.875,6889.643,0.00015,0.0,0.0
5.881,6891.949,0.00015,0.0,0.0
5.888,6798.12,0.00015,0.0,0.0
5.894,6847.708,0.00015,0.0,0.0
5.9,6736.506,0.00015,0.0,0.0
5.907,6673.854,0.00015,0.0,0.0
5.913,6664.635,0.00015,0.0,0.0
5.919,6586.174,0.00015,0.0,0.0
5.926,6633.31,0.00015,0.0,0.0
5.932,6585.686,0.00015,0.0,0.0
5.938,6512.727,0.00015,0.0,0.0
5.944,6614.601,0.00015,0.0,0.0
5.951,6530.862,0.00015,0.0,0.0
5.957,6566.263,0.00015,0.0,0.0
5.963,6583.855,0.00015,0.0,0.0
5.97,6501.216,0.00015,0.0,0.0
5.976,6586.08,0.00015,0.0,0.0
5.982,6550.458,0.00015,0.0,0.0
5.989,6521.021,0.00015,0.0,0.0
5.995,6644.022,0.00015,0.0,0.0
6.001,6523.675,0.00015,0.0,0.0
6.008,6552.89,0.00015,0.0,0.0
6.014,6594.639,0.00015,0.0,0.0
6.02,6515.826,0.00015,0.0,0.0
6.027,6642.08,0.00015,0.0,0.0
6.033,6547.465,0.00015,0.0,0.0
6.039,6504.477,0.00015,0.0,0.0
6.046,6647.315,0.00015,0.0,0.0
6.052,6532.131,0.00015,0.0,0.0
6.058,6578.645,0.00015,0.0,0.0
6.065,6568.916,0.00015,0.0,0.0
6.071,6509.927,0.00015,0.0,0.0
6.077,6622.77,0.00015,0.0,0.0
6.084,6519.538,0.00015,0.0,0.0
6.09,6494.619,0.00015,0.0,0.0
6.096,6613.138,0.00015,0.0,0.0
6.102,6470.362,0.00015,0.0,0.0
6.109,6585.697,0.00015,0.0,0.0
6.115,6531.837,0.00015,0.0,0.0
6.121,6468.711,0.00015,0.0,0.0
6.128,6597.379,0.00015,0.0,0.0
6.134,6493.735,0.00015,0.0,0.0
6.14,6520.568,0.00015,0.0,0.0
6.147,6582.944,0.00015,0.0,0.0
6.153,6480.801,0.00015,0.0,0.0
6.159,6575.338,0.00015,0.0,0.0
6.166,6528.427,0.00015,0.0,0.0
6.172,6453.733,0.00015,0.0,0.0
6.178,6611.63,0.00015,0.0,0.0
6.185,6485.782,0.00015,0.0,0.0
6.191,6542.865,0.00015,0.0,0.0
6.197,6557.376,0.00015,0.0,0.0
6.204,6469.98,0.00015,0.0,0.0
6.21,6599.879,0.00015,0.0,0.0
6.216,6494.277,0.00015,0.0,0.0
6.223,6460.377,0.00015,0.0,0.0
6.229,6604.93,0.00015,0.0,0.0
6.235,6485.575,0.00015,0.0,0.0
6.242,6556.162,0.00015,0.0,0.0
6.248,6555.995,0.00015,0.0,0.0
6.254,6472.107,0.00015,0.0,0.0
6.26,6563.054,0.00015,0.0,0.0
6.267,6489.711,0.00015,0.0,0.0
6.273,6455.67,0.00015,0.0,0.0
6.279,6597.868,0.00015,0.0,0.0
6.286,6477.678,0.00015,0.0,0.0
6.292,6538.526,0.00015,0.0,0.0
6.298,6532.847,0.00015,0.0,0.0
6.305,6485.986,0.00015,0.0,0.0
6.311,6590.035,0.00015,0.0,0.0
6.317,6522.999,0.00015,0.0,0.0
6.324,6505.367,0.00015,0.0,0.0
6.33,6618.486,0.00015,0.0,0.0
6.336,6540.922,0.00015,0.0,0.0
6.343,6610.218,0.00015,0.0,0.0
6.349,6578.749,0.00015,0.0,0.0
6.355,6561.862,0.00015,0.0,0.0
6.362,6668.548,0.00015,0.0,0.0
6.368,6603.154,0.00015,0.0,0.0
6.374,6643.405,0.00015,0.0,0.0
6.381,6718.01,0.00015,0.0,0.0
6.387,6629.916,0.00015,0.0,0.0
6.393,6735.031,0.00015,0.0,0.0
6.4,6757.161,0.00015,0.0,0.0
6.406,6728.51,0.00015,0.0,0.0
6.412,6870.518,0.00015,0.0,0.0
6.418,6805.426,0.00015,0.0,0.0
6.425,6870.794,0.00015,0.0,0.0
6.431,6947.67,0.00014,0.0,0.0
6.437,6901.954,0.00014,0.0,0.0
6.444,7159.31,0.00014,0.0,0.0
6.45,7125.185,0.00014,0.0,0.0
6.456,7136.15,0.00014,0.0,0.0
6.463,7292.699,0.00014,0.0,0.0
6.469,7193.332,0.00014,0.0,0.0
6.475,7237.852,0.00014,0.0,0.0
6.482,7276.669,0.00014,0.0,0.0
6.488,7247.448,0.00014,0.0,0.0
6.494,7428.931,0.00013,0.0,0.0
6.501,7415.12,0.00013,0.0,0.0
6.507,7420.494,0.00013,0.0,0.0
6.513,7655.593,0.00013,0.0,0.0
6.52,7604.783,0.00013,0.0,0.0
6.526,7799.108,0.00013,0.0,0.0
6.532,7925.384,0.00013,0.0,0.0
6.539,8051.449,0.00012,0.0,0.0
6.545,8445.403,0.00012,0.0,0.0
6.551,8759.763,0.00011,0.0,0.0
6.558,9379.49,0.00011,0.0,0.0
6.564,10581.513,0.00009,0.0,0.0
6.57,12319.523,0.00008,0.0,0.0
6.576,15748.589,0.00006,0.0,0.0
6.583,22418.969,0.00004,0.0,0.0
6.589,34490.887,0.00003,0.0,0.0
6.595,56744.421,0.00002,0.0,0.0
6.602,75348.999,0.00001,0.0,0.0
6.608,98551.5,0.00001,0.0,0.0
6.614,113937.085,0.00001,0.0,0.0
6.621,108370.692,0.00001,0.0,0.0
6.627,81507.619,0.00001,0.0,0.0
6.633,57014.936,0.00002,0.0,0.0
6.64,35455.681,0.00003,0.0,0.0
6.646,22547.826,0.00004,0.0,0.0
6.652,16376.356,0.00006,0.0,0.0
6.659,12318.607,0.00008,0.0,0.0
6.665,10229.477,0.0001,0.0,0.0
6.671,9041.95,0.00011,0.0,0.0
6.678,8416.402,0.00012,0.0,0.0
6.684,7931.463,0.00013,0.0,0.0
6.69,7628.418,0.00013,0.0,0.0
6.697,7519.484,0.00013,0.0,0.0
6.703,7263.115,0.00014,0.0,0.0
6.709,7195.289,0.00014,0.0,0.0
6.716,7109.11,0.00014,0.0,0.0
6.722,6985.504,0.00014,0.0,0.0
6.728,7054.074,0.00014,0.0,0.0
6.734,6959.161,0.00014,0.0,0.0
6.741,6893.107,0.00015,0.0,0.0
6.747,6962.632,0.00014,0.0,0.0
6.753,6845.16,0.00015,0.0,0.0
6.76,6891.827,0.00015,0.0,0.0
6.766,6853.737,0.00015,0.0,0.0
6.772,6768.5,0.00015,0.0,0.0
6.779,6896.789,0.00014,0.0,0.0
6.785,6789.865,0.00015,0.0,0.0
6.791,6811.983,0.00015,0.0,0.0
6.798,6826.298,0.00015,0.0,0.0
6.804,6738.298,0.00015,0.0,0.0
6.81,6845.279,0.00015,0.0,0.0
6.817,6782.685,0.00015,0.0,0.0
6.823,6722.67,0.00015,0.0,0.0
6.829,6834.877,0.00015,0.0,0.0
6.836,6720.96,0.00015,0.0,0.0
6.842,6743.937,0.00015,0.0,0.0
6.848,6782.02,0.00015,0.0,0.0
6.855,6709.772,0.00015,0.0,0.0
6.861,6794.696,0.00015,0.0,0.0
6.867,6749.932,0.00015,0.0,0.0
6.874,6686.973,0.00015,0.0,0.0
6.88,6812.436,0.00015,0.0,0.0
6.886,6733.476,0.00015,0.0,0.0
6.892,6740.986,0.00015,0.0,0.0
6.899,6736.782,0.00015,0.0,0.0
6.905,6699.62,0.00015,0.0,0.0
6.911,6785.523,0.00015,0.0,0.0
6.918,6721.287,0.00015,0.0,0.0
6.924,6683.502,0.00015,0.0,0.0
6.93,6775.32,0.00015,0.0,0.0
6.937,6715.017,0.00015,0.0,0.0
6.943,6740.307,0.00015,0.0,0.0
6.949,6737.043,0.00015,0.0,0.0
6.956,6692.628,0.00015,0.0,0.0
6.962,6769.507,0.00015,0.0,0.0
6.968,6735.212,0.00015,0.0,0.0
6.975,6731.276,0.00015,0.0,0.0
6.981,6766.583,0.00015,0.0,0.0
6.987,6728.595,0.00015,0.0,0.0
6.994,6787.544,0.00015,0.0,0.0
7.0,6747.554,0.00015,0.0,0.0
7.006,6735.04,0.00015,0.0,0.0
7.013,6791.371,0.00015,0.0,0.0
7.019,6738.867,0.00015,0.0,0.0
7.025,6751.373,0.00015,0.0,0.0
7.032,6763.864,0.00015,0.0,0.0
7.038,6725.26,0.00015,0.0,0.0
7.044,6768.033,0.00015,0.0,0.0
7.05,6763.803,0.00015,0.0,0.0
7.057,6733.85,0.00015,0.0,0.0
7.063,6795.762,0.00015,0.0,0.0
7.069,6759.544,0.00015,0.0,0.0
7.076,6763.914,0.00015,0.0,0.0
7.082,6756.939,0.00015,0.0,0.0
7.088,6747.281,0.00015,0.0,0.0
7.095,6810.505,0.00015,0.0,0.0
7.101,6789.284,0.00015,0.0,0.0
7.107,6760.769,0.00015,0.0,0.0
7.114,6812.754,0.00015,0.0,0.0
7.12,6788.326,0.00015,0.0,0.0
7.126,6805.917,0.00015,0.0,0.0
7.133,6792.715,0.00015,0.0,0.0
7.139,6768.107,0.00015,0.0,0.0
7.145,6801.704,0.00015,0.0,0.0
7.152,6785.568,0.00015,0.0,0.0
7.158,6802.2,0.00015,0.0,0.0
7.164,6796.64,0.00015,0.0,0.0
7.171,6798.323,0.00015,0.0,0.0
7.177,6782.68,0.00015,0.0,0.0
7.183,6801.215,0.00015,0.0,0.0
7.19,6765.215,0.00015,0.0,0.0
7.196,6834.442,0.00015,0.0,0.0
7.202,6926.963,0.00014,0.0,0.0
7.208,6792.275,0.00015,0.0,0.0
7.215,7049.85,0.00014,0.0,0.0
7.221,7177.038,0.00014,0.0,0.0
7.227,6839.66,0.00015,0.0,0.0
7.234,7253.153,0.00014,0.0,0.0
7.24,6888.205,0.00015,0.0,0.0
7.246,6851.906,0.00015,0.0,0.0
7.253,6949.885,0.00014,0.0,0.0
7.259,6832.704,0.00015,0.0,0.0
7.265,6860.075,0.00015,0.0,0.0
7.272,6864.455,0.00015,0.0,0.0
7.278,6875.167,0.00015,0.0,0.0
7.284,6886.804,0.00015,0.0,0.0
7.291,6855.882,0.00015,0.0,0.0
7.297,6880.564,0.00015,0.0,0.0
7.303,6898.683,0.00014,0.0,0.0
7.31,6905.093,0.00014,0.0,0.0
7.316,6924.826,0.00014,0.0,0.0
7.322,6896.271,0.00015,0.0,0.0
7.329,6930.386,0.00014,0.0,0.0
7.335,6933.42,0.00014,0.0,0.0
7.341,6915.423,0.00014,0.0,0.0
7.348,6961.18,0.00014,0.0,0.0
7.354,6937.077,0.00014,0.0,0.0
7.36,6940.6,0.00014,0.0,0.0
7.366,6980.007,0.00014,0.0,0.0
7.373,6965.507,0.00014,0.0,0.0
7.379,6964.937,0.00014,0.0,0.0
7.385,7033.462,0.00014,0.0,0.0
7.392,6998.816,0.00014,0.0,0.0
7.398,7017.721,0.00014,0.0,0.0
7.404,7062.082,0.00014,0.0,0.0
7.411,7052.926,0.00014,0.0,0.0
7.417,7111.454,0.00014,0.0,0.0
7.423,7079.866,0.00014,0.0,0.0
7.43,7109.905,0.00014,0.0,0.0
7.436,7146.027,0.00014,0.0,0.0
7.442,7149.189,0.00014,0.0,0.0
7.449,7179.304,0.00014,0.0,0.0
7.455,7185.666,0.00014,0.0,0.0
7.461,7207.761,0.00014,0.0,0.0
7.468,7260.92,0.00014,0.0,0.0
7.474,7300.026,0.00014,0.0,0.0
7.48,7272.911,0.00014,0.0,0.0
7.487,7371.646,0.00014,0.0,0.0
7.493,7314.682,0.00014,0.0,0.0
7.499,7436.993,0.00013,0.0,0.0
7.506,7417.999,0.00013,0.0,0.0
7.512,7433.005,0.00013,0.0,0.0
7.518,7523.63,0.00013,0.0,0.0
7.524,7498.04,0.00013,0.0,0.0
7.531,7538.364,0.00013,0.0,0.0
7.537,7676.405,0.00013,0.0,0.0
7.543,7636.94,0.00013,0.0,0.0
7.55,7799.691,0.00013,0.0,0.0
7.556,7855.794,0.00013,0.0,0.0
7.562,7908.456,0.00013,0.0,0.0
7.569,8195.318,0.00012,0.0,0.0
7.575,8300.195,0.00012,0.0,0.0
7.581,8760.935,0.00011,0.0,0.0
7.588,9236.089,0.00011,0.0,0.0
7.594,10193.907,0.0001,0.0,0.0
7.6,12303.532,0.00008,0.0,0.0
7.607,15007.464,0.00007,0.0,0.0
7.613,20474.968,0.00005,0.0,0.0
7.619,30147.876,0.00003,0.0,0.0
7.626,37981.351,0.00003,0.0,0.0
7.632,50348.462,0.00002,0.0,0.0
7.638,55454.01,0.00002,0.0,0.0
7.645,50311.554,0.00002,0.0,0.0
7.651,47034.01,0.00002,0.0,0.0
7.657,30491.585,0.00003,0.0,0.0
7.664,23564.205,0.00004,0.0,0.0
7.67,16216.044,0.00006,0.0,0.0
7.676,12670.154,0.00008,0.0,0.0
7.682,11104.969,0.00009,0.0,0.0
7.689,9668.768,0.0001,0.0,0.0
7.695,9112.075,0.00011,0.0,0.0
7.701,8880.761,0.00011,0.0,0.0
7.708,8576.421,0.00012,0.0,0.0
7.714,8553.885,0.00012,0.0,0.0
7.72,8471.401,0.00012,0.0,0.0
7.727,8322.63,0.00012,0.0,0.0
7.733,8502.609,0.00012,0.0,0.0
7.739,8355.819,0.00012,0.0,0.0
7.746,8367.536,0.00012,0.0,0.0
7.752,8570.748,0.00012,0.0,0.0
7.758,8427.905,0.00012,0.0,0.0
7.765,8464.905,0.00012,0.0,0.0
7.771,8578.755,0.00012,0.0,0.0
7.777,8523.44,0.00012,0.0,0.0
7.784,8686.915,0.00012,0.0,0.0
7.79,8683.758,0.00012,0.0,0.0
7.796,8711.59,0.00011,0.0,0.0
7.803,9108.023,0.00011,0.0,0.0
7.809,8915.848,0.00011,0.0,0.0
7.815,9195.929,0.00011,0.0,0.0
7.822,9688.58,0.0001,0.0,0.0
7.828,9188.823,0.00011,0.0,0.0
7.834,11015.518,0.00009,0.0,0.0
7.84,10423.985,0.0001,0.0,0.0
7.847,10376.85,0.0001,0.0,0.0
7.853,16903.922,0.00006,0.0,0.0
7.859,10742.038,0.00009,0.0,0.0
7.866,15342.636,0.00007,0.0,0.0
7.872,17364.168,0.00006,0.0,0.0
7.878,13271.779,0.00008,0.0,0.0
7.885,21276.049,0.00005,0.0,0.0
7.891,18365.263,0.00005,0.0,0.0
7.897,17439.756,0.00006,0.0,0.0
7.904,19461.9,0.00005,0.0,0.0
7.91,13769.035,0.00007,0.0,0.0
7.916,18011.778,0.00006,0.0,0.0
7.923,17017.017,0.00006,0.0,0.0
7.929,11229.715,0.00009,0.0,0.0
7.935,16218.9,0.00006,0.0,0.0
7.942,10651.911,0.00009,0.0,0.0
7.948,10788.761,0.00009,0.0,0.0
7.954,10919.36,0.00009,0.0,0.0
7.961,9413.843,0.00011,0.0,0.0
7.967,10083.272,0.0001,0.0,0.0
7.973,9358.284,0.00011,0.0,0.0
7.98,9288.751,0.00011,0.0,0.0
7.986,9458.994,0.00011,0.0,0.0
7.992,9009.865,0.00011,0.0,0.0
7.998,9032.9,0.00011,0.0,0.0
8.005,9001.389,0.00011,0.0,0.0
8.011,8873.228,0.00011,0.0,0.0
8.017,8957.494,0.00011,0.0,0.0
8.024,8675.024,0.00012,0.0,0.0
8.03,8726.461,0.00011,0.0,0.0
8.036,8706.798,0.00011,0.0,0.0
8.043,8503.576,0.00012,0.0,0.0
8.049,8697.492,0.00011,0.0,0.0
8.055,8503.261,0.00012,0.0,0.0
8.062,8460.692,0.00012,0.0,0.0
8.068,8480.703,0.00012,0.0,0.0
8.074,8315.325,0.00012,0.0,0.0
8.081,8438.692,0.00012,0.0,0.0
8.087,8316.577,0.00012,0.0,0.0
8.093,8231.875,0.00012,0.0,0.0
8.1,8369.921,0.00012,0.0,0.0
8.106,8132.508,0.00012,0.0,0.0
8.112,8274.809,0.00012,0.0,0.0
8.119,8160.45,0.00012,0.0,0.0
8.125,8065.838,0.00012,0.0,0.0
8.131,8233.969,0.00012,0.0,0.0
8.138,8118.446,0.00012,0.0,0.0
8.144,8119.121,0.00012,0.0,0.0
8.15,8102.025,0.00012,0.0,0.0
8.156,7967.545,0.00013,0.0,0.0
8.163,8015.696,0.00012,0.0,0.0
8.169,7983.496,0.00013,0.0,0.0
8.175,7756.766,0.00013,0.0,0.0
8.182,8044.882,0.00012,0.0,0.0
8.188,7804.014,0.00013,0.0,0.0
8.194,7885.318,0.00013,0.0,0.0
8.201,7793.969,0.00013,0.0,0.0
8.207,7726.963,0.00013,0.0,0.0
8.213,7836.59,0.00013,0.0,0.0
8.22,7718.278,0.00013,0.0,0.0
8.226,7710.593,0.00013,0.0,0.0
8.232,7726.349,0.00013,0.0,0.0
8.239,7680.858,0.00013,0.0,0.0
8.245,7658.155,0.00013,0.0,0.0
8.251,7678.971,0.00013,0.0,0.0
8.258,7500.74,0.00013,0.0,0.0
8.264,7716.219,0.00013,0.0,0.0
8.27,7568.372,0.00013,0.0,0.0
8.277,7583.534,0.00013,0.0,0.0
8.283,7571.453,0.00013,0.0,0.0
8.289,7499.06,0.00013,0.0,0.0
8.296,7533.26,0.00013,0.0,0.0
8.302,7492.121,0.00013,0.0,0.0
8.308,7424.829,0.00013,0.0,0.0
8.314,7509.302,0.00013,0.0,0.0
8.321,7426.754,0.00013,0.0,0.0
8.327,7438.305,0.00013,0.0,0.0
8.333,7466.793,0.00013,0.0,0.0
8.34,7315.552,0.00014,0.0,0.0
8.346,7442.956,0.00013,0.0,0.0
8.352,7365.171,0.00014,0.0,0.0
8.359,7356.66,0.00014,0.0,0.0
8.365,7356.995,0.00014,0.0,0.0
8.371,7302.402,0.00014,0.0,0.0
8.378,7323.497,0.00014,0.0,0.0
8.384,7301.236,0.00014,0.0,0.0
8.39,7252.658,0.00014,0.0,0.0
8.397,7279.867,0.00014,0.0,0.0
8.403,7267.511,0.00014,0.0,0.0
8.409,7216.753,0.00014,0.0,0.0
8.416,7233.53,0.00014,0.0,0.0
8.422,7143.49,0.00014,0.0,0.0
8.428,7220.538,0.00014,0.0,0.0
8.435,7161.867,0.00014,0.0,0.0
8.441,7150.1,0.00014,0.0,0.0
8.447,7171.241,0.00014,0.0,0.0
8.454,7145.131,0.00014,0.0,0.0
8.46,7133.862,0.00014,0.0,0.0
8.466,7125.521,0.00014,0.0,0.0
8.472,7082.5,0.00014,0.0,0.0
8.479,7089.567,0.00014,0.0,0.0
8.485,7099.833,0.00014,0.0,0.0
8.491,7066.115,0.00014,0.0,0.0
8.498,7087.164,0.00014,0.0,0.0
8.504,7019.111,0.00014,0.0,0.0
8.51,7062.834,0.00014,0.0,0.0
8.517,7030.278,0.00014,0.0,0.0
8.523,6999.789,0.00014,0.0,0.0
8.529,7012.609,0.00014,0.0,0.0
8.536,7009.57,0.00014,0.0,0.0
8.542,6969.327,0.00014,0.0,0.0
8.548,6972.402,0.00014,0.0,0.0
8.555,6956.239,0.00014,0.0,0.0
8.561,6952.707,0.00014,0.0,0.0
8.567,6964.832,0.00014,0.0,0.0
8.574,6929.91,0.00014,0.0,0.0
8.58,6946.174,0.00014,0.0,0.0
8.586,6900.643,0.00014,0.0,0.0
8.593,6906.224,0.00014,0.0,0.0
8.599,6900.882,0.00014,0.0,0.0
8.605,6854.296,0.00015,0.0,0.0
8.612,6878.954,0.00015,0.0,0.0
8.618,6864.93,0.00015,0.0,0.0
8.624,6862.836,0.00015,0.0,0.0
8.63,6845.352,0.00015,0.0,0.0
8.637,6836.124,0.00015,0.0,0.0
8.643,6840.926,0.00015,0.0,0.0
8.649,6841.563,0.00015,0.0,0.0
8.656,6801.621,0.00015,0.0,0.0
8.662,6804.691,0.00015,0.0,0.0
8.668,6797.241,0.00015,0.0,0.0
8.675,6789.534,0.00015,0.0,0.0
8.681,6787.113,0.00015,0.0,0.0
8.687,6763.837,0.00015,0.0,0.0
8.694,6775.75,0.00015,0.0,0.0
8.7,6760.118,0.00015,0.0,0.0
8.706,6783.511,0.00015,0.0,0.0
8.713,6769.267,0.00015,0.0,0.0
8.719,6761.639,0.00015,0.0,0.0
8.725,6732.389,0.00015,0.0,0.0
8.732,6752.837,0.00015,0.0,0.0
8.738,6727.019,0.00015,0.0,0.0
8.744,6725.838,0.00015,0.0,0.0
8.751,6749.102,0.00015,0.0,0.0
8.757,6706.613,0.00015,0.0,0.0
8.763,6724.955,0.00015,0.0,0.0
8.77,6693.081,0.00015,0.0,0.0
8.776,6726.991,0.00015,0.0,0.0
8.782,6713.368,0.00015,0.0,0.0
8.788,6690.252,0.00015,0.0,0.0
8.795,6694.61,0.00015,0.0,0.0
8.801,6689.907,0.00015,0.0,0.0
8.807,6678.554,0.00015,0.0,0.0
8.814,6682.589,0.00015,0.0,0.0
8.82,6671.598,0.00015,0.0,0.0
8.826,6673.123,0.00015,0.0,0.0
8.833,6698.08,0.00015,0.0,0.0
8.839,6678.085,0.00015,0.0,0.0
8.845,6663.888,0.00015,0.0,0.0
8.852,6657.529,0.00015,0.0,0.0
8.858,6649.573,0.00015,0.0,0.0
8.864,6696.255,0.00015,0.0,0.0
8.871,6660.442,0.00015,0.0,0.0
8.877,6650.591,0.00015,0.0,0.0
8.883,6674.859,0.00015,0.0,0.0
8.89,6682.588,0.00015,0.0,0.0
8.896,6685.374,0.00015,0.0,0.0
8.902,6663.021,0.00015,0.0,0.0
8.909,6637.234,0.00015,0.0,0.0
8.915,6688.326,0.00015,0.0,0.0
8.921,6665.004,0.00015,0.0,0.0
8.928,6694.925,0.00015,0.0,0.0
8.934,6658.051,0.00015,0.0,0.0
8.94,6670.39,0.00015,0.0,0.0
8.946,6687.288,0.00015,0.0,0.0
8.953,6674.486,0.00015,0.0,0.0
8.959,6692.144,0.00015,0.0,0.0
8.965,6656.452,0.00015,0.0,0.0
8.972,6680.037,0.00015,0.0,0.0
8.978,6708.244,0.00015,0.0,0.0
8.984,6708.878,0.00015,0.0,0.0
8.991,6703.916,0.00015,0.0,0.0
8.997,6692.864,0.00015,0.0,0.0
9.003,6707.493,0.00015,0.0,0.0
9.01,6730.345,0.00015,0.0,0.0
9.016,6737.325,0.00015,0.0,0.0
9.022,6706.199,0.00015,0.0,0.0
9.029,6756.299,0.00015,0.0,0.0
9.035,6720.998,0.00015,0.0,0.0
9.041,6733.743,0.00015,0.0,0.0
9.048,6746.947,0.00015,0.0,0.0
9.054,6720.764,0.00015,0.0,0.0
9.06,6756.403,0.00015,0.0,0.0
9.067,6756.801,0.00015,0.0,0.0
9.073,6772.189,0.00015,0.0,0.0
9.079,6769.165,0.00015,0.0,0.0
9.086,6752.934,0.00015,0.0,0.0
9.092,6782.983,0.00015,0.0,0.0
9.098,6824.916,0.00015,0.0,0.0
9.104,6827.894,0.00015,0.0,0.0
9.111,7009.162,0.00014,0.0,0.0
9.117,6961.619,0.00014,0.0,0.0
9.123,7000.574,0.00014,0.0,0.0
9.13,6981.274,0.00014,0.0,0.0
9.136,6936.586,0.00014,0.0,0.0
9.142,6886.329,0.00015,0.0,0.0
9.149,6806.935,0.00015,0.0,0.0
9.155,6793.969,0.00015,0.0,0.0
9.161,6770.964,0.00015,0.0,0.0
9.168,6741.982,0.00015,0.0,0.0
9.174,6700.028,0.00015,0.0,0.0
9.18,6689.665,0.00015,0.0,0.0
9.187,6685.648,0.00015,0.0,0.0
9.193,6673.592,0.00015,0.0,0.0
9.199,6660.901,0.00015,0.0,0.0
9.206,6597.666,0.00015,0.0,0.0
9.212,6666.873,0.00015,0.0,0.0
9.218,6609.359,0.00015,0.0,0.0
9.225,6598.168,0.00015,0.0,0.0
9.231,6513.095,0.00015,0.0,0.0
9.237,6539.908,0.00015,0.0,0.0
9.244,6542.042,0.00015,0.0,0.0
9.25,6501.177,0.00015,0.0,0.0
9.256,6474.507,0.00015,0.0,0.0
9.262,6479.416,0.00015,0.0,0.0
9.269,6425.85,0.00016,0.0,0.0
9.275,6469.202,0.00015,0.0,0.0
9.281,6423.08,0.00016,0.0,0.0
9.288,6390.136,0.00016,0.0,0.0
9.294,6407.85,0.00016,0.0,0.0
9.3,6342.669,0.00016,0.0,0.0
9.307,6364.677,0.00016,0.0,0.0
9.313,6319.6,0.00016,0.0,0.0
9.319,6301.358,0.00016,0.0,0.0
9.326,6308.735,0.00016,0.0,0.0
9.332,6291.155,0.00016,0.0,0.0
9.338,6247.855,0.00016,0.0,0.0
9.345,6256.786,0.00016,0.0,0.0
9.351,6242.155,0.00016,0.0,0.0
9.357,6225.747,0.00016,0.0,0.0
9.364,6214.836,0.00016,0.0,0.0
9.37,6176.722,0.00016,0.0,0.0
9.376,6218.391,0.00016,0.0,0.0
9.383,6133.249,0.00016,0.0,0.0
9.389,6177.19,0.00016,0.0,0.0
9.395,6131.799,0.00016,0.0,0.0
9.402,6128.173,0.00016,0.0,0.0
9.408,6109.89,0.00016,0.0,0.0
9.414,6088.08,0.00016,0.0,0.0
9.42,6090.749,0.00016,0.0,0.0
9.427,6074.062,0.00016,0.0,0.0
9.433,6055.139,0.00017,0.0,0.0
9.439,6036.264,0.00017,0.0,0.0
9.446,6051.229,0.00017,0.0,0.0
9.452,6002.932,0.00017,0.0,0.0
9.458,6029.118,0.00017,0.0,0.0
9.465,6006.951,0.00017,0.0,0.0
9.471,5996.865,0.00017,0.0,0.0
9.477,5978.816,0.00017,0.0,0.0
9.484,5993.508,0.00017,0.0,0.0
9.49,5980.354,0.00017,0.0,0.0
9.496,5950.861,0.00017,0.0,0.0
9.503,5958.025,0.00017,0.0,0.0
9.509,5930.366,0.00017,0.0,0.0
9.515,5930.283,0.00017,0.0,0.0
9.522,5904.765,0.00017,0.0,0.0
9.528,5907.496,0.00017,0.0,0.0
9.534,5885.032,0.00017,0.0,0.0
9.541,5896.213,0.00017,0.0,0.0
9.547,5869.951,0.00017,0.0,0.0
9.553,5867.181,0.00017,0.0,0.0
9.56,5850.178,0.00017,0.0,0.0
9.566,5859.589,0.00017,0.0,0.0
9.572,5843.861,0.00017,0.0,0.0
9.578,5847.454,0.00017,0.0,0.0
9.585,5822.996,0.00017,0.0,0.0
9.591,5804.153,0.00017,0.0,0.0
9.597,5842.67,0.00017,0.0,0.0
9.604,5816.143,0.00017,0.0,0.0
9.61,5801.808,0.00017,0.0,0.0
9.616,5785.249,0.00017,0.0,0.0
9.623,5776.637,0.00017,0.0,0.0
9.629,5807.862,0.00017,0.0,0.0
9.635,5760.4,0.00017,0.0,0.0
9.642,5762.666,0.00017,0.0,0.0
9.648,5754.551,0.00017,0.0,0.0
9.654,5766.698,0.00017,0.0,0.0
9.661,5751.984,0.00017,0.0,0.0
9.667,5748.414,0.00017,0.0,0.0
9.673,5738.303,0.00017,0.0,0.0
9.68,5746.58,0.00017,0.0,0.0
9.686,5724.68,0.00017,0.0,0.0
9.692,5719.911,0.00017,0.0,0.0
9.699,5717.427,0.00017,0.0,0.0
9.705,5709.785,0.00018,0.0,0.0
9.711,5716.453,0.00017,0.0,0.0
9.718,5708.57,0.00018,0.0,0.0
9.724,5691.867,0.00018,0.0,0.0
9.73,5715.154,0.00017,0.0,0.0
9.736,5724.369,0.00017,0.0,0.0
9.743,5698.778,0.00018,0.0,0.0
9.749,5705.144,0.00018,0.0,0.0
9.755,5665.552,0.00018,0.0,0.0
9.762,5693.385,0.00018,0.0,0.0
9.768,5699.22,0.00018,0.0,0.0
9.774,5665.325,0.00018,0.0,0.0
9.781,5683.53,0.00018,0.0,0.0
9.787,5669.003,0.00018,0.0,0.0
9.793,5693.174,0.00018,0.0,0.0
9.8,5668.251,0.00018,0.0,0.0
9.806,5694.367,0.00018,0.0,0.0
9.812,5686.519,0.00018,0.0,0.0
9.819,5686.614,0.00018,0.0,0.0
9.825,5671.746,0.00018,0.0,0.0
9.831,5669.17,0.00018,0.0,0.0
9.838,5653.725,0.00018,0.0,0.0
9.844,5654.233,0.00018,0.0,0.0
9.85,5661.918,0.00018,0.0,0.0
9.857,5633.447,0.00018,0.0,0.0
9.863,5645.682,0.00018,0.0,0.0
9.869,5621.95,0.00018,0.0,0.0
9.876,5669.988,0.00018,0.0,0.0
9.882,5611.041,0.00018,0.0,0.0
9.888,5626.435,0.00018,0.0,0.0
9.894,5628.612,0.00018,0.0,0.0
9.901,5620.688,0.00018,0.0,0.0
9.907,5613.15,0.00018,0.0,0.0
9.913,5595.116,0.00018,0.0,0.0
9.92,5603.654,0.00018,0.0,0.0
9.926,5597.119,0.00018,0.0,0.0
9.932,5587.414,0.00018,0.0,0.0
9.939,5593.428,0.00018,0.0,0.0
9.945,5604.652,0.00018,0.0,0.0
9.951,5564.382,0.00018,0.0,0.0
9.958,5580.56,0.00018,0.0,0.0
9.964,5580.77,0.00018,0.0,0.0
9.97,5560.966,0.00018,0.0,0.0
9.977,5561.724,0.00018,0.0,0.0
9.983,5543.789,0.00018,0.0,0.0
9.989,5577.265,0.00018,0.0,0.0
9.996,5560.349,0.00018,0.0,0.0
10.002,5561.874,0.00018,0.0,0.0
10.008,5558.754,0.00018,0.0,0.0
10.015,5546.316,0.00018,0.0,0.0
10.021,5543.392,0.00018,0.0,0.0
10.027,5524.556,0.00018,0.0,0.0
10.034,5528.054,0.00018,0.0,0.0
10.04,5555.873,0.00018,0.0,0.0
10.046,5536.656,0.00018,0.0,0.0
10.052,5518.829,0.00018,0.0,0.0
10.059,5548.543,0.00018,0.0,0.0
10.065,5518.137,0.00018,0.0,0.0
10.071,5502.423,0.00018,0.0,0.0
10.078,5517.474,0.00018,0.0,0.0
10.084,5531.91,0.00018,0.0,0.0
10.09,5518.848,0.00018,0.0,0.0
10.097,5514.966,0.00018,0.0,0.0
10.103,5527.129,0.00018,0.0,0.0
10.109,5511.579,0.00018,0.0,0.0
10.116,5507.387,0.00018,0.0,0.0
10.122,5480.202,0.00018,0.0,0.0
10.128,5513.08,0.00018,0.0,0.0
10.135,5506.535,0.00018,0.0,0.0
10.141,5520.612,0.00018,0.0,0.0
10.147,5509.3,0.00018,0.0,0.0
10.154,5520.638,0.00018,0.0,0.0
10.16,5494.109,0.00018,0.0,0.0
10.166,5475.625,0.00018,0.0,0.0
10.173,5534.157,0.00018,0.0,0.0
10.179,5547.436,0.00018,0.0,0.0
10.185,5586.096,0.00018,0.0,0.0
10.192,5642.402,0.00018,0.0,0.0
10.198,5624.877,0.00018,0.0,0.0
10.204,5671.269,0.00018,0.0,0.0
10.21,5590.517,0.00018,0.0,0.0
10.217,5598.735,0.00018,0.0,0.0
10.223,5668.368,0.00018,0.0,0.0
10.229,5598.957,0.00018,0.0,0.0
10.236,5590.077,0.00018,0.0,0.0
10.242,5588.382,0.00018,0.0,0.0
10.248,5582.215,0.00018,0.0,0.0
10.255,5555.826,0.00018,0.0,0.0
10.261,5482.559,0.00018,0.0,0.0
10.267,5576.194,0.00018,0.0,0.0
10.274,5583.731,0.00018,0.0,0.0
10.28,5576.327,0.00018,0.0,0.0
10.286,5556.367,0.00018,0.0,0.0
10.293,5553.64,0.00018,0.0,0.0
10.299,5510.69,0.00018,0.0,0.0
10.305,5461.887,0.00018,0.0,0.0
10.312,5558.609,0.00018,0.0,0.0
10.318,5523.83,0.00018,0.0,0.0
10.324,5540.583,0.00018,0.0,0.0
10.331,5522.825,0.00018,0.0,0.0
10.337,5507.817,0.00018,0.0,0.0
10.343,5502.925,0.00018,0.0,0.0
10.35,5499.52,0.00018,0.0,0.0
10.356,5459.283,0.00018,0.0,0.0
10.362,5515.626,0.00018,0.0,0.0
10.368,5502.42,0.00018,0.0,0.0
10.375,5489.076,0.00018,0.0,0.0
10.381,5484.166,0.00018,0.0,0.0
10.387,5495.22,0.00018,0.0,0.0
10.394,5466.484,0.00018,0.0,0.0
10.4,5438.271,0.00018,0.0,0.0
10.406,5504.166,0.00018,0.0,0.0
10.413,5455.607,0.00018,0.0,0.0
10.419,5502.802,0.00018,0.0,0.0
10.425,5461.685,0.00018,0.0,0.0
10.432,5458.785,0.00018,0.0,0.0
10.438,5450.447,0.00018,0.0,0.0
10.444,5437.928,0.00018,0.0,0.0
10.451,5437.937,0.00018,0.0,0.0
10.457,5452.637,0.00018,0.0,0.0
10.463,5432.943,0.00018,0.0,0.0
10.47,5442.465,0.00018,0.0,0.0
10.476,5463.026,0.00018,0.0,0.0
10.482,5431.641,0.00018,0.0,0.0
10.489,5437.625,0.00018,0.0,0.0
10.495,5400.358,0.00019,0.0,0.0
10.501,5429.951,0.00018,0.0,0.0
10.508,5435.728,0.00018,0.0,0.0
10.514,5419.276,0.00018,0.0,0.0
10.52,5445.504,0.00018,0.0,0.0
10.526,5422.384,0.00018,0.0,0.0
10.533,5447.981,0.00018,0.0,0.0
10.539,5407.272,0.00018,0.0,0.0
10.545,5440.857,0.00018,0.0,0.0
10.552,5416.118,0.00018,0.0,0.0
10.558,5430.213,0.00018,0.0,0.0
10.564,5407.644,0.00018,0.0,0.0
10.571,5416.418,0.00018,0.0,0.0
10.577,5420.151,0.00018,0.0,0.0
10.583,5402.427,0.00019,0.0,0.0
10.59,5414.476,0.00018,0.0,0.0
10.596,5413.82,0.00018,0.0,0.0
10.602,5419.143,0.00018,0.0,0.0
10.609,5400.426,0.00019,0.0,0.0
10.615,5444.814,0.00018,0.0,0.0
10.621,5405.573,0.00018,0.0,0.0
10.628,5410.356,0.00018,0.0,0.0
10.634,5434.961,0.00018,0.0,0.0
10.64,5422.238,0.00018,0.0,0.0
10.647,5437.348,0.00018,0.0,0.0
10.653,5417.025,0.00018,0.0,0.0
10.659,5425.641,0.00018,0.0,0.0
10.666,5447.793,0.00018,0.0,0.0
10.672,5443.518,0.00018,0.0,0.0
10.678,5432.793,0.00018,0.0,0.0
10.684,5450.472,0.00018,0.0,0.0
10.691,5461.338,0.00018,0.0,0.0
10.697,5477.389,0.00018,0.0,0.0
10.703,5474.195,0.00018,0.0,0.0
10.71,5478.188,0.00018,0.0,0.0
10.716,5512.261,0.00018,0.0,0.0
10.722,5538.1,0.00018,0.0,0.0
10.729,5579.39,0.00018,0.0,0.0
10.735,5625.164,0.00018,0.0,0.0
10.741,5684.653,0.00018,0.0,0.0
10.748,5792.065,0.00017,0.0,0.0
10.754,5937.835,0.00017,0.0,0.0
10.76,6151.775,0.00016,0.0,0.0
10.767,6565.332,0.00015,0.0,0.0
10.773,7368.735,0.00014,0.0,0.0
10.779,8697.838,0.00011,0.0,0.0
10.786,10925.577,0.00009,0.0,0.0
10.792,14485.953,0.00007,0.0,0.0
10.798,19332.643,0.00005,0.0,0.0
10.805,24120.872,0.00004,0.0,0.0
10.811,26809.615,0.00004,0.0,0.0
10.817,28553.643,0.00004,0.0,0.0
10.824,24386.129,0.00004,0.0,0.0
10.83,20958.08,0.00005,0.0,0.0
10.836,14353.059,0.00007,0.0,0.0
10.842,11265.588,0.00009,0.0,0.0
10.849,9124.848,0.00011,0.0,0.0
10.855,7397.946,0.00014,0.0,0.0
10.861,6746.914,0.00015,0.0,0.0
10.868,6191.733,0.00016,0.0,0.0
10.874,5947.676,0.00017,0.0,0.0
10.88,5820.097,0.00017,0.0,0.0
10.887,5674.65,0.00018,0.0,0.0
10.893,5622.525,0.00018,0.0,0.0
10.899,5585.933,0.00018,0.0,0.0
10.906,5534.304,0.00018,0.0,0.0
10.912,5540.092,0.00018,0.0,0.0
10.918,5477.598,0.00018,0.0,0.0
10.925,5495.272,0.00018,0.0,0.0
10.931,5484.114,0.00018,0.0,0.0
10.937,5468.627,0.00018,0.0,0.0
10.944,5454.702,0.00018,0.0,0.0
10.95,5462.377,0.00018,0.0,0.0
10.956,5437.672,0.00018,0.0,0.0
10.963,5448.945,0.00018,0.0,0.0
10.969,5421.991,0.00018,0.0,0.0
10.975,5457.022,0.00018,0.0,0.0
10.982,5431.48,0.00018,0.0,0.0
10.988,5417.173,0.00018,0.0,0.0
10.994,5418.576,0.00018,0.0,0.0
11.0,5416.597,0.00018,0.0,0.0
11.007,5436.445,0.00018,0.0,0.0
11.013,5416.265,0.00018,0.0,0.0
11.019,5412.702,0.00018,0.0,0.0
11.026,5416.094,0.00018,0.0,0.0
11.032,5412.84,0.00018,0.0,0.0
11.038,5422.146,0.00018,0.0,0.0
11.045,5425.794,0.00018,0.0,0.0
11.051,5427.127,0.00018,0.0,0.0
11.057,5410.239,0.00018,0.0,0.0
11.064,5440.294,0.00018,0.0,0.0
11.07,5408.183,0.00018,0.0,0.0
11.076,5445.18,0.00018,0.0,0.0
11.083,5416.508,0.00018,0.0,0.0
11.089,5425.119,0.00018,0.0,0.0
11.095,5444.043,0.00018,0.0,0.0
11.102,5455.45,0.00018,0.0,0.0
11.108,5449.264,0.00018,0.0,0.0
11.114,5463.437,0.00018,0.0,0.0
11.121,5485.414,0.00018,0.0,0.0
11.127,5466.287,0.00018,0.0,0.0
11.133,5511.09,0.00018,0.0,0.0
11.14,5492.47,0.00018,0.0,0.0
11.146,5528.871,0.00018,0.0,0.0
11.152,5559.086,0.00018,0.0,0.0
11.158,5612.43,0.00018,0.0,0.0
11.165,5656.22,0.00018,0.0,0.0
11.171,5848.769,0.00017,0.0,0.0
11.177,5949.257,0.00017,0.0,0.0
11.184,6652.445,0.00015,0.0,0.0
11.19,6667.567,0.00015,0.0,0.0
11.196,7084.921,0.00014,0.0,0.0
11.203,7348.703,0.00014,0.0,0.0
11.209,6184.356,0.00016,0.0,0.0
11.215,6388.68,0.00016,0.0,0.0
11.222,5988.416,0.00017,0.0,0.0
11.228,5812.085,0.00017,0.0,0.0
11.234,5642.198,0.00018,0.0,0.0
11.241,5585.525,0.00018,0.0,0.0
11.247,5540.662,0.00018,0.0,0.0
11.253,5512.726,0.00018,0.0,0.0
11.26,5504.848,0.00018,0.0,0.0
11.266,5482.263,0.00018,0.0,0.0
11.272,5463.496,0.00018,0.0,0.0
11.279,5458.167,0.00018,0.0,0.0
11.285,5466.564,0.00018,0.0,0.0
11.291,5438.581,0.00018,0.0,0.0
11.298,5427.836,0.00018,0.0,0.0
11.304,5437.697,0.00018,0.0,0.0
11.31,5425.764,0.00018,0.0,0.0
11.316,5426.497,0.00018,0.0,0.0
11.323,5412.897,0.00018,0.0,0.0
11.329,5420.695,0.00018,0.0,0.0
11.335,5416.732,0.00018,0.0,0.0
11.342,5410.593,0.00018,0.0,0.0
11.348,5419.789,0.00018,0.0,0.0
11.354,5405.061,0.00019,0.0,0.0
11.361,5414.635,0.00018,0.0,0.0
11.367,5397.359,0.00019,0.0,0.0
11.373,5383.38,0.00019,0.0,0.0
11.38,5394.984,0.00019,0.0,0.0
11.386,5387.994,0.00019,0.0,0.0
11.392,5398.626,0.00019,0.0,0.0
11.399,5406.169,0.00018,0.0,0.0
11.405,5381.545,0.00019,0.0,0.0
11.411,5407.881,0.00018,0.0,0.0
11.418,5395.844,0.00019,0.0,0.0
11.424,5396.214,0.00019,0.0,0.0
11.43,5392.485,0.00019,0.0,0.0
11.437,5372.422,0.00019,0.0,0.0
11.443,5401.467,0.00019,0.0,0.0
11.449,5388.851,0.00019,0.0,0.0
11.456,5391.041,0.00019,0.0,0.0
11.462,5390.581,0.00019,0.0,0.0
11.468,5393.839,0.00019,0.0,0.0
11.474,5406.705,0.00018,0.0,0.0
11.481,5395.66,0.00019,0.0,0.0
11.487,5390.52,0.00019,0.0,0.0
11.493,5396.748,0.00019,0.0,0.0
11.5,5399.729,0.00019,0.0,0.0
11.506,5409.664,0.00018,0.0,0.0
11.512,5412.935,0.00018,0.0,0.0
11.519,5413.066,0.00018,0.0,0.0
11.525,5419.963,0.00018,0.0,0.0
11.531,5407.118,0.00018,0.0,0.0
11.538,5407.383,0.00018,0.0,0.0
11.544,5428.51,0.00018,0.0,0.0
11.55,5424.556,0.00018,0.0,0.0
11.557,5436.223,0.00018,0.0,0.0
11.563,5436.197,0.00018,0.0,0.0
11.569,5435.135,0.00018,0.0,0.0
11.576,5445.188,0.00018,0.0,0.0
11.582,5415.066,0.00018,0.0,0.0
11.588,5431.517,0.00018,0.0,0.0
11.595,5456.586,0.00018,0.0,0.0
11.601,5422.328,0.00018,0.0,0.0
11.607,5455.024,0.00018,0.0,0.0
11.614,5445.032,0.00018,0.0,0.0
11.62,5437.021,0.00018,0.0,0.0
11.626,5438.505,0.00018,0.0,0.0
11.632,5421.102,0.00018,0.0,0.0
11.639,5445.374,0.00018,0.0,0.0
11.645,5431.235,0.00018,0.0,0.0
11.651,5435.605,0.00018,0.0,0.0
11.658,5444.779,0.00018,0.0,0.0
11.664,5433.97,0.00018,0.0,0.0
11.67,5439.423,0.00018,0.0,0.0
11.677,5429.577,0.00018,0.0,0.0
11.683,5421.699,0.00018,0.0,0.0
11.689,5441.796,0.00018,0.0,0.0
11.696,5430.104,0.00018,0.0,0.0
11.702,5426.571,0.00018,0.0,0.0
11.708,5432.011,0.00018,0.0,0.0
11.715,5420.262,0.00018,0.0,0.0
11.721,5439.164,0.00018,0.0,0.0
11.727,5416.695,0.00018,0.0,0.0
11.734,5426.014,0.00018,0.0,0.0
11.74,5428.273,0.00018,0.0,0.0
11.746,5425.624,0.00018,0.0,0.0
11.753,5430.278,0.00018,0.0,0.0
11.759,5437.088,0.00018,0.0,0.0
11.765,5418.484,0.00018,0.0,0.0
11.772,5441.983,0.00018,0.0,0.0
11.778,5439.603,0.00018,0.0,0.0
11.784,5423.851,0.00018,0.0,0.0
11.79,5426.114,0.00018,0.0,0.0
11.797,5432.223,0.00018,0.0,0.0
11.803,5429.102,0.00018,0.0,0.0
11.809,5428.103,0.00018,0.0,0.0
11.816,5434.866,0.00018,0.0,0.0
11.822,5447.113,0.00018,0.0,0.0
11.828,5444.327,0.00018,0.0,0.0
11.835,5443.774,0.00018,0.0,0.0
11.841,5424.161,0.00018,0.0,0.0
11.847,5436.712,0.00018,0.0,0.0
11.854,5451.49,0.00018,0.0,0.0
11.86,5441.702,0.00018,0.0,0.0
11.866,5446.233,0.00018,0.0,0.0
11.873,5434.994,0.00018,0.0,0.0
11.879,5449.577,0.00018,0.0,0.0
11.885,5455.206,0.00018,0.0,0.0
11.892,5438.048,0.00018,0.0,0.0
11.898,5450.264,0.00018,0.0,0.0
11.904,5464.297,0.00018,0.0,0.0
11.911,5445.173,0.00018,0.0,0.0
11.917,5460.21,0.00018,0.0,0.0
11.923,5468.09,0.00018,0.0,0.0
11.93,5465.342,0.00018,0.0,0.0
11.936,5488.385,0.00018,0.0,0.0
11.942,5460.946,0.00018,0.0,0.0
11.948,5489.642,0.00018,0.0,0.0
11.955,5469.035,0.00018,0.0,0.0
11.961,5491.99,0.00018,0.0,0.0
11.967,5493.652,0.00018,0.0,0.0
11.974,5474.136,0.00018,0.0,0.0
11.98,5501.858,0.00018,0.0,0.0
11.986,5481.699,0.00018,0.0,0.0
11.993,5495.931,0.00018,0.0,0.0
11.999,5507.138,0.00018,0.0,0.0
12.005,5488.024,0.00018,0.0,0.0
12.012,5514.304,0.00018,0.0,0.0
12.018,5500.329,0.00018,0.0,0.0
12.024,5496.009,0.00018,0.0,0.0
12.031,5528.418,0.00018,0.0,0.0
12.037,5516.113,0.00018,0.0,0.0
12.043,5534.715,0.00018,0.0,0.0
12.05,5508.024,0.00018,0.0,0.0
12.056,5545.692,0.00018,0.0,0.0
12.062,5571.146,0.00018,0.0,0.0
12.069,5620.371,0.00018,0.0,0.0
12.075,5637.351,0.00018,0.0,0.0
12.081,5715.639,0.00017,0.0,0.0
12.088,5689.365,0.00018,0.0,0.0
12.094,5680.553,0.00018,0.0,0.0
12.1,5657.766,0.00018,0.0,0.0
12.106,5618.356,0.00018,0.0,0.0
12.113,5670.031,0.00018,0.0,0.0
12.119,5578.356,0.00018,0.0,0.0
12.125,5575.208,0.00018,0.0,0.0
12.132,5499.441,0.00018,0.0,0.0
12.138,5476.386,0.00018,0.0,0.0
12.144,5441.427,0.00018,0.0,0.0
12.151,5450.182,0.00018,0.0,0.0
12.157,5411.993,0.00018,0.0,0.0
12.163,5427.15,0.00018,0.0,0.0
12.17,5421.354,0.00018,0.0,0.0
12.176,5391.948,0.00019,0.0,0.0
12.182,5394.491,0.00019,0.0,0.0
12.189,5379.797,0.00019,0.0,0.0
12.195,5370.513,0.00019,0.0,0.0
12.201,5380.267,0.00019,0.0,0.0
12.208,5343.341,0.00019,0.0,0.0
12.214,5352.684,0.00019,0.0,0.0
12.22,5351.408,0.00019,0.0,0.0
12.227,5331.489,0.00019,0.0,0.0
12.233,5324.663,0.00019,0.0,0.0
12.239,5313.765,0.00019,0.0,0.0
12.246,5312.506,0.00019,0.0,0.0
12.252,5308.677,0.00019,0.0,0.0
12.258,5275.679,0.00019,0.0,0.0
12.264,5271.877,0.00019,0.0,0.0
12.271,5279.433,0.00019,0.0,0.0
12.277,5258.599,0.00019,0.0,0.0
12.283,5273.623,0.00019,0.0,0.0
12.29,5229.887,0.00019,0.0,0.0
12.296,5257.277,0.00019,0.0,0.0
12.302,5260.367,0.00019,0.0,0.0
12.309,5243.36,0.00019,0.0,0.0
12.315,5229.377,0.00019,0.0,0.0
12.321,5222.777,0.00019,0.0,0.0
12.328,5230.215,0.00019,0.0,0.0
12.334,5212.388,0.00019,0.0,0.0
12.34,5216.544,0.00019,0.0,0.0
12.347,5217.327,0.00019,0.0,0.0
12.353,5205.774,0.00019,0.0,0.0
12.359,5186.554,0.00019,0.0,0.0
12.366,5197.727,0.00019,0.0,0.0
12.372,5176.344,0.00019,0.0,0.0
12.378,5192.036,0.00019,0.0,0.0
12.385,5173.574,0.00019,0.0,0.0
12.391,5161.455,0.00019,0.0,0.0
12.397,5166.866,0.00019,0.0,0.0
12.404,5160.881,0.00019,0.0,0.0
12.41,5162.326,0.00019,0.0,0.0
12.416,5138.713,0.00019,0.0,0.0
12.422,5152.035,0.00019,0.0,0.0
12.429,5137.346,0.00019,0.0,0.0
12.435,5140.588,0.00019,0.0,0.0
12.441,5143.01,0.00019,0.0,0.0
12.448,5141.606,0.00019,0.0,0.0
12.454,5145.578,0.00019,0.0,0.0
12.46,5130.653,0.00019,0.0,0.0
12.467,5140.225,0.00019,0.0,0.0
12.473,5134.522,0.00019,0.0,0.0
12.479,5140.794,0.00019,0.0,0.0
12.486,5134.431,0.00019,0.0,0.0
12.492,5131.178,0.00019,0.0,0.0
12.498,5127.657,0.0002,0.0,0.0
12.505,5129.814,0.00019,0.0,0.0
12.511,5125.283,0.0002,0.0,0.0
12.517,5123.899,0.0002,0.0,0.0
12.524,5128.169,0.0002,0.0,0.0
12.53,5130.706,0.00019,0.0,0.0
12.536,5143.673,0.00019,0.0,0.0
12.543,5128.927,0.00019,0.0,0.0
12.549,5144.058,0.00019,0.0,0.0
12.555,5134.734,0.00019,0.0,0.0
12.562,5133.054,0.00019,0.0,0.0
12.568,5156.199,0.00019,0.0,0.0
12.574,5152.153,0.00019,0.0,0.0
12.58,5197.95,0.00019,0.0,0.0
12.587,5204.906,0.00019,0.0,0.0
12.593,5217.971,0.00019,0.0,0.0
12.599,5267.381,0.00019,0.0,0.0
12.606,5289.491,0.00019,0.0,0.0
12.612,5382.417,0.00019,0.0,0.0
12.618,5459.839,0.00018,0.0,0.0
12.625,5616.414,0.00018,0.0,0.0
12.631,5924.68,0.00017,0.0,0.0
12.637,6280.611,0.00016,0.0,0.0
12.644,7192.13,0.00014,0.0,0.0
12.65,8324.312,0.00012,0.0,0.0
12.656,10729.657,0.00009,0.0,0.0
12.663,15104.104,0.00007,0.0,0.0
12.669,19181.536,0.00005,0.0,0.0
12.675,28178.124,0.00004,0.0,0.0
12.682,32014.058,0.00003,0.0,0.0
12.688,34521.934,0.00003,0.0,0.0
12.694,32902.63,0.00003,0.0,0.0
12.701,27027.006,0.00004,0.0,0.0
12.707,21015.11,0.00005,0.0,0.0
12.713,14692.551,0.00007,0.0,0.0
12.72,10993.134,0.00009,0.0,0.0
12.726,8392.422,0.00012,0.0,0.0
12.732,7002.855,0.00014,0.0,0.0
12.738,6208.592,0.00016,0.0,0.0
12.745,5818.03,0.00017,0.0,0.0
12.751,5529.871,0.00018,0.0,0.0
12.757,5385.225,0.00019,0.0,0.0
12.764,5251.267,0.00019,0.0,0.0
12.77,5159.684,0.00019,0.0,0.0
12.776,5131.183,0.00019,0.0,0.0
12.783,5050.347,0.0002,0.0,0.0
12.789,5055.379,0.0002,0.0,0.0
12.795,5015.969,0.0002,0.0,0.0
12.802,4983.985,0.0002,0.0,0.0
12.808,5000.369,0.0002,0.0,0.0
12.814,4949.321,0.0002,0.0,0.0
12.821,4956.42,0.0002,0.0,0.0
12.827,4945.44,0.0002,0.0,0.0
12.833,4911.264,0.0002,0.0,0.0
12.84,4932.006,0.0002,0.0,0.0
12.846,4892.213,0.0002,0.0,0.0
12.852,4904.35,0.0002,0.0,0.0
12.859,4893.109,0.0002,0.0,0.0
12.865,4874.043,0.00021,0.0,0.0
12.871,4903.628,0.0002,0.0,0.0
12.878,4847.447,0.00021,0.0,0.0
12.884,4885.546,0.0002,0.0,0.0
12.89,4861.956,0.00021,0.0,0.0
12.896,4828.855,0.00021,0.0,0.0
12.903,4878.707,0.0002,0.0,0.0
12.909,4828.576,0.00021,0.0,0.0
12.915,4835.71,0.00021,0.0,0.0
12.922,4914.525,0.0002,0.0,0.0
12.928,4820.85,0.00021,0.0,0.0
12.934,4997.017,0.0002,0.0,0.0
12.941,4848.154,0.00021,0.0,0.0
12.947,4903.346,0.0002,0.0,0.0
12.953,5006.428,0.0002,0.0,0.0
12.96,4831.52,0.00021,0.0,0.0
12.966,4855.596,0.00021,0.0,0.0
12.972,4794.264,0.00021,0.0,0.0
12.979,4772.709,0.00021,0.0,0.0
12.985,4801.207,0.00021,0.0,0.0
12.991,4748.935,0.00021,0.0,0.0
12.998,4796.289,0.00021,0.0,0.0
13.004,4758.271,0.00021,0.0,0.0
13.01,4734.248,0.00021,0.0,0.0
13.017,4772.27,0.00021,0.0,0.0
13.023,4735.771,0.00021,0.0,0.0
13.029,4762.695,0.00021,0.0,0.0
13.036,4724.234,0.00021,0.0,0.0
13.042,4737.766,0.00021,0.0,0.0
13.048,4750.85,0.00021,0.0,0.0
13.054,4708.658,0.00021,0.0,0.0
13.061,4745.32,0.00021,0.0,0.0
13.067,4726.736,0.00021,0.0,0.0
13.073,4702.875,0.00021,0.0,0.0
13.08,4742.417,0.00021,0.0,0.0
13.086,4706.975,0.00021,0.0,0.0
13.092,4713.828,0.00021,0.0,0.0
13.099,4714.112,0.00021,0.0,0.0
13.105,4703.72,0.00021,0.0,0.0
13.111,4719.487,0.00021,0.0,0.0
13.118,4665.839,0.00021,0.0,0.0
13.124,4707.508,0.00021,0.0,0.0
13.13,4695.143,0.00021,0.0,0.0
13.137,4685.281,0.00021,0.0,0.0
13.143,4710.668,0.00021,0.0,0.0
13.149,4687.616,0.00021,0.0,0.0
13.156,4700.514,0.00021,0.0,0.0
13.162,4721.874,0.00021,0.0,0.0
13.168,4698.015,0.00021,0.0,0.0
13.175,4734.616,0.00021,0.0,0.0
13.181,4728.043,0.00021,0.0,0.0
13.187,4739.13,0.00021,0.0,0.0
13.194,4791.688,0.00021,0.0,0.0
13.2,4835.763,0.00021,0.0,0.0
13.206,4970.499,0.0002,0.0,0.0
13.212,5120.572,0.0002,0.0,0.0
13.219,5471.247,0.00018,0.0,0.0
13.225,6073.56,0.00016,0.0,0.0
13.231,7262.502,0.00014,0.0,0.0
13.238,8561.345,0.00012,0.0,0.0
13.244,10747.847,0.00009,0.0,0.0
13.25,11830.375,0.00008,0.0,0.0
13.257,12795.063,0.00008,0.0,0.0
13.263,11843.756,0.00008,0.0,0.0
13.269,10329.212,0.0001,0.0,0.0
13.276,8534.443,0.00012,0.0,0.0
13.282,6921.185,0.00014,0.0,0.0
13.288,6065.735,0.00016,0.0,0.0
13.295,5369.527,0.00019,0.0,0.0
13.301,5064.738,0.0002,0.0,0.0
13.307,4871.984,0.00021,0.0,0.0
13.314,4759.115,0.00021,0.0,0.0
13.32,4714.531,0.00021,0.0,0.0
13.326,4652.277,0.00021,0.0,0.0
13.333,4642.87,0.00022,0.0,0.0
13.339,4616.309,0.00022,0.0,0.0
13.345,4588.9,0.00022,0.0,0.0
13.352,4596.116,0.00022,0.0,0.0
13.358,4571.987,0.00022,0.0,0.0
13.364,4572.379,0.00022,0.0,0.0
13.37,4561.038,0.00022,0.0,0.0
13.377,4545.38,0.00022,0.0,0.0
13.383,4570.701,0.00022,0.0,0.0
13.389,4531.744,0.00022,0.0,0.0
13.396,4549.361,0.00022,0.0,0.0
13.402,4524.91,0.00022,0.0,0.0
13.408,4535.149,0.00022,0.0,0.0
13.415,4514.024,0.00022,0.0,0.0
13.421,4507.076,0.00022,0.0,0.0
13.427,4509.238,0.00022,0.0,0.0
13.434,4504.069,0.00022,0.0,0.0
13.44,4502.118,0.00022,0.0,0.0
13.446,4502.009,0.00022,0.0,0.0
13.453,4500.054,0.00022,0.0,0.0
13.459,4491.922,0.00022,0.0,0.0
13.465,4496.771,0.00022,0.0,0.0
13.472,4485.804,0.00022,0.0,0.0
13.478,4480.262,0.00022,0.0,0.0
13.484,4484.365,0.00022,0.0,0.0
13.491,4466.008,0.00022,0.0,0.0
13.497,4482.82,0.00022,0.0,0.0
13.503,4465.673,0.00022,0.0,0.0
13.51,4468.302,0.00022,0.0,0.0
13.516,4458.442,0.00022,0.0,0.0
13.522,4459.229,0.00022,0.0,0.0
13.528,4467.342,0.00022,0.0,0.0
13.535,4444.043,0.00023,0.0,0.0
13.541,4448.785,0.00022,0.0,0.0
13.547,4448.312,0.00022,0.0,0.0
13.554,4439.716,0.00023,0.0,0.0
13.56,4445.796,0.00022,0.0,0.0
13.566,4438.774,0.00023,0.0,0.0
13.573,4442.249,0.00023,0.0,0.0
13.579,4420.131,0.00023,0.0,0.0
13.585,4429.548,0.00023,0.0,0.0
13.592,4426.786,0.00023,0.0,0.0
13.598,4418.784,0.00023,0.0,0.0
13.604,4418.839,0.00023,0.0,0.0
13.611,4418.48,0.00023,0.0,0.0
13.617,4424.456,0.00023,0.0,0.0
13.623,4412.138,0.00023,0.0,0.0
13.63,4401.884,0.00023,0.0,0.0
13.636,4400.564,0.00023,0.0,0.0
13.642,4413.72,0.00023,0.0,0.0
13.649,4409.026,0.00023,0.0,0.0
13.655,4410.38,0.00023,0.0,0.0
13.661,4394.757,0.00023,0.0,0.0
13.668,4411.649,0.00023,0.0,0.0
13.674,4410.693,0.00023,0.0,0.0
13.68,4412.406,0.00023,0.0,0.0
13.686,4480.438,0.00022,0.0,0.0
13.693,4447.387,0.00022,0.0,0.0
13.699,4526.084,0.00022,0.0,0.0
13.705,4807.825,0.00021,0.0,0.0
13.712,4543.065,0.00022,0.0,0.0
13.718,4654.991,0.00021,0.0,0.0
13.724,5166.351,0.00019,0.0,0.0
13.731,4516.696,0.00022,0.0,0.0
13.737,4664.488,0.00021,0.0,0.0
13.743,4403.838,0.00023,0.0,0.0
13.75,4416.722,0.00023,0.0,0.0
13.756,4386.333,0.00023,0.0,0.0
13.762,4356.762,0.00023,0.0,0.0
13.769,4373.099,0.00023,0.0,0.0
13.775,4354.424,0.00023,0.0,0.0
13.781,4342.726,0.00023,0.0,0.0
13.788,4339.661,0.00023,0.0,0.0
13.794,4337.97,0.00023,0.0,0.0
13.8,4341.251,0.00023,0.0,0.0
13.807,4327.399,0.00023,0.0,0.0
13.813,4315.888,0.00023,0.0,0.0
13.819,4318.332,0.00023,0.0,0.0
13.826,4319.173,0.00023,0.0,0.0
13.832,4307.156,0.00023,0.0,0.0
13.838,4307.698,0.00023,0.0,0.0
13.844,4310.107,0.00023,0.0,0.0
13.851,4303.291,0.00023,0.0,0.0
13.857,4289.096,0.00023,0.0,0.0
13.863,4283.208,0.00023,0.0,0.0
13.87,4293.735,0.00023,0.0,0.0
13.876,4287.26,0.00023,0.0,0.0
13.882,4279.456,0.00023,0.0,0.0
13.889,4291.348,0.00023,0.0,0.0
13.895,4278.987,0.00023,0.0,0.0
13.901,4266.33,0.00023,0.0,0.0
13.908,4274.946,0.00023,0.0,0.0
13.914,4274.658,0.00023,0.0,0.0
13.92,4281.184,0.00023,0.0,0.0
13.927,4263.749,0.00023,0.0,0.0
13.933,4263.17,0.00023,0.0,0.0
13.939,4259.923,0.00023,0.0,0.0
13.946,4263.04,0.00023,0.0,0.0
13.952,4257.496,0.00023,0.0,0.0
13.958,4258.401,0.00023,0.0,0.0
13.965,4241.51,0.00024,0.0,0.0
13.971,4247.729,0.00024,0.0,0.0
13.977,4235.468,0.00024,0.0,0.0
13.984,4237.786,0.00024,0.0,0.0
13.99,4225.036,0.00024,0.0,0.0
13.996,4220.832,0.00024,0.0,0.0
14.002,4230.329,0.00024,0.0,0.0
14.009,4222.476,0.00024,0.0,0.0
14.015,4230.56,0.00024,0.0,0.0
14.021,4198.71,0.00024,0.0,0.0
14.028,4213.149,0.00024,0.0,0.0
14.034,4212.251,0.00024,0.0,0.0
14.04,4195.297,0.00024,0.0,0.0
14.047,4210.221,0.00024,0.0,0.0
14.053,4184.479,0.00024,0.0,0.0
14.059,4199.647,0.00024,0.0,0.0
14.066,4193.099,0.00024,0.0,0.0
14.072,4180.1,0.00024,0.0,0.0
14.078,4184.55,0.00024,0.0,0.0
14.085,4184.459,0.00024,0.0,0.0
14.091,4179.203,0.00024,0.0,0.0
14.097,4174.645,0.00024,0.0,0.0
14.104,4170.427,0.00024,0.0,0.0
14.11,4175.955,0.00024,0.0,0.0
14.116,4172.431,0.00024,0.0,0.0
14.123,4163.747,0.00024,0.0,0.0
14.129,4154.709,0.00024,0.0,0.0
14.135,4171.397,0.00024,0.0,0.0
14.142,4150.912,0.00024,0.0,0.0
14.148,4166.09,0.00024,0.0,0.0
14.154,4151.703,0.00024,0.0,0.0
14.16,4148.671,0.00024,0.0,0.0
14.167,4148.315,0.00024,0.0,0.0
14.173,4141.637,0.00024,0.0,0.0
14.179,4145.538,0.00024,0.0,0.0
14.186,4146.398,0.00024,0.0,0.0
14.192,4129.904,0.00024,0.0,0.0
14.198,4123.998,0.00024,0.0,0.0
14.205,4131.593,0.00024,0.0,0.0
14.211,4134.464,0.00024,0.0,0.0
14.217,4122.868,0.00024,0.0,0.0
14.224,4125.396,0.00024,0.0,0.0
14.23,4118.712,0.00024,0.0,0.0
14.236,4124.031,0.00024,0.0,0.0
14.243,4124.617,0.00024,0.0,0.0
14.249,4128.545,0.00024,0.0,0.0
14.255,4111.92,0.00024,0.0,0.0
14.262,4113.601,0.00024,0.0,0.0
14.268,4108.518,0.00024,0.0,0.0
14.274,4102.699,0.00024,0.0,0.0
14.281,4101.523,0.00024,0.0,0.0
14.287,4093.684,0.00024,0.0,0.0
14.293,4091.618,0.00024,0.0,0.0
14.3,4103.067,0.00024,0.0,0.0
14.306,4095.356,0.00024,0.0,0.0
14.312,4098.107,0.00024,0.0,0.0
14.318,4090.925,0.00024,0.0,0.0
14.325,4079.087,0.00025,0.0,0.0
14.331,4078.773,0.00025,0.0,0.0
14.337,4077.811,0.00025,0.0,0.0
14.344,4072.636,0.00025,0.0,0.0
14.35,4082.515,0.00024,0.0,0.0
14.356,4064.332,0.00025,0.0,0.0
14.363,4079.117,0.00025,0.0,0.0
14.369,4071.941,0.00025,0.0,0.0
14.375,4064.981,0.00025,0.0,0.0
14.382,4076.082,0.00025,0.0,0.0
14.388,4054.126,0.00025,0.0,0.0
14.394,4078.844,0.00025,0.0,0.0
14.401,4067.865,0.00025,0.0,0.0
14.407,4059.704,0.00025,0.0,0.0
14.413,4075.749,0.00025,0.0,0.0
14.42,4056.883,0.00025,0.0,0.0
14.426,4072.953,0.00025,0.0,0.0
14.432,4064.531,0.00025,0.0,0.0
14.439,4078.025,0.00025,0.0,0.0
14.445,4127.654,0.00024,0.0,0.0
14.451,4112.22,0.00024,0.0,0.0
14.458,4190.513,0.00024,0.0,0.0
14.464,4241.596,0.00024,0.0,0.0
14.47,4226.326,0.00024,0.0,0.0
14.476,4263.527,0.00023,0.0,0.0
14.483,4207.335,0.00024,0.0,0.0
14.489,4088.034,0.00024,0.0,0.0
14.495,4071.93,0.00025,0.0,0.0
14.502,4053.372,0.00025,0.0,0.0
14.508,4049.117,0.00025,0.0,0.0
14.514,4030.194,0.00025,0.0,0.0
14.521,4030.43,0.00025,0.0,0.0
14.527,4039.472,0.00025,0.0,0.0
14.533,4008.713,0.00025,0.0,0.0
14.54,4030.914,0.00025,0.0,0.0
14.546,4006.39,0.00025,0.0,0.0
14.552,4019.725,0.00025,0.0,0.0
14.559,4011.26,0.00025,0.0,0.0
14.565,4003.356,0.00025,0.0,0.0
14.571,4017.754,0.00025,0.0,0.0
14.578,4001.361,0.00025,0.0,0.0
14.584,4009.845,0.00025,0.0,0.0
14.59,3995.483,0.00025,0.0,0.0
14.597,4000.277,0.00025,0.0,0.0
14.603,3997.274,0.00025,0.0,0.0
14.609,3987.74,0.00025,0.0,0.0
14.616,3991.446,0.00025,0.0,0.0
14.622,3982.199,0.00025,0.0,0.0
14.628,3983.825,0.00025,0.0,0.0
14.634,3977.998,0.00025,0.0,0.0
14.641,3987.12,0.00025,0.0,0.0
14.647,3979.204,0.00025,0.0,0.0
14.653,3982.503,0.00025,0.0,0.0
14.66,3966.322,0.00025,0.0,0.0
14.666,3995.818,0.00025,0.0,0.0
14.672,3960.016,0.00025,0.0,0.0
14.679,3961.781,0.00025,0.0,0.0
14.685,3966.679,0.00025,0.0,0.0
14.691,3955.484,0.00025,0.0,0.0
14.698,3955.165,0.00025,0.0,0.0
14.704,3957.296,0.00025,0.0,0.0
14.71,3945.192,0.00025,0.0,0.0
14.717,3951.269,0.00025,0.0,0.0
14.723,3947.401,0.00025,0.0,0.0
14.729,3948.92,0.00025,0.0,0.0
14.736,3933.824,0.00025,0.0,0.0
14.742,3942.595,0.00025,0.0,0.0
14.748,3935.375,0.00025,0.0,0.0
14.755,3930.043,0.00025,0.0,0.0
14.761,3931.048,0.00025,0.0,0.0
14.767,3923.809,0.00025,0.0,0.0
14.774,3932.019,0.00025,0.0,0.0
14.78,3922.194,0.00025,0.0,0.0
14.786,3924.54,0.00025,0.0,0.0
14.792,3927.911,0.00025,0.0,0.0
14.799,3912.762,0.00026,0.0,0.0
14.805,3926.764,0.00025,0.0,0.0
14.811,3911.454,0.00026,0.0,0.0
14.818,3924.622,0.00025,0.0,0.0
14.824,3923.142,0.00025,0.0,0.0
14.83,3924.626,0.00025,0.0,0.0
14.837,3916.546,0.00026,0.0,0.0
14.843,3914.111,0.00026,0.0,0.0
14.849,3907.684,0.00026,0.0,0.0
14.856,3904.891,0.00026,0.0,0.0
14.862,3904.938,0.00026,0.0,0.0
14.868,3907.165,0.00026,0.0,0.0
14.875,3900.326,0.00026,0.0,0.0
14.881,3899.712,0.00026,0.0,0.0
14.887,3903.094,0.00026,0.0,0.0
14.894,3897.112,0.00026,0.0,0.0
14.9,3893.299,0.00026,0.0,0.0
14.906,3904.162,0.00026,0.0,0.0
14.913,3880.472,0.00026,0.0,0.0
14.919,3902.46,0.00026,0.0,0.0
14.925,3885.651,0.00026,0.0,0.0
14.932,3878.712,0.00026,0.0,0.0
14.938,3875.399,0.00026,0.0,0.0
14.944,3878.157,0.00026,0.0,0.0
14.95,3881.252,0.00026,0.0,0.0
14.957,3877.45,0.00026,0.0,0.0
14.963,3880.02,0.00026,0.0,0.0
14.969,3878.452,0.00026,0.0,0.0
14.976,3873.834,0.00026,0.0,0.0
14.982,3868.28,0.00026,0.0,0.0
14.988,3879.632,0.00026,0.0,0.0
14.995,3870.704,0.00026,0.0,0.0
15.001,3873.058,0.00026,0.0,0.0
15.007,3874.519,0.00026,0.0,0.0
15.014,3883.203,0.00026,0.0,0.0
15.02,3863.918,0.00026,0.0,0.0
15.026,3872.107,0.00026,0.0,0.0
15.033,3858.473,0.00026,0.0,0.0
15.039,3862.801,0.00026,0.0,0.0
15.045,3854.741,0.00026,0.0,0.0
15.052,3869.063,0.00026,0.0,0.0
15.058,3865.2,0.00026,0.0,0.0
15.064,3851.734,0.00026,0.0,0.0
15.071,3863.838,0.00026,0.0,0.0
15.077,3850.374,0.00026,0.0,0.0
15.083,3873.349,0.00026,0.0,0.0
15.09,3850.175,0.00026,0.0,0.0
15.096,3858.844,0.00026,0.0,0.0
15.102,3848.711,0.00026,0.0,0.0
15.108,3845.017,0.00026,0.0,0.0
15.115,3857.842,0.00026,0.0,0.0
15.121,3855.359,0.00026,0.0,0.0
15.127,3861.51,0.00026,0.0,0.0
15.134,3861.348,0.00026,0.0,0.0
15.14,3878.896,0.00026,0.0,0.0
15.146,3898.264,0.00026,0.0,0.0
15.153,3934.98,0.00025,0.0,0.0
15.159,3894.444,0.00026,0.0,0.0
15.165,3993.657,0.00025,0.0,0.0
15.172,4010.591,0.00025,0.0,0.0
15.178,4070.944,0.00025,0.0,0.0
15.184,4114.524,0.00024,0.0,0.0
15.191,3948.023,0.00025,0.0,0.0
15.197,3912.706,0.00026,0.0,0.0
15.203,3873.061,0.00026,0.0,0.0
15.21,3866.574,0.00026,0.0,0.0
15.216,3870.365,0.00026,0.0,0.0
15.222,3852.008,0.00026,0.0,0.0
15.229,3861.064,0.00026,0.0,0.0
15.235,3858.943,0.00026,0.0,0.0
15.241,3877.566,0.00026,0.0,0.0
15.248,3880.438,0.00026,0.0,0.0
15.254,3911.553,0.00026,0.0,0.0
15.26,3955.701,0.00025,0.0,0.0
15.266,4010.374,0.00025,0.0,0.0
15.273,4119.733,0.00024,0.0,0.0
15.279,4293.741,0.00023,0.0,0.0
15.285,4603.059,0.00022,0.0,0.0
15.292,4848.7,0.00021,0.0,0.0
15.298,5527.11,0.00018,0.0,0.0
15.304,5802.734,0.00017,0.0,0.0
15.311,6163.228,0.00016,0.0,0.0
15.317,6259.351,0.00016,0.0,0.0
15.323,5913.166,0.00017,0.0,0.0
15.33,5638.562,0.00018,0.0,0.0
15.336,5087.004,0.0002,0.0,0.0
15.342,4659.398,0.00021,0.0,0.0
15.349,4376.826,0.00023,0.0,0.0
15.355,4126.575,0.00024,0.0,0.0
15.361,4019.633,0.00025,0.0,0.0
15.368,3935.271,0.00025,0.0,0.0
15.374,3885.912,0.00026,0.0,0.0
15.38,3852.833,0.00026,0.0,0.0
15.387,3831.285,0.00026,0.0,0.0
15.393,3821.28,0.00026,0.0,0.0
15.399,3800.879,0.00026,0.0,0.0
15.406,3798.455,0.00026,0.0,0.0
15.412,3796.35,0.00026,0.0,0.0
15.418,3799.066,0.00026,0.0,0.0
15.424,3792.097,0.00026,0.0,0.0
15.431,3777.572,0.00026,0.0,0.0
15.437,3777.063,0.00026,0.0,0.0
15.443,3769.969,0.00027,0.0,0.0
15.45,3778.359,0.00026,0.0,0.0
15.456,3768.615,0.00027,0.0,0.0
15.462,3769.014,0.00027,0.0,0.0
15.469,3762.837,0.00027,0.0,0.0
15.475,3766.551,0.00027,0.0,0.0
15.481,3764.8,0.00027,0.0,0.0
15.488,3755.9,0.00027,0.0,0.0
15.494,3760.729,0.00027,0.0,0.0
15.5,3758.499,0.00027,0.0,0.0
15.507,3758.014,0.00027,0.0,0.0
15.513,3749.709,0.00027,0.0,0.0
15.519,3754.02,0.00027,0.0,0.0
15.526,3757.842,0.00027,0.0,0.0
15.532,3745.479,0.00027,0.0,0.0
15.538,3745.144,0.00027,0.0,0.0
15.545,3737.967,0.00027,0.0,0.0
15.551,3725.651,0.00027,0.0,0.0
15.557,3742.341,0.00027,0.0,0.0
15.564,3726.864,0.00027,0.0,0.0
15.57,3744.51,0.00027,0.0,0.0
15.576,3718.659,0.00027,0.0,0.0
15.582,3741.076,0.00027,0.0,0.0
15.589,3727.663,0.00027,0.0,0.0
15.595,3720.265,0.00027,0.0,0.0
15.601,3724.173,0.00027,0.0,0.0
15.608,3717.449,0.00027,0.0,0.0
15.614,3714.276,0.00027,0.0,0.0
15.62,3705.589,0.00027,0.0,0.0
15.627,3710.928,0.00027,0.0,0.0
15.633,3707.565,0.00027,0.0,0.0
15.639,3700.572,0.00027,0.0,0.0
15.646,3708.575,0.00027,0.0,0.0
15.652,3714.506,0.00027,0.0,0.0
15.658,3697.02,0.00027,0.0,0.0
15.665,3702.162,0.00027,0.0,0.0
15.671,3704.888,0.00027,0.0,0.0
15.677,3697.075,0.00027,0.0,0.0
15.684,3703.083,0.00027,0.0,0.0
15.69,3697.823,0.00027,0.0,0.0
15.696,3681.503,0.00027,0.0,0.0
15.703,3695.85,0.00027,0.0,0.0
15.709,3697.673,0.00027,0.0,0.0
15.715,3700.293,0.00027,0.0,0.0
15.722,3686.534,0.00027,0.0,0.0
15.728,3682.143,0.00027,0.0,0.0
15.734,3677.905,0.00027,0.0,0.0
15.74,3681.325,0.00027,0.0,0.0
15.747,3682.502,0.00027,0.0,0.0
15.753,3679.726,0.00027,0.0,0.0
15.759,3689.081,0.00027,0.0,0.0
15.766,3678.919,0.00027,0.0,0.0
15.772,3685.673,0.00027,0.0,0.0
15.778,3669.533,0.00027,0.0,0.0
15.785,3667.331,0.00027,0.0,0.0
15.791,3667.838,0.00027,0.0,0.0
15.797,3667.592,0.00027,0.0,0.0
15.804,3672.374,0.00027,0.0,0.0
15.81,3674.368,0.00027,0.0,0.0
15.816,3673.417,0.00027,0.0,0.0
15.823,3675.876,0.00027,0.0,0.0
15.829,3675.508,0.00027,0.0,0.0
15.835,3692.855,0.00027,0.0,0.0
15.842,3686.137,0.00027,0.0,0.0
15.848,3722.844,0.00027,0.0,0.0
15.854,3704.356,0.00027,0.0,0.0
15.861,3702.045,0.00027,0.0,0.0
15.867,3700.337,0.00027,0.0,0.0
15.873,3678.172,0.00027,0.0,0.0
15.88,3674.43,0.00027,0.0,0.0
15.886,3652.158,0.00027,0.0,0.0
15.892,3653.855,0.00027,0.0,0.0
15.898,3648.402,0.00027,0.0,0.0
15.905,3650.714,0.00027,0.0,0.0
15.911,3650.27,0.00027,0.0,0.0
15.917,3651.411,0.00027,0.0,0.0
15.924,3647.461,0.00027,0.0,0.0
15.93,3643.661,0.00027,0.0,0.0
15.936,3649.951,0.00027,0.0,0.0
15.943,3634.501,0.00028,0.0,0.0
15.949,3644.839,0.00027,0.0,0.0
15.955,3638.845,0.00027,0.0,0.0
15.962,3635.285,0.00028,0.0,0.0
15.968,3636.623,0.00027,0.0,0.0
15.974,3638.146,0.00027,0.0,0.0
15.981,3629.09,0.00028,0.0,0.0
15.987,3629.893,0.00028,0.0,0.0
15.993,3630.311,0.00028,0.0,0.0
16.0,3633.75,0.00028,0.0,0.0
16.006,3628.406,0.00028,0.0,0.0
16.012,3626.841,0.00028,0.0,0.0
16.019,3623.597,0.00028,0.0,0.0
16.025,3620.426,0.00028,0.0,0.0
16.031,3620.606,0.00028,0.0,0.0
16.038,3617.899,0.00028,0.0,0.0
16.044,3619.959,0.00028,0.0,0.0
16.05,3616.593,0.00028,0.0,0.0
16.056,3616.205,0.00028,0.0,0.0
16.063,3610.527,0.00028,0.0,0.0
16.069,3614.18,0.00028,0.0,0.0
16.075,3615.167,0.00028,0.0,0.0
16.082,3613.579,0.00028,0.0,0.0
16.088,3608.814,0.00028,0.0,0.0
16.094,3610.304,0.00028,0.0,0.0
16.101,3612.773,0.00028,0.0,0.0
16.107,3608.568,0.00028,0.0,0.0
16.113,3621.454,0.00028,0.0,0.0
16.12,3604.953,0.00028,0.0,0.0
16.126,3609.035,0.00028,0.0,0.0
16.132,3597.704,0.00028,0.0,0.0
16.139,3597.005,0.00028,0.0,0.0
16.145,3610.216,0.00028,0.0,0.0
16.151,3605.498,0.00028,0.0,0.0
16.158,3604.376,0.00028,0.0,0.0
16.164,3598.143,0.00028,0.0,0.0
16.17,3596.193,0.00028,0.0,0.0
16.177,3598.383,0.00028,0.0,0.0
16.183,3600.484,0.00028,0.0,0.0
16.189,3604.759,0.00028,0.0,0.0
16.196,3596.347,0.00028,0.0,0.0
16.202,3595.008,0.00028,0.0,0.0
16.208,3600.315,0.00028,0.0,0.0
16.214,3602.618,0.00028,0.0,0.0
16.221,3592.542,0.00028,0.0,0.0
16.227,3591.258,0.00028,0.0,0.0
16.233,3595.265,0.00028,0.0,0.0
16.24,3592.255,0.00028,0.0,0.0
16.246,3577.92,0.00028,0.0,0.0
16.252,3597.325,0.00028,0.0,0.0
16.259,3586.927,0.00028,0.0,0.0
16.265,3584.228,0.00028,0.0,0.0
16.271,3597.289,0.00028,0.0,0.0
16.278,3593.922,0.00028,0.0,0.0
16.284,3603.857,0.00028,0.0,0.0
16.29,3596.981,0.00028,0.0,0.0
16.297,3584.071,0.00028,0.0,0.0
16.303,3587.539,0.00028,0.0,0.0
16.309,3586.461,0.00028,0.0,0.0
16.316,3593.02,0.00028,0.0,0.0
16.322,3587.265,0.00028,0.0,0.0
16.328,3588.788,0.00028,0.0,0.0
16.335,3574.985,0.00028,0.0,0.0
16.341,3592.399,0.00028,0.0,0.0
16.347,3587.989,0.00028,0.0,0.0
16.354,3592.465,0.00028,0.0,0.0
16.36,3591.824,0.00028,0.0,0.0
16.366,3586.132,0.00028,0.0,0.0
16.372,3592.486,0.00028,0.0,0.0
16.379,3569.045,0.00028,0.0,0.0
16.385,3590.376,0.00028,0.0,0.0
16.391,3601.398,0.00028,0.0,0.0
16.398,3584.539,0.00028,0.0,0.0
16.404,3589.909,0.00028,0.0,0.0
16.41,3589.534,0.00028,0.0,0.0
16.417,3591.906,0.00028,0.0,0.0
16.423,3593.557,0.00028,0.0,0.0
16.429,3589.762,0.00028,0.0,0.0
16.436,3606.068,0.00028,0.0,0.0
16.442,3585.421,0.00028,0.0,0.0
16.448,3594.157,0.00028,0.0,0.0
16.455,3601.361,0.00028,0.0,0.0
16.461,3617.292,0.00028,0.0,0.0
16.467,3631.016,0.00028,0.0,0.0
16.474,3717.258,0.00027,0.0,0.0
16.48,3705.391,0.00027,0.0,0.0
16.486,3673.38,0.00027,0.0,0.0
16.493,3693.934,0.00027,0.0,0.0
16.499,3660.54,0.00027,0.0,0.0
16.505,3707.44,0.00027,0.0,0.0
16.512,3692.236,0.00027,0.0,0.0
16.518,3679.177,0.00027,0.0,0.0
16.524,3642.33,0.00027,0.0,0.0
16.53,3632.842,0.00028,0.0,0.0
16.537,3613.786,0.00028,0.0,0.0
16.543,3608.537,0.00028,0.0,0.0
16.549,3603.615,0.00028,0.0,0.0
16.556,3603.745,0.00028,0.0,0.0
16.562,3602.921,0.00028,0.0,0.0
16.568,3602.659,0.00028,0.0,0.0
16.575,3606.347,0.00028,0.0,0.0
16.581,3608.78,0.00028,0.0,0.0
16.587,3607.674,0.00028,0.0,0.0
16.594,3620.712,0.00028,0.0,0.0
