"x","y_obs","weight","y_calc","y_bkg"
0.8,2592.258,0.00039,0.0,0.0
0.806,3007.991,0.00033,0.0,0.0
0.813,3096.791,0.00032,0.0,0.0
0.819,3037.52,0.00033,0.0,0.0
0.825,3630.781,0.00028,0.0,0.0
0.832,3401.853,0.00029,0.0,0.0
0.838,3664.226,0.00027,0.0,0.0
0.844,4041.087,0.00025,0.0,0.0
0.851,3831.607,0.00026,0.0,0.0
0.857,4356.892,0.00023,0.0,0.0
0.863,4664.085,0.00021,0.0,0.0
0.87,4319.611,0.00023,0.0,0.0
0.876,5174.286,0.00019,0.0,0.0
0.882,5034.584,0.0002,0.0,0.0
0.888,5254.799,0.00019,0.0,0.0
0.895,5515.403,0.00018,0.0,0.0
0.901,5547.273,0.00018,0.0,0.0
0.907,6024.708,0.00017,0.0,0.0
0.914,6220.832,0.00016,0.0,0.0
0.92,5878.77,0.00017,0.0,0.0
0.926,6602.425,0.00015,0.0,0.0
0.933,6582.843,0.00015,0.0,0.0
0.939,6412.493,0.00016,0.0,0.0
0.945,6988.944,0.00014,0.0,0.0
0.952,6650.183,0.00015,0.0,0.0
0.958,7033.116,0.00014,0.0,0.0
0.964,7072.215,0.00014,0.0,0.0
0.971,6840.231,0.00015,0.0,0.0
0.977,7343.77,0.00014,0.0,0.0
0.983,7306.703,0.00014,0.0,0.0
0.99,7152.033,0.00014,0.0,0.0
0.996,7492.4,0.00013,0.0,0.0
1.002,7216.625,0.00014,0.0,0.0
1.009,7398.788,0.00014,0.0,0.0
1.015,7574.441,0.00013,0.0,0.0
1.021,7365.473,0.00014,0.0,0.0
1.028,7647.022,0.00013,0.0,0.0
1.034,7516.069,0.00013,0.0,0.0
1.04,7451.81,0.00013,0.0,0.0
1.046,7571.901,0.00013,0.0,0.0
1.053,7598.164,0.00013,0.0,0.0
1.059,7506.253,0.00013,0.0,0.0
1.065,7628.96,0.00013,0.0,0.0
1.072,7408.523,0.00013,0.0,0.0
1.078,7582.164,0.00013,0.0,0.0
1.084,7374.903,0.00014,0.0,0.0
1.091,7442.08,0.00013,0.0,0.0
1.097,7454.873,0.00013,0.0,0.0
1.103,7422.773,0.00013,0.0,0.0
1.11,7415.029,0.00013,0.0,0.0
1.116,7452.19,0.00013,0.0,0.0
1.122,7346.119,0.00014,0.0,0.0
1.129,7373.821,0.00014,0.0,0.0
1.135,7306.702,0.00014,0.0,0.0
1.141,7286.528,0.00014,0.0,0.0
1.148,7278.282,0.00014,0.0,0.0
1.154,7186.211,0.00014,0.0,0.0
1.16,7183.187,0.00014,0.0,0.0
1.167,7134.359,0.00014,0.0,0.0
1.173,7095.972,0.00014,0.0,0.0
1.179,7056.314,0.00014,0.0,0.0
1.186,6992.17,0.00014,0.0,0.0
1.192,6947.719,0.00014,0.0,0.0
1.198,6954.435,0.00014,0.0,0.0
1.204,6831.163,0.00015,0.0,0.0
1.211,6856.011,0.00015,0.0,0.0
1.217,6805.755,0.00015,0.0,0.0
1.223,6788.542,0.00015,0.0,0.0
1.23,6725.051,0.00015,0.0,0.0
1.236,6717.311,0.00015,0.0,0.0
1.242,6693.354,0.00015,0.0,0.0
1.249,6656.106,0.00015,0.0,0.0
1.255,6657.185,0.00015,0.0,0.0
1.261,6593.969,0.00015,0.0,0.0
1.268,6551.915,0.00015,0.0,0.0
1.274,6549.222,0.00015,0.0,0.0
1.28,6580.322,0.00015,0.0,0.0
1.287,6513.68,0.00015,0.0,0.0
1.293,6513.526,0.00015,0.0,0.0
1.299,6482.347,0.00015,0.0,0.0
1.306,6437.699,0.00016,0.0,0.0
1.312,6401.502,0.00016,0.0,0.0
1.318,6449.954,0.00016,0.0,0.0
1.325,6377.662,0.00016,0.0,0.0
1.331,6423.476,0.00016,0.0,0.0
1.337,6371.765,0.00016,0.0,0.0
1.344,6353.46,0.00016,0.0,0.0
1.35,6371.807,0.00016,0.0,0.0
1.356,6316.272,0.00016,0.0,0.0
1.362,6326.887,0.00016,0.0,0.0
1.369,6329.679,0.00016,0.0,0.0
1.375,6310.138,0.00016,0.0,0.0
1.381,6319.018,0.00016,0.0,0.0
1.388,6288.768,0.00016,0.0,0.0
1.394,6269.193,0.00016,0.0,0.0
1.4,6329.692,0.00016,0.0,0.0
1.407,6285.263,0.00016,0.0,0.0
1.413,6347.276,0.00016,0.0,0.0
1.419,6270.901,0.00016,0.0,0.0
1.426,6306.229,0.00016,0.0,0.0
1.432,6296.435,0.00016,0.0,0.0
1.438,6280.809,0.00016,0.0,0.0
1.445,6275.848,0.00016,0.0,0.0
1.451,6310.975,0.00016,0.0,0.0
1.457,6286.65,0.00016,0.0,0.0
1.464,6288.858,0.00016,0.0,0.0
1.47,6281.666,0.00016,0.0,0.0
1.476,6271.9,0.00016,0.0,0.0
1.483,6309.253,0.00016,0.0,0.0
1.489,6287.101,0.00016,0.0,0.0
1.495,6268.115,0.00016,0.0,0.0
1.502,6288.691,0.00016,0.0,0.0
1.508,6302.92,0.00016,0.0,0.0
1.514,6322.56,0.00016,0.0,0.0
1.52,6342.491,0.00016,0.0,0.0
1.527,6313.196,0.00016,0.0,0.0
1.533,6315.02,0.00016,0.0,0.0
1.539,6357.384,0.00016,0.0,0.0
1.546,6395.128,0.00016,0.0,0.0
1.552,6373.925,0.00016,0.0,0.0
1.558,6393.045,0.00016,0.0,0.0
1.565,6391.006,0.00016,0.0,0.0
1.571,6398.238,0.00016,0.0,0.0
1.577,6387.435,0.00016,0.0,0.0
1.584,6417.44,0.00016,0.0,0.0
1.59,6447.762,0.00016,0.0,0.0
1.596,6465.113,0.00015,0.0,0.0
1.603,6500.338,0.00015,0.0,0.0
1.609,6460.236,0.00015,0.0,0.0
1.615,6463.954,0.00015,0.0,0.0
1.622,6520.394,0.00015,0.0,0.0
1.628,6529.207,0.00015,0.0,0.0
1.634,6559.329,0.00015,0.0,0.0
1.641,6591.231,0.00015,0.0,0.0
1.647,6557.714,0.00015,0.0,0.0
1.653,6601.84,0.00015,0.0,0.0
1.66,6585.735,0.00015,0.0,0.0
1.666,6618.309,0.00015,0.0,0.0
1.672,6649.809,0.00015,0.0,0.0
1.678,6669.078,0.00015,0.0,0.0
1.685,6684.696,0.00015,0.0,0.0
1.691,6714.88,0.00015,0.0,0.0
1.697,6702.986,0.00015,0.0,0.0
1.704,6735.818,0.00015,0.0,0.0
1.71,6764.966,0.00015,0.0,0.0
1.716,6799.021,0.00015,0.0,0.0
1.723,6801.56,0.00015,0.0,0.0
1.729,6840.017,0.00015,0.0,0.0
1.735,6835.341,0.00015,0.0,0.0
1.742,6839.993,0.00015,0.0,0.0
1.748,6876.455,0.00015,0.0,0.0
1.754,6866.983,0.00015,0.0,0.0
1.761,6896.696,0.00014,0.0,0.0
1.767,6916.665,0.00014,0.0,0.0
1.773,6895.127,0.00015,0.0,0.0
1.78,6882.017,0.00015,0.0,0.0
1.786,6935.07,0.00014,0.0,0.0
1.792,6953.133,0.00014,0.0,0.0
1.799,6967.53,0.00014,0.0,0.0
1.805,6976.2,0.00014,0.0,0.0
1.811,6974.336,0.00014,0.0,0.0
1.818,6981.196,0.00014,0.0,0.0
1.824,6949.234,0.00014,0.0,0.0
1.83,6993.029,0.00014,0.0,0.0
1.836,6982.014,0.00014,0.0,0.0
1.843,7024.42,0.00014,0.0,0.0
1.849,7007.8,0.00014,0.0,0.0
1.855,7036.526,0.00014,0.0,0.0
1.862,7027.623,0.00014,0.0,0.0
1.868,7046.95,0.00014,0.0,0.0
1.874,7047.481,0.00014,0.0,0.0
1.881,7056.378,0.00014,0.0,0.0
1.887,7052.378,0.00014,0.0,0.0
1.893,7038.21,0.00014,0.0,0.0
1.9,7084.592,0.00014,0.0,0.0
1.906,7062.573,0.00014,0.0,0.0
1.912,7095.882,0.00014,0.0,0.0
1.919,7066.627,0.00014,0.0,0.0
1.925,7093.259,0.00014,0.0,0.0
1.931,7082.385,0.00014,0.0,0.0
1.938,7113.982,0.00014,0.0,0.0
1.944,7121.808,0.00014,0.0,0.0
1.95,7109.878,0.00014,0.0,0.0
1.957,7109.917,0.00014,0.0,0.0
1.963,7142.456,0.00014,0.0,0.0
1.969,7138.275,0.00014,0.0,0.0
1.976,7136.675,0.00014,0.0,0.0
1.982,7131.06,0.00014,0.0,0.0
1.988,7149.872,0.00014,0.0,0.0
1.994,7144.22,0.00014,0.0,0.0
2.001,7180.504,0.00014,0.0,0.0
2.007,7181.339,0.00014,0.0,0.0
2.013,7162.522,0.00014,0.0,0.0
2.02,7203.811,0.00014,0.0,0.0
2.026,7213.606,0.00014,0.0,0.0
2.032,7219.224,0.00014,0.0,0.0
2.039,7224.352,0.00014,0.0,0.0
2.045,7246.145,0.00014,0.0,0.0
2.051,7257.042,0.00014,0.0,0.0
2.058,7271.532,0.00014,0.0,0.0
2.064,7268.591,0.00014,0.0,0.0
2.07,7307.697,0.00014,0.0,0.0
2.077,7321.885,0.00014,0.0,0.0
2.083,7347.151,0.00014,0.0,0.0
2.089,7298.692,0.00014,0.0,0.0
2.096,7353.809,0.00014,0.0,0.0
2.102,7353.153,0.00014,0.0,0.0
2.108,7369.787,0.00014,0.0,0.0
2.115,7351.726,0.00014,0.0,0.0
2.121,7400.374,0.00014,0.0,0.0
2.127,7386.935,0.00014,0.0,0.0
2.134,7454.268,0.00013,0.0,0.0
2.14,7461.287,0.00013,0.0,0.0
2.146,7490.436,0.00013,0.0,0.0
2.152,7481.114,0.00013,0.0,0.0
2.159,7488.048,0.00013,0.0,0.0
2.165,7533.087,0.00013,0.0,0.0
2.171,7561.35,0.00013,0.0,0.0
2.178,7580.829,0.00013,0.0,0.0
2.184,7598.441,0.00013,0.0,0.0
2.19,7611.533,0.00013,0.0,0.0
2.197,7643.564,0.00013,0.0,0.0
2.203,7624.233,0.00013,0.0,0.0
2.209,7658.215,0.00013,0.0,0.0
2.216,7693.39,0.00013,0.0,0.0
2.222,7735.794,0.00013,0.0,0.0
2.228,7742.565,0.00013,0.0,0.0
2.235,7785.714,0.00013,0.0,0.0
2.241,7799.748,0.00013,0.0,0.0
2.247,7840.007,0.00013,0.0,0.0
2.254,7879.044,0.00013,0.0,0.0
2.26,7853.973,0.00013,0.0,0.0
2.266,7885.666,0.00013,0.0,0.0
2.273,7948.917,0.00013,0.0,0.0
2.279,7964.659,0.00013,0.0,0.0
2.285,8023.781,0.00012,0.0,0.0
2.292,8021.139,0.00012,0.0,0.0
2.298,8051.861,0.00012,0.0,0.0
2.304,8058.731,0.00012,0.0,0.0
2.31,8121.968,0.00012,0.0,0.0
2.317,8154.796,0.00012,0.0,0.0
2.323,8181.711,0.00012,0.0,0.0
2.329,8210.025,0.00012,0.0,0.0
2.336,8258.57,0.00012,0.0,0.0
2.342,8295.246,0.00012,0.0,0.0
2.348,8315.724,0.00012,0.0,0.0
2.355,8362.109,0.00012,0.0,0.0
2.361,8402.158,0.00012,0.0,0.0
2.367,8434.987,0.00012,0.0,0.0
2.374,8505.65,0.00012,0.0,0.0
2.38,8544.619,0.00012,0.0,0.0
2.386,8618.007,0.00012,0.0,0.0
2.393,8644.102,0.00012,0.0,0.0
2.399,8661.073,0.00012,0.0,0.0
2.405,8723.735,0.00011,0.0,0.0
2.412,8817.502,0.00011,0.0,0.0
2.418,8853.801,0.00011,0.0,0.0
2.424,8942.063,0.00011,0.0,0.0
2.431,8991.516,0.00011,0.0,0.0
2.437,9047.844,0.00011,0.0,0.0
2.443,9114.578,0.00011,0.0,0.0
2.45,9168.244,0.00011,0.0,0.0
2.456,9304.986,0.00011,0.0,0.0
2.462,9334.726,0.00011,0.0,0.0
2.468,9396.303,0.00011,0.0,0.0
2.475,9567.614,0.0001,0.0,0.0
2.481,9612.837,0.0001,0.0,0.0
2.487,9698.808,0.0001,0.0,0.0
2.494,9859.409,0.0001,0.0,0.0
2.5,9893.693,0.0001,0.0,0.0
2.506,10047.848,0.0001,0.0,0.0
2.513,10043.116,0.0001,0.0,0.0
2.519,10116.214,0.0001,0.0,0.0
2.525,10289.634,0.0001,0.0,0.0
2.532,10226.277,0.0001,0.0,0.0
2.538,10327.888,0.0001,0.0,0.0
2.544,10365.395,0.0001,0.0,0.0
2.551,10320.427,0.0001,0.0,0.0
2.557,10419.023,0.0001,0.0,0.0
2.563,10331.977,0.0001,0.0,0.0
2.57,10313.634,0.0001,0.0,0.0
2.576,10369.917,0.0001,0.0,0.0
2.582,10230.271,0.0001,0.0,0.0
2.589,10279.027,0.0001,0.0,0.0
2.595,10280.022,0.0001,0.0,0.0
2.601,10216.002,0.0001,0.0,0.0
2.608,10255.788,0.0001,0.0,0.0
2.614,10252.523,0.0001,0.0,0.0
2.62,10221.194,0.0001,0.0,0.0
2.626,10225.495,0.0001,0.0,0.0
2.633,10218.981,0.0001,0.0,0.0
2.639,10247.589,0.0001,0.0,0.0
2.645,10302.332,0.0001,0.0,0.0
2.652,10301.869,0.0001,0.0,0.0
2.658,10313.927,0.0001,0.0,0.0
2.664,10342.739,0.0001,0.0,0.0
2.671,10369.458,0.0001,0.0,0.0
2.677,10449.6,0.0001,0.0,0.0
2.683,10458.713,0.0001,0.0,0.0
2.69,10521.853,0.0001,0.0,0.0
2.696,10608.862,0.00009,0.0,0.0
2.702,10586.563,0.00009,0.0,0.0
2.709,10652.689,0.00009,0.0,0.0
2.715,10705.981,0.00009,0.0,0.0
2.721,10736.485,0.00009,0.0,0.0
2.728,10856.992,0.00009,0.0,0.0
2.734,10787.956,0.00009,0.0,0.0
2.74,10893.914,0.00009,0.0,0.0
2.747,10924.034,0.00009,0.0,0.0
2.753,10958.702,0.00009,0.0,0.0
2.759,11000.017,0.00009,0.0,0.0
2.766,11016.52,0.00009,0.0,0.0
2.772,11074.945,0.00009,0.0,0.0
2.778,11156.942,0.00009,0.0,0.0
2.784,11131.78,0.00009,0.0,0.0
2.791,11187.657,0.00009,0.0,0.0
2.797,11254.533,0.00009,0.0,0.0
2.803,11246.44,0.00009,0.0,0.0
2.81,11277.87,0.00009,0.0,0.0
2.816,11317.294,0.00009,0.0,0.0
2.822,11356.388,0.00009,0.0,0.0
2.829,11397.401,0.00009,0.0,0.0
2.835,11440.952,0.00009,0.0,0.0
2.841,11443.377,0.00009,0.0,0.0
2.848,11508.045,0.00009,0.0,0.0
2.854,11545.56,0.00009,0.0,0.0
2.86,11598.43,0.00009,0.0,0.0
2.867,11606.765,0.00009,0.0,0.0
2.873,11652.642,0.00009,0.0,0.0
2.879,11707.357,0.00009,0.0,0.0
2.886,11700.639,0.00009,0.0,0.0
2.892,11778.544,0.00008,0.0,0.0
2.898,11794.63,0.00008,0.0,0.0
2.905,11834.942,0.00008,0.0,0.0
2.911,11857.084,0.00008,0.0,0.0
2.917,11908.996,0.00008,0.0,0.0
2.924,11918.732,0.00008,0.0,0.0
2.93,12008.417,0.00008,0.0,0.0
2.936,11999.838,0.00008,0.0,0.0
2.942,12031.151,0.00008,0.0,0.0
2.949,12095.336,0.00008,0.0,0.0
2.955,12105.809,0.00008,0.0,0.0
2.961,12159.425,0.00008,0.0,0.0
2.968,12163.378,0.00008,0.0,0.0
2.974,12229.356,0.00008,0.0,0.0
2.98,12217.591,0.00008,0.0,0.0
2.987,12273.169,0.00008,0.0,0.0
2.993,12299.54,0.00008,0.0,0.0
2.999,12320.227,0.00008,0.0,0.0
3.006,12320.676,0.00008,0.0,0.0
3.012,12357.347,0.00008,0.0,0.0
3.018,12350.318,0.00008,0.0,0.0
3.025,12376.303,0.00008,0.0,0.0
3.031,12362.147,0.00008,0.0,0.0
3.037,12431.395,0.00008,0.0,0.0
3.044,12394.401,0.00008,0.0,0.0
3.05,12450.297,0.00008,0.0,0.0
3.056,12434.514,0.00008,0.0,0.0
3.063,12460.152,0.00008,0.0,0.0
3.069,12433.156,0.00008,0.0,0.0
3.075,12458.974,0.00008,0.0,0.0
3.082,12455.576,0.00008,0.0,0.0
3.088,12454.458,0.00008,0.0,0.0
3.094,12427.907,0.00008,0.0,0.0
3.1,12469.98,0.00008,0.0,0.0
3.107,12434.708,0.00008,0.0,0.0
3.113,12428.551,0.00008,0.0,0.0
3.119,12452.362,0.00008,0.0,0.0
3.126,12416.013,0.00008,0.0,0.0
3.132,12401.292,0.00008,0.0,0.0
3.138,12387.813,0.00008,0.0,0.0
3.145,12393.675,0.00008,0.0,0.0
3.151,12395.767,0.00008,0.0,0.0
3.157,12362.419,0.00008,0.0,0.0
3.164,12334.527,0.00008,0.0,0.0
3.17,12314.625,0.00008,0.0,0.0
3.176,12303.864,0.00008,0.0,0.0
3.183,12294.305,0.00008,0.0,0.0
3.189,12262.982,0.00008,0.0,0.0
3.195,12209.561,0.00008,0.0,0.0
3.202,12213.896,0.00008,0.0,0.0
3.208,12201.037,0.00008,0.0,0.0
3.214,12172.878,0.00008,0.0,0.0
3.221,12121.389,0.00008,0.0,0.0
3.227,12113.185,0.00008,0.0,0.0
3.233,12099.181,0.00008,0.0,0.0
3.24,12067.632,0.00008,0.0,0.0
3.246,12037.282,0.00008,0.0,0.0
3.252,12009.689,0.00008,0.0,0.0
3.258,11967.123,0.00008,0.0,0.0
3.265,11932.385,0.00008,0.0,0.0
3.271,11919.736,0.00008,0.0,0.0
3.277,11863.829,0.00008,0.0,0.0
3.284,11867.795,0.00008,0.0,0.0
3.29,11788.343,0.00008,0.0,0.0
3.296,11760.799,0.00009,0.0,0.0
3.303,11726.34,0.00009,0.0,0.0
3.309,11724.714,0.00009,0.0,0.0
3.315,11668.58,0.00009,0.0,0.0
3.322,11645.893,0.00009,0.0,0.0
3.328,11623.924,0.00009,0.0,0.0
3.334,11605.334,0.00009,0.0,0.0
3.341,11540.475,0.00009,0.0,0.0
3.347,11540.622,0.00009,0.0,0.0
3.353,11528.227,0.00009,0.0,0.0
3.36,11481.514,0.00009,0.0,0.0
3.366,11395.915,0.00009,0.0,0.0
3.372,11401.518,0.00009,0.0,0.0
3.379,11390.726,0.00009,0.0,0.0
3.385,11321.388,0.00009,0.0,0.0
3.391,11298.685,0.00009,0.0,0.0
3.398,11238.065,0.00009,0.0,0.0
3.404,11225.217,0.00009,0.0,0.0
3.41,11209.478,0.00009,0.0,0.0
3.416,11156.833,0.00009,0.0,0.0
3.423,11138.4,0.00009,0.0,0.0
3.429,11126.625,0.00009,0.0,0.0
3.435,11072.252,0.00009,0.0,0.0
3.442,11048.381,0.00009,0.0,0.0
3.448,10973.95,0.00009,0.0,0.0
3.454,10959.552,0.00009,0.0,0.0
3.461,10897.308,0.00009,0.0,0.0
3.467,10913.196,0.00009,0.0,0.0
3.473,10860.766,0.00009,0.0,0.0
3.48,10833.429,0.00009,0.0,0.0
3.486,10809.887,0.00009,0.0,0.0
3.492,10796.427,0.00009,0.0,0.0
3.499,10774.718,0.00009,0.0,0.0
3.505,10745.438,0.00009,0.0,0.0
3.511,10690.242,0.00009,0.0,0.0
3.518,10665.153,0.00009,0.0,0.0
3.524,10636.755,0.00009,0.0,0.0
3.53,10615.186,0.00009,0.0,0.0
3.537,10616.675,0.00009,0.0,0.0
3.543,10559.297,0.00009,0.0,0.0
3.549,10560.847,0.00009,0.0,0.0
3.556,10545.739,0.00009,0.0,0.0
3.562,10494.96,0.0001,0.0,0.0
3.568,10475.654,0.0001,0.0,0.0
3.574,10472.223,0.0001,0.0,0.0
3.581,10461.262,0.0001,0.0,0.0
3.587,10421.039,0.0001,0.0,0.0
3.593,10421.875,0.0001,0.0,0.0
3.6,10401.695,0.0001,0.0,0.0
3.606,10394.508,0.0001,0.0,0.0
3.612,10362.221,0.0001,0.0,0.0
3.619,10385.357,0.0001,0.0,0.0
3.625,10344.375,0.0001,0.0,0.0
3.631,10308.796,0.0001,0.0,0.0
3.638,10302.489,0.0001,0.0,0.0
3.644,10294.192,0.0001,0.0,0.0
3.65,10252.436,0.0001,0.0,0.0
3.657,10281.396,0.0001,0.0,0.0
3.663,10279.511,0.0001,0.0,0.0
3.669,10258.218,0.0001,0.0,0.0
3.676,10273.047,0.0001,0.0,0.0
3.682,10279.775,0.0001,0.0,0.0
3.688,10290.202,0.0001,0.0,0.0
3.695,10266.982,0.0001,0.0,0.0
3.701,10285.14,0.0001,0.0,0.0
3.707,10291.863,0.0001,0.0,0.0
3.714,10313.728,0.0001,0.0,0.0
3.72,10295.972,0.0001,0.0,0.0
3.726,10319.616,0.0001,0.0,0.0
3.732,10306.711,0.0001,0.0,0.0
3.739,10345.795,0.0001,0.0,0.0
3.745,10346.128,0.0001,0.0,0.0
3.751,10341.136,0.0001,0.0,0.0
3.758,10380.707,0.0001,0.0,0.0
3.764,10383.01,0.0001,0.0,0.0
3.77,10422.928,0.0001,0.0,0.0
3.777,10449.296,0.0001,0.0,0.0
3.783,10481.397,0.0001,0.0,0.0
3.789,10515.45,0.0001,0.0,0.0
3.796,10538.321,0.00009,0.0,0.0
3.802,10577.156,0.00009,0.0,0.0
3.808,10607.801,0.00009,0.0,0.0
3.815,10645.214,0.00009,0.0,0.0
3.821,10675.02,0.00009,0.0,0.0
3.827,10698.604,0.00009,0.0,0.0
3.834,10728.56,0.00009,0.0,0.0
3.84,10771.414,0.00009,0.0,0.0
3.846,10777.483,0.00009,0.0,0.0
3.853,10813.611,0.00009,0.0,0.0
3.859,10841.107,0.00009,0.0,0.0
3.865,10816.452,0.00009,0.0,0.0
3.872,10885.402,0.00009,0.0,0.0
3.878,10864.942,0.00009,0.0,0.0
3.884,10858.033,0.00009,0.0,0.0
3.89,10863.854,0.00009,0.0,0.0
3.897,10863.934,0.00009,0.0,0.0
3.903,10822.087,0.00009,0.0,0.0
3.909,10842.395,0.00009,0.0,0.0
3.916,10792.22,0.00009,0.0,0.0
3.922,10789.167,0.00009,0.0,0.0
3.928,10756.496,0.00009,0.0,0.0
3.935,10740.096,0.00009,0.0,0.0
3.941,10722.748,0.00009,0.0,0.0
3.947,10665.396,0.00009,0.0,0.0
3.954,10634.245,0.00009,0.0,0.0
3.96,10629.052,0.00009,0.0,0.0
3.966,10568.796,0.00009,0.0,0.0
3.973,10541.583,0.00009,0.0,0.0
3.979,10464.674,0.0001,0.0,0.0
3.985,10405.727,0.0001,0.0,0.0
3.992,10358.587,0.0001,0.0,0.0
3.998,10310.192,0.0001,0.0,0.0
4.004,10261.489,0.0001,0.0,0.0
4.011,10232.679,0.0001,0.0,0.0
4.017,10176.939,0.0001,0.0,0.0
4.023,10144.494,0.0001,0.0,0.0
4.03,10092.693,0.0001,0.0,0.0
4.036,10040.675,0.0001,0.0,0.0
4.042,10036.422,0.0001,0.0,0.0
4.048,9945.173,0.0001,0.0,0.0
4.055,9895.571,0.0001,0.0,0.0
4.061,9877.557,0.0001,0.0,0.0
4.067,9824.006,0.0001,0.0,0.0
4.074,9828.879,0.0001,0.0,0.0
4.08,9766.661,0.0001,0.0,0.0
4.086,9725.122,0.0001,0.0,0.0
4.093,9729.205,0.0001,0.0,0.0
4.099,9649.031,0.0001,0.0,0.0
4.105,9609.623,0.0001,0.0,0.0
4.112,9608.591,0.0001,0.0,0.0
4.118,9525.052,0.0001,0.0,0.0
4.124,9582.637,0.0001,0.0,0.0
4.131,9533.393,0.0001,0.0,0.0
4.137,9513.076,0.00011,0.0,0.0
4.143,9493.748,0.00011,0.0,0.0
4.15,9427.965,0.00011,0.0,0.0
4.156,9452.091,0.00011,0.0,0.0
4.162,9446.01,0.00011,0.0,0.0
4.169,9396.262,0.00011,0.0,0.0
4.175,9447.21,0.00011,0.0,0.0
4.181,9361.538,0.00011,0.0,0.0
4.188,9372.726,0.00011,0.0,0.0
4.194,9373.056,0.00011,0.0,0.0
4.2,9311.373,0.00011,0.0,0.0
4.206,9319.191,0.00011,0.0,0.0
4.213,9376.78,0.00011,0.0,0.0
4.219,9280.266,0.00011,0.0,0.0
4.225,9318.652,0.00011,0.0,0.0
4.232,9320.88,0.00011,0.0,0.0
4.238,9230.128,0.00011,0.0,0.0
4.244,9320.542,0.00011,0.0,0.0
4.251,9258.708,0.00011,0.0,0.0
4.257,9236.539,0.00011,0.0,0.0
4.263,9274.471,0.00011,0.0,0.0
4.27,9240.555,0.00011,0.0,0.0
4.276,9231.267,0.00011,0.0,0.0
4.282,9266.868,0.00011,0.0,0.0
4.289,9221.015,0.00011,0.0,0.0
4.295,9257.109,0.00011,0.0,0.0
4.301,9213.321,0.00011,0.0,0.0
4.308,9229.771,0.00011,0.0,0.0
4.314,9204.751,0.00011,0.0,0.0
4.32,9156.507,0.00011,0.0,0.0
4.327,9239.333,0.00011,0.0,0.0
4.333,9188.393,0.00011,0.0,0.0
4.339,9197.707,0.00011,0.0,0.0
4.346,9245.801,0.00011,0.0,0.0
4.352,9184.473,0.00011,0.0,0.0
4.358,9189.757,0.00011,0.0,0.0
4.364,9250.881,0.00011,0.0,0.0
4.371,9221.428,0.00011,0.0,0.0
4.377,9241.807,0.00011,0.0,0.0
4.383,9180.816,0.00011,0.0,0.0
4.39,9186.338,0.00011,0.0,0.0
4.396,9247.382,0.00011,0.0,0.0
4.402,9279.321,0.00011,0.0,0.0
4.409,9284.353,0.00011,0.0,0.0
4.415,9330.89,0.00011,0.0,0.0
4.421,9218.657,0.00011,0.0,0.0
4.428,9380.88,0.00011,0.0,0.0
4.434,9197.672,0.00011,0.0,0.0
4.44,9346.732,0.00011,0.0,0.0
4.447,9505.024,0.00011,0.0,0.0
4.453,9358.555,0.00011,0.0,0.0
4.459,9415.262,0.00011,0.0,0.0
4.466,9405.319,0.00011,0.0,0.0
4.472,9370.796,0.00011,0.0,0.0
4.478,9516.93,0.00011,0.0,0.0
4.485,9529.959,0.0001,0.0,0.0
4.491,9454.811,0.00011,0.0,0.0
4.497,9714.239,0.0001,0.0,0.0
4.504,9399.989,0.00011,0.0,0.0
4.51,9734.079,0.0001,0.0,0.0
4.516,9644.072,0.0001,0.0,0.0
4.522,9857.606,0.0001,0.0,0.0
4.529,10132.663,0.0001,0.0,0.0
4.535,10334.69,0.0001,0.0,0.0
4.541,10965.221,0.00009,0.0,0.0
4.548,11507.384,0.00009,0.0,0.0
4.554,13702.581,0.00007,0.0,0.0
4.56,14214.654,0.00007,0.0,0.0
4.567,13257.549,0.00008,0.0,0.0
4.573,11783.598,0.00008,0.0,0.0
4.579,11904.169,0.00008,0.0,0.0
4.586,10922.777,0.00009,0.0,0.0
4.592,10083.488,0.0001,0.0,0.0
4.598,9872.338,0.0001,0.0,0.0
4.605,9632.608,0.0001,0.0,0.0
4.611,9746.521,0.0001,0.0,0.0
4.617,9593.661,0.0001,0.0,0.0
4.624,9316.584,0.00011,0.0,0.0
4.63,9464.534,0.00011,0.0,0.0
4.636,9340.785,0.00011,0.0,0.0
4.643,9285.572,0.00011,0.0,0.0
4.649,9448.55,0.00011,0.0,0.0
4.655,9066.376,0.00011,0.0,0.0
4.662,9211.931,0.00011,0.0,0.0
4.668,9116.313,0.00011,0.0,0.0
4.674,8973.778,0.00011,0.0,0.0
4.68,9151.323,0.00011,0.0,0.0
4.687,8939.664,0.00011,0.0,0.0
4.693,8891.165,0.00011,0.0,0.0
4.699,9023.036,0.00011,0.0,0.0
4.706,8659.343,0.00012,0.0,0.0
4.712,8849.35,0.00011,0.0,0.0
4.718,8741.766,0.00011,0.0,0.0
4.725,8664.036,0.00012,0.0,0.0
4.731,8782.773,0.00011,0.0,0.0
4.737,8510.844,0.00012,0.0,0.0
4.744,8529.865,0.00012,0.0,0.0
4.75,8576.358,0.00012,0.0,0.0
4.756,8377.134,0.00012,0.0,0.0
4.763,8535.16,0.00012,0.0,0.0
4.769,8408.49,0.00012,0.0,0.0
4.775,8286.7,0.00012,0.0,0.0
4.782,8473.405,0.00012,0.0,0.0
4.788,8175.876,0.00012,0.0,0.0
4.794,8257.258,0.00012,0.0,0.0
4.801,8257.11,0.00012,0.0,0.0
4.807,8141.785,0.00012,0.0,0.0
4.813,8208.857,0.00012,0.0,0.0
4.82,8161.206,0.00012,0.0,0.0
4.826,8037.047,0.00012,0.0,0.0
4.832,8116.209,0.00012,0.0,0.0
4.838,7984.592,0.00013,0.0,0.0
4.845,7997.795,0.00013,0.0,0.0
4.851,8069.385,0.00012,0.0,0.0
4.857,7896.548,0.00013,0.0,0.0
4.864,7999.311,0.00013,0.0,0.0
4.87,7829.657,0.00013,0.0,0.0
4.876,7897.759,0.00013,0.0,0.0
4.883,7873.226,0.00013,0.0,0.0
4.889,7826.814,0.00013,0.0,0.0
4.895,7769.241,0.00013,0.0,0.0
4.902,7828.267,0.00013,0.0,0.0
4.908,7702.048,0.00013,0.0,0.0
4.914,7743.084,0.00013,0.0,0.0
4.921,7697.195,0.00013,0.0,0.0
4.927,7672.934,0.00013,0.0,0.0
4.933,7693.328,0.00013,0.0,0.0
4.94,7558.851,0.00013,0.0,0.0
4.946,7597.2,0.00013,0.0,0.0
4.952,7559.732,0.00013,0.0,0.0
4.959,7572.601,0.00013,0.0,0.0
4.965,7527.104,0.00013,0.0,0.0
4.971,7527.772,0.00013,0.0,0.0
4.978,7466.526,0.00013,0.0,0.0
4.984,7484.269,0.00013,0.0,0.0
4.99,7429.063,0.00013,0.0,0.0
4.996,7429.362,0.00013,0.0,0.0
5.003,7400.401,0.00014,0.0,0.0
5.009,7399.675,0.00014,0.0,0.0
5.015,7372.861,0.00014,0.0,0.0
5.022,7371.038,0.00014,0.0,0.0
5.028,7329.65,0.00014,0.0,0.0
5.034,7323.545,0.00014,0.0,0.0
5.041,7314.818,0.00014,0.0,0.0
5.047,7301.086,0.00014,0.0,0.0
5.053,7293.65,0.00014,0.0,0.0
5.06,7261.736,0.00014,0.0,0.0
5.066,7252.41,0.00014,0.0,0.0
5.072,7181.356,0.00014,0.0,0.0
5.079,7226.549,0.00014,0.0,0.0
5.085,7208.407,0.00014,0.0,0.0
5.091,7184.699,0.00014,0.0,0.0
5.098,7160.37,0.00014,0.0,0.0
5.104,7164.097,0.00014,0.0,0.0
5.11,7108.815,0.00014,0.0,0.0
5.117,7125.539,0.00014,0.0,0.0
5.123,7094.616,0.00014,0.0,0.0
5.129,7088.427,0.00014,0.0,0.0
5.136,7048.45,0.00014,0.0,0.0
5.142,7015.949,0.00014,0.0,0.0
5.148,7036.944,0.00014,0.0,0.0
5.154,6990.024,0.00014,0.0,0.0
5.161,6967.384,0.00014,0.0,0.0
5.167,6922.217,0.00014,0.0,0.0
5.173,6943.778,0.00014,0.0,0.0
5.18,6884.148,0.00015,0.0,0.0
5.186,6869.411,0.00015,0.0,0.0
5.192,6873.696,0.00015,0.0,0.0
5.199,6861.018,0.00015,0.0,0.0
5.205,6823.62,0.00015,0.0,0.0
5.211,6817.487,0.00015,0.0,0.0
5.218,6813.753,0.00015,0.0,0.0
5.224,6777.792,0.00015,0.0,0.0
5.23,6757.663,0.00015,0.0,0.0
5.237,6736.213,0.00015,0.0,0.0
5.243,6729.263,0.00015,0.0,0.0
5.249,6683.823,0.00015,0.0,0.0
5.256,6720.601,0.00015,0.0,0.0
5.262,6662.598,0.00015,0.0,0.0
5.268,6651.416,0.00015,0.0,0.0
5.275,6649.634,0.00015,0.0,0.0
5.281,6635.678,0.00015,0.0,0.0
5.287,6626.096,0.00015,0.0,0.0
5.294,6606.196,0.00015,0.0,0.0
5.3,6583.515,0.00015,0.0,0.0
5.306,6582.247,0.00015,0.0,0.0
5.312,6569.671,0.00015,0.0,0.0
5.319,6547.401,0.00015,0.0,0.0
5.325,6564.545,0.00015,0.0,0.0
5.331,6529.871,0.00015,0.0,0.0
5.338,6530.918,0.00015,0.0,0.0
5.344,6519.585,0.00015,0.0,0.0
5.35,6486.511,0.00015,0.0,0.0
5.357,6493.199,0.00015,0.0,0.0
5.363,6498.116,0.00015,0.0,0.0
5.369,6453.441,0.00015,0.0,0.0
5.376,6499.506,0.00015,0.0,0.0
5.382,6454.603,0.00015,0.0,0.0
5.388,6454.218,0.00015,0.0,0.0
5.395,6465.674,0.00015,0.0,0.0
5.401,6412.888,0.00016,0.0,0.0
5.407,6420.096,0.00016,0.0,0.0
5.414,6422.269,0.00016,0.0,0.0
5.42,6405.359,0.00016,0.0,0.0
5.426,6418.234,0.00016,0.0,0.0
5.433,6394.07,0.00016,0.0,0.0
5.439,6392.233,0.00016,0.0,0.0
5.445,6372.986,0.00016,0.0,0.0
5.452,6341.674,0.00016,0.0,0.0
5.458,6396.486,0.00016,0.0,0.0
5.464,6364.221,0.00016,0.0,0.0
5.47,6355.561,0.00016,0.0,0.0
5.477,6359.329,0.00016,0.0,0.0
5.483,6351.823,0.00016,0.0,0.0
5.489,6357.907,0.00016,0.0,0.0
5.496,6346.989,0.00016,0.0,0.0
5.502,6325.243,0.00016,0.0,0.0
5.508,6344.839,0.00016,0.0,0.0
5.515,6327.955,0.00016,0.0,0.0
5.521,6306.868,0.00016,0.0,0.0
5.527,6326.584,0.00016,0.0,0.0
5.534,6290.785,0.00016,0.0,0.0
5.54,6330.602,0.00016,0.0,0.0
5.546,6294.67,0.00016,0.0,0.0
5.553,6292.28,0.00016,0.0,0.0
5.559,6333.342,0.00016,0.0,0.0
5.565,6290.151,0.00016,0.0,0.0
5.572,6300.634,0.00016,0.0,0.0
5.578,6326.069,0.00016,0.0,0.0
5.584,6278.724,0.00016,0.0,0.0
5.591,6374.711,0.00016,0.0,0.0
5.597,6322.295,0.00016,0.0,0.0
5.603,6321.398,0.00016,0.0,0.0
5.61,6396.505,0.00016,0.0,0.0
5.616,6291.815,0.00016,0.0,0.0
5.622,6341.84,0.00016,0.0,0.0
5.628,6325.718,0.00016,0.0,0.0
5.635,6276.128,0.00016,0.0,0.0
5.641,6309.541,0.00016,0.0,0.0
5.647,6285.369,0.00016,0.0,0.0
5.654,6260.31,0.00016,0.0,0.0
5.66,6321.418,0.00016,0.0,0.0
5.666,6279.003,0.00016,0.0,0.0
5.673,6252.831,0.00016,0.0,0.0
5.679,6304.222,0.00016,0.0,0.0
5.685,6266.802,0.00016,0.0,0.0
5.692,6301.176,0.00016,0.0,0.0
5.698,6299.483,0.00016,0.0,0.0
5.704,6271.393,0.00016,0.0,0.0
5.711,6356.232,0.00016,0.0,0.0
5.717,6302.502,0.00016,0.0,0.0
5.723,6300.548,0.00016,0.0,0.0
5.73,6348.399,0.00016,0.0,0.0
5.736,6285.388,0.00016,0.0,0.0
5.742,6369.394,0.00016,0.0,0.0
5.749,6337.69,0.00016,0.0,0.0
5.755,6336.797,0.00016,0.0,0.0
5.761,6399.433,0.00016,0.0,0.0
5.768,6346.879,0.00016,0.0,0.0
5.774,6373.612,0.00016,0.0,0.0
5.78,6404.627,0.00016,0.0,0.0
5.786,6399.543,0.00016,0.0,0.0
5.793,6441.686,0.00016,0.0,0.0
5.799,6433.904,0.00016,0.0,0.0
5.805,6400.837,0.00016,0.0,0.0
5.812,6506.613,0.00015,0.0,0.0
5.818,6442.489,0.00016,0.0,0.0
5.824,6491.319,0.00015,0.0,0.0
5.831,6485.036,0.00015,0.0,0.0
5.837,6461.066,0.00015,0.0,0.0
5.843,6547.418,0.00015,0.0,0.0
5.85,6494.726,0.00015,0.0,0.0
5.856,6520.499,0.00015,0.0,0.0
5.862,6591.697,0.00015,0.0,0.0
5.869,6556.001,0.00015,0.0,0.0
5.875,6630.827,0.00015,0.0,0.0
5.881,6608.717,0.00015,0.0,0.0
5.888,6516.957,0.00015,0.0,0.0
5.894,6537.128,0.00015,0.0,0.0
5.9,6404.625,0.00016,0.0,0.0
5.907,6346.436,0.00016,0.0,0.0
5.913,6372.372,0.00016,0.0,0.0
5.919,6260.523,0.00016,0.0,0.0
5.926,6321.412,0.00016,0.0,0.0
5.932,6256.345,0.00016,0.0,0.0
5.938,6196.062,0.00016,0.0,0.0
5.944,6264.188,0.00016,0.0,0.0
5.951,6159.48,0.00016,0.0,0.0
5.957,6176.245,0.00016,0.0,0.0
5.963,6193.488,0.00016,0.0,0.0
5.97,6103.784,0.00016,0.0,0.0
5.976,6168.0,0.00016,0.0,0.0
5.982,6108.563,0.00016,0.0,0.0
5.989,6054.867,0.00017,0.0,0.0
5.995,6164.575,0.00016,0.0,0.0
6.001,6046.055,0.00017,0.0,0.0
6.008,6062.604,0.00016,0.0,0.0
6.014,6087.007,0.00016,0.0,0.0
6.02,6012.997,0.00017,0.0,0.0
6.027,6106.976,0.00016,0.0,0.0
6.033,6038.102,0.00017,0.0,0.0
6.039,5955.662,0.00017,0.0,0.0
6.046,6092.944,0.00016,0.0,0.0
6.052,5994.294,0.00017,0.0,0.0
6.058,6024.855,0.00017,0.0,0.0
6.065,6023.304,0.00017,0.0,0.0
6.071,5940.06,0.00017,0.0,0.0
6.077,6031.366,0.00017,0.0,0.0
6.084,5961.786,0.00017,0.0,0.0
6.09,5943.065,0.00017,0.0,0.0
6.096,6023.454,0.00017,0.0,0.0
6.102,5925.126,0.00017,0.0,0.0
6.109,6015.477,0.00017,0.0,0.0
6.115,5978.596,0.00017,0.0,0.0
6.121,5917.742,0.00017,0.0,0.0
6.128,6035.061,0.00017,0.0,0.0
6.134,5940.606,0.00017,0.0,0.0
6.14,5947.81,0.00017,0.0,0.0
6.147,6019.674,0.00017,0.0,0.0
6.153,5925.218,0.00017,0.0,0.0
6.159,6024.031,0.00017,0.0,0.0
6.166,5953.293,0.00017,0.0,0.0
6.172,5911.546,0.00017,0.0,0.0
6.178,6044.507,0.00017,0.0,0.0
6.185,5948.41,0.00017,0.0,0.0
6.191,5967.452,0.00017,0.0,0.0
6.197,6003.065,0.00017,0.0,0.0
6.204,5936.808,0.00017,0.0,0.0
6.21,6040.661,0.00017,0.0,0.0
6.216,5965.141,0.00017,0.0,0.0
6.223,5930.265,0.00017,0.0,0.0
6.229,6071.29,0.00016,0.0,0.0
6.235,5954.364,0.00017,0.0,0.0
6.242,6007.954,0.00017,0.0,0.0
6.248,6017.384,0.00017,0.0,0.0
6.254,5955.846,0.00017,0.0,0.0
6.26,6016.042,0.00017,0.0,0.0
6.267,5956.911,0.00017,0.0,0.0
6.273,5946.972,0.00017,0.0,0.0
6.279,6058.721,0.00017,0.0,0.0
6.286,5949.889,0.00017,0.0,0.0
6.292,6002.01,0.00017,0.0,0.0
6.298,6005.031,0.00017,0.0,0.0
6.305,5947.684,0.00017,0.0,0.0
6.311,6050.957,0.00017,0.0,0.0
6.317,5984.851,0.00017,0.0,0.0
6.324,5955.533,0.00017,0.0,0.0
6.33,6087.685,0.00016,0.0,0.0
6.336,5995.549,0.00017,0.0,0.0
6.343,6050.866,0.00017,0.0,0.0
6.349,6059.632,0.00017,0.0,0.0
6.355,6031.839,0.00017,0.0,0.0
6.362,6122.897,0.00016,0.0,0.0
6.368,6086.884,0.00016,0.0,0.0
6.374,6100.887,0.00016,0.0,0.0
6.381,6169.041,0.00016,0.0,0.0
6.387,6100.523,0.00016,0.0,0.0
6.393,6173.339,0.00016,0.0,0.0
6.4,6202.591,0.00016,0.0,0.0
6.406,6174.313,0.00016,0.0,0.0
6.412,6279.894,0.00016,0.0,0.0
6.418,6250.774,0.00016,0.0,0.0
6.425,6280.72,0.00016,0.0,0.0
6.431,6369.924,0.00016,0.0,0.0
6.437,6341.54,0.00016,0.0,0.0
6.444,6527.048,0.00015,0.0,0.0
6.45,6532.003,0.00015,0.0,0.0
6.456,6517.168,0.00015,0.0,0.0
6.463,6686.328,0.00015,0.0,0.0
6.469,6553.441,0.00015,0.0,0.0
6.475,6616.933,0.00015,0.0,0.0
6.482,6668.57,0.00015,0.0,0.0
6.488,6641.978,0.00015,0.0,0.0
6.494,6805.792,0.00015,0.0,0.0
6.501,6806.085,0.00015,0.0,0.0
6.507,6823.886,0.00015,0.0,0.0
6.513,7024.212,0.00014,0.0,0.0
6.52,6991.065,0.00014,0.0,0.0
6.526,7169.844,0.00014,0.0,0.0
6.532,7292.143,0.00014,0.0,0.0
6.539,7427.577,0.00013,0.0,0.0
6.545,7765.116,0.00013,0.0,0.0
6.551,8102.582,0.00012,0.0,0.0
6.558,8748.629,0.00011,0.0,0.0
6.564,9846.59,0.0001,0.0,0.0
6.57,11584.184,0.00009,0.0,0.0
6.576,14873.158,0.00007,0.0,0.0
6.583,20391.76,0.00005,0.0,0.0
6.589,34937.37,0.00003,0.0,0.0
6.595,49411.946,0.00002,0.0,0.0
6.602,72409.171,0.00001,0.0,0.0
6.608,98217.427,0.00001,0.0,0.0
6.614,109654.049,0.00001,0.0,0.0
6.621,99790.848,0.00001,0.0,0.0
6.627,86493.782,0.00001,0.0,0.0
6.633,59633.544,0.00002,0.0,0.0
6.64,37431.25,0.00003,0.0,0.0
6.646,23242.311,0.00004,0.0,0.0
6.652,15978.548,0.00006,0.0,0.0
6.659,11953.36,0.00008,0.0,0.0
6.665,9814.219,0.0001,0.0,0.0
6.671,8572.465,0.00012,0.0,0.0
6.678,7867.611,0.00013,0.0,0.0
6.684,7396.263,0.00014,0.0,0.0
6.69,7039.387,0.00014,0.0,0.0
6.697,6932.117,0.00014,0.0,0.0
6.703,6696.13,0.00015,0.0,0.0
6.709,6615.264,0.00015,0.0,0.0
6.716,6514.931,0.00015,0.0,0.0
6.722,6401.541,0.00016,0.0,0.0
6.728,6433.544,0.00016,0.0,0.0
6.734,6363.548,0.00016,0.0,0.0
6.741,6321.04,0.00016,0.0,0.0
6.747,6364.719,0.00016,0.0,0.0
6.753,6293.05,0.00016,0.0,0.0
6.76,6280.541,0.00016,0.0,0.0
6.766,6271.045,0.00016,0.0,0.0
6.772,6209.369,0.00016,0.0,0.0
6.779,6301.508,0.00016,0.0,0.0
6.785,6230.716,0.00016,0.0,0.0
6.791,6241.43,0.00016,0.0,0.0
6.798,6268.615,0.00016,0.0,0.0
6.804,6166.973,0.00016,0.0,0.0
6.81,6231.916,0.00016,0.0,0.0
6.817,6212.163,0.00016,0.0,0.0
6.823,6177.36,0.00016,0.0,0.0
6.829,6270.754,0.00016,0.0,0.0
6.836,6175.527,0.00016,0.0,0.0
6.842,6197.933,0.00016,0.0,0.0
6.848,6232.148,0.00016,0.0,0.0
6.855,6161.049,0.00016,0.0,0.0
6.861,6224.311,0.00016,0.0,0.0
6.867,6201.756,0.00016,0.0,0.0
6.874,6165.295,0.00016,0.0,0.0
6.88,6274.515,0.00016,0.0,0.0
6.886,6198.442,0.00016,0.0,0.0
6.892,6214.301,0.00016,0.0,0.0
6.899,6215.687,0.00016,0.0,0.0
6.905,6182.723,0.00016,0.0,0.0
6.911,6265.668,0.00016,0.0,0.0
6.918,6208.813,0.00016,0.0,0.0
6.924,6191.744,0.00016,0.0,0.0
6.93,6282.101,0.00016,0.0,0.0
6.937,6230.119,0.00016,0.0,0.0
6.943,6274.947,0.00016,0.0,0.0
6.949,6260.502,0.00016,0.0,0.0
6.956,6217.808,0.00016,0.0,0.0
6.962,6293.497,0.00016,0.0,0.0
6.968,6263.812,0.00016,0.0,0.0
6.975,6279.666,0.00016,0.0,0.0
6.981,6315.276,0.00016,0.0,0.0
6.987,6284.003,0.00016,0.0,0.0
6.994,6336.807,0.00016,0.0,0.0
7.0,6311.396,0.00016,0.0,0.0
7.006,6303.996,0.00016,0.0,0.0
7.013,6363.029,0.00016,0.0,0.0
7.019,6321.317,0.00016,0.0,0.0
7.025,6348.037,0.00016,0.0,0.0
7.032,6375.083,0.00016,0.0,0.0
7.038,6361.408,0.00016,0.0,0.0
7.044,6430.813,0.00016,0.0,0.0
7.05,6406.964,0.00016,0.0,0.0
7.057,6391.994,0.00016,0.0,0.0
7.063,6479.992,0.00015,0.0,0.0
7.069,6448.888,0.00016,0.0,0.0
7.076,6476.019,0.00015,0.0,0.0
7.082,6483.137,0.00015,0.0,0.0
7.088,6481.941,0.00015,0.0,0.0
7.095,6531.466,0.00015,0.0,0.0
7.101,6520.739,0.00015,0.0,0.0
7.107,6517.618,0.00015,0.0,0.0
7.114,6585.229,0.00015,0.0,0.0
7.12,6567.689,0.00015,0.0,0.0
7.126,6603.098,0.00015,0.0,0.0
7.133,6602.555,0.00015,0.0,0.0
7.139,6611.606,0.00015,0.0,0.0
7.145,6653.648,0.00015,0.0,0.0
7.152,6636.893,0.00015,0.0,0.0
7.158,6685.402,0.00015,0.0,0.0
7.164,6681.376,0.00015,0.0,0.0
7.171,6675.945,0.00015,0.0,0.0
7.177,6700.432,0.00015,0.0,0.0
7.183,6710.886,0.00015,0.0,0.0
7.19,6692.207,0.00015,0.0,0.0
7.196,6750.743,0.00015,0.0,0.0
7.202,6742.749,0.00015,0.0,0.0
7.208,6738.85,0.00015,0.0,0.0
7.215,6764.269,0.00015,0.0,0.0
7.221,6746.521,0.00015,0.0,0.0
7.227,6765.823,0.00015,0.0,0.0
7.234,6767.767,0.00015,0.0,0.0
7.24,6760.482,0.00015,0.0,0.0
7.246,6764.478,0.00015,0.0,0.0
7.253,6773.152,0.00015,0.0,0.0
7.259,6759.793,0.00015,0.0,0.0
7.265,6776.451,0.00015,0.0,0.0
7.272,6736.236,0.00015,0.0,0.0
7.278,6764.631,0.00015,0.0,0.0
7.284,6775.753,0.00015,0.0,0.0
7.291,6755.451,0.00015,0.0,0.0
7.297,6756.121,0.00015,0.0,0.0
7.303,6749.947,0.00015,0.0,0.0
7.31,6740.289,0.00015,0.0,0.0
7.316,6761.571,0.00015,0.0,0.0
7.322,6733.918,0.00015,0.0,0.0
7.329,6750.968,0.00015,0.0,0.0
7.335,6738.423,0.00015,0.0,0.0
7.341,6711.208,0.00015,0.0,0.0
7.348,6756.5,0.00015,0.0,0.0
7.354,6721.057,0.00015,0.0,0.0
7.36,6729.562,0.00015,0.0,0.0
7.366,6739.914,0.00015,0.0,0.0
7.373,6730.322,0.00015,0.0,0.0
7.379,6727.167,0.00015,0.0,0.0
7.385,6784.89,0.00015,0.0,0.0
7.392,6731.204,0.00015,0.0,0.0
7.398,6751.218,0.00015,0.0,0.0
7.404,6739.612,0.00015,0.0,0.0
7.411,6765.568,0.00015,0.0,0.0
7.417,6793.749,0.00015,0.0,0.0
7.423,6751.254,0.00015,0.0,0.0
7.43,6794.326,0.00015,0.0,0.0
7.436,6827.7,0.00015,0.0,0.0
7.442,6805.407,0.00015,0.0,0.0
7.449,6834.534,0.00015,0.0,0.0
7.455,6850.63,0.00015,0.0,0.0
7.461,6853.937,0.00015,0.0,0.0
7.468,6904.306,0.00014,0.0,0.0
7.474,6900.595,0.00014,0.0,0.0
7.48,6913.275,0.00014,0.0,0.0
7.487,6942.74,0.00014,0.0,0.0
7.493,6919.091,0.00014,0.0,0.0
7.499,7008.491,0.00014,0.0,0.0
7.506,7015.291,0.00014,0.0,0.0
7.512,7017.273,0.00014,0.0,0.0
7.518,7095.93,0.00014,0.0,0.0
7.524,7067.217,0.00014,0.0,0.0
7.531,7122.147,0.00014,0.0,0.0
7.537,7209.043,0.00014,0.0,0.0
7.543,7199.191,0.00014,0.0,0.0
7.55,7308.858,0.00014,0.0,0.0
7.556,7385.145,0.00014,0.0,0.0
7.562,7449.575,0.00013,0.0,0.0
7.569,7638.319,0.00013,0.0,0.0
7.575,7820.512,0.00013,0.0,0.0
7.581,8150.161,0.00012,0.0,0.0
7.588,8646.196,0.00012,0.0,0.0
7.594,9554.487,0.0001,0.0,0.0
7.6,11015.017,0.00009,0.0,0.0
7.607,13949.327,0.00007,0.0,0.0
7.613,18480.781,0.00005,0.0,0.0
7.619,24978.76,0.00004,0.0,0.0
7.626,37231.583,0.00003,0.0,0.0
7.632,43590.241,0.00002,0.0,0.0
7.638,53147.312,0.00002,0.0,0.0
7.645,49199.546,0.00002,0.0,0.0
7.651,41563.192,0.00002,0.0,0.0
7.657,33626.833,0.00003,0.0,0.0
7.664,23903.342,0.00004,0.0,0.0
7.67,16316.598,0.00006,0.0,0.0
7.676,12857.808,0.00008,0.0,0.0
7.682,10603.152,0.00009,0.0,0.0
7.689,9300.977,0.00011,0.0,0.0
7.695,8627.233,0.00012,0.0,0.0
7.701,8309.48,0.00012,0.0,0.0
7.708,8028.334,0.00012,0.0,0.0
7.714,7953.517,0.00013,0.0,0.0
7.72,7862.643,0.00013,0.0,0.0
7.727,7727.723,0.00013,0.0,0.0
7.733,7819.654,0.00013,0.0,0.0
7.739,7724.475,0.00013,0.0,0.0
7.746,7703.706,0.00013,0.0,0.0
7.752,7806.425,0.00013,0.0,0.0
7.758,7728.296,0.00013,0.0,0.0
7.765,7752.544,0.00013,0.0,0.0
7.771,7792.495,0.00013,0.0,0.0
7.777,7791.719,0.00013,0.0,0.0
7.784,7855.982,0.00013,0.0,0.0
7.79,7857.565,0.00013,0.0,0.0
7.796,7929.193,0.00013,0.0,0.0
7.803,8015.914,0.00012,0.0,0.0
7.809,8041.702,0.00012,0.0,0.0
7.815,8136.332,0.00012,0.0,0.0
7.822,8260.428,0.00012,0.0,0.0
7.828,8296.771,0.00012,0.0,0.0
7.834,8556.048,0.00012,0.0,0.0
7.84,8517.258,0.00012,0.0,0.0
7.847,9013.951,0.00011,0.0,0.0
7.853,9722.93,0.0001,0.0,0.0
7.859,10943.22,0.00009,0.0,0.0
7.866,12446.388,0.00008,0.0,0.0
7.872,12700.988,0.00008,0.0,0.0
7.878,12695.759,0.00008,0.0,0.0
7.885,13424.355,0.00007,0.0,0.0
7.891,15905.01,0.00006,0.0,0.0
7.897,15314.863,0.00007,0.0,0.0
7.904,17904.923,0.00006,0.0,0.0
7.91,15748.582,0.00006,0.0,0.0
7.916,14107.13,0.00007,0.0,0.0
7.923,14250.855,0.00007,0.0,0.0
7.929,12106.579,0.00008,0.0,0.0
7.935,11160.596,0.00009,0.0,0.0
7.942,10008.835,0.0001,0.0,0.0
7.948,9749.455,0.0001,0.0,0.0
7.954,9396.131,0.00011,0.0,0.0
7.961,8900.755,0.00011,0.0,0.0
7.967,9024.789,0.00011,0.0,0.0
7.973,8657.857,0.00012,0.0,0.0
7.98,8680.475,0.00012,0.0,0.0
7.986,8703.637,0.00011,0.0,0.0
7.992,8399.253,0.00012,0.0,0.0
7.998,8455.11,0.00012,0.0,0.0
8.005,8393.18,0.00012,0.0,0.0
8.011,8339.686,0.00012,0.0,0.0
8.017,8386.888,0.00012,0.0,0.0
8.024,8170.003,0.00012,0.0,0.0
8.03,8265.311,0.00012,0.0,0.0
8.036,8206.861,0.00012,0.0,0.0
8.043,8034.679,0.00012,0.0,0.0
8.049,8266.257,0.00012,0.0,0.0
8.055,8076.984,0.00012,0.0,0.0
8.062,8066.121,0.00012,0.0,0.0
8.068,8095.988,0.00012,0.0,0.0
8.074,7943.613,0.00013,0.0,0.0
8.081,8084.256,0.00012,0.0,0.0
8.087,7973.468,0.00013,0.0,0.0
8.093,7902.183,0.00013,0.0,0.0
8.1,8086.852,0.00012,0.0,0.0
8.106,7853.238,0.00013,0.0,0.0
8.112,8021.387,0.00012,0.0,0.0
8.119,7918.121,0.00013,0.0,0.0
8.125,7825.253,0.00013,0.0,0.0
8.131,8005.774,0.00012,0.0,0.0
8.138,7886.111,0.00013,0.0,0.0
8.144,7884.424,0.00013,0.0,0.0
8.15,7884.768,0.00013,0.0,0.0
8.156,7768.962,0.00013,0.0,0.0
8.163,7835.896,0.00013,0.0,0.0
8.169,7782.236,0.00013,0.0,0.0
8.175,7609.718,0.00013,0.0,0.0
8.182,7872.858,0.00013,0.0,0.0
8.188,7644.418,0.00013,0.0,0.0
8.194,7739.786,0.00013,0.0,0.0
8.201,7630.298,0.00013,0.0,0.0
8.207,7586.663,0.00013,0.0,0.0
8.213,7653.275,0.00013,0.0,0.0
8.22,7562.679,0.00013,0.0,0.0
8.226,7522.966,0.00013,0.0,0.0
8.232,7546.343,0.00013,0.0,0.0
8.239,7489.644,0.00013,0.0,0.0
8.245,7488.883,0.00013,0.0,0.0
8.251,7483.061,0.00013,0.0,0.0
8.258,7305.11,0.00014,0.0,0.0
8.264,7487.406,0.00013,0.0,0.0
8.27,7356.226,0.00014,0.0,0.0
8.277,7379.661,0.00014,0.0,0.0
8.283,7331.372,0.00014,0.0,0.0
8.289,7271.762,0.00014,0.0,0.0
8.296,7300.625,0.00014,0.0,0.0
8.302,7262.971,0.00014,0.0,0.0
8.308,7195.578,0.00014,0.0,0.0
8.314,7243.251,0.00014,0.0,0.0
8.321,7179.578,0.00014,0.0,0.0
8.327,7153.61,0.00014,0.0,0.0
8.333,7190.933,0.00014,0.0,0.0
8.34,7041.502,0.00014,0.0,0.0
8.346,7133.005,0.00014,0.0,0.0
8.352,7060.171,0.00014,0.0,0.0
8.359,7052.767,0.00014,0.0,0.0
8.365,7040.627,0.00014,0.0,0.0
8.371,6974.741,0.00014,0.0,0.0
8.378,7012.483,0.00014,0.0,0.0
8.384,6961.688,0.00014,0.0,0.0
8.39,6910.631,0.00014,0.0,0.0
8.397,6933.818,0.00014,0.0,0.0
8.403,6921.727,0.00014,0.0,0.0
8.409,6865.7,0.00015,0.0,0.0
8.416,6908.137,0.00014,0.0,0.0
8.422,6815.493,0.00015,0.0,0.0
8.428,6864.818,0.00015,0.0,0.0
8.435,6802.72,0.00015,0.0,0.0
8.441,6802.074,0.00015,0.0,0.0
8.447,6805.782,0.00015,0.0,0.0
8.454,6785.582,0.00015,0.0,0.0
8.46,6774.871,0.00015,0.0,0.0
8.466,6755.936,0.00015,0.0,0.0
8.472,6713.208,0.00015,0.0,0.0
8.479,6719.677,0.00015,0.0,0.0
8.485,6724.963,0.00015,0.0,0.0
8.491,6684.279,0.00015,0.0,0.0
8.498,6710.688,0.00015,0.0,0.0
8.504,6660.571,0.00015,0.0,0.0
8.51,6679.168,0.00015,0.0,0.0
8.517,6667.695,0.00015,0.0,0.0
8.523,6642.435,0.00015,0.0,0.0
8.529,6618.462,0.00015,0.0,0.0
8.536,6637.165,0.00015,0.0,0.0
8.542,6598.964,0.00015,0.0,0.0
8.548,6580.89,0.00015,0.0,0.0
8.555,6565.852,0.00015,0.0,0.0
8.561,6558.264,0.00015,0.0,0.0
8.567,6557.684,0.00015,0.0,0.0
8.574,6527.041,0.00015,0.0,0.0
8.58,6536.208,0.00015,0.0,0.0
8.586,6503.265,0.00015,0.0,0.0
8.593,6510.924,0.00015,0.0,0.0
8.599,6501.599,0.00015,0.0,0.0
8.605,6463.528,0.00015,0.0,0.0
8.612,6483.562,0.00015,0.0,0.0
8.618,6471.963,0.00015,0.0,0.0
8.624,6469.762,0.00015,0.0,0.0
8.63,6454.411,0.00015,0.0,0.0
8.637,6419.467,0.00016,0.0,0.0
8.643,6408.605,0.00016,0.0,0.0
8.649,6428.106,0.00016,0.0,0.0
8.656,6383.022,0.00016,0.0,0.0
8.662,6404.669,0.00016,0.0,0.0
8.668,6386.681,0.00016,0.0,0.0
8.675,6375.487,0.00016,0.0,0.0
8.681,6388.15,0.00016,0.0,0.0
8.687,6370.977,0.00016,0.0,0.0
8.694,6367.736,0.00016,0.0,0.0
8.7,6358.205,0.00016,0.0,0.0
8.706,6339.771,0.00016,0.0,0.0
8.713,6367.263,0.00016,0.0,0.0
8.719,6343.716,0.00016,0.0,0.0
8.725,6311.692,0.00016,0.0,0.0
8.732,6352.81,0.00016,0.0,0.0
8.738,6299.968,0.00016,0.0,0.0
8.744,6296.59,0.00016,0.0,0.0
8.751,6319.932,0.00016,0.0,0.0
8.757,6288.994,0.00016,0.0,0.0
8.763,6315.865,0.00016,0.0,0.0
8.77,6276.806,0.00016,0.0,0.0
8.776,6288.249,0.00016,0.0,0.0
8.782,6291.849,0.00016,0.0,0.0
8.788,6239.092,0.00016,0.0,0.0
8.795,6266.657,0.00016,0.0,0.0
8.801,6272.943,0.00016,0.0,0.0
8.807,6237.591,0.00016,0.0,0.0
8.814,6256.514,0.00016,0.0,0.0
8.82,6222.383,0.00016,0.0,0.0
8.826,6224.605,0.00016,0.0,0.0
8.833,6241.227,0.00016,0.0,0.0
8.839,6223.523,0.00016,0.0,0.0
8.845,6216.91,0.00016,0.0,0.0
8.852,6203.527,0.00016,0.0,0.0
8.858,6200.992,0.00016,0.0,0.0
8.864,6229.549,0.00016,0.0,0.0
8.871,6190.956,0.00016,0.0,0.0
8.877,6198.398,0.00016,0.0,0.0
8.883,6188.819,0.00016,0.0,0.0
8.89,6195.073,0.00016,0.0,0.0
8.896,6200.317,0.00016,0.0,0.0
8.902,6206.926,0.00016,0.0,0.0
8.909,6157.404,0.00016,0.0,0.0
8.915,6204.193,0.00016,0.0,0.0
8.921,6185.78,0.00016,0.0,0.0
8.928,6211.148,0.00016,0.0,0.0
8.934,6184.477,0.00016,0.0,0.0
8.94,6186.45,0.00016,0.0,0.0
8.946,6213.973,0.00016,0.0,0.0
8.953,6196.818,0.00016,0.0,0.0
8.959,6218.532,0.00016,0.0,0.0
8.965,6187.292,0.00016,0.0,0.0
8.972,6198.055,0.00016,0.0,0.0
8.978,6237.074,0.00016,0.0,0.0
8.984,6238.793,0.00016,0.0,0.0
8.991,6222.72,0.00016,0.0,0.0
8.997,6222.495,0.00016,0.0,0.0
9.003,6237.383,0.00016,0.0,0.0
9.01,6268.369,0.00016,0.0,0.0
9.016,6294.179,0.00016,0.0,0.0
9.022,6254.118,0.00016,0.0,0.0
9.029,6308.138,0.00016,0.0,0.0
9.035,6289.531,0.00016,0.0,0.0
9.041,6321.201,0.00016,0.0,0.0
9.048,6370.957,0.00016,0.0,0.0
9.054,6327.514,0.00016,0.0,0.0
9.06,6395.294,0.00016,0.0,0.0
9.067,6396.407,0.00016,0.0,0.0
9.073,6424.478,0.00016,0.0,0.0
9.079,6445.379,0.00016,0.0,0.0
9.086,6447.91,0.00016,0.0,0.0
9.092,6483.614,0.00015,0.0,0.0
9.098,6552.713,0.00015,0.0,0.0
9.104,6600.778,0.00015,0.0,0.0
9.111,6933.543,0.00014,0.0,0.0
9.117,6854.82,0.00015,0.0,0.0
9.123,7035.04,0.00014,0.0,0.0
9.13,6868.406,0.00015,0.0,0.0
9.136,6694.1,0.00015,0.0,0.0
9.142,6667.316,0.00015,0.0,0.0
9.149,6574.32,0.00015,0.0,0.0
9.155,6543.426,0.00015,0.0,0.0
9.161,6542.058,0.00015,0.0,0.0
9.168,6483.565,0.00015,0.0,0.0
9.174,6457.318,0.00015,0.0,0.0
9.18,6448.759,0.00016,0.0,0.0
9.187,6435.632,0.00016,0.0,0.0
9.193,6447.755,0.00016,0.0,0.0
9.199,6424.271,0.00016,0.0,0.0
9.206,6373.555,0.00016,0.0,0.0
9.212,6441.799,0.00016,0.0,0.0
9.218,6383.814,0.00016,0.0,0.0
9.225,6355.998,0.00016,0.0,0.0
9.231,6283.345,0.00016,0.0,0.0
9.237,6329.203,0.00016,0.0,0.0
9.244,6321.441,0.00016,0.0,0.0
9.25,6286.75,0.00016,0.0,0.0
9.256,6256.085,0.00016,0.0,0.0
9.262,6249.373,0.00016,0.0,0.0
9.269,6210.694,0.00016,0.0,0.0
9.275,6254.41,0.00016,0.0,0.0
9.281,6208.736,0.00016,0.0,0.0
9.288,6175.796,0.00016,0.0,0.0
9.294,6194.637,0.00016,0.0,0.0
9.3,6145.912,0.00016,0.0,0.0
9.307,6199.118,0.00016,0.0,0.0
9.313,6122.659,0.00016,0.0,0.0
9.319,6097.007,0.00016,0.0,0.0
9.326,6124.856,0.00016,0.0,0.0
9.332,6079.761,0.00016,0.0,0.0
9.338,6067.146,0.00016,0.0,0.0
9.345,6052.075,0.00017,0.0,0.0
9.351,6044.998,0.00017,0.0,0.0
9.357,6007.546,0.00017,0.0,0.0
9.364,6011.021,0.00017,0.0,0.0
9.37,5984.916,0.00017,0.0,0.0
9.376,6004.857,0.00017,0.0,0.0
9.383,5935.267,0.00017,0.0,0.0
9.389,5961.076,0.00017,0.0,0.0
9.395,5922.584,0.00017,0.0,0.0
9.402,5894.521,0.00017,0.0,0.0
9.408,5862.249,0.00017,0.0,0.0
9.414,5856.756,0.00017,0.0,0.0
9.42,5844.543,0.00017,0.0,0.0
9.427,5824.239,0.00017,0.0,0.0
9.433,5814.408,0.00017,0.0,0.0
9.439,5788.986,0.00017,0.0,0.0
9.446,5784.86,0.00017,0.0,0.0
9.452,5743.756,0.00017,0.0,0.0
9.458,5768.469,0.00017,0.0,0.0
9.465,5731.779,0.00017,0.0,0.0
9.471,5729.545,0.00017,0.0,0.0
9.477,5716.525,0.00017,0.0,0.0
9.484,5708.448,0.00018,0.0,0.0
9.49,5709.421,0.00018,0.0,0.0
9.496,5665.189,0.00018,0.0,0.0
9.503,5662.496,0.00018,0.0,0.0
9.509,5629.239,0.00018,0.0,0.0
9.515,5647.611,0.00018,0.0,0.0
9.522,5607.825,0.00018,0.0,0.0
9.528,5613.986,0.00018,0.0,0.0
9.534,5581.364,0.00018,0.0,0.0
9.541,5592.249,0.00018,0.0,0.0
9.547,5577.534,0.00018,0.0,0.0
9.553,5565.655,0.00018,0.0,0.0
9.56,5537.03,0.00018,0.0,0.0
9.566,5541.081,0.00018,0.0,0.0
9.572,5553.552,0.00018,0.0,0.0
9.578,5521.444,0.00018,0.0,0.0
9.585,5504.949,0.00018,0.0,0.0
9.591,5497.697,0.00018,0.0,0.0
9.597,5522.62,0.00018,0.0,0.0
9.604,5489.043,0.00018,0.0,0.0
9.61,5491.662,0.00018,0.0,0.0
9.616,5461.312,0.00018,0.0,0.0
9.623,5463.256,0.00018,0.0,0.0
9.629,5462.186,0.00018,0.0,0.0
9.635,5463.801,0.00018,0.0,0.0
9.642,5463.299,0.00018,0.0,0.0
9.648,5437.356,0.00018,0.0,0.0
9.654,5446.707,0.00018,0.0,0.0
9.661,5423.079,0.00018,0.0,0.0
9.667,5422.19,0.00018,0.0,0.0
9.673,5404.112,0.00019,0.0,0.0
9.68,5421.189,0.00018,0.0,0.0
9.686,5393.829,0.00019,0.0,0.0
9.692,5400.176,0.00019,0.0,0.0
9.699,5379.667,0.00019,0.0,0.0
9.705,5387.748,0.00019,0.0,0.0
9.711,5394.788,0.00019,0.0,0.0
9.718,5392.012,0.00019,0.0,0.0
9.724,5373.651,0.00019,0.0,0.0
9.73,5372.212,0.00019,0.0,0.0
9.736,5397.185,0.00019,0.0,0.0
9.743,5369.71,0.00019,0.0,0.0
9.749,5381.565,0.00019,0.0,0.0
9.755,5345.969,0.00019,0.0,0.0
9.762,5364.879,0.00019,0.0,0.0
9.768,5358.909,0.00019,0.0,0.0
9.774,5348.181,0.00019,0.0,0.0
9.781,5358.401,0.00019,0.0,0.0
9.787,5344.953,0.00019,0.0,0.0
9.793,5367.195,0.00019,0.0,0.0
9.8,5334.79,0.00019,0.0,0.0
9.806,5362.528,0.00019,0.0,0.0
9.812,5356.25,0.00019,0.0,0.0
9.819,5364.057,0.00019,0.0,0.0
9.825,5344.606,0.00019,0.0,0.0
9.831,5352.469,0.00019,0.0,0.0
9.838,5336.869,0.00019,0.0,0.0
9.844,5332.791,0.00019,0.0,0.0
9.85,5348.883,0.00019,0.0,0.0
9.857,5335.95,0.00019,0.0,0.0
9.863,5353.141,0.00019,0.0,0.0
9.869,5326.972,0.00019,0.0,0.0
9.876,5341.53,0.00019,0.0,0.0
9.882,5318.487,0.00019,0.0,0.0
9.888,5330.529,0.00019,0.0,0.0
9.894,5327.099,0.00019,0.0,0.0
9.901,5312.477,0.00019,0.0,0.0
9.907,5306.667,0.00019,0.0,0.0
9.913,5324.289,0.00019,0.0,0.0
9.92,5332.411,0.00019,0.0,0.0
9.926,5296.558,0.00019,0.0,0.0
9.932,5300.561,0.00019,0.0,0.0
9.939,5301.797,0.00019,0.0,0.0
9.945,5319.163,0.00019,0.0,0.0
9.951,5297.369,0.00019,0.0,0.0
9.958,5306.678,0.00019,0.0,0.0
9.964,5309.209,0.00019,0.0,0.0
9.97,5275.148,0.00019,0.0,0.0
9.977,5294.218,0.00019,0.0,0.0
9.983,5263.494,0.00019,0.0,0.0
9.989,5291.855,0.00019,0.0,0.0
9.996,5286.076,0.00019,0.0,0.0
10.002,5282.024,0.00019,0.0,0.0
10.008,5290.659,0.00019,0.0,0.0
10.015,5282.178,0.00019,0.0,0.0
10.021,5287.296,0.00019,0.0,0.0
10.027,5272.652,0.00019,0.0,0.0
10.034,5281.58,0.00019,0.0,0.0
10.04,5289.528,0.00019,0.0,0.0
10.046,5297.71,0.00019,0.0,0.0
10.052,5274.003,0.00019,0.0,0.0
10.059,5317.018,0.00019,0.0,0.0
10.065,5287.774,0.00019,0.0,0.0
10.071,5279.103,0.00019,0.0,0.0
10.078,5285.823,0.00019,0.0,0.0
10.084,5300.181,0.00019,0.0,0.0
10.09,5302.85,0.00019,0.0,0.0
10.097,5294.752,0.00019,0.0,0.0
10.103,5294.117,0.00019,0.0,0.0
10.109,5307.579,0.00019,0.0,0.0
10.116,5315.408,0.00019,0.0,0.0
10.122,5280.322,0.00019,0.0,0.0
10.128,5276.663,0.00019,0.0,0.0
10.135,5296.776,0.00019,0.0,0.0
10.141,5286.742,0.00019,0.0,0.0
10.147,5287.927,0.00019,0.0,0.0
10.154,5295.19,0.00019,0.0,0.0
10.16,5288.708,0.00019,0.0,0.0
10.166,5302.577,0.00019,0.0,0.0
10.173,5307.417,0.00019,0.0,0.0
10.179,5324.37,0.00019,0.0,0.0
10.185,5352.162,0.00019,0.0,0.0
10.192,5372.651,0.00019,0.0,0.0
10.198,5433.447,0.00018,0.0,0.0
10.204,5398.182,0.00019,0.0,0.0
10.21,5396.599,0.00019,0.0,0.0
10.217,5340.882,0.00019,0.0,0.0
10.223,5379.434,0.00019,0.0,0.0
10.229,5333.437,0.00019,0.0,0.0
10.236,5308.508,0.00019,0.0,0.0
10.242,5300.206,0.00019,0.0,0.0
10.248,5306.55,0.00019,0.0,0.0
10.255,5265.84,0.00019,0.0,0.0
10.261,5270.648,0.00019,0.0,0.0
10.267,5266.441,0.00019,0.0,0.0
10.274,5294.276,0.00019,0.0,0.0
10.28,5293.798,0.00019,0.0,0.0
10.286,5271.284,0.00019,0.0,0.0
10.293,5273.689,0.00019,0.0,0.0
10.299,5237.226,0.00019,0.0,0.0
10.305,5261.761,0.00019,0.0,0.0
10.312,5285.701,0.00019,0.0,0.0
10.318,5264.848,0.00019,0.0,0.0
10.324,5256.837,0.00019,0.0,0.0
10.331,5257.967,0.00019,0.0,0.0
10.337,5271.093,0.00019,0.0,0.0
10.343,5251.527,0.00019,0.0,0.0
10.35,5262.007,0.00019,0.0,0.0
10.356,5229.614,0.00019,0.0,0.0
10.362,5258.535,0.00019,0.0,0.0
10.368,5252.888,0.00019,0.0,0.0
10.375,5240.404,0.00019,0.0,0.0
10.381,5218.923,0.00019,0.0,0.0
10.387,5245.904,0.00019,0.0,0.0
10.394,5214.546,0.00019,0.0,0.0
10.4,5189.844,0.00019,0.0,0.0
10.406,5243.352,0.00019,0.0,0.0
10.413,5193.977,0.00019,0.0,0.0
10.419,5233.972,0.00019,0.0,0.0
10.425,5190.582,0.00019,0.0,0.0
10.432,5195.345,0.00019,0.0,0.0
10.438,5202.968,0.00019,0.0,0.0
10.444,5193.419,0.00019,0.0,0.0
10.451,5189.883,0.00019,0.0,0.0
10.457,5209.002,0.00019,0.0,0.0
10.463,5178.397,0.00019,0.0,0.0
10.47,5200.532,0.00019,0.0,0.0
10.476,5199.101,0.00019,0.0,0.0
10.482,5187.757,0.00019,0.0,0.0
10.489,5178.785,0.00019,0.0,0.0
10.495,5159.994,0.00019,0.0,0.0
10.501,5180.334,0.00019,0.0,0.0
10.508,5163.887,0.00019,0.0,0.0
10.514,5154.917,0.00019,0.0,0.0
10.52,5192.1,0.00019,0.0,0.0
10.526,5154.801,0.00019,0.0,0.0
10.533,5186.261,0.00019,0.0,0.0
10.539,5143.001,0.00019,0.0,0.0
10.545,5174.59,0.00019,0.0,0.0
10.552,5142.375,0.00019,0.0,0.0
10.558,5156.959,0.00019,0.0,0.0
10.564,5165.152,0.00019,0.0,0.0
10.571,5181.694,0.00019,0.0,0.0
10.577,5129.442,0.00019,0.0,0.0
10.583,5165.424,0.00019,0.0,0.0
10.59,5158.733,0.00019,0.0,0.0
10.596,5154.389,0.00019,0.0,0.0
10.602,5170.614,0.00019,0.0,0.0
10.609,5150.001,0.00019,0.0,0.0
10.615,5192.658,0.00019,0.0,0.0
10.621,5150.749,0.00019,0.0,0.0
10.628,5154.195,0.00019,0.0,0.0
10.634,5154.171,0.00019,0.0,0.0
10.64,5163.679,0.00019,0.0,0.0
10.647,5176.153,0.00019,0.0,0.0
10.653,5179.978,0.00019,0.0,0.0
10.659,5165.809,0.00019,0.0,0.0
10.666,5182.198,0.00019,0.0,0.0
10.672,5192.58,0.00019,0.0,0.0
10.678,5170.815,0.00019,0.0,0.0
10.684,5204.507,0.00019,0.0,0.0
10.691,5202.723,0.00019,0.0,0.0
10.697,5235.265,0.00019,0.0,0.0
10.703,5220.09,0.00019,0.0,0.0
10.71,5238.04,0.00019,0.0,0.0
10.716,5291.282,0.00019,0.0,0.0
10.722,5297.339,0.00019,0.0,0.0
10.729,5341.942,0.00019,0.0,0.0
10.735,5384.846,0.00019,0.0,0.0
10.741,5436.494,0.00018,0.0,0.0
10.748,5534.01,0.00018,0.0,0.0
10.754,5671.569,0.00018,0.0,0.0
10.76,5858.541,0.00017,0.0,0.0
10.767,6294.744,0.00016,0.0,0.0
10.773,6895.461,0.00015,0.0,0.0
10.779,8223.13,0.00012,0.0,0.0
10.786,10095.052,0.0001,0.0,0.0
10.792,13903.418,0.00007,0.0,0.0
10.798,18683.749,0.00005,0.0,0.0
10.805,24366.531,0.00004,0.0,0.0
10.811,27920.75,0.00004,0.0,0.0
10.817,29107.39,0.00003,0.0,0.0
10.824,26938.729,0.00004,0.0,0.0
10.83,21676.974,0.00005,0.0,0.0
10.836,14573.179,0.00007,0.0,0.0
10.842,13704.472,0.00007,0.0,0.0
10.849,8821.521,0.00011,0.0,0.0
10.855,7509.027,0.00013,0.0,0.0
10.861,6727.983,0.00015,0.0,0.0
10.868,6093.65,0.00016,0.0,0.0
10.874,5866.882,0.00017,0.0,0.0
10.88,5681.297,0.00018,0.0,0.0
10.887,5560.228,0.00018,0.0,0.0
10.893,5512.478,0.00018,0.0,0.0
10.899,5452.427,0.00018,0.0,0.0
10.906,5404.977,0.00019,0.0,0.0
10.912,5398.5,0.00019,0.0,0.0
10.918,5356.623,0.00019,0.0,0.0
10.925,5364.286,0.00019,0.0,0.0
10.931,5336.388,0.00019,0.0,0.0
10.937,5325.85,0.00019,0.0,0.0
10.944,5313.654,0.00019,0.0,0.0
10.95,5317.085,0.00019,0.0,0.0
10.956,5290.386,0.00019,0.0,0.0
10.963,5303.292,0.00019,0.0,0.0
10.969,5283.466,0.00019,0.0,0.0
10.975,5280.913,0.00019,0.0,0.0
10.982,5274.863,0.00019,0.0,0.0
10.988,5274.699,0.00019,0.0,0.0
10.994,5267.158,0.00019,0.0,0.0
11.0,5237.971,0.00019,0.0,0.0
11.007,5276.648,0.00019,0.0,0.0
11.013,5233.893,0.00019,0.0,0.0
11.019,5255.444,0.00019,0.0,0.0
11.026,5258.325,0.00019,0.0,0.0
11.032,5242.99,0.00019,0.0,0.0
11.038,5260.64,0.00019,0.0,0.0
11.045,5233.217,0.00019,0.0,0.0
11.051,5241.362,0.00019,0.0,0.0
11.057,5239.927,0.00019,0.0,0.0
11.064,5234.249,0.00019,0.0,0.0
11.07,5222.714,0.00019,0.0,0.0
11.076,5242.882,0.00019,0.0,0.0
11.083,5230.414,0.00019,0.0,0.0
11.089,5223.644,0.00019,0.0,0.0
11.095,5214.191,0.00019,0.0,0.0
11.102,5230.858,0.00019,0.0,0.0
11.108,5234.696,0.00019,0.0,0.0
11.114,5241.097,0.00019,0.0,0.0
11.121,5269.936,0.00019,0.0,0.0
11.127,5247.249,0.00019,0.0,0.0
11.133,5276.31,0.00019,0.0,0.0
11.14,5274.172,0.00019,0.0,0.0
11.146,5309.162,0.00019,0.0,0.0
11.152,5359.495,0.00019,0.0,0.0
11.158,5440.002,0.00018,0.0,0.0
11.165,5463.797,0.00018,0.0,0.0
11.171,5920.799,0.00017,0.0,0.0
11.177,5824.692,0.00017,0.0,0.0
11.184,7209.928,0.00014,0.0,0.0
11.19,6476.428,0.00015,0.0,0.0
11.196,6647.878,0.00015,0.0,0.0
11.203,5824.351,0.00017,0.0,0.0
11.209,6039.746,0.00017,0.0,0.0
11.215,5520.457,0.00018,0.0,0.0
11.222,5533.443,0.00018,0.0,0.0
11.228,5358.617,0.00019,0.0,0.0
11.234,5328.074,0.00019,0.0,0.0
11.241,5249.791,0.00019,0.0,0.0
11.247,5262.23,0.00019,0.0,0.0
11.253,5225.517,0.00019,0.0,0.0
11.26,5231.663,0.00019,0.0,0.0
11.266,5213.81,0.00019,0.0,0.0
11.272,5206.942,0.00019,0.0,0.0
11.279,5186.636,0.00019,0.0,0.0
11.285,5208.23,0.00019,0.0,0.0
11.291,5170.636,0.00019,0.0,0.0
11.298,5177.495,0.00019,0.0,0.0
11.304,5173.066,0.00019,0.0,0.0
11.31,5169.509,0.00019,0.0,0.0
11.316,5169.428,0.00019,0.0,0.0
11.323,5152.338,0.00019,0.0,0.0
11.329,5168.4,0.00019,0.0,0.0
11.335,5162.853,0.00019,0.0,0.0
11.342,5147.199,0.00019,0.0,0.0
11.348,5160.477,0.00019,0.0,0.0
11.354,5147.104,0.00019,0.0,0.0
11.361,5145.671,0.00019,0.0,0.0
11.367,5139.994,0.00019,0.0,0.0
11.373,5146.778,0.00019,0.0,0.0
11.38,5127.504,0.0002,0.0,0.0
11.386,5133.709,0.00019,0.0,0.0
11.392,5135.463,0.00019,0.0,0.0
11.399,5142.631,0.00019,0.0,0.0
11.405,5150.614,0.00019,0.0,0.0
11.411,5139.48,0.00019,0.0,0.0
11.418,5126.092,0.0002,0.0,0.0
11.424,5131.852,0.00019,0.0,0.0
11.43,5120.805,0.0002,0.0,0.0
11.437,5133.947,0.00019,0.0,0.0
11.443,5158.121,0.00019,0.0,0.0
11.449,5143.22,0.00019,0.0,0.0
11.456,5147.827,0.00019,0.0,0.0
11.462,5127.044,0.0002,0.0,0.0
11.468,5141.401,0.00019,0.0,0.0
11.474,5141.701,0.00019,0.0,0.0
11.481,5148.639,0.00019,0.0,0.0
11.487,5144.106,0.00019,0.0,0.0
11.493,5139.408,0.00019,0.0,0.0
11.5,5160.76,0.00019,0.0,0.0
11.506,5147.701,0.00019,0.0,0.0
11.512,5166.46,0.00019,0.0,0.0
11.519,5163.716,0.00019,0.0,0.0
11.525,5173.307,0.00019,0.0,0.0
11.531,5165.395,0.00019,0.0,0.0
11.538,5185.877,0.00019,0.0,0.0
11.544,5184.517,0.00019,0.0,0.0
11.55,5164.539,0.00019,0.0,0.0
11.557,5187.594,0.00019,0.0,0.0
11.563,5169.794,0.00019,0.0,0.0
11.569,5175.253,0.00019,0.0,0.0
11.576,5186.674,0.00019,0.0,0.0
11.582,5189.217,0.00019,0.0,0.0
11.588,5193.134,0.00019,0.0,0.0
11.595,5203.098,0.00019,0.0,0.0
11.601,5184.515,0.00019,0.0,0.0
11.607,5208.401,0.00019,0.0,0.0
11.614,5200.987,0.00019,0.0,0.0
11.62,5206.435,0.00019,0.0,0.0
11.626,5223.697,0.00019,0.0,0.0
11.632,5195.083,0.00019,0.0,0.0
11.639,5220.785,0.00019,0.0,0.0
11.645,5211.459,0.00019,0.0,0.0
11.651,5219.392,0.00019,0.0,0.0
11.658,5218.499,0.00019,0.0,0.0
11.664,5222.036,0.00019,0.0,0.0
11.67,5234.825,0.00019,0.0,0.0
11.677,5224.338,0.00019,0.0,0.0
11.683,5230.638,0.00019,0.0,0.0
11.689,5253.18,0.00019,0.0,0.0
11.696,5253.962,0.00019,0.0,0.0
11.702,5243.812,0.00019,0.0,0.0
11.708,5252.361,0.00019,0.0,0.0
11.715,5235.182,0.00019,0.0,0.0
11.721,5260.92,0.00019,0.0,0.0
11.727,5245.113,0.00019,0.0,0.0
11.734,5251.459,0.00019,0.0,0.0
11.74,5251.735,0.00019,0.0,0.0
11.746,5255.603,0.00019,0.0,0.0
11.753,5256.877,0.00019,0.0,0.0
11.759,5240.147,0.00019,0.0,0.0
11.765,5253.851,0.00019,0.0,0.0
11.772,5249.243,0.00019,0.0,0.0
11.778,5257.65,0.00019,0.0,0.0
11.784,5253.205,0.00019,0.0,0.0
11.79,5242.379,0.00019,0.0,0.0
11.797,5257.422,0.00019,0.0,0.0
11.803,5257.458,0.00019,0.0,0.0
11.809,5243.769,0.00019,0.0,0.0
11.816,5262.728,0.00019,0.0,0.0
11.822,5260.156,0.00019,0.0,0.0
11.828,5268.959,0.00019,0.0,0.0
11.835,5249.866,0.00019,0.0,0.0
11.841,5231.806,0.00019,0.0,0.0
11.847,5253.264,0.00019,0.0,0.0
11.854,5256.86,0.00019,0.0,0.0
11.86,5250.982,0.00019,0.0,0.0
11.866,5244.471,0.00019,0.0,0.0
11.873,5257.02,0.00019,0.0,0.0
11.879,5243.496,0.00019,0.0,0.0
11.885,5267.462,0.00019,0.0,0.0
11.892,5249.821,0.00019,0.0,0.0
11.898,5252.228,0.00019,0.0,0.0
11.904,5247.337,0.00019,0.0,0.0
11.911,5253.67,0.00019,0.0,0.0
11.917,5261.553,0.00019,0.0,0.0
11.923,5247.187,0.00019,0.0,0.0
11.93,5262.003,0.00019,0.0,0.0
11.936,5248.066,0.00019,0.0,0.0
11.942,5260.636,0.00019,0.0,0.0
11.948,5260.159,0.00019,0.0,0.0
11.955,5255.765,0.00019,0.0,0.0
11.961,5270.144,0.00019,0.0,0.0
11.967,5262.796,0.00019,0.0,0.0
11.974,5234.908,0.00019,0.0,0.0
11.98,5277.711,0.00019,0.0,0.0
11.986,5245.999,0.00019,0.0,0.0
11.993,5259.353,0.00019,0.0,0.0
11.999,5260.927,0.00019,0.0,0.0
12.005,5246.703,0.00019,0.0,0.0
12.012,5281.159,0.00019,0.0,0.0
12.018,5254.57,0.00019,0.0,0.0
12.024,5269.674,0.00019,0.0,0.0
12.031,5281.082,0.00019,0.0,0.0
12.037,5286.039,0.00019,0.0,0.0
12.043,5300.542,0.00019,0.0,0.0
12.05,5338.781,0.00019,0.0,0.0
12.056,5419.772,0.00018,0.0,0.0
12.062,5579.662,0.00018,0.0,0.0
12.069,6139.134,0.00016,0.0,0.0
12.075,5791.742,0.00017,0.0,0.0
12.081,6856.036,0.00015,0.0,0.0
12.088,5662.601,0.00018,0.0,0.0
12.094,7185.13,0.00014,0.0,0.0
12.1,5514.702,0.00018,0.0,0.0
12.106,6160.771,0.00016,0.0,0.0
12.113,5412.845,0.00018,0.0,0.0
12.119,5426.294,0.00018,0.0,0.0
12.125,5278.649,0.00019,0.0,0.0
12.132,5240.385,0.00019,0.0,0.0
12.138,5209.829,0.00019,0.0,0.0
12.144,5162.097,0.00019,0.0,0.0
12.151,5167.072,0.00019,0.0,0.0
12.157,5137.656,0.00019,0.0,0.0
12.163,5130.564,0.00019,0.0,0.0
12.17,5124.247,0.0002,0.0,0.0
12.176,5122.724,0.0002,0.0,0.0
12.182,5108.108,0.0002,0.0,0.0
12.189,5097.664,0.0002,0.0,0.0
12.195,5075.539,0.0002,0.0,0.0
12.201,5095.008,0.0002,0.0,0.0
12.208,5069.589,0.0002,0.0,0.0
12.214,5069.748,0.0002,0.0,0.0
12.22,5054.719,0.0002,0.0,0.0
12.227,5049.352,0.0002,0.0,0.0
12.233,5037.839,0.0002,0.0,0.0
12.239,5019.904,0.0002,0.0,0.0
12.246,5024.457,0.0002,0.0,0.0
12.252,5032.254,0.0002,0.0,0.0
12.258,4999.328,0.0002,0.0,0.0
12.264,5023.345,0.0002,0.0,0.0
12.271,5011.021,0.0002,0.0,0.0
12.277,4989.82,0.0002,0.0,0.0
12.283,5015.624,0.0002,0.0,0.0
12.29,4971.819,0.0002,0.0,0.0
12.296,4981.506,0.0002,0.0,0.0
12.302,4965.598,0.0002,0.0,0.0
12.309,4957.998,0.0002,0.0,0.0
12.315,4970.114,0.0002,0.0,0.0
12.321,4949.454,0.0002,0.0,0.0
12.328,4964.557,0.0002,0.0,0.0
12.334,4952.119,0.0002,0.0,0.0
12.34,4939.455,0.0002,0.0,0.0
12.347,4944.312,0.0002,0.0,0.0
12.353,4939.229,0.0002,0.0,0.0
12.359,4943.839,0.0002,0.0,0.0
12.366,4922.941,0.0002,0.0,0.0
12.372,4918.094,0.0002,0.0,0.0
12.378,4912.566,0.0002,0.0,0.0
12.385,4909.277,0.0002,0.0,0.0
12.391,4904.549,0.0002,0.0,0.0
12.397,4899.485,0.0002,0.0,0.0
12.404,4890.076,0.0002,0.0,0.0
12.41,4903.656,0.0002,0.0,0.0
12.416,4897.011,0.0002,0.0,0.0
12.422,4893.751,0.0002,0.0,0.0
12.429,4887.85,0.0002,0.0,0.0
12.435,4890.553,0.0002,0.0,0.0
12.441,4887.461,0.0002,0.0,0.0
12.448,4862.507,0.00021,0.0,0.0
12.454,4882.723,0.0002,0.0,0.0
12.46,4863.876,0.00021,0.0,0.0
12.467,4881.985,0.0002,0.0,0.0
12.473,4857.894,0.00021,0.0,0.0
12.479,4870.389,0.00021,0.0,0.0
12.486,4868.438,0.00021,0.0,0.0
12.492,4851.909,0.00021,0.0,0.0
12.498,4869.039,0.00021,0.0,0.0
12.505,4878.13,0.0002,0.0,0.0
12.511,4882.552,0.0002,0.0,0.0
12.517,4874.475,0.00021,0.0,0.0
12.524,4869.206,0.00021,0.0,0.0
12.53,4862.303,0.00021,0.0,0.0
12.536,4870.491,0.00021,0.0,0.0
12.543,4866.158,0.00021,0.0,0.0
12.549,4876.66,0.00021,0.0,0.0
12.555,4877.245,0.00021,0.0,0.0
12.562,4888.609,0.0002,0.0,0.0
12.568,4893.816,0.0002,0.0,0.0
12.574,4898.284,0.0002,0.0,0.0
12.58,4916.546,0.0002,0.0,0.0
12.587,4927.162,0.0002,0.0,0.0
12.593,4956.774,0.0002,0.0,0.0
12.599,4984.552,0.0002,0.0,0.0
12.606,5026.184,0.0002,0.0,0.0
12.612,5092.584,0.0002,0.0,0.0
12.618,5186.284,0.00019,0.0,0.0
12.625,5321.202,0.00019,0.0,0.0
12.631,5584.4,0.00018,0.0,0.0
12.637,5921.592,0.00017,0.0,0.0
12.644,6643.351,0.00015,0.0,0.0
12.65,7757.909,0.00013,0.0,0.0
12.656,9764.445,0.0001,0.0,0.0
12.663,13673.727,0.00007,0.0,0.0
12.669,18222.327,0.00005,0.0,0.0
12.675,26277.623,0.00004,0.0,0.0
12.682,32702.619,0.00003,0.0,0.0
12.688,35878.142,0.00003,0.0,0.0
12.694,35975.101,0.00003,0.0,0.0
12.701,29160.682,0.00003,0.0,0.0
12.707,23562.704,0.00004,0.0,0.0
12.713,16356.402,0.00006,0.0,0.0
12.72,11858.06,0.00008,0.0,0.0
12.726,8713.657,0.00011,0.0,0.0
12.732,7030.138,0.00014,0.0,0.0
12.738,6174.193,0.00016,0.0,0.0
12.745,5678.614,0.00018,0.0,0.0
12.751,5330.337,0.00019,0.0,0.0
12.757,5154.023,0.00019,0.0,0.0
12.764,5004.683,0.0002,0.0,0.0
12.77,4923.638,0.0002,0.0,0.0
12.776,4887.234,0.0002,0.0,0.0
12.783,4829.144,0.00021,0.0,0.0
12.789,4794.17,0.00021,0.0,0.0
12.795,4763.598,0.00021,0.0,0.0
12.802,4740.134,0.00021,0.0,0.0
12.808,4741.099,0.00021,0.0,0.0
12.814,4716.043,0.00021,0.0,0.0
12.821,4709.567,0.00021,0.0,0.0
12.827,4686.675,0.00021,0.0,0.0
12.833,4661.428,0.00021,0.0,0.0
12.84,4676.712,0.00021,0.0,0.0
12.846,4648.873,0.00022,0.0,0.0
12.852,4676.554,0.00021,0.0,0.0
12.859,4648.979,0.00022,0.0,0.0
12.865,4636.856,0.00022,0.0,0.0
12.871,4651.394,0.00021,0.0,0.0
12.878,4615.114,0.00022,0.0,0.0
12.884,4627.587,0.00022,0.0,0.0
12.89,4629.934,0.00022,0.0,0.0
12.896,4584.873,0.00022,0.0,0.0
12.903,4647.199,0.00022,0.0,0.0
12.909,4594.959,0.00022,0.0,0.0
12.915,4584.159,0.00022,0.0,0.0
12.922,4828.055,0.00021,0.0,0.0
12.928,4581.502,0.00022,0.0,0.0
12.934,5154.429,0.00019,0.0,0.0
12.941,4574.001,0.00022,0.0,0.0
12.947,4569.227,0.00022,0.0,0.0
12.953,4848.638,0.00021,0.0,0.0
12.96,4550.791,0.00022,0.0,0.0
12.966,4622.218,0.00022,0.0,0.0
12.972,4542.813,0.00022,0.0,0.0
12.979,4526.562,0.00022,0.0,0.0
12.985,4566.848,0.00022,0.0,0.0
12.991,4540.171,0.00022,0.0,0.0
12.998,4552.227,0.00022,0.0,0.0
13.004,4528.138,0.00022,0.0,0.0
13.01,4524.047,0.00022,0.0,0.0
13.017,4542.108,0.00022,0.0,0.0
13.023,4515.518,0.00022,0.0,0.0
13.029,4534.836,0.00022,0.0,0.0
13.036,4517.045,0.00022,0.0,0.0
13.042,4505.052,0.00022,0.0,0.0
13.048,4525.903,0.00022,0.0,0.0
13.054,4503.137,0.00022,0.0,0.0
13.061,4506.605,0.00022,0.0,0.0
13.067,4510.898,0.00022,0.0,0.0
13.073,4486.768,0.00022,0.0,0.0
13.08,4511.861,0.00022,0.0,0.0
13.086,4488.606,0.00022,0.0,0.0
13.092,4504.098,0.00022,0.0,0.0
13.099,4506.181,0.00022,0.0,0.0
13.105,4485.146,0.00022,0.0,0.0
13.111,4515.362,0.00022,0.0,0.0
13.118,4476.833,0.00022,0.0,0.0
13.124,4495.271,0.00022,0.0,0.0
13.13,4495.382,0.00022,0.0,0.0
13.137,4482.478,0.00022,0.0,0.0
13.143,4492.511,0.00022,0.0,0.0
13.149,4478.03,0.00022,0.0,0.0
13.156,4491.088,0.00022,0.0,0.0
13.162,4495.353,0.00022,0.0,0.0
13.168,4503.374,0.00022,0.0,0.0
13.175,4514.742,0.00022,0.0,0.0
13.181,4528.134,0.00022,0.0,0.0
13.187,4539.821,0.00022,0.0,0.0
13.194,4591.993,0.00022,0.0,0.0
13.2,4625.579,0.00022,0.0,0.0
13.206,4733.115,0.00021,0.0,0.0
13.212,4870.522,0.00021,0.0,0.0
13.219,5140.423,0.00019,0.0,0.0
13.225,5726.212,0.00017,0.0,0.0
13.231,6626.181,0.00015,0.0,0.0
13.238,8012.659,0.00012,0.0,0.0
13.244,9620.277,0.0001,0.0,0.0
13.25,11393.014,0.00009,0.0,0.0
13.257,11619.117,0.00009,0.0,0.0
13.263,11561.99,0.00009,0.0,0.0
13.269,9882.478,0.0001,0.0,0.0
13.276,8500.53,0.00012,0.0,0.0
13.282,6945.675,0.00014,0.0,0.0
13.288,5875.207,0.00017,0.0,0.0
13.295,5239.85,0.00019,0.0,0.0
13.301,4870.108,0.00021,0.0,0.0
13.307,4669.113,0.00021,0.0,0.0
13.314,4550.04,0.00022,0.0,0.0
13.32,4491.17,0.00022,0.0,0.0
13.326,4449.578,0.00022,0.0,0.0
13.333,4426.114,0.00023,0.0,0.0
13.339,4397.252,0.00023,0.0,0.0
13.345,4375.358,0.00023,0.0,0.0
13.352,4384.762,0.00023,0.0,0.0
13.358,4350.662,0.00023,0.0,0.0
13.364,4351.191,0.00023,0.0,0.0
13.37,4340.86,0.00023,0.0,0.0
13.377,4326.992,0.00023,0.0,0.0
13.383,4318.726,0.00023,0.0,0.0
13.389,4328.78,0.00023,0.0,0.0
13.396,4320.69,0.00023,0.0,0.0
13.402,4314.273,0.00023,0.0,0.0
13.408,4315.235,0.00023,0.0,0.0
13.415,4312.075,0.00023,0.0,0.0
13.421,4300.368,0.00023,0.0,0.0
13.427,4297.244,0.00023,0.0,0.0
13.434,4291.971,0.00023,0.0,0.0
13.44,4278.111,0.00023,0.0,0.0
13.446,4273.475,0.00023,0.0,0.0
13.453,4275.474,0.00023,0.0,0.0
13.459,4269.208,0.00023,0.0,0.0
13.465,4260.204,0.00023,0.0,0.0
13.472,4254.946,0.00024,0.0,0.0
13.478,4261.594,0.00023,0.0,0.0
13.484,4236.204,0.00024,0.0,0.0
13.491,4244.098,0.00024,0.0,0.0
13.497,4246.915,0.00024,0.0,0.0
13.503,4237.375,0.00024,0.0,0.0
13.51,4245.194,0.00024,0.0,0.0
13.516,4221.414,0.00024,0.0,0.0
13.522,4218.822,0.00024,0.0,0.0
13.528,4240.544,0.00024,0.0,0.0
13.535,4217.788,0.00024,0.0,0.0
13.541,4229.952,0.00024,0.0,0.0
13.547,4230.05,0.00024,0.0,0.0
13.554,4213.57,0.00024,0.0,0.0
13.56,4215.099,0.00024,0.0,0.0
13.566,4225.24,0.00024,0.0,0.0
13.573,4231.672,0.00024,0.0,0.0
13.579,4211.006,0.00024,0.0,0.0
13.585,4197.28,0.00024,0.0,0.0
13.592,4217.216,0.00024,0.0,0.0
13.598,4205.262,0.00024,0.0,0.0
13.604,4204.829,0.00024,0.0,0.0
13.611,4196.049,0.00024,0.0,0.0
13.617,4201.511,0.00024,0.0,0.0
13.623,4212.483,0.00024,0.0,0.0
13.63,4210.805,0.00024,0.0,0.0
13.636,4210.579,0.00024,0.0,0.0
13.642,4219.93,0.00024,0.0,0.0
13.649,4208.959,0.00024,0.0,0.0
13.655,4231.799,0.00024,0.0,0.0
13.661,4208.016,0.00024,0.0,0.0
13.668,4229.459,0.00024,0.0,0.0
13.674,4221.733,0.00024,0.0,0.0
13.68,4254.234,0.00024,0.0,0.0
13.686,4265.483,0.00023,0.0,0.0
13.693,4308.522,0.00023,0.0,0.0
13.699,4337.116,0.00023,0.0,0.0
13.705,4336.749,0.00023,0.0,0.0
13.712,4418.807,0.00023,0.0,0.0
13.718,4281.48,0.00023,0.0,0.0
13.724,4260.483,0.00023,0.0,0.0
13.731,4240.352,0.00024,0.0,0.0
13.737,4207.187,0.00024,0.0,0.0
13.743,4196.416,0.00024,0.0,0.0
13.75,4185.44,0.00024,0.0,0.0
13.756,4162.148,0.00024,0.0,0.0
13.762,4155.718,0.00024,0.0,0.0
13.769,4160.512,0.00024,0.0,0.0
13.775,4154.102,0.00024,0.0,0.0
13.781,4138.2,0.00024,0.0,0.0
13.788,4148.239,0.00024,0.0,0.0
13.794,4143.037,0.00024,0.0,0.0
13.8,4138.004,0.00024,0.0,0.0
13.807,4119.363,0.00024,0.0,0.0
13.813,4131.165,0.00024,0.0,0.0
13.819,4100.804,0.00024,0.0,0.0
13.826,4118.714,0.00024,0.0,0.0
13.832,4102.132,0.00024,0.0,0.0
13.838,4107.412,0.00024,0.0,0.0
13.844,4105.458,0.00024,0.0,0.0
13.851,4084.448,0.00024,0.0,0.0
13.857,4086.543,0.00024,0.0,0.0
13.863,4082.766,0.00024,0.0,0.0
13.87,4074.078,0.00025,0.0,0.0
13.876,4082.279,0.00024,0.0,0.0
13.882,4071.197,0.00025,0.0,0.0
13.889,4073.953,0.00025,0.0,0.0
13.895,4071.573,0.00025,0.0,0.0
13.901,4046.772,0.00025,0.0,0.0
13.908,4059.409,0.00025,0.0,0.0
13.914,4049.019,0.00025,0.0,0.0
13.92,4050.67,0.00025,0.0,0.0
13.927,4055.622,0.00025,0.0,0.0
13.933,4028.504,0.00025,0.0,0.0
13.939,4036.917,0.00025,0.0,0.0
13.946,4018.521,0.00025,0.0,0.0
13.952,4022.45,0.00025,0.0,0.0
13.958,4022.096,0.00025,0.0,0.0
13.965,4022.72,0.00025,0.0,0.0
13.971,4031.569,0.00025,0.0,0.0
13.977,4011.428,0.00025,0.0,0.0
13.984,4010.456,0.00025,0.0,0.0
13.99,4011.86,0.00025,0.0,0.0
13.996,4008.025,0.00025,0.0,0.0
14.002,4005.54,0.00025,0.0,0.0
14.009,3990.242,0.00025,0.0,0.0
14.015,3996.558,0.00025,0.0,0.0
14.021,3992.012,0.00025,0.0,0.0
14.028,3992.985,0.00025,0.0,0.0
14.034,3978.419,0.00025,0.0,0.0
14.04,3974.494,0.00025,0.0,0.0
14.047,3978.363,0.00025,0.0,0.0
14.053,3983.295,0.00025,0.0,0.0
14.059,3982.811,0.00025,0.0,0.0
14.066,3966.668,0.00025,0.0,0.0
14.072,3977.149,0.00025,0.0,0.0
14.078,3965.541,0.00025,0.0,0.0
14.085,3963.127,0.00025,0.0,0.0
14.091,3953.086,0.00025,0.0,0.0
14.097,3956.891,0.00025,0.0,0.0
14.104,3950.969,0.00025,0.0,0.0
14.11,3939.161,0.00025,0.0,0.0
14.116,3950.214,0.00025,0.0,0.0
14.123,3944.613,0.00025,0.0,0.0
14.129,3951.523,0.00025,0.0,0.0
14.135,3943.062,0.00025,0.0,0.0
14.142,3943.576,0.00025,0.0,0.0
14.148,3943.097,0.00025,0.0,0.0
14.154,3931.534,0.00025,0.0,0.0
14.16,3929.567,0.00025,0.0,0.0
14.167,3937.525,0.00025,0.0,0.0
14.173,3929.123,0.00025,0.0,0.0
14.179,3927.706,0.00025,0.0,0.0
14.186,3910.23,0.00026,0.0,0.0
14.192,3922.056,0.00025,0.0,0.0
14.198,3910.637,0.00026,0.0,0.0
14.205,3921.857,0.00025,0.0,0.0
14.211,3915.133,0.00026,0.0,0.0
14.217,3912.46,0.00026,0.0,0.0
14.224,3915.799,0.00026,0.0,0.0
14.23,3905.154,0.00026,0.0,0.0
14.236,3915.475,0.00026,0.0,0.0
14.243,3905.151,0.00026,0.0,0.0
14.249,3900.16,0.00026,0.0,0.0
14.255,3899.688,0.00026,0.0,0.0
14.262,3894.329,0.00026,0.0,0.0
14.268,3902.704,0.00026,0.0,0.0
14.274,3886.866,0.00026,0.0,0.0
14.281,3906.277,0.00026,0.0,0.0
14.287,3893.435,0.00026,0.0,0.0
14.293,3890.282,0.00026,0.0,0.0
14.3,3890.163,0.00026,0.0,0.0
14.306,3895.341,0.00026,0.0,0.0
14.312,3890.194,0.00026,0.0,0.0
14.318,3885.202,0.00026,0.0,0.0
14.325,3892.112,0.00026,0.0,0.0
14.331,3883.568,0.00026,0.0,0.0
14.337,3889.022,0.00026,0.0,0.0
14.344,3866.416,0.00026,0.0,0.0
14.35,3902.111,0.00026,0.0,0.0
14.356,3881.392,0.00026,0.0,0.0
14.363,3889.198,0.00026,0.0,0.0
14.369,3886.253,0.00026,0.0,0.0
14.375,3867.844,0.00026,0.0,0.0
14.382,3896.768,0.00026,0.0,0.0
14.388,3862.363,0.00026,0.0,0.0
14.394,3876.642,0.00026,0.0,0.0
14.401,3881.926,0.00026,0.0,0.0
14.407,3875.666,0.00026,0.0,0.0
14.413,3888.011,0.00026,0.0,0.0
14.42,3874.352,0.00026,0.0,0.0
14.426,3887.882,0.00026,0.0,0.0
14.432,3919.253,0.00026,0.0,0.0
14.439,3905.304,0.00026,0.0,0.0
14.445,4013.417,0.00025,0.0,0.0
14.451,3962.374,0.00025,0.0,0.0
14.458,4069.378,0.00025,0.0,0.0
14.464,4049.547,0.00025,0.0,0.0
14.47,4012.083,0.00025,0.0,0.0
14.476,3953.29,0.00025,0.0,0.0
14.483,3888.392,0.00026,0.0,0.0
14.489,3904.887,0.00026,0.0,0.0
14.495,3862.033,0.00026,0.0,0.0
14.502,3833.757,0.00026,0.0,0.0
14.508,3861.939,0.00026,0.0,0.0
14.514,3844.362,0.00026,0.0,0.0
14.521,3826.989,0.00026,0.0,0.0
14.527,3838.954,0.00026,0.0,0.0
14.533,3822.11,0.00026,0.0,0.0
14.54,3851.908,0.00026,0.0,0.0
14.546,3815.833,0.00026,0.0,0.0
14.552,3825.323,0.00026,0.0,0.0
14.559,3817.44,0.00026,0.0,0.0
14.565,3799.988,0.00026,0.0,0.0
14.571,3830.272,0.00026,0.0,0.0
14.578,3800.53,0.00026,0.0,0.0
14.584,3805.415,0.00026,0.0,0.0
14.59,3804.898,0.00026,0.0,0.0
14.597,3790.01,0.00026,0.0,0.0
14.603,3801.036,0.00026,0.0,0.0
14.609,3796.354,0.00026,0.0,0.0
14.616,3795.455,0.00026,0.0,0.0
14.622,3798.949,0.00026,0.0,0.0
14.628,3789.527,0.00026,0.0,0.0
14.634,3799.389,0.00026,0.0,0.0
14.641,3789.889,0.00026,0.0,0.0
14.647,3775.73,0.00026,0.0,0.0
14.653,3785.405,0.00026,0.0,0.0
14.66,3765.17,0.00027,0.0,0.0
14.666,3781.126,0.00026,0.0,0.0
14.672,3770.156,0.00027,0.0,0.0
14.679,3775.455,0.00026,0.0,0.0
14.685,3770.89,0.00027,0.0,0.0
14.691,3766.464,0.00027,0.0,0.0
14.698,3761.117,0.00027,0.0,0.0
14.704,3751.22,0.00027,0.0,0.0
14.71,3763.543,0.00027,0.0,0.0
14.717,3755.707,0.00027,0.0,0.0
14.723,3745.605,0.00027,0.0,0.0
14.729,3756.039,0.00027,0.0,0.0
14.736,3744.65,0.00027,0.0,0.0
14.742,3739.777,0.00027,0.0,0.0
14.748,3743.046,0.00027,0.0,0.0
14.755,3734.039,0.00027,0.0,0.0
14.761,3738.245,0.00027,0.0,0.0
14.767,3733.023,0.00027,0.0,0.0
14.774,3747.848,0.00027,0.0,0.0
14.78,3731.098,0.00027,0.0,0.0
14.786,3729.499,0.00027,0.0,0.0
14.792,3750.818,0.00027,0.0,0.0
14.799,3729.834,0.00027,0.0,0.0
14.805,3732.815,0.00027,0.0,0.0
14.811,3744.91,0.00027,0.0,0.0
14.818,3738.818,0.00027,0.0,0.0
14.824,3728.418,0.00027,0.0,0.0
14.83,3726.134,0.00027,0.0,0.0
14.837,3725.044,0.00027,0.0,0.0
14.843,3720.664,0.00027,0.0,0.0
14.849,3729.978,0.00027,0.0,0.0
14.856,3723.623,0.00027,0.0,0.0
14.862,3738.55,0.00027,0.0,0.0
14.868,3712.343,0.00027,0.0,0.0
14.875,3730.785,0.00027,0.0,0.0
14.881,3727.382,0.00027,0.0,0.0
14.887,3730.163,0.00027,0.0,0.0
14.894,3721.949,0.00027,0.0,0.0
14.9,3719.852,0.00027,0.0,0.0
14.906,3723.327,0.00027,0.0,0.0
14.913,3716.973,0.00027,0.0,0.0
14.919,3728.393,0.00027,0.0,0.0
14.925,3720.166,0.00027,0.0,0.0
14.932,3719.247,0.00027,0.0,0.0
14.938,3719.549,0.00027,0.0,0.0
14.944,3706.063,0.00027,0.0,0.0
14.95,3729.632,0.00027,0.0,0.0
14.957,3718.254,0.00027,0.0,0.0
14.963,3717.341,0.00027,0.0,0.0
14.969,3708.22,0.00027,0.0,0.0
14.976,3706.569,0.00027,0.0,0.0
14.982,3721.505,0.00027,0.0,0.0
14.988,3709.764,0.00027,0.0,0.0
14.995,3722.25,0.00027,0.0,0.0
15.001,3718.477,0.00027,0.0,0.0
15.007,3722.194,0.00027,0.0,0.0
15.014,3713.647,0.00027,0.0,0.0
15.02,3702.32,0.00027,0.0,0.0
15.026,3718.107,0.00027,0.0,0.0
15.033,3703.203,0.00027,0.0,0.0
15.039,3708.081,0.00027,0.0,0.0
15.045,3708.027,0.00027,0.0,0.0
15.052,3707.618,0.00027,0.0,0.0
15.058,3703.691,0.00027,0.0,0.0
15.064,3696.746,0.00027,0.0,0.0
15.071,3710.593,0.00027,0.0,0.0
15.077,3702.361,0.00027,0.0,0.0
15.083,3707.06,0.00027,0.0,0.0
15.09,3703.538,0.00027,0.0,0.0
15.096,3707.482,0.00027,0.0,0.0
15.102,3692.027,0.00027,0.0,0.0
15.108,3691.647,0.00027,0.0,0.0
15.115,3699.015,0.00027,0.0,0.0
15.121,3704.563,0.00027,0.0,0.0
15.127,3705.922,0.00027,0.0,0.0
15.134,3706.503,0.00027,0.0,0.0
15.14,3716.042,0.00027,0.0,0.0
15.146,3734.471,0.00027,0.0,0.0
15.153,3760.808,0.00027,0.0,0.0
15.159,3709.695,0.00027,0.0,0.0
15.165,3780.945,0.00026,0.0,0.0
15.172,3933.756,0.00025,0.0,0.0
15.178,3807.574,0.00026,0.0,0.0
15.184,3804.855,0.00026,0.0,0.0
15.191,3745.96,0.00027,0.0,0.0
15.197,3727.412,0.00027,0.0,0.0
15.203,3698.741,0.00027,0.0,0.0
15.21,3689.966,0.00027,0.0,0.0
15.216,3694.13,0.00027,0.0,0.0
15.222,3683.656,0.00027,0.0,0.0
15.229,3695.764,0.00027,0.0,0.0
15.235,3688.359,0.00027,0.0,0.0
15.241,3692.368,0.00027,0.0,0.0
15.248,3717.609,0.00027,0.0,0.0
15.254,3741.754,0.00027,0.0,0.0
15.26,3770.935,0.00027,0.0,0.0
15.266,3827.852,0.00026,0.0,0.0
15.273,3918.385,0.00026,0.0,0.0
15.279,4073.052,0.00025,0.0,0.0
15.285,4357.103,0.00023,0.0,0.0
15.292,4714.932,0.00021,0.0,0.0
15.298,5306.257,0.00019,0.0,0.0
15.304,5802.793,0.00017,0.0,0.0
15.311,6413.244,0.00016,0.0,0.0
15.317,6644.458,0.00015,0.0,0.0
15.323,6439.938,0.00016,0.0,0.0
15.33,6137.448,0.00016,0.0,0.0
15.336,5450.678,0.00018,0.0,0.0
15.342,4904.54,0.0002,0.0,0.0
15.349,4397.201,0.00023,0.0,0.0
15.355,4109.337,0.00024,0.0,0.0
15.361,3933.766,0.00025,0.0,0.0
15.368,3812.581,0.00026,0.0,0.0
15.374,3752.075,0.00027,0.0,0.0
15.38,3731.317,0.00027,0.0,0.0
15.387,3701.208,0.00027,0.0,0.0
15.393,3684.552,0.00027,0.0,0.0
15.399,3669.833,0.00027,0.0,0.0
15.406,3666.931,0.00027,0.0,0.0
15.412,3661.424,0.00027,0.0,0.0
15.418,3645.204,0.00027,0.0,0.0
15.424,3657.825,0.00027,0.0,0.0
15.431,3639.472,0.00027,0.0,0.0
15.437,3642.797,0.00027,0.0,0.0
15.443,3638.822,0.00027,0.0,0.0
15.45,3636.394,0.00027,0.0,0.0
15.456,3628.91,0.00028,0.0,0.0
15.462,3635.796,0.00028,0.0,0.0
15.469,3629.094,0.00028,0.0,0.0
15.475,3641.495,0.00027,0.0,0.0
15.481,3635.559,0.00028,0.0,0.0
15.488,3629.792,0.00028,0.0,0.0
15.494,3633.104,0.00028,0.0,0.0
15.5,3640.736,0.00027,0.0,0.0
15.507,3640.205,0.00027,0.0,0.0
15.513,3647.188,0.00027,0.0,0.0
15.519,3629.789,0.00028,0.0,0.0
15.526,3636.686,0.00027,0.0,0.0
15.532,3633.926,0.00028,0.0,0.0
15.538,3623.283,0.00028,0.0,0.0
15.545,3630.238,0.00028,0.0,0.0
15.551,3627.498,0.00028,0.0,0.0
15.557,3633.808,0.00028,0.0,0.0
15.564,3618.754,0.00028,0.0,0.0
15.57,3617.869,0.00028,0.0,0.0
15.576,3620.82,0.00028,0.0,0.0
15.582,3613.035,0.00028,0.0,0.0
15.589,3609.661,0.00028,0.0,0.0
15.595,3616.004,0.00028,0.0,0.0
15.601,3608.604,0.00028,0.0,0.0
15.608,3616.399,0.00028,0.0,0.0
15.614,3608.485,0.00028,0.0,0.0
15.62,3604.004,0.00028,0.0,0.0
15.627,3598.762,0.00028,0.0,0.0
15.633,3581.32,0.00028,0.0,0.0
15.639,3581.781,0.00028,0.0,0.0
15.646,3570.146,0.00028,0.0,0.0
15.652,3588.211,0.00028,0.0,0.0
15.658,3574.961,0.00028,0.0,0.0
15.665,3584.132,0.00028,0.0,0.0
15.671,3574.298,0.00028,0.0,0.0
15.677,3567.099,0.00028,0.0,0.0
15.684,3577.268,0.00028,0.0,0.0
15.69,3571.888,0.00028,0.0,0.0
15.696,3579.639,0.00028,0.0,0.0
15.703,3564.826,0.00028,0.0,0.0
15.709,3553.99,0.00028,0.0,0.0
15.715,3570.717,0.00028,0.0,0.0
15.722,3553.877,0.00028,0.0,0.0
15.728,3549.821,0.00028,0.0,0.0
15.734,3546.353,0.00028,0.0,0.0
15.74,3553.474,0.00028,0.0,0.0
15.747,3547.893,0.00028,0.0,0.0
15.753,3540.723,0.00028,0.0,0.0
15.759,3546.668,0.00028,0.0,0.0
15.766,3528.091,0.00028,0.0,0.0
15.772,3534.142,0.00028,0.0,0.0
15.778,3531.327,0.00028,0.0,0.0
15.785,3520.166,0.00028,0.0,0.0
15.791,3535.493,0.00028,0.0,0.0
15.797,3523.381,0.00028,0.0,0.0
15.804,3533.238,0.00028,0.0,0.0
15.81,3532.133,0.00028,0.0,0.0
15.816,3523.747,0.00028,0.0,0.0
15.823,3538.648,0.00028,0.0,0.0
15.829,3540.756,0.00028,0.0,0.0
15.835,3542.942,0.00028,0.0,0.0
15.842,3571.226,0.00028,0.0,0.0
15.848,3627.446,0.00028,0.0,0.0
15.854,3744.953,0.00027,0.0,0.0
15.861,3762.939,0.00027,0.0,0.0
15.867,4233.4,0.00024,0.0,0.0
15.873,3908.491,0.00026,0.0,0.0
15.88,3602.42,0.00028,0.0,0.0
15.886,3757.867,0.00027,0.0,0.0
15.892,3666.874,0.00027,0.0,0.0
15.898,3555.211,0.00028,0.0,0.0
15.905,3518.087,0.00028,0.0,0.0
15.911,3496.108,0.00029,0.0,0.0
15.917,3502.702,0.00029,0.0,0.0
15.924,3484.314,0.00029,0.0,0.0
15.93,3478.042,0.00029,0.0,0.0
15.936,3483.729,0.00029,0.0,0.0
15.943,3472.265,0.00029,0.0,0.0
15.949,3483.007,0.00029,0.0,0.0
15.955,3468.809,0.00029,0.0,0.0
15.962,3473.361,0.00029,0.0,0.0
15.968,3466.153,0.00029,0.0,0.0
15.974,3474.385,0.00029,0.0,0.0
15.981,3472.961,0.00029,0.0,0.0
15.987,3460.268,0.00029,0.0,0.0
15.993,3466.367,0.00029,0.0,0.0
16.0,3460.928,0.00029,0.0,0.0
16.006,3465.595,0.00029,0.0,0.0
16.012,3463.528,0.00029,0.0,0.0
16.019,3467.114,0.00029,0.0,0.0
16.025,3464.76,0.00029,0.0,0.0
16.031,3452.692,0.00029,0.0,0.0
16.038,3463.554,0.00029,0.0,0.0
16.044,3464.913,0.00029,0.0,0.0
16.05,3453.841,0.00029,0.0,0.0
16.056,3451.656,0.00029,0.0,0.0
16.063,3454.366,0.00029,0.0,0.0
16.069,3449.213,0.00029,0.0,0.0
16.075,3451.888,0.00029,0.0,0.0
16.082,3456.668,0.00029,0.0,0.0
16.088,3449.978,0.00029,0.0,0.0
16.094,3442.842,0.00029,0.0,0.0
16.101,3449.562,0.00029,0.0,0.0
16.107,3447.189,0.00029,0.0,0.0
16.113,3438.78,0.00029,0.0,0.0
16.12,3441.85,0.00029,0.0,0.0
16.126,3433.648,0.00029,0.0,0.0
16.132,3438.741,0.00029,0.0,0.0
16.139,3440.725,0.00029,0.0,0.0
16.145,3442.218,0.00029,0.0,0.0
16.151,3441.994,0.00029,0.0,0.0
16.158,3443.953,0.00029,0.0,0.0
16.164,3438.227,0.00029,0.0,0.0
16.17,3444.746,0.00029,0.0,0.0
16.177,3437.234,0.00029,0.0,0.0
16.183,3447.542,0.00029,0.0,0.0
16.189,3435.945,0.00029,0.0,0.0
16.196,3448.187,0.00029,0.0,0.0
16.202,3424.36,0.00029,0.0,0.0
16.208,3435.202,0.00029,0.0,0.0
16.214,3440.817,0.00029,0.0,0.0
16.221,3445.213,0.00029,0.0,0.0
16.227,3425.036,0.00029,0.0,0.0
16.233,3432.504,0.00029,0.0,0.0
16.24,3426.326,0.00029,0.0,0.0
16.246,3430.364,0.00029,0.0,0.0
16.252,3428.699,0.00029,0.0,0.0
16.259,3428.143,0.00029,0.0,0.0
16.265,3431.952,0.00029,0.0,0.0
16.271,3429.691,0.00029,0.0,0.0
16.278,3423.011,0.00029,0.0,0.0
16.284,3416.406,0.00029,0.0,0.0
16.29,3424.347,0.00029,0.0,0.0
16.297,3418.247,0.00029,0.0,0.0
16.303,3417.818,0.00029,0.0,0.0
16.309,3425.684,0.00029,0.0,0.0
16.316,3430.35,0.00029,0.0,0.0
16.322,3415.179,0.00029,0.0,0.0
16.328,3449.023,0.00029,0.0,0.0
16.335,3421.728,0.00029,0.0,0.0
16.341,3430.335,0.00029,0.0,0.0
16.347,3429.438,0.00029,0.0,0.0
16.354,3425.052,0.00029,0.0,0.0
16.36,3433.224,0.00029,0.0,0.0
16.366,3418.214,0.00029,0.0,0.0
16.372,3417.775,0.00029,0.0,0.0
16.379,3423.039,0.00029,0.0,0.0
16.385,3436.72,0.00029,0.0,0.0
16.391,3416.522,0.00029,0.0,0.0
16.398,3420.34,0.00029,0.0,0.0
16.404,3419.938,0.00029,0.0,0.0
16.41,3423.476,0.00029,0.0,0.0
16.417,3425.415,0.00029,0.0,0.0
16.423,3428.777,0.00029,0.0,0.0
16.429,3431.399,0.00029,0.0,0.0
16.436,3425.074,0.00029,0.0,0.0
16.442,3417.933,0.00029,0.0,0.0
16.448,3418.336,0.00029,0.0,0.0
16.455,3424.655,0.00029,0.0,0.0
16.461,3424.441,0.00029,0.0,0.0
16.467,3434.351,0.00029,0.0,0.0
16.474,3434.638,0.00029,0.0,0.0
16.48,3439.642,0.00029,0.0,0.0
16.486,3433.343,0.00029,0.0,0.0
16.493,3439.465,0.00029,0.0,0.0
16.499,3439.184,0.00029,0.0,0.0
16.505,3443.335,0.00029,0.0,0.0
16.512,3438.098,0.00029,0.0,0.0
16.518,3433.084,0.00029,0.0,0.0
16.524,3432.974,0.00029,0.0,0.0
16.53,3443.046,0.00029,0.0,0.0
16.537,3441.035,0.00029,0.0,0.0
16.543,3436.193,0.00029,0.0,0.0
16.549,3430.639,0.00029,0.0,0.0
16.556,3446.882,0.00029,0.0,0.0
16.562,3441.391,0.00029,0.0,0.0
16.568,3443.449,0.00029,0.0,0.0
16.575,3441.078,0.00029,0.0,0.0
16.581,3444.109,0.00029,0.0,0.0
16.587,3438.556,0.00029,0.0,0.0
16.594,3467.867,0.00029,0.0,0.0
