"x","y_obs","weight","y_calc","y_bkg"
0.8,2650.547,0.00038,0.0,0.0
0.806,3029.093,0.00033,0.0,0.0
0.813,3125.532,0.00032,0.0,0.0
0.819,3045.824,0.00033,0.0,0.0
0.825,3716.777,0.00027,0.0,0.0
0.832,3470.574,0.00029,0.0,0.0
0.838,3701.144,0.00027,0.0,0.0
0.844,4101.781,0.00024,0.0,0.0
0.851,3968.007,0.00025,0.0,0.0
0.857,4444.709,0.00022,0.0,0.0
0.863,4778.644,0.00021,0.0,0.0
0.87,4384.032,0.00023,0.0,0.0
0.876,5235.969,0.00019,0.0,0.0
0.882,5123.662,0.0002,0.0,0.0
0.888,5374.03,0.00019,0.0,0.0
0.895,5592.571,0.00018,0.0,0.0
0.901,5620.538,0.00018,0.0,0.0
0.907,6145.56,0.00016,0.0,0.0
0.914,6332.143,0.00016,0.0,0.0
0.92,5980.376,0.00017,0.0,0.0
0.926,6635.019,0.00015,0.0,0.0
0.933,6669.84,0.00015,0.0,0.0
0.939,6472.144,0.00015,0.0,0.0
0.945,7157.731,0.00014,0.0,0.0
0.952,6773.012,0.00015,0.0,0.0
0.958,7168.553,0.00014,0.0,0.0
0.964,7196.026,0.00014,0.0,0.0
0.971,6969.525,0.00014,0.0,0.0
0.977,7486.978,0.00013,0.0,0.0
0.983,7481.879,0.00013,0.0,0.0
0.99,7294.247,0.00014,0.0,0.0
0.996,7655.166,0.00013,0.0,0.0
1.002,7359.895,0.00014,0.0,0.0
1.009,7572.295,0.00013,0.0,0.0
1.015,7713.338,0.00013,0.0,0.0
1.021,7437.271,0.00013,0.0,0.0
1.028,7785.91,0.00013,0.0,0.0
1.034,7643.444,0.00013,0.0,0.0
1.04,7628.097,0.00013,0.0,0.0
1.046,7646.305,0.00013,0.0,0.0
1.053,7647.558,0.00013,0.0,0.0
1.059,7608.428,0.00013,0.0,0.0
1.065,7740.161,0.00013,0.0,0.0
1.072,7540.799,0.00013,0.0,0.0
1.078,7727.098,0.00013,0.0,0.0
1.084,7516.879,0.00013,0.0,0.0
1.091,7601.602,0.00013,0.0,0.0
1.097,7592.771,0.00013,0.0,0.0
1.103,7559.398,0.00013,0.0,0.0
1.11,7483.347,0.00013,0.0,0.0
1.116,7527.533,0.00013,0.0,0.0
1.122,7412.447,0.00013,0.0,0.0
1.129,7428.325,0.00013,0.0,0.0
1.135,7376.729,0.00014,0.0,0.0
1.141,7367.262,0.00014,0.0,0.0
1.148,7348.234,0.00014,0.0,0.0
1.154,7233.241,0.00014,0.0,0.0
1.16,7243.139,0.00014,0.0,0.0
1.167,7136.424,0.00014,0.0,0.0
1.173,7173.205,0.00014,0.0,0.0
1.179,7135.861,0.00014,0.0,0.0
1.186,7108.52,0.00014,0.0,0.0
1.192,7033.529,0.00014,0.0,0.0
1.198,7007.252,0.00014,0.0,0.0
1.204,6958.715,0.00014,0.0,0.0
1.211,6994.941,0.00014,0.0,0.0
1.217,6922.84,0.00014,0.0,0.0
1.223,6862.209,0.00015,0.0,0.0
1.23,6839.082,0.00015,0.0,0.0
1.236,6803.649,0.00015,0.0,0.0
1.242,6772.469,0.00015,0.0,0.0
1.249,6753.715,0.00015,0.0,0.0
1.255,6707.282,0.00015,0.0,0.0
1.261,6700.415,0.00015,0.0,0.0
1.268,6674.387,0.00015,0.0,0.0
1.274,6609.546,0.00015,0.0,0.0
1.28,6609.566,0.00015,0.0,0.0
1.287,6576.278,0.00015,0.0,0.0
1.293,6616.571,0.00015,0.0,0.0
1.299,6546.698,0.00015,0.0,0.0
1.306,6528.766,0.00015,0.0,0.0
1.312,6472.96,0.00015,0.0,0.0
1.318,6520.181,0.00015,0.0,0.0
1.325,6442.914,0.00016,0.0,0.0
1.331,6504.229,0.00015,0.0,0.0
1.337,6442.788,0.00016,0.0,0.0
1.344,6428.443,0.00016,0.0,0.0
1.35,6454.781,0.00015,0.0,0.0
1.356,6389.136,0.00016,0.0,0.0
1.362,6412.732,0.00016,0.0,0.0
1.369,6350.778,0.00016,0.0,0.0
1.375,6376.592,0.00016,0.0,0.0
1.381,6375.078,0.00016,0.0,0.0
1.388,6404.016,0.00016,0.0,0.0
1.394,6313.753,0.00016,0.0,0.0
1.4,6399.914,0.00016,0.0,0.0
1.407,6308.944,0.00016,0.0,0.0
1.413,6366.312,0.00016,0.0,0.0
1.419,6355.442,0.00016,0.0,0.0
1.426,6367.915,0.00016,0.0,0.0
1.432,6359.551,0.00016,0.0,0.0
1.438,6331.077,0.00016,0.0,0.0
1.445,6323.951,0.00016,0.0,0.0
1.451,6328.326,0.00016,0.0,0.0
1.457,6359.168,0.00016,0.0,0.0
1.464,6366.496,0.00016,0.0,0.0
1.47,6333.855,0.00016,0.0,0.0
1.476,6310.94,0.00016,0.0,0.0
1.483,6388.185,0.00016,0.0,0.0
1.489,6342.92,0.00016,0.0,0.0
1.495,6339.206,0.00016,0.0,0.0
1.502,6368.22,0.00016,0.0,0.0
1.508,6359.084,0.00016,0.0,0.0
1.514,6352.79,0.00016,0.0,0.0
1.52,6389.728,0.00016,0.0,0.0
1.527,6357.519,0.00016,0.0,0.0
1.533,6423.441,0.00016,0.0,0.0
1.539,6382.825,0.00016,0.0,0.0
1.546,6396.432,0.00016,0.0,0.0
1.552,6430.038,0.00016,0.0,0.0
1.558,6450.171,0.00016,0.0,0.0
1.565,6470.115,0.00015,0.0,0.0
1.571,6464.43,0.00015,0.0,0.0
1.577,6437.794,0.00016,0.0,0.0
1.584,6484.315,0.00015,0.0,0.0
1.59,6475.337,0.00015,0.0,0.0
1.596,6450.824,0.00016,0.0,0.0
1.603,6548.953,0.00015,0.0,0.0
1.609,6470.121,0.00015,0.0,0.0
1.615,6556.589,0.00015,0.0,0.0
1.622,6597.596,0.00015,0.0,0.0
1.628,6550.921,0.00015,0.0,0.0
1.634,6600.37,0.00015,0.0,0.0
1.641,6615.897,0.00015,0.0,0.0
1.647,6608.309,0.00015,0.0,0.0
1.653,6701.576,0.00015,0.0,0.0
1.66,6612.419,0.00015,0.0,0.0
1.666,6725.164,0.00015,0.0,0.0
1.672,6719.998,0.00015,0.0,0.0
1.678,6700.594,0.00015,0.0,0.0
1.685,6748.114,0.00015,0.0,0.0
1.691,6741.835,0.00015,0.0,0.0
1.697,6767.867,0.00015,0.0,0.0
1.704,6762.891,0.00015,0.0,0.0
1.71,6788.249,0.00015,0.0,0.0
1.716,6836.564,0.00015,0.0,0.0
1.723,6871.35,0.00015,0.0,0.0
1.729,6869.87,0.00015,0.0,0.0
1.735,6916.133,0.00014,0.0,0.0
1.742,6873.725,0.00015,0.0,0.0
1.748,6887.332,0.00015,0.0,0.0
1.754,6957.049,0.00014,0.0,0.0
1.761,6992.177,0.00014,0.0,0.0
1.767,6952.541,0.00014,0.0,0.0
1.773,6976.567,0.00014,0.0,0.0
1.78,6969.04,0.00014,0.0,0.0
1.786,7002.943,0.00014,0.0,0.0
1.792,7002.837,0.00014,0.0,0.0
1.799,7029.55,0.00014,0.0,0.0
1.805,7002.028,0.00014,0.0,0.0
1.811,7023.35,0.00014,0.0,0.0
1.818,6998.014,0.00014,0.0,0.0
1.824,7039.511,0.00014,0.0,0.0
1.83,7088.354,0.00014,0.0,0.0
1.836,7067.904,0.00014,0.0,0.0
1.843,7106.006,0.00014,0.0,0.0
1.849,7089.608,0.00014,0.0,0.0
1.855,7076.741,0.00014,0.0,0.0
1.862,7104.267,0.00014,0.0,0.0
1.868,7094.503,0.00014,0.0,0.0
1.874,7117.022,0.00014,0.0,0.0
1.881,7119.694,0.00014,0.0,0.0
1.887,7127.861,0.00014,0.0,0.0
1.893,7103.598,0.00014,0.0,0.0
1.9,7124.493,0.00014,0.0,0.0
1.906,7134.652,0.00014,0.0,0.0
1.912,7158.707,0.00014,0.0,0.0
1.919,7098.719,0.00014,0.0,0.0
1.925,7164.378,0.00014,0.0,0.0
1.931,7149.306,0.00014,0.0,0.0
1.938,7163.231,0.00014,0.0,0.0
1.944,7167.255,0.00014,0.0,0.0
1.95,7145.54,0.00014,0.0,0.0
1.957,7154.245,0.00014,0.0,0.0
1.963,7175.63,0.00014,0.0,0.0
1.969,7145.19,0.00014,0.0,0.0
1.976,7180.964,0.00014,0.0,0.0
1.982,7183.969,0.00014,0.0,0.0
1.988,7217.279,0.00014,0.0,0.0
1.994,7202.359,0.00014,0.0,0.0
2.001,7262.007,0.00014,0.0,0.0
2.007,7222.416,0.00014,0.0,0.0
2.013,7220.826,0.00014,0.0,0.0
2.02,7229.855,0.00014,0.0,0.0
2.026,7257.651,0.00014,0.0,0.0
2.032,7252.744,0.00014,0.0,0.0
2.039,7275.396,0.00014,0.0,0.0
2.045,7313.212,0.00014,0.0,0.0
2.051,7285.702,0.00014,0.0,0.0
2.058,7302.822,0.00014,0.0,0.0
2.064,7318.652,0.00014,0.0,0.0
2.07,7335.56,0.00014,0.0,0.0
2.077,7338.991,0.00014,0.0,0.0
2.083,7353.762,0.00014,0.0,0.0
2.089,7314.721,0.00014,0.0,0.0
2.096,7348.379,0.00014,0.0,0.0
2.102,7377.189,0.00014,0.0,0.0
2.108,7410.454,0.00013,0.0,0.0
2.115,7443.893,0.00013,0.0,0.0
2.121,7488.627,0.00013,0.0,0.0
2.127,7469.799,0.00013,0.0,0.0
2.134,7488.79,0.00013,0.0,0.0
2.14,7456.458,0.00013,0.0,0.0
2.146,7543.758,0.00013,0.0,0.0
2.152,7539.253,0.00013,0.0,0.0
2.159,7557.998,0.00013,0.0,0.0
2.165,7580.941,0.00013,0.0,0.0
2.171,7597.533,0.00013,0.0,0.0
2.178,7613.173,0.00013,0.0,0.0
2.184,7633.88,0.00013,0.0,0.0
2.19,7661.624,0.00013,0.0,0.0
2.197,7668.514,0.00013,0.0,0.0
2.203,7718.855,0.00013,0.0,0.0
2.209,7697.906,0.00013,0.0,0.0
2.216,7743.828,0.00013,0.0,0.0
2.222,7763.662,0.00013,0.0,0.0
2.228,7770.754,0.00013,0.0,0.0
2.235,7777.061,0.00013,0.0,0.0
2.241,7834.602,0.00013,0.0,0.0
2.247,7843.643,0.00013,0.0,0.0
2.254,7883.321,0.00013,0.0,0.0
2.26,7915.357,0.00013,0.0,0.0
2.266,7940.185,0.00013,0.0,0.0
2.273,7986.714,0.00013,0.0,0.0
2.279,7966.364,0.00013,0.0,0.0
2.285,8077.942,0.00012,0.0,0.0
2.292,8070.562,0.00012,0.0,0.0
2.298,8091.725,0.00012,0.0,0.0
2.304,8140.354,0.00012,0.0,0.0
2.31,8203.853,0.00012,0.0,0.0
2.317,8222.85,0.00012,0.0,0.0
2.323,8203.475,0.00012,0.0,0.0
2.329,8255.775,0.00012,0.0,0.0
2.336,8296.206,0.00012,0.0,0.0
2.342,8333.784,0.00012,0.0,0.0
2.348,8400.462,0.00012,0.0,0.0
2.355,8438.525,0.00012,0.0,0.0
2.361,8437.183,0.00012,0.0,0.0
2.367,8521.469,0.00012,0.0,0.0
2.374,8543.899,0.00012,0.0,0.0
2.38,8618.759,0.00012,0.0,0.0
2.386,8643.022,0.00012,0.0,0.0
2.393,8699.31,0.00011,0.0,0.0
2.399,8735.161,0.00011,0.0,0.0
2.405,8804.11,0.00011,0.0,0.0
2.412,8832.62,0.00011,0.0,0.0
2.418,8907.001,0.00011,0.0,0.0
2.424,8999.686,0.00011,0.0,0.0
2.431,9012.497,0.00011,0.0,0.0
2.437,9091.921,0.00011,0.0,0.0
2.443,9207.122,0.00011,0.0,0.0
2.45,9232.841,0.00011,0.0,0.0
2.456,9345.867,0.00011,0.0,0.0
2.462,9415.824,0.00011,0.0,0.0
2.468,9478.862,0.00011,0.0,0.0
2.475,9647.589,0.0001,0.0,0.0
2.481,9702.093,0.0001,0.0,0.0
2.487,9766.184,0.0001,0.0,0.0
2.494,9938.623,0.0001,0.0,0.0
2.5,9939.497,0.0001,0.0,0.0
2.506,10110.47,0.0001,0.0,0.0
2.513,10114.26,0.0001,0.0,0.0
2.519,10162.917,0.0001,0.0,0.0
2.525,10341.181,0.0001,0.0,0.0
2.532,10289.0,0.0001,0.0,0.0
2.538,10374.331,0.0001,0.0,0.0
2.544,10438.521,0.0001,0.0,0.0
2.551,10376.591,0.0001,0.0,0.0
2.557,10490.676,0.0001,0.0,0.0
2.563,10415.872,0.0001,0.0,0.0
2.57,10376.76,0.0001,0.0,0.0
2.576,10442.002,0.0001,0.0,0.0
2.582,10344.252,0.0001,0.0,0.0
2.589,10316.569,0.0001,0.0,0.0
2.595,10367.139,0.0001,0.0,0.0
2.601,10253.276,0.0001,0.0,0.0
2.608,10338.372,0.0001,0.0,0.0
2.614,10284.934,0.0001,0.0,0.0
2.62,10274.197,0.0001,0.0,0.0
2.626,10323.15,0.0001,0.0,0.0
2.633,10326.673,0.0001,0.0,0.0
2.639,10316.514,0.0001,0.0,0.0
2.645,10374.708,0.0001,0.0,0.0
2.652,10383.824,0.0001,0.0,0.0
2.658,10423.591,0.0001,0.0,0.0
2.664,10430.851,0.0001,0.0,0.0
2.671,10428.883,0.0001,0.0,0.0
2.677,10540.94,0.00009,0.0,0.0
2.683,10505.824,0.0001,0.0,0.0
2.69,10596.421,0.00009,0.0,0.0
2.696,10655.595,0.00009,0.0,0.0
2.702,10693.033,0.00009,0.0,0.0
2.709,10735.182,0.00009,0.0,0.0
2.715,10738.941,0.00009,0.0,0.0
2.721,10778.052,0.00009,0.0,0.0
2.728,10886.752,0.00009,0.0,0.0
2.734,10886.926,0.00009,0.0,0.0
2.74,10940.499,0.00009,0.0,0.0
2.747,10978.808,0.00009,0.0,0.0
2.753,10988.09,0.00009,0.0,0.0
2.759,11067.882,0.00009,0.0,0.0
2.766,11101.871,0.00009,0.0,0.0
2.772,11158.147,0.00009,0.0,0.0
2.778,11196.938,0.00009,0.0,0.0
2.784,11217.57,0.00009,0.0,0.0
2.791,11248.662,0.00009,0.0,0.0
2.797,11287.984,0.00009,0.0,0.0
2.803,11313.594,0.00009,0.0,0.0
2.81,11367.524,0.00009,0.0,0.0
2.816,11388.909,0.00009,0.0,0.0
2.822,11424.967,0.00009,0.0,0.0
2.829,11444.093,0.00009,0.0,0.0
2.835,11494.737,0.00009,0.0,0.0
2.841,11519.157,0.00009,0.0,0.0
2.848,11565.995,0.00009,0.0,0.0
2.854,11594.192,0.00009,0.0,0.0
2.86,11641.023,0.00009,0.0,0.0
2.867,11694.667,0.00009,0.0,0.0
2.873,11706.135,0.00009,0.0,0.0
2.879,11753.566,0.00009,0.0,0.0
2.886,11784.988,0.00008,0.0,0.0
2.892,11825.626,0.00008,0.0,0.0
2.898,11864.131,0.00008,0.0,0.0
2.905,11874.507,0.00008,0.0,0.0
2.911,11935.299,0.00008,0.0,0.0
2.917,12011.725,0.00008,0.0,0.0
2.924,11968.453,0.00008,0.0,0.0
2.93,12056.505,0.00008,0.0,0.0
2.936,12084.653,0.00008,0.0,0.0
2.942,12076.342,0.00008,0.0,0.0
2.949,12169.0,0.00008,0.0,0.0
2.955,12188.324,0.00008,0.0,0.0
2.961,12216.757,0.00008,0.0,0.0
2.968,12234.703,0.00008,0.0,0.0
2.974,12270.264,0.00008,0.0,0.0
2.98,12269.17,0.00008,0.0,0.0
2.987,12311.535,0.00008,0.0,0.0
2.993,12338.53,0.00008,0.0,0.0
2.999,12378.833,0.00008,0.0,0.0
3.006,12381.564,0.00008,0.0,0.0
3.012,12415.616,0.00008,0.0,0.0
3.018,12401.706,0.00008,0.0,0.0
3.025,12397.283,0.00008,0.0,0.0
3.031,12479.838,0.00008,0.0,0.0
3.037,12488.717,0.00008,0.0,0.0
3.044,12493.206,0.00008,0.0,0.0
3.05,12519.152,0.00008,0.0,0.0
3.056,12484.704,0.00008,0.0,0.0
3.063,12505.823,0.00008,0.0,0.0
3.069,12493.343,0.00008,0.0,0.0
3.075,12500.982,0.00008,0.0,0.0
3.082,12476.181,0.00008,0.0,0.0
3.088,12504.018,0.00008,0.0,0.0
3.094,12481.986,0.00008,0.0,0.0
3.1,12477.119,0.00008,0.0,0.0
3.107,12483.745,0.00008,0.0,0.0
3.113,12473.402,0.00008,0.0,0.0
3.119,12504.229,0.00008,0.0,0.0
3.126,12454.258,0.00008,0.0,0.0
3.132,12468.319,0.00008,0.0,0.0
3.138,12443.637,0.00008,0.0,0.0
3.145,12420.402,0.00008,0.0,0.0
3.151,12455.708,0.00008,0.0,0.0
3.157,12430.132,0.00008,0.0,0.0
3.164,12410.355,0.00008,0.0,0.0
3.17,12376.026,0.00008,0.0,0.0
3.176,12373.073,0.00008,0.0,0.0
3.183,12336.162,0.00008,0.0,0.0
3.189,12312.56,0.00008,0.0,0.0
3.195,12280.692,0.00008,0.0,0.0
3.202,12271.191,0.00008,0.0,0.0
3.208,12216.203,0.00008,0.0,0.0
3.214,12212.066,0.00008,0.0,0.0
3.221,12189.631,0.00008,0.0,0.0
3.227,12179.999,0.00008,0.0,0.0
3.233,12154.624,0.00008,0.0,0.0
3.24,12101.536,0.00008,0.0,0.0
3.246,12104.375,0.00008,0.0,0.0
3.252,12097.901,0.00008,0.0,0.0
3.258,11993.763,0.00008,0.0,0.0
3.265,12010.194,0.00008,0.0,0.0
3.271,11972.45,0.00008,0.0,0.0
3.277,11919.777,0.00008,0.0,0.0
3.284,11887.927,0.00008,0.0,0.0
3.29,11853.379,0.00008,0.0,0.0
3.296,11815.36,0.00008,0.0,0.0
3.303,11835.084,0.00008,0.0,0.0
3.309,11776.77,0.00008,0.0,0.0
3.315,11756.142,0.00009,0.0,0.0
3.322,11721.006,0.00009,0.0,0.0
3.328,11668.277,0.00009,0.0,0.0
3.334,11642.864,0.00009,0.0,0.0
3.341,11650.29,0.00009,0.0,0.0
3.347,11599.48,0.00009,0.0,0.0
3.353,11540.372,0.00009,0.0,0.0
3.36,11523.838,0.00009,0.0,0.0
3.366,11489.411,0.00009,0.0,0.0
3.372,11456.059,0.00009,0.0,0.0
3.379,11421.925,0.00009,0.0,0.0
3.385,11385.246,0.00009,0.0,0.0
3.391,11342.317,0.00009,0.0,0.0
3.398,11323.876,0.00009,0.0,0.0
3.404,11295.028,0.00009,0.0,0.0
3.41,11245.342,0.00009,0.0,0.0
3.416,11191.213,0.00009,0.0,0.0
3.423,11206.315,0.00009,0.0,0.0
3.429,11144.967,0.00009,0.0,0.0
3.435,11147.687,0.00009,0.0,0.0
3.442,11117.67,0.00009,0.0,0.0
3.448,11068.527,0.00009,0.0,0.0
3.454,11056.508,0.00009,0.0,0.0
3.461,11001.342,0.00009,0.0,0.0
3.467,10986.141,0.00009,0.0,0.0
3.473,10953.966,0.00009,0.0,0.0
3.48,10898.558,0.00009,0.0,0.0
3.486,10867.924,0.00009,0.0,0.0
3.492,10850.656,0.00009,0.0,0.0
3.499,10842.34,0.00009,0.0,0.0
3.505,10801.739,0.00009,0.0,0.0
3.511,10783.055,0.00009,0.0,0.0
3.518,10758.283,0.00009,0.0,0.0
3.524,10767.294,0.00009,0.0,0.0
3.53,10683.343,0.00009,0.0,0.0
3.537,10690.959,0.00009,0.0,0.0
3.543,10627.524,0.00009,0.0,0.0
3.549,10635.168,0.00009,0.0,0.0
3.556,10626.566,0.00009,0.0,0.0
3.562,10580.374,0.00009,0.0,0.0
3.568,10558.161,0.00009,0.0,0.0
3.574,10545.573,0.00009,0.0,0.0
3.581,10540.7,0.00009,0.0,0.0
3.587,10497.154,0.0001,0.0,0.0
3.593,10477.876,0.0001,0.0,0.0
3.6,10461.364,0.0001,0.0,0.0
3.606,10452.899,0.0001,0.0,0.0
3.612,10408.955,0.0001,0.0,0.0
3.619,10430.984,0.0001,0.0,0.0
3.625,10387.964,0.0001,0.0,0.0
3.631,10385.082,0.0001,0.0,0.0
3.638,10373.591,0.0001,0.0,0.0
3.644,10389.171,0.0001,0.0,0.0
3.65,10391.171,0.0001,0.0,0.0
3.657,10378.803,0.0001,0.0,0.0
3.663,10377.335,0.0001,0.0,0.0
3.669,10357.885,0.0001,0.0,0.0
3.676,10357.211,0.0001,0.0,0.0
3.682,10363.379,0.0001,0.0,0.0
3.688,10341.751,0.0001,0.0,0.0
3.695,10366.658,0.0001,0.0,0.0
3.701,10373.324,0.0001,0.0,0.0
3.707,10407.974,0.0001,0.0,0.0
3.714,10394.324,0.0001,0.0,0.0
3.72,10403.327,0.0001,0.0,0.0
3.726,10396.955,0.0001,0.0,0.0
3.732,10425.821,0.0001,0.0,0.0
3.739,10448.185,0.0001,0.0,0.0
3.745,10437.971,0.0001,0.0,0.0
3.751,10470.735,0.0001,0.0,0.0
3.758,10487.436,0.0001,0.0,0.0
3.764,10496.799,0.0001,0.0,0.0
3.77,10497.634,0.0001,0.0,0.0
3.777,10580.071,0.00009,0.0,0.0
3.783,10579.687,0.00009,0.0,0.0
3.789,10647.449,0.00009,0.0,0.0
3.796,10614.076,0.00009,0.0,0.0
3.802,10680.214,0.00009,0.0,0.0
3.808,10699.596,0.00009,0.0,0.0
3.815,10715.485,0.00009,0.0,0.0
3.821,10756.847,0.00009,0.0,0.0
3.827,10808.632,0.00009,0.0,0.0
3.834,10804.471,0.00009,0.0,0.0
3.84,10848.791,0.00009,0.0,0.0
3.846,10846.244,0.00009,0.0,0.0
3.853,10837.01,0.00009,0.0,0.0
3.859,10878.716,0.00009,0.0,0.0
3.865,10836.941,0.00009,0.0,0.0
3.872,10878.46,0.00009,0.0,0.0
3.878,10878.36,0.00009,0.0,0.0
3.884,10853.173,0.00009,0.0,0.0
3.89,10864.701,0.00009,0.0,0.0
3.897,10837.006,0.00009,0.0,0.0
3.903,10804.544,0.00009,0.0,0.0
3.909,10777.793,0.00009,0.0,0.0
3.916,10761.613,0.00009,0.0,0.0
3.922,10716.596,0.00009,0.0,0.0
3.928,10677.135,0.00009,0.0,0.0
3.935,10646.134,0.00009,0.0,0.0
3.941,10621.056,0.00009,0.0,0.0
3.947,10576.404,0.00009,0.0,0.0
3.954,10542.903,0.00009,0.0,0.0
3.96,10498.277,0.0001,0.0,0.0
3.966,10477.796,0.0001,0.0,0.0
3.973,10402.344,0.0001,0.0,0.0
3.979,10364.259,0.0001,0.0,0.0
3.985,10298.988,0.0001,0.0,0.0
3.992,10284.879,0.0001,0.0,0.0
3.998,10237.947,0.0001,0.0,0.0
4.004,10165.087,0.0001,0.0,0.0
4.011,10189.915,0.0001,0.0,0.0
4.017,10079.905,0.0001,0.0,0.0
4.023,10064.234,0.0001,0.0,0.0
4.03,10043.518,0.0001,0.0,0.0
4.036,9986.456,0.0001,0.0,0.0
4.042,9975.401,0.0001,0.0,0.0
4.048,9923.678,0.0001,0.0,0.0
4.055,9885.39,0.0001,0.0,0.0
4.061,9869.827,0.0001,0.0,0.0
4.067,9814.018,0.0001,0.0,0.0
4.074,9791.742,0.0001,0.0,0.0
4.08,9771.797,0.0001,0.0,0.0
4.086,9737.785,0.0001,0.0,0.0
4.093,9711.035,0.0001,0.0,0.0
4.099,9644.73,0.0001,0.0,0.0
4.105,9642.37,0.0001,0.0,0.0
4.112,9646.067,0.0001,0.0,0.0
4.118,9560.578,0.0001,0.0,0.0
4.124,9621.873,0.0001,0.0,0.0
4.131,9561.795,0.0001,0.0,0.0
4.137,9521.704,0.00011,0.0,0.0
4.143,9540.699,0.0001,0.0,0.0
4.15,9468.513,0.00011,0.0,0.0
4.156,9491.733,0.00011,0.0,0.0
4.162,9477.467,0.00011,0.0,0.0
4.169,9463.605,0.00011,0.0,0.0
4.175,9470.2,0.00011,0.0,0.0
4.181,9402.139,0.00011,0.0,0.0
4.188,9406.833,0.00011,0.0,0.0
4.194,9422.457,0.00011,0.0,0.0
4.2,9381.517,0.00011,0.0,0.0
4.206,9389.695,0.00011,0.0,0.0
4.213,9444.796,0.00011,0.0,0.0
4.219,9355.029,0.00011,0.0,0.0
4.225,9357.938,0.00011,0.0,0.0
4.232,9357.03,0.00011,0.0,0.0
4.238,9309.906,0.00011,0.0,0.0
4.244,9377.787,0.00011,0.0,0.0
4.251,9357.728,0.00011,0.0,0.0
4.257,9295.898,0.00011,0.0,0.0
4.263,9330.225,0.00011,0.0,0.0
4.27,9307.54,0.00011,0.0,0.0
4.276,9295.989,0.00011,0.0,0.0
4.282,9356.615,0.00011,0.0,0.0
4.289,9301.654,0.00011,0.0,0.0
4.295,9330.69,0.00011,0.0,0.0
4.301,9278.96,0.00011,0.0,0.0
4.308,9292.852,0.00011,0.0,0.0
4.314,9276.839,0.00011,0.0,0.0
4.32,9230.395,0.00011,0.0,0.0
4.327,9319.677,0.00011,0.0,0.0
4.333,9266.721,0.00011,0.0,0.0
4.339,9252.213,0.00011,0.0,0.0
4.346,9323.381,0.00011,0.0,0.0
4.352,9259.273,0.00011,0.0,0.0
4.358,9272.472,0.00011,0.0,0.0
4.364,9311.971,0.00011,0.0,0.0
4.371,9311.948,0.00011,0.0,0.0
4.377,9334.521,0.00011,0.0,0.0
4.383,9283.596,0.00011,0.0,0.0
4.39,9276.37,0.00011,0.0,0.0
4.396,9342.559,0.00011,0.0,0.0
4.402,9390.856,0.00011,0.0,0.0
4.409,9389.737,0.00011,0.0,0.0
4.415,9414.342,0.00011,0.0,0.0
4.421,9333.728,0.00011,0.0,0.0
4.428,9505.587,0.00011,0.0,0.0
4.434,9292.655,0.00011,0.0,0.0
4.44,9454.419,0.00011,0.0,0.0
4.447,9633.553,0.0001,0.0,0.0
4.453,9486.7,0.00011,0.0,0.0
4.459,9525.473,0.0001,0.0,0.0
4.466,9567.672,0.0001,0.0,0.0
4.472,9504.337,0.00011,0.0,0.0
4.478,9666.827,0.0001,0.0,0.0
4.485,9693.855,0.0001,0.0,0.0
4.491,9622.023,0.0001,0.0,0.0
4.497,9902.357,0.0001,0.0,0.0
4.504,9591.22,0.0001,0.0,0.0
4.51,9956.613,0.0001,0.0,0.0
4.516,9897.82,0.0001,0.0,0.0
4.522,10208.102,0.0001,0.0,0.0
4.529,10450.58,0.0001,0.0,0.0
4.535,10686.696,0.00009,0.0,0.0
4.541,11733.171,0.00009,0.0,0.0
4.548,12731.884,0.00008,0.0,0.0
4.554,14285.483,0.00007,0.0,0.0
4.56,16384.42,0.00006,0.0,0.0
4.567,15135.639,0.00007,0.0,0.0
4.573,12739.337,0.00008,0.0,0.0
4.579,14285.046,0.00007,0.0,0.0
4.586,11740.083,0.00009,0.0,0.0
4.592,10673.22,0.00009,0.0,0.0
4.598,10261.551,0.0001,0.0,0.0
4.605,9918.426,0.0001,0.0,0.0
4.611,10032.45,0.0001,0.0,0.0
4.617,9844.898,0.0001,0.0,0.0
4.624,9515.621,0.00011,0.0,0.0
4.63,9636.144,0.0001,0.0,0.0
4.636,9552.054,0.0001,0.0,0.0
4.643,9453.22,0.00011,0.0,0.0
4.649,9637.554,0.0001,0.0,0.0
4.655,9242.385,0.00011,0.0,0.0
4.662,9349.416,0.00011,0.0,0.0
4.668,9261.641,0.00011,0.0,0.0
4.674,9143.382,0.00011,0.0,0.0
4.68,9284.42,0.00011,0.0,0.0
4.687,9083.5,0.00011,0.0,0.0
4.693,8974.568,0.00011,0.0,0.0
4.699,9125.854,0.00011,0.0,0.0
4.706,8738.464,0.00011,0.0,0.0
4.712,8949.563,0.00011,0.0,0.0
4.718,8822.08,0.00011,0.0,0.0
4.725,8768.736,0.00011,0.0,0.0
4.731,8873.528,0.00011,0.0,0.0
4.737,8622.804,0.00012,0.0,0.0
4.744,8648.098,0.00012,0.0,0.0
4.75,8679.994,0.00012,0.0,0.0
4.756,8497.861,0.00012,0.0,0.0
4.763,8634.919,0.00012,0.0,0.0
4.769,8516.226,0.00012,0.0,0.0
4.775,8387.422,0.00012,0.0,0.0
4.782,8545.964,0.00012,0.0,0.0
4.788,8275.669,0.00012,0.0,0.0
4.794,8338.401,0.00012,0.0,0.0
4.801,8342.614,0.00012,0.0,0.0
4.807,8243.199,0.00012,0.0,0.0
4.813,8317.797,0.00012,0.0,0.0
4.82,8246.421,0.00012,0.0,0.0
4.826,8133.626,0.00012,0.0,0.0
4.832,8220.547,0.00012,0.0,0.0
4.838,8104.634,0.00012,0.0,0.0
4.845,8132.559,0.00012,0.0,0.0
4.851,8151.67,0.00012,0.0,0.0
4.857,7980.679,0.00013,0.0,0.0
4.864,8103.846,0.00012,0.0,0.0
4.87,7939.414,0.00013,0.0,0.0
4.876,7995.06,0.00013,0.0,0.0
4.883,7981.658,0.00013,0.0,0.0
4.889,7918.662,0.00013,0.0,0.0
4.895,7864.024,0.00013,0.0,0.0
4.902,7894.569,0.00013,0.0,0.0
4.908,7787.433,0.00013,0.0,0.0
4.914,7839.058,0.00013,0.0,0.0
4.921,7766.735,0.00013,0.0,0.0
4.927,7749.592,0.00013,0.0,0.0
4.933,7785.266,0.00013,0.0,0.0
4.94,7642.573,0.00013,0.0,0.0
4.946,7692.812,0.00013,0.0,0.0
4.952,7626.693,0.00013,0.0,0.0
4.959,7655.915,0.00013,0.0,0.0
4.965,7623.832,0.00013,0.0,0.0
4.971,7623.14,0.00013,0.0,0.0
4.978,7554.853,0.00013,0.0,0.0
4.984,7573.008,0.00013,0.0,0.0
4.99,7514.739,0.00013,0.0,0.0
4.996,7523.174,0.00013,0.0,0.0
5.003,7491.167,0.00013,0.0,0.0
5.009,7478.756,0.00013,0.0,0.0
5.015,7471.472,0.00013,0.0,0.0
5.022,7444.934,0.00013,0.0,0.0
5.028,7436.85,0.00013,0.0,0.0
5.034,7406.374,0.00014,0.0,0.0
5.041,7413.248,0.00013,0.0,0.0
5.047,7409.974,0.00013,0.0,0.0
5.053,7391.905,0.00014,0.0,0.0
5.06,7348.096,0.00014,0.0,0.0
5.066,7361.648,0.00014,0.0,0.0
5.072,7264.951,0.00014,0.0,0.0
5.079,7296.078,0.00014,0.0,0.0
5.085,7290.088,0.00014,0.0,0.0
5.091,7278.849,0.00014,0.0,0.0
5.098,7232.222,0.00014,0.0,0.0
5.104,7248.86,0.00014,0.0,0.0
5.11,7186.87,0.00014,0.0,0.0
5.117,7203.993,0.00014,0.0,0.0
5.123,7187.304,0.00014,0.0,0.0
5.129,7184.864,0.00014,0.0,0.0
5.136,7150.01,0.00014,0.0,0.0
5.142,7081.414,0.00014,0.0,0.0
5.148,7143.188,0.00014,0.0,0.0
5.154,7055.951,0.00014,0.0,0.0
5.161,7093.813,0.00014,0.0,0.0
5.167,7021.55,0.00014,0.0,0.0
5.173,7033.632,0.00014,0.0,0.0
5.18,6991.097,0.00014,0.0,0.0
5.186,6971.484,0.00014,0.0,0.0
5.192,6942.752,0.00014,0.0,0.0
5.199,6938.918,0.00014,0.0,0.0
5.205,6879.285,0.00015,0.0,0.0
5.211,6899.547,0.00014,0.0,0.0
5.218,6879.099,0.00015,0.0,0.0
5.224,6881.664,0.00015,0.0,0.0
5.23,6840.039,0.00015,0.0,0.0
5.237,6827.745,0.00015,0.0,0.0
5.243,6823.823,0.00015,0.0,0.0
5.249,6781.344,0.00015,0.0,0.0
5.256,6796.767,0.00015,0.0,0.0
5.262,6765.774,0.00015,0.0,0.0
5.268,6733.152,0.00015,0.0,0.0
5.275,6731.968,0.00015,0.0,0.0
5.281,6699.531,0.00015,0.0,0.0
5.287,6698.631,0.00015,0.0,0.0
5.294,6687.246,0.00015,0.0,0.0
5.3,6672.364,0.00015,0.0,0.0
5.306,6664.016,0.00015,0.0,0.0
5.312,6643.584,0.00015,0.0,0.0
5.319,6599.347,0.00015,0.0,0.0
5.325,6651.695,0.00015,0.0,0.0
5.331,6602.634,0.00015,0.0,0.0
5.338,6603.237,0.00015,0.0,0.0
5.344,6599.995,0.00015,0.0,0.0
5.35,6569.849,0.00015,0.0,0.0
5.357,6571.882,0.00015,0.0,0.0
5.363,6551.62,0.00015,0.0,0.0
5.369,6534.753,0.00015,0.0,0.0
5.376,6560.28,0.00015,0.0,0.0
5.382,6558.407,0.00015,0.0,0.0
5.388,6536.047,0.00015,0.0,0.0
5.395,6528.114,0.00015,0.0,0.0
5.401,6477.481,0.00015,0.0,0.0
5.407,6493.279,0.00015,0.0,0.0
5.414,6498.386,0.00015,0.0,0.0
5.42,6466.114,0.00015,0.0,0.0
5.426,6501.124,0.00015,0.0,0.0
5.433,6482.976,0.00015,0.0,0.0
5.439,6468.753,0.00015,0.0,0.0
5.445,6458.72,0.00015,0.0,0.0
5.452,6436.91,0.00016,0.0,0.0
5.458,6474.191,0.00015,0.0,0.0
5.464,6454.502,0.00015,0.0,0.0
5.47,6441.084,0.00016,0.0,0.0
5.477,6445.728,0.00016,0.0,0.0
5.483,6412.166,0.00016,0.0,0.0
5.489,6432.797,0.00016,0.0,0.0
5.496,6438.315,0.00016,0.0,0.0
5.502,6391.479,0.00016,0.0,0.0
5.508,6430.165,0.00016,0.0,0.0
5.515,6411.186,0.00016,0.0,0.0
5.521,6385.788,0.00016,0.0,0.0
5.527,6413.47,0.00016,0.0,0.0
5.534,6394.332,0.00016,0.0,0.0
5.54,6424.037,0.00016,0.0,0.0
5.546,6381.143,0.00016,0.0,0.0
5.553,6363.425,0.00016,0.0,0.0
5.559,6405.298,0.00016,0.0,0.0
5.565,6347.765,0.00016,0.0,0.0
5.572,6351.971,0.00016,0.0,0.0
5.578,6383.988,0.00016,0.0,0.0
5.584,6345.544,0.00016,0.0,0.0
5.591,6384.062,0.00016,0.0,0.0
5.597,6391.104,0.00016,0.0,0.0
5.603,6328.282,0.00016,0.0,0.0
5.61,6400.42,0.00016,0.0,0.0
5.616,6343.326,0.00016,0.0,0.0
5.622,6367.615,0.00016,0.0,0.0
5.628,6360.685,0.00016,0.0,0.0
5.635,6315.461,0.00016,0.0,0.0
5.641,6361.287,0.00016,0.0,0.0
5.647,6353.644,0.00016,0.0,0.0
5.654,6309.07,0.00016,0.0,0.0
5.66,6381.53,0.00016,0.0,0.0
5.666,6335.832,0.00016,0.0,0.0
5.673,6348.363,0.00016,0.0,0.0
5.679,6337.225,0.00016,0.0,0.0
5.685,6322.819,0.00016,0.0,0.0
5.692,6360.799,0.00016,0.0,0.0
5.698,6337.553,0.00016,0.0,0.0
5.704,6329.212,0.00016,0.0,0.0
5.711,6388.176,0.00016,0.0,0.0
5.717,6358.551,0.00016,0.0,0.0
5.723,6360.853,0.00016,0.0,0.0
5.73,6409.145,0.00016,0.0,0.0
5.736,6342.816,0.00016,0.0,0.0
5.742,6421.409,0.00016,0.0,0.0
5.749,6395.76,0.00016,0.0,0.0
5.755,6388.453,0.00016,0.0,0.0
5.761,6458.9,0.00015,0.0,0.0
5.768,6401.034,0.00016,0.0,0.0
5.774,6447.736,0.00016,0.0,0.0
5.78,6469.086,0.00015,0.0,0.0
5.786,6454.399,0.00015,0.0,0.0
5.793,6510.491,0.00015,0.0,0.0
5.799,6492.327,0.00015,0.0,0.0
5.805,6441.225,0.00016,0.0,0.0
5.812,6555.232,0.00015,0.0,0.0
5.818,6479.18,0.00015,0.0,0.0
5.824,6534.259,0.00015,0.0,0.0
5.831,6537.676,0.00015,0.0,0.0
5.837,6501.146,0.00015,0.0,0.0
5.843,6580.056,0.00015,0.0,0.0
5.85,6551.398,0.00015,0.0,0.0
5.856,6578.84,0.00015,0.0,0.0
5.862,6651.281,0.00015,0.0,0.0
5.869,6648.619,0.00015,0.0,0.0
5.875,6684.894,0.00015,0.0,0.0
5.881,6681.009,0.00015,0.0,0.0
5.888,6596.701,0.00015,0.0,0.0
5.894,6619.279,0.00015,0.0,0.0
5.9,6502.282,0.00015,0.0,0.0
5.907,6452.623,0.00015,0.0,0.0
5.913,6455.004,0.00015,0.0,0.0
5.919,6360.701,0.00016,0.0,0.0
5.926,6388.136,0.00016,0.0,0.0
5.932,6330.255,0.00016,0.0,0.0
5.938,6266.105,0.00016,0.0,0.0
5.944,6336.716,0.00016,0.0,0.0
5.951,6242.16,0.00016,0.0,0.0
5.957,6254.682,0.00016,0.0,0.0
5.963,6268.99,0.00016,0.0,0.0
5.97,6172.043,0.00016,0.0,0.0
5.976,6241.573,0.00016,0.0,0.0
5.982,6190.545,0.00016,0.0,0.0
5.989,6158.795,0.00016,0.0,0.0
5.995,6243.696,0.00016,0.0,0.0
6.001,6130.742,0.00016,0.0,0.0
6.008,6139.697,0.00016,0.0,0.0
6.014,6173.892,0.00016,0.0,0.0
6.02,6079.894,0.00016,0.0,0.0
6.027,6201.19,0.00016,0.0,0.0
6.033,6102.632,0.00016,0.0,0.0
6.039,6051.717,0.00017,0.0,0.0
6.046,6185.646,0.00016,0.0,0.0
6.052,6066.62,0.00016,0.0,0.0
6.058,6102.191,0.00016,0.0,0.0
6.065,6089.707,0.00016,0.0,0.0
6.071,6044.482,0.00017,0.0,0.0
6.077,6123.518,0.00016,0.0,0.0
6.084,6080.379,0.00016,0.0,0.0
6.09,6031.193,0.00017,0.0,0.0
6.096,6127.489,0.00016,0.0,0.0
6.102,5995.907,0.00017,0.0,0.0
6.109,6089.639,0.00016,0.0,0.0
6.115,6063.878,0.00016,0.0,0.0
6.121,5998.716,0.00017,0.0,0.0
6.128,6126.205,0.00016,0.0,0.0
6.134,6030.538,0.00017,0.0,0.0
6.14,6037.065,0.00017,0.0,0.0
6.147,6090.214,0.00016,0.0,0.0
6.153,6007.497,0.00017,0.0,0.0
6.159,6092.074,0.00016,0.0,0.0
6.166,6045.979,0.00017,0.0,0.0
6.172,5997.765,0.00017,0.0,0.0
6.178,6129.763,0.00016,0.0,0.0
6.185,6035.059,0.00017,0.0,0.0
6.191,6069.543,0.00016,0.0,0.0
6.197,6098.016,0.00016,0.0,0.0
6.204,6049.054,0.00017,0.0,0.0
6.21,6128.703,0.00016,0.0,0.0
6.216,6045.32,0.00017,0.0,0.0
6.223,6015.399,0.00017,0.0,0.0
6.229,6142.886,0.00016,0.0,0.0
6.235,6024.96,0.00017,0.0,0.0
6.242,6091.041,0.00016,0.0,0.0
6.248,6088.562,0.00016,0.0,0.0
6.254,6009.682,0.00017,0.0,0.0
6.26,6095.637,0.00016,0.0,0.0
6.267,6043.529,0.00017,0.0,0.0
6.273,6030.281,0.00017,0.0,0.0
6.279,6137.638,0.00016,0.0,0.0
6.286,6042.04,0.00017,0.0,0.0
6.292,6087.576,0.00016,0.0,0.0
6.298,6088.441,0.00016,0.0,0.0
6.305,6041.037,0.00017,0.0,0.0
6.311,6148.2,0.00016,0.0,0.0
6.317,6064.039,0.00016,0.0,0.0
6.324,6066.194,0.00016,0.0,0.0
6.33,6163.521,0.00016,0.0,0.0
6.336,6070.742,0.00016,0.0,0.0
6.343,6128.708,0.00016,0.0,0.0
6.349,6134.203,0.00016,0.0,0.0
6.355,6109.816,0.00016,0.0,0.0
6.362,6228.484,0.00016,0.0,0.0
6.368,6146.399,0.00016,0.0,0.0
6.374,6188.863,0.00016,0.0,0.0
6.381,6229.21,0.00016,0.0,0.0
6.387,6161.063,0.00016,0.0,0.0
6.393,6272.053,0.00016,0.0,0.0
6.4,6275.947,0.00016,0.0,0.0
6.406,6245.88,0.00016,0.0,0.0
6.412,6370.564,0.00016,0.0,0.0
6.418,6348.871,0.00016,0.0,0.0
6.425,6397.214,0.00016,0.0,0.0
6.431,6467.278,0.00015,0.0,0.0
6.437,6453.131,0.00015,0.0,0.0
6.444,6650.735,0.00015,0.0,0.0
6.45,6659.769,0.00015,0.0,0.0
6.456,6740.465,0.00015,0.0,0.0
6.463,6854.572,0.00015,0.0,0.0
6.469,6684.011,0.00015,0.0,0.0
6.475,6736.688,0.00015,0.0,0.0
6.482,6763.073,0.00015,0.0,0.0
6.488,6740.621,0.00015,0.0,0.0
6.494,6896.319,0.00015,0.0,0.0
6.501,6884.903,0.00015,0.0,0.0
6.507,6910.161,0.00014,0.0,0.0
6.513,7131.639,0.00014,0.0,0.0
6.52,7073.083,0.00014,0.0,0.0
6.526,7262.932,0.00014,0.0,0.0
6.532,7385.292,0.00014,0.0,0.0
6.539,7543.372,0.00013,0.0,0.0
6.545,7882.548,0.00013,0.0,0.0
6.551,8221.505,0.00012,0.0,0.0
6.558,8856.688,0.00011,0.0,0.0
6.564,10030.037,0.0001,0.0,0.0
6.57,11801.4,0.00008,0.0,0.0
6.576,15179.959,0.00007,0.0,0.0
6.583,20776.316,0.00005,0.0,0.0
6.589,34977.014,0.00003,0.0,0.0
6.595,51918.152,0.00002,0.0,0.0
6.602,72634.903,0.00001,0.0,0.0
6.608,101440.072,0.00001,0.0,0.0
6.614,113917.923,0.00001,0.0,0.0
6.621,103318.88,0.00001,0.0,0.0
6.627,85714.512,0.00001,0.0,0.0
6.633,61145.558,0.00002,0.0,0.0
6.64,38419.769,0.00003,0.0,0.0
6.646,23430.302,0.00004,0.0,0.0
6.652,16603.929,0.00006,0.0,0.0
6.659,12027.244,0.00008,0.0,0.0
6.665,10053.416,0.0001,0.0,0.0
6.671,8687.348,0.00012,0.0,0.0
6.678,8009.84,0.00012,0.0,0.0
6.684,7504.64,0.00013,0.0,0.0
6.69,7152.35,0.00014,0.0,0.0
6.697,7044.898,0.00014,0.0,0.0
6.703,6776.789,0.00015,0.0,0.0
6.709,6700.826,0.00015,0.0,0.0
6.716,6628.01,0.00015,0.0,0.0
6.722,6499.203,0.00015,0.0,0.0
6.728,6533.009,0.00015,0.0,0.0
6.734,6459.87,0.00015,0.0,0.0
6.741,6397.669,0.00016,0.0,0.0
6.747,6456.945,0.00015,0.0,0.0
6.753,6362.13,0.00016,0.0,0.0
6.76,6384.478,0.00016,0.0,0.0
6.766,6352.676,0.00016,0.0,0.0
6.772,6310.609,0.00016,0.0,0.0
6.779,6396.297,0.00016,0.0,0.0
6.785,6313.911,0.00016,0.0,0.0
6.791,6333.892,0.00016,0.0,0.0
6.798,6349.106,0.00016,0.0,0.0
6.804,6282.954,0.00016,0.0,0.0
6.81,6324.001,0.00016,0.0,0.0
6.817,6300.821,0.00016,0.0,0.0
6.823,6263.191,0.00016,0.0,0.0
6.829,6346.08,0.00016,0.0,0.0
6.836,6251.356,0.00016,0.0,0.0
6.842,6289.902,0.00016,0.0,0.0
6.848,6329.757,0.00016,0.0,0.0
6.855,6266.747,0.00016,0.0,0.0
6.861,6332.592,0.00016,0.0,0.0
6.867,6319.949,0.00016,0.0,0.0
6.874,6255.268,0.00016,0.0,0.0
6.88,6376.475,0.00016,0.0,0.0
6.886,6291.127,0.00016,0.0,0.0
6.892,6321.444,0.00016,0.0,0.0
6.899,6319.831,0.00016,0.0,0.0
6.905,6306.006,0.00016,0.0,0.0
6.911,6374.871,0.00016,0.0,0.0
6.918,6325.397,0.00016,0.0,0.0
6.924,6311.503,0.00016,0.0,0.0
6.93,6399.218,0.00016,0.0,0.0
6.937,6328.02,0.00016,0.0,0.0
6.943,6386.528,0.00016,0.0,0.0
6.949,6365.991,0.00016,0.0,0.0
6.956,6344.848,0.00016,0.0,0.0
6.962,6424.541,0.00016,0.0,0.0
6.968,6405.565,0.00016,0.0,0.0
6.975,6399.726,0.00016,0.0,0.0
6.981,6462.853,0.00015,0.0,0.0
6.987,6420.153,0.00016,0.0,0.0
6.994,6475.396,0.00015,0.0,0.0
7.0,6442.376,0.00016,0.0,0.0
7.006,6450.046,0.00016,0.0,0.0
7.013,6507.394,0.00015,0.0,0.0
7.019,6475.873,0.00015,0.0,0.0
7.025,6511.668,0.00015,0.0,0.0
7.032,6540.08,0.00015,0.0,0.0
7.038,6494.851,0.00015,0.0,0.0
7.044,6589.035,0.00015,0.0,0.0
7.05,6558.732,0.00015,0.0,0.0
7.057,6513.137,0.00015,0.0,0.0
7.063,6643.058,0.00015,0.0,0.0
7.069,6582.809,0.00015,0.0,0.0
7.076,6615.647,0.00015,0.0,0.0
7.082,6622.703,0.00015,0.0,0.0
7.088,6620.676,0.00015,0.0,0.0
7.095,6680.858,0.00015,0.0,0.0
7.101,6666.512,0.00015,0.0,0.0
7.107,6651.926,0.00015,0.0,0.0
7.114,6713.676,0.00015,0.0,0.0
7.12,6688.617,0.00015,0.0,0.0
7.126,6718.075,0.00015,0.0,0.0
7.133,6705.646,0.00015,0.0,0.0
7.139,6710.766,0.00015,0.0,0.0
7.145,6766.102,0.00015,0.0,0.0
7.152,6729.869,0.00015,0.0,0.0
7.158,6769.128,0.00015,0.0,0.0
7.164,6754.386,0.00015,0.0,0.0
7.171,6754.639,0.00015,0.0,0.0
7.177,6784.333,0.00015,0.0,0.0
7.183,6768.755,0.00015,0.0,0.0
7.19,6755.29,0.00015,0.0,0.0
7.196,6802.181,0.00015,0.0,0.0
7.202,6774.449,0.00015,0.0,0.0
7.208,6772.902,0.00015,0.0,0.0
7.215,6777.811,0.00015,0.0,0.0
7.221,6769.491,0.00015,0.0,0.0
7.227,6795.716,0.00015,0.0,0.0
7.234,6797.592,0.00015,0.0,0.0
7.24,6758.061,0.00015,0.0,0.0
7.246,6777.38,0.00015,0.0,0.0
7.253,6774.178,0.00015,0.0,0.0
7.259,6772.681,0.00015,0.0,0.0
7.265,6782.881,0.00015,0.0,0.0
7.272,6756.199,0.00015,0.0,0.0
7.278,6775.901,0.00015,0.0,0.0
7.284,6789.712,0.00015,0.0,0.0
7.291,6756.804,0.00015,0.0,0.0
7.297,6764.987,0.00015,0.0,0.0
7.303,6767.227,0.00015,0.0,0.0
7.31,6756.438,0.00015,0.0,0.0
7.316,6780.11,0.00015,0.0,0.0
7.322,6756.443,0.00015,0.0,0.0
7.329,6763.407,0.00015,0.0,0.0
7.335,6774.825,0.00015,0.0,0.0
7.341,6747.755,0.00015,0.0,0.0
7.348,6797.752,0.00015,0.0,0.0
7.354,6744.172,0.00015,0.0,0.0
7.36,6759.412,0.00015,0.0,0.0
7.366,6789.061,0.00015,0.0,0.0
7.373,6759.665,0.00015,0.0,0.0
7.379,6744.982,0.00015,0.0,0.0
7.385,6785.706,0.00015,0.0,0.0
7.392,6784.8,0.00015,0.0,0.0
7.398,6772.579,0.00015,0.0,0.0
7.404,6799.584,0.00015,0.0,0.0
7.411,6798.613,0.00015,0.0,0.0
7.417,6841.76,0.00015,0.0,0.0
7.423,6800.698,0.00015,0.0,0.0
7.43,6856.095,0.00015,0.0,0.0
7.436,6861.655,0.00015,0.0,0.0
7.442,6838.144,0.00015,0.0,0.0
7.449,6904.1,0.00014,0.0,0.0
7.455,6906.754,0.00014,0.0,0.0
7.461,6903.682,0.00014,0.0,0.0
7.468,6982.006,0.00014,0.0,0.0
7.474,6969.418,0.00014,0.0,0.0
7.48,6968.788,0.00014,0.0,0.0
7.487,7023.927,0.00014,0.0,0.0
7.493,6989.057,0.00014,0.0,0.0
7.499,7075.604,0.00014,0.0,0.0
7.506,7069.253,0.00014,0.0,0.0
7.512,7082.499,0.00014,0.0,0.0
7.518,7156.796,0.00014,0.0,0.0
7.524,7127.419,0.00014,0.0,0.0
7.531,7191.776,0.00014,0.0,0.0
7.537,7287.534,0.00014,0.0,0.0
7.543,7285.649,0.00014,0.0,0.0
7.55,7402.292,0.00014,0.0,0.0
7.556,7479.615,0.00013,0.0,0.0
7.562,7535.509,0.00013,0.0,0.0
7.569,7775.548,0.00013,0.0,0.0
7.575,7906.352,0.00013,0.0,0.0
7.581,8266.201,0.00012,0.0,0.0
7.588,8787.915,0.00011,0.0,0.0
7.594,9709.185,0.0001,0.0,0.0
7.6,11273.668,0.00009,0.0,0.0
7.607,14307.353,0.00007,0.0,0.0
7.613,19146.68,0.00005,0.0,0.0
7.619,26075.147,0.00004,0.0,0.0
7.626,38885.353,0.00003,0.0,0.0
7.632,44424.825,0.00002,0.0,0.0
7.638,54100.341,0.00002,0.0,0.0
7.645,49117.347,0.00002,0.0,0.0
7.651,43159.251,0.00002,0.0,0.0
7.657,32162.713,0.00003,0.0,0.0
7.664,24100.386,0.00004,0.0,0.0
7.67,16134.805,0.00006,0.0,0.0
7.676,12938.531,0.00008,0.0,0.0
7.682,10718.616,0.00009,0.0,0.0
7.689,9380.576,0.00011,0.0,0.0
7.695,8707.717,0.00011,0.0,0.0
7.701,8402.293,0.00012,0.0,0.0
7.708,8141.941,0.00012,0.0,0.0
7.714,8045.903,0.00012,0.0,0.0
7.72,7987.063,0.00013,0.0,0.0
7.727,7815.471,0.00013,0.0,0.0
7.733,7929.019,0.00013,0.0,0.0
7.739,7810.852,0.00013,0.0,0.0
7.746,7805.141,0.00013,0.0,0.0
7.752,7940.307,0.00013,0.0,0.0
7.758,7861.091,0.00013,0.0,0.0
7.765,7902.453,0.00013,0.0,0.0
7.771,7920.611,0.00013,0.0,0.0
7.777,7952.29,0.00013,0.0,0.0
7.784,8018.483,0.00012,0.0,0.0
7.79,7994.586,0.00013,0.0,0.0
7.796,8110.779,0.00012,0.0,0.0
7.803,8207.908,0.00012,0.0,0.0
7.809,8235.71,0.00012,0.0,0.0
7.815,8351.497,0.00012,0.0,0.0
7.822,8510.596,0.00012,0.0,0.0
7.828,8569.035,0.00012,0.0,0.0
7.834,8888.693,0.00011,0.0,0.0
7.84,8887.539,0.00011,0.0,0.0
7.847,9422.518,0.00011,0.0,0.0
7.853,10546.534,0.00009,0.0,0.0
7.859,11628.13,0.00009,0.0,0.0
7.866,12924.456,0.00008,0.0,0.0
7.872,14743.897,0.00007,0.0,0.0
7.878,13599.63,0.00007,0.0,0.0
7.885,16869.314,0.00006,0.0,0.0
7.891,17351.139,0.00006,0.0,0.0
7.897,16575.797,0.00006,0.0,0.0
7.904,20712.542,0.00005,0.0,0.0
7.91,17121.37,0.00006,0.0,0.0
7.916,14877.492,0.00007,0.0,0.0
7.923,15128.844,0.00007,0.0,0.0
7.929,13298.952,0.00008,0.0,0.0
7.935,11916.474,0.00008,0.0,0.0
7.942,10587.452,0.00009,0.0,0.0
7.948,10191.925,0.0001,0.0,0.0
7.954,9741.557,0.0001,0.0,0.0
7.961,9141.992,0.00011,0.0,0.0
7.967,9262.548,0.00011,0.0,0.0
7.973,8870.934,0.00011,0.0,0.0
7.98,8895.559,0.00011,0.0,0.0
7.986,8894.006,0.00011,0.0,0.0
7.992,8595.943,0.00012,0.0,0.0
7.998,8596.054,0.00012,0.0,0.0
8.005,8561.872,0.00012,0.0,0.0
8.011,8486.141,0.00012,0.0,0.0
8.017,8523.377,0.00012,0.0,0.0
8.024,8306.999,0.00012,0.0,0.0
8.03,8400.571,0.00012,0.0,0.0
8.036,8349.872,0.00012,0.0,0.0
8.043,8186.135,0.00012,0.0,0.0
8.049,8394.919,0.00012,0.0,0.0
8.055,8201.562,0.00012,0.0,0.0
8.062,8196.568,0.00012,0.0,0.0
8.068,8213.99,0.00012,0.0,0.0
8.074,8045.996,0.00012,0.0,0.0
8.081,8183.213,0.00012,0.0,0.0
8.087,8078.906,0.00012,0.0,0.0
8.093,8034.734,0.00012,0.0,0.0
8.1,8170.117,0.00012,0.0,0.0
8.106,7942.38,0.00013,0.0,0.0
8.112,8111.333,0.00012,0.0,0.0
8.119,8000.598,0.00012,0.0,0.0
8.125,7899.644,0.00013,0.0,0.0
8.131,8088.452,0.00012,0.0,0.0
8.138,7948.716,0.00013,0.0,0.0
8.144,7965.403,0.00013,0.0,0.0
8.15,7947.439,0.00013,0.0,0.0
8.156,7817.938,0.00013,0.0,0.0
8.163,7902.901,0.00013,0.0,0.0
8.169,7839.239,0.00013,0.0,0.0
8.175,7638.432,0.00013,0.0,0.0
8.182,7914.935,0.00013,0.0,0.0
8.188,7671.981,0.00013,0.0,0.0
8.194,7764.431,0.00013,0.0,0.0
8.201,7667.693,0.00013,0.0,0.0
8.207,7607.251,0.00013,0.0,0.0
8.213,7685.355,0.00013,0.0,0.0
8.22,7603.686,0.00013,0.0,0.0
8.226,7580.047,0.00013,0.0,0.0
8.232,7586.781,0.00013,0.0,0.0
8.239,7534.896,0.00013,0.0,0.0
8.245,7529.91,0.00013,0.0,0.0
8.251,7526.58,0.00013,0.0,0.0
8.258,7343.296,0.00014,0.0,0.0
8.264,7515.247,0.00013,0.0,0.0
8.27,7369.659,0.00014,0.0,0.0
8.277,7402.999,0.00014,0.0,0.0
8.283,7364.766,0.00014,0.0,0.0
8.289,7283.821,0.00014,0.0,0.0
8.296,7340.291,0.00014,0.0,0.0
8.302,7292.576,0.00014,0.0,0.0
8.308,7214.168,0.00014,0.0,0.0
8.314,7280.81,0.00014,0.0,0.0
8.321,7208.375,0.00014,0.0,0.0
8.327,7203.762,0.00014,0.0,0.0
8.333,7221.808,0.00014,0.0,0.0
8.34,7088.077,0.00014,0.0,0.0
8.346,7176.574,0.00014,0.0,0.0
8.352,7096.996,0.00014,0.0,0.0
8.359,7116.059,0.00014,0.0,0.0
8.365,7097.099,0.00014,0.0,0.0
8.371,7040.525,0.00014,0.0,0.0
8.378,7049.993,0.00014,0.0,0.0
8.384,7029.922,0.00014,0.0,0.0
8.39,6978.498,0.00014,0.0,0.0
8.397,7000.557,0.00014,0.0,0.0
8.403,6982.54,0.00014,0.0,0.0
8.409,6934.79,0.00014,0.0,0.0
8.416,6932.961,0.00014,0.0,0.0
8.422,6858.774,0.00015,0.0,0.0
8.428,6902.123,0.00014,0.0,0.0
8.435,6874.668,0.00015,0.0,0.0
8.441,6846.749,0.00015,0.0,0.0
8.447,6853.024,0.00015,0.0,0.0
8.454,6845.712,0.00015,0.0,0.0
8.46,6823.451,0.00015,0.0,0.0
8.466,6811.408,0.00015,0.0,0.0
8.472,6781.315,0.00015,0.0,0.0
8.479,6794.553,0.00015,0.0,0.0
8.485,6796.282,0.00015,0.0,0.0
8.491,6757.893,0.00015,0.0,0.0
8.498,6771.728,0.00015,0.0,0.0
8.504,6736.296,0.00015,0.0,0.0
8.51,6754.592,0.00015,0.0,0.0
8.517,6708.633,0.00015,0.0,0.0
8.523,6696.455,0.00015,0.0,0.0
8.529,6687.691,0.00015,0.0,0.0
8.536,6704.824,0.00015,0.0,0.0
8.542,6673.188,0.00015,0.0,0.0
8.548,6645.107,0.00015,0.0,0.0
8.555,6642.63,0.00015,0.0,0.0
8.561,6620.63,0.00015,0.0,0.0
8.567,6617.849,0.00015,0.0,0.0
8.574,6606.523,0.00015,0.0,0.0
8.58,6591.109,0.00015,0.0,0.0
8.586,6565.521,0.00015,0.0,0.0
8.593,6578.333,0.00015,0.0,0.0
8.599,6579.377,0.00015,0.0,0.0
8.605,6529.792,0.00015,0.0,0.0
8.612,6558.622,0.00015,0.0,0.0
8.618,6544.19,0.00015,0.0,0.0
8.624,6535.917,0.00015,0.0,0.0
8.63,6512.4,0.00015,0.0,0.0
8.637,6492.178,0.00015,0.0,0.0
8.643,6490.524,0.00015,0.0,0.0
8.649,6504.824,0.00015,0.0,0.0
8.656,6475.635,0.00015,0.0,0.0
8.662,6483.32,0.00015,0.0,0.0
8.668,6477.103,0.00015,0.0,0.0
8.675,6451.82,0.00015,0.0,0.0
8.681,6491.647,0.00015,0.0,0.0
8.687,6449.731,0.00016,0.0,0.0
8.694,6427.617,0.00016,0.0,0.0
8.7,6460.534,0.00015,0.0,0.0
8.706,6436.082,0.00016,0.0,0.0
8.713,6446.592,0.00016,0.0,0.0
8.719,6442.853,0.00016,0.0,0.0
8.725,6403.952,0.00016,0.0,0.0
8.732,6420.609,0.00016,0.0,0.0
8.738,6388.342,0.00016,0.0,0.0
8.744,6376.056,0.00016,0.0,0.0
8.751,6421.145,0.00016,0.0,0.0
8.757,6372.803,0.00016,0.0,0.0
8.763,6368.843,0.00016,0.0,0.0
8.77,6372.728,0.00016,0.0,0.0
8.776,6354.984,0.00016,0.0,0.0
8.782,6357.915,0.00016,0.0,0.0
8.788,6317.547,0.00016,0.0,0.0
8.795,6353.805,0.00016,0.0,0.0
8.801,6336.249,0.00016,0.0,0.0
8.807,6360.322,0.00016,0.0,0.0
8.814,6317.158,0.00016,0.0,0.0
8.82,6294.591,0.00016,0.0,0.0
8.826,6276.08,0.00016,0.0,0.0
8.833,6316.059,0.00016,0.0,0.0
8.839,6300.473,0.00016,0.0,0.0
8.845,6299.483,0.00016,0.0,0.0
8.852,6292.426,0.00016,0.0,0.0
8.858,6253.527,0.00016,0.0,0.0
8.864,6328.692,0.00016,0.0,0.0
8.871,6284.282,0.00016,0.0,0.0
8.877,6264.246,0.00016,0.0,0.0
8.883,6304.643,0.00016,0.0,0.0
8.89,6255.461,0.00016,0.0,0.0
8.896,6289.666,0.00016,0.0,0.0
8.902,6284.798,0.00016,0.0,0.0
8.909,6236.059,0.00016,0.0,0.0
8.915,6291.826,0.00016,0.0,0.0
8.921,6258.333,0.00016,0.0,0.0
8.928,6283.173,0.00016,0.0,0.0
8.934,6257.44,0.00016,0.0,0.0
8.94,6272.422,0.00016,0.0,0.0
8.946,6306.806,0.00016,0.0,0.0
8.953,6251.719,0.00016,0.0,0.0
8.959,6302.001,0.00016,0.0,0.0
8.965,6269.367,0.00016,0.0,0.0
8.972,6287.997,0.00016,0.0,0.0
8.978,6323.732,0.00016,0.0,0.0
8.984,6316.559,0.00016,0.0,0.0
8.991,6316.099,0.00016,0.0,0.0
8.997,6320.993,0.00016,0.0,0.0
9.003,6323.183,0.00016,0.0,0.0
9.01,6344.893,0.00016,0.0,0.0
9.016,6377.0,0.00016,0.0,0.0
9.022,6339.59,0.00016,0.0,0.0
9.029,6405.514,0.00016,0.0,0.0
9.035,6379.743,0.00016,0.0,0.0
9.041,6408.572,0.00016,0.0,0.0
9.048,6449.585,0.00016,0.0,0.0
9.054,6419.202,0.00016,0.0,0.0
9.06,6479.152,0.00015,0.0,0.0
9.067,6463.009,0.00015,0.0,0.0
9.073,6492.744,0.00015,0.0,0.0
9.079,6520.926,0.00015,0.0,0.0
9.086,6527.567,0.00015,0.0,0.0
9.092,6592.706,0.00015,0.0,0.0
9.098,6712.45,0.00015,0.0,0.0
9.104,6888.189,0.00015,0.0,0.0
9.111,7536.654,0.00013,0.0,0.0
9.117,7547.98,0.00013,0.0,0.0
9.123,7794.426,0.00013,0.0,0.0
9.13,7248.289,0.00014,0.0,0.0
9.136,6971.787,0.00014,0.0,0.0
9.142,6848.756,0.00015,0.0,0.0
9.149,6704.302,0.00015,0.0,0.0
9.155,6630.51,0.00015,0.0,0.0
9.161,6617.34,0.00015,0.0,0.0
9.168,6562.861,0.00015,0.0,0.0
9.174,6553.054,0.00015,0.0,0.0
9.18,6530.067,0.00015,0.0,0.0
9.187,6524.126,0.00015,0.0,0.0
9.193,6515.164,0.00015,0.0,0.0
9.199,6513.991,0.00015,0.0,0.0
9.206,6445.878,0.00016,0.0,0.0
9.212,6528.24,0.00015,0.0,0.0
9.218,6473.372,0.00015,0.0,0.0
9.225,6450.86,0.00016,0.0,0.0
9.231,6375.085,0.00016,0.0,0.0
9.237,6425.121,0.00016,0.0,0.0
9.244,6403.594,0.00016,0.0,0.0
9.25,6360.953,0.00016,0.0,0.0
9.256,6336.658,0.00016,0.0,0.0
9.262,6344.862,0.00016,0.0,0.0
9.269,6268.119,0.00016,0.0,0.0
9.275,6334.701,0.00016,0.0,0.0
9.281,6280.083,0.00016,0.0,0.0
9.288,6265.075,0.00016,0.0,0.0
9.294,6270.5,0.00016,0.0,0.0
9.3,6220.814,0.00016,0.0,0.0
9.307,6252.722,0.00016,0.0,0.0
9.313,6171.445,0.00016,0.0,0.0
9.319,6145.807,0.00016,0.0,0.0
9.326,6166.189,0.00016,0.0,0.0
9.332,6123.857,0.00016,0.0,0.0
9.338,6108.212,0.00016,0.0,0.0
9.345,6107.798,0.00016,0.0,0.0
9.351,6082.334,0.00016,0.0,0.0
9.357,6058.668,0.00017,0.0,0.0
9.364,6047.605,0.00017,0.0,0.0
9.37,5996.372,0.00017,0.0,0.0
9.376,6039.999,0.00017,0.0,0.0
9.383,5962.854,0.00017,0.0,0.0
9.389,5989.458,0.00017,0.0,0.0
9.395,5965.772,0.00017,0.0,0.0
9.402,5949.638,0.00017,0.0,0.0
9.408,5919.09,0.00017,0.0,0.0
9.414,5929.03,0.00017,0.0,0.0
9.42,5888.56,0.00017,0.0,0.0
9.427,5873.067,0.00017,0.0,0.0
9.433,5866.752,0.00017,0.0,0.0
9.439,5831.003,0.00017,0.0,0.0
9.446,5832.79,0.00017,0.0,0.0
9.452,5777.608,0.00017,0.0,0.0
9.458,5815.812,0.00017,0.0,0.0
9.465,5786.641,0.00017,0.0,0.0
9.471,5782.274,0.00017,0.0,0.0
9.477,5745.724,0.00017,0.0,0.0
9.484,5736.636,0.00017,0.0,0.0
9.49,5739.62,0.00017,0.0,0.0
9.496,5710.847,0.00018,0.0,0.0
9.503,5685.488,0.00018,0.0,0.0
9.509,5686.984,0.00018,0.0,0.0
9.515,5678.902,0.00018,0.0,0.0
9.522,5657.178,0.00018,0.0,0.0
9.528,5657.85,0.00018,0.0,0.0
9.534,5622.067,0.00018,0.0,0.0
9.541,5628.682,0.00018,0.0,0.0
9.547,5616.827,0.00018,0.0,0.0
9.553,5634.23,0.00018,0.0,0.0
9.56,5598.289,0.00018,0.0,0.0
9.566,5619.571,0.00018,0.0,0.0
9.572,5594.108,0.00018,0.0,0.0
9.578,5569.934,0.00018,0.0,0.0
9.585,5570.848,0.00018,0.0,0.0
9.591,5529.785,0.00018,0.0,0.0
9.597,5572.158,0.00018,0.0,0.0
9.604,5544.233,0.00018,0.0,0.0
9.61,5548.367,0.00018,0.0,0.0
9.616,5516.376,0.00018,0.0,0.0
9.623,5533.003,0.00018,0.0,0.0
9.629,5532.866,0.00018,0.0,0.0
9.635,5496.365,0.00018,0.0,0.0
9.642,5506.692,0.00018,0.0,0.0
9.648,5498.942,0.00018,0.0,0.0
9.654,5496.569,0.00018,0.0,0.0
9.661,5476.507,0.00018,0.0,0.0
9.667,5482.417,0.00018,0.0,0.0
9.673,5451.306,0.00018,0.0,0.0
9.68,5467.37,0.00018,0.0,0.0
9.686,5461.587,0.00018,0.0,0.0
9.692,5456.492,0.00018,0.0,0.0
9.699,5443.764,0.00018,0.0,0.0
9.705,5461.236,0.00018,0.0,0.0
9.711,5457.731,0.00018,0.0,0.0
9.718,5444.306,0.00018,0.0,0.0
9.724,5448.434,0.00018,0.0,0.0
9.73,5434.501,0.00018,0.0,0.0
9.736,5448.175,0.00018,0.0,0.0
9.743,5432.333,0.00018,0.0,0.0
9.749,5453.036,0.00018,0.0,0.0
9.755,5414.542,0.00018,0.0,0.0
9.762,5440.425,0.00018,0.0,0.0
9.768,5437.658,0.00018,0.0,0.0
9.774,5435.441,0.00018,0.0,0.0
9.781,5420.17,0.00018,0.0,0.0
9.787,5423.09,0.00018,0.0,0.0
9.793,5431.214,0.00018,0.0,0.0
9.8,5420.336,0.00018,0.0,0.0
9.806,5432.886,0.00018,0.0,0.0
9.812,5423.47,0.00018,0.0,0.0
9.819,5437.121,0.00018,0.0,0.0
9.825,5424.602,0.00018,0.0,0.0
9.831,5426.404,0.00018,0.0,0.0
9.838,5409.588,0.00018,0.0,0.0
9.844,5419.18,0.00018,0.0,0.0
9.85,5416.475,0.00018,0.0,0.0
9.857,5398.788,0.00019,0.0,0.0
9.863,5430.3,0.00018,0.0,0.0
9.869,5393.321,0.00019,0.0,0.0
9.876,5424.041,0.00018,0.0,0.0
9.882,5392.296,0.00019,0.0,0.0
9.888,5422.554,0.00018,0.0,0.0
9.894,5400.232,0.00019,0.0,0.0
9.901,5401.065,0.00019,0.0,0.0
9.907,5386.507,0.00019,0.0,0.0
9.913,5381.72,0.00019,0.0,0.0
9.92,5390.051,0.00019,0.0,0.0
9.926,5371.684,0.00019,0.0,0.0
9.932,5374.552,0.00019,0.0,0.0
9.939,5362.644,0.00019,0.0,0.0
9.945,5376.143,0.00019,0.0,0.0
9.951,5354.959,0.00019,0.0,0.0
9.958,5374.513,0.00019,0.0,0.0
9.964,5370.966,0.00019,0.0,0.0
9.97,5359.046,0.00019,0.0,0.0
9.977,5375.166,0.00019,0.0,0.0
9.983,5365.949,0.00019,0.0,0.0
9.989,5360.619,0.00019,0.0,0.0
9.996,5360.454,0.00019,0.0,0.0
10.002,5365.7,0.00019,0.0,0.0
10.008,5357.223,0.00019,0.0,0.0
10.015,5349.447,0.00019,0.0,0.0
10.021,5351.455,0.00019,0.0,0.0
10.027,5350.883,0.00019,0.0,0.0
10.034,5339.952,0.00019,0.0,0.0
10.04,5360.208,0.00019,0.0,0.0
10.046,5341.253,0.00019,0.0,0.0
10.052,5340.538,0.00019,0.0,0.0
10.059,5358.017,0.00019,0.0,0.0
10.065,5347.37,0.00019,0.0,0.0
10.071,5343.073,0.00019,0.0,0.0
10.078,5339.303,0.00019,0.0,0.0
10.084,5362.19,0.00019,0.0,0.0
10.09,5359.002,0.00019,0.0,0.0
10.097,5344.172,0.00019,0.0,0.0
10.103,5342.158,0.00019,0.0,0.0
10.109,5345.45,0.00019,0.0,0.0
10.116,5336.624,0.00019,0.0,0.0
10.122,5328.526,0.00019,0.0,0.0
10.128,5340.37,0.00019,0.0,0.0
10.135,5341.32,0.00019,0.0,0.0
10.141,5334.688,0.00019,0.0,0.0
10.147,5347.309,0.00019,0.0,0.0
10.154,5342.256,0.00019,0.0,0.0
10.16,5314.862,0.00019,0.0,0.0
10.166,5318.356,0.00019,0.0,0.0
10.173,5344.564,0.00019,0.0,0.0
10.179,5352.173,0.00019,0.0,0.0
10.185,5394.829,0.00019,0.0,0.0
10.192,5410.949,0.00018,0.0,0.0
10.198,5427.448,0.00018,0.0,0.0
10.204,5461.976,0.00018,0.0,0.0
10.21,5394.57,0.00019,0.0,0.0
10.217,5388.813,0.00019,0.0,0.0
10.223,5416.588,0.00018,0.0,0.0
10.229,5368.416,0.00019,0.0,0.0
10.236,5357.647,0.00019,0.0,0.0
10.242,5341.325,0.00019,0.0,0.0
10.248,5335.789,0.00019,0.0,0.0
10.255,5321.407,0.00019,0.0,0.0
10.261,5297.991,0.00019,0.0,0.0
10.267,5297.049,0.00019,0.0,0.0
10.274,5339.385,0.00019,0.0,0.0
10.28,5328.521,0.00019,0.0,0.0
10.286,5308.02,0.00019,0.0,0.0
10.293,5311.314,0.00019,0.0,0.0
10.299,5288.063,0.00019,0.0,0.0
10.305,5277.974,0.00019,0.0,0.0
10.312,5325.061,0.00019,0.0,0.0
10.318,5295.009,0.00019,0.0,0.0
10.324,5310.0,0.00019,0.0,0.0
10.331,5305.746,0.00019,0.0,0.0
10.337,5310.004,0.00019,0.0,0.0
10.343,5294.92,0.00019,0.0,0.0
10.35,5299.791,0.00019,0.0,0.0
10.356,5268.046,0.00019,0.0,0.0
10.362,5300.932,0.00019,0.0,0.0
10.368,5299.385,0.00019,0.0,0.0
10.375,5296.989,0.00019,0.0,0.0
10.381,5282.547,0.00019,0.0,0.0
10.387,5297.984,0.00019,0.0,0.0
10.394,5266.694,0.00019,0.0,0.0
10.4,5236.017,0.00019,0.0,0.0
10.406,5288.895,0.00019,0.0,0.0
10.413,5246.366,0.00019,0.0,0.0
10.419,5298.256,0.00019,0.0,0.0
10.425,5255.08,0.00019,0.0,0.0
10.432,5250.366,0.00019,0.0,0.0
10.438,5254.31,0.00019,0.0,0.0
10.444,5230.753,0.00019,0.0,0.0
10.451,5244.537,0.00019,0.0,0.0
10.457,5250.108,0.00019,0.0,0.0
10.463,5234.229,0.00019,0.0,0.0
10.47,5242.389,0.00019,0.0,0.0
10.476,5234.742,0.00019,0.0,0.0
10.482,5228.25,0.00019,0.0,0.0
10.489,5227.439,0.00019,0.0,0.0
10.495,5193.927,0.00019,0.0,0.0
10.501,5237.8,0.00019,0.0,0.0
10.508,5228.561,0.00019,0.0,0.0
10.514,5208.465,0.00019,0.0,0.0
10.52,5231.93,0.00019,0.0,0.0
10.526,5213.987,0.00019,0.0,0.0
10.533,5235.911,0.00019,0.0,0.0
10.539,5201.223,0.00019,0.0,0.0
10.545,5224.259,0.00019,0.0,0.0
10.552,5217.377,0.00019,0.0,0.0
10.558,5229.959,0.00019,0.0,0.0
10.564,5213.655,0.00019,0.0,0.0
10.571,5228.916,0.00019,0.0,0.0
10.577,5201.944,0.00019,0.0,0.0
10.583,5215.104,0.00019,0.0,0.0
10.59,5219.518,0.00019,0.0,0.0
10.596,5209.086,0.00019,0.0,0.0
10.602,5222.986,0.00019,0.0,0.0
10.609,5193.749,0.00019,0.0,0.0
10.615,5244.672,0.00019,0.0,0.0
10.621,5211.709,0.00019,0.0,0.0
10.628,5216.056,0.00019,0.0,0.0
10.634,5227.829,0.00019,0.0,0.0
10.64,5217.127,0.00019,0.0,0.0
10.647,5238.068,0.00019,0.0,0.0
10.653,5230.822,0.00019,0.0,0.0
10.659,5244.274,0.00019,0.0,0.0
10.666,5247.012,0.00019,0.0,0.0
10.672,5249.391,0.00019,0.0,0.0
10.678,5248.429,0.00019,0.0,0.0
10.684,5265.72,0.00019,0.0,0.0
10.691,5263.027,0.00019,0.0,0.0
10.697,5279.303,0.00019,0.0,0.0
10.703,5285.722,0.00019,0.0,0.0
10.71,5303.19,0.00019,0.0,0.0
10.716,5334.91,0.00019,0.0,0.0
10.722,5351.679,0.00019,0.0,0.0
10.729,5408.122,0.00018,0.0,0.0
10.735,5451.213,0.00018,0.0,0.0
10.741,5503.764,0.00018,0.0,0.0
10.748,5605.474,0.00018,0.0,0.0
10.754,5765.108,0.00017,0.0,0.0
10.76,5946.686,0.00017,0.0,0.0
10.767,6371.656,0.00016,0.0,0.0
10.773,7070.458,0.00014,0.0,0.0
10.779,8470.415,0.00012,0.0,0.0
10.786,10547.611,0.00009,0.0,0.0
10.792,14525.608,0.00007,0.0,0.0
10.798,19293.484,0.00005,0.0,0.0
10.805,25204.283,0.00004,0.0,0.0
10.811,28755.636,0.00003,0.0,0.0
10.817,29918.246,0.00003,0.0,0.0
10.824,26680.212,0.00004,0.0,0.0
10.83,22152.616,0.00005,0.0,0.0
10.836,14649.688,0.00007,0.0,0.0
10.842,13927.68,0.00007,0.0,0.0
10.849,8969.706,0.00011,0.0,0.0
10.855,7558.198,0.00013,0.0,0.0
10.861,6825.669,0.00015,0.0,0.0
10.868,6160.944,0.00016,0.0,0.0
10.874,5930.674,0.00017,0.0,0.0
10.88,5736.945,0.00017,0.0,0.0
10.887,5608.043,0.00018,0.0,0.0
10.893,5557.369,0.00018,0.0,0.0
10.899,5484.176,0.00018,0.0,0.0
10.906,5459.256,0.00018,0.0,0.0
10.912,5451.79,0.00018,0.0,0.0
10.918,5386.137,0.00019,0.0,0.0
10.925,5413.093,0.00018,0.0,0.0
10.931,5388.485,0.00019,0.0,0.0
10.937,5364.654,0.00019,0.0,0.0
10.944,5353.484,0.00019,0.0,0.0
10.95,5357.716,0.00019,0.0,0.0
10.956,5338.917,0.00019,0.0,0.0
10.963,5344.488,0.00019,0.0,0.0
10.969,5332.192,0.00019,0.0,0.0
10.975,5321.329,0.00019,0.0,0.0
10.982,5328.312,0.00019,0.0,0.0
10.988,5308.027,0.00019,0.0,0.0
10.994,5309.093,0.00019,0.0,0.0
11.0,5300.67,0.00019,0.0,0.0
11.007,5294.788,0.00019,0.0,0.0
11.013,5292.452,0.00019,0.0,0.0
11.019,5290.58,0.00019,0.0,0.0
11.026,5286.395,0.00019,0.0,0.0
11.032,5276.796,0.00019,0.0,0.0
11.038,5294.585,0.00019,0.0,0.0
11.045,5282.696,0.00019,0.0,0.0
11.051,5277.484,0.00019,0.0,0.0
11.057,5273.544,0.00019,0.0,0.0
11.064,5291.388,0.00019,0.0,0.0
11.07,5285.877,0.00019,0.0,0.0
11.076,5276.5,0.00019,0.0,0.0
11.083,5267.058,0.00019,0.0,0.0
11.089,5283.759,0.00019,0.0,0.0
11.095,5284.356,0.00019,0.0,0.0
11.102,5298.425,0.00019,0.0,0.0
11.108,5284.238,0.00019,0.0,0.0
11.114,5300.831,0.00019,0.0,0.0
11.121,5325.123,0.00019,0.0,0.0
11.127,5311.296,0.00019,0.0,0.0
11.133,5356.572,0.00019,0.0,0.0
11.14,5345.698,0.00019,0.0,0.0
11.146,5417.67,0.00018,0.0,0.0
11.152,5505.225,0.00018,0.0,0.0
11.158,5651.629,0.00018,0.0,0.0
11.165,5847.579,0.00017,0.0,0.0
11.171,6879.949,0.00015,0.0,0.0
11.177,6916.707,0.00014,0.0,0.0
11.184,9424.879,0.00011,0.0,0.0
11.19,8282.597,0.00012,0.0,0.0
11.196,8742.164,0.00011,0.0,0.0
11.203,7474.319,0.00013,0.0,0.0
11.209,6626.434,0.00015,0.0,0.0
11.215,6010.434,0.00017,0.0,0.0
11.222,6039.453,0.00017,0.0,0.0
11.228,5585.519,0.00018,0.0,0.0
11.234,5504.316,0.00018,0.0,0.0
11.241,5386.717,0.00019,0.0,0.0
11.247,5367.467,0.00019,0.0,0.0
11.253,5311.715,0.00019,0.0,0.0
11.26,5300.841,0.00019,0.0,0.0
11.266,5285.186,0.00019,0.0,0.0
11.272,5259.643,0.00019,0.0,0.0
11.279,5249.682,0.00019,0.0,0.0
11.285,5254.735,0.00019,0.0,0.0
11.291,5229.362,0.00019,0.0,0.0
11.298,5248.582,0.00019,0.0,0.0
11.304,5230.36,0.00019,0.0,0.0
11.31,5236.864,0.00019,0.0,0.0
11.316,5233.813,0.00019,0.0,0.0
11.323,5213.591,0.00019,0.0,0.0
11.329,5218.604,0.00019,0.0,0.0
11.335,5218.792,0.00019,0.0,0.0
11.342,5213.358,0.00019,0.0,0.0
11.348,5222.324,0.00019,0.0,0.0
11.354,5195.546,0.00019,0.0,0.0
11.361,5206.045,0.00019,0.0,0.0
11.367,5202.801,0.00019,0.0,0.0
11.373,5198.271,0.00019,0.0,0.0
11.38,5195.704,0.00019,0.0,0.0
11.386,5189.271,0.00019,0.0,0.0
11.392,5182.004,0.00019,0.0,0.0
11.399,5198.929,0.00019,0.0,0.0
11.405,5180.186,0.00019,0.0,0.0
11.411,5195.171,0.00019,0.0,0.0
11.418,5187.838,0.00019,0.0,0.0
11.424,5196.067,0.00019,0.0,0.0
11.43,5199.117,0.00019,0.0,0.0
11.437,5188.881,0.00019,0.0,0.0
11.443,5195.103,0.00019,0.0,0.0
11.449,5189.627,0.00019,0.0,0.0
11.456,5197.167,0.00019,0.0,0.0
11.462,5199.71,0.00019,0.0,0.0
11.468,5189.143,0.00019,0.0,0.0
11.474,5200.887,0.00019,0.0,0.0
11.481,5206.494,0.00019,0.0,0.0
11.487,5181.555,0.00019,0.0,0.0
11.493,5217.799,0.00019,0.0,0.0
11.5,5206.642,0.00019,0.0,0.0
11.506,5226.579,0.00019,0.0,0.0
11.512,5237.629,0.00019,0.0,0.0
11.519,5216.165,0.00019,0.0,0.0
11.525,5236.032,0.00019,0.0,0.0
11.531,5223.022,0.00019,0.0,0.0
11.538,5244.403,0.00019,0.0,0.0
11.544,5240.229,0.00019,0.0,0.0
11.55,5225.282,0.00019,0.0,0.0
11.557,5258.181,0.00019,0.0,0.0
11.563,5245.538,0.00019,0.0,0.0
11.569,5239.142,0.00019,0.0,0.0
11.576,5261.818,0.00019,0.0,0.0
11.582,5262.609,0.00019,0.0,0.0
11.588,5254.114,0.00019,0.0,0.0
11.595,5292.588,0.00019,0.0,0.0
11.601,5248.251,0.00019,0.0,0.0
11.607,5291.612,0.00019,0.0,0.0
11.614,5278.037,0.00019,0.0,0.0
11.62,5274.762,0.00019,0.0,0.0
11.626,5280.05,0.00019,0.0,0.0
11.632,5279.996,0.00019,0.0,0.0
11.639,5289.625,0.00019,0.0,0.0
11.645,5292.08,0.00019,0.0,0.0
11.651,5280.749,0.00019,0.0,0.0
11.658,5289.858,0.00019,0.0,0.0
11.664,5283.695,0.00019,0.0,0.0
11.67,5291.294,0.00019,0.0,0.0
11.677,5293.554,0.00019,0.0,0.0
11.683,5278.984,0.00019,0.0,0.0
11.689,5290.932,0.00019,0.0,0.0
11.696,5299.523,0.00019,0.0,0.0
11.702,5289.878,0.00019,0.0,0.0
11.708,5289.807,0.00019,0.0,0.0
11.715,5283.236,0.00019,0.0,0.0
11.721,5304.136,0.00019,0.0,0.0
11.727,5293.281,0.00019,0.0,0.0
11.734,5293.128,0.00019,0.0,0.0
11.74,5313.781,0.00019,0.0,0.0
11.746,5303.129,0.00019,0.0,0.0
11.753,5303.171,0.00019,0.0,0.0
11.759,5293.109,0.00019,0.0,0.0
11.765,5304.354,0.00019,0.0,0.0
11.772,5296.692,0.00019,0.0,0.0
11.778,5299.018,0.00019,0.0,0.0
11.784,5297.442,0.00019,0.0,0.0
11.79,5305.827,0.00019,0.0,0.0
11.797,5297.397,0.00019,0.0,0.0
11.803,5294.159,0.00019,0.0,0.0
11.809,5294.32,0.00019,0.0,0.0
11.816,5298.95,0.00019,0.0,0.0
11.822,5296.431,0.00019,0.0,0.0
11.828,5302.031,0.00019,0.0,0.0
11.835,5288.016,0.00019,0.0,0.0
11.841,5287.398,0.00019,0.0,0.0
11.847,5287.513,0.00019,0.0,0.0
11.854,5305.622,0.00019,0.0,0.0
11.86,5311.438,0.00019,0.0,0.0
11.866,5281.964,0.00019,0.0,0.0
11.873,5300.096,0.00019,0.0,0.0
11.879,5289.564,0.00019,0.0,0.0
11.885,5321.189,0.00019,0.0,0.0
11.892,5285.78,0.00019,0.0,0.0
11.898,5294.905,0.00019,0.0,0.0
11.904,5301.916,0.00019,0.0,0.0
11.911,5293.636,0.00019,0.0,0.0
11.917,5296.081,0.00019,0.0,0.0
11.923,5287.253,0.00019,0.0,0.0
11.93,5296.57,0.00019,0.0,0.0
11.936,5305.456,0.00019,0.0,0.0
11.942,5307.678,0.00019,0.0,0.0
11.948,5303.676,0.00019,0.0,0.0
11.955,5298.353,0.00019,0.0,0.0
11.961,5318.822,0.00019,0.0,0.0
11.967,5304.363,0.00019,0.0,0.0
11.974,5282.765,0.00019,0.0,0.0
11.98,5327.158,0.00019,0.0,0.0
11.986,5300.392,0.00019,0.0,0.0
11.993,5306.997,0.00019,0.0,0.0
11.999,5303.583,0.00019,0.0,0.0
12.005,5291.476,0.00019,0.0,0.0
12.012,5336.942,0.00019,0.0,0.0
12.018,5315.376,0.00019,0.0,0.0
12.024,5324.233,0.00019,0.0,0.0
12.031,5327.282,0.00019,0.0,0.0
12.037,5354.421,0.00019,0.0,0.0
12.043,5352.229,0.00019,0.0,0.0
12.05,5424.356,0.00018,0.0,0.0
12.056,5442.977,0.00018,0.0,0.0
12.062,5728.934,0.00017,0.0,0.0
12.069,5997.764,0.00017,0.0,0.0
12.075,6100.53,0.00016,0.0,0.0
12.081,6776.61,0.00015,0.0,0.0
12.088,5840.006,0.00017,0.0,0.0
12.094,7056.806,0.00014,0.0,0.0
12.1,5556.489,0.00018,0.0,0.0
12.106,6092.534,0.00016,0.0,0.0
12.113,5455.248,0.00018,0.0,0.0
12.119,5465.457,0.00018,0.0,0.0
12.125,5339.308,0.00019,0.0,0.0
12.132,5274.926,0.00019,0.0,0.0
12.138,5243.701,0.00019,0.0,0.0
12.144,5228.509,0.00019,0.0,0.0
12.151,5226.983,0.00019,0.0,0.0
12.157,5191.87,0.00019,0.0,0.0
12.163,5177.157,0.00019,0.0,0.0
12.17,5191.613,0.00019,0.0,0.0
12.176,5156.312,0.00019,0.0,0.0
12.182,5169.961,0.00019,0.0,0.0
12.189,5151.306,0.00019,0.0,0.0
12.195,5142.607,0.00019,0.0,0.0
12.201,5153.853,0.00019,0.0,0.0
12.208,5113.386,0.0002,0.0,0.0
12.214,5126.555,0.0002,0.0,0.0
12.22,5104.623,0.0002,0.0,0.0
12.227,5106.746,0.0002,0.0,0.0
12.233,5095.582,0.0002,0.0,0.0
12.239,5091.87,0.0002,0.0,0.0
12.246,5084.281,0.0002,0.0,0.0
12.252,5081.763,0.0002,0.0,0.0
12.258,5060.673,0.0002,0.0,0.0
12.264,5065.864,0.0002,0.0,0.0
12.271,5069.447,0.0002,0.0,0.0
12.277,5056.811,0.0002,0.0,0.0
12.283,5056.287,0.0002,0.0,0.0
12.29,5022.724,0.0002,0.0,0.0
12.296,5030.161,0.0002,0.0,0.0
12.302,5035.476,0.0002,0.0,0.0
12.309,5020.199,0.0002,0.0,0.0
12.315,5030.707,0.0002,0.0,0.0
12.321,5006.088,0.0002,0.0,0.0
12.328,5015.329,0.0002,0.0,0.0
12.334,4991.253,0.0002,0.0,0.0
12.34,4996.597,0.0002,0.0,0.0
12.347,4982.384,0.0002,0.0,0.0
12.353,4978.512,0.0002,0.0,0.0
12.359,4978.981,0.0002,0.0,0.0
12.366,4966.745,0.0002,0.0,0.0
12.372,4972.619,0.0002,0.0,0.0
12.378,4978.781,0.0002,0.0,0.0
12.385,4969.67,0.0002,0.0,0.0
12.391,4954.667,0.0002,0.0,0.0
12.397,4951.213,0.0002,0.0,0.0
12.404,4936.36,0.0002,0.0,0.0
12.41,4947.859,0.0002,0.0,0.0
12.416,4940.254,0.0002,0.0,0.0
12.422,4940.106,0.0002,0.0,0.0
12.429,4936.49,0.0002,0.0,0.0
12.435,4931.232,0.0002,0.0,0.0
12.441,4934.615,0.0002,0.0,0.0
12.448,4930.835,0.0002,0.0,0.0
12.454,4927.513,0.0002,0.0,0.0
12.46,4914.326,0.0002,0.0,0.0
12.467,4921.623,0.0002,0.0,0.0
12.473,4919.342,0.0002,0.0,0.0
12.479,4920.073,0.0002,0.0,0.0
12.486,4939.414,0.0002,0.0,0.0
12.492,4921.516,0.0002,0.0,0.0
12.498,4919.702,0.0002,0.0,0.0
12.505,4928.411,0.0002,0.0,0.0
12.511,4918.26,0.0002,0.0,0.0
12.517,4910.046,0.0002,0.0,0.0
12.524,4924.105,0.0002,0.0,0.0
12.53,4922.144,0.0002,0.0,0.0
12.536,4923.627,0.0002,0.0,0.0
12.543,4929.664,0.0002,0.0,0.0
12.549,4921.213,0.0002,0.0,0.0
12.555,4940.618,0.0002,0.0,0.0
12.562,4933.1,0.0002,0.0,0.0
12.568,4957.151,0.0002,0.0,0.0
12.574,4950.233,0.0002,0.0,0.0
12.58,4980.542,0.0002,0.0,0.0
12.587,4980.05,0.0002,0.0,0.0
12.593,5011.075,0.0002,0.0,0.0
12.599,5049.352,0.0002,0.0,0.0
12.606,5082.417,0.0002,0.0,0.0
12.612,5155.922,0.00019,0.0,0.0
12.618,5251.937,0.00019,0.0,0.0
12.625,5370.643,0.00019,0.0,0.0
12.631,5649.935,0.00018,0.0,0.0
12.637,5986.177,0.00017,0.0,0.0
12.644,6737.854,0.00015,0.0,0.0
12.65,7840.196,0.00013,0.0,0.0
12.656,9888.649,0.0001,0.0,0.0
12.663,13807.622,0.00007,0.0,0.0
12.669,18445.647,0.00005,0.0,0.0
12.675,26305.873,0.00004,0.0,0.0
12.682,32655.896,0.00003,0.0,0.0
12.688,35238.289,0.00003,0.0,0.0
12.694,35123.889,0.00003,0.0,0.0
12.701,28948.342,0.00003,0.0,0.0
12.707,23777.855,0.00004,0.0,0.0
12.713,16253.85,0.00006,0.0,0.0
12.72,11944.805,0.00008,0.0,0.0
12.726,8788.902,0.00011,0.0,0.0
12.732,7073.795,0.00014,0.0,0.0
12.738,6215.076,0.00016,0.0,0.0
12.745,5717.215,0.00017,0.0,0.0
12.751,5378.83,0.00019,0.0,0.0
12.757,5197.157,0.00019,0.0,0.0
12.764,5067.298,0.0002,0.0,0.0
12.77,4968.519,0.0002,0.0,0.0
12.776,4943.86,0.0002,0.0,0.0
12.783,4875.179,0.00021,0.0,0.0
12.789,4860.426,0.00021,0.0,0.0
12.795,4822.147,0.00021,0.0,0.0
12.802,4797.589,0.00021,0.0,0.0
12.808,4796.285,0.00021,0.0,0.0
12.814,4756.601,0.00021,0.0,0.0
12.821,4759.067,0.00021,0.0,0.0
12.827,4742.562,0.00021,0.0,0.0
12.833,4710.058,0.00021,0.0,0.0
12.84,4736.001,0.00021,0.0,0.0
12.846,4706.256,0.00021,0.0,0.0
12.852,4717.869,0.00021,0.0,0.0
12.859,4696.727,0.00021,0.0,0.0
12.865,4666.749,0.00021,0.0,0.0
12.871,4696.611,0.00021,0.0,0.0
12.878,4670.706,0.00021,0.0,0.0
12.884,4664.893,0.00021,0.0,0.0
12.89,4661.383,0.00021,0.0,0.0
12.896,4648.708,0.00022,0.0,0.0
12.903,4695.704,0.00021,0.0,0.0
12.909,4653.509,0.00021,0.0,0.0
12.915,4638.95,0.00022,0.0,0.0
12.922,4845.85,0.00021,0.0,0.0
12.928,4626.961,0.00022,0.0,0.0
12.934,5007.856,0.0002,0.0,0.0
12.941,4625.411,0.00022,0.0,0.0
12.947,4616.646,0.00022,0.0,0.0
12.953,4777.557,0.00021,0.0,0.0
12.96,4612.802,0.00022,0.0,0.0
12.966,4657.086,0.00021,0.0,0.0
12.972,4588.158,0.00022,0.0,0.0
12.979,4593.711,0.00022,0.0,0.0
12.985,4614.972,0.00022,0.0,0.0
12.991,4577.849,0.00022,0.0,0.0
12.998,4599.86,0.00022,0.0,0.0
13.004,4567.367,0.00022,0.0,0.0
13.01,4567.961,0.00022,0.0,0.0
13.017,4589.691,0.00022,0.0,0.0
13.023,4564.199,0.00022,0.0,0.0
13.029,4577.911,0.00022,0.0,0.0
13.036,4562.794,0.00022,0.0,0.0
13.042,4548.6,0.00022,0.0,0.0
13.048,4575.679,0.00022,0.0,0.0
13.054,4558.914,0.00022,0.0,0.0
13.061,4551.627,0.00022,0.0,0.0
13.067,4554.843,0.00022,0.0,0.0
13.073,4528.55,0.00022,0.0,0.0
13.08,4562.667,0.00022,0.0,0.0
13.086,4535.4,0.00022,0.0,0.0
13.092,4547.142,0.00022,0.0,0.0
13.099,4523.371,0.00022,0.0,0.0
13.105,4522.671,0.00022,0.0,0.0
13.111,4559.091,0.00022,0.0,0.0
13.118,4520.366,0.00022,0.0,0.0
13.124,4541.264,0.00022,0.0,0.0
13.13,4527.131,0.00022,0.0,0.0
13.137,4519.177,0.00022,0.0,0.0
13.143,4542.4,0.00022,0.0,0.0
13.149,4516.794,0.00022,0.0,0.0
13.156,4522.368,0.00022,0.0,0.0
13.162,4549.545,0.00022,0.0,0.0
13.168,4521.338,0.00022,0.0,0.0
13.175,4562.004,0.00022,0.0,0.0
13.181,4554.135,0.00022,0.0,0.0
13.187,4563.363,0.00022,0.0,0.0
13.194,4623.994,0.00022,0.0,0.0
13.2,4660.03,0.00021,0.0,0.0
13.206,4767.739,0.00021,0.0,0.0
13.212,4932.858,0.0002,0.0,0.0
13.219,5209.478,0.00019,0.0,0.0
13.225,5856.598,0.00017,0.0,0.0
13.231,6840.234,0.00015,0.0,0.0
13.238,8187.539,0.00012,0.0,0.0
13.244,10070.676,0.0001,0.0,0.0
13.25,11583.244,0.00009,0.0,0.0
13.257,11783.682,0.00008,0.0,0.0
13.263,11559.458,0.00009,0.0,0.0
13.269,9889.171,0.0001,0.0,0.0
13.276,8355.933,0.00012,0.0,0.0
13.282,6904.513,0.00014,0.0,0.0
13.288,5869.103,0.00017,0.0,0.0
13.295,5264.047,0.00019,0.0,0.0
13.301,4911.011,0.0002,0.0,0.0
13.307,4697.77,0.00021,0.0,0.0
13.314,4588.419,0.00022,0.0,0.0
13.32,4527.933,0.00022,0.0,0.0
13.326,4484.588,0.00022,0.0,0.0
13.333,4456.421,0.00022,0.0,0.0
13.339,4438.022,0.00023,0.0,0.0
13.345,4408.485,0.00023,0.0,0.0
13.352,4405.432,0.00023,0.0,0.0
13.358,4388.623,0.00023,0.0,0.0
13.364,4404.163,0.00023,0.0,0.0
13.37,4376.951,0.00023,0.0,0.0
13.377,4354.305,0.00023,0.0,0.0
13.383,4381.72,0.00023,0.0,0.0
13.389,4347.848,0.00023,0.0,0.0
13.396,4359.891,0.00023,0.0,0.0
13.402,4360.966,0.00023,0.0,0.0
13.408,4339.342,0.00023,0.0,0.0
13.415,4344.226,0.00023,0.0,0.0
13.421,4325.239,0.00023,0.0,0.0
13.427,4325.864,0.00023,0.0,0.0
13.434,4331.363,0.00023,0.0,0.0
13.44,4314.859,0.00023,0.0,0.0
13.446,4305.724,0.00023,0.0,0.0
13.453,4305.796,0.00023,0.0,0.0
13.459,4300.725,0.00023,0.0,0.0
13.465,4299.598,0.00023,0.0,0.0
13.472,4301.899,0.00023,0.0,0.0
13.478,4300.977,0.00023,0.0,0.0
13.484,4285.684,0.00023,0.0,0.0
13.491,4279.244,0.00023,0.0,0.0
13.497,4295.272,0.00023,0.0,0.0
13.503,4262.609,0.00023,0.0,0.0
13.51,4279.716,0.00023,0.0,0.0
13.516,4276.558,0.00023,0.0,0.0
13.522,4256.074,0.00023,0.0,0.0
13.528,4285.605,0.00023,0.0,0.0
13.535,4256.737,0.00023,0.0,0.0
13.541,4269.765,0.00023,0.0,0.0
13.547,4259.903,0.00023,0.0,0.0
13.554,4260.304,0.00023,0.0,0.0
13.56,4260.824,0.00023,0.0,0.0
13.566,4258.459,0.00023,0.0,0.0
13.573,4257.066,0.00023,0.0,0.0
13.579,4259.309,0.00023,0.0,0.0
13.585,4243.038,0.00024,0.0,0.0
13.592,4241.473,0.00024,0.0,0.0
13.598,4245.09,0.00024,0.0,0.0
13.604,4249.594,0.00024,0.0,0.0
13.611,4240.255,0.00024,0.0,0.0
13.617,4239.671,0.00024,0.0,0.0
13.623,4251.179,0.00024,0.0,0.0
13.63,4251.749,0.00024,0.0,0.0
13.636,4237.284,0.00024,0.0,0.0
13.642,4249.123,0.00024,0.0,0.0
13.649,4237.036,0.00024,0.0,0.0
13.655,4255.201,0.00024,0.0,0.0
13.661,4243.289,0.00024,0.0,0.0
13.668,4267.637,0.00023,0.0,0.0
13.674,4258.07,0.00023,0.0,0.0
13.68,4297.025,0.00023,0.0,0.0
13.686,4346.894,0.00023,0.0,0.0
13.693,4316.355,0.00023,0.0,0.0
13.699,4427.344,0.00023,0.0,0.0
13.705,4532.679,0.00022,0.0,0.0
13.712,4501.65,0.00022,0.0,0.0
13.718,4587.184,0.00022,0.0,0.0
13.724,4378.226,0.00023,0.0,0.0
13.731,4407.523,0.00023,0.0,0.0
13.737,4267.278,0.00023,0.0,0.0
13.743,4236.981,0.00024,0.0,0.0
13.75,4243.922,0.00024,0.0,0.0
13.756,4215.574,0.00024,0.0,0.0
13.762,4203.957,0.00024,0.0,0.0
13.769,4195.102,0.00024,0.0,0.0
13.775,4181.848,0.00024,0.0,0.0
13.781,4188.902,0.00024,0.0,0.0
13.788,4189.448,0.00024,0.0,0.0
13.794,4162.695,0.00024,0.0,0.0
13.8,4175.897,0.00024,0.0,0.0
13.807,4146.428,0.00024,0.0,0.0
13.813,4167.712,0.00024,0.0,0.0
13.819,4151.433,0.00024,0.0,0.0
13.826,4162.261,0.00024,0.0,0.0
13.832,4142.97,0.00024,0.0,0.0
13.838,4140.907,0.00024,0.0,0.0
13.844,4148.994,0.00024,0.0,0.0
13.851,4134.545,0.00024,0.0,0.0
13.857,4127.735,0.00024,0.0,0.0
13.863,4117.689,0.00024,0.0,0.0
13.87,4120.049,0.00024,0.0,0.0
13.876,4119.282,0.00024,0.0,0.0
13.882,4102.889,0.00024,0.0,0.0
13.889,4104.02,0.00024,0.0,0.0
13.895,4110.455,0.00024,0.0,0.0
13.901,4100.122,0.00024,0.0,0.0
13.908,4105.274,0.00024,0.0,0.0
13.914,4085.275,0.00024,0.0,0.0
13.92,4082.853,0.00024,0.0,0.0
13.927,4085.695,0.00024,0.0,0.0
13.933,4078.641,0.00025,0.0,0.0
13.939,4082.669,0.00024,0.0,0.0
13.946,4071.752,0.00025,0.0,0.0
13.952,4069.286,0.00025,0.0,0.0
13.958,4065.868,0.00025,0.0,0.0
13.965,4062.985,0.00025,0.0,0.0
13.971,4060.973,0.00025,0.0,0.0
13.977,4059.096,0.00025,0.0,0.0
13.984,4051.498,0.00025,0.0,0.0
13.99,4058.41,0.00025,0.0,0.0
13.996,4049.672,0.00025,0.0,0.0
14.002,4039.192,0.00025,0.0,0.0
14.009,4042.42,0.00025,0.0,0.0
14.015,4036.431,0.00025,0.0,0.0
14.021,4037.73,0.00025,0.0,0.0
14.028,4028.097,0.00025,0.0,0.0
14.034,4025.297,0.00025,0.0,0.0
14.04,4016.017,0.00025,0.0,0.0
14.047,4020.756,0.00025,0.0,0.0
14.053,4016.808,0.00025,0.0,0.0
14.059,4020.357,0.00025,0.0,0.0
14.066,4005.717,0.00025,0.0,0.0
14.072,4018.16,0.00025,0.0,0.0
14.078,4008.2,0.00025,0.0,0.0
14.085,4017.023,0.00025,0.0,0.0
14.091,4000.565,0.00025,0.0,0.0
14.097,3998.545,0.00025,0.0,0.0
14.104,3994.5,0.00025,0.0,0.0
14.11,3993.499,0.00025,0.0,0.0
14.116,4006.425,0.00025,0.0,0.0
14.123,3989.145,0.00025,0.0,0.0
14.129,3993.29,0.00025,0.0,0.0
14.135,3990.936,0.00025,0.0,0.0
14.142,3982.695,0.00025,0.0,0.0
14.148,3987.888,0.00025,0.0,0.0
14.154,3977.391,0.00025,0.0,0.0
14.16,3975.161,0.00025,0.0,0.0
14.167,3975.605,0.00025,0.0,0.0
14.173,3964.454,0.00025,0.0,0.0
14.179,3965.141,0.00025,0.0,0.0
14.186,3962.854,0.00025,0.0,0.0
14.192,3976.795,0.00025,0.0,0.0
14.198,3966.806,0.00025,0.0,0.0
14.205,3962.932,0.00025,0.0,0.0
14.211,3963.559,0.00025,0.0,0.0
14.217,3949.429,0.00025,0.0,0.0
14.224,3950.258,0.00025,0.0,0.0
14.23,3962.228,0.00025,0.0,0.0
14.236,3952.326,0.00025,0.0,0.0
14.243,3960.151,0.00025,0.0,0.0
14.249,3947.796,0.00025,0.0,0.0
14.255,3965.884,0.00025,0.0,0.0
14.262,3946.163,0.00025,0.0,0.0
14.268,3936.983,0.00025,0.0,0.0
14.274,3936.906,0.00025,0.0,0.0
14.281,3941.714,0.00025,0.0,0.0
14.287,3936.266,0.00025,0.0,0.0
14.293,3938.547,0.00025,0.0,0.0
14.3,3911.067,0.00026,0.0,0.0
14.306,3943.403,0.00025,0.0,0.0
14.312,3932.622,0.00025,0.0,0.0
14.318,3922.109,0.00025,0.0,0.0
14.325,3925.119,0.00025,0.0,0.0
14.331,3930.047,0.00025,0.0,0.0
14.337,3931.493,0.00025,0.0,0.0
14.344,3920.253,0.00026,0.0,0.0
14.35,3933.901,0.00025,0.0,0.0
14.356,3902.897,0.00026,0.0,0.0
14.363,3915.715,0.00026,0.0,0.0
14.369,3919.36,0.00026,0.0,0.0
14.375,3915.398,0.00026,0.0,0.0
14.382,3926.765,0.00025,0.0,0.0
14.388,3919.38,0.00026,0.0,0.0
14.394,3919.535,0.00026,0.0,0.0
14.401,3913.617,0.00026,0.0,0.0
14.407,3909.833,0.00026,0.0,0.0
14.413,3925.988,0.00025,0.0,0.0
14.42,3902.794,0.00026,0.0,0.0
14.426,3921.878,0.00025,0.0,0.0
14.432,3941.043,0.00025,0.0,0.0
14.439,3918.301,0.00026,0.0,0.0
14.445,4029.879,0.00025,0.0,0.0
14.451,3940.232,0.00025,0.0,0.0
14.458,3971.772,0.00025,0.0,0.0
14.464,4032.662,0.00025,0.0,0.0
14.47,3943.799,0.00025,0.0,0.0
14.476,3985.7,0.00025,0.0,0.0
14.483,3922.024,0.00025,0.0,0.0
14.489,3904.891,0.00026,0.0,0.0
14.495,3892.458,0.00026,0.0,0.0
14.502,3877.504,0.00026,0.0,0.0
14.508,3906.043,0.00026,0.0,0.0
14.514,3874.759,0.00026,0.0,0.0
14.521,3875.418,0.00026,0.0,0.0
14.527,3870.094,0.00026,0.0,0.0
14.533,3862.423,0.00026,0.0,0.0
14.54,3872.746,0.00026,0.0,0.0
14.546,3840.007,0.00026,0.0,0.0
14.552,3856.903,0.00026,0.0,0.0
14.559,3855.076,0.00026,0.0,0.0
14.565,3852.043,0.00026,0.0,0.0
14.571,3854.984,0.00026,0.0,0.0
14.578,3835.258,0.00026,0.0,0.0
14.584,3843.176,0.00026,0.0,0.0
14.59,3836.937,0.00026,0.0,0.0
14.597,3820.844,0.00026,0.0,0.0
14.603,3841.396,0.00026,0.0,0.0
14.609,3835.627,0.00026,0.0,0.0
14.616,3835.291,0.00026,0.0,0.0
14.622,3819.777,0.00026,0.0,0.0
14.628,3831.424,0.00026,0.0,0.0
14.634,3835.759,0.00026,0.0,0.0
14.641,3814.357,0.00026,0.0,0.0
14.647,3822.477,0.00026,0.0,0.0
14.653,3819.556,0.00026,0.0,0.0
14.66,3815.137,0.00026,0.0,0.0
14.666,3813.958,0.00026,0.0,0.0
14.672,3808.805,0.00026,0.0,0.0
14.679,3803.867,0.00026,0.0,0.0
14.685,3801.127,0.00026,0.0,0.0
14.691,3801.851,0.00026,0.0,0.0
14.698,3804.556,0.00026,0.0,0.0
14.704,3823.665,0.00026,0.0,0.0
14.71,3799.495,0.00026,0.0,0.0
14.717,3792.0,0.00026,0.0,0.0
14.723,3781.75,0.00026,0.0,0.0
14.729,3790.36,0.00026,0.0,0.0
14.736,3787.681,0.00026,0.0,0.0
14.742,3773.464,0.00027,0.0,0.0
14.748,3786.801,0.00026,0.0,0.0
14.755,3783.391,0.00026,0.0,0.0
14.761,3783.232,0.00026,0.0,0.0
14.767,3770.024,0.00027,0.0,0.0
14.774,3773.594,0.00026,0.0,0.0
14.78,3779.416,0.00026,0.0,0.0
14.786,3773.332,0.00027,0.0,0.0
14.792,3783.458,0.00026,0.0,0.0
14.799,3764.002,0.00027,0.0,0.0
14.805,3777.135,0.00026,0.0,0.0
14.811,3772.56,0.00027,0.0,0.0
14.818,3768.311,0.00027,0.0,0.0
14.824,3769.725,0.00027,0.0,0.0
14.83,3772.269,0.00027,0.0,0.0
14.837,3766.553,0.00027,0.0,0.0
14.843,3772.837,0.00027,0.0,0.0
14.849,3770.457,0.00027,0.0,0.0
14.856,3761.783,0.00027,0.0,0.0
14.862,3756.727,0.00027,0.0,0.0
14.868,3764.443,0.00027,0.0,0.0
14.875,3772.172,0.00027,0.0,0.0
14.881,3754.3,0.00027,0.0,0.0
14.887,3755.691,0.00027,0.0,0.0
14.894,3747.95,0.00027,0.0,0.0
14.9,3764.394,0.00027,0.0,0.0
14.906,3754.709,0.00027,0.0,0.0
14.913,3757.757,0.00027,0.0,0.0
14.919,3757.955,0.00027,0.0,0.0
14.925,3764.98,0.00027,0.0,0.0
14.932,3771.551,0.00027,0.0,0.0
14.938,3760.977,0.00027,0.0,0.0
14.944,3753.054,0.00027,0.0,0.0
14.95,3749.193,0.00027,0.0,0.0
14.957,3752.217,0.00027,0.0,0.0
14.963,3764.888,0.00027,0.0,0.0
14.969,3746.166,0.00027,0.0,0.0
14.976,3760.072,0.00027,0.0,0.0
14.982,3730.929,0.00027,0.0,0.0
14.988,3745.437,0.00027,0.0,0.0
14.995,3753.721,0.00027,0.0,0.0
15.001,3747.646,0.00027,0.0,0.0
15.007,3726.791,0.00027,0.0,0.0
15.014,3747.128,0.00027,0.0,0.0
15.02,3741.594,0.00027,0.0,0.0
15.026,3744.954,0.00027,0.0,0.0
15.033,3727.19,0.00027,0.0,0.0
15.039,3735.985,0.00027,0.0,0.0
15.045,3748.469,0.00027,0.0,0.0
15.052,3744.353,0.00027,0.0,0.0
15.058,3744.053,0.00027,0.0,0.0
15.064,3729.997,0.00027,0.0,0.0
15.071,3737.134,0.00027,0.0,0.0
15.077,3736.986,0.00027,0.0,0.0
15.083,3732.273,0.00027,0.0,0.0
15.09,3731.613,0.00027,0.0,0.0
15.096,3732.285,0.00027,0.0,0.0
15.102,3726.12,0.00027,0.0,0.0
15.108,3737.164,0.00027,0.0,0.0
15.115,3734.369,0.00027,0.0,0.0
15.121,3746.289,0.00027,0.0,0.0
15.127,3745.207,0.00027,0.0,0.0
15.134,3738.532,0.00027,0.0,0.0
15.14,3751.97,0.00027,0.0,0.0
15.146,3779.1,0.00026,0.0,0.0
15.153,3794.594,0.00026,0.0,0.0
15.159,3821.133,0.00026,0.0,0.0
15.165,3778.982,0.00026,0.0,0.0
15.172,3889.771,0.00026,0.0,0.0
15.178,3897.051,0.00026,0.0,0.0
15.184,3872.776,0.00026,0.0,0.0
15.191,3806.414,0.00026,0.0,0.0
15.197,3763.965,0.00027,0.0,0.0
15.203,3746.126,0.00027,0.0,0.0
15.21,3733.731,0.00027,0.0,0.0
15.216,3740.237,0.00027,0.0,0.0
15.222,3737.23,0.00027,0.0,0.0
15.229,3730.832,0.00027,0.0,0.0
15.235,3742.605,0.00027,0.0,0.0
15.241,3745.875,0.00027,0.0,0.0
15.248,3755.764,0.00027,0.0,0.0
15.254,3780.397,0.00026,0.0,0.0
15.26,3816.326,0.00026,0.0,0.0
15.266,3861.475,0.00026,0.0,0.0
15.273,3959.998,0.00025,0.0,0.0
15.279,4132.58,0.00024,0.0,0.0
15.285,4399.114,0.00023,0.0,0.0
15.292,4779.946,0.00021,0.0,0.0
15.298,5338.449,0.00019,0.0,0.0
15.304,5824.398,0.00017,0.0,0.0
15.311,6604.775,0.00015,0.0,0.0
15.317,6657.386,0.00015,0.0,0.0
15.323,6564.844,0.00015,0.0,0.0
15.33,6234.47,0.00016,0.0,0.0
15.336,5452.722,0.00018,0.0,0.0
15.342,4975.208,0.0002,0.0,0.0
15.349,4430.733,0.00023,0.0,0.0
15.355,4143.89,0.00024,0.0,0.0
15.361,3960.909,0.00025,0.0,0.0
15.368,3854.504,0.00026,0.0,0.0
15.374,3796.424,0.00026,0.0,0.0
15.38,3755.68,0.00027,0.0,0.0
15.387,3729.263,0.00027,0.0,0.0
15.393,3718.274,0.00027,0.0,0.0
15.399,3710.783,0.00027,0.0,0.0
15.406,3695.646,0.00027,0.0,0.0
15.412,3682.353,0.00027,0.0,0.0
15.418,3702.053,0.00027,0.0,0.0
15.424,3675.8,0.00027,0.0,0.0
15.431,3681.44,0.00027,0.0,0.0
15.437,3669.678,0.00027,0.0,0.0
15.443,3697.03,0.00027,0.0,0.0
15.45,3684.224,0.00027,0.0,0.0
15.456,3671.56,0.00027,0.0,0.0
15.462,3676.924,0.00027,0.0,0.0
15.469,3676.667,0.00027,0.0,0.0
15.475,3668.832,0.00027,0.0,0.0
15.481,3675.971,0.00027,0.0,0.0
15.488,3669.25,0.00027,0.0,0.0
15.494,3675.575,0.00027,0.0,0.0
15.5,3670.389,0.00027,0.0,0.0
15.507,3667.067,0.00027,0.0,0.0
15.513,3673.797,0.00027,0.0,0.0
15.519,3669.398,0.00027,0.0,0.0
15.526,3661.965,0.00027,0.0,0.0
15.532,3665.68,0.00027,0.0,0.0
15.538,3663.784,0.00027,0.0,0.0
15.545,3650.8,0.00027,0.0,0.0
15.551,3659.131,0.00027,0.0,0.0
15.557,3660.881,0.00027,0.0,0.0
15.564,3639.969,0.00027,0.0,0.0
15.57,3646.956,0.00027,0.0,0.0
15.576,3647.737,0.00027,0.0,0.0
15.582,3639.035,0.00027,0.0,0.0
15.589,3640.217,0.00027,0.0,0.0
15.595,3642.273,0.00027,0.0,0.0
15.601,3644.859,0.00027,0.0,0.0
15.608,3637.11,0.00027,0.0,0.0
15.614,3633.321,0.00028,0.0,0.0
15.62,3625.441,0.00028,0.0,0.0
15.627,3628.638,0.00028,0.0,0.0
15.633,3619.915,0.00028,0.0,0.0
15.639,3621.936,0.00028,0.0,0.0
15.646,3633.346,0.00028,0.0,0.0
15.652,3620.742,0.00028,0.0,0.0
15.658,3624.198,0.00028,0.0,0.0
15.665,3608.595,0.00028,0.0,0.0
15.671,3609.221,0.00028,0.0,0.0
15.677,3597.414,0.00028,0.0,0.0
15.684,3599.431,0.00028,0.0,0.0
15.69,3595.258,0.00028,0.0,0.0
15.696,3596.723,0.00028,0.0,0.0
15.703,3594.925,0.00028,0.0,0.0
15.709,3590.288,0.00028,0.0,0.0
15.715,3595.084,0.00028,0.0,0.0
15.722,3581.097,0.00028,0.0,0.0
15.728,3567.087,0.00028,0.0,0.0
15.734,3572.33,0.00028,0.0,0.0
15.74,3568.048,0.00028,0.0,0.0
15.747,3568.94,0.00028,0.0,0.0
15.753,3565.075,0.00028,0.0,0.0
15.759,3561.838,0.00028,0.0,0.0
15.766,3556.276,0.00028,0.0,0.0
15.772,3573.887,0.00028,0.0,0.0
15.778,3571.772,0.00028,0.0,0.0
15.785,3556.037,0.00028,0.0,0.0
15.791,3574.725,0.00028,0.0,0.0
15.797,3549.769,0.00028,0.0,0.0
15.804,3549.46,0.00028,0.0,0.0
15.81,3557.06,0.00028,0.0,0.0
15.816,3558.352,0.00028,0.0,0.0
15.823,3553.361,0.00028,0.0,0.0
15.829,3580.848,0.00028,0.0,0.0
15.835,3559.334,0.00028,0.0,0.0
15.842,3573.57,0.00028,0.0,0.0
15.848,3584.233,0.00028,0.0,0.0
15.854,3557.681,0.00028,0.0,0.0
15.861,3560.789,0.00028,0.0,0.0
15.867,3559.446,0.00028,0.0,0.0
15.873,3547.842,0.00028,0.0,0.0
15.88,3547.472,0.00028,0.0,0.0
15.886,3543.381,0.00028,0.0,0.0
15.892,3528.516,0.00028,0.0,0.0
15.898,3526.293,0.00028,0.0,0.0
15.905,3520.596,0.00028,0.0,0.0
15.911,3527.251,0.00028,0.0,0.0
15.917,3523.8,0.00028,0.0,0.0
15.924,3517.517,0.00028,0.0,0.0
15.93,3517.677,0.00028,0.0,0.0
15.936,3515.147,0.00028,0.0,0.0
15.943,3514.97,0.00028,0.0,0.0
15.949,3509.341,0.00028,0.0,0.0
15.955,3509.227,0.00028,0.0,0.0
15.962,3504.589,0.00029,0.0,0.0
15.968,3507.536,0.00029,0.0,0.0
15.974,3495.512,0.00029,0.0,0.0
15.981,3507.69,0.00029,0.0,0.0
15.987,3493.025,0.00029,0.0,0.0
15.993,3494.776,0.00029,0.0,0.0
16.0,3490.614,0.00029,0.0,0.0
16.006,3490.93,0.00029,0.0,0.0
16.012,3500.616,0.00029,0.0,0.0
16.019,3495.925,0.00029,0.0,0.0
16.025,3497.375,0.00029,0.0,0.0
16.031,3484.728,0.00029,0.0,0.0
16.038,3487.084,0.00029,0.0,0.0
16.044,3488.869,0.00029,0.0,0.0
16.05,3487.948,0.00029,0.0,0.0
16.056,3480.678,0.00029,0.0,0.0
16.063,3487.95,0.00029,0.0,0.0
16.069,3495.758,0.00029,0.0,0.0
16.075,3486.872,0.00029,0.0,0.0
16.082,3480.033,0.00029,0.0,0.0
16.088,3480.809,0.00029,0.0,0.0
16.094,3483.043,0.00029,0.0,0.0
16.101,3477.578,0.00029,0.0,0.0
16.107,3469.74,0.00029,0.0,0.0
16.113,3475.201,0.00029,0.0,0.0
16.12,3475.986,0.00029,0.0,0.0
16.126,3480.271,0.00029,0.0,0.0
16.132,3473.778,0.00029,0.0,0.0
16.139,3476.671,0.00029,0.0,0.0
16.145,3468.609,0.00029,0.0,0.0
16.151,3472.387,0.00029,0.0,0.0
16.158,3471.201,0.00029,0.0,0.0
16.164,3463.177,0.00029,0.0,0.0
16.17,3472.796,0.00029,0.0,0.0
16.177,3462.359,0.00029,0.0,0.0
16.183,3475.828,0.00029,0.0,0.0
16.189,3474.566,0.00029,0.0,0.0
16.196,3473.31,0.00029,0.0,0.0
16.202,3474.459,0.00029,0.0,0.0
16.208,3471.563,0.00029,0.0,0.0
16.214,3470.56,0.00029,0.0,0.0
16.221,3460.874,0.00029,0.0,0.0
16.227,3474.34,0.00029,0.0,0.0
16.233,3459.03,0.00029,0.0,0.0
16.24,3458.949,0.00029,0.0,0.0
16.246,3469.726,0.00029,0.0,0.0
16.252,3458.173,0.00029,0.0,0.0
16.259,3461.474,0.00029,0.0,0.0
16.265,3462.68,0.00029,0.0,0.0
16.271,3456.005,0.00029,0.0,0.0
16.278,3453.964,0.00029,0.0,0.0
16.284,3464.7,0.00029,0.0,0.0
16.29,3464.883,0.00029,0.0,0.0
16.297,3461.168,0.00029,0.0,0.0
16.303,3453.791,0.00029,0.0,0.0
16.309,3466.956,0.00029,0.0,0.0
16.316,3462.911,0.00029,0.0,0.0
16.322,3458.664,0.00029,0.0,0.0
16.328,3452.343,0.00029,0.0,0.0
16.335,3455.201,0.00029,0.0,0.0
16.341,3460.041,0.00029,0.0,0.0
16.347,3458.862,0.00029,0.0,0.0
16.354,3457.369,0.00029,0.0,0.0
16.36,3458.712,0.00029,0.0,0.0
16.366,3454.218,0.00029,0.0,0.0
16.372,3449.112,0.00029,0.0,0.0
16.379,3463.961,0.00029,0.0,0.0
16.385,3463.189,0.00029,0.0,0.0
16.391,3452.952,0.00029,0.0,0.0
16.398,3457.025,0.00029,0.0,0.0
16.404,3451.205,0.00029,0.0,0.0
16.41,3457.154,0.00029,0.0,0.0
16.417,3453.058,0.00029,0.0,0.0
16.423,3460.649,0.00029,0.0,0.0
16.429,3463.706,0.00029,0.0,0.0
16.436,3449.793,0.00029,0.0,0.0
16.442,3456.802,0.00029,0.0,0.0
16.448,3457.14,0.00029,0.0,0.0
16.455,3460.795,0.00029,0.0,0.0
16.461,3460.899,0.00029,0.0,0.0
16.467,3467.833,0.00029,0.0,0.0
16.474,3481.587,0.00029,0.0,0.0
16.48,3475.805,0.00029,0.0,0.0
16.486,3484.587,0.00029,0.0,0.0
16.493,3484.902,0.00029,0.0,0.0
16.499,3498.68,0.00029,0.0,0.0
16.505,3489.793,0.00029,0.0,0.0
16.512,3481.906,0.00029,0.0,0.0
16.518,3496.674,0.00029,0.0,0.0
16.524,3478.561,0.00029,0.0,0.0
16.53,3475.566,0.00029,0.0,0.0
16.537,3477.731,0.00029,0.0,0.0
16.543,3478.981,0.00029,0.0,0.0
16.549,3479.368,0.00029,0.0,0.0
16.556,3473.445,0.00029,0.0,0.0
16.562,3480.99,0.00029,0.0,0.0
16.568,3464.489,0.00029,0.0,0.0
16.575,3491.145,0.00029,0.0,0.0
16.581,3478.245,0.00029,0.0,0.0
16.587,3479.662,0.00029,0.0,0.0
16.594,3494.581,0.00029,0.0,0.0
