"x","y_obs","weight","y_calc","y_bkg"
0.8,3026.015,0.00033,0.0,0.0
0.806,3306.29,0.0003,0.0,0.0
0.813,3512.029,0.00028,0.0,0.0
0.819,3396.805,0.00029,0.0,0.0
0.825,4055.307,0.00025,0.0,0.0
0.832,3947.63,0.00025,0.0,0.0
0.838,4064.965,0.00025,0.0,0.0
0.844,4371.733,0.00023,0.0,0.0
0.851,4366.029,0.00023,0.0,0.0
0.857,4757.149,0.00021,0.0,0.0
0.863,5085.788,0.0002,0.0,0.0
0.87,4783.47,0.00021,0.0,0.0
0.876,5467.712,0.00018,0.0,0.0
0.882,5530.546,0.00018,0.0,0.0
0.888,5696.004,0.00018,0.0,0.0
0.895,5972.416,0.00017,0.0,0.0
0.901,6058.13,0.00017,0.0,0.0
0.907,6429.6,0.00016,0.0,0.0
0.914,6755.818,0.00015,0.0,0.0
0.92,6258.074,0.00016,0.0,0.0
0.926,6936.236,0.00014,0.0,0.0
0.933,7177.22,0.00014,0.0,0.0
0.939,6723.241,0.00015,0.0,0.0
0.945,7658.283,0.00013,0.0,0.0
0.952,6956.38,0.00014,0.0,0.0
0.958,7626.286,0.00013,0.0,0.0
0.964,7387.615,0.00014,0.0,0.0
0.971,7439.401,0.00013,0.0,0.0
0.977,7709.436,0.00013,0.0,0.0
0.983,7935.083,0.00013,0.0,0.0
0.99,7439.093,0.00013,0.0,0.0
0.996,8087.467,0.00012,0.0,0.0
1.002,7694.441,0.00013,0.0,0.0
1.009,7900.423,0.00013,0.0,0.0
1.015,8196.462,0.00012,0.0,0.0
1.021,7689.727,0.00013,0.0,0.0
1.028,8268.631,0.00012,0.0,0.0
1.034,7822.92,0.00013,0.0,0.0
1.04,8006.826,0.00012,0.0,0.0
1.046,7911.289,0.00013,0.0,0.0
1.053,8091.777,0.00012,0.0,0.0
1.059,7799.368,0.00013,0.0,0.0
1.065,8071.088,0.00012,0.0,0.0
1.072,7786.349,0.00013,0.0,0.0
1.078,8047.423,0.00012,0.0,0.0
1.084,7834.999,0.00013,0.0,0.0
1.091,7849.115,0.00013,0.0,0.0
1.097,7932.639,0.00013,0.0,0.0
1.103,7851.92,0.00013,0.0,0.0
1.11,7792.092,0.00013,0.0,0.0
1.116,7832.995,0.00013,0.0,0.0
1.122,7703.757,0.00013,0.0,0.0
1.129,7774.722,0.00013,0.0,0.0
1.135,7683.121,0.00013,0.0,0.0
1.141,7591.795,0.00013,0.0,0.0
1.148,7713.976,0.00013,0.0,0.0
1.154,7490.113,0.00013,0.0,0.0
1.16,7625.087,0.00013,0.0,0.0
1.167,7471.69,0.00013,0.0,0.0
1.173,7506.683,0.00013,0.0,0.0
1.179,7424.988,0.00013,0.0,0.0
1.186,7337.706,0.00014,0.0,0.0
1.192,7341.226,0.00014,0.0,0.0
1.198,7302.473,0.00014,0.0,0.0
1.204,7188.233,0.00014,0.0,0.0
1.211,7248.555,0.00014,0.0,0.0
1.217,7157.867,0.00014,0.0,0.0
1.223,7126.167,0.00014,0.0,0.0
1.23,7052.43,0.00014,0.0,0.0
1.236,6994.199,0.00014,0.0,0.0
1.242,7091.846,0.00014,0.0,0.0
1.249,6948.977,0.00014,0.0,0.0
1.255,6945.161,0.00014,0.0,0.0
1.261,6985.981,0.00014,0.0,0.0
1.268,6917.299,0.00014,0.0,0.0
1.274,6867.578,0.00015,0.0,0.0
1.28,6950.864,0.00014,0.0,0.0
1.287,6846.369,0.00015,0.0,0.0
1.293,6792.589,0.00015,0.0,0.0
1.299,6903.45,0.00014,0.0,0.0
1.306,6759.596,0.00015,0.0,0.0
1.312,6768.209,0.00015,0.0,0.0
1.318,7115.499,0.00014,0.0,0.0
1.325,6737.653,0.00015,0.0,0.0
1.331,6820.508,0.00015,0.0,0.0
1.337,6801.867,0.00015,0.0,0.0
1.344,6684.171,0.00015,0.0,0.0
1.35,6690.696,0.00015,0.0,0.0
1.356,6634.675,0.00015,0.0,0.0
1.362,6732.583,0.00015,0.0,0.0
1.369,6618.43,0.00015,0.0,0.0
1.375,6655.864,0.00015,0.0,0.0
1.381,6592.957,0.00015,0.0,0.0
1.388,6654.888,0.00015,0.0,0.0
1.394,6600.659,0.00015,0.0,0.0
1.4,6630.925,0.00015,0.0,0.0
1.407,6499.593,0.00015,0.0,0.0
1.413,6619.845,0.00015,0.0,0.0
1.419,6594.89,0.00015,0.0,0.0
1.426,6562.307,0.00015,0.0,0.0
1.432,6615.272,0.00015,0.0,0.0
1.438,6591.681,0.00015,0.0,0.0
1.445,6529.75,0.00015,0.0,0.0
1.451,6539.933,0.00015,0.0,0.0
1.457,6603.543,0.00015,0.0,0.0
1.464,6603.625,0.00015,0.0,0.0
1.47,6543.386,0.00015,0.0,0.0
1.476,6574.692,0.00015,0.0,0.0
1.483,6629.39,0.00015,0.0,0.0
1.489,6489.709,0.00015,0.0,0.0
1.495,6587.898,0.00015,0.0,0.0
1.502,6572.685,0.00015,0.0,0.0
1.508,6624.51,0.00015,0.0,0.0
1.514,6591.828,0.00015,0.0,0.0
1.52,6644.225,0.00015,0.0,0.0
1.527,6533.977,0.00015,0.0,0.0
1.533,6637.619,0.00015,0.0,0.0
1.539,6632.445,0.00015,0.0,0.0
1.546,6663.115,0.00015,0.0,0.0
1.552,6678.607,0.00015,0.0,0.0
1.558,6662.253,0.00015,0.0,0.0
1.565,6584.568,0.00015,0.0,0.0
1.571,6681.477,0.00015,0.0,0.0
1.577,6683.531,0.00015,0.0,0.0
1.584,6705.207,0.00015,0.0,0.0
1.59,6739.067,0.00015,0.0,0.0
1.596,6724.4,0.00015,0.0,0.0
1.603,6776.422,0.00015,0.0,0.0
1.609,6623.179,0.00015,0.0,0.0
1.615,6780.389,0.00015,0.0,0.0
1.622,6750.242,0.00015,0.0,0.0
1.628,6834.241,0.00015,0.0,0.0
1.634,6805.931,0.00015,0.0,0.0
1.641,6804.054,0.00015,0.0,0.0
1.647,6852.936,0.00015,0.0,0.0
1.653,6889.088,0.00015,0.0,0.0
1.66,6924.996,0.00014,0.0,0.0
1.666,6963.818,0.00014,0.0,0.0
1.672,6957.604,0.00014,0.0,0.0
1.678,6898.094,0.00014,0.0,0.0
1.685,6962.959,0.00014,0.0,0.0
1.691,7009.226,0.00014,0.0,0.0
1.697,7022.336,0.00014,0.0,0.0
1.704,7041.162,0.00014,0.0,0.0
1.71,7029.37,0.00014,0.0,0.0
1.716,6998.555,0.00014,0.0,0.0
1.723,7092.354,0.00014,0.0,0.0
1.729,7083.661,0.00014,0.0,0.0
1.735,7116.822,0.00014,0.0,0.0
1.742,7147.176,0.00014,0.0,0.0
1.748,7098.05,0.00014,0.0,0.0
1.754,7135.303,0.00014,0.0,0.0
1.761,7183.947,0.00014,0.0,0.0
1.767,7218.812,0.00014,0.0,0.0
1.773,7178.162,0.00014,0.0,0.0
1.78,7198.317,0.00014,0.0,0.0
1.786,7194.628,0.00014,0.0,0.0
1.792,7249.444,0.00014,0.0,0.0
1.799,7269.004,0.00014,0.0,0.0
1.805,7203.824,0.00014,0.0,0.0
1.811,7236.444,0.00014,0.0,0.0
1.818,7241.772,0.00014,0.0,0.0
1.824,7253.837,0.00014,0.0,0.0
1.83,7319.51,0.00014,0.0,0.0
1.836,7226.415,0.00014,0.0,0.0
1.843,7323.285,0.00014,0.0,0.0
1.849,7281.973,0.00014,0.0,0.0
1.855,7265.628,0.00014,0.0,0.0
1.862,7308.051,0.00014,0.0,0.0
1.868,7321.867,0.00014,0.0,0.0
1.874,7363.981,0.00014,0.0,0.0
1.881,7316.593,0.00014,0.0,0.0
1.887,7277.948,0.00014,0.0,0.0
1.893,7328.928,0.00014,0.0,0.0
1.9,7296.826,0.00014,0.0,0.0
1.906,7349.262,0.00014,0.0,0.0
1.912,7331.776,0.00014,0.0,0.0
1.919,7286.953,0.00014,0.0,0.0
1.925,7348.668,0.00014,0.0,0.0
1.931,7348.064,0.00014,0.0,0.0
1.938,7383.99,0.00014,0.0,0.0
1.944,7340.905,0.00014,0.0,0.0
1.95,7380.933,0.00014,0.0,0.0
1.957,7332.886,0.00014,0.0,0.0
1.963,7377.583,0.00014,0.0,0.0
1.969,7389.328,0.00014,0.0,0.0
1.976,7380.535,0.00014,0.0,0.0
1.982,7350.67,0.00014,0.0,0.0
1.988,7396.076,0.00014,0.0,0.0
1.994,7414.937,0.00013,0.0,0.0
2.001,7469.446,0.00013,0.0,0.0
2.007,7436.717,0.00013,0.0,0.0
2.013,7413.94,0.00013,0.0,0.0
2.02,7436.296,0.00013,0.0,0.0
2.026,7482.883,0.00013,0.0,0.0
2.032,7503.345,0.00013,0.0,0.0
2.039,7475.645,0.00013,0.0,0.0
2.045,7480.153,0.00013,0.0,0.0
2.051,7482.202,0.00013,0.0,0.0
2.058,7496.983,0.00013,0.0,0.0
2.064,7563.003,0.00013,0.0,0.0
2.07,7541.722,0.00013,0.0,0.0
2.077,7573.762,0.00013,0.0,0.0
2.083,7541.85,0.00013,0.0,0.0
2.089,7570.747,0.00013,0.0,0.0
2.096,7550.38,0.00013,0.0,0.0
2.102,7694.515,0.00013,0.0,0.0
2.108,7600.089,0.00013,0.0,0.0
2.115,7642.679,0.00013,0.0,0.0
2.121,7658.486,0.00013,0.0,0.0
2.127,7671.009,0.00013,0.0,0.0
2.134,7725.918,0.00013,0.0,0.0
2.14,7727.847,0.00013,0.0,0.0
2.146,7753.512,0.00013,0.0,0.0
2.152,7757.74,0.00013,0.0,0.0
2.159,7726.359,0.00013,0.0,0.0
2.165,7800.931,0.00013,0.0,0.0
2.171,7826.168,0.00013,0.0,0.0
2.178,7815.504,0.00013,0.0,0.0
2.184,7852.684,0.00013,0.0,0.0
2.19,7828.46,0.00013,0.0,0.0
2.197,7859.187,0.00013,0.0,0.0
2.203,7922.023,0.00013,0.0,0.0
2.209,7888.12,0.00013,0.0,0.0
2.216,7948.455,0.00013,0.0,0.0
2.222,7967.873,0.00013,0.0,0.0
2.228,7971.753,0.00013,0.0,0.0
2.235,8050.299,0.00012,0.0,0.0
2.241,8065.455,0.00012,0.0,0.0
2.247,8086.874,0.00012,0.0,0.0
2.254,8097.429,0.00012,0.0,0.0
2.26,8101.384,0.00012,0.0,0.0
2.266,8147.711,0.00012,0.0,0.0
2.273,8218.453,0.00012,0.0,0.0
2.279,8201.435,0.00012,0.0,0.0
2.285,8256.847,0.00012,0.0,0.0
2.292,8241.813,0.00012,0.0,0.0
2.298,8356.237,0.00012,0.0,0.0
2.304,8322.278,0.00012,0.0,0.0
2.31,8429.453,0.00012,0.0,0.0
2.317,8402.626,0.00012,0.0,0.0
2.323,8427.075,0.00012,0.0,0.0
2.329,8473.166,0.00012,0.0,0.0
2.336,8486.845,0.00012,0.0,0.0
2.342,8609.647,0.00012,0.0,0.0
2.348,8543.365,0.00012,0.0,0.0
2.355,8642.243,0.00012,0.0,0.0
2.361,8671.488,0.00012,0.0,0.0
2.367,8680.127,0.00012,0.0,0.0
2.374,8744.732,0.00011,0.0,0.0
2.38,8815.655,0.00011,0.0,0.0
2.386,8850.145,0.00011,0.0,0.0
2.393,8896.543,0.00011,0.0,0.0
2.399,8943.593,0.00011,0.0,0.0
2.405,9004.04,0.00011,0.0,0.0
2.412,9095.705,0.00011,0.0,0.0
2.418,9122.684,0.00011,0.0,0.0
2.424,9203.131,0.00011,0.0,0.0
2.431,9217.144,0.00011,0.0,0.0
2.437,9372.626,0.00011,0.0,0.0
2.443,9392.471,0.00011,0.0,0.0
2.45,9478.438,0.00011,0.0,0.0
2.456,9642.226,0.0001,0.0,0.0
2.462,9632.954,0.0001,0.0,0.0
2.468,9720.458,0.0001,0.0,0.0
2.475,9860.641,0.0001,0.0,0.0
2.481,9862.031,0.0001,0.0,0.0
2.487,10026.453,0.0001,0.0,0.0
2.494,10084.617,0.0001,0.0,0.0
2.5,10143.793,0.0001,0.0,0.0
2.506,10324.56,0.0001,0.0,0.0
2.513,10322.274,0.0001,0.0,0.0
2.519,10378.763,0.0001,0.0,0.0
2.525,10601.7,0.00009,0.0,0.0
2.532,10524.253,0.0001,0.0,0.0
2.538,10595.124,0.00009,0.0,0.0
2.544,10682.977,0.00009,0.0,0.0
2.551,10596.692,0.00009,0.0,0.0
2.557,10703.853,0.00009,0.0,0.0
2.563,10617.698,0.00009,0.0,0.0
2.57,10583.274,0.00009,0.0,0.0
2.576,10679.939,0.00009,0.0,0.0
2.582,10533.244,0.00009,0.0,0.0
2.589,10581.939,0.00009,0.0,0.0
2.595,10555.833,0.00009,0.0,0.0
2.601,10542.825,0.00009,0.0,0.0
2.608,10537.396,0.00009,0.0,0.0
2.614,10512.406,0.0001,0.0,0.0
2.62,10488.421,0.0001,0.0,0.0
2.626,10527.23,0.00009,0.0,0.0
2.633,10548.419,0.00009,0.0,0.0
2.639,10524.851,0.0001,0.0,0.0
2.645,10583.457,0.00009,0.0,0.0
2.652,10566.94,0.00009,0.0,0.0
2.658,10638.955,0.00009,0.0,0.0
2.664,10634.33,0.00009,0.0,0.0
2.671,10695.891,0.00009,0.0,0.0
2.677,10694.577,0.00009,0.0,0.0
2.683,10781.305,0.00009,0.0,0.0
2.69,10824.849,0.00009,0.0,0.0
2.696,10884.25,0.00009,0.0,0.0
2.702,10928.233,0.00009,0.0,0.0
2.709,10940.828,0.00009,0.0,0.0
2.715,11039.781,0.00009,0.0,0.0
2.721,11023.999,0.00009,0.0,0.0
2.728,11160.741,0.00009,0.0,0.0
2.734,11147.215,0.00009,0.0,0.0
2.74,11174.127,0.00009,0.0,0.0
2.747,11198.186,0.00009,0.0,0.0
2.753,11283.857,0.00009,0.0,0.0
2.759,11329.873,0.00009,0.0,0.0
2.766,11308.227,0.00009,0.0,0.0
2.772,11338.948,0.00009,0.0,0.0
2.778,11432.947,0.00009,0.0,0.0
2.784,11460.106,0.00009,0.0,0.0
2.791,11461.447,0.00009,0.0,0.0
2.797,11589.928,0.00009,0.0,0.0
2.803,11515.143,0.00009,0.0,0.0
2.81,11607.736,0.00009,0.0,0.0
2.816,11608.247,0.00009,0.0,0.0
2.822,11657.776,0.00009,0.0,0.0
2.829,11776.911,0.00008,0.0,0.0
2.835,11700.31,0.00009,0.0,0.0
2.841,11774.799,0.00008,0.0,0.0
2.848,11830.654,0.00008,0.0,0.0
2.854,11857.905,0.00008,0.0,0.0
2.86,11911.372,0.00008,0.0,0.0
2.867,11964.633,0.00008,0.0,0.0
2.873,11919.094,0.00008,0.0,0.0
2.879,12057.994,0.00008,0.0,0.0
2.886,12000.477,0.00008,0.0,0.0
2.892,12078.191,0.00008,0.0,0.0
2.898,12140.665,0.00008,0.0,0.0
2.905,12111.11,0.00008,0.0,0.0
2.911,12259.355,0.00008,0.0,0.0
2.917,12231.117,0.00008,0.0,0.0
2.924,12272.622,0.00008,0.0,0.0
2.93,12308.708,0.00008,0.0,0.0
2.936,12306.795,0.00008,0.0,0.0
2.942,12361.432,0.00008,0.0,0.0
2.949,12433.816,0.00008,0.0,0.0
2.955,12396.249,0.00008,0.0,0.0
2.961,12506.664,0.00008,0.0,0.0
2.968,12470.46,0.00008,0.0,0.0
2.974,12540.572,0.00008,0.0,0.0
2.98,12577.634,0.00008,0.0,0.0
2.987,12548.242,0.00008,0.0,0.0
2.993,12653.421,0.00008,0.0,0.0
2.999,12617.24,0.00008,0.0,0.0
3.006,12662.041,0.00008,0.0,0.0
3.012,12657.925,0.00008,0.0,0.0
3.018,12692.935,0.00008,0.0,0.0
3.025,12712.796,0.00008,0.0,0.0
3.031,12734.423,0.00008,0.0,0.0
3.037,12767.798,0.00008,0.0,0.0
3.044,12760.859,0.00008,0.0,0.0
3.05,12764.377,0.00008,0.0,0.0
3.056,12763.382,0.00008,0.0,0.0
3.063,12815.398,0.00008,0.0,0.0
3.069,12786.252,0.00008,0.0,0.0
3.075,12831.197,0.00008,0.0,0.0
3.082,12775.485,0.00008,0.0,0.0
3.088,12792.132,0.00008,0.0,0.0
3.094,12782.27,0.00008,0.0,0.0
3.1,12803.781,0.00008,0.0,0.0
3.107,12868.631,0.00008,0.0,0.0
3.113,12771.179,0.00008,0.0,0.0
3.119,12776.994,0.00008,0.0,0.0
3.126,12767.861,0.00008,0.0,0.0
3.132,12756.462,0.00008,0.0,0.0
3.138,12746.307,0.00008,0.0,0.0
3.145,12755.958,0.00008,0.0,0.0
3.151,12697.111,0.00008,0.0,0.0
3.157,12720.209,0.00008,0.0,0.0
3.164,12669.72,0.00008,0.0,0.0
3.17,12665.452,0.00008,0.0,0.0
3.176,12641.758,0.00008,0.0,0.0
3.183,12610.027,0.00008,0.0,0.0
3.189,12609.546,0.00008,0.0,0.0
3.195,12552.775,0.00008,0.0,0.0
3.202,12533.198,0.00008,0.0,0.0
3.208,12534.75,0.00008,0.0,0.0
3.214,12495.31,0.00008,0.0,0.0
3.221,12467.591,0.00008,0.0,0.0
3.227,12454.731,0.00008,0.0,0.0
3.233,12368.945,0.00008,0.0,0.0
3.24,12409.068,0.00008,0.0,0.0
3.246,12318.29,0.00008,0.0,0.0
3.252,12359.024,0.00008,0.0,0.0
3.258,12312.289,0.00008,0.0,0.0
3.265,12271.861,0.00008,0.0,0.0
3.271,12293.663,0.00008,0.0,0.0
3.277,12225.819,0.00008,0.0,0.0
3.284,12147.93,0.00008,0.0,0.0
3.29,12195.389,0.00008,0.0,0.0
3.296,12111.793,0.00008,0.0,0.0
3.303,12066.181,0.00008,0.0,0.0
3.309,12079.486,0.00008,0.0,0.0
3.315,12001.285,0.00008,0.0,0.0
3.322,12008.991,0.00008,0.0,0.0
3.328,11924.381,0.00008,0.0,0.0
3.334,11934.629,0.00008,0.0,0.0
3.341,11884.28,0.00008,0.0,0.0
3.347,11800.884,0.00008,0.0,0.0
3.353,11829.32,0.00008,0.0,0.0
3.36,11763.416,0.00009,0.0,0.0
3.366,11734.698,0.00009,0.0,0.0
3.372,11734.425,0.00009,0.0,0.0
3.379,11659.892,0.00009,0.0,0.0
3.385,11644.16,0.00009,0.0,0.0
3.391,11639.136,0.00009,0.0,0.0
3.398,11563.165,0.00009,0.0,0.0
3.404,11627.158,0.00009,0.0,0.0
3.41,11576.994,0.00009,0.0,0.0
3.416,11642.149,0.00009,0.0,0.0
3.423,11602.011,0.00009,0.0,0.0
3.429,11567.086,0.00009,0.0,0.0
3.435,12182.244,0.00008,0.0,0.0
3.442,12231.436,0.00008,0.0,0.0
3.448,11943.946,0.00008,0.0,0.0
3.454,11762.731,0.00009,0.0,0.0
3.461,11345.602,0.00009,0.0,0.0
3.467,11324.733,0.00009,0.0,0.0
3.473,11266.82,0.00009,0.0,0.0
3.48,11171.572,0.00009,0.0,0.0
3.486,11176.426,0.00009,0.0,0.0
3.492,11096.095,0.00009,0.0,0.0
3.499,11063.084,0.00009,0.0,0.0
3.505,11050.762,0.00009,0.0,0.0
3.511,10997.985,0.00009,0.0,0.0
3.518,10998.342,0.00009,0.0,0.0
3.524,10995.356,0.00009,0.0,0.0
3.53,10926.735,0.00009,0.0,0.0
3.537,10994.586,0.00009,0.0,0.0
3.543,10845.141,0.00009,0.0,0.0
3.549,10896.859,0.00009,0.0,0.0
3.556,10870.235,0.00009,0.0,0.0
3.562,10790.45,0.00009,0.0,0.0
3.568,10842.822,0.00009,0.0,0.0
3.574,10778.119,0.00009,0.0,0.0
3.581,10732.129,0.00009,0.0,0.0
3.587,10751.169,0.00009,0.0,0.0
3.593,10694.066,0.00009,0.0,0.0
3.6,10696.819,0.00009,0.0,0.0
3.606,10710.82,0.00009,0.0,0.0
3.612,10652.543,0.00009,0.0,0.0
3.619,10702.303,0.00009,0.0,0.0
3.625,10651.097,0.00009,0.0,0.0
3.631,10654.252,0.00009,0.0,0.0
3.638,10644.63,0.00009,0.0,0.0
3.644,10613.804,0.00009,0.0,0.0
3.65,10655.568,0.00009,0.0,0.0
3.657,10601.579,0.00009,0.0,0.0
3.663,10592.486,0.00009,0.0,0.0
3.669,10628.019,0.00009,0.0,0.0
3.676,10602.573,0.00009,0.0,0.0
3.682,10586.3,0.00009,0.0,0.0
3.688,10622.056,0.00009,0.0,0.0
3.695,10559.062,0.00009,0.0,0.0
3.701,10624.476,0.00009,0.0,0.0
3.707,10615.673,0.00009,0.0,0.0
3.714,10629.024,0.00009,0.0,0.0
3.72,10663.037,0.00009,0.0,0.0
3.726,10599.622,0.00009,0.0,0.0
3.732,10668.831,0.00009,0.0,0.0
3.739,10689.804,0.00009,0.0,0.0
3.745,10671.126,0.00009,0.0,0.0
3.751,10737.9,0.00009,0.0,0.0
3.758,10690.922,0.00009,0.0,0.0
3.764,10744.747,0.00009,0.0,0.0
3.77,10780.205,0.00009,0.0,0.0
3.777,10792.893,0.00009,0.0,0.0
3.783,10874.6,0.00009,0.0,0.0
3.789,10822.87,0.00009,0.0,0.0
3.796,10816.011,0.00009,0.0,0.0
3.802,10852.249,0.00009,0.0,0.0
3.808,10835.388,0.00009,0.0,0.0
3.815,10895.378,0.00009,0.0,0.0
3.821,10942.081,0.00009,0.0,0.0
3.827,10913.879,0.00009,0.0,0.0
3.834,10952.984,0.00009,0.0,0.0
3.84,10969.423,0.00009,0.0,0.0
3.846,10985.025,0.00009,0.0,0.0
3.853,10962.525,0.00009,0.0,0.0
3.859,10968.424,0.00009,0.0,0.0
3.865,11016.257,0.00009,0.0,0.0
3.872,10949.0,0.00009,0.0,0.0
3.878,10918.34,0.00009,0.0,0.0
3.884,10947.96,0.00009,0.0,0.0
3.89,10906.382,0.00009,0.0,0.0
3.897,10892.037,0.00009,0.0,0.0
3.903,10887.457,0.00009,0.0,0.0
3.909,10802.713,0.00009,0.0,0.0
3.916,10830.21,0.00009,0.0,0.0
3.922,10761.669,0.00009,0.0,0.0
3.928,10755.144,0.00009,0.0,0.0
3.935,10717.15,0.00009,0.0,0.0
3.941,10663.961,0.00009,0.0,0.0
3.947,10627.284,0.00009,0.0,0.0
3.954,10561.469,0.00009,0.0,0.0
3.96,10527.476,0.00009,0.0,0.0
3.966,10532.667,0.00009,0.0,0.0
3.973,10447.06,0.0001,0.0,0.0
3.979,10422.458,0.0001,0.0,0.0
3.985,10359.543,0.0001,0.0,0.0
3.992,10322.775,0.0001,0.0,0.0
3.998,10335.518,0.0001,0.0,0.0
4.004,10243.519,0.0001,0.0,0.0
4.011,10215.357,0.0001,0.0,0.0
4.017,10199.093,0.0001,0.0,0.0
4.023,10086.306,0.0001,0.0,0.0
4.03,10130.959,0.0001,0.0,0.0
4.036,10059.591,0.0001,0.0,0.0
4.042,10041.756,0.0001,0.0,0.0
4.048,10047.218,0.0001,0.0,0.0
4.055,9968.274,0.0001,0.0,0.0
4.061,9951.454,0.0001,0.0,0.0
4.067,9969.317,0.0001,0.0,0.0
4.074,9872.33,0.0001,0.0,0.0
4.08,9870.896,0.0001,0.0,0.0
4.086,9837.561,0.0001,0.0,0.0
4.093,9837.121,0.0001,0.0,0.0
4.099,9787.585,0.0001,0.0,0.0
4.105,9740.507,0.0001,0.0,0.0
4.112,9793.724,0.0001,0.0,0.0
4.118,9688.07,0.0001,0.0,0.0
4.124,9721.476,0.0001,0.0,0.0
4.131,9745.694,0.0001,0.0,0.0
4.137,9654.582,0.0001,0.0,0.0
4.143,9633.256,0.0001,0.0,0.0
4.15,9649.698,0.0001,0.0,0.0
4.156,9589.308,0.0001,0.0,0.0
4.162,9656.045,0.0001,0.0,0.0
4.169,9578.781,0.0001,0.0,0.0
4.175,9612.064,0.0001,0.0,0.0
4.181,9568.652,0.0001,0.0,0.0
4.188,9521.27,0.00011,0.0,0.0
4.194,9578.551,0.0001,0.0,0.0
4.2,9547.012,0.0001,0.0,0.0
4.206,9523.888,0.0001,0.0,0.0
4.213,9607.628,0.0001,0.0,0.0
4.219,9516.502,0.00011,0.0,0.0
4.225,9489.334,0.00011,0.0,0.0
4.232,9545.934,0.0001,0.0,0.0
4.238,9440.547,0.00011,0.0,0.0
4.244,9549.782,0.0001,0.0,0.0
4.251,9520.341,0.00011,0.0,0.0
4.257,9437.271,0.00011,0.0,0.0
4.263,9511.269,0.00011,0.0,0.0
4.27,9462.696,0.00011,0.0,0.0
4.276,9464.317,0.00011,0.0,0.0
4.282,9548.162,0.0001,0.0,0.0
4.289,9433.371,0.00011,0.0,0.0
4.295,9516.375,0.00011,0.0,0.0
4.301,9457.653,0.00011,0.0,0.0
4.308,9453.922,0.00011,0.0,0.0
4.314,9477.263,0.00011,0.0,0.0
4.32,9373.867,0.00011,0.0,0.0
4.327,9483.399,0.00011,0.0,0.0
4.333,9457.02,0.00011,0.0,0.0
4.339,9425.584,0.00011,0.0,0.0
4.346,9524.493,0.0001,0.0,0.0
4.352,9438.737,0.00011,0.0,0.0
4.358,9398.751,0.00011,0.0,0.0
4.364,9530.477,0.0001,0.0,0.0
4.371,9473.847,0.00011,0.0,0.0
4.377,9552.495,0.0001,0.0,0.0
4.383,9471.022,0.00011,0.0,0.0
4.39,9439.926,0.00011,0.0,0.0
4.396,9563.321,0.0001,0.0,0.0
4.402,9562.353,0.0001,0.0,0.0
4.409,9568.289,0.0001,0.0,0.0
4.415,9663.315,0.0001,0.0,0.0
4.421,9499.646,0.00011,0.0,0.0
4.428,9696.437,0.0001,0.0,0.0
4.434,9520.856,0.00011,0.0,0.0
4.44,9644.216,0.0001,0.0,0.0
4.447,9867.444,0.0001,0.0,0.0
4.453,9683.444,0.0001,0.0,0.0
4.459,9748.287,0.0001,0.0,0.0
4.466,9764.387,0.0001,0.0,0.0
4.472,9712.938,0.0001,0.0,0.0
4.478,9905.943,0.0001,0.0,0.0
4.485,9924.207,0.0001,0.0,0.0
4.491,9850.239,0.0001,0.0,0.0
4.497,10171.249,0.0001,0.0,0.0
4.504,9823.583,0.0001,0.0,0.0
4.51,10249.398,0.0001,0.0,0.0
4.516,10145.209,0.0001,0.0,0.0
4.522,10398.37,0.0001,0.0,0.0
4.529,10734.946,0.00009,0.0,0.0
4.535,10974.35,0.00009,0.0,0.0
4.541,11951.162,0.00008,0.0,0.0
4.548,13980.566,0.00007,0.0,0.0
4.554,16148.254,0.00006,0.0,0.0
4.56,15675.27,0.00006,0.0,0.0
4.567,15733.748,0.00006,0.0,0.0
4.573,14653.856,0.00007,0.0,0.0
4.579,12851.814,0.00008,0.0,0.0
4.586,11259.683,0.00009,0.0,0.0
4.592,10628.418,0.00009,0.0,0.0
4.598,10379.341,0.0001,0.0,0.0
4.605,10136.478,0.0001,0.0,0.0
4.611,10281.492,0.0001,0.0,0.0
4.617,10085.676,0.0001,0.0,0.0
4.624,9744.78,0.0001,0.0,0.0
4.63,9922.255,0.0001,0.0,0.0
4.636,9764.267,0.0001,0.0,0.0
4.643,9699.202,0.0001,0.0,0.0
4.649,9901.368,0.0001,0.0,0.0
4.655,9415.034,0.00011,0.0,0.0
4.662,9611.792,0.0001,0.0,0.0
4.668,9443.765,0.00011,0.0,0.0
4.674,9314.905,0.00011,0.0,0.0
4.68,9513.925,0.00011,0.0,0.0
4.687,9253.524,0.00011,0.0,0.0
4.693,9191.088,0.00011,0.0,0.0
4.699,9335.55,0.00011,0.0,0.0
4.706,8951.645,0.00011,0.0,0.0
4.712,9194.898,0.00011,0.0,0.0
4.718,9019.049,0.00011,0.0,0.0
4.725,8946.618,0.00011,0.0,0.0
4.731,9079.37,0.00011,0.0,0.0
4.737,8792.357,0.00011,0.0,0.0
4.744,8829.02,0.00011,0.0,0.0
4.75,8855.839,0.00011,0.0,0.0
4.756,8647.904,0.00012,0.0,0.0
4.763,8839.154,0.00011,0.0,0.0
4.769,8679.692,0.00012,0.0,0.0
4.775,8548.986,0.00012,0.0,0.0
4.782,8754.953,0.00011,0.0,0.0
4.788,8441.59,0.00012,0.0,0.0
4.794,8591.438,0.00012,0.0,0.0
4.801,8505.657,0.00012,0.0,0.0
4.807,8415.681,0.00012,0.0,0.0
4.813,8535.599,0.00012,0.0,0.0
4.82,8413.72,0.00012,0.0,0.0
4.826,8328.79,0.00012,0.0,0.0
4.832,8417.557,0.00012,0.0,0.0
4.838,8259.564,0.00012,0.0,0.0
4.845,8332.085,0.00012,0.0,0.0
4.851,8317.578,0.00012,0.0,0.0
4.857,8150.97,0.00012,0.0,0.0
4.864,8348.828,0.00012,0.0,0.0
4.87,8076.362,0.00012,0.0,0.0
4.876,8174.019,0.00012,0.0,0.0
4.883,8162.333,0.00012,0.0,0.0
4.889,8114.702,0.00012,0.0,0.0
4.895,8083.594,0.00012,0.0,0.0
4.902,8071.105,0.00012,0.0,0.0
4.908,7972.123,0.00013,0.0,0.0
4.914,8054.676,0.00012,0.0,0.0
4.921,7946.426,0.00013,0.0,0.0
4.927,7979.391,0.00013,0.0,0.0
4.933,7963.254,0.00013,0.0,0.0
4.94,7846.238,0.00013,0.0,0.0
4.946,7929.954,0.00013,0.0,0.0
4.952,7822.964,0.00013,0.0,0.0
4.959,7878.58,0.00013,0.0,0.0
4.965,7813.625,0.00013,0.0,0.0
4.971,7774.871,0.00013,0.0,0.0
4.978,7799.164,0.00013,0.0,0.0
4.984,7737.918,0.00013,0.0,0.0
4.99,7698.507,0.00013,0.0,0.0
4.996,7788.69,0.00013,0.0,0.0
5.003,7667.382,0.00013,0.0,0.0
5.009,7648.503,0.00013,0.0,0.0
5.015,7711.128,0.00013,0.0,0.0
5.022,7620.076,0.00013,0.0,0.0
5.028,7658.498,0.00013,0.0,0.0
5.034,7595.466,0.00013,0.0,0.0
5.041,7589.916,0.00013,0.0,0.0
5.047,7610.414,0.00013,0.0,0.0
5.053,7556.035,0.00013,0.0,0.0
5.06,7549.624,0.00013,0.0,0.0
5.066,7526.432,0.00013,0.0,0.0
5.072,7463.815,0.00013,0.0,0.0
5.079,7516.63,0.00013,0.0,0.0
5.085,7471.034,0.00013,0.0,0.0
5.091,7487.586,0.00013,0.0,0.0
5.098,7426.207,0.00013,0.0,0.0
5.104,7422.264,0.00013,0.0,0.0
5.11,7384.25,0.00014,0.0,0.0
5.117,7403.593,0.00014,0.0,0.0
5.123,7357.547,0.00014,0.0,0.0
5.129,7374.676,0.00014,0.0,0.0
5.136,7304.294,0.00014,0.0,0.0
5.142,7271.862,0.00014,0.0,0.0
5.148,7314.518,0.00014,0.0,0.0
5.154,7222.597,0.00014,0.0,0.0
5.161,7265.52,0.00014,0.0,0.0
5.167,7201.473,0.00014,0.0,0.0
5.173,7204.614,0.00014,0.0,0.0
5.18,7205.517,0.00014,0.0,0.0
5.186,7134.916,0.00014,0.0,0.0
5.192,7164.802,0.00014,0.0,0.0
5.199,7113.27,0.00014,0.0,0.0
5.205,7064.297,0.00014,0.0,0.0
5.211,7114.573,0.00014,0.0,0.0
5.218,7056.315,0.00014,0.0,0.0
5.224,7054.656,0.00014,0.0,0.0
5.23,7059.77,0.00014,0.0,0.0
5.237,6973.315,0.00014,0.0,0.0
5.243,7035.228,0.00014,0.0,0.0
5.249,6952.033,0.00014,0.0,0.0
5.256,6961.341,0.00014,0.0,0.0
5.262,6993.553,0.00014,0.0,0.0
5.268,6913.992,0.00014,0.0,0.0
5.275,6900.585,0.00014,0.0,0.0
5.281,6905.068,0.00014,0.0,0.0
5.287,6898.277,0.00014,0.0,0.0
5.294,6898.831,0.00014,0.0,0.0
5.3,6867.574,0.00015,0.0,0.0
5.306,6855.876,0.00015,0.0,0.0
5.312,6849.621,0.00015,0.0,0.0
5.319,6800.212,0.00015,0.0,0.0
5.325,6834.087,0.00015,0.0,0.0
5.331,6784.704,0.00015,0.0,0.0
5.338,6760.974,0.00015,0.0,0.0
5.344,6822.804,0.00015,0.0,0.0
5.35,6788.715,0.00015,0.0,0.0
5.357,6783.784,0.00015,0.0,0.0
5.363,6787.783,0.00015,0.0,0.0
5.369,6715.529,0.00015,0.0,0.0
5.376,6795.418,0.00015,0.0,0.0
5.382,6733.093,0.00015,0.0,0.0
5.388,6722.893,0.00015,0.0,0.0
5.395,6767.972,0.00015,0.0,0.0
5.401,6705.036,0.00015,0.0,0.0
5.407,6723.439,0.00015,0.0,0.0
5.414,6719.043,0.00015,0.0,0.0
5.42,6663.791,0.00015,0.0,0.0
5.426,6706.583,0.00015,0.0,0.0
5.433,6684.039,0.00015,0.0,0.0
5.439,6658.539,0.00015,0.0,0.0
5.445,6667.635,0.00015,0.0,0.0
5.452,6639.635,0.00015,0.0,0.0
5.458,6716.576,0.00015,0.0,0.0
5.464,6624.05,0.00015,0.0,0.0
5.47,6643.414,0.00015,0.0,0.0
5.477,6668.934,0.00015,0.0,0.0
5.483,6622.957,0.00015,0.0,0.0
5.489,6636.114,0.00015,0.0,0.0
5.496,6647.922,0.00015,0.0,0.0
5.502,6614.731,0.00015,0.0,0.0
5.508,6645.459,0.00015,0.0,0.0
5.515,6619.834,0.00015,0.0,0.0
5.521,6575.452,0.00015,0.0,0.0
5.527,6642.926,0.00015,0.0,0.0
5.534,6558.76,0.00015,0.0,0.0
5.54,6597.076,0.00015,0.0,0.0
5.546,6595.834,0.00015,0.0,0.0
5.553,6561.947,0.00015,0.0,0.0
5.559,6633.686,0.00015,0.0,0.0
5.565,6541.005,0.00015,0.0,0.0
5.572,6543.345,0.00015,0.0,0.0
5.578,6602.602,0.00015,0.0,0.0
5.584,6538.683,0.00015,0.0,0.0
5.591,6609.984,0.00015,0.0,0.0
5.597,6563.93,0.00015,0.0,0.0
5.603,6512.397,0.00015,0.0,0.0
5.61,6624.586,0.00015,0.0,0.0
5.616,6540.474,0.00015,0.0,0.0
5.622,6573.592,0.00015,0.0,0.0
5.628,6561.069,0.00015,0.0,0.0
5.635,6532.738,0.00015,0.0,0.0
5.641,6595.446,0.00015,0.0,0.0
5.647,6541.407,0.00015,0.0,0.0
5.654,6496.67,0.00015,0.0,0.0
5.66,6602.66,0.00015,0.0,0.0
5.666,6528.048,0.00015,0.0,0.0
5.673,6525.737,0.00015,0.0,0.0
5.679,6559.278,0.00015,0.0,0.0
5.685,6505.888,0.00015,0.0,0.0
5.692,6588.068,0.00015,0.0,0.0
5.698,6537.808,0.00015,0.0,0.0
5.704,6507.827,0.00015,0.0,0.0
5.711,6596.734,0.00015,0.0,0.0
5.717,6567.406,0.00015,0.0,0.0
5.723,6577.525,0.00015,0.0,0.0
5.73,6558.892,0.00015,0.0,0.0
5.736,6554.117,0.00015,0.0,0.0
5.742,6633.251,0.00015,0.0,0.0
5.749,6566.73,0.00015,0.0,0.0
5.755,6558.489,0.00015,0.0,0.0
5.761,6630.275,0.00015,0.0,0.0
5.768,6578.877,0.00015,0.0,0.0
5.774,6619.498,0.00015,0.0,0.0
5.78,6636.365,0.00015,0.0,0.0
5.786,6617.294,0.00015,0.0,0.0
5.793,6706.411,0.00015,0.0,0.0
5.799,6662.412,0.00015,0.0,0.0
5.805,6632.473,0.00015,0.0,0.0
5.812,6739.71,0.00015,0.0,0.0
5.818,6645.635,0.00015,0.0,0.0
5.824,6746.148,0.00015,0.0,0.0
5.831,6702.715,0.00015,0.0,0.0
5.837,6690.548,0.00015,0.0,0.0
5.843,6780.73,0.00015,0.0,0.0
5.85,6756.48,0.00015,0.0,0.0
5.856,6801.435,0.00015,0.0,0.0
5.862,6853.932,0.00015,0.0,0.0
5.869,6863.84,0.00015,0.0,0.0
5.875,6949.598,0.00014,0.0,0.0
5.881,6889.941,0.00015,0.0,0.0
5.888,6823.895,0.00015,0.0,0.0
5.894,6864.173,0.00015,0.0,0.0
5.9,6713.023,0.00015,0.0,0.0
5.907,6703.418,0.00015,0.0,0.0
5.913,6656.758,0.00015,0.0,0.0
5.919,6575.814,0.00015,0.0,0.0
5.926,6616.807,0.00015,0.0,0.0
5.932,6544.816,0.00015,0.0,0.0
5.938,6498.389,0.00015,0.0,0.0
5.944,6579.01,0.00015,0.0,0.0
5.951,6483.987,0.00015,0.0,0.0
5.957,6508.642,0.00015,0.0,0.0
5.963,6493.118,0.00015,0.0,0.0
5.97,6435.811,0.00016,0.0,0.0
5.976,6494.011,0.00015,0.0,0.0
5.982,6436.737,0.00016,0.0,0.0
5.989,6409.919,0.00016,0.0,0.0
5.995,6474.894,0.00015,0.0,0.0
6.001,6378.174,0.00016,0.0,0.0
6.008,6414.501,0.00016,0.0,0.0
6.014,6405.933,0.00016,0.0,0.0
6.02,6361.916,0.00016,0.0,0.0
6.027,6431.322,0.00016,0.0,0.0
6.033,6341.74,0.00016,0.0,0.0
6.039,6351.416,0.00016,0.0,0.0
6.046,6420.376,0.00016,0.0,0.0
6.052,6320.036,0.00016,0.0,0.0
6.058,6369.169,0.00016,0.0,0.0
6.065,6338.089,0.00016,0.0,0.0
6.071,6306.52,0.00016,0.0,0.0
6.077,6378.951,0.00016,0.0,0.0
6.084,6308.263,0.00016,0.0,0.0
6.09,6317.746,0.00016,0.0,0.0
6.096,6350.487,0.00016,0.0,0.0
6.102,6289.984,0.00016,0.0,0.0
6.109,6374.619,0.00016,0.0,0.0
6.115,6306.612,0.00016,0.0,0.0
6.121,6282.767,0.00016,0.0,0.0
6.128,6390.012,0.00016,0.0,0.0
6.134,6264.555,0.00016,0.0,0.0
6.14,6319.297,0.00016,0.0,0.0
6.147,6324.078,0.00016,0.0,0.0
6.153,6298.07,0.00016,0.0,0.0
6.159,6348.669,0.00016,0.0,0.0
6.166,6306.853,0.00016,0.0,0.0
6.172,6283.06,0.00016,0.0,0.0
6.178,6383.079,0.00016,0.0,0.0
6.185,6297.561,0.00016,0.0,0.0
6.191,6351.343,0.00016,0.0,0.0
6.197,6335.481,0.00016,0.0,0.0
6.204,6310.931,0.00016,0.0,0.0
6.21,6390.27,0.00016,0.0,0.0
6.216,6337.863,0.00016,0.0,0.0
6.223,6296.679,0.00016,0.0,0.0
6.229,6402.462,0.00016,0.0,0.0
6.235,6305.089,0.00016,0.0,0.0
6.242,6386.026,0.00016,0.0,0.0
6.248,6329.996,0.00016,0.0,0.0
6.254,6314.339,0.00016,0.0,0.0
6.26,6401.606,0.00016,0.0,0.0
6.267,6316.205,0.00016,0.0,0.0
6.273,6322.324,0.00016,0.0,0.0
6.279,6382.619,0.00016,0.0,0.0
6.286,6341.344,0.00016,0.0,0.0
6.292,6350.686,0.00016,0.0,0.0
6.298,6320.655,0.00016,0.0,0.0
6.305,6363.621,0.00016,0.0,0.0
6.311,6389.152,0.00016,0.0,0.0
6.317,6354.791,0.00016,0.0,0.0
6.324,6367.563,0.00016,0.0,0.0
6.33,6413.247,0.00016,0.0,0.0
6.336,6408.6,0.00016,0.0,0.0
6.343,6426.017,0.00016,0.0,0.0
6.349,6409.058,0.00016,0.0,0.0
6.355,6429.162,0.00016,0.0,0.0
6.362,6481.486,0.00015,0.0,0.0
6.368,6468.782,0.00015,0.0,0.0
6.374,6484.319,0.00015,0.0,0.0
6.381,6523.975,0.00015,0.0,0.0
6.387,6531.781,0.00015,0.0,0.0
6.393,6546.177,0.00015,0.0,0.0
6.4,6557.39,0.00015,0.0,0.0
6.406,6599.468,0.00015,0.0,0.0
6.412,6644.695,0.00015,0.0,0.0
6.418,6643.386,0.00015,0.0,0.0
6.425,6685.866,0.00015,0.0,0.0
6.431,6713.666,0.00015,0.0,0.0
6.437,6786.936,0.00015,0.0,0.0
6.444,6868.026,0.00015,0.0,0.0
6.45,6899.435,0.00014,0.0,0.0
6.456,6929.532,0.00014,0.0,0.0
6.463,6991.403,0.00014,0.0,0.0
6.469,7001.611,0.00014,0.0,0.0
6.475,7005.206,0.00014,0.0,0.0
6.482,7044.497,0.00014,0.0,0.0
6.488,7092.586,0.00014,0.0,0.0
6.494,7171.495,0.00014,0.0,0.0
6.501,7225.996,0.00014,0.0,0.0
6.507,7263.255,0.00014,0.0,0.0
6.513,7399.771,0.00014,0.0,0.0
6.52,7456.799,0.00013,0.0,0.0
6.526,7598.901,0.00013,0.0,0.0
6.532,7716.534,0.00013,0.0,0.0
6.539,7907.78,0.00013,0.0,0.0
6.545,8186.699,0.00012,0.0,0.0
6.551,8607.712,0.00012,0.0,0.0
6.558,9257.76,0.00011,0.0,0.0
6.564,10321.923,0.0001,0.0,0.0
6.57,12308.397,0.00008,0.0,0.0
6.576,15648.905,0.00006,0.0,0.0
6.583,21254.709,0.00005,0.0,0.0
6.589,36041.904,0.00003,0.0,0.0
6.595,52377.233,0.00002,0.0,0.0
6.602,72635.312,0.00001,0.0,0.0
6.608,103723.075,0.00001,0.0,0.0
6.614,115091.255,0.00001,0.0,0.0
6.621,103681.901,0.00001,0.0,0.0
6.627,87070.504,0.00001,0.0,0.0
6.633,61184.472,0.00002,0.0,0.0
6.64,37711.446,0.00003,0.0,0.0
6.646,23522.988,0.00004,0.0,0.0
6.652,17028.93,0.00006,0.0,0.0
6.659,12237.205,0.00008,0.0,0.0
6.665,10398.535,0.0001,0.0,0.0
6.671,9050.823,0.00011,0.0,0.0
6.678,8315.497,0.00012,0.0,0.0
6.684,7883.099,0.00013,0.0,0.0
6.69,7516.995,0.00013,0.0,0.0
6.697,7365.106,0.00014,0.0,0.0
6.703,7244.194,0.00014,0.0,0.0
6.709,7065.326,0.00014,0.0,0.0
6.716,7011.449,0.00014,0.0,0.0
6.722,6948.977,0.00014,0.0,0.0
6.728,6884.655,0.00015,0.0,0.0
6.734,6894.424,0.00015,0.0,0.0
6.741,6811.627,0.00015,0.0,0.0
6.747,6812.72,0.00015,0.0,0.0
6.753,6849.609,0.00015,0.0,0.0
6.76,6782.923,0.00015,0.0,0.0
6.766,6778.818,0.00015,0.0,0.0
6.772,6750.628,0.00015,0.0,0.0
6.779,6788.531,0.00015,0.0,0.0
6.785,6831.463,0.00015,0.0,0.0
6.791,6703.345,0.00015,0.0,0.0
6.798,6710.218,0.00015,0.0,0.0
6.804,6808.674,0.00015,0.0,0.0
6.81,6733.509,0.00015,0.0,0.0
6.817,6799.926,0.00015,0.0,0.0
6.823,6710.383,0.00015,0.0,0.0
6.829,6783.251,0.00015,0.0,0.0
6.836,6822.794,0.00015,0.0,0.0
6.842,6744.013,0.00015,0.0,0.0
6.848,6745.479,0.00015,0.0,0.0
6.855,6815.352,0.00015,0.0,0.0
6.861,6772.906,0.00015,0.0,0.0
6.867,6815.426,0.00015,0.0,0.0
6.874,6782.294,0.00015,0.0,0.0
6.88,6797.884,0.00015,0.0,0.0
6.886,6874.003,0.00015,0.0,0.0
6.892,6761.442,0.00015,0.0,0.0
6.899,6825.489,0.00015,0.0,0.0
6.905,6876.921,0.00015,0.0,0.0
6.911,6827.972,0.00015,0.0,0.0
6.918,6890.882,0.00015,0.0,0.0
6.924,6802.441,0.00015,0.0,0.0
6.93,6871.594,0.00015,0.0,0.0
6.937,6988.945,0.00014,0.0,0.0
6.943,6875.04,0.00015,0.0,0.0
6.949,6939.652,0.00014,0.0,0.0
6.956,6925.296,0.00014,0.0,0.0
6.962,6933.937,0.00014,0.0,0.0
6.968,7014.047,0.00014,0.0,0.0
6.975,6952.298,0.00014,0.0,0.0
6.981,6956.958,0.00014,0.0,0.0
6.987,7082.417,0.00014,0.0,0.0
6.994,7000.923,0.00014,0.0,0.0
7.0,7101.292,0.00014,0.0,0.0
7.006,7042.361,0.00014,0.0,0.0
7.013,7028.96,0.00014,0.0,0.0
7.019,7192.148,0.00014,0.0,0.0
7.025,7064.654,0.00014,0.0,0.0
7.032,7117.889,0.00014,0.0,0.0
7.038,7201.669,0.00014,0.0,0.0
7.044,7123.79,0.00014,0.0,0.0
7.05,7241.066,0.00014,0.0,0.0
7.057,7165.757,0.00014,0.0,0.0
7.063,7175.682,0.00014,0.0,0.0
7.069,7316.715,0.00014,0.0,0.0
7.076,7199.018,0.00014,0.0,0.0
7.082,7257.526,0.00014,0.0,0.0
7.088,7321.839,0.00014,0.0,0.0
7.095,7248.348,0.00014,0.0,0.0
7.101,7427.385,0.00013,0.0,0.0
7.107,7292.851,0.00014,0.0,0.0
7.114,7275.338,0.00014,0.0,0.0
7.12,7513.113,0.00013,0.0,0.0
7.126,7333.691,0.00014,0.0,0.0
7.133,7408.289,0.00013,0.0,0.0
7.139,7386.444,0.00014,0.0,0.0
7.145,7366.783,0.00014,0.0,0.0
7.152,7478.717,0.00013,0.0,0.0
7.158,7428.778,0.00013,0.0,0.0
7.164,7342.651,0.00014,0.0,0.0
7.171,7590.069,0.00013,0.0,0.0
7.177,7369.262,0.00014,0.0,0.0
7.183,7558.894,0.00013,0.0,0.0
7.19,7457.675,0.00013,0.0,0.0
7.196,7391.97,0.00014,0.0,0.0
7.202,7664.969,0.00013,0.0,0.0
7.208,7408.932,0.00013,0.0,0.0
7.215,7513.193,0.00013,0.0,0.0
7.221,7618.143,0.00013,0.0,0.0
7.227,7501.212,0.00013,0.0,0.0
7.234,7584.312,0.00013,0.0,0.0
7.24,7593.658,0.00013,0.0,0.0
7.246,7440.922,0.00013,0.0,0.0
7.253,7746.522,0.00013,0.0,0.0
7.259,7536.579,0.00013,0.0,0.0
7.265,7635.306,0.00013,0.0,0.0
7.272,7636.878,0.00013,0.0,0.0
7.278,7557.243,0.00013,0.0,0.0
7.284,7736.454,0.00013,0.0,0.0
7.291,7615.009,0.00013,0.0,0.0
7.297,7545.091,0.00013,0.0,0.0
7.303,7859.913,0.00013,0.0,0.0
7.31,7628.895,0.00013,0.0,0.0
7.316,7790.633,0.00013,0.0,0.0
7.322,7742.352,0.00013,0.0,0.0
7.329,7638.657,0.00013,0.0,0.0
7.335,7897.534,0.00013,0.0,0.0
7.341,7739.885,0.00013,0.0,0.0
7.348,7827.866,0.00013,0.0,0.0
7.354,7842.856,0.00013,0.0,0.0
7.36,7744.937,0.00013,0.0,0.0
7.366,7995.57,0.00013,0.0,0.0
7.373,7885.772,0.00013,0.0,0.0
7.379,7830.039,0.00013,0.0,0.0
7.385,8163.283,0.00012,0.0,0.0
7.392,7841.816,0.00013,0.0,0.0
7.398,8053.306,0.00012,0.0,0.0
7.404,8167.21,0.00012,0.0,0.0
7.411,8046.491,0.00012,0.0,0.0
7.417,8203.735,0.00012,0.0,0.0
7.423,8132.064,0.00012,0.0,0.0
7.43,8118.431,0.00012,0.0,0.0
7.436,8397.085,0.00012,0.0,0.0
7.442,8257.199,0.00012,0.0,0.0
7.449,8382.28,0.00012,0.0,0.0
7.455,8451.422,0.00012,0.0,0.0
7.461,8258.855,0.00012,0.0,0.0
7.468,8615.616,0.00012,0.0,0.0
7.474,8466.069,0.00012,0.0,0.0
7.48,8522.247,0.00012,0.0,0.0
7.487,8866.284,0.00011,0.0,0.0
7.493,8458.906,0.00012,0.0,0.0
7.499,9046.826,0.00011,0.0,0.0
7.506,8752.109,0.00011,0.0,0.0
7.512,8705.258,0.00011,0.0,0.0
7.518,9162.36,0.00011,0.0,0.0
7.524,8891.709,0.00011,0.0,0.0
7.531,9275.979,0.00011,0.0,0.0
7.537,9266.787,0.00011,0.0,0.0
7.543,9174.655,0.00011,0.0,0.0
7.55,9633.597,0.0001,0.0,0.0
7.556,9537.951,0.0001,0.0,0.0
7.562,9581.236,0.0001,0.0,0.0
7.569,10336.541,0.0001,0.0,0.0
7.575,10025.041,0.0001,0.0,0.0
7.581,10753.673,0.00009,0.0,0.0
7.588,11298.125,0.00009,0.0,0.0
7.594,12362.151,0.00008,0.0,0.0
7.6,13899.643,0.00007,0.0,0.0
7.607,17167.632,0.00006,0.0,0.0
7.613,22367.806,0.00004,0.0,0.0
7.619,30565.871,0.00003,0.0,0.0
7.626,41913.3,0.00002,0.0,0.0
7.632,50128.376,0.00002,0.0,0.0
7.638,57414.6,0.00002,0.0,0.0
7.645,53925.082,0.00002,0.0,0.0
7.651,47496.334,0.00002,0.0,0.0
7.657,34689.681,0.00003,0.0,0.0
7.664,27852.2,0.00004,0.0,0.0
7.67,19882.068,0.00005,0.0,0.0
7.676,16385.249,0.00006,0.0,0.0
7.682,15373.036,0.00007,0.0,0.0
7.689,13268.188,0.00008,0.0,0.0
7.695,12805.885,0.00008,0.0,0.0
7.701,13229.484,0.00008,0.0,0.0
7.708,12620.523,0.00008,0.0,0.0
7.714,13454.327,0.00007,0.0,0.0
7.72,12873.636,0.00008,0.0,0.0
7.727,12937.0,0.00008,0.0,0.0
7.733,13946.959,0.00007,0.0,0.0
7.739,13370.658,0.00007,0.0,0.0
7.746,14213.339,0.00007,0.0,0.0
7.752,15021.741,0.00007,0.0,0.0
7.758,13732.064,0.00007,0.0,0.0
7.765,14460.656,0.00007,0.0,0.0
7.771,14978.691,0.00007,0.0,0.0
7.777,16037.972,0.00006,0.0,0.0
7.784,15450.466,0.00006,0.0,0.0
7.79,15989.612,0.00006,0.0,0.0
7.796,17392.945,0.00006,0.0,0.0
7.803,16801.568,0.00006,0.0,0.0
7.809,19263.834,0.00005,0.0,0.0
7.815,18931.15,0.00005,0.0,0.0
7.822,18551.085,0.00005,0.0,0.0
7.828,20447.157,0.00005,0.0,0.0
7.834,18770.85,0.00005,0.0,0.0
7.84,21226.414,0.00005,0.0,0.0
7.847,20145.271,0.00005,0.0,0.0
7.853,22639.247,0.00004,0.0,0.0
7.859,22870.751,0.00004,0.0,0.0
7.866,24199.568,0.00004,0.0,0.0
7.872,25382.713,0.00004,0.0,0.0
7.878,23730.184,0.00004,0.0,0.0
7.885,27277.909,0.00004,0.0,0.0
7.891,27714.696,0.00004,0.0,0.0
7.897,26298.182,0.00004,0.0,0.0
7.904,29987.338,0.00003,0.0,0.0
7.91,24029.938,0.00004,0.0,0.0
7.916,26173.6,0.00004,0.0,0.0
7.923,26153.252,0.00004,0.0,0.0
7.929,22208.737,0.00005,0.0,0.0
7.935,25453.374,0.00004,0.0,0.0
7.942,19693.71,0.00005,0.0,0.0
7.948,23064.335,0.00004,0.0,0.0
7.954,22543.095,0.00004,0.0,0.0
7.961,19336.142,0.00005,0.0,0.0
7.967,21796.982,0.00005,0.0,0.0
7.973,19610.768,0.00005,0.0,0.0
7.98,20952.489,0.00005,0.0,0.0
7.986,20437.372,0.00005,0.0,0.0
7.992,18504.182,0.00005,0.0,0.0
7.998,19653.31,0.00005,0.0,0.0
8.005,17485.63,0.00006,0.0,0.0
8.011,20112.349,0.00005,0.0,0.0
8.017,17385.172,0.00006,0.0,0.0
8.024,15572.839,0.00006,0.0,0.0
8.03,16571.456,0.00006,0.0,0.0
8.036,15303.332,0.00007,0.0,0.0
8.043,15451.63,0.00006,0.0,0.0
8.049,14812.32,0.00007,0.0,0.0
8.055,14437.197,0.00007,0.0,0.0
8.062,13745.509,0.00007,0.0,0.0
8.068,13960.859,0.00007,0.0,0.0
8.074,13973.268,0.00007,0.0,0.0
8.081,13483.361,0.00007,0.0,0.0
8.087,13421.065,0.00007,0.0,0.0
8.093,13173.491,0.00008,0.0,0.0
8.1,12882.116,0.00008,0.0,0.0
8.106,12178.376,0.00008,0.0,0.0
8.112,12459.741,0.00008,0.0,0.0
8.119,11954.348,0.00008,0.0,0.0
8.125,11845.256,0.00008,0.0,0.0
8.131,11910.179,0.00008,0.0,0.0
8.138,11480.84,0.00009,0.0,0.0
8.144,11297.661,0.00009,0.0,0.0
8.15,11156.06,0.00009,0.0,0.0
8.156,11105.724,0.00009,0.0,0.0
8.163,10811.086,0.00009,0.0,0.0
8.169,10834.767,0.00009,0.0,0.0
8.175,10064.652,0.0001,0.0,0.0
8.182,11041.048,0.00009,0.0,0.0
8.188,10068.816,0.0001,0.0,0.0
8.194,10361.082,0.0001,0.0,0.0
8.201,10041.02,0.0001,0.0,0.0
8.207,9920.938,0.0001,0.0,0.0
8.213,10070.46,0.0001,0.0,0.0
8.22,9752.642,0.0001,0.0,0.0
8.226,9585.881,0.0001,0.0,0.0
8.232,9767.582,0.0001,0.0,0.0
8.239,9671.591,0.0001,0.0,0.0
8.245,9470.4,0.00011,0.0,0.0
8.251,9478.831,0.00011,0.0,0.0
8.258,9018.448,0.00011,0.0,0.0
8.264,9572.196,0.0001,0.0,0.0
8.27,9145.752,0.00011,0.0,0.0
8.277,9067.197,0.00011,0.0,0.0
8.283,9115.828,0.00011,0.0,0.0
8.289,8821.507,0.00011,0.0,0.0
8.296,9065.338,0.00011,0.0,0.0
8.302,8728.382,0.00011,0.0,0.0
8.308,8686.991,0.00012,0.0,0.0
8.314,8858.971,0.00011,0.0,0.0
8.321,8592.261,0.00012,0.0,0.0
8.327,8658.349,0.00012,0.0,0.0
8.333,8675.734,0.00012,0.0,0.0
8.34,8242.632,0.00012,0.0,0.0
8.346,8642.549,0.00012,0.0,0.0
8.352,8385.484,0.00012,0.0,0.0
8.359,8347.675,0.00012,0.0,0.0
8.365,8394.463,0.00012,0.0,0.0
8.371,8150.499,0.00012,0.0,0.0
8.378,8328.687,0.00012,0.0,0.0
8.384,8154.678,0.00012,0.0,0.0
8.39,8097.423,0.00012,0.0,0.0
8.397,8239.489,0.00012,0.0,0.0
8.403,8014.042,0.00012,0.0,0.0
8.409,8091.056,0.00012,0.0,0.0
8.416,8013.183,0.00012,0.0,0.0
8.422,7858.936,0.00013,0.0,0.0
8.428,8004.993,0.00012,0.0,0.0
8.435,7830.464,0.00013,0.0,0.0
8.441,7887.363,0.00013,0.0,0.0
8.447,7867.643,0.00013,0.0,0.0
8.454,7734.486,0.00013,0.0,0.0
8.46,7796.587,0.00013,0.0,0.0
8.466,7694.794,0.00013,0.0,0.0
8.472,7650.054,0.00013,0.0,0.0
8.479,7756.505,0.00013,0.0,0.0
8.485,7641.426,0.00013,0.0,0.0
8.491,7638.253,0.00013,0.0,0.0
8.498,7582.704,0.00013,0.0,0.0
8.504,7474.782,0.00013,0.0,0.0
8.51,7583.774,0.00013,0.0,0.0
8.517,7478.272,0.00013,0.0,0.0
8.523,7470.168,0.00013,0.0,0.0
8.529,7503.795,0.00013,0.0,0.0
8.536,7430.987,0.00013,0.0,0.0
8.542,7462.35,0.00013,0.0,0.0
8.548,7346.647,0.00014,0.0,0.0
8.555,7319.551,0.00014,0.0,0.0
8.561,7444.939,0.00013,0.0,0.0
8.567,7299.545,0.00014,0.0,0.0
8.574,7323.622,0.00014,0.0,0.0
8.58,7288.857,0.00014,0.0,0.0
8.586,7215.078,0.00014,0.0,0.0
8.593,7262.186,0.00014,0.0,0.0
8.599,7234.813,0.00014,0.0,0.0
8.605,7136.642,0.00014,0.0,0.0
8.612,7235.531,0.00014,0.0,0.0
8.618,7173.648,0.00014,0.0,0.0
8.624,7182.428,0.00014,0.0,0.0
8.63,7122.959,0.00014,0.0,0.0
8.637,7072.612,0.00014,0.0,0.0
8.643,7138.272,0.00014,0.0,0.0
8.649,7089.706,0.00014,0.0,0.0
8.656,7097.397,0.00014,0.0,0.0
8.662,7059.238,0.00014,0.0,0.0
8.668,7018.102,0.00014,0.0,0.0
8.675,7010.544,0.00014,0.0,0.0
8.681,6987.917,0.00014,0.0,0.0
8.687,6961.744,0.00014,0.0,0.0
8.694,7065.102,0.00014,0.0,0.0
8.7,6943.89,0.00014,0.0,0.0
8.706,6960.219,0.00014,0.0,0.0
8.713,6948.41,0.00014,0.0,0.0
8.719,6903.076,0.00014,0.0,0.0
8.725,6920.353,0.00014,0.0,0.0
8.732,6911.754,0.00014,0.0,0.0
8.738,6881.427,0.00015,0.0,0.0
8.744,6883.52,0.00015,0.0,0.0
8.751,6900.884,0.00014,0.0,0.0
8.757,6856.645,0.00015,0.0,0.0
8.763,6837.619,0.00015,0.0,0.0
8.77,6784.232,0.00015,0.0,0.0
8.776,6900.617,0.00014,0.0,0.0
8.782,6822.683,0.00015,0.0,0.0
8.788,6770.053,0.00015,0.0,0.0
8.795,6788.413,0.00015,0.0,0.0
8.801,6777.696,0.00015,0.0,0.0
8.807,6817.544,0.00015,0.0,0.0
8.814,6761.172,0.00015,0.0,0.0
8.82,6728.51,0.00015,0.0,0.0
8.826,6726.087,0.00015,0.0,0.0
8.833,6766.15,0.00015,0.0,0.0
8.839,6729.907,0.00015,0.0,0.0
8.845,6720.936,0.00015,0.0,0.0
8.852,6663.24,0.00015,0.0,0.0
8.858,6703.511,0.00015,0.0,0.0
8.864,6714.696,0.00015,0.0,0.0
8.871,6697.383,0.00015,0.0,0.0
8.877,6647.386,0.00015,0.0,0.0
8.883,6678.267,0.00015,0.0,0.0
8.89,6686.059,0.00015,0.0,0.0
8.896,6672.6,0.00015,0.0,0.0
8.902,6662.087,0.00015,0.0,0.0
8.909,6643.187,0.00015,0.0,0.0
8.915,6671.419,0.00015,0.0,0.0
8.921,6653.78,0.00015,0.0,0.0
8.928,6663.557,0.00015,0.0,0.0
8.934,6614.194,0.00015,0.0,0.0
8.94,6680.104,0.00015,0.0,0.0
8.946,6652.998,0.00015,0.0,0.0
8.953,6637.801,0.00015,0.0,0.0
8.959,6644.562,0.00015,0.0,0.0
8.965,6630.462,0.00015,0.0,0.0
8.972,6647.76,0.00015,0.0,0.0
8.978,6672.272,0.00015,0.0,0.0
8.984,6649.301,0.00015,0.0,0.0
8.991,6675.999,0.00015,0.0,0.0
8.997,6661.436,0.00015,0.0,0.0
9.003,6695.904,0.00015,0.0,0.0
9.01,6671.896,0.00015,0.0,0.0
9.016,6726.521,0.00015,0.0,0.0
9.022,6698.023,0.00015,0.0,0.0
9.029,6736.171,0.00015,0.0,0.0
9.035,6718.126,0.00015,0.0,0.0
9.041,6714.73,0.00015,0.0,0.0
9.048,6784.4,0.00015,0.0,0.0
9.054,6756.243,0.00015,0.0,0.0
9.06,6785.757,0.00015,0.0,0.0
9.067,6768.811,0.00015,0.0,0.0
9.073,6836.026,0.00015,0.0,0.0
9.079,6854.384,0.00015,0.0,0.0
9.086,6866.286,0.00015,0.0,0.0
9.092,6908.806,0.00014,0.0,0.0
9.098,7082.853,0.00014,0.0,0.0
9.104,7302.856,0.00014,0.0,0.0
9.111,8058.711,0.00012,0.0,0.0
9.117,8768.298,0.00011,0.0,0.0
9.123,8551.928,0.00012,0.0,0.0
9.13,8708.085,0.00011,0.0,0.0
9.136,7596.029,0.00013,0.0,0.0
9.142,7241.992,0.00014,0.0,0.0
9.149,7238.435,0.00014,0.0,0.0
9.155,7058.477,0.00014,0.0,0.0
9.161,6957.985,0.00014,0.0,0.0
9.168,6857.263,0.00015,0.0,0.0
9.174,6811.883,0.00015,0.0,0.0
9.18,6795.704,0.00015,0.0,0.0
9.187,6803.437,0.00015,0.0,0.0
9.193,6801.154,0.00015,0.0,0.0
9.199,6747.93,0.00015,0.0,0.0
9.206,6717.277,0.00015,0.0,0.0
9.212,6762.355,0.00015,0.0,0.0
9.218,6708.882,0.00015,0.0,0.0
9.225,6713.913,0.00015,0.0,0.0
9.231,6587.75,0.00015,0.0,0.0
9.237,6656.416,0.00015,0.0,0.0
9.244,6658.27,0.00015,0.0,0.0
9.25,6593.753,0.00015,0.0,0.0
9.256,6581.091,0.00015,0.0,0.0
9.262,6551.944,0.00015,0.0,0.0
9.269,6516.765,0.00015,0.0,0.0
9.275,6566.029,0.00015,0.0,0.0
9.281,6488.105,0.00015,0.0,0.0
9.288,6473.196,0.00015,0.0,0.0
9.294,6511.123,0.00015,0.0,0.0
9.3,6430.072,0.00016,0.0,0.0
9.307,6482.691,0.00015,0.0,0.0
9.313,6374.273,0.00016,0.0,0.0
9.319,6383.837,0.00016,0.0,0.0
9.326,6392.134,0.00016,0.0,0.0
9.332,6331.904,0.00016,0.0,0.0
9.338,6324.434,0.00016,0.0,0.0
9.345,6286.148,0.00016,0.0,0.0
9.351,6282.913,0.00016,0.0,0.0
9.357,6270.288,0.00016,0.0,0.0
9.364,6232.116,0.00016,0.0,0.0
9.37,6196.104,0.00016,0.0,0.0
9.376,6260.472,0.00016,0.0,0.0
9.383,6155.989,0.00016,0.0,0.0
9.389,6196.972,0.00016,0.0,0.0
9.395,6122.11,0.00016,0.0,0.0
9.402,6118.886,0.00016,0.0,0.0
9.408,6135.808,0.00016,0.0,0.0
9.414,6060.705,0.00016,0.0,0.0
9.42,6071.152,0.00016,0.0,0.0
9.427,6065.148,0.00016,0.0,0.0
9.433,6039.335,0.00017,0.0,0.0
9.439,6067.088,0.00016,0.0,0.0
9.446,6010.117,0.00017,0.0,0.0
9.452,5979.645,0.00017,0.0,0.0
9.458,6033.448,0.00017,0.0,0.0
9.465,5975.794,0.00017,0.0,0.0
9.471,5999.487,0.00017,0.0,0.0
9.477,5929.107,0.00017,0.0,0.0
9.484,5947.989,0.00017,0.0,0.0
9.49,5961.121,0.00017,0.0,0.0
9.496,5894.766,0.00017,0.0,0.0
9.503,5896.017,0.00017,0.0,0.0
9.509,5889.177,0.00017,0.0,0.0
9.515,5872.628,0.00017,0.0,0.0
9.522,5876.469,0.00017,0.0,0.0
9.528,5840.628,0.00017,0.0,0.0
9.534,5819.354,0.00017,0.0,0.0
9.541,5852.472,0.00017,0.0,0.0
9.547,5807.183,0.00017,0.0,0.0
9.553,5835.579,0.00017,0.0,0.0
9.56,5774.696,0.00017,0.0,0.0
9.566,5799.704,0.00017,0.0,0.0
9.572,5813.794,0.00017,0.0,0.0
9.578,5769.567,0.00017,0.0,0.0
9.585,5781.31,0.00017,0.0,0.0
9.591,5722.894,0.00017,0.0,0.0
9.597,5761.394,0.00017,0.0,0.0
9.604,5781.253,0.00017,0.0,0.0
9.61,5715.294,0.00017,0.0,0.0
9.616,5727.858,0.00017,0.0,0.0
9.623,5707.308,0.00018,0.0,0.0
9.629,5703.3,0.00018,0.0,0.0
9.635,5724.824,0.00017,0.0,0.0
9.642,5672.928,0.00018,0.0,0.0
9.648,5693.398,0.00018,0.0,0.0
9.654,5704.184,0.00018,0.0,0.0
9.661,5659.754,0.00018,0.0,0.0
9.667,5682.89,0.00018,0.0,0.0
9.673,5643.185,0.00018,0.0,0.0
9.68,5680.3,0.00018,0.0,0.0
9.686,5692.246,0.00018,0.0,0.0
9.692,5635.076,0.00018,0.0,0.0
9.699,5636.106,0.00018,0.0,0.0
9.705,5632.591,0.00018,0.0,0.0
9.711,5636.618,0.00018,0.0,0.0
9.718,5659.458,0.00018,0.0,0.0
9.724,5605.849,0.00018,0.0,0.0
9.73,5613.011,0.00018,0.0,0.0
9.736,5657.025,0.00018,0.0,0.0
9.743,5597.358,0.00018,0.0,0.0
9.749,5655.991,0.00018,0.0,0.0
9.755,5582.091,0.00018,0.0,0.0
9.762,5620.278,0.00018,0.0,0.0
9.768,5640.633,0.00018,0.0,0.0
9.774,5588.612,0.00018,0.0,0.0
9.781,5634.835,0.00018,0.0,0.0
9.787,5602.842,0.00018,0.0,0.0
9.793,5602.385,0.00018,0.0,0.0
9.8,5628.214,0.00018,0.0,0.0
9.806,5613.953,0.00018,0.0,0.0
9.812,5606.275,0.00018,0.0,0.0
9.819,5653.801,0.00018,0.0,0.0
9.825,5599.241,0.00018,0.0,0.0
9.831,5659.28,0.00018,0.0,0.0
9.838,5572.062,0.00018,0.0,0.0
9.844,5607.281,0.00018,0.0,0.0
9.85,5639.389,0.00018,0.0,0.0
9.857,5583.875,0.00018,0.0,0.0
9.863,5632.058,0.00018,0.0,0.0
9.869,5579.95,0.00018,0.0,0.0
9.876,5600.561,0.00018,0.0,0.0
9.882,5600.655,0.00018,0.0,0.0
9.888,5569.173,0.00018,0.0,0.0
9.894,5584.394,0.00018,0.0,0.0
9.901,5573.088,0.00018,0.0,0.0
9.907,5552.954,0.00018,0.0,0.0
9.913,5595.817,0.00018,0.0,0.0
9.92,5541.24,0.00018,0.0,0.0
9.926,5556.203,0.00018,0.0,0.0
9.932,5564.095,0.00018,0.0,0.0
9.939,5534.985,0.00018,0.0,0.0
9.945,5568.641,0.00018,0.0,0.0
9.951,5525.254,0.00018,0.0,0.0
9.958,5533.58,0.00018,0.0,0.0
9.964,5558.07,0.00018,0.0,0.0
9.97,5527.534,0.00018,0.0,0.0
9.977,5557.895,0.00018,0.0,0.0
9.983,5497.353,0.00018,0.0,0.0
9.989,5550.545,0.00018,0.0,0.0
9.996,5543.133,0.00018,0.0,0.0
10.002,5507.029,0.00018,0.0,0.0
10.008,5530.427,0.00018,0.0,0.0
10.015,5532.367,0.00018,0.0,0.0
10.021,5502.558,0.00018,0.0,0.0
10.027,5527.231,0.00018,0.0,0.0
10.034,5475.975,0.00018,0.0,0.0
10.04,5506.222,0.00018,0.0,0.0
10.046,5540.344,0.00018,0.0,0.0
10.052,5471.435,0.00018,0.0,0.0
10.059,5542.801,0.00018,0.0,0.0
10.065,5475.442,0.00018,0.0,0.0
10.071,5464.451,0.00018,0.0,0.0
10.078,5513.915,0.00018,0.0,0.0
10.084,5477.919,0.00018,0.0,0.0
10.09,5510.373,0.00018,0.0,0.0
10.097,5483.341,0.00018,0.0,0.0
10.103,5469.222,0.00018,0.0,0.0
10.109,5514.022,0.00018,0.0,0.0
10.116,5467.926,0.00018,0.0,0.0
10.122,5482.11,0.00018,0.0,0.0
10.128,5484.128,0.00018,0.0,0.0
10.135,5462.369,0.00018,0.0,0.0
10.141,5491.559,0.00018,0.0,0.0
10.147,5456.557,0.00018,0.0,0.0
10.154,5467.021,0.00018,0.0,0.0
10.16,5480.264,0.00018,0.0,0.0
10.166,5442.293,0.00018,0.0,0.0
10.173,5493.2,0.00018,0.0,0.0
10.179,5492.474,0.00018,0.0,0.0
10.185,5514.155,0.00018,0.0,0.0
10.192,5585.935,0.00018,0.0,0.0
10.198,5520.363,0.00018,0.0,0.0
10.204,5585.525,0.00018,0.0,0.0
10.21,5538.575,0.00018,0.0,0.0
10.217,5506.186,0.00018,0.0,0.0
10.223,5551.195,0.00018,0.0,0.0
10.229,5494.777,0.00018,0.0,0.0
10.236,5497.971,0.00018,0.0,0.0
10.242,5498.214,0.00018,0.0,0.0
10.248,5462.462,0.00018,0.0,0.0
10.255,5468.888,0.00018,0.0,0.0
10.261,5405.687,0.00018,0.0,0.0
10.267,5420.073,0.00018,0.0,0.0
10.274,5487.916,0.00018,0.0,0.0
10.28,5439.588,0.00018,0.0,0.0
10.286,5457.789,0.00018,0.0,0.0
10.293,5439.271,0.00018,0.0,0.0
10.299,5392.051,0.00019,0.0,0.0
10.305,5437.579,0.00018,0.0,0.0
10.312,5428.041,0.00018,0.0,0.0
10.318,5432.788,0.00018,0.0,0.0
10.324,5476.722,0.00018,0.0,0.0
10.331,5410.775,0.00018,0.0,0.0
10.337,5482.16,0.00018,0.0,0.0
10.343,5413.194,0.00018,0.0,0.0
10.35,5421.302,0.00018,0.0,0.0
10.356,5417.656,0.00018,0.0,0.0
10.362,5412.206,0.00018,0.0,0.0
10.368,5447.982,0.00018,0.0,0.0
10.375,5405.431,0.00018,0.0,0.0
10.381,5402.21,0.00019,0.0,0.0
10.387,5439.871,0.00018,0.0,0.0
10.394,5360.168,0.00019,0.0,0.0
10.4,5376.518,0.00019,0.0,0.0
10.406,5433.97,0.00018,0.0,0.0
10.413,5364.062,0.00019,0.0,0.0
10.419,5457.056,0.00018,0.0,0.0
10.425,5375.678,0.00019,0.0,0.0
10.432,5388.37,0.00019,0.0,0.0
10.438,5391.118,0.00019,0.0,0.0
10.444,5337.493,0.00019,0.0,0.0
10.451,5379.062,0.00019,0.0,0.0
10.457,5380.864,0.00019,0.0,0.0
10.463,5356.067,0.00019,0.0,0.0
10.47,5405.932,0.00018,0.0,0.0
10.476,5352.069,0.00019,0.0,0.0
10.482,5384.639,0.00019,0.0,0.0
10.489,5356.97,0.00019,0.0,0.0
10.495,5320.863,0.00019,0.0,0.0
10.501,5404.791,0.00019,0.0,0.0
10.508,5337.271,0.00019,0.0,0.0
10.514,5355.91,0.00019,0.0,0.0
10.52,5363.841,0.00019,0.0,0.0
10.526,5310.817,0.00019,0.0,0.0
10.533,5377.602,0.00019,0.0,0.0
10.539,5305.374,0.00019,0.0,0.0
10.545,5346.826,0.00019,0.0,0.0
10.552,5368.145,0.00019,0.0,0.0
10.558,5323.985,0.00019,0.0,0.0
10.564,5378.379,0.00019,0.0,0.0
10.571,5343.319,0.00019,0.0,0.0
10.577,5313.051,0.00019,0.0,0.0
10.583,5364.374,0.00019,0.0,0.0
10.59,5304.633,0.00019,0.0,0.0
10.596,5371.802,0.00019,0.0,0.0
10.602,5351.486,0.00019,0.0,0.0
10.609,5310.195,0.00019,0.0,0.0
10.615,5403.449,0.00019,0.0,0.0
10.621,5328.674,0.00019,0.0,0.0
10.628,5373.658,0.00019,0.0,0.0
10.634,5353.332,0.00019,0.0,0.0
10.64,5320.188,0.00019,0.0,0.0
10.647,5399.349,0.00019,0.0,0.0
10.653,5337.321,0.00019,0.0,0.0
10.659,5342.898,0.00019,0.0,0.0
10.666,5392.393,0.00019,0.0,0.0
10.672,5345.713,0.00019,0.0,0.0
10.678,5396.978,0.00019,0.0,0.0
10.684,5377.607,0.00019,0.0,0.0
10.691,5381.376,0.00019,0.0,0.0
10.697,5439.768,0.00018,0.0,0.0
10.703,5397.291,0.00019,0.0,0.0
10.71,5444.912,0.00018,0.0,0.0
10.716,5457.077,0.00018,0.0,0.0
10.722,5467.734,0.00018,0.0,0.0
10.729,5564.005,0.00018,0.0,0.0
10.735,5538.152,0.00018,0.0,0.0
10.741,5638.886,0.00018,0.0,0.0
10.748,5743.391,0.00017,0.0,0.0
10.754,5852.201,0.00017,0.0,0.0
10.76,6127.541,0.00016,0.0,0.0
10.767,6489.352,0.00015,0.0,0.0
10.773,7227.126,0.00014,0.0,0.0
10.779,8711.114,0.00011,0.0,0.0
10.786,10714.234,0.00009,0.0,0.0
10.792,14681.738,0.00007,0.0,0.0
10.798,19777.28,0.00005,0.0,0.0
10.805,24738.665,0.00004,0.0,0.0
10.811,30391.597,0.00003,0.0,0.0
10.817,29197.558,0.00003,0.0,0.0
10.824,26712.499,0.00004,0.0,0.0
10.83,22303.275,0.00004,0.0,0.0
10.836,14650.745,0.00007,0.0,0.0
10.842,13349.985,0.00007,0.0,0.0
10.849,8956.339,0.00011,0.0,0.0
10.855,7536.096,0.00013,0.0,0.0
10.861,6909.898,0.00014,0.0,0.0
10.868,6222.658,0.00016,0.0,0.0
10.874,6033.523,0.00017,0.0,0.0
10.88,5811.615,0.00017,0.0,0.0
10.887,5696.077,0.00018,0.0,0.0
10.893,5677.913,0.00018,0.0,0.0
10.899,5554.867,0.00018,0.0,0.0
10.906,5580.052,0.00018,0.0,0.0
10.912,5525.349,0.00018,0.0,0.0
10.918,5472.222,0.00018,0.0,0.0
10.925,5511.667,0.00018,0.0,0.0
10.931,5450.549,0.00018,0.0,0.0
10.937,5480.186,0.00018,0.0,0.0
10.944,5429.158,0.00018,0.0,0.0
10.95,5411.491,0.00018,0.0,0.0
10.956,5441.937,0.00018,0.0,0.0
10.963,5393.936,0.00019,0.0,0.0
10.969,5417.643,0.00018,0.0,0.0
10.975,5415.298,0.00018,0.0,0.0
10.982,5398.511,0.00019,0.0,0.0
10.988,5438.134,0.00018,0.0,0.0
10.994,5373.957,0.00019,0.0,0.0
11.0,5384.645,0.00019,0.0,0.0
11.007,5427.732,0.00018,0.0,0.0
11.013,5366.468,0.00019,0.0,0.0
11.019,5399.547,0.00019,0.0,0.0
11.026,5366.926,0.00019,0.0,0.0
11.032,5345.927,0.00019,0.0,0.0
11.038,5410.758,0.00018,0.0,0.0
11.045,5346.295,0.00019,0.0,0.0
11.051,5397.181,0.00019,0.0,0.0
11.057,5357.698,0.00019,0.0,0.0
11.064,5370.895,0.00019,0.0,0.0
11.07,5395.867,0.00019,0.0,0.0
11.076,5353.948,0.00019,0.0,0.0
11.083,5378.342,0.00019,0.0,0.0
11.089,5381.382,0.00019,0.0,0.0
11.095,5339.507,0.00019,0.0,0.0
11.102,5413.15,0.00018,0.0,0.0
11.108,5350.708,0.00019,0.0,0.0
11.114,5381.743,0.00019,0.0,0.0
11.121,5426.629,0.00018,0.0,0.0
11.127,5369.306,0.00019,0.0,0.0
11.133,5441.75,0.00018,0.0,0.0
11.14,5397.99,0.00019,0.0,0.0
11.146,5456.975,0.00018,0.0,0.0
11.152,5514.149,0.00018,0.0,0.0
11.158,5540.017,0.00018,0.0,0.0
11.165,5627.186,0.00018,0.0,0.0
11.171,5916.413,0.00017,0.0,0.0
11.177,6043.4,0.00017,0.0,0.0
11.184,7029.389,0.00014,0.0,0.0
11.19,7117.31,0.00014,0.0,0.0
11.196,7221.416,0.00014,0.0,0.0
11.203,6716.359,0.00015,0.0,0.0
11.209,6338.521,0.00016,0.0,0.0
11.215,6051.02,0.00017,0.0,0.0
11.222,5825.113,0.00017,0.0,0.0
11.228,5626.92,0.00018,0.0,0.0
11.234,5543.071,0.00018,0.0,0.0
11.241,5438.668,0.00018,0.0,0.0
11.247,5472.113,0.00018,0.0,0.0
11.253,5388.668,0.00019,0.0,0.0
11.26,5394.572,0.00019,0.0,0.0
11.266,5405.989,0.00018,0.0,0.0
11.272,5357.68,0.00019,0.0,0.0
11.279,5380.462,0.00019,0.0,0.0
11.285,5354.573,0.00019,0.0,0.0
11.291,5326.658,0.00019,0.0,0.0
11.298,5378.954,0.00019,0.0,0.0
11.304,5326.111,0.00019,0.0,0.0
11.31,5340.027,0.00019,0.0,0.0
11.316,5318.673,0.00019,0.0,0.0
11.323,5291.119,0.00019,0.0,0.0
11.329,5363.606,0.00019,0.0,0.0
11.335,5291.854,0.00019,0.0,0.0
11.342,5319.741,0.00019,0.0,0.0
11.348,5337.996,0.00019,0.0,0.0
11.354,5288.518,0.00019,0.0,0.0
11.361,5356.954,0.00019,0.0,0.0
11.367,5290.791,0.00019,0.0,0.0
11.373,5310.828,0.00019,0.0,0.0
11.38,5319.418,0.00019,0.0,0.0
11.386,5280.268,0.00019,0.0,0.0
11.392,5324.12,0.00019,0.0,0.0
11.399,5300.635,0.00019,0.0,0.0
11.405,5281.011,0.00019,0.0,0.0
11.411,5321.816,0.00019,0.0,0.0
11.418,5274.895,0.00019,0.0,0.0
11.424,5329.684,0.00019,0.0,0.0
11.43,5286.426,0.00019,0.0,0.0
11.437,5266.257,0.00019,0.0,0.0
11.443,5331.445,0.00019,0.0,0.0
11.449,5274.866,0.00019,0.0,0.0
11.456,5316.446,0.00019,0.0,0.0
11.462,5303.112,0.00019,0.0,0.0
11.468,5281.191,0.00019,0.0,0.0
11.474,5351.38,0.00019,0.0,0.0
11.481,5296.671,0.00019,0.0,0.0
11.487,5312.923,0.00019,0.0,0.0
11.493,5322.007,0.00019,0.0,0.0
11.5,5297.65,0.00019,0.0,0.0
11.506,5356.699,0.00019,0.0,0.0
11.512,5311.693,0.00019,0.0,0.0
11.519,5327.024,0.00019,0.0,0.0
11.525,5368.378,0.00019,0.0,0.0
11.531,5313.502,0.00019,0.0,0.0
11.538,5379.606,0.00019,0.0,0.0
11.544,5324.089,0.00019,0.0,0.0
11.55,5332.321,0.00019,0.0,0.0
11.557,5386.902,0.00019,0.0,0.0
11.563,5338.008,0.00019,0.0,0.0
11.569,5378.008,0.00019,0.0,0.0
11.576,5354.405,0.00019,0.0,0.0
11.582,5351.293,0.00019,0.0,0.0
11.588,5390.507,0.00019,0.0,0.0
11.595,5362.941,0.00019,0.0,0.0
11.601,5384.095,0.00019,0.0,0.0
11.607,5377.222,0.00019,0.0,0.0
11.614,5343.835,0.00019,0.0,0.0
11.62,5414.257,0.00018,0.0,0.0
11.626,5376.134,0.00019,0.0,0.0
11.632,5370.017,0.00019,0.0,0.0
11.639,5402.684,0.00019,0.0,0.0
11.645,5373.921,0.00019,0.0,0.0
11.651,5409.884,0.00018,0.0,0.0
11.658,5375.257,0.00019,0.0,0.0
11.664,5411.284,0.00018,0.0,0.0
11.67,5400.796,0.00019,0.0,0.0
11.677,5371.824,0.00019,0.0,0.0
11.683,5409.48,0.00018,0.0,0.0
11.689,5379.957,0.00019,0.0,0.0
11.696,5379.626,0.00019,0.0,0.0
11.702,5420.752,0.00018,0.0,0.0
11.708,5373.327,0.00019,0.0,0.0
11.715,5413.11,0.00018,0.0,0.0
11.721,5389.446,0.00019,0.0,0.0
11.727,5359.153,0.00019,0.0,0.0
11.734,5410.821,0.00018,0.0,0.0
11.74,5372.628,0.00019,0.0,0.0
11.746,5406.089,0.00018,0.0,0.0
11.753,5386.566,0.00019,0.0,0.0
11.759,5359.304,0.00019,0.0,0.0
11.765,5417.769,0.00018,0.0,0.0
11.772,5375.169,0.00019,0.0,0.0
11.778,5380.518,0.00019,0.0,0.0
11.784,5390.408,0.00019,0.0,0.0
11.79,5361.724,0.00019,0.0,0.0
11.797,5416.273,0.00018,0.0,0.0
11.803,5387.985,0.00019,0.0,0.0
11.809,5393.611,0.00019,0.0,0.0
11.816,5405.052,0.00019,0.0,0.0
11.822,5365.585,0.00019,0.0,0.0
11.828,5415.715,0.00018,0.0,0.0
11.835,5356.419,0.00019,0.0,0.0
11.841,5361.524,0.00019,0.0,0.0
11.847,5395.951,0.00019,0.0,0.0
11.854,5361.67,0.00019,0.0,0.0
11.86,5403.763,0.00019,0.0,0.0
11.866,5375.659,0.00019,0.0,0.0
11.873,5376.933,0.00019,0.0,0.0
11.879,5402.945,0.00019,0.0,0.0
11.885,5376.435,0.00019,0.0,0.0
11.892,5393.86,0.00019,0.0,0.0
11.898,5376.008,0.00019,0.0,0.0
11.904,5370.921,0.00019,0.0,0.0
11.911,5418.252,0.00018,0.0,0.0
11.917,5379.737,0.00019,0.0,0.0
11.923,5401.105,0.00019,0.0,0.0
11.93,5391.222,0.00019,0.0,0.0
11.936,5382.807,0.00019,0.0,0.0
11.942,5422.558,0.00018,0.0,0.0
11.948,5390.307,0.00019,0.0,0.0
11.955,5397.493,0.00019,0.0,0.0
11.961,5420.389,0.00018,0.0,0.0
11.967,5383.569,0.00019,0.0,0.0
11.974,5414.557,0.00018,0.0,0.0
11.98,5411.022,0.00018,0.0,0.0
11.986,5399.607,0.00019,0.0,0.0
11.993,5410.77,0.00018,0.0,0.0
11.999,5392.722,0.00019,0.0,0.0
12.005,5447.301,0.00018,0.0,0.0
12.012,5418.313,0.00018,0.0,0.0
12.018,5402.217,0.00019,0.0,0.0
12.024,5447.278,0.00018,0.0,0.0
12.031,5445.997,0.00018,0.0,0.0
12.037,5541.956,0.00018,0.0,0.0
12.043,5521.287,0.00018,0.0,0.0
12.05,5818.594,0.00017,0.0,0.0
12.056,5781.033,0.00017,0.0,0.0
12.062,7058.471,0.00014,0.0,0.0
12.069,7054.346,0.00014,0.0,0.0
12.075,7170.609,0.00014,0.0,0.0
12.081,8092.612,0.00012,0.0,0.0
12.088,7254.038,0.00014,0.0,0.0
12.094,8353.784,0.00012,0.0,0.0
12.1,6059.903,0.00017,0.0,0.0
12.106,7111.455,0.00014,0.0,0.0
12.113,5769.875,0.00017,0.0,0.0
12.119,5825.305,0.00017,0.0,0.0
12.125,5485.571,0.00018,0.0,0.0
12.132,5432.967,0.00018,0.0,0.0
12.138,5389.046,0.00019,0.0,0.0
12.144,5319.435,0.00019,0.0,0.0
12.151,5357.407,0.00019,0.0,0.0
12.157,5290.723,0.00019,0.0,0.0
12.163,5290.186,0.00019,0.0,0.0
12.17,5320.991,0.00019,0.0,0.0
12.176,5253.318,0.00019,0.0,0.0
12.182,5295.041,0.00019,0.0,0.0
12.189,5235.044,0.00019,0.0,0.0
12.195,5234.569,0.00019,0.0,0.0
12.201,5275.303,0.00019,0.0,0.0
12.208,5210.956,0.00019,0.0,0.0
12.214,5245.477,0.00019,0.0,0.0
12.22,5204.957,0.00019,0.0,0.0
12.227,5200.384,0.00019,0.0,0.0
12.233,5231.592,0.00019,0.0,0.0
12.239,5189.964,0.00019,0.0,0.0
12.246,5215.117,0.00019,0.0,0.0
12.252,5184.287,0.00019,0.0,0.0
12.258,5145.68,0.00019,0.0,0.0
12.264,5201.82,0.00019,0.0,0.0
12.271,5154.544,0.00019,0.0,0.0
12.277,5164.701,0.00019,0.0,0.0
12.283,5151.139,0.00019,0.0,0.0
12.29,5102.689,0.0002,0.0,0.0
12.296,5169.997,0.00019,0.0,0.0
12.302,5114.348,0.0002,0.0,0.0
12.309,5141.389,0.00019,0.0,0.0
12.315,5132.405,0.00019,0.0,0.0
12.321,5096.807,0.0002,0.0,0.0
12.328,5156.495,0.00019,0.0,0.0
12.334,5077.295,0.0002,0.0,0.0
12.34,5098.011,0.0002,0.0,0.0
12.347,5093.622,0.0002,0.0,0.0
12.353,5066.588,0.0002,0.0,0.0
12.359,5112.989,0.0002,0.0,0.0
12.366,5064.213,0.0002,0.0,0.0
12.372,5063.225,0.0002,0.0,0.0
12.378,5084.701,0.0002,0.0,0.0
12.385,5040.943,0.0002,0.0,0.0
12.391,5061.708,0.0002,0.0,0.0
12.397,5045.695,0.0002,0.0,0.0
12.404,5027.766,0.0002,0.0,0.0
12.41,5066.261,0.0002,0.0,0.0
12.416,5025.901,0.0002,0.0,0.0
12.422,5048.33,0.0002,0.0,0.0
12.429,5030.126,0.0002,0.0,0.0
12.435,5024.803,0.0002,0.0,0.0
12.441,5052.707,0.0002,0.0,0.0
12.448,4995.04,0.0002,0.0,0.0
12.454,5052.108,0.0002,0.0,0.0
12.46,5017.705,0.0002,0.0,0.0
12.467,5009.559,0.0002,0.0,0.0
12.473,5055.95,0.0002,0.0,0.0
12.479,5007.776,0.0002,0.0,0.0
12.486,5042.969,0.0002,0.0,0.0
12.492,5009.314,0.0002,0.0,0.0
12.498,5000.152,0.0002,0.0,0.0
12.505,5042.473,0.0002,0.0,0.0
12.511,5003.979,0.0002,0.0,0.0
12.517,5016.946,0.0002,0.0,0.0
12.524,5018.118,0.0002,0.0,0.0
12.53,4990.216,0.0002,0.0,0.0
12.536,5037.535,0.0002,0.0,0.0
12.543,4996.571,0.0002,0.0,0.0
12.549,5018.502,0.0002,0.0,0.0
12.555,5025.447,0.0002,0.0,0.0
12.562,5012.196,0.0002,0.0,0.0
12.568,5070.282,0.0002,0.0,0.0
12.574,5013.356,0.0002,0.0,0.0
12.58,5048.33,0.0002,0.0,0.0
12.587,5085.318,0.0002,0.0,0.0
12.593,5076.507,0.0002,0.0,0.0
12.599,5158.651,0.00019,0.0,0.0
12.606,5161.443,0.00019,0.0,0.0
12.612,5228.27,0.00019,0.0,0.0
12.618,5363.344,0.00019,0.0,0.0
12.625,5447.098,0.00018,0.0,0.0
12.631,5763.648,0.00017,0.0,0.0
12.637,6052.574,0.00017,0.0,0.0
12.644,6890.335,0.00015,0.0,0.0
12.65,7922.149,0.00013,0.0,0.0
12.656,10141.697,0.0001,0.0,0.0
12.663,13887.842,0.00007,0.0,0.0
12.669,18726.891,0.00005,0.0,0.0
12.675,26249.081,0.00004,0.0,0.0
12.682,31585.89,0.00003,0.0,0.0
12.688,34527.145,0.00003,0.0,0.0
12.694,33562.321,0.00003,0.0,0.0
12.701,28364.338,0.00004,0.0,0.0
12.707,22596.552,0.00004,0.0,0.0
12.713,16116.743,0.00006,0.0,0.0
12.72,11636.73,0.00009,0.0,0.0
12.726,8834.668,0.00011,0.0,0.0
12.732,7135.255,0.00014,0.0,0.0
12.738,6243.953,0.00016,0.0,0.0
12.745,5825.759,0.00017,0.0,0.0
12.751,5452.349,0.00018,0.0,0.0
12.757,5286.104,0.00019,0.0,0.0
12.764,5153.428,0.00019,0.0,0.0
12.77,5057.656,0.0002,0.0,0.0
12.776,5050.216,0.0002,0.0,0.0
12.783,4948.413,0.0002,0.0,0.0
12.789,4940.384,0.0002,0.0,0.0
12.795,4921.872,0.0002,0.0,0.0
12.802,4866.405,0.00021,0.0,0.0
12.808,4921.766,0.0002,0.0,0.0
12.814,4826.17,0.00021,0.0,0.0
12.821,4843.678,0.00021,0.0,0.0
12.827,4856.708,0.00021,0.0,0.0
12.833,4798.203,0.00021,0.0,0.0
12.84,4866.615,0.00021,0.0,0.0
12.846,4771.194,0.00021,0.0,0.0
12.852,4805.624,0.00021,0.0,0.0
12.859,4808.962,0.00021,0.0,0.0
12.865,4749.877,0.00021,0.0,0.0
12.871,4808.104,0.00021,0.0,0.0
12.878,4743.512,0.00021,0.0,0.0
12.884,4749.249,0.00021,0.0,0.0
12.89,4785.433,0.00021,0.0,0.0
12.896,4729.912,0.00021,0.0,0.0
12.903,4812.572,0.00021,0.0,0.0
12.909,4720.009,0.00021,0.0,0.0
12.915,4717.352,0.00021,0.0,0.0
12.922,4929.275,0.0002,0.0,0.0
12.928,4716.41,0.00021,0.0,0.0
12.934,5115.704,0.0002,0.0,0.0
12.941,4711.55,0.00021,0.0,0.0
12.947,4688.77,0.00021,0.0,0.0
12.953,4927.455,0.0002,0.0,0.0
12.96,4684.257,0.00021,0.0,0.0
12.966,4763.547,0.00021,0.0,0.0
12.972,4670.083,0.00021,0.0,0.0
12.979,4663.041,0.00021,0.0,0.0
12.985,4732.778,0.00021,0.0,0.0
12.991,4644.634,0.00022,0.0,0.0
12.998,4700.757,0.00021,0.0,0.0
13.004,4658.16,0.00021,0.0,0.0
13.01,4642.303,0.00022,0.0,0.0
13.017,4711.025,0.00021,0.0,0.0
13.023,4633.199,0.00022,0.0,0.0
13.029,4670.236,0.00021,0.0,0.0
13.036,4655.385,0.00021,0.0,0.0
13.042,4610.39,0.00022,0.0,0.0
13.048,4675.971,0.00021,0.0,0.0
13.054,4618.647,0.00022,0.0,0.0
13.061,4643.799,0.00022,0.0,0.0
13.067,4658.12,0.00021,0.0,0.0
13.073,4611.05,0.00022,0.0,0.0
13.08,4669.193,0.00021,0.0,0.0
13.086,4607.645,0.00022,0.0,0.0
13.092,4627.743,0.00022,0.0,0.0
13.099,4626.469,0.00022,0.0,0.0
13.105,4586.834,0.00022,0.0,0.0
13.111,4648.964,0.00022,0.0,0.0
13.118,4598.438,0.00022,0.0,0.0
13.124,4616.197,0.00022,0.0,0.0
13.13,4641.649,0.00022,0.0,0.0
13.137,4577.839,0.00022,0.0,0.0
13.143,4644.021,0.00022,0.0,0.0
13.149,4576.711,0.00022,0.0,0.0
13.156,4600.024,0.00022,0.0,0.0
13.162,4629.162,0.00022,0.0,0.0
13.168,4600.034,0.00022,0.0,0.0
13.175,4658.624,0.00021,0.0,0.0
13.181,4615.793,0.00022,0.0,0.0
13.187,4628.655,0.00022,0.0,0.0
13.194,4726.535,0.00021,0.0,0.0
13.2,4729.607,0.00021,0.0,0.0
13.206,4887.871,0.0002,0.0,0.0
13.212,5014.715,0.0002,0.0,0.0
13.219,5308.535,0.00019,0.0,0.0
13.225,6017.94,0.00017,0.0,0.0
13.231,7005.285,0.00014,0.0,0.0
13.238,8462.685,0.00012,0.0,0.0
13.244,10413.911,0.0001,0.0,0.0
13.25,11768.204,0.00008,0.0,0.0
13.257,11993.658,0.00008,0.0,0.0
13.263,11728.35,0.00009,0.0,0.0
13.269,9940.417,0.0001,0.0,0.0
13.276,8293.819,0.00012,0.0,0.0
13.282,6948.291,0.00014,0.0,0.0
13.288,5927.467,0.00017,0.0,0.0
13.295,5319.45,0.00019,0.0,0.0
13.301,4988.104,0.0002,0.0,0.0
13.307,4778.032,0.00021,0.0,0.0
13.314,4644.391,0.00022,0.0,0.0
13.32,4636.455,0.00022,0.0,0.0
13.326,4541.164,0.00022,0.0,0.0
13.333,4559.098,0.00022,0.0,0.0
13.339,4512.499,0.00022,0.0,0.0
13.345,4473.215,0.00022,0.0,0.0
13.352,4527.074,0.00022,0.0,0.0
13.358,4456.748,0.00022,0.0,0.0
13.364,4493.606,0.00022,0.0,0.0
13.37,4462.48,0.00022,0.0,0.0
13.377,4430.098,0.00023,0.0,0.0
13.383,4484.819,0.00022,0.0,0.0
13.389,4429.188,0.00023,0.0,0.0
13.396,4444.309,0.00023,0.0,0.0
13.402,4445.4,0.00022,0.0,0.0
13.408,4393.536,0.00023,0.0,0.0
13.415,4438.809,0.00023,0.0,0.0
13.421,4396.83,0.00023,0.0,0.0
13.427,4406.517,0.00023,0.0,0.0
13.434,4412.218,0.00023,0.0,0.0
13.44,4367.023,0.00023,0.0,0.0
13.446,4415.437,0.00023,0.0,0.0
13.453,4379.437,0.00023,0.0,0.0
13.459,4394.259,0.00023,0.0,0.0
13.465,4400.277,0.00023,0.0,0.0
13.472,4349.33,0.00023,0.0,0.0
13.478,4403.441,0.00023,0.0,0.0
13.484,4350.817,0.00023,0.0,0.0
13.491,4360.669,0.00023,0.0,0.0
13.497,4381.647,0.00023,0.0,0.0
13.503,4339.332,0.00023,0.0,0.0
13.51,4388.928,0.00023,0.0,0.0
13.516,4333.802,0.00023,0.0,0.0
13.522,4329.674,0.00023,0.0,0.0
13.528,4368.018,0.00023,0.0,0.0
13.535,4319.259,0.00023,0.0,0.0
13.541,4384.151,0.00023,0.0,0.0
13.547,4320.353,0.00023,0.0,0.0
13.554,4336.116,0.00023,0.0,0.0
13.56,4357.174,0.00023,0.0,0.0
13.566,4309.042,0.00023,0.0,0.0
13.573,4359.301,0.00023,0.0,0.0
13.579,4310.477,0.00023,0.0,0.0
13.585,4325.562,0.00023,0.0,0.0
13.592,4344.068,0.00023,0.0,0.0
13.598,4306.42,0.00023,0.0,0.0
13.604,4355.719,0.00023,0.0,0.0
13.611,4307.837,0.00023,0.0,0.0
13.617,4306.127,0.00023,0.0,0.0
13.623,4343.096,0.00023,0.0,0.0
13.63,4311.293,0.00023,0.0,0.0
13.636,4341.56,0.00023,0.0,0.0
13.642,4322.251,0.00023,0.0,0.0
13.649,4301.636,0.00023,0.0,0.0
13.655,4339.931,0.00023,0.0,0.0
13.661,4308.842,0.00023,0.0,0.0
13.668,4363.232,0.00023,0.0,0.0
13.674,4328.405,0.00023,0.0,0.0
13.68,4364.869,0.00023,0.0,0.0
13.686,4424.28,0.00023,0.0,0.0
13.693,4396.404,0.00023,0.0,0.0
13.699,4524.268,0.00022,0.0,0.0
13.705,4727.371,0.00021,0.0,0.0
13.712,4660.859,0.00021,0.0,0.0
13.718,4991.841,0.0002,0.0,0.0
13.724,4484.943,0.00022,0.0,0.0
13.731,4683.322,0.00021,0.0,0.0
13.737,4370.012,0.00023,0.0,0.0
13.743,4325.623,0.00023,0.0,0.0
13.75,4358.318,0.00023,0.0,0.0
13.756,4269.182,0.00023,0.0,0.0
13.762,4292.958,0.00023,0.0,0.0
13.769,4269.263,0.00023,0.0,0.0
13.775,4247.199,0.00024,0.0,0.0
13.781,4289.784,0.00023,0.0,0.0
13.788,4235.653,0.00024,0.0,0.0
13.794,4283.119,0.00023,0.0,0.0
13.8,4247.109,0.00024,0.0,0.0
13.807,4231.372,0.00024,0.0,0.0
13.813,4273.242,0.00023,0.0,0.0
13.819,4211.162,0.00024,0.0,0.0
13.826,4240.713,0.00024,0.0,0.0
13.832,4226.747,0.00024,0.0,0.0
13.838,4183.201,0.00024,0.0,0.0
13.844,4243.407,0.00024,0.0,0.0
13.851,4197.551,0.00024,0.0,0.0
13.857,4209.3,0.00024,0.0,0.0
13.863,4185.702,0.00024,0.0,0.0
13.87,4179.914,0.00024,0.0,0.0
13.876,4222.832,0.00024,0.0,0.0
13.882,4176.792,0.00024,0.0,0.0
13.889,4196.713,0.00024,0.0,0.0
13.895,4176.509,0.00024,0.0,0.0
13.901,4168.506,0.00024,0.0,0.0
13.908,4205.955,0.00024,0.0,0.0
13.914,4147.427,0.00024,0.0,0.0
13.92,4178.591,0.00024,0.0,0.0
13.927,4157.437,0.00024,0.0,0.0
13.933,4131.593,0.00024,0.0,0.0
13.939,4178.241,0.00024,0.0,0.0
13.946,4145.325,0.00024,0.0,0.0
13.952,4163.39,0.00024,0.0,0.0
13.958,4149.718,0.00024,0.0,0.0
13.965,4127.457,0.00024,0.0,0.0
13.971,4155.446,0.00024,0.0,0.0
13.977,4116.767,0.00024,0.0,0.0
13.984,4153.433,0.00024,0.0,0.0
13.99,4134.977,0.00024,0.0,0.0
13.996,4102.557,0.00024,0.0,0.0
14.002,4149.214,0.00024,0.0,0.0
14.009,4100.237,0.00024,0.0,0.0
14.015,4129.418,0.00024,0.0,0.0
14.021,4102.691,0.00024,0.0,0.0
14.028,4090.579,0.00024,0.0,0.0
14.034,4139.273,0.00024,0.0,0.0
14.04,4086.248,0.00024,0.0,0.0
14.047,4122.538,0.00024,0.0,0.0
14.053,4101.077,0.00024,0.0,0.0
14.059,4086.027,0.00024,0.0,0.0
14.066,4118.159,0.00024,0.0,0.0
14.072,4074.027,0.00025,0.0,0.0
14.078,4108.715,0.00024,0.0,0.0
14.085,4082.661,0.00024,0.0,0.0
14.091,4058.147,0.00025,0.0,0.0
14.097,4102.606,0.00024,0.0,0.0
14.104,4058.465,0.00025,0.0,0.0
14.11,4088.22,0.00024,0.0,0.0
14.116,4071.023,0.00025,0.0,0.0
14.123,4047.561,0.00025,0.0,0.0
14.129,4085.4,0.00024,0.0,0.0
14.135,4046.422,0.00025,0.0,0.0
14.142,4070.351,0.00025,0.0,0.0
14.148,4052.696,0.00025,0.0,0.0
14.154,4025.98,0.00025,0.0,0.0
14.16,4079.073,0.00025,0.0,0.0
14.167,4031.486,0.00025,0.0,0.0
14.173,4064.23,0.00025,0.0,0.0
14.179,4058.609,0.00025,0.0,0.0
14.186,4018.832,0.00025,0.0,0.0
14.192,4057.835,0.00025,0.0,0.0
14.198,4024.886,0.00025,0.0,0.0
14.205,4052.614,0.00025,0.0,0.0
14.211,4026.427,0.00025,0.0,0.0
14.217,4016.718,0.00025,0.0,0.0
14.224,4054.071,0.00025,0.0,0.0
14.23,4020.48,0.00025,0.0,0.0
14.236,4043.098,0.00025,0.0,0.0
14.243,4033.813,0.00025,0.0,0.0
14.249,4009.954,0.00025,0.0,0.0
14.255,4056.775,0.00025,0.0,0.0
14.262,4009.71,0.00025,0.0,0.0
14.268,4043.609,0.00025,0.0,0.0
14.274,4022.13,0.00025,0.0,0.0
14.281,4000.673,0.00025,0.0,0.0
14.287,4037.807,0.00025,0.0,0.0
14.293,4001.062,0.00025,0.0,0.0
14.3,4017.071,0.00025,0.0,0.0
14.306,4011.609,0.00025,0.0,0.0
14.312,3986.257,0.00025,0.0,0.0
14.318,4021.987,0.00025,0.0,0.0
14.325,3987.007,0.00025,0.0,0.0
14.331,4014.466,0.00025,0.0,0.0
14.337,4014.46,0.00025,0.0,0.0
14.344,3973.725,0.00025,0.0,0.0
14.35,4040.25,0.00025,0.0,0.0
14.356,3975.811,0.00025,0.0,0.0
14.363,4026.111,0.00025,0.0,0.0
14.369,3999.96,0.00025,0.0,0.0
14.375,3964.985,0.00025,0.0,0.0
14.382,4011.843,0.00025,0.0,0.0
14.388,3977.066,0.00025,0.0,0.0
14.394,3997.35,0.00025,0.0,0.0
14.401,3989.291,0.00025,0.0,0.0
14.407,3967.135,0.00025,0.0,0.0
14.413,4035.396,0.00025,0.0,0.0
14.42,3957.143,0.00025,0.0,0.0
14.426,4022.22,0.00025,0.0,0.0
14.432,4153.922,0.00024,0.0,0.0
14.439,3982.728,0.00025,0.0,0.0
14.445,4713.468,0.00021,0.0,0.0
14.451,4018.354,0.00025,0.0,0.0
14.458,4105.523,0.00024,0.0,0.0
14.464,4665.629,0.00021,0.0,0.0
14.47,4124.036,0.00024,0.0,0.0
14.476,4213.205,0.00024,0.0,0.0
14.483,4017.49,0.00025,0.0,0.0
14.489,4013.938,0.00025,0.0,0.0
14.495,3987.321,0.00025,0.0,0.0
14.502,3931.946,0.00025,0.0,0.0
14.508,4009.38,0.00025,0.0,0.0
14.514,3926.002,0.00025,0.0,0.0
14.521,3969.319,0.00025,0.0,0.0
14.527,3948.006,0.00025,0.0,0.0
14.533,3926.194,0.00025,0.0,0.0
14.54,3973.057,0.00025,0.0,0.0
14.546,3905.023,0.00026,0.0,0.0
14.552,3954.74,0.00025,0.0,0.0
14.559,3913.761,0.00026,0.0,0.0
14.565,3906.254,0.00026,0.0,0.0
14.571,3959.738,0.00025,0.0,0.0
14.578,3889.594,0.00026,0.0,0.0
14.584,3938.383,0.00025,0.0,0.0
14.59,3903.705,0.00026,0.0,0.0
14.597,3890.328,0.00026,0.0,0.0
14.603,3938.149,0.00025,0.0,0.0
14.609,3886.37,0.00026,0.0,0.0
14.616,3919.377,0.00026,0.0,0.0
14.622,3884.14,0.00026,0.0,0.0
14.628,3870.817,0.00026,0.0,0.0
14.634,3917.912,0.00026,0.0,0.0
14.641,3858.03,0.00026,0.0,0.0
14.647,3903.112,0.00026,0.0,0.0
14.653,3881.945,0.00026,0.0,0.0
14.66,3867.251,0.00026,0.0,0.0
14.666,3914.166,0.00026,0.0,0.0
14.672,3854.748,0.00026,0.0,0.0
14.679,3898.105,0.00026,0.0,0.0
14.685,3871.047,0.00026,0.0,0.0
14.691,3858.862,0.00026,0.0,0.0
14.698,3899.066,0.00026,0.0,0.0
14.704,3859.609,0.00026,0.0,0.0
14.71,3883.09,0.00026,0.0,0.0
14.717,3869.203,0.00026,0.0,0.0
14.723,3844.15,0.00026,0.0,0.0
14.729,3893.073,0.00026,0.0,0.0
14.736,3852.203,0.00026,0.0,0.0
14.742,3884.62,0.00026,0.0,0.0
14.748,3854.682,0.00026,0.0,0.0
14.755,3838.952,0.00026,0.0,0.0
14.761,3872.472,0.00026,0.0,0.0
14.767,3840.998,0.00026,0.0,0.0
14.774,3893.3,0.00026,0.0,0.0
14.78,3842.357,0.00026,0.0,0.0
14.786,3846.311,0.00026,0.0,0.0
14.792,3863.857,0.00026,0.0,0.0
14.799,3829.669,0.00026,0.0,0.0
14.805,3883.172,0.00026,0.0,0.0
14.811,3851.613,0.00026,0.0,0.0
14.818,3848.833,0.00026,0.0,0.0
14.824,3856.972,0.00026,0.0,0.0
14.83,3821.617,0.00026,0.0,0.0
14.837,3853.231,0.00026,0.0,0.0
14.843,3831.833,0.00026,0.0,0.0
14.849,3824.984,0.00026,0.0,0.0
14.856,3849.513,0.00026,0.0,0.0
14.862,3823.244,0.00026,0.0,0.0
14.868,3859.961,0.00026,0.0,0.0
14.875,3824.052,0.00026,0.0,0.0
14.881,3820.36,0.00026,0.0,0.0
14.887,3846.776,0.00026,0.0,0.0
14.894,3816.123,0.00026,0.0,0.0
14.9,3843.936,0.00026,0.0,0.0
14.906,3804.806,0.00026,0.0,0.0
14.913,3810.485,0.00026,0.0,0.0
14.919,3819.552,0.00026,0.0,0.0
14.925,3819.521,0.00026,0.0,0.0
14.932,3854.299,0.00026,0.0,0.0
14.938,3812.506,0.00026,0.0,0.0
14.944,3828.315,0.00026,0.0,0.0
14.95,3827.564,0.00026,0.0,0.0
14.957,3803.959,0.00026,0.0,0.0
14.963,3839.884,0.00026,0.0,0.0
14.969,3804.844,0.00026,0.0,0.0
14.976,3815.808,0.00026,0.0,0.0
14.982,3807.395,0.00026,0.0,0.0
14.988,3786.366,0.00026,0.0,0.0
14.995,3826.874,0.00026,0.0,0.0
15.001,3787.138,0.00026,0.0,0.0
15.007,3820.53,0.00026,0.0,0.0
15.014,3806.186,0.00026,0.0,0.0
15.02,3780.529,0.00026,0.0,0.0
15.026,3827.667,0.00026,0.0,0.0
15.033,3779.192,0.00026,0.0,0.0
15.039,3816.135,0.00026,0.0,0.0
15.045,3796.914,0.00026,0.0,0.0
15.052,3791.574,0.00026,0.0,0.0
15.058,3825.547,0.00026,0.0,0.0
15.064,3774.498,0.00026,0.0,0.0
15.071,3806.736,0.00026,0.0,0.0
15.077,3778.525,0.00026,0.0,0.0
15.083,3779.881,0.00026,0.0,0.0
15.09,3819.074,0.00026,0.0,0.0
15.096,3772.619,0.00027,0.0,0.0
15.102,3811.525,0.00026,0.0,0.0
15.108,3768.641,0.00027,0.0,0.0
15.115,3772.889,0.00027,0.0,0.0
15.121,3821.598,0.00026,0.0,0.0
15.127,3771.839,0.00027,0.0,0.0
15.134,3809.331,0.00026,0.0,0.0
15.14,3779.829,0.00026,0.0,0.0
15.146,3794.465,0.00026,0.0,0.0
15.153,3835.778,0.00026,0.0,0.0
15.159,3791.401,0.00026,0.0,0.0
15.165,3851.37,0.00026,0.0,0.0
15.172,3856.215,0.00026,0.0,0.0
15.178,3858.436,0.00026,0.0,0.0
15.184,3879.881,0.00026,0.0,0.0
15.191,3823.856,0.00026,0.0,0.0
15.197,3831.059,0.00026,0.0,0.0
15.203,3783.399,0.00026,0.0,0.0
15.21,3775.929,0.00026,0.0,0.0
15.216,3803.049,0.00026,0.0,0.0
15.222,3775.675,0.00026,0.0,0.0
15.229,3811.706,0.00026,0.0,0.0
15.235,3780.669,0.00026,0.0,0.0
15.241,3811.644,0.00026,0.0,0.0
15.248,3835.501,0.00026,0.0,0.0
15.254,3831.561,0.00026,0.0,0.0
15.26,3905.248,0.00026,0.0,0.0
15.266,3927.406,0.00025,0.0,0.0
15.273,4033.089,0.00025,0.0,0.0
15.279,4208.585,0.00024,0.0,0.0
15.285,4456.931,0.00022,0.0,0.0
15.292,4864.088,0.00021,0.0,0.0
15.298,5356.36,0.00019,0.0,0.0
15.304,5826.731,0.00017,0.0,0.0
15.311,6474.971,0.00015,0.0,0.0
15.317,6575.861,0.00015,0.0,0.0
15.323,6330.27,0.00016,0.0,0.0
15.33,6123.084,0.00016,0.0,0.0
15.336,5390.688,0.00019,0.0,0.0
15.342,4935.897,0.0002,0.0,0.0
15.349,4456.049,0.00022,0.0,0.0
15.355,4196.705,0.00024,0.0,0.0
15.361,3991.47,0.00025,0.0,0.0
15.368,3912.422,0.00026,0.0,0.0
15.374,3852.589,0.00026,0.0,0.0
15.38,3786.574,0.00026,0.0,0.0
15.387,3816.331,0.00026,0.0,0.0
15.393,3762.607,0.00027,0.0,0.0
15.399,3775.918,0.00026,0.0,0.0
15.406,3745.63,0.00027,0.0,0.0
15.412,3748.365,0.00027,0.0,0.0
15.418,3773.243,0.00027,0.0,0.0
15.424,3721.985,0.00027,0.0,0.0
15.431,3742.558,0.00027,0.0,0.0
15.437,3720.221,0.00027,0.0,0.0
15.443,3720.709,0.00027,0.0,0.0
15.45,3766.214,0.00027,0.0,0.0
15.456,3712.954,0.00027,0.0,0.0
15.462,3763.22,0.00027,0.0,0.0
15.469,3720.114,0.00027,0.0,0.0
15.475,3722.898,0.00027,0.0,0.0
15.481,3758.123,0.00027,0.0,0.0
15.488,3722.665,0.00027,0.0,0.0
15.494,3756.588,0.00027,0.0,0.0
15.5,3711.291,0.00027,0.0,0.0
15.507,3706.756,0.00027,0.0,0.0
15.513,3740.66,0.00027,0.0,0.0
15.519,3703.642,0.00027,0.0,0.0
15.526,3731.141,0.00027,0.0,0.0
15.532,3700.371,0.00027,0.0,0.0
15.538,3713.178,0.00027,0.0,0.0
15.545,3709.152,0.00027,0.0,0.0
15.551,3691.937,0.00027,0.0,0.0
15.557,3736.236,0.00027,0.0,0.0
15.564,3685.178,0.00027,0.0,0.0
15.57,3711.959,0.00027,0.0,0.0
15.576,3708.879,0.00027,0.0,0.0
15.582,3689.675,0.00027,0.0,0.0
15.589,3716.274,0.00027,0.0,0.0
15.595,3678.561,0.00027,0.0,0.0
15.601,3706.013,0.00027,0.0,0.0
15.608,3678.3,0.00027,0.0,0.0
15.614,3666.592,0.00027,0.0,0.0
15.62,3700.708,0.00027,0.0,0.0
15.627,3667.773,0.00027,0.0,0.0
15.633,3673.028,0.00027,0.0,0.0
15.639,3667.358,0.00027,0.0,0.0
15.646,3656.395,0.00027,0.0,0.0
15.652,3683.135,0.00027,0.0,0.0
15.658,3652.677,0.00027,0.0,0.0
15.665,3681.593,0.00027,0.0,0.0
15.671,3650.718,0.00027,0.0,0.0
15.677,3638.151,0.00027,0.0,0.0
15.684,3672.283,0.00027,0.0,0.0
15.69,3638.799,0.00027,0.0,0.0
15.696,3663.099,0.00027,0.0,0.0
15.703,3633.627,0.00028,0.0,0.0
15.709,3633.597,0.00028,0.0,0.0
15.715,3657.905,0.00027,0.0,0.0
15.722,3618.998,0.00028,0.0,0.0
15.728,3648.721,0.00027,0.0,0.0
15.734,3612.386,0.00028,0.0,0.0
15.74,3623.864,0.00028,0.0,0.0
15.747,3643.755,0.00027,0.0,0.0
15.753,3623.287,0.00028,0.0,0.0
15.759,3649.895,0.00027,0.0,0.0
15.766,3614.643,0.00028,0.0,0.0
15.772,3617.002,0.00028,0.0,0.0
15.778,3620.691,0.00028,0.0,0.0
15.785,3600.62,0.00028,0.0,0.0
15.791,3644.35,0.00027,0.0,0.0
15.797,3598.541,0.00028,0.0,0.0
15.804,3633.009,0.00028,0.0,0.0
15.81,3610.352,0.00028,0.0,0.0
15.816,3611.133,0.00028,0.0,0.0
15.823,3654.927,0.00027,0.0,0.0
15.829,3609.003,0.00028,0.0,0.0
15.835,3662.739,0.00027,0.0,0.0
15.842,3616.886,0.00028,0.0,0.0
15.848,3661.173,0.00027,0.0,0.0
15.854,3662.359,0.00027,0.0,0.0
15.861,3646.743,0.00027,0.0,0.0
15.867,3677.042,0.00027,0.0,0.0
15.873,3615.375,0.00028,0.0,0.0
15.88,3596.336,0.00028,0.0,0.0
15.886,3612.651,0.00028,0.0,0.0
15.892,3579.691,0.00028,0.0,0.0
15.898,3613.238,0.00028,0.0,0.0
15.905,3574.424,0.00028,0.0,0.0
15.911,3566.492,0.00028,0.0,0.0
15.917,3594.94,0.00028,0.0,0.0
15.924,3566.268,0.00028,0.0,0.0
15.93,3596.084,0.00028,0.0,0.0
15.936,3567.491,0.00028,0.0,0.0
15.943,3564.074,0.00028,0.0,0.0
15.949,3587.037,0.00028,0.0,0.0
15.955,3559.239,0.00028,0.0,0.0
15.962,3588.986,0.00028,0.0,0.0
15.968,3558.58,0.00028,0.0,0.0
15.974,3567.726,0.00028,0.0,0.0
15.981,3577.734,0.00028,0.0,0.0
15.987,3542.775,0.00028,0.0,0.0
15.993,3584.389,0.00028,0.0,0.0
16.0,3553.784,0.00028,0.0,0.0
16.006,3571.212,0.00028,0.0,0.0
16.012,3556.663,0.00028,0.0,0.0
16.019,3547.493,0.00028,0.0,0.0
16.025,3577.072,0.00028,0.0,0.0
16.031,3530.489,0.00028,0.0,0.0
16.038,3570.343,0.00028,0.0,0.0
16.044,3537.638,0.00028,0.0,0.0
16.05,3549.551,0.00028,0.0,0.0
16.056,3566.439,0.00028,0.0,0.0
16.063,3523.075,0.00028,0.0,0.0
16.069,3566.412,0.00028,0.0,0.0
16.075,3540.748,0.00028,0.0,0.0
16.082,3532.376,0.00028,0.0,0.0
16.088,3552.445,0.00028,0.0,0.0
16.094,3530.529,0.00028,0.0,0.0
16.101,3564.087,0.00028,0.0,0.0
16.107,3528.514,0.00028,0.0,0.0
16.113,3546.233,0.00028,0.0,0.0
16.12,3539.337,0.00028,0.0,0.0
16.126,3527.131,0.00028,0.0,0.0
16.132,3557.276,0.00028,0.0,0.0
16.139,3527.714,0.00028,0.0,0.0
16.145,3534.74,0.00028,0.0,0.0
16.151,3532.857,0.00028,0.0,0.0
16.158,3515.092,0.00028,0.0,0.0
16.164,3557.373,0.00028,0.0,0.0
16.17,3512.904,0.00028,0.0,0.0
16.177,3536.624,0.00028,0.0,0.0
16.183,3533.611,0.00028,0.0,0.0
16.189,3517.531,0.00028,0.0,0.0
16.196,3542.19,0.00028,0.0,0.0
16.202,3512.893,0.00028,0.0,0.0
16.208,3545.382,0.00028,0.0,0.0
16.214,3507.533,0.00029,0.0,0.0
16.221,3512.627,0.00028,0.0,0.0
16.227,3543.543,0.00028,0.0,0.0
16.233,3508.276,0.00029,0.0,0.0
16.24,3541.875,0.00028,0.0,0.0
16.246,3514.817,0.00028,0.0,0.0
16.252,3508.209,0.00029,0.0,0.0
16.259,3536.512,0.00028,0.0,0.0
16.265,3495.865,0.00029,0.0,0.0
16.271,3536.589,0.00028,0.0,0.0
16.278,3511.078,0.00028,0.0,0.0
16.284,3524.347,0.00028,0.0,0.0
16.29,3526.376,0.00028,0.0,0.0
16.297,3514.396,0.00028,0.0,0.0
16.303,3533.331,0.00028,0.0,0.0
16.309,3508.655,0.00029,0.0,0.0
16.316,3521.75,0.00028,0.0,0.0
16.322,3508.212,0.00029,0.0,0.0
16.328,3515.076,0.00028,0.0,0.0
16.335,3541.802,0.00028,0.0,0.0
16.341,3512.477,0.00028,0.0,0.0
16.347,3537.602,0.00028,0.0,0.0
16.354,3511.269,0.00028,0.0,0.0
16.36,3507.263,0.00029,0.0,0.0
16.366,3533.638,0.00028,0.0,0.0
16.372,3500.705,0.00029,0.0,0.0
16.379,3538.945,0.00028,0.0,0.0
16.385,3509.909,0.00028,0.0,0.0
16.391,3505.622,0.00029,0.0,0.0
16.398,3525.502,0.00028,0.0,0.0
16.404,3500.613,0.00029,0.0,0.0
16.41,3534.014,0.00028,0.0,0.0
16.417,3512.882,0.00028,0.0,0.0
16.423,3520.646,0.00028,0.0,0.0
16.429,3524.62,0.00028,0.0,0.0
16.436,3516.295,0.00028,0.0,0.0
16.442,3527.061,0.00028,0.0,0.0
16.448,3517.106,0.00028,0.0,0.0
16.455,3540.433,0.00028,0.0,0.0
16.461,3529.887,0.00028,0.0,0.0
16.467,3524.838,0.00028,0.0,0.0
16.474,3558.306,0.00028,0.0,0.0
16.48,3545.614,0.00028,0.0,0.0
16.486,3571.51,0.00028,0.0,0.0
16.493,3607.857,0.00028,0.0,0.0
16.499,3625.776,0.00028,0.0,0.0
16.505,3658.357,0.00027,0.0,0.0
16.512,3646.112,0.00027,0.0,0.0
16.518,3598.102,0.00028,0.0,0.0
16.524,3569.613,0.00028,0.0,0.0
16.53,3534.544,0.00028,0.0,0.0
16.537,3550.474,0.00028,0.0,0.0
16.543,3516.158,0.00028,0.0,0.0
16.549,3550.292,0.00028,0.0,0.0
16.556,3538.932,0.00028,0.0,0.0
16.562,3533.158,0.00028,0.0,0.0
16.568,3540.115,0.00028,0.0,0.0
16.575,3527.726,0.00028,0.0,0.0
16.581,3561.347,0.00028,0.0,0.0
16.587,3523.671,0.00028,0.0,0.0
16.594,3558.829,0.00028,0.0,0.0
