"x","y_obs","weight","y_calc","y_bkg"
0.8,2683.912,0.00037,0.0,0.0
0.806,3159.514,0.00032,0.0,0.0
0.813,3290.554,0.0003,0.0,0.0
0.819,3165.707,0.00032,0.0,0.0
0.825,3847.136,0.00026,0.0,0.0
0.832,3607.763,0.00028,0.0,0.0
0.838,3905.611,0.00026,0.0,0.0
0.844,4195.914,0.00024,0.0,0.0
0.851,4117.977,0.00024,0.0,0.0
0.857,4582.416,0.00022,0.0,0.0
0.863,4982.528,0.0002,0.0,0.0
0.87,4537.918,0.00022,0.0,0.0
0.876,5466.077,0.00018,0.0,0.0
0.882,5296.123,0.00019,0.0,0.0
0.888,5593.207,0.00018,0.0,0.0
0.895,5819.445,0.00017,0.0,0.0
0.901,5862.018,0.00017,0.0,0.0
0.907,6386.167,0.00016,0.0,0.0
0.914,6580.634,0.00015,0.0,0.0
0.92,6194.358,0.00016,0.0,0.0
0.926,6946.172,0.00014,0.0,0.0
0.933,7006.702,0.00014,0.0,0.0
0.939,6799.801,0.00015,0.0,0.0
0.945,7451.748,0.00013,0.0,0.0
0.952,7035.642,0.00014,0.0,0.0
0.958,7491.905,0.00013,0.0,0.0
0.964,7536.733,0.00013,0.0,0.0
0.971,7231.814,0.00014,0.0,0.0
0.977,7790.424,0.00013,0.0,0.0
0.983,7749.896,0.00013,0.0,0.0
0.99,7535.137,0.00013,0.0,0.0
0.996,8004.648,0.00012,0.0,0.0
1.002,7641.835,0.00013,0.0,0.0
1.009,7866.773,0.00013,0.0,0.0
1.015,8039.423,0.00012,0.0,0.0
1.021,7720.121,0.00013,0.0,0.0
1.028,8077.146,0.00012,0.0,0.0
1.034,7876.515,0.00013,0.0,0.0
1.04,7861.317,0.00013,0.0,0.0
1.046,7993.542,0.00013,0.0,0.0
1.053,7978.056,0.00013,0.0,0.0
1.059,7909.889,0.00013,0.0,0.0
1.065,8022.159,0.00012,0.0,0.0
1.072,7780.887,0.00013,0.0,0.0
1.078,7946.242,0.00013,0.0,0.0
1.084,7819.262,0.00013,0.0,0.0
1.091,7866.678,0.00013,0.0,0.0
1.097,7882.236,0.00013,0.0,0.0
1.103,7825.807,0.00013,0.0,0.0
1.11,7802.494,0.00013,0.0,0.0
1.116,7763.732,0.00013,0.0,0.0
1.122,7639.941,0.00013,0.0,0.0
1.129,7733.095,0.00013,0.0,0.0
1.135,7660.312,0.00013,0.0,0.0
1.141,7602.5,0.00013,0.0,0.0
1.148,7620.404,0.00013,0.0,0.0
1.154,7518.506,0.00013,0.0,0.0
1.16,7503.428,0.00013,0.0,0.0
1.167,7461.846,0.00013,0.0,0.0
1.173,7457.301,0.00013,0.0,0.0
1.179,7406.246,0.00014,0.0,0.0
1.186,7347.168,0.00014,0.0,0.0
1.192,7289.168,0.00014,0.0,0.0
1.198,7300.328,0.00014,0.0,0.0
1.204,7205.752,0.00014,0.0,0.0
1.211,7197.361,0.00014,0.0,0.0
1.217,7159.096,0.00014,0.0,0.0
1.223,7074.194,0.00014,0.0,0.0
1.23,7028.894,0.00014,0.0,0.0
1.236,7019.621,0.00014,0.0,0.0
1.242,6972.929,0.00014,0.0,0.0
1.249,6990.334,0.00014,0.0,0.0
1.255,6986.101,0.00014,0.0,0.0
1.261,6915.495,0.00014,0.0,0.0
1.268,6946.911,0.00014,0.0,0.0
1.274,6817.889,0.00015,0.0,0.0
1.28,6893.562,0.00015,0.0,0.0
1.287,6814.061,0.00015,0.0,0.0
1.293,6789.502,0.00015,0.0,0.0
1.299,6745.504,0.00015,0.0,0.0
1.306,6767.802,0.00015,0.0,0.0
1.312,6708.702,0.00015,0.0,0.0
1.318,6720.761,0.00015,0.0,0.0
1.325,6732.693,0.00015,0.0,0.0
1.331,6738.989,0.00015,0.0,0.0
1.337,6706.111,0.00015,0.0,0.0
1.344,6663.876,0.00015,0.0,0.0
1.35,6698.71,0.00015,0.0,0.0
1.356,6666.97,0.00015,0.0,0.0
1.362,6629.615,0.00015,0.0,0.0
1.369,6641.169,0.00015,0.0,0.0
1.375,6605.494,0.00015,0.0,0.0
1.381,6557.592,0.00015,0.0,0.0
1.388,6604.298,0.00015,0.0,0.0
1.394,6576.059,0.00015,0.0,0.0
1.4,6581.355,0.00015,0.0,0.0
1.407,6555.0,0.00015,0.0,0.0
1.413,6583.924,0.00015,0.0,0.0
1.419,6554.683,0.00015,0.0,0.0
1.426,6601.523,0.00015,0.0,0.0
1.432,6547.084,0.00015,0.0,0.0
1.438,6592.623,0.00015,0.0,0.0
1.445,6543.914,0.00015,0.0,0.0
1.451,6570.842,0.00015,0.0,0.0
1.457,6541.44,0.00015,0.0,0.0
1.464,6593.199,0.00015,0.0,0.0
1.47,6563.483,0.00015,0.0,0.0
1.476,6545.001,0.00015,0.0,0.0
1.483,6614.478,0.00015,0.0,0.0
1.489,6562.808,0.00015,0.0,0.0
1.495,6609.634,0.00015,0.0,0.0
1.502,6586.584,0.00015,0.0,0.0
1.508,6596.282,0.00015,0.0,0.0
1.514,6581.802,0.00015,0.0,0.0
1.52,6578.445,0.00015,0.0,0.0
1.527,6651.522,0.00015,0.0,0.0
1.533,6649.585,0.00015,0.0,0.0
1.539,6626.505,0.00015,0.0,0.0
1.546,6621.927,0.00015,0.0,0.0
1.552,6662.582,0.00015,0.0,0.0
1.558,6653.185,0.00015,0.0,0.0
1.565,6701.984,0.00015,0.0,0.0
1.571,6702.191,0.00015,0.0,0.0
1.577,6672.262,0.00015,0.0,0.0
1.584,6702.674,0.00015,0.0,0.0
1.59,6718.889,0.00015,0.0,0.0
1.596,6688.838,0.00015,0.0,0.0
1.603,6802.376,0.00015,0.0,0.0
1.609,6696.855,0.00015,0.0,0.0
1.615,6783.105,0.00015,0.0,0.0
1.622,6775.155,0.00015,0.0,0.0
1.628,6783.537,0.00015,0.0,0.0
1.634,6823.692,0.00015,0.0,0.0
1.641,6798.814,0.00015,0.0,0.0
1.647,6834.357,0.00015,0.0,0.0
1.653,6877.397,0.00015,0.0,0.0
1.66,6890.121,0.00015,0.0,0.0
1.666,6935.99,0.00014,0.0,0.0
1.672,6925.548,0.00014,0.0,0.0
1.678,6913.52,0.00014,0.0,0.0
1.685,6987.992,0.00014,0.0,0.0
1.691,6956.665,0.00014,0.0,0.0
1.697,7007.835,0.00014,0.0,0.0
1.704,7003.681,0.00014,0.0,0.0
1.71,6981.185,0.00014,0.0,0.0
1.716,7054.109,0.00014,0.0,0.0
1.723,7074.667,0.00014,0.0,0.0
1.729,7051.752,0.00014,0.0,0.0
1.735,7099.578,0.00014,0.0,0.0
1.742,7087.381,0.00014,0.0,0.0
1.748,7104.034,0.00014,0.0,0.0
1.754,7120.466,0.00014,0.0,0.0
1.761,7152.451,0.00014,0.0,0.0
1.767,7147.086,0.00014,0.0,0.0
1.773,7164.548,0.00014,0.0,0.0
1.78,7192.122,0.00014,0.0,0.0
1.786,7221.024,0.00014,0.0,0.0
1.792,7202.918,0.00014,0.0,0.0
1.799,7235.751,0.00014,0.0,0.0
1.805,7230.11,0.00014,0.0,0.0
1.811,7216.795,0.00014,0.0,0.0
1.818,7252.904,0.00014,0.0,0.0
1.824,7245.061,0.00014,0.0,0.0
1.83,7298.384,0.00014,0.0,0.0
1.836,7270.464,0.00014,0.0,0.0
1.843,7306.008,0.00014,0.0,0.0
1.849,7280.629,0.00014,0.0,0.0
1.855,7308.503,0.00014,0.0,0.0
1.862,7314.283,0.00014,0.0,0.0
1.868,7350.339,0.00014,0.0,0.0
1.874,7318.587,0.00014,0.0,0.0
1.881,7325.661,0.00014,0.0,0.0
1.887,7290.792,0.00014,0.0,0.0
1.893,7335.402,0.00014,0.0,0.0
1.9,7346.942,0.00014,0.0,0.0
1.906,7345.65,0.00014,0.0,0.0
1.912,7364.098,0.00014,0.0,0.0
1.919,7348.199,0.00014,0.0,0.0
1.925,7370.636,0.00014,0.0,0.0
1.931,7402.912,0.00014,0.0,0.0
1.938,7389.795,0.00014,0.0,0.0
1.944,7350.617,0.00014,0.0,0.0
1.95,7381.535,0.00014,0.0,0.0
1.957,7376.215,0.00014,0.0,0.0
1.963,7370.029,0.00014,0.0,0.0
1.969,7375.409,0.00014,0.0,0.0
1.976,7395.348,0.00014,0.0,0.0
1.982,7436.222,0.00013,0.0,0.0
1.988,7435.441,0.00013,0.0,0.0
1.994,7424.385,0.00013,0.0,0.0
2.001,7442.295,0.00013,0.0,0.0
2.007,7452.125,0.00013,0.0,0.0
2.013,7416.795,0.00013,0.0,0.0
2.02,7443.857,0.00013,0.0,0.0
2.026,7466.733,0.00013,0.0,0.0
2.032,7522.277,0.00013,0.0,0.0
2.039,7493.284,0.00013,0.0,0.0
2.045,7494.69,0.00013,0.0,0.0
2.051,7549.644,0.00013,0.0,0.0
2.058,7538.6,0.00013,0.0,0.0
2.064,7549.092,0.00013,0.0,0.0
2.07,7594.133,0.00013,0.0,0.0
2.077,7590.66,0.00013,0.0,0.0
2.083,7596.846,0.00013,0.0,0.0
2.089,7613.043,0.00013,0.0,0.0
2.096,7606.424,0.00013,0.0,0.0
2.102,7633.168,0.00013,0.0,0.0
2.108,7642.35,0.00013,0.0,0.0
2.115,7661.347,0.00013,0.0,0.0
2.121,7681.677,0.00013,0.0,0.0
2.127,7688.9,0.00013,0.0,0.0
2.134,7694.281,0.00013,0.0,0.0
2.14,7726.246,0.00013,0.0,0.0
2.146,7757.479,0.00013,0.0,0.0
2.152,7758.137,0.00013,0.0,0.0
2.159,7785.215,0.00013,0.0,0.0
2.165,7816.334,0.00013,0.0,0.0
2.171,7820.857,0.00013,0.0,0.0
2.178,7871.971,0.00013,0.0,0.0
2.184,7900.902,0.00013,0.0,0.0
2.19,7917.941,0.00013,0.0,0.0
2.197,7941.373,0.00013,0.0,0.0
2.203,7956.018,0.00013,0.0,0.0
2.209,7997.21,0.00013,0.0,0.0
2.216,8002.226,0.00012,0.0,0.0
2.222,8022.427,0.00012,0.0,0.0
2.228,8069.84,0.00012,0.0,0.0
2.235,8054.243,0.00012,0.0,0.0
2.241,8073.903,0.00012,0.0,0.0
2.247,8109.465,0.00012,0.0,0.0
2.254,8140.093,0.00012,0.0,0.0
2.26,8171.597,0.00012,0.0,0.0
2.266,8221.857,0.00012,0.0,0.0
2.273,8265.466,0.00012,0.0,0.0
2.279,8250.804,0.00012,0.0,0.0
2.285,8300.352,0.00012,0.0,0.0
2.292,8341.508,0.00012,0.0,0.0
2.298,8389.476,0.00012,0.0,0.0
2.304,8390.237,0.00012,0.0,0.0
2.31,8431.839,0.00012,0.0,0.0
2.317,8469.352,0.00012,0.0,0.0
2.323,8488.758,0.00012,0.0,0.0
2.329,8538.857,0.00012,0.0,0.0
2.336,8599.089,0.00012,0.0,0.0
2.342,8645.086,0.00012,0.0,0.0
2.348,8632.024,0.00012,0.0,0.0
2.355,8720.526,0.00011,0.0,0.0
2.361,8744.826,0.00011,0.0,0.0
2.367,8788.942,0.00011,0.0,0.0
2.374,8802.871,0.00011,0.0,0.0
2.38,8879.153,0.00011,0.0,0.0
2.386,8940.299,0.00011,0.0,0.0
2.393,8974.133,0.00011,0.0,0.0
2.399,8997.038,0.00011,0.0,0.0
2.405,9082.987,0.00011,0.0,0.0
2.412,9111.569,0.00011,0.0,0.0
2.418,9209.953,0.00011,0.0,0.0
2.424,9265.177,0.00011,0.0,0.0
2.431,9294.31,0.00011,0.0,0.0
2.437,9360.138,0.00011,0.0,0.0
2.443,9420.635,0.00011,0.0,0.0
2.45,9519.741,0.00011,0.0,0.0
2.456,9572.086,0.0001,0.0,0.0
2.462,9672.696,0.0001,0.0,0.0
2.468,9718.487,0.0001,0.0,0.0
2.475,9897.545,0.0001,0.0,0.0
2.481,9906.204,0.0001,0.0,0.0
2.487,9981.178,0.0001,0.0,0.0
2.494,10131.728,0.0001,0.0,0.0
2.5,10149.135,0.0001,0.0,0.0
2.506,10311.497,0.0001,0.0,0.0
2.513,10304.712,0.0001,0.0,0.0
2.519,10394.219,0.0001,0.0,0.0
2.525,10547.672,0.00009,0.0,0.0
2.532,10493.741,0.0001,0.0,0.0
2.538,10589.941,0.00009,0.0,0.0
2.544,10651.008,0.00009,0.0,0.0
2.551,10598.985,0.00009,0.0,0.0
2.557,10682.937,0.00009,0.0,0.0
2.563,10639.478,0.00009,0.0,0.0
2.57,10628.45,0.00009,0.0,0.0
2.576,10661.053,0.00009,0.0,0.0
2.582,10586.639,0.00009,0.0,0.0
2.589,10604.445,0.00009,0.0,0.0
2.595,10655.048,0.00009,0.0,0.0
2.601,10609.001,0.00009,0.0,0.0
2.608,10637.615,0.00009,0.0,0.0
2.614,10609.139,0.00009,0.0,0.0
2.62,10579.233,0.00009,0.0,0.0
2.626,10648.869,0.00009,0.0,0.0
2.633,10668.624,0.00009,0.0,0.0
2.639,10660.836,0.00009,0.0,0.0
2.645,10720.205,0.00009,0.0,0.0
2.652,10742.515,0.00009,0.0,0.0
2.658,10796.843,0.00009,0.0,0.0
2.664,10831.616,0.00009,0.0,0.0
2.671,10862.048,0.00009,0.0,0.0
2.677,10908.972,0.00009,0.0,0.0
2.683,10895.021,0.00009,0.0,0.0
2.69,10972.106,0.00009,0.0,0.0
2.696,11035.95,0.00009,0.0,0.0
2.702,11074.343,0.00009,0.0,0.0
2.709,11155.446,0.00009,0.0,0.0
2.715,11203.299,0.00009,0.0,0.0
2.721,11255.042,0.00009,0.0,0.0
2.728,11306.651,0.00009,0.0,0.0
2.734,11333.585,0.00009,0.0,0.0
2.74,11410.834,0.00009,0.0,0.0
2.747,11440.452,0.00009,0.0,0.0
2.753,11465.839,0.00009,0.0,0.0
2.759,11570.739,0.00009,0.0,0.0
2.766,11555.139,0.00009,0.0,0.0
2.772,11583.506,0.00009,0.0,0.0
2.778,11649.695,0.00009,0.0,0.0
2.784,11662.682,0.00009,0.0,0.0
2.791,11722.316,0.00009,0.0,0.0
2.797,11787.139,0.00008,0.0,0.0
2.803,11782.759,0.00008,0.0,0.0
2.81,11873.727,0.00008,0.0,0.0
2.816,11877.6,0.00008,0.0,0.0
2.822,11919.917,0.00008,0.0,0.0
2.829,11973.706,0.00008,0.0,0.0
2.835,12030.464,0.00008,0.0,0.0
2.841,12041.783,0.00008,0.0,0.0
2.848,12101.743,0.00008,0.0,0.0
2.854,12124.764,0.00008,0.0,0.0
2.86,12163.583,0.00008,0.0,0.0
2.867,12232.943,0.00008,0.0,0.0
2.873,12220.035,0.00008,0.0,0.0
2.879,12286.509,0.00008,0.0,0.0
2.886,12347.684,0.00008,0.0,0.0
2.892,12348.302,0.00008,0.0,0.0
2.898,12426.363,0.00008,0.0,0.0
2.905,12451.793,0.00008,0.0,0.0
2.911,12526.334,0.00008,0.0,0.0
2.917,12536.509,0.00008,0.0,0.0
2.924,12581.043,0.00008,0.0,0.0
2.93,12632.549,0.00008,0.0,0.0
2.936,12681.057,0.00008,0.0,0.0
2.942,12684.104,0.00008,0.0,0.0
2.949,12745.915,0.00008,0.0,0.0
2.955,12767.019,0.00008,0.0,0.0
2.961,12825.485,0.00008,0.0,0.0
2.968,12833.665,0.00008,0.0,0.0
2.974,12863.264,0.00008,0.0,0.0
2.98,12917.439,0.00008,0.0,0.0
2.987,12933.451,0.00008,0.0,0.0
2.993,12942.389,0.00008,0.0,0.0
2.999,13003.142,0.00008,0.0,0.0
3.006,13012.582,0.00008,0.0,0.0
3.012,13029.274,0.00008,0.0,0.0
3.018,13030.628,0.00008,0.0,0.0
3.025,13055.575,0.00008,0.0,0.0
3.031,13072.337,0.00008,0.0,0.0
3.037,13072.179,0.00008,0.0,0.0
3.044,13094.055,0.00008,0.0,0.0
3.05,13132.583,0.00008,0.0,0.0
3.056,13127.942,0.00008,0.0,0.0
3.063,13146.604,0.00008,0.0,0.0
3.069,13157.373,0.00008,0.0,0.0
3.075,13138.399,0.00008,0.0,0.0
3.082,13152.881,0.00008,0.0,0.0
3.088,13164.067,0.00008,0.0,0.0
3.094,13137.507,0.00008,0.0,0.0
3.1,13132.017,0.00008,0.0,0.0
3.107,13163.041,0.00008,0.0,0.0
3.113,13118.784,0.00008,0.0,0.0
3.119,13134.83,0.00008,0.0,0.0
3.126,13107.997,0.00008,0.0,0.0
3.132,13130.086,0.00008,0.0,0.0
3.138,13099.699,0.00008,0.0,0.0
3.145,13097.381,0.00008,0.0,0.0
3.151,13074.042,0.00008,0.0,0.0
3.157,13076.31,0.00008,0.0,0.0
3.164,13031.918,0.00008,0.0,0.0
3.17,13048.642,0.00008,0.0,0.0
3.176,12976.718,0.00008,0.0,0.0
3.183,12962.013,0.00008,0.0,0.0
3.189,12944.422,0.00008,0.0,0.0
3.195,12905.443,0.00008,0.0,0.0
3.202,12912.95,0.00008,0.0,0.0
3.208,12829.395,0.00008,0.0,0.0
3.214,12828.889,0.00008,0.0,0.0
3.221,12794.917,0.00008,0.0,0.0
3.227,12777.689,0.00008,0.0,0.0
3.233,12763.643,0.00008,0.0,0.0
3.24,12719.507,0.00008,0.0,0.0
3.246,12693.758,0.00008,0.0,0.0
3.252,12682.101,0.00008,0.0,0.0
3.258,12630.186,0.00008,0.0,0.0
3.265,12630.558,0.00008,0.0,0.0
3.271,12582.874,0.00008,0.0,0.0
3.277,12523.165,0.00008,0.0,0.0
3.284,12504.783,0.00008,0.0,0.0
3.29,12458.297,0.00008,0.0,0.0
3.296,12431.732,0.00008,0.0,0.0
3.303,12427.393,0.00008,0.0,0.0
3.309,12376.061,0.00008,0.0,0.0
3.315,12347.842,0.00008,0.0,0.0
3.322,12304.008,0.00008,0.0,0.0
3.328,12234.678,0.00008,0.0,0.0
3.334,12232.585,0.00008,0.0,0.0
3.341,12201.355,0.00008,0.0,0.0
3.347,12166.207,0.00008,0.0,0.0
3.353,12135.306,0.00008,0.0,0.0
3.36,12056.589,0.00008,0.0,0.0
3.366,12099.161,0.00008,0.0,0.0
3.372,12029.006,0.00008,0.0,0.0
3.379,11989.894,0.00008,0.0,0.0
3.385,11955.653,0.00008,0.0,0.0
3.391,11940.541,0.00008,0.0,0.0
3.398,11887.59,0.00008,0.0,0.0
3.404,11852.282,0.00008,0.0,0.0
3.41,11833.52,0.00008,0.0,0.0
3.416,11769.807,0.00008,0.0,0.0
3.423,11786.073,0.00008,0.0,0.0
3.429,11712.129,0.00009,0.0,0.0
3.435,11671.923,0.00009,0.0,0.0
3.442,11661.543,0.00009,0.0,0.0
3.448,11598.14,0.00009,0.0,0.0
3.454,11610.45,0.00009,0.0,0.0
3.461,11541.602,0.00009,0.0,0.0
3.467,11529.811,0.00009,0.0,0.0
3.473,11482.269,0.00009,0.0,0.0
3.48,11446.726,0.00009,0.0,0.0
3.486,11413.067,0.00009,0.0,0.0
3.492,11408.164,0.00009,0.0,0.0
3.499,11361.683,0.00009,0.0,0.0
3.505,11337.739,0.00009,0.0,0.0
3.511,11282.833,0.00009,0.0,0.0
3.518,11272.862,0.00009,0.0,0.0
3.524,11245.445,0.00009,0.0,0.0
3.53,11193.841,0.00009,0.0,0.0
3.537,11208.254,0.00009,0.0,0.0
3.543,11143.239,0.00009,0.0,0.0
3.549,11148.404,0.00009,0.0,0.0
3.556,11095.173,0.00009,0.0,0.0
3.562,11063.191,0.00009,0.0,0.0
3.568,11055.501,0.00009,0.0,0.0
3.574,11030.048,0.00009,0.0,0.0
3.581,11009.655,0.00009,0.0,0.0
3.587,10980.822,0.00009,0.0,0.0
3.593,10950.488,0.00009,0.0,0.0
3.6,10938.139,0.00009,0.0,0.0
3.606,10953.43,0.00009,0.0,0.0
3.612,10920.618,0.00009,0.0,0.0
3.619,10901.523,0.00009,0.0,0.0
3.625,10877.902,0.00009,0.0,0.0
3.631,10845.538,0.00009,0.0,0.0
3.638,10826.877,0.00009,0.0,0.0
3.644,10828.123,0.00009,0.0,0.0
3.65,10789.43,0.00009,0.0,0.0
3.657,10802.196,0.00009,0.0,0.0
3.663,10773.764,0.00009,0.0,0.0
3.669,10744.84,0.00009,0.0,0.0
3.676,10743.036,0.00009,0.0,0.0
3.682,10734.952,0.00009,0.0,0.0
3.688,10724.7,0.00009,0.0,0.0
3.695,10707.261,0.00009,0.0,0.0
3.701,10732.661,0.00009,0.0,0.0
3.707,10684.604,0.00009,0.0,0.0
3.714,10668.903,0.00009,0.0,0.0
3.72,10659.474,0.00009,0.0,0.0
3.726,10639.9,0.00009,0.0,0.0
3.732,10656.393,0.00009,0.0,0.0
3.739,10649.59,0.00009,0.0,0.0
3.745,10618.162,0.00009,0.0,0.0
3.751,10636.049,0.00009,0.0,0.0
3.758,10595.58,0.00009,0.0,0.0
3.764,10585.414,0.00009,0.0,0.0
3.77,10584.196,0.00009,0.0,0.0
3.777,10600.965,0.00009,0.0,0.0
3.783,10553.233,0.00009,0.0,0.0
3.789,10592.586,0.00009,0.0,0.0
3.796,10544.417,0.00009,0.0,0.0
3.802,10543.408,0.00009,0.0,0.0
3.808,10571.218,0.00009,0.0,0.0
3.815,10540.664,0.00009,0.0,0.0
3.821,10537.105,0.00009,0.0,0.0
3.827,10543.907,0.00009,0.0,0.0
3.834,10478.969,0.0001,0.0,0.0
3.84,10505.584,0.0001,0.0,0.0
3.846,10476.521,0.0001,0.0,0.0
3.853,10454.94,0.0001,0.0,0.0
3.859,10463.719,0.0001,0.0,0.0
3.865,10392.388,0.0001,0.0,0.0
3.872,10412.91,0.0001,0.0,0.0
3.878,10355.789,0.0001,0.0,0.0
3.884,10341.873,0.0001,0.0,0.0
3.89,10342.92,0.0001,0.0,0.0
3.897,10311.231,0.0001,0.0,0.0
3.903,10268.793,0.0001,0.0,0.0
3.909,10279.964,0.0001,0.0,0.0
3.916,10226.938,0.0001,0.0,0.0
3.922,10190.712,0.0001,0.0,0.0
3.928,10189.706,0.0001,0.0,0.0
3.935,10141.526,0.0001,0.0,0.0
3.941,10151.593,0.0001,0.0,0.0
3.947,10064.808,0.0001,0.0,0.0
3.954,10057.77,0.0001,0.0,0.0
3.96,10069.806,0.0001,0.0,0.0
3.966,10030.86,0.0001,0.0,0.0
3.973,10002.766,0.0001,0.0,0.0
3.979,9979.297,0.0001,0.0,0.0
3.985,9967.18,0.0001,0.0,0.0
3.992,9926.965,0.0001,0.0,0.0
3.998,9892.144,0.0001,0.0,0.0
4.004,9878.399,0.0001,0.0,0.0
4.011,9890.938,0.0001,0.0,0.0
4.017,9838.779,0.0001,0.0,0.0
4.023,9796.337,0.0001,0.0,0.0
4.03,9817.364,0.0001,0.0,0.0
4.036,9746.768,0.0001,0.0,0.0
4.042,9779.168,0.0001,0.0,0.0
4.048,9690.573,0.0001,0.0,0.0
4.055,9717.637,0.0001,0.0,0.0
4.061,9694.354,0.0001,0.0,0.0
4.067,9667.036,0.0001,0.0,0.0
4.074,9654.658,0.0001,0.0,0.0
4.08,9643.998,0.0001,0.0,0.0
4.086,9646.164,0.0001,0.0,0.0
4.093,9668.192,0.0001,0.0,0.0
4.099,9597.61,0.0001,0.0,0.0
4.105,9584.56,0.0001,0.0,0.0
4.112,9629.321,0.0001,0.0,0.0
4.118,9521.897,0.00011,0.0,0.0
4.124,9572.104,0.0001,0.0,0.0
4.131,9569.8,0.0001,0.0,0.0
4.137,9546.408,0.0001,0.0,0.0
4.143,9529.559,0.0001,0.0,0.0
4.15,9476.556,0.00011,0.0,0.0
4.156,9504.6,0.00011,0.0,0.0
4.162,9511.48,0.00011,0.0,0.0
4.169,9496.576,0.00011,0.0,0.0
4.175,9507.671,0.00011,0.0,0.0
4.181,9464.929,0.00011,0.0,0.0
4.188,9431.817,0.00011,0.0,0.0
4.194,9491.899,0.00011,0.0,0.0
4.2,9449.005,0.00011,0.0,0.0
4.206,9471.233,0.00011,0.0,0.0
4.213,9490.589,0.00011,0.0,0.0
4.219,9440.005,0.00011,0.0,0.0
4.225,9422.534,0.00011,0.0,0.0
4.232,9435.118,0.00011,0.0,0.0
4.238,9392.985,0.00011,0.0,0.0
4.244,9468.254,0.00011,0.0,0.0
4.251,9424.57,0.00011,0.0,0.0
4.257,9403.753,0.00011,0.0,0.0
4.263,9438.411,0.00011,0.0,0.0
4.27,9430.838,0.00011,0.0,0.0
4.276,9395.693,0.00011,0.0,0.0
4.282,9442.686,0.00011,0.0,0.0
4.289,9416.982,0.00011,0.0,0.0
4.295,9437.193,0.00011,0.0,0.0
4.301,9356.993,0.00011,0.0,0.0
4.308,9414.622,0.00011,0.0,0.0
4.314,9387.372,0.00011,0.0,0.0
4.32,9338.445,0.00011,0.0,0.0
4.327,9437.586,0.00011,0.0,0.0
4.333,9391.758,0.00011,0.0,0.0
4.339,9401.467,0.00011,0.0,0.0
4.346,9482.043,0.00011,0.0,0.0
4.352,9386.626,0.00011,0.0,0.0
4.358,9399.107,0.00011,0.0,0.0
4.364,9460.991,0.00011,0.0,0.0
4.371,9463.381,0.00011,0.0,0.0
4.377,9459.278,0.00011,0.0,0.0
4.383,9394.097,0.00011,0.0,0.0
4.39,9404.063,0.00011,0.0,0.0
4.396,9506.384,0.00011,0.0,0.0
4.402,9512.022,0.00011,0.0,0.0
4.409,9543.771,0.0001,0.0,0.0
4.415,9591.311,0.0001,0.0,0.0
4.421,9513.908,0.00011,0.0,0.0
4.428,9658.348,0.0001,0.0,0.0
4.434,9481.217,0.00011,0.0,0.0
4.44,9646.329,0.0001,0.0,0.0
4.447,9826.155,0.0001,0.0,0.0
4.453,9691.512,0.0001,0.0,0.0
4.459,9791.156,0.0001,0.0,0.0
4.466,9792.871,0.0001,0.0,0.0
4.472,9830.675,0.0001,0.0,0.0
4.478,10012.882,0.0001,0.0,0.0
4.485,10055.621,0.0001,0.0,0.0
4.491,10096.206,0.0001,0.0,0.0
4.497,10381.84,0.0001,0.0,0.0
4.504,10116.373,0.0001,0.0,0.0
4.51,10585.329,0.00009,0.0,0.0
4.516,10558.893,0.00009,0.0,0.0
4.522,11041.147,0.00009,0.0,0.0
4.529,11470.772,0.00009,0.0,0.0
4.535,11787.011,0.00008,0.0,0.0
4.541,13360.188,0.00007,0.0,0.0
4.548,14691.396,0.00007,0.0,0.0
4.554,15744.48,0.00006,0.0,0.0
4.56,16958.908,0.00006,0.0,0.0
4.567,16868.665,0.00006,0.0,0.0
4.573,15507.575,0.00006,0.0,0.0
4.579,13178.856,0.00008,0.0,0.0
4.586,11949.876,0.00008,0.0,0.0
4.592,11661.737,0.00009,0.0,0.0
4.598,10933.165,0.00009,0.0,0.0
4.605,10640.242,0.00009,0.0,0.0
4.611,10696.888,0.00009,0.0,0.0
4.617,10451.534,0.0001,0.0,0.0
4.624,10048.123,0.0001,0.0,0.0
4.63,10142.537,0.0001,0.0,0.0
4.636,9964.349,0.0001,0.0,0.0
4.643,9849.984,0.0001,0.0,0.0
4.649,9972.884,0.0001,0.0,0.0
4.655,9525.047,0.0001,0.0,0.0
4.662,9601.29,0.0001,0.0,0.0
4.668,9476.635,0.00011,0.0,0.0
4.674,9337.916,0.00011,0.0,0.0
4.68,9488.008,0.00011,0.0,0.0
4.687,9248.313,0.00011,0.0,0.0
4.693,9194.963,0.00011,0.0,0.0
4.699,9288.95,0.00011,0.0,0.0
4.706,8924.217,0.00011,0.0,0.0
4.712,9125.619,0.00011,0.0,0.0
4.718,9000.96,0.00011,0.0,0.0
4.725,8932.439,0.00011,0.0,0.0
4.731,9038.808,0.00011,0.0,0.0
4.737,8790.736,0.00011,0.0,0.0
4.744,8806.392,0.00011,0.0,0.0
4.75,8829.098,0.00011,0.0,0.0
4.756,8662.921,0.00012,0.0,0.0
4.763,8800.383,0.00011,0.0,0.0
4.769,8690.946,0.00012,0.0,0.0
4.775,8564.025,0.00012,0.0,0.0
4.782,8723.829,0.00011,0.0,0.0
4.788,8470.418,0.00012,0.0,0.0
4.794,8533.557,0.00012,0.0,0.0
4.801,8523.665,0.00012,0.0,0.0
4.807,8433.606,0.00012,0.0,0.0
4.813,8499.644,0.00012,0.0,0.0
4.82,8425.189,0.00012,0.0,0.0
4.826,8321.169,0.00012,0.0,0.0
4.832,8402.191,0.00012,0.0,0.0
4.838,8300.583,0.00012,0.0,0.0
4.845,8327.255,0.00012,0.0,0.0
4.851,8373.027,0.00012,0.0,0.0
4.857,8209.42,0.00012,0.0,0.0
4.864,8345.264,0.00012,0.0,0.0
4.87,8168.551,0.00012,0.0,0.0
4.876,8237.455,0.00012,0.0,0.0
4.883,8211.972,0.00012,0.0,0.0
4.889,8161.004,0.00012,0.0,0.0
4.895,8116.81,0.00012,0.0,0.0
4.902,8128.142,0.00012,0.0,0.0
4.908,8017.751,0.00012,0.0,0.0
4.914,8051.974,0.00012,0.0,0.0
4.921,8012.091,0.00012,0.0,0.0
4.927,7970.547,0.00013,0.0,0.0
4.933,7985.344,0.00013,0.0,0.0
4.94,7860.031,0.00013,0.0,0.0
4.946,7906.325,0.00013,0.0,0.0
4.952,7849.187,0.00013,0.0,0.0
4.959,7860.082,0.00013,0.0,0.0
4.965,7836.137,0.00013,0.0,0.0
4.971,7810.849,0.00013,0.0,0.0
4.978,7752.269,0.00013,0.0,0.0
4.984,7765.232,0.00013,0.0,0.0
4.99,7708.574,0.00013,0.0,0.0
4.996,7726.737,0.00013,0.0,0.0
5.003,7688.978,0.00013,0.0,0.0
5.009,7662.723,0.00013,0.0,0.0
5.015,7669.641,0.00013,0.0,0.0
5.022,7640.326,0.00013,0.0,0.0
5.028,7599.525,0.00013,0.0,0.0
5.034,7601.485,0.00013,0.0,0.0
5.041,7588.812,0.00013,0.0,0.0
5.047,7600.924,0.00013,0.0,0.0
5.053,7538.638,0.00013,0.0,0.0
5.06,7508.485,0.00013,0.0,0.0
5.066,7539.509,0.00013,0.0,0.0
5.072,7471.079,0.00013,0.0,0.0
5.079,7481.427,0.00013,0.0,0.0
5.085,7463.579,0.00013,0.0,0.0
5.091,7461.165,0.00013,0.0,0.0
5.098,7412.213,0.00013,0.0,0.0
5.104,7426.37,0.00013,0.0,0.0
5.11,7384.85,0.00014,0.0,0.0
5.117,7396.078,0.00014,0.0,0.0
5.123,7361.019,0.00014,0.0,0.0
5.129,7343.78,0.00014,0.0,0.0
5.136,7340.776,0.00014,0.0,0.0
5.142,7287.329,0.00014,0.0,0.0
5.148,7323.752,0.00014,0.0,0.0
5.154,7261.354,0.00014,0.0,0.0
5.161,7256.357,0.00014,0.0,0.0
5.167,7213.471,0.00014,0.0,0.0
5.173,7197.284,0.00014,0.0,0.0
5.18,7178.643,0.00014,0.0,0.0
5.186,7166.749,0.00014,0.0,0.0
5.192,7120.772,0.00014,0.0,0.0
5.199,7118.242,0.00014,0.0,0.0
5.205,7105.821,0.00014,0.0,0.0
5.211,7097.809,0.00014,0.0,0.0
5.218,7075.625,0.00014,0.0,0.0
5.224,7066.065,0.00014,0.0,0.0
5.23,7032.24,0.00014,0.0,0.0
5.237,7001.829,0.00014,0.0,0.0
5.243,7007.607,0.00014,0.0,0.0
5.249,6954.016,0.00014,0.0,0.0
5.256,6983.516,0.00014,0.0,0.0
5.262,6967.1,0.00014,0.0,0.0
5.268,6932.322,0.00014,0.0,0.0
5.275,6931.03,0.00014,0.0,0.0
5.281,6918.517,0.00014,0.0,0.0
5.287,6916.573,0.00014,0.0,0.0
5.294,6889.12,0.00015,0.0,0.0
5.3,6879.441,0.00015,0.0,0.0
5.306,6858.024,0.00015,0.0,0.0
5.312,6881.58,0.00015,0.0,0.0
5.319,6817.393,0.00015,0.0,0.0
5.325,6839.644,0.00015,0.0,0.0
5.331,6813.225,0.00015,0.0,0.0
5.338,6803.325,0.00015,0.0,0.0
5.344,6821.206,0.00015,0.0,0.0
5.35,6788.858,0.00015,0.0,0.0
5.357,6793.746,0.00015,0.0,0.0
5.363,6785.441,0.00015,0.0,0.0
5.369,6746.444,0.00015,0.0,0.0
5.376,6792.809,0.00015,0.0,0.0
5.382,6759.076,0.00015,0.0,0.0
5.388,6731.811,0.00015,0.0,0.0
5.395,6752.357,0.00015,0.0,0.0
5.401,6710.193,0.00015,0.0,0.0
5.407,6746.997,0.00015,0.0,0.0
5.414,6717.736,0.00015,0.0,0.0
5.42,6716.807,0.00015,0.0,0.0
5.426,6727.147,0.00015,0.0,0.0
5.433,6723.044,0.00015,0.0,0.0
5.439,6704.04,0.00015,0.0,0.0
5.445,6700.382,0.00015,0.0,0.0
5.452,6655.289,0.00015,0.0,0.0
5.458,6713.065,0.00015,0.0,0.0
5.464,6665.814,0.00015,0.0,0.0
5.47,6671.763,0.00015,0.0,0.0
5.477,6699.484,0.00015,0.0,0.0
5.483,6643.577,0.00015,0.0,0.0
5.489,6648.171,0.00015,0.0,0.0
5.496,6688.269,0.00015,0.0,0.0
5.502,6636.38,0.00015,0.0,0.0
5.508,6674.632,0.00015,0.0,0.0
5.515,6635.002,0.00015,0.0,0.0
5.521,6623.806,0.00015,0.0,0.0
5.527,6644.201,0.00015,0.0,0.0
5.534,6593.466,0.00015,0.0,0.0
5.54,6636.08,0.00015,0.0,0.0
5.546,6616.048,0.00015,0.0,0.0
5.553,6586.925,0.00015,0.0,0.0
5.559,6646.977,0.00015,0.0,0.0
5.565,6579.223,0.00015,0.0,0.0
5.572,6581.716,0.00015,0.0,0.0
5.578,6604.504,0.00015,0.0,0.0
5.584,6571.097,0.00015,0.0,0.0
5.591,6579.821,0.00015,0.0,0.0
5.597,6580.419,0.00015,0.0,0.0
5.603,6517.051,0.00015,0.0,0.0
5.61,6567.066,0.00015,0.0,0.0
5.616,6527.435,0.00015,0.0,0.0
5.622,6542.338,0.00015,0.0,0.0
5.628,6542.196,0.00015,0.0,0.0
5.635,6483.772,0.00015,0.0,0.0
5.641,6540.329,0.00015,0.0,0.0
5.647,6513.271,0.00015,0.0,0.0
5.654,6467.006,0.00015,0.0,0.0
5.66,6527.235,0.00015,0.0,0.0
5.666,6495.597,0.00015,0.0,0.0
5.673,6477.953,0.00015,0.0,0.0
5.679,6480.783,0.00015,0.0,0.0
5.685,6439.537,0.00016,0.0,0.0
5.692,6464.814,0.00015,0.0,0.0
5.698,6459.431,0.00015,0.0,0.0
5.704,6426.059,0.00016,0.0,0.0
5.711,6476.049,0.00015,0.0,0.0
5.717,6423.833,0.00016,0.0,0.0
5.723,6428.345,0.00016,0.0,0.0
5.73,6453.149,0.00015,0.0,0.0
5.736,6397.961,0.00016,0.0,0.0
5.742,6451.388,0.00016,0.0,0.0
5.749,6404.859,0.00016,0.0,0.0
5.755,6416.167,0.00016,0.0,0.0
5.761,6481.72,0.00015,0.0,0.0
5.768,6401.595,0.00016,0.0,0.0
5.774,6417.207,0.00016,0.0,0.0
5.78,6447.915,0.00016,0.0,0.0
5.786,6402.086,0.00016,0.0,0.0
5.793,6449.313,0.00016,0.0,0.0
5.799,6432.775,0.00016,0.0,0.0
5.805,6414.718,0.00016,0.0,0.0
5.812,6464.169,0.00015,0.0,0.0
5.818,6417.022,0.00016,0.0,0.0
5.824,6471.851,0.00015,0.0,0.0
5.831,6470.721,0.00015,0.0,0.0
5.837,6440.848,0.00016,0.0,0.0
5.843,6532.177,0.00015,0.0,0.0
5.85,6523.188,0.00015,0.0,0.0
5.856,6540.491,0.00015,0.0,0.0
5.862,6665.955,0.00015,0.0,0.0
5.869,6668.402,0.00015,0.0,0.0
5.875,6744.185,0.00015,0.0,0.0
5.881,6756.812,0.00015,0.0,0.0
5.888,6663.418,0.00015,0.0,0.0
5.894,6720.895,0.00015,0.0,0.0
5.9,6591.521,0.00015,0.0,0.0
5.907,6543.348,0.00015,0.0,0.0
5.913,6547.019,0.00015,0.0,0.0
5.919,6439.093,0.00016,0.0,0.0
5.926,6494.262,0.00015,0.0,0.0
5.932,6438.352,0.00016,0.0,0.0
5.938,6388.511,0.00016,0.0,0.0
5.944,6512.164,0.00015,0.0,0.0
5.951,6406.586,0.00016,0.0,0.0
5.957,6435.925,0.00016,0.0,0.0
5.963,6474.803,0.00015,0.0,0.0
5.97,6379.996,0.00016,0.0,0.0
5.976,6463.417,0.00015,0.0,0.0
5.982,6416.836,0.00016,0.0,0.0
5.989,6394.588,0.00016,0.0,0.0
5.995,6497.477,0.00015,0.0,0.0
6.001,6421.091,0.00016,0.0,0.0
6.008,6414.686,0.00016,0.0,0.0
6.014,6474.374,0.00015,0.0,0.0
6.02,6396.583,0.00016,0.0,0.0
6.027,6499.155,0.00015,0.0,0.0
6.033,6428.028,0.00016,0.0,0.0
6.039,6368.871,0.00016,0.0,0.0
6.046,6517.982,0.00015,0.0,0.0
6.052,6395.614,0.00016,0.0,0.0
6.058,6436.325,0.00016,0.0,0.0
6.065,6430.96,0.00016,0.0,0.0
6.071,6368.481,0.00016,0.0,0.0
6.077,6486.38,0.00015,0.0,0.0
6.084,6411.302,0.00016,0.0,0.0
6.09,6381.413,0.00016,0.0,0.0
6.096,6480.113,0.00015,0.0,0.0
6.102,6346.754,0.00016,0.0,0.0
6.109,6431.607,0.00016,0.0,0.0
6.115,6410.772,0.00016,0.0,0.0
6.121,6332.141,0.00016,0.0,0.0
6.128,6463.225,0.00015,0.0,0.0
6.134,6362.826,0.00016,0.0,0.0
6.14,6368.079,0.00016,0.0,0.0
6.147,6443.62,0.00016,0.0,0.0
6.153,6345.591,0.00016,0.0,0.0
6.159,6443.598,0.00016,0.0,0.0
6.166,6391.902,0.00016,0.0,0.0
6.172,6339.324,0.00016,0.0,0.0
6.178,6469.694,0.00015,0.0,0.0
6.185,6351.481,0.00016,0.0,0.0
6.191,6393.644,0.00016,0.0,0.0
6.197,6424.41,0.00016,0.0,0.0
6.204,6342.589,0.00016,0.0,0.0
6.21,6458.507,0.00015,0.0,0.0
6.216,6375.99,0.00016,0.0,0.0
6.223,6334.503,0.00016,0.0,0.0
6.229,6478.195,0.00015,0.0,0.0
6.235,6363.956,0.00016,0.0,0.0
6.242,6427.236,0.00016,0.0,0.0
6.248,6428.647,0.00016,0.0,0.0
6.254,6343.023,0.00016,0.0,0.0
6.26,6450.254,0.00016,0.0,0.0
6.267,6367.692,0.00016,0.0,0.0
6.273,6339.449,0.00016,0.0,0.0
6.279,6451.93,0.00015,0.0,0.0
6.286,6343.509,0.00016,0.0,0.0
6.292,6413.961,0.00016,0.0,0.0
6.298,6405.239,0.00016,0.0,0.0
6.305,6325.649,0.00016,0.0,0.0
6.311,6461.158,0.00015,0.0,0.0
6.317,6365.687,0.00016,0.0,0.0
6.324,6373.618,0.00016,0.0,0.0
6.33,6484.448,0.00015,0.0,0.0
6.336,6387.627,0.00016,0.0,0.0
6.343,6460.018,0.00015,0.0,0.0
6.349,6441.415,0.00016,0.0,0.0
6.355,6410.746,0.00016,0.0,0.0
6.362,6547.943,0.00015,0.0,0.0
6.368,6473.039,0.00015,0.0,0.0
6.374,6519.29,0.00015,0.0,0.0
6.381,6589.406,0.00015,0.0,0.0
6.387,6496.677,0.00015,0.0,0.0
6.393,6619.075,0.00015,0.0,0.0
6.4,6600.751,0.00015,0.0,0.0
6.406,6579.861,0.00015,0.0,0.0
6.412,6724.982,0.00015,0.0,0.0
6.418,6672.29,0.00015,0.0,0.0
6.425,6712.494,0.00015,0.0,0.0
6.431,6803.649,0.00015,0.0,0.0
6.437,6772.533,0.00015,0.0,0.0
6.444,6984.32,0.00014,0.0,0.0
6.45,6985.355,0.00014,0.0,0.0
6.456,7023.799,0.00014,0.0,0.0
6.463,7133.121,0.00014,0.0,0.0
6.469,7085.215,0.00014,0.0,0.0
6.475,7106.232,0.00014,0.0,0.0
6.482,7135.369,0.00014,0.0,0.0
6.488,7109.298,0.00014,0.0,0.0
6.494,7261.281,0.00014,0.0,0.0
6.501,7272.37,0.00014,0.0,0.0
6.507,7271.499,0.00014,0.0,0.0
6.513,7504.622,0.00013,0.0,0.0
6.52,7438.385,0.00013,0.0,0.0
6.526,7662.523,0.00013,0.0,0.0
6.532,7759.739,0.00013,0.0,0.0
6.539,7903.872,0.00013,0.0,0.0
6.545,8267.89,0.00012,0.0,0.0
6.551,8584.055,0.00012,0.0,0.0
6.558,9190.05,0.00011,0.0,0.0
6.564,10394.209,0.0001,0.0,0.0
6.57,12099.673,0.00008,0.0,0.0
6.576,15490.746,0.00006,0.0,0.0
6.583,22153.709,0.00005,0.0,0.0
6.589,34540.075,0.00003,0.0,0.0
6.595,55144.398,0.00002,0.0,0.0
6.602,74335.029,0.00001,0.0,0.0
6.608,97544.995,0.00001,0.0,0.0
6.614,108699.475,0.00001,0.0,0.0
6.621,106266.162,0.00001,0.0,0.0
6.627,78678.928,0.00001,0.0,0.0
6.633,54789.968,0.00002,0.0,0.0
6.64,34222.78,0.00003,0.0,0.0
6.646,21726.385,0.00005,0.0,0.0
6.652,15846.379,0.00006,0.0,0.0
6.659,11964.122,0.00008,0.0,0.0
6.665,9964.583,0.0001,0.0,0.0
6.671,8834.649,0.00011,0.0,0.0
6.678,8233.589,0.00012,0.0,0.0
6.684,7744.805,0.00013,0.0,0.0
6.69,7451.104,0.00013,0.0,0.0
6.697,7338.752,0.00014,0.0,0.0
6.703,7123.018,0.00014,0.0,0.0
6.709,7044.577,0.00014,0.0,0.0
6.716,6951.336,0.00014,0.0,0.0
6.722,6852.732,0.00015,0.0,0.0
6.728,6888.238,0.00015,0.0,0.0
6.734,6790.319,0.00015,0.0,0.0
6.741,6718.393,0.00015,0.0,0.0
6.747,6812.753,0.00015,0.0,0.0
6.753,6690.445,0.00015,0.0,0.0
6.76,6716.513,0.00015,0.0,0.0
6.766,6686.479,0.00015,0.0,0.0
6.772,6626.359,0.00015,0.0,0.0
6.779,6732.036,0.00015,0.0,0.0
6.785,6643.532,0.00015,0.0,0.0
6.791,6649.17,0.00015,0.0,0.0
6.798,6684.72,0.00015,0.0,0.0
6.804,6589.748,0.00015,0.0,0.0
6.81,6674.263,0.00015,0.0,0.0
6.817,6617.558,0.00015,0.0,0.0
6.823,6587.608,0.00015,0.0,0.0
6.829,6681.91,0.00015,0.0,0.0
6.836,6584.379,0.00015,0.0,0.0
6.842,6599.534,0.00015,0.0,0.0
6.848,6608.423,0.00015,0.0,0.0
6.855,6531.3,0.00015,0.0,0.0
6.861,6643.817,0.00015,0.0,0.0
6.867,6585.443,0.00015,0.0,0.0
6.874,6527.117,0.00015,0.0,0.0
6.88,6655.884,0.00015,0.0,0.0
6.886,6549.582,0.00015,0.0,0.0
6.892,6587.118,0.00015,0.0,0.0
6.899,6585.766,0.00015,0.0,0.0
6.905,6556.81,0.00015,0.0,0.0
6.911,6622.164,0.00015,0.0,0.0
6.918,6570.539,0.00015,0.0,0.0
6.924,6543.705,0.00015,0.0,0.0
6.93,6632.105,0.00015,0.0,0.0
6.937,6555.935,0.00015,0.0,0.0
6.943,6594.969,0.00015,0.0,0.0
6.949,6604.985,0.00015,0.0,0.0
6.956,6539.16,0.00015,0.0,0.0
6.962,6625.947,0.00015,0.0,0.0
6.968,6592.989,0.00015,0.0,0.0
6.975,6571.919,0.00015,0.0,0.0
6.981,6617.84,0.00015,0.0,0.0
6.987,6586.946,0.00015,0.0,0.0
6.994,6637.059,0.00015,0.0,0.0
7.0,6598.236,0.00015,0.0,0.0
7.006,6584.094,0.00015,0.0,0.0
7.013,6648.457,0.00015,0.0,0.0
7.019,6592.726,0.00015,0.0,0.0
7.025,6589.878,0.00015,0.0,0.0
7.032,6637.9,0.00015,0.0,0.0
7.038,6587.931,0.00015,0.0,0.0
7.044,6641.579,0.00015,0.0,0.0
7.05,6612.677,0.00015,0.0,0.0
7.057,6578.604,0.00015,0.0,0.0
7.063,6650.512,0.00015,0.0,0.0
7.069,6592.648,0.00015,0.0,0.0
7.076,6621.584,0.00015,0.0,0.0
7.082,6606.258,0.00015,0.0,0.0
7.088,6608.379,0.00015,0.0,0.0
7.095,6654.212,0.00015,0.0,0.0
7.101,6637.226,0.00015,0.0,0.0
7.107,6611.21,0.00015,0.0,0.0
7.114,6652.371,0.00015,0.0,0.0
7.12,6631.241,0.00015,0.0,0.0
7.126,6631.37,0.00015,0.0,0.0
7.133,6626.118,0.00015,0.0,0.0
7.139,6627.252,0.00015,0.0,0.0
7.145,6649.754,0.00015,0.0,0.0
7.152,6640.02,0.00015,0.0,0.0
7.158,6639.084,0.00015,0.0,0.0
7.164,6653.428,0.00015,0.0,0.0
7.171,6645.206,0.00015,0.0,0.0
7.177,6664.866,0.00015,0.0,0.0
7.183,6656.118,0.00015,0.0,0.0
7.19,6627.682,0.00015,0.0,0.0
7.196,6681.027,0.00015,0.0,0.0
7.202,6751.969,0.00015,0.0,0.0
7.208,6650.904,0.00015,0.0,0.0
7.215,6879.263,0.00015,0.0,0.0
7.221,6940.828,0.00014,0.0,0.0
7.227,6680.138,0.00015,0.0,0.0
7.234,7106.598,0.00014,0.0,0.0
7.24,6716.418,0.00015,0.0,0.0
7.246,6703.371,0.00015,0.0,0.0
7.253,6780.424,0.00015,0.0,0.0
7.259,6686.776,0.00015,0.0,0.0
7.265,6698.635,0.00015,0.0,0.0
7.272,6697.816,0.00015,0.0,0.0
7.278,6709.226,0.00015,0.0,0.0
7.284,6736.924,0.00015,0.0,0.0
7.291,6709.816,0.00015,0.0,0.0
7.297,6738.201,0.00015,0.0,0.0
7.303,6741.323,0.00015,0.0,0.0
7.31,6718.513,0.00015,0.0,0.0
7.316,6752.946,0.00015,0.0,0.0
7.322,6740.521,0.00015,0.0,0.0
7.329,6754.351,0.00015,0.0,0.0
7.335,6771.048,0.00015,0.0,0.0
7.341,6752.246,0.00015,0.0,0.0
7.348,6800.576,0.00015,0.0,0.0
7.354,6770.017,0.00015,0.0,0.0
7.36,6795.322,0.00015,0.0,0.0
7.366,6814.134,0.00015,0.0,0.0
7.373,6825.692,0.00015,0.0,0.0
7.379,6818.712,0.00015,0.0,0.0
7.385,6887.928,0.00015,0.0,0.0
7.392,6855.231,0.00015,0.0,0.0
7.398,6888.367,0.00015,0.0,0.0
7.404,6898.397,0.00014,0.0,0.0
7.411,6909.829,0.00014,0.0,0.0
7.417,6952.619,0.00014,0.0,0.0
7.423,6913.272,0.00014,0.0,0.0
7.43,6956.809,0.00014,0.0,0.0
7.436,7009.245,0.00014,0.0,0.0
7.442,7007.296,0.00014,0.0,0.0
7.449,7021.356,0.00014,0.0,0.0
7.455,7029.82,0.00014,0.0,0.0
7.461,7063.373,0.00014,0.0,0.0
7.468,7112.843,0.00014,0.0,0.0
7.474,7110.561,0.00014,0.0,0.0
7.48,7133.646,0.00014,0.0,0.0
7.487,7185.093,0.00014,0.0,0.0
7.493,7156.612,0.00014,0.0,0.0
7.499,7266.177,0.00014,0.0,0.0
7.506,7241.963,0.00014,0.0,0.0
7.512,7264.714,0.00014,0.0,0.0
7.518,7352.216,0.00014,0.0,0.0
7.524,7328.596,0.00014,0.0,0.0
7.531,7378.778,0.00014,0.0,0.0
7.537,7478.751,0.00013,0.0,0.0
7.543,7472.216,0.00013,0.0,0.0
7.55,7612.689,0.00013,0.0,0.0
7.556,7685.907,0.00013,0.0,0.0
7.562,7752.106,0.00013,0.0,0.0
7.569,8012.634,0.00012,0.0,0.0
7.575,8133.669,0.00012,0.0,0.0
7.581,8569.738,0.00012,0.0,0.0
7.588,9066.236,0.00011,0.0,0.0
7.594,10040.282,0.0001,0.0,0.0
7.6,12005.221,0.00008,0.0,0.0
7.607,14978.761,0.00007,0.0,0.0
7.613,20073.757,0.00005,0.0,0.0
7.619,29522.047,0.00003,0.0,0.0
7.626,37566.877,0.00003,0.0,0.0
7.632,48446.99,0.00002,0.0,0.0
7.638,52934.999,0.00002,0.0,0.0
7.645,48688.964,0.00002,0.0,0.0
7.651,43703.174,0.00002,0.0,0.0
7.657,29347.405,0.00003,0.0,0.0
7.664,22120.017,0.00005,0.0,0.0
7.67,15434.482,0.00006,0.0,0.0
7.676,12215.558,0.00008,0.0,0.0
7.682,10706.884,0.00009,0.0,0.0
7.689,9436.461,0.00011,0.0,0.0
7.695,8869.227,0.00011,0.0,0.0
7.701,8670.738,0.00012,0.0,0.0
7.708,8397.004,0.00012,0.0,0.0
7.714,8386.887,0.00012,0.0,0.0
7.72,8287.245,0.00012,0.0,0.0
7.727,8142.209,0.00012,0.0,0.0
7.733,8321.199,0.00012,0.0,0.0
7.739,8184.893,0.00012,0.0,0.0
7.746,8180.812,0.00012,0.0,0.0
7.752,8393.384,0.00012,0.0,0.0
7.758,8242.709,0.00012,0.0,0.0
7.765,8302.484,0.00012,0.0,0.0
7.771,8401.754,0.00012,0.0,0.0
7.777,8370.782,0.00012,0.0,0.0
7.784,8529.671,0.00012,0.0,0.0
7.79,8533.709,0.00012,0.0,0.0
7.796,8546.314,0.00012,0.0,0.0
7.803,8997.915,0.00011,0.0,0.0
7.809,8768.485,0.00011,0.0,0.0
7.815,9096.737,0.00011,0.0,0.0
7.822,9685.412,0.0001,0.0,0.0
7.828,9027.714,0.00011,0.0,0.0
7.834,11466.161,0.00009,0.0,0.0
7.84,10540.83,0.00009,0.0,0.0
7.847,10458.593,0.0001,0.0,0.0
7.853,17197.795,0.00006,0.0,0.0
7.859,10557.476,0.00009,0.0,0.0
7.866,15344.223,0.00007,0.0,0.0
7.872,16858.165,0.00006,0.0,0.0
7.878,12932.942,0.00008,0.0,0.0
7.885,20754.926,0.00005,0.0,0.0
7.891,17750.384,0.00006,0.0,0.0
7.897,17519.032,0.00006,0.0,0.0
7.904,19131.459,0.00005,0.0,0.0
7.91,13217.589,0.00008,0.0,0.0
7.916,18064.95,0.00006,0.0,0.0
7.923,15638.427,0.00006,0.0,0.0
7.929,11161.252,0.00009,0.0,0.0
7.935,15992.501,0.00006,0.0,0.0
7.942,10102.604,0.0001,0.0,0.0
7.948,10771.339,0.00009,0.0,0.0
7.954,10673.69,0.00009,0.0,0.0
7.961,9224.972,0.00011,0.0,0.0
7.967,9968.612,0.0001,0.0,0.0
7.973,9153.139,0.00011,0.0,0.0
7.98,9115.066,0.00011,0.0,0.0
7.986,9314.972,0.00011,0.0,0.0
7.992,8837.517,0.00011,0.0,0.0
7.998,8875.251,0.00011,0.0,0.0
8.005,8820.794,0.00011,0.0,0.0
8.011,8709.544,0.00011,0.0,0.0
8.017,8777.013,0.00011,0.0,0.0
8.024,8498.464,0.00012,0.0,0.0
8.03,8558.09,0.00012,0.0,0.0
8.036,8505.761,0.00012,0.0,0.0
8.043,8338.359,0.00012,0.0,0.0
8.049,8513.001,0.00012,0.0,0.0
8.055,8316.442,0.00012,0.0,0.0
8.062,8277.092,0.00012,0.0,0.0
8.068,8318.031,0.00012,0.0,0.0
8.074,8129.557,0.00012,0.0,0.0
8.081,8256.992,0.00012,0.0,0.0
8.087,8141.114,0.00012,0.0,0.0
8.093,8043.819,0.00012,0.0,0.0
8.1,8210.879,0.00012,0.0,0.0
8.106,7947.885,0.00013,0.0,0.0
8.112,8096.812,0.00012,0.0,0.0
8.119,7983.142,0.00013,0.0,0.0
8.125,7870.951,0.00013,0.0,0.0
8.131,8075.799,0.00012,0.0,0.0
8.138,7926.739,0.00013,0.0,0.0
8.144,7927.967,0.00013,0.0,0.0
8.15,7917.875,0.00013,0.0,0.0
8.156,7775.27,0.00013,0.0,0.0
8.163,7839.138,0.00013,0.0,0.0
8.169,7780.057,0.00013,0.0,0.0
8.175,7572.819,0.00013,0.0,0.0
8.182,7858.306,0.00013,0.0,0.0
8.188,7621.305,0.00013,0.0,0.0
8.194,7704.531,0.00013,0.0,0.0
8.201,7618.041,0.00013,0.0,0.0
8.207,7557.305,0.00013,0.0,0.0
8.213,7657.794,0.00013,0.0,0.0
8.22,7555.954,0.00013,0.0,0.0
8.226,7544.185,0.00013,0.0,0.0
8.232,7569.354,0.00013,0.0,0.0
8.239,7512.227,0.00013,0.0,0.0
8.245,7498.971,0.00013,0.0,0.0
8.251,7518.938,0.00013,0.0,0.0
8.258,7347.98,0.00014,0.0,0.0
8.264,7529.721,0.00013,0.0,0.0
8.27,7407.418,0.00013,0.0,0.0
8.277,7416.477,0.00013,0.0,0.0
8.283,7393.263,0.00014,0.0,0.0
8.289,7315.754,0.00014,0.0,0.0
8.296,7388.542,0.00014,0.0,0.0
8.302,7338.197,0.00014,0.0,0.0
8.308,7261.775,0.00014,0.0,0.0
8.314,7346.68,0.00014,0.0,0.0
8.321,7279.533,0.00014,0.0,0.0
8.327,7272.935,0.00014,0.0,0.0
8.333,7305.59,0.00014,0.0,0.0
8.34,7138.456,0.00014,0.0,0.0
8.346,7282.341,0.00014,0.0,0.0
8.352,7178.213,0.00014,0.0,0.0
8.359,7199.523,0.00014,0.0,0.0
8.365,7187.123,0.00014,0.0,0.0
8.371,7133.341,0.00014,0.0,0.0
8.378,7159.323,0.00014,0.0,0.0
8.384,7138.62,0.00014,0.0,0.0
8.39,7081.641,0.00014,0.0,0.0
8.397,7120.599,0.00014,0.0,0.0
8.403,7109.108,0.00014,0.0,0.0
8.409,7068.7,0.00014,0.0,0.0
8.416,7094.684,0.00014,0.0,0.0
8.422,7005.163,0.00014,0.0,0.0
8.428,7066.375,0.00014,0.0,0.0
8.435,7010.745,0.00014,0.0,0.0
8.441,7008.339,0.00014,0.0,0.0
8.447,7030.945,0.00014,0.0,0.0
8.454,6989.33,0.00014,0.0,0.0
8.46,6985.02,0.00014,0.0,0.0
8.466,6961.471,0.00014,0.0,0.0
8.472,6922.865,0.00014,0.0,0.0
8.479,6947.007,0.00014,0.0,0.0
8.485,6950.136,0.00014,0.0,0.0
8.491,6913.226,0.00014,0.0,0.0
8.498,6924.368,0.00014,0.0,0.0
8.504,6868.813,0.00015,0.0,0.0
8.51,6899.818,0.00014,0.0,0.0
8.517,6893.49,0.00015,0.0,0.0
8.523,6854.381,0.00015,0.0,0.0
8.529,6856.484,0.00015,0.0,0.0
8.536,6849.876,0.00015,0.0,0.0
8.542,6824.454,0.00015,0.0,0.0
8.548,6820.635,0.00015,0.0,0.0
8.555,6796.072,0.00015,0.0,0.0
8.561,6788.477,0.00015,0.0,0.0
8.567,6796.916,0.00015,0.0,0.0
8.574,6754.623,0.00015,0.0,0.0
8.58,6792.711,0.00015,0.0,0.0
8.586,6746.745,0.00015,0.0,0.0
8.593,6741.09,0.00015,0.0,0.0
8.599,6760.174,0.00015,0.0,0.0
8.605,6693.251,0.00015,0.0,0.0
8.612,6714.613,0.00015,0.0,0.0
8.618,6723.307,0.00015,0.0,0.0
8.624,6718.008,0.00015,0.0,0.0
8.63,6697.39,0.00015,0.0,0.0
8.637,6682.344,0.00015,0.0,0.0
8.643,6674.037,0.00015,0.0,0.0
8.649,6702.269,0.00015,0.0,0.0
8.656,6646.396,0.00015,0.0,0.0
8.662,6653.272,0.00015,0.0,0.0
8.668,6648.784,0.00015,0.0,0.0
8.675,6625.943,0.00015,0.0,0.0
8.681,6627.202,0.00015,0.0,0.0
8.687,6601.452,0.00015,0.0,0.0
8.694,6623.467,0.00015,0.0,0.0
8.7,6609.485,0.00015,0.0,0.0
8.706,6597.27,0.00015,0.0,0.0
8.713,6624.999,0.00015,0.0,0.0
8.719,6597.205,0.00015,0.0,0.0
8.725,6595.699,0.00015,0.0,0.0
8.732,6615.607,0.00015,0.0,0.0
8.738,6592.84,0.00015,0.0,0.0
8.744,6571.916,0.00015,0.0,0.0
8.751,6597.899,0.00015,0.0,0.0
8.757,6565.905,0.00015,0.0,0.0
8.763,6575.525,0.00015,0.0,0.0
8.77,6553.212,0.00015,0.0,0.0
8.776,6581.021,0.00015,0.0,0.0
8.782,6564.797,0.00015,0.0,0.0
8.788,6541.756,0.00015,0.0,0.0
8.795,6576.071,0.00015,0.0,0.0
8.801,6558.758,0.00015,0.0,0.0
8.807,6538.268,0.00015,0.0,0.0
8.814,6553.801,0.00015,0.0,0.0
8.82,6527.141,0.00015,0.0,0.0
8.826,6530.74,0.00015,0.0,0.0
8.833,6557.62,0.00015,0.0,0.0
8.839,6534.831,0.00015,0.0,0.0
8.845,6536.898,0.00015,0.0,0.0
8.852,6524.243,0.00015,0.0,0.0
8.858,6501.139,0.00015,0.0,0.0
8.864,6539.433,0.00015,0.0,0.0
8.871,6517.072,0.00015,0.0,0.0
8.877,6509.401,0.00015,0.0,0.0
8.883,6529.63,0.00015,0.0,0.0
8.89,6527.529,0.00015,0.0,0.0
8.896,6528.336,0.00015,0.0,0.0
8.902,6516.881,0.00015,0.0,0.0
8.909,6492.607,0.00015,0.0,0.0
8.915,6529.391,0.00015,0.0,0.0
8.921,6523.219,0.00015,0.0,0.0
8.928,6529.952,0.00015,0.0,0.0
8.934,6511.254,0.00015,0.0,0.0
8.94,6526.587,0.00015,0.0,0.0
8.946,6532.498,0.00015,0.0,0.0
8.953,6531.863,0.00015,0.0,0.0
8.959,6535.616,0.00015,0.0,0.0
8.965,6522.365,0.00015,0.0,0.0
8.972,6538.907,0.00015,0.0,0.0
8.978,6556.46,0.00015,0.0,0.0
8.984,6558.943,0.00015,0.0,0.0
8.991,6548.279,0.00015,0.0,0.0
8.997,6534.65,0.00015,0.0,0.0
9.003,6563.352,0.00015,0.0,0.0
9.01,6565.791,0.00015,0.0,0.0
9.016,6595.764,0.00015,0.0,0.0
9.022,6563.681,0.00015,0.0,0.0
9.029,6598.446,0.00015,0.0,0.0
9.035,6576.87,0.00015,0.0,0.0
9.041,6582.418,0.00015,0.0,0.0
9.048,6604.161,0.00015,0.0,0.0
9.054,6587.616,0.00015,0.0,0.0
9.06,6621.449,0.00015,0.0,0.0
9.067,6595.932,0.00015,0.0,0.0
9.073,6633.494,0.00015,0.0,0.0
9.079,6607.865,0.00015,0.0,0.0
9.086,6616.097,0.00015,0.0,0.0
9.092,6633.922,0.00015,0.0,0.0
9.098,6675.868,0.00015,0.0,0.0
9.104,6675.007,0.00015,0.0,0.0
9.111,6857.747,0.00015,0.0,0.0
9.117,6781.543,0.00015,0.0,0.0
9.123,6848.152,0.00015,0.0,0.0
9.13,6884.708,0.00015,0.0,0.0
9.136,6799.82,0.00015,0.0,0.0
9.142,6775.281,0.00015,0.0,0.0
9.149,6674.327,0.00015,0.0,0.0
9.155,6640.2,0.00015,0.0,0.0
9.161,6631.341,0.00015,0.0,0.0
9.168,6599.808,0.00015,0.0,0.0
9.174,6568.883,0.00015,0.0,0.0
9.18,6553.832,0.00015,0.0,0.0
9.187,6540.239,0.00015,0.0,0.0
9.193,6530.951,0.00015,0.0,0.0
9.199,6510.093,0.00015,0.0,0.0
9.206,6463.712,0.00015,0.0,0.0
9.212,6514.783,0.00015,0.0,0.0
9.218,6493.564,0.00015,0.0,0.0
9.225,6440.76,0.00016,0.0,0.0
9.231,6375.46,0.00016,0.0,0.0
9.237,6386.261,0.00016,0.0,0.0
9.244,6377.57,0.00016,0.0,0.0
9.25,6370.656,0.00016,0.0,0.0
9.256,6306.668,0.00016,0.0,0.0
9.262,6338.124,0.00016,0.0,0.0
9.269,6275.916,0.00016,0.0,0.0
9.275,6314.753,0.00016,0.0,0.0
9.281,6270.533,0.00016,0.0,0.0
9.288,6224.313,0.00016,0.0,0.0
9.294,6261.975,0.00016,0.0,0.0
9.3,6206.195,0.00016,0.0,0.0
9.307,6235.991,0.00016,0.0,0.0
9.313,6172.413,0.00016,0.0,0.0
9.319,6157.894,0.00016,0.0,0.0
9.326,6178.305,0.00016,0.0,0.0
9.332,6147.141,0.00016,0.0,0.0
9.338,6128.762,0.00016,0.0,0.0
9.345,6116.835,0.00016,0.0,0.0
9.351,6093.4,0.00016,0.0,0.0
9.357,6074.096,0.00016,0.0,0.0
9.364,6076.61,0.00016,0.0,0.0
9.37,6023.985,0.00017,0.0,0.0
9.376,6052.595,0.00017,0.0,0.0
9.383,6019.469,0.00017,0.0,0.0
9.389,6014.322,0.00017,0.0,0.0
9.395,5999.102,0.00017,0.0,0.0
9.402,5985.405,0.00017,0.0,0.0
9.408,5964.799,0.00017,0.0,0.0
9.414,5970.281,0.00017,0.0,0.0
9.42,5943.569,0.00017,0.0,0.0
9.427,5946.722,0.00017,0.0,0.0
9.433,5919.48,0.00017,0.0,0.0
9.439,5904.69,0.00017,0.0,0.0
9.446,5915.096,0.00017,0.0,0.0
9.452,5863.567,0.00017,0.0,0.0
9.458,5908.678,0.00017,0.0,0.0
9.465,5878.529,0.00017,0.0,0.0
9.471,5860.46,0.00017,0.0,0.0
9.477,5836.581,0.00017,0.0,0.0
9.484,5838.928,0.00017,0.0,0.0
9.49,5841.993,0.00017,0.0,0.0
9.496,5801.443,0.00017,0.0,0.0
9.503,5795.021,0.00017,0.0,0.0
9.509,5810.752,0.00017,0.0,0.0
9.515,5803.585,0.00017,0.0,0.0
9.522,5781.284,0.00017,0.0,0.0
9.528,5766.427,0.00017,0.0,0.0
9.534,5747.521,0.00017,0.0,0.0
9.541,5753.128,0.00017,0.0,0.0
9.547,5732.354,0.00017,0.0,0.0
9.553,5732.528,0.00017,0.0,0.0
9.56,5698.176,0.00018,0.0,0.0
9.566,5714.766,0.00017,0.0,0.0
9.572,5710.489,0.00018,0.0,0.0
9.578,5699.882,0.00018,0.0,0.0
9.585,5670.546,0.00018,0.0,0.0
9.591,5657.912,0.00018,0.0,0.0
9.597,5686.366,0.00018,0.0,0.0
9.604,5668.114,0.00018,0.0,0.0
9.61,5680.532,0.00018,0.0,0.0
9.616,5630.661,0.00018,0.0,0.0
9.623,5641.006,0.00018,0.0,0.0
9.629,5653.369,0.00018,0.0,0.0
9.635,5625.047,0.00018,0.0,0.0
9.642,5628.282,0.00018,0.0,0.0
9.648,5616.879,0.00018,0.0,0.0
9.654,5630.328,0.00018,0.0,0.0
9.661,5628.515,0.00018,0.0,0.0
9.667,5609.311,0.00018,0.0,0.0
9.673,5588.269,0.00018,0.0,0.0
9.68,5624.983,0.00018,0.0,0.0
9.686,5595.51,0.00018,0.0,0.0
9.692,5585.888,0.00018,0.0,0.0
9.699,5573.432,0.00018,0.0,0.0
9.705,5558.537,0.00018,0.0,0.0
9.711,5571.343,0.00018,0.0,0.0
9.718,5583.784,0.00018,0.0,0.0
9.724,5582.191,0.00018,0.0,0.0
9.73,5547.619,0.00018,0.0,0.0
9.736,5588.14,0.00018,0.0,0.0
9.743,5552.54,0.00018,0.0,0.0
9.749,5567.463,0.00018,0.0,0.0
9.755,5523.981,0.00018,0.0,0.0
9.762,5561.948,0.00018,0.0,0.0
9.768,5565.443,0.00018,0.0,0.0
9.774,5547.325,0.00018,0.0,0.0
9.781,5552.27,0.00018,0.0,0.0
9.787,5534.091,0.00018,0.0,0.0
9.793,5551.086,0.00018,0.0,0.0
9.8,5537.121,0.00018,0.0,0.0
9.806,5548.169,0.00018,0.0,0.0
9.812,5544.12,0.00018,0.0,0.0
9.819,5555.773,0.00018,0.0,0.0
9.825,5536.371,0.00018,0.0,0.0
9.831,5540.732,0.00018,0.0,0.0
9.838,5515.475,0.00018,0.0,0.0
9.844,5525.87,0.00018,0.0,0.0
9.85,5547.009,0.00018,0.0,0.0
9.857,5522.067,0.00018,0.0,0.0
9.863,5509.38,0.00018,0.0,0.0
9.869,5501.16,0.00018,0.0,0.0
9.876,5523.184,0.00018,0.0,0.0
9.882,5491.071,0.00018,0.0,0.0
9.888,5495.159,0.00018,0.0,0.0
9.894,5491.516,0.00018,0.0,0.0
9.901,5487.608,0.00018,0.0,0.0
9.907,5486.489,0.00018,0.0,0.0
9.913,5482.248,0.00018,0.0,0.0
9.92,5468.868,0.00018,0.0,0.0
9.926,5473.701,0.00018,0.0,0.0
9.932,5454.846,0.00018,0.0,0.0
9.939,5451.021,0.00018,0.0,0.0
9.945,5474.302,0.00018,0.0,0.0
9.951,5436.215,0.00018,0.0,0.0
9.958,5451.22,0.00018,0.0,0.0
9.964,5451.232,0.00018,0.0,0.0
9.97,5427.463,0.00018,0.0,0.0
9.977,5442.134,0.00018,0.0,0.0
9.983,5421.529,0.00018,0.0,0.0
9.989,5454.734,0.00018,0.0,0.0
9.996,5439.097,0.00018,0.0,0.0
10.002,5438.82,0.00018,0.0,0.0
10.008,5414.815,0.00018,0.0,0.0
10.015,5419.593,0.00018,0.0,0.0
10.021,5401.118,0.00019,0.0,0.0
10.027,5396.582,0.00019,0.0,0.0
10.034,5396.931,0.00019,0.0,0.0
10.04,5419.926,0.00018,0.0,0.0
10.046,5424.764,0.00018,0.0,0.0
10.052,5399.84,0.00019,0.0,0.0
10.059,5422.043,0.00018,0.0,0.0
10.065,5408.892,0.00018,0.0,0.0
10.071,5380.202,0.00019,0.0,0.0
10.078,5387.517,0.00019,0.0,0.0
10.084,5399.753,0.00019,0.0,0.0
10.09,5431.039,0.00018,0.0,0.0
10.097,5392.869,0.00019,0.0,0.0
10.103,5396.647,0.00019,0.0,0.0
10.109,5398.309,0.00019,0.0,0.0
10.116,5377.07,0.00019,0.0,0.0
10.122,5351.749,0.00019,0.0,0.0
10.128,5390.47,0.00019,0.0,0.0
10.135,5387.138,0.00019,0.0,0.0
10.141,5382.24,0.00019,0.0,0.0
10.147,5372.211,0.00019,0.0,0.0
10.154,5394.499,0.00019,0.0,0.0
10.16,5361.046,0.00019,0.0,0.0
10.166,5344.238,0.00019,0.0,0.0
10.173,5416.408,0.00018,0.0,0.0
10.179,5431.229,0.00018,0.0,0.0
10.185,5478.216,0.00018,0.0,0.0
10.192,5489.95,0.00018,0.0,0.0
10.198,5541.421,0.00018,0.0,0.0
10.204,5537.521,0.00018,0.0,0.0
10.21,5476.837,0.00018,0.0,0.0
10.217,5471.63,0.00018,0.0,0.0
10.223,5517.882,0.00018,0.0,0.0
10.229,5462.149,0.00018,0.0,0.0
10.236,5458.232,0.00018,0.0,0.0
10.242,5460.416,0.00018,0.0,0.0
10.248,5439.711,0.00018,0.0,0.0
10.255,5405.231,0.00019,0.0,0.0
10.261,5351.267,0.00019,0.0,0.0
10.267,5433.19,0.00018,0.0,0.0
10.274,5464.215,0.00018,0.0,0.0
10.28,5458.464,0.00018,0.0,0.0
10.286,5434.155,0.00018,0.0,0.0
10.293,5429.63,0.00018,0.0,0.0
10.299,5378.506,0.00019,0.0,0.0
10.305,5319.08,0.00019,0.0,0.0
10.312,5436.285,0.00018,0.0,0.0
10.318,5399.307,0.00019,0.0,0.0
10.324,5412.721,0.00018,0.0,0.0
10.331,5389.769,0.00019,0.0,0.0
10.337,5386.573,0.00019,0.0,0.0
10.343,5369.692,0.00019,0.0,0.0
10.35,5365.536,0.00019,0.0,0.0
10.356,5336.563,0.00019,0.0,0.0
10.362,5391.747,0.00019,0.0,0.0
10.368,5372.106,0.00019,0.0,0.0
10.375,5370.516,0.00019,0.0,0.0
10.381,5357.321,0.00019,0.0,0.0
10.387,5355.784,0.00019,0.0,0.0
10.394,5328.397,0.00019,0.0,0.0
10.4,5319.866,0.00019,0.0,0.0
10.406,5358.511,0.00019,0.0,0.0
10.413,5329.48,0.00019,0.0,0.0
10.419,5376.316,0.00019,0.0,0.0
10.425,5345.254,0.00019,0.0,0.0
10.432,5351.737,0.00019,0.0,0.0
10.438,5347.502,0.00019,0.0,0.0
10.444,5333.094,0.00019,0.0,0.0
10.451,5321.069,0.00019,0.0,0.0
10.457,5344.802,0.00019,0.0,0.0
10.463,5327.591,0.00019,0.0,0.0
10.47,5329.28,0.00019,0.0,0.0
10.476,5326.269,0.00019,0.0,0.0
10.482,5318.518,0.00019,0.0,0.0
10.489,5313.055,0.00019,0.0,0.0
10.495,5293.635,0.00019,0.0,0.0
10.501,5327.778,0.00019,0.0,0.0
10.508,5327.127,0.00019,0.0,0.0
10.514,5316.212,0.00019,0.0,0.0
10.52,5320.458,0.00019,0.0,0.0
10.526,5299.375,0.00019,0.0,0.0
10.533,5323.31,0.00019,0.0,0.0
10.539,5281.884,0.00019,0.0,0.0
10.545,5316.695,0.00019,0.0,0.0
10.552,5314.079,0.00019,0.0,0.0
10.558,5290.497,0.00019,0.0,0.0
10.564,5297.585,0.00019,0.0,0.0
10.571,5297.145,0.00019,0.0,0.0
10.577,5281.698,0.00019,0.0,0.0
10.583,5296.007,0.00019,0.0,0.0
10.59,5294.798,0.00019,0.0,0.0
10.596,5302.962,0.00019,0.0,0.0
10.602,5310.893,0.00019,0.0,0.0
10.609,5271.233,0.00019,0.0,0.0
10.615,5334.533,0.00019,0.0,0.0
10.621,5291.959,0.00019,0.0,0.0
10.628,5299.607,0.00019,0.0,0.0
10.634,5305.341,0.00019,0.0,0.0
10.64,5310.755,0.00019,0.0,0.0
10.647,5315.439,0.00019,0.0,0.0
10.653,5318.424,0.00019,0.0,0.0
10.659,5313.428,0.00019,0.0,0.0
10.666,5313.721,0.00019,0.0,0.0
10.672,5324.689,0.00019,0.0,0.0
10.678,5320.965,0.00019,0.0,0.0
10.684,5326.186,0.00019,0.0,0.0
10.691,5332.916,0.00019,0.0,0.0
10.697,5350.723,0.00019,0.0,0.0
10.703,5363.186,0.00019,0.0,0.0
10.71,5366.139,0.00019,0.0,0.0
10.716,5402.717,0.00019,0.0,0.0
10.722,5421.66,0.00018,0.0,0.0
10.729,5467.809,0.00018,0.0,0.0
10.735,5495.257,0.00018,0.0,0.0
10.741,5551.188,0.00018,0.0,0.0
10.748,5665.921,0.00018,0.0,0.0
10.754,5805.662,0.00017,0.0,0.0
10.76,6030.777,0.00017,0.0,0.0
10.767,6464.891,0.00015,0.0,0.0
10.773,7241.292,0.00014,0.0,0.0
10.779,8572.036,0.00012,0.0,0.0
10.786,10816.7,0.00009,0.0,0.0
10.792,14427.822,0.00007,0.0,0.0
10.798,19230.8,0.00005,0.0,0.0
10.805,23830.049,0.00004,0.0,0.0
10.811,26420.533,0.00004,0.0,0.0
10.817,28453.695,0.00004,0.0,0.0
10.824,23700.003,0.00004,0.0,0.0
10.83,20961.638,0.00005,0.0,0.0
10.836,13912.615,0.00007,0.0,0.0
10.842,10961.389,0.00009,0.0,0.0
10.849,8969.479,0.00011,0.0,0.0
10.855,7202.873,0.00014,0.0,0.0
10.861,6598.122,0.00015,0.0,0.0
10.868,6049.517,0.00017,0.0,0.0
10.874,5808.112,0.00017,0.0,0.0
10.88,5696.505,0.00018,0.0,0.0
10.887,5569.043,0.00018,0.0,0.0
10.893,5510.839,0.00018,0.0,0.0
10.899,5452.217,0.00018,0.0,0.0
10.906,5409.414,0.00018,0.0,0.0
10.912,5396.287,0.00019,0.0,0.0
10.918,5371.292,0.00019,0.0,0.0
10.925,5361.076,0.00019,0.0,0.0
10.931,5368.172,0.00019,0.0,0.0
10.937,5339.772,0.00019,0.0,0.0
10.944,5321.294,0.00019,0.0,0.0
10.95,5339.459,0.00019,0.0,0.0
10.956,5308.216,0.00019,0.0,0.0
10.963,5331.261,0.00019,0.0,0.0
10.969,5297.061,0.00019,0.0,0.0
10.975,5318.715,0.00019,0.0,0.0
10.982,5317.848,0.00019,0.0,0.0
10.988,5306.134,0.00019,0.0,0.0
10.994,5314.404,0.00019,0.0,0.0
11.0,5287.064,0.00019,0.0,0.0
11.007,5306.403,0.00019,0.0,0.0
11.013,5301.861,0.00019,0.0,0.0
11.019,5291.576,0.00019,0.0,0.0
11.026,5293.861,0.00019,0.0,0.0
11.032,5302.267,0.00019,0.0,0.0
11.038,5313.065,0.00019,0.0,0.0
11.045,5297.79,0.00019,0.0,0.0
11.051,5310.667,0.00019,0.0,0.0
11.057,5298.31,0.00019,0.0,0.0
11.064,5312.726,0.00019,0.0,0.0
11.07,5298.319,0.00019,0.0,0.0
11.076,5325.303,0.00019,0.0,0.0
11.083,5308.079,0.00019,0.0,0.0
11.089,5316.206,0.00019,0.0,0.0
11.095,5309.777,0.00019,0.0,0.0
11.102,5331.213,0.00019,0.0,0.0
11.108,5318.68,0.00019,0.0,0.0
11.114,5331.946,0.00019,0.0,0.0
11.121,5372.234,0.00019,0.0,0.0
11.127,5343.798,0.00019,0.0,0.0
11.133,5379.651,0.00019,0.0,0.0
11.14,5377.116,0.00019,0.0,0.0
11.146,5408.61,0.00018,0.0,0.0
11.152,5426.219,0.00018,0.0,0.0
11.158,5486.852,0.00018,0.0,0.0
11.165,5501.151,0.00018,0.0,0.0
11.171,5670.496,0.00018,0.0,0.0
11.177,5764.676,0.00017,0.0,0.0
11.184,6310.83,0.00016,0.0,0.0
11.19,6525.664,0.00015,0.0,0.0
11.196,6715.165,0.00015,0.0,0.0
11.203,7146.943,0.00014,0.0,0.0
11.209,6023.298,0.00017,0.0,0.0
11.215,6207.112,0.00016,0.0,0.0
11.222,5816.852,0.00017,0.0,0.0
11.228,5662.459,0.00018,0.0,0.0
11.234,5514.124,0.00018,0.0,0.0
11.241,5445.275,0.00018,0.0,0.0
11.247,5415.403,0.00018,0.0,0.0
11.253,5375.769,0.00019,0.0,0.0
11.26,5372.712,0.00019,0.0,0.0
11.266,5353.814,0.00019,0.0,0.0
11.272,5355.459,0.00019,0.0,0.0
11.279,5323.797,0.00019,0.0,0.0
11.285,5343.108,0.00019,0.0,0.0
11.291,5318.39,0.00019,0.0,0.0
11.298,5322.948,0.00019,0.0,0.0
11.304,5310.618,0.00019,0.0,0.0
11.31,5303.397,0.00019,0.0,0.0
11.316,5297.159,0.00019,0.0,0.0
11.323,5294.92,0.00019,0.0,0.0
11.329,5296.131,0.00019,0.0,0.0
11.335,5265.332,0.00019,0.0,0.0
11.342,5279.919,0.00019,0.0,0.0
11.348,5282.711,0.00019,0.0,0.0
11.354,5278.894,0.00019,0.0,0.0
11.361,5283.883,0.00019,0.0,0.0
11.367,5261.882,0.00019,0.0,0.0
11.373,5277.997,0.00019,0.0,0.0
11.38,5269.402,0.00019,0.0,0.0
11.386,5268.867,0.00019,0.0,0.0
11.392,5261.845,0.00019,0.0,0.0
11.399,5271.433,0.00019,0.0,0.0
11.405,5262.935,0.00019,0.0,0.0
11.411,5266.471,0.00019,0.0,0.0
11.418,5267.773,0.00019,0.0,0.0
11.424,5268.897,0.00019,0.0,0.0
11.43,5258.291,0.00019,0.0,0.0
11.437,5248.099,0.00019,0.0,0.0
11.443,5263.437,0.00019,0.0,0.0
11.449,5261.873,0.00019,0.0,0.0
11.456,5270.021,0.00019,0.0,0.0
11.462,5271.365,0.00019,0.0,0.0
11.468,5275.982,0.00019,0.0,0.0
11.474,5281.51,0.00019,0.0,0.0
11.481,5275.99,0.00019,0.0,0.0
11.487,5266.313,0.00019,0.0,0.0
11.493,5257.995,0.00019,0.0,0.0
11.5,5280.857,0.00019,0.0,0.0
11.506,5276.222,0.00019,0.0,0.0
11.512,5299.069,0.00019,0.0,0.0
11.519,5280.451,0.00019,0.0,0.0
11.525,5285.05,0.00019,0.0,0.0
11.531,5276.539,0.00019,0.0,0.0
11.538,5302.133,0.00019,0.0,0.0
11.544,5294.338,0.00019,0.0,0.0
11.55,5292.153,0.00019,0.0,0.0
11.557,5304.899,0.00019,0.0,0.0
11.563,5314.23,0.00019,0.0,0.0
11.569,5299.873,0.00019,0.0,0.0
11.576,5343.725,0.00019,0.0,0.0
11.582,5312.78,0.00019,0.0,0.0
11.588,5319.111,0.00019,0.0,0.0
11.595,5337.673,0.00019,0.0,0.0
11.601,5303.544,0.00019,0.0,0.0
11.607,5309.51,0.00019,0.0,0.0
11.614,5324.129,0.00019,0.0,0.0
11.62,5309.159,0.00019,0.0,0.0
11.626,5320.232,0.00019,0.0,0.0
11.632,5293.395,0.00019,0.0,0.0
11.639,5308.26,0.00019,0.0,0.0
11.645,5317.052,0.00019,0.0,0.0
11.651,5310.03,0.00019,0.0,0.0
11.658,5328.417,0.00019,0.0,0.0
11.664,5310.623,0.00019,0.0,0.0
11.67,5317.349,0.00019,0.0,0.0
11.677,5315.628,0.00019,0.0,0.0
11.683,5303.318,0.00019,0.0,0.0
11.689,5303.907,0.00019,0.0,0.0
11.696,5307.298,0.00019,0.0,0.0
11.702,5310.749,0.00019,0.0,0.0
11.708,5310.475,0.00019,0.0,0.0
11.715,5298.606,0.00019,0.0,0.0
11.721,5324.636,0.00019,0.0,0.0
11.727,5292.589,0.00019,0.0,0.0
11.734,5302.196,0.00019,0.0,0.0
11.74,5303.664,0.00019,0.0,0.0
11.746,5304.082,0.00019,0.0,0.0
11.753,5306.968,0.00019,0.0,0.0
11.759,5302.126,0.00019,0.0,0.0
11.765,5299.188,0.00019,0.0,0.0
11.772,5309.003,0.00019,0.0,0.0
11.778,5300.436,0.00019,0.0,0.0
11.784,5300.202,0.00019,0.0,0.0
11.79,5299.115,0.00019,0.0,0.0
11.797,5307.884,0.00019,0.0,0.0
11.803,5303.261,0.00019,0.0,0.0
11.809,5289.452,0.00019,0.0,0.0
11.816,5297.161,0.00019,0.0,0.0
11.822,5318.007,0.00019,0.0,0.0
11.828,5301.541,0.00019,0.0,0.0
11.835,5305.2,0.00019,0.0,0.0
11.841,5299.47,0.00019,0.0,0.0
11.847,5307.962,0.00019,0.0,0.0
11.854,5323.091,0.00019,0.0,0.0
11.86,5319.516,0.00019,0.0,0.0
11.866,5309.668,0.00019,0.0,0.0
11.873,5319.72,0.00019,0.0,0.0
11.879,5327.049,0.00019,0.0,0.0
11.885,5334.751,0.00019,0.0,0.0
11.892,5310.221,0.00019,0.0,0.0
11.898,5318.944,0.00019,0.0,0.0
11.904,5348.457,0.00019,0.0,0.0
11.911,5330.567,0.00019,0.0,0.0
11.917,5346.918,0.00019,0.0,0.0
11.923,5326.966,0.00019,0.0,0.0
11.93,5347.407,0.00019,0.0,0.0
11.936,5352.762,0.00019,0.0,0.0
11.942,5352.537,0.00019,0.0,0.0
11.948,5355.374,0.00019,0.0,0.0
11.955,5335.636,0.00019,0.0,0.0
11.961,5370.075,0.00019,0.0,0.0
11.967,5367.395,0.00019,0.0,0.0
11.974,5345.981,0.00019,0.0,0.0
11.98,5375.002,0.00019,0.0,0.0
11.986,5365.069,0.00019,0.0,0.0
11.993,5357.261,0.00019,0.0,0.0
11.999,5382.155,0.00019,0.0,0.0
12.005,5363.83,0.00019,0.0,0.0
12.012,5386.982,0.00019,0.0,0.0
12.018,5367.424,0.00019,0.0,0.0
12.024,5384.933,0.00019,0.0,0.0
12.031,5385.298,0.00019,0.0,0.0
12.037,5375.7,0.00019,0.0,0.0
12.043,5409.798,0.00018,0.0,0.0
12.05,5383.272,0.00019,0.0,0.0
12.056,5433.489,0.00018,0.0,0.0
12.062,5432.276,0.00018,0.0,0.0
12.069,5499.436,0.00018,0.0,0.0
12.075,5504.562,0.00018,0.0,0.0
12.081,5607.258,0.00018,0.0,0.0
12.088,5545.581,0.00018,0.0,0.0
12.094,5573.798,0.00018,0.0,0.0
12.1,5498.517,0.00018,0.0,0.0
12.106,5487.279,0.00018,0.0,0.0
12.113,5510.113,0.00018,0.0,0.0
12.119,5450.763,0.00018,0.0,0.0
12.125,5401.26,0.00019,0.0,0.0
12.132,5379.54,0.00019,0.0,0.0
12.138,5335.735,0.00019,0.0,0.0
12.144,5313.098,0.00019,0.0,0.0
12.151,5324.013,0.00019,0.0,0.0
12.157,5286.918,0.00019,0.0,0.0
12.163,5307.782,0.00019,0.0,0.0
12.17,5278.122,0.00019,0.0,0.0
12.176,5263.992,0.00019,0.0,0.0
12.182,5288.768,0.00019,0.0,0.0
12.189,5247.61,0.00019,0.0,0.0
12.195,5244.056,0.00019,0.0,0.0
12.201,5243.431,0.00019,0.0,0.0
12.208,5228.71,0.00019,0.0,0.0
12.214,5223.081,0.00019,0.0,0.0
12.22,5218.359,0.00019,0.0,0.0
12.227,5207.684,0.00019,0.0,0.0
12.233,5202.085,0.00019,0.0,0.0
12.239,5178.595,0.00019,0.0,0.0
12.246,5168.359,0.00019,0.0,0.0
12.252,5193.64,0.00019,0.0,0.0
12.258,5165.884,0.00019,0.0,0.0
12.264,5159.861,0.00019,0.0,0.0
12.271,5151.212,0.00019,0.0,0.0
12.277,5144.426,0.00019,0.0,0.0
12.283,5154.262,0.00019,0.0,0.0
12.29,5128.917,0.00019,0.0,0.0
12.296,5127.387,0.0002,0.0,0.0
12.302,5124.824,0.0002,0.0,0.0
12.309,5104.415,0.0002,0.0,0.0
12.315,5117.849,0.0002,0.0,0.0
12.321,5099.05,0.0002,0.0,0.0
12.328,5115.653,0.0002,0.0,0.0
12.334,5081.72,0.0002,0.0,0.0
12.34,5092.929,0.0002,0.0,0.0
12.347,5078.942,0.0002,0.0,0.0
12.353,5087.699,0.0002,0.0,0.0
12.359,5081.819,0.0002,0.0,0.0
12.366,5068.245,0.0002,0.0,0.0
12.372,5051.682,0.0002,0.0,0.0
12.378,5054.619,0.0002,0.0,0.0
12.385,5058.614,0.0002,0.0,0.0
12.391,5050.379,0.0002,0.0,0.0
12.397,5060.268,0.0002,0.0,0.0
12.404,5050.75,0.0002,0.0,0.0
12.41,5032.384,0.0002,0.0,0.0
12.416,5022.082,0.0002,0.0,0.0
12.422,5039.675,0.0002,0.0,0.0
12.429,5018.626,0.0002,0.0,0.0
12.435,5037.029,0.0002,0.0,0.0
12.441,5019.09,0.0002,0.0,0.0
12.448,5016.375,0.0002,0.0,0.0
12.454,5025.579,0.0002,0.0,0.0
12.46,5027.18,0.0002,0.0,0.0
12.467,5027.707,0.0002,0.0,0.0
12.473,5017.752,0.0002,0.0,0.0
12.479,5015.644,0.0002,0.0,0.0
12.486,5029.11,0.0002,0.0,0.0
12.492,4993.558,0.0002,0.0,0.0
12.498,5018.315,0.0002,0.0,0.0
12.505,5009.323,0.0002,0.0,0.0
12.511,5013.739,0.0002,0.0,0.0
12.517,5006.83,0.0002,0.0,0.0
12.524,5017.638,0.0002,0.0,0.0
12.53,5004.917,0.0002,0.0,0.0
12.536,5023.475,0.0002,0.0,0.0
12.543,5005.615,0.0002,0.0,0.0
12.549,5017.045,0.0002,0.0,0.0
12.555,5027.85,0.0002,0.0,0.0
12.562,5025.903,0.0002,0.0,0.0
12.568,5048.474,0.0002,0.0,0.0
12.574,5040.108,0.0002,0.0,0.0
12.58,5074.843,0.0002,0.0,0.0
12.587,5081.95,0.0002,0.0,0.0
12.593,5101.391,0.0002,0.0,0.0
12.599,5154.15,0.00019,0.0,0.0
12.606,5177.58,0.00019,0.0,0.0
12.612,5276.031,0.00019,0.0,0.0
12.618,5352.797,0.00019,0.0,0.0
12.625,5510.23,0.00018,0.0,0.0
12.631,5821.826,0.00017,0.0,0.0
12.637,6171.406,0.00016,0.0,0.0
12.644,7119.041,0.00014,0.0,0.0
12.65,8258.302,0.00012,0.0,0.0
12.656,10727.678,0.00009,0.0,0.0
12.663,15232.644,0.00007,0.0,0.0
12.669,19170.033,0.00005,0.0,0.0
12.675,28293.854,0.00004,0.0,0.0
12.682,31955.151,0.00003,0.0,0.0
12.688,33826.131,0.00003,0.0,0.0
12.694,32281.038,0.00003,0.0,0.0
12.701,25730.337,0.00004,0.0,0.0
12.707,20102.733,0.00005,0.0,0.0
12.713,13993.065,0.00007,0.0,0.0
12.72,10505.067,0.0001,0.0,0.0
12.726,8083.512,0.00012,0.0,0.0
12.732,6779.991,0.00015,0.0,0.0
12.738,6040.294,0.00017,0.0,0.0
12.745,5661.453,0.00018,0.0,0.0
12.751,5380.975,0.00019,0.0,0.0
12.757,5246.375,0.00019,0.0,0.0
12.764,5106.487,0.0002,0.0,0.0
12.77,5036.679,0.0002,0.0,0.0
12.776,5010.816,0.0002,0.0,0.0
12.783,4941.709,0.0002,0.0,0.0
12.789,4938.693,0.0002,0.0,0.0
12.795,4889.83,0.0002,0.0,0.0
12.802,4873.604,0.00021,0.0,0.0
12.808,4886.364,0.0002,0.0,0.0
12.814,4830.936,0.00021,0.0,0.0
12.821,4843.78,0.00021,0.0,0.0
12.827,4833.567,0.00021,0.0,0.0
12.833,4802.175,0.00021,0.0,0.0
12.84,4825.684,0.00021,0.0,0.0
12.846,4778.569,0.00021,0.0,0.0
12.852,4812.207,0.00021,0.0,0.0
12.859,4778.066,0.00021,0.0,0.0
12.865,4771.704,0.00021,0.0,0.0
12.871,4785.816,0.00021,0.0,0.0
12.878,4737.345,0.00021,0.0,0.0
12.884,4756.914,0.00021,0.0,0.0
12.89,4752.396,0.00021,0.0,0.0
12.896,4732.028,0.00021,0.0,0.0
12.903,4772.331,0.00021,0.0,0.0
12.909,4727.569,0.00021,0.0,0.0
12.915,4735.44,0.00021,0.0,0.0
12.922,4845.257,0.00021,0.0,0.0
12.928,4732.075,0.00021,0.0,0.0
12.934,4982.115,0.0002,0.0,0.0
12.941,4805.805,0.00021,0.0,0.0
12.947,4815.15,0.00021,0.0,0.0
12.953,4932.501,0.0002,0.0,0.0
12.96,4730.042,0.00021,0.0,0.0
12.966,4746.074,0.00021,0.0,0.0
12.972,4670.201,0.00021,0.0,0.0
12.979,4681.553,0.00021,0.0,0.0
12.985,4696.414,0.00021,0.0,0.0
12.991,4640.23,0.00022,0.0,0.0
12.998,4674.01,0.00021,0.0,0.0
13.004,4642.98,0.00022,0.0,0.0
13.01,4631.505,0.00022,0.0,0.0
13.017,4666.744,0.00021,0.0,0.0
13.023,4639.385,0.00022,0.0,0.0
13.029,4659.793,0.00021,0.0,0.0
13.036,4631.53,0.00022,0.0,0.0
13.042,4607.215,0.00022,0.0,0.0
13.048,4642.006,0.00022,0.0,0.0
13.054,4612.678,0.00022,0.0,0.0
13.061,4627.12,0.00022,0.0,0.0
13.067,4613.455,0.00022,0.0,0.0
13.073,4601.479,0.00022,0.0,0.0
13.08,4628.707,0.00022,0.0,0.0
13.086,4600.07,0.00022,0.0,0.0
13.092,4607.83,0.00022,0.0,0.0
13.099,4602.32,0.00022,0.0,0.0
13.105,4593.166,0.00022,0.0,0.0
13.111,4603.924,0.00022,0.0,0.0
13.118,4567.347,0.00022,0.0,0.0
13.124,4596.341,0.00022,0.0,0.0
13.13,4596.657,0.00022,0.0,0.0
13.137,4576.994,0.00022,0.0,0.0
13.143,4605.893,0.00022,0.0,0.0
13.149,4581.57,0.00022,0.0,0.0
13.156,4597.362,0.00022,0.0,0.0
13.162,4605.289,0.00022,0.0,0.0
13.168,4602.358,0.00022,0.0,0.0
13.175,4614.941,0.00022,0.0,0.0
13.181,4629.152,0.00022,0.0,0.0
13.187,4642.304,0.00022,0.0,0.0
13.194,4700.571,0.00021,0.0,0.0
13.2,4745.918,0.00021,0.0,0.0
13.206,4860.788,0.00021,0.0,0.0
13.212,5028.676,0.0002,0.0,0.0
13.219,5382.334,0.00019,0.0,0.0
13.225,5996.067,0.00017,0.0,0.0
13.231,7190.487,0.00014,0.0,0.0
13.238,8568.141,0.00012,0.0,0.0
13.244,10671.014,0.00009,0.0,0.0
13.25,11881.331,0.00008,0.0,0.0
13.257,12725.004,0.00008,0.0,0.0
13.263,11783.922,0.00008,0.0,0.0
13.269,10271.151,0.0001,0.0,0.0
13.276,8359.751,0.00012,0.0,0.0
13.282,6792.109,0.00015,0.0,0.0
13.288,5884.936,0.00017,0.0,0.0
13.295,5235.623,0.00019,0.0,0.0
13.301,4938.932,0.0002,0.0,0.0
13.307,4751.625,0.00021,0.0,0.0
13.314,4656.431,0.00021,0.0,0.0
13.32,4593.223,0.00022,0.0,0.0
13.326,4555.333,0.00022,0.0,0.0
13.333,4528.614,0.00022,0.0,0.0
13.339,4506.389,0.00022,0.0,0.0
13.345,4474.171,0.00022,0.0,0.0
13.352,4507.645,0.00022,0.0,0.0
13.358,4471.172,0.00022,0.0,0.0
13.364,4468.014,0.00022,0.0,0.0
13.37,4465.548,0.00022,0.0,0.0
13.377,4442.941,0.00023,0.0,0.0
13.383,4466.199,0.00022,0.0,0.0
13.389,4426.055,0.00023,0.0,0.0
13.396,4445.509,0.00022,0.0,0.0
13.402,4430.586,0.00023,0.0,0.0
13.408,4417.645,0.00023,0.0,0.0
13.415,4420.263,0.00023,0.0,0.0
13.421,4404.802,0.00023,0.0,0.0
13.427,4417.264,0.00023,0.0,0.0
13.434,4404.52,0.00023,0.0,0.0
13.44,4405.694,0.00023,0.0,0.0
13.446,4399.825,0.00023,0.0,0.0
13.453,4393.582,0.00023,0.0,0.0
13.459,4387.069,0.00023,0.0,0.0
13.465,4386.246,0.00023,0.0,0.0
13.472,4372.471,0.00023,0.0,0.0
13.478,4379.063,0.00023,0.0,0.0
13.484,4365.527,0.00023,0.0,0.0
13.491,4373.418,0.00023,0.0,0.0
13.497,4387.918,0.00023,0.0,0.0
13.503,4360.171,0.00023,0.0,0.0
13.51,4359.798,0.00023,0.0,0.0
13.516,4360.536,0.00023,0.0,0.0
13.522,4355.891,0.00023,0.0,0.0
13.528,4359.021,0.00023,0.0,0.0
13.535,4327.106,0.00023,0.0,0.0
13.541,4357.075,0.00023,0.0,0.0
13.547,4334.272,0.00023,0.0,0.0
13.554,4340.434,0.00023,0.0,0.0
13.56,4335.787,0.00023,0.0,0.0
13.566,4331.005,0.00023,0.0,0.0
13.573,4333.28,0.00023,0.0,0.0
13.579,4333.99,0.00023,0.0,0.0
13.585,4322.9,0.00023,0.0,0.0
13.592,4320.512,0.00023,0.0,0.0
13.598,4319.275,0.00023,0.0,0.0
13.604,4330.398,0.00023,0.0,0.0
13.611,4313.104,0.00023,0.0,0.0
13.617,4302.88,0.00023,0.0,0.0
13.623,4322.482,0.00023,0.0,0.0
13.63,4311.173,0.00023,0.0,0.0
13.636,4302.633,0.00023,0.0,0.0
13.642,4310.121,0.00023,0.0,0.0
13.649,4302.069,0.00023,0.0,0.0
13.655,4314.21,0.00023,0.0,0.0
13.661,4305.326,0.00023,0.0,0.0
13.668,4313.345,0.00023,0.0,0.0
13.674,4301.793,0.00023,0.0,0.0
13.68,4317.207,0.00023,0.0,0.0
13.686,4372.308,0.00023,0.0,0.0
13.693,4337.749,0.00023,0.0,0.0
13.699,4384.939,0.00023,0.0,0.0
13.705,4637.427,0.00022,0.0,0.0
13.712,4436.379,0.00023,0.0,0.0
13.718,4649.059,0.00022,0.0,0.0
13.724,5047.507,0.0002,0.0,0.0
13.731,4462.833,0.00022,0.0,0.0
13.737,4660.235,0.00021,0.0,0.0
13.743,4319.165,0.00023,0.0,0.0
13.75,4334.241,0.00023,0.0,0.0
13.756,4296.329,0.00023,0.0,0.0
13.762,4259.874,0.00023,0.0,0.0
13.769,4281.889,0.00023,0.0,0.0
13.775,4243.908,0.00024,0.0,0.0
13.781,4255.782,0.00023,0.0,0.0
13.788,4241.969,0.00024,0.0,0.0
13.794,4237.34,0.00024,0.0,0.0
13.8,4245.897,0.00024,0.0,0.0
13.807,4224.639,0.00024,0.0,0.0
13.813,4235.766,0.00024,0.0,0.0
13.819,4224.634,0.00024,0.0,0.0
13.826,4221.832,0.00024,0.0,0.0
13.832,4204.38,0.00024,0.0,0.0
13.838,4208.51,0.00024,0.0,0.0
13.844,4216.821,0.00024,0.0,0.0
13.851,4208.869,0.00024,0.0,0.0
13.857,4201.975,0.00024,0.0,0.0
13.863,4204.487,0.00024,0.0,0.0
13.87,4190.722,0.00024,0.0,0.0
13.876,4201.45,0.00024,0.0,0.0
13.882,4171.823,0.00024,0.0,0.0
13.889,4179.772,0.00024,0.0,0.0
13.895,4185.961,0.00024,0.0,0.0
13.901,4179.088,0.00024,0.0,0.0
13.908,4172.048,0.00024,0.0,0.0
13.914,4165.584,0.00024,0.0,0.0
13.92,4159.814,0.00024,0.0,0.0
13.927,4168.456,0.00024,0.0,0.0
13.933,4155.251,0.00024,0.0,0.0
13.939,4165.561,0.00024,0.0,0.0
13.946,4150.923,0.00024,0.0,0.0
13.952,4153.58,0.00024,0.0,0.0
13.958,4161.672,0.00024,0.0,0.0
13.965,4140.644,0.00024,0.0,0.0
13.971,4141.141,0.00024,0.0,0.0
13.977,4138.356,0.00024,0.0,0.0
13.984,4133.591,0.00024,0.0,0.0
13.99,4142.15,0.00024,0.0,0.0
13.996,4132.711,0.00024,0.0,0.0
14.002,4135.615,0.00024,0.0,0.0
14.009,4129.883,0.00024,0.0,0.0
14.015,4124.172,0.00024,0.0,0.0
14.021,4131.238,0.00024,0.0,0.0
14.028,4112.254,0.00024,0.0,0.0
14.034,4114.682,0.00024,0.0,0.0
14.04,4110.606,0.00024,0.0,0.0
14.047,4105.804,0.00024,0.0,0.0
14.053,4104.339,0.00024,0.0,0.0
14.059,4095.8,0.00024,0.0,0.0
14.066,4092.992,0.00024,0.0,0.0
14.072,4095.461,0.00024,0.0,0.0
14.078,4096.885,0.00024,0.0,0.0
14.085,4100.058,0.00024,0.0,0.0
14.091,4089.559,0.00024,0.0,0.0
14.097,4082.316,0.00024,0.0,0.0
14.104,4066.867,0.00025,0.0,0.0
14.11,4074.534,0.00025,0.0,0.0
14.116,4086.708,0.00024,0.0,0.0
14.123,4072.315,0.00025,0.0,0.0
14.129,4057.896,0.00025,0.0,0.0
14.135,4064.982,0.00025,0.0,0.0
14.142,4065.286,0.00025,0.0,0.0
14.148,4075.362,0.00025,0.0,0.0
14.154,4062.85,0.00025,0.0,0.0
14.16,4075.97,0.00025,0.0,0.0
14.167,4057.041,0.00025,0.0,0.0
14.173,4052.196,0.00025,0.0,0.0
14.179,4055.414,0.00025,0.0,0.0
14.186,4043.027,0.00025,0.0,0.0
14.192,4059.739,0.00025,0.0,0.0
14.198,4042.505,0.00025,0.0,0.0
14.205,4041.399,0.00025,0.0,0.0
14.211,4041.772,0.00025,0.0,0.0
14.217,4028.242,0.00025,0.0,0.0
14.224,4033.837,0.00025,0.0,0.0
14.23,4031.591,0.00025,0.0,0.0
14.236,4025.538,0.00025,0.0,0.0
14.243,4026.579,0.00025,0.0,0.0
14.249,4014.11,0.00025,0.0,0.0
14.255,4027.766,0.00025,0.0,0.0
14.262,4011.992,0.00025,0.0,0.0
14.268,4013.161,0.00025,0.0,0.0
14.274,4010.394,0.00025,0.0,0.0
14.281,4009.058,0.00025,0.0,0.0
14.287,4008.517,0.00025,0.0,0.0
14.293,4007.955,0.00025,0.0,0.0
14.3,4002.537,0.00025,0.0,0.0
14.306,4008.136,0.00025,0.0,0.0
14.312,3999.482,0.00025,0.0,0.0
14.318,3996.442,0.00025,0.0,0.0
14.325,3986.486,0.00025,0.0,0.0
14.331,3993.785,0.00025,0.0,0.0
14.337,4003.942,0.00025,0.0,0.0
14.344,3996.223,0.00025,0.0,0.0
14.35,3999.262,0.00025,0.0,0.0
14.356,3982.858,0.00025,0.0,0.0
14.363,3980.393,0.00025,0.0,0.0
14.369,3977.969,0.00025,0.0,0.0
14.375,3978.206,0.00025,0.0,0.0
14.382,3987.838,0.00025,0.0,0.0
14.388,3977.171,0.00025,0.0,0.0
14.394,3974.528,0.00025,0.0,0.0
14.401,3972.223,0.00025,0.0,0.0
14.407,3968.297,0.00025,0.0,0.0
14.413,3975.858,0.00025,0.0,0.0
14.42,3958.587,0.00025,0.0,0.0
14.426,3976.036,0.00025,0.0,0.0
14.432,3991.925,0.00025,0.0,0.0
14.439,3989.134,0.00025,0.0,0.0
14.445,4029.441,0.00025,0.0,0.0
14.451,4006.028,0.00025,0.0,0.0
14.458,4068.65,0.00025,0.0,0.0
14.464,4139.532,0.00024,0.0,0.0
14.47,4095.453,0.00024,0.0,0.0
14.476,4111.352,0.00024,0.0,0.0
14.483,4031.631,0.00025,0.0,0.0
14.489,3992.004,0.00025,0.0,0.0
14.495,3959.503,0.00025,0.0,0.0
14.502,3946.097,0.00025,0.0,0.0
14.508,3964.976,0.00025,0.0,0.0
14.514,3927.957,0.00025,0.0,0.0
14.521,3939.721,0.00025,0.0,0.0
14.527,3935.567,0.00025,0.0,0.0
14.533,3920.077,0.00026,0.0,0.0
14.54,3934.793,0.00025,0.0,0.0
14.546,3923.651,0.00025,0.0,0.0
14.552,3930.582,0.00025,0.0,0.0
14.559,3922.683,0.00025,0.0,0.0
14.565,3915.759,0.00026,0.0,0.0
14.571,3923.518,0.00025,0.0,0.0
14.578,3913.59,0.00026,0.0,0.0
14.584,3920.759,0.00026,0.0,0.0
14.59,3909.176,0.00026,0.0,0.0
14.597,3907.611,0.00026,0.0,0.0
14.603,3908.335,0.00026,0.0,0.0
14.609,3896.304,0.00026,0.0,0.0
14.616,3898.607,0.00026,0.0,0.0
14.622,3889.443,0.00026,0.0,0.0
14.628,3879.811,0.00026,0.0,0.0
14.634,3882.795,0.00026,0.0,0.0
14.641,3875.067,0.00026,0.0,0.0
14.647,3874.435,0.00026,0.0,0.0
14.653,3860.102,0.00026,0.0,0.0
14.66,3881.86,0.00026,0.0,0.0
14.666,3888.514,0.00026,0.0,0.0
14.672,3868.796,0.00026,0.0,0.0
14.679,3862.489,0.00026,0.0,0.0
14.685,3880.331,0.00026,0.0,0.0
14.691,3863.118,0.00026,0.0,0.0
14.698,3868.834,0.00026,0.0,0.0
14.704,3870.209,0.00026,0.0,0.0
14.71,3859.682,0.00026,0.0,0.0
14.717,3859.542,0.00026,0.0,0.0
14.723,3856.665,0.00026,0.0,0.0
14.729,3851.782,0.00026,0.0,0.0
14.736,3857.396,0.00026,0.0,0.0
14.742,3843.316,0.00026,0.0,0.0
14.748,3844.385,0.00026,0.0,0.0
14.755,3842.963,0.00026,0.0,0.0
14.761,3855.858,0.00026,0.0,0.0
14.767,3829.553,0.00026,0.0,0.0
14.774,3841.583,0.00026,0.0,0.0
14.78,3837.861,0.00026,0.0,0.0
14.786,3834.494,0.00026,0.0,0.0
14.792,3825.811,0.00026,0.0,0.0
14.799,3837.258,0.00026,0.0,0.0
14.805,3838.905,0.00026,0.0,0.0
14.811,3842.073,0.00026,0.0,0.0
14.818,3835.468,0.00026,0.0,0.0
14.824,3821.323,0.00026,0.0,0.0
14.83,3817.039,0.00026,0.0,0.0
14.837,3825.259,0.00026,0.0,0.0
14.843,3816.179,0.00026,0.0,0.0
14.849,3811.47,0.00026,0.0,0.0
14.856,3815.774,0.00026,0.0,0.0
14.862,3827.344,0.00026,0.0,0.0
14.868,3816.354,0.00026,0.0,0.0
14.875,3807.261,0.00026,0.0,0.0
14.881,3813.035,0.00026,0.0,0.0
14.887,3814.994,0.00026,0.0,0.0
14.894,3812.168,0.00026,0.0,0.0
14.9,3807.287,0.00026,0.0,0.0
14.906,3810.232,0.00026,0.0,0.0
14.913,3801.101,0.00026,0.0,0.0
14.919,3813.31,0.00026,0.0,0.0
14.925,3800.189,0.00026,0.0,0.0
14.932,3797.839,0.00026,0.0,0.0
14.938,3799.841,0.00026,0.0,0.0
14.944,3791.807,0.00026,0.0,0.0
14.95,3795.854,0.00026,0.0,0.0
14.957,3781.586,0.00026,0.0,0.0
14.963,3795.445,0.00026,0.0,0.0
14.969,3785.947,0.00026,0.0,0.0
14.976,3792.531,0.00026,0.0,0.0
14.982,3782.227,0.00026,0.0,0.0
14.988,3782.602,0.00026,0.0,0.0
14.995,3800.893,0.00026,0.0,0.0
15.001,3784.005,0.00026,0.0,0.0
15.007,3781.371,0.00026,0.0,0.0
15.014,3777.073,0.00026,0.0,0.0
15.02,3783.505,0.00026,0.0,0.0
15.026,3780.647,0.00026,0.0,0.0
15.033,3787.355,0.00026,0.0,0.0
15.039,3783.08,0.00026,0.0,0.0
15.045,3777.757,0.00026,0.0,0.0
15.052,3775.07,0.00026,0.0,0.0
15.058,3785.144,0.00026,0.0,0.0
15.064,3764.05,0.00027,0.0,0.0
15.071,3775.244,0.00026,0.0,0.0
15.077,3770.768,0.00027,0.0,0.0
15.083,3768.25,0.00027,0.0,0.0
15.09,3765.432,0.00027,0.0,0.0
15.096,3761.653,0.00027,0.0,0.0
15.102,3770.988,0.00027,0.0,0.0
15.108,3758.466,0.00027,0.0,0.0
15.115,3774.168,0.00026,0.0,0.0
15.121,3773.027,0.00027,0.0,0.0
15.127,3768.505,0.00027,0.0,0.0
15.134,3787.351,0.00026,0.0,0.0
15.14,3806.888,0.00026,0.0,0.0
15.146,3834.702,0.00026,0.0,0.0
15.153,3862.205,0.00026,0.0,0.0
15.159,3867.344,0.00026,0.0,0.0
15.165,3889.299,0.00026,0.0,0.0
15.172,3961.612,0.00025,0.0,0.0
15.178,3988.728,0.00025,0.0,0.0
15.184,4058.875,0.00025,0.0,0.0
15.191,3877.811,0.00026,0.0,0.0
15.197,3828.474,0.00026,0.0,0.0
15.203,3795.66,0.00026,0.0,0.0
15.21,3787.744,0.00026,0.0,0.0
15.216,3783.017,0.00026,0.0,0.0
15.222,3771.387,0.00027,0.0,0.0
15.229,3772.607,0.00027,0.0,0.0
15.235,3772.202,0.00027,0.0,0.0
15.241,3789.55,0.00026,0.0,0.0
15.248,3805.634,0.00026,0.0,0.0
15.254,3823.331,0.00026,0.0,0.0
15.26,3867.671,0.00026,0.0,0.0
15.266,3924.577,0.00025,0.0,0.0
15.273,4047.067,0.00025,0.0,0.0
15.279,4228.15,0.00024,0.0,0.0
15.285,4546.784,0.00022,0.0,0.0
15.292,4797.904,0.00021,0.0,0.0
15.298,5452.558,0.00018,0.0,0.0
15.304,5782.836,0.00017,0.0,0.0
15.311,6048.644,0.00017,0.0,0.0
15.317,6132.275,0.00016,0.0,0.0
15.323,5845.019,0.00017,0.0,0.0
15.33,5468.542,0.00018,0.0,0.0
15.336,4995.889,0.0002,0.0,0.0
15.342,4545.122,0.00022,0.0,0.0
15.349,4257.498,0.00023,0.0,0.0
15.355,4034.357,0.00025,0.0,0.0
15.361,3912.856,0.00026,0.0,0.0
15.368,3839.879,0.00026,0.0,0.0
15.374,3788.573,0.00026,0.0,0.0
15.38,3763.259,0.00027,0.0,0.0
15.387,3748.984,0.00027,0.0,0.0
15.393,3727.048,0.00027,0.0,0.0
15.399,3713.603,0.00027,0.0,0.0
15.406,3709.177,0.00027,0.0,0.0
15.412,3707.836,0.00027,0.0,0.0
15.418,3707.467,0.00027,0.0,0.0
15.424,3704.001,0.00027,0.0,0.0
15.431,3699.867,0.00027,0.0,0.0
15.437,3695.474,0.00027,0.0,0.0
15.443,3692.944,0.00027,0.0,0.0
15.45,3695.992,0.00027,0.0,0.0
15.456,3687.711,0.00027,0.0,0.0
15.462,3692.648,0.00027,0.0,0.0
15.469,3669.667,0.00027,0.0,0.0
15.475,3676.366,0.00027,0.0,0.0
15.481,3671.747,0.00027,0.0,0.0
15.488,3669.612,0.00027,0.0,0.0
15.494,3661.327,0.00027,0.0,0.0
15.5,3663.956,0.00027,0.0,0.0
15.507,3675.407,0.00027,0.0,0.0
15.513,3664.938,0.00027,0.0,0.0
15.519,3661.386,0.00027,0.0,0.0
15.526,3669.065,0.00027,0.0,0.0
15.532,3652.47,0.00027,0.0,0.0
15.538,3661.3,0.00027,0.0,0.0
15.545,3651.123,0.00027,0.0,0.0
15.551,3658.556,0.00027,0.0,0.0
15.557,3656.424,0.00027,0.0,0.0
15.564,3649.148,0.00027,0.0,0.0
15.57,3656.73,0.00027,0.0,0.0
15.576,3646.353,0.00027,0.0,0.0
15.582,3653.146,0.00027,0.0,0.0
15.589,3650.118,0.00027,0.0,0.0
15.595,3645.772,0.00027,0.0,0.0
15.601,3637.765,0.00027,0.0,0.0
15.608,3620.507,0.00028,0.0,0.0
15.614,3629.889,0.00028,0.0,0.0
15.62,3628.07,0.00028,0.0,0.0
15.627,3626.794,0.00028,0.0,0.0
15.633,3621.914,0.00028,0.0,0.0
15.639,3623.882,0.00028,0.0,0.0
15.646,3628.787,0.00028,0.0,0.0
15.652,3626.731,0.00028,0.0,0.0
15.658,3618.304,0.00028,0.0,0.0
15.665,3617.131,0.00028,0.0,0.0
15.671,3623.772,0.00028,0.0,0.0
15.677,3629.261,0.00028,0.0,0.0
15.684,3615.791,0.00028,0.0,0.0
15.69,3622.383,0.00028,0.0,0.0
15.696,3613.31,0.00028,0.0,0.0
15.703,3618.786,0.00028,0.0,0.0
15.709,3619.82,0.00028,0.0,0.0
15.715,3611.029,0.00028,0.0,0.0
15.722,3607.998,0.00028,0.0,0.0
15.728,3604.82,0.00028,0.0,0.0
15.734,3596.81,0.00028,0.0,0.0
15.74,3596.497,0.00028,0.0,0.0
15.747,3608.164,0.00028,0.0,0.0
15.753,3597.872,0.00028,0.0,0.0
15.759,3605.701,0.00028,0.0,0.0
15.766,3602.841,0.00028,0.0,0.0
15.772,3600.571,0.00028,0.0,0.0
15.778,3588.521,0.00028,0.0,0.0
15.785,3594.685,0.00028,0.0,0.0
15.791,3586.594,0.00028,0.0,0.0
15.797,3595.229,0.00028,0.0,0.0
15.804,3595.98,0.00028,0.0,0.0
15.81,3598.757,0.00028,0.0,0.0
15.816,3585.341,0.00028,0.0,0.0
15.823,3589.527,0.00028,0.0,0.0
15.829,3599.185,0.00028,0.0,0.0
15.835,3602.908,0.00028,0.0,0.0
15.842,3606.643,0.00028,0.0,0.0
15.848,3631.9,0.00028,0.0,0.0
15.854,3613.504,0.00028,0.0,0.0
15.861,3621.805,0.00028,0.0,0.0
15.867,3621.531,0.00028,0.0,0.0
15.873,3592.388,0.00028,0.0,0.0
15.88,3586.103,0.00028,0.0,0.0
15.886,3576.096,0.00028,0.0,0.0
15.892,3578.542,0.00028,0.0,0.0
15.898,3569.85,0.00028,0.0,0.0
15.905,3557.925,0.00028,0.0,0.0
15.911,3567.845,0.00028,0.0,0.0
15.917,3566.922,0.00028,0.0,0.0
15.924,3556.631,0.00028,0.0,0.0
15.93,3560.79,0.00028,0.0,0.0
15.936,3557.038,0.00028,0.0,0.0
15.943,3563.157,0.00028,0.0,0.0
15.949,3557.363,0.00028,0.0,0.0
15.955,3556.593,0.00028,0.0,0.0
15.962,3560.255,0.00028,0.0,0.0
15.968,3560.771,0.00028,0.0,0.0
15.974,3560.853,0.00028,0.0,0.0
15.981,3551.877,0.00028,0.0,0.0
15.987,3548.806,0.00028,0.0,0.0
15.993,3539.445,0.00028,0.0,0.0
16.0,3543.13,0.00028,0.0,0.0
16.006,3528.03,0.00028,0.0,0.0
16.012,3545.089,0.00028,0.0,0.0
16.019,3548.362,0.00028,0.0,0.0
16.025,3540.646,0.00028,0.0,0.0
16.031,3532.23,0.00028,0.0,0.0
16.038,3542.972,0.00028,0.0,0.0
16.044,3534.601,0.00028,0.0,0.0
16.05,3539.318,0.00028,0.0,0.0
16.056,3533.027,0.00028,0.0,0.0
16.063,3534.151,0.00028,0.0,0.0
16.069,3531.116,0.00028,0.0,0.0
16.075,3528.186,0.00028,0.0,0.0
16.082,3521.236,0.00028,0.0,0.0
16.088,3528.954,0.00028,0.0,0.0
16.094,3538.512,0.00028,0.0,0.0
16.101,3539.947,0.00028,0.0,0.0
16.107,3519.481,0.00028,0.0,0.0
16.113,3515.52,0.00028,0.0,0.0
16.12,3524.71,0.00028,0.0,0.0
16.126,3531.5,0.00028,0.0,0.0
16.132,3521.405,0.00028,0.0,0.0
16.139,3515.92,0.00028,0.0,0.0
16.145,3529.672,0.00028,0.0,0.0
16.151,3520.654,0.00028,0.0,0.0
16.158,3516.425,0.00028,0.0,0.0
16.164,3518.873,0.00028,0.0,0.0
16.17,3515.732,0.00028,0.0,0.0
16.177,3523.161,0.00028,0.0,0.0
16.183,3509.321,0.00028,0.0,0.0
16.189,3511.328,0.00028,0.0,0.0
16.196,3524.495,0.00028,0.0,0.0
16.202,3516.941,0.00028,0.0,0.0
16.208,3517.646,0.00028,0.0,0.0
16.214,3505.579,0.00029,0.0,0.0
16.221,3509.312,0.00028,0.0,0.0
16.227,3509.905,0.00028,0.0,0.0
16.233,3495.058,0.00029,0.0,0.0
16.24,3518.441,0.00028,0.0,0.0
16.246,3508.654,0.00029,0.0,0.0
16.252,3516.098,0.00028,0.0,0.0
16.259,3507.975,0.00029,0.0,0.0
16.265,3511.679,0.00028,0.0,0.0
16.271,3504.563,0.00029,0.0,0.0
16.278,3497.28,0.00029,0.0,0.0
16.284,3502.178,0.00029,0.0,0.0
16.29,3508.136,0.00029,0.0,0.0
16.297,3499.538,0.00029,0.0,0.0
16.303,3509.432,0.00028,0.0,0.0
16.309,3493.896,0.00029,0.0,0.0
16.316,3507.077,0.00029,0.0,0.0
16.322,3493.309,0.00029,0.0,0.0
16.328,3510.794,0.00028,0.0,0.0
16.335,3511.949,0.00028,0.0,0.0
16.341,3501.701,0.00029,0.0,0.0
16.347,3509.136,0.00028,0.0,0.0
16.354,3501.0,0.00029,0.0,0.0
16.36,3504.574,0.00029,0.0,0.0
16.366,3499.852,0.00029,0.0,0.0
16.372,3499.772,0.00029,0.0,0.0
16.379,3504.845,0.00029,0.0,0.0
16.385,3515.09,0.00028,0.0,0.0
16.391,3508.483,0.00029,0.0,0.0
16.398,3508.46,0.00029,0.0,0.0
16.404,3507.929,0.00029,0.0,0.0
16.41,3509.939,0.00028,0.0,0.0
16.417,3498.559,0.00029,0.0,0.0
16.423,3513.139,0.00028,0.0,0.0
16.429,3512.763,0.00028,0.0,0.0
16.436,3524.946,0.00028,0.0,0.0
16.442,3511.252,0.00028,0.0,0.0
16.448,3510.381,0.00028,0.0,0.0
16.455,3523.273,0.00028,0.0,0.0
16.461,3521.977,0.00028,0.0,0.0
16.467,3524.327,0.00028,0.0,0.0
16.474,3554.121,0.00028,0.0,0.0
16.48,3561.755,0.00028,0.0,0.0
16.486,3617.429,0.00028,0.0,0.0
16.493,3686.389,0.00027,0.0,0.0
16.499,3703.121,0.00027,0.0,0.0
16.505,3847.291,0.00026,0.0,0.0
16.512,3682.306,0.00027,0.0,0.0
16.518,3696.09,0.00027,0.0,0.0
16.524,3600.898,0.00028,0.0,0.0
16.53,3554.951,0.00028,0.0,0.0
16.537,3548.625,0.00028,0.0,0.0
16.543,3533.731,0.00028,0.0,0.0
16.549,3523.206,0.00028,0.0,0.0
16.556,3532.435,0.00028,0.0,0.0
16.562,3515.22,0.00028,0.0,0.0
16.568,3523.874,0.00028,0.0,0.0
16.575,3529.875,0.00028,0.0,0.0
16.581,3529.312,0.00028,0.0,0.0
16.587,3520.8,0.00028,0.0,0.0
16.594,3537.884,0.00028,0.0,0.0
