"x","y_obs","weight","y_calc","y_bkg"
0.58,4563.357,0.00022,0.0,0.0
0.586,6377.897,0.00016,0.0,0.0
0.592,5501.141,0.00018,0.0,0.0
0.599,6430.589,0.00016,0.0,0.0
0.605,6777.727,0.00015,0.0,0.0
0.611,6606.372,0.00015,0.0,0.0
0.617,8181.816,0.00012,0.0,0.0
0.624,8198.189,0.00012,0.0,0.0
0.63,7499.356,0.00013,0.0,0.0
0.636,9511.681,0.00011,0.0,0.0
0.642,9014.547,0.00011,0.0,0.0
0.649,9700.054,0.0001,0.0,0.0
0.655,10028.184,0.0001,0.0,0.0
0.661,9214.441,0.00011,0.0,0.0
0.667,11188.209,0.00009,0.0,0.0
0.674,11309.754,0.00009,0.0,0.0
0.68,10613.173,0.00009,0.0,0.0
0.686,12127.651,0.00008,0.0,0.0
0.692,10960.359,0.00009,0.0,0.0
0.699,12531.264,0.00008,0.0,0.0
0.705,12595.593,0.00008,0.0,0.0
0.711,11619.755,0.00009,0.0,0.0
0.717,13276.857,0.00008,0.0,0.0
0.724,12404.701,0.00008,0.0,0.0
0.73,12752.355,0.00008,0.0,0.0
0.736,13181.061,0.00008,0.0,0.0
0.742,12557.037,0.00008,0.0,0.0
0.749,13018.701,0.00008,0.0,0.0
0.755,13300.595,0.00008,0.0,0.0
0.761,12553.478,0.00008,0.0,0.0
0.767,13218.436,0.00008,0.0,0.0
0.774,12790.083,0.00008,0.0,0.0
0.78,12898.631,0.00008,0.0,0.0
0.786,12848.588,0.00008,0.0,0.0
0.792,12618.09,0.00008,0.0,0.0
0.799,12791.638,0.00008,0.0,0.0
0.805,12490.04,0.00008,0.0,0.0
0.811,12350.482,0.00008,0.0,0.0
0.817,12292.813,0.00008,0.0,0.0
0.824,12171.368,0.00008,0.0,0.0
0.83,11984.89,0.00008,0.0,0.0
0.836,12043.187,0.00008,0.0,0.0
0.842,11733.248,0.00009,0.0,0.0
0.849,11836.012,0.00008,0.0,0.0
0.855,11502.203,0.00009,0.0,0.0
0.861,11460.857,0.00009,0.0,0.0
0.867,11352.885,0.00009,0.0,0.0
0.874,11091.545,0.00009,0.0,0.0
0.88,11050.224,0.00009,0.0,0.0
0.886,10805.836,0.00009,0.0,0.0
0.892,10771.716,0.00009,0.0,0.0
0.899,10558.934,0.00009,0.0,0.0
0.905,10410.056,0.0001,0.0,0.0
0.911,10295.019,0.0001,0.0,0.0
0.917,10160.338,0.0001,0.0,0.0
0.924,10002.736,0.0001,0.0,0.0
0.93,9911.394,0.0001,0.0,0.0
0.936,9748.96,0.0001,0.0,0.0
0.942,9548.773,0.0001,0.0,0.0
0.949,9475.13,0.00011,0.0,0.0
0.955,9324.95,0.00011,0.0,0.0
0.961,9265.075,0.00011,0.0,0.0
0.967,9077.49,0.00011,0.0,0.0
0.974,9013.511,0.00011,0.0,0.0
0.98,8935.838,0.00011,0.0,0.0
0.986,8801.698,0.00011,0.0,0.0
0.992,8713.889,0.00011,0.0,0.0
0.999,8637.983,0.00012,0.0,0.0
1.005,8518.413,0.00012,0.0,0.0
1.011,8555.399,0.00012,0.0,0.0
1.017,8416.264,0.00012,0.0,0.0
1.024,8365.337,0.00012,0.0,0.0
1.03,8351.086,0.00012,0.0,0.0
1.036,8232.094,0.00012,0.0,0.0
1.042,8228.51,0.00012,0.0,0.0
1.049,8186.847,0.00012,0.0,0.0
1.055,8100.522,0.00012,0.0,0.0
1.061,8064.679,0.00012,0.0,0.0
1.067,8026.898,0.00012,0.0,0.0
1.074,7965.73,0.00013,0.0,0.0
1.08,7934.948,0.00013,0.0,0.0
1.086,7808.805,0.00013,0.0,0.0
1.092,7859.998,0.00013,0.0,0.0
1.099,7792.963,0.00013,0.0,0.0
1.105,7729.257,0.00013,0.0,0.0
1.111,7712.318,0.00013,0.0,0.0
1.117,7587.328,0.00013,0.0,0.0
1.124,7560.466,0.00013,0.0,0.0
1.13,7502.353,0.00013,0.0,0.0
1.136,7373.677,0.00014,0.0,0.0
1.142,7350.384,0.00014,0.0,0.0
1.149,7268.911,0.00014,0.0,0.0
1.155,7170.64,0.00014,0.0,0.0
1.161,7109.626,0.00014,0.0,0.0
1.167,6995.404,0.00014,0.0,0.0
1.174,6959.183,0.00014,0.0,0.0
1.18,6878.666,0.00015,0.0,0.0
1.186,6786.771,0.00015,0.0,0.0
1.192,6773.355,0.00015,0.0,0.0
1.199,6677.432,0.00015,0.0,0.0
1.205,6628.82,0.00015,0.0,0.0
1.211,6602.498,0.00015,0.0,0.0
1.217,6509.905,0.00015,0.0,0.0
1.224,6490.631,0.00015,0.0,0.0
1.23,6477.119,0.00015,0.0,0.0
1.236,6370.68,0.00016,0.0,0.0
1.242,6358.9,0.00016,0.0,0.0
1.249,6310.291,0.00016,0.0,0.0
1.255,6267.861,0.00016,0.0,0.0
1.261,6239.614,0.00016,0.0,0.0
1.267,6170.514,0.00016,0.0,0.0
1.274,6154.82,0.00016,0.0,0.0
1.28,6090.388,0.00016,0.0,0.0
1.286,6069.606,0.00016,0.0,0.0
1.292,6085.94,0.00016,0.0,0.0
1.299,5985.138,0.00017,0.0,0.0
1.305,6011.756,0.00017,0.0,0.0
1.311,5962.436,0.00017,0.0,0.0
1.317,5858.853,0.00017,0.0,0.0
1.324,5916.036,0.00017,0.0,0.0
1.33,5807.837,0.00017,0.0,0.0
1.336,5818.45,0.00017,0.0,0.0
1.342,5813.895,0.00017,0.0,0.0
1.349,5708.513,0.00018,0.0,0.0
1.355,5755.015,0.00017,0.0,0.0
1.361,5694.545,0.00018,0.0,0.0
1.367,5645.88,0.00018,0.0,0.0
1.373,5679.008,0.00018,0.0,0.0
1.38,5580.969,0.00018,0.0,0.0
1.386,5571.288,0.00018,0.0,0.0
1.392,5583.769,0.00018,0.0,0.0
1.398,5475.767,0.00018,0.0,0.0
1.405,5540.04,0.00018,0.0,0.0
1.411,5456.247,0.00018,0.0,0.0
1.417,5442.177,0.00018,0.0,0.0
1.423,5428.892,0.00018,0.0,0.0
1.43,5384.503,0.00019,0.0,0.0
1.436,5398.598,0.00019,0.0,0.0
1.442,5375.528,0.00019,0.0,0.0
1.448,5307.118,0.00019,0.0,0.0
1.455,5346.7,0.00019,0.0,0.0
1.461,5287.188,0.00019,0.0,0.0
1.467,5259.704,0.00019,0.0,0.0
1.473,5267.506,0.00019,0.0,0.0
1.48,5190.554,0.00019,0.0,0.0
1.486,5234.838,0.00019,0.0,0.0
1.492,5195.129,0.00019,0.0,0.0
1.498,5156.351,0.00019,0.0,0.0
1.505,5147.471,0.00019,0.0,0.0
1.511,5106.434,0.0002,0.0,0.0
1.517,5100.342,0.0002,0.0,0.0
1.523,5099.85,0.0002,0.0,0.0
1.53,5041.826,0.0002,0.0,0.0
1.536,5072.984,0.0002,0.0,0.0
1.542,5008.904,0.0002,0.0,0.0
1.548,5011.583,0.0002,0.0,0.0
1.555,5024.793,0.0002,0.0,0.0
1.561,4941.925,0.0002,0.0,0.0
1.567,5001.118,0.0002,0.0,0.0
1.573,4987.351,0.0002,0.0,0.0
1.58,4938.498,0.0002,0.0,0.0
1.586,4954.935,0.0002,0.0,0.0
1.592,4921.591,0.0002,0.0,0.0
1.598,4922.474,0.0002,0.0,0.0
1.605,4927.706,0.0002,0.0,0.0
1.611,4869.311,0.00021,0.0,0.0
1.617,4877.77,0.00021,0.0,0.0
1.623,4867.515,0.00021,0.0,0.0
1.63,4826.649,0.00021,0.0,0.0
1.636,4840.758,0.00021,0.0,0.0
1.642,4773.436,0.00021,0.0,0.0
1.648,4783.105,0.00021,0.0,0.0
1.655,4795.265,0.00021,0.0,0.0
1.661,4742.451,0.00021,0.0,0.0
1.667,4784.489,0.00021,0.0,0.0
1.673,4743.177,0.00021,0.0,0.0
1.68,4741.247,0.00021,0.0,0.0
1.686,4760.957,0.00021,0.0,0.0
1.692,4710.32,0.00021,0.0,0.0
1.698,4728.279,0.00021,0.0,0.0
1.705,4722.543,0.00021,0.0,0.0
1.711,4659.795,0.00021,0.0,0.0
1.717,4686.566,0.00021,0.0,0.0
1.723,4638.474,0.00022,0.0,0.0
1.73,4664.724,0.00021,0.0,0.0
1.736,4647.864,0.00022,0.0,0.0
1.742,4633.523,0.00022,0.0,0.0
1.748,4644.28,0.00022,0.0,0.0
1.755,4628.294,0.00022,0.0,0.0
1.761,4617.194,0.00022,0.0,0.0
1.767,4624.632,0.00022,0.0,0.0
1.773,4569.963,0.00022,0.0,0.0
1.78,4590.108,0.00022,0.0,0.0
1.786,4610.431,0.00022,0.0,0.0
1.792,4547.401,0.00022,0.0,0.0
1.798,4544.249,0.00022,0.0,0.0
1.805,4530.157,0.00022,0.0,0.0
1.811,4521.88,0.00022,0.0,0.0
1.817,4528.198,0.00022,0.0,0.0
1.823,4492.462,0.00022,0.0,0.0
1.83,4491.989,0.00022,0.0,0.0
1.836,4486.43,0.00022,0.0,0.0
1.842,4461.665,0.00022,0.0,0.0
1.848,4494.882,0.00022,0.0,0.0
1.855,4447.365,0.00022,0.0,0.0
1.861,4469.704,0.00022,0.0,0.0
1.867,4452.026,0.00022,0.0,0.0
1.873,4400.414,0.00023,0.0,0.0
1.88,4443.942,0.00023,0.0,0.0
1.886,4402.568,0.00023,0.0,0.0
1.892,4403.94,0.00023,0.0,0.0
1.898,4415.664,0.00023,0.0,0.0
1.905,4398.208,0.00023,0.0,0.0
1.911,4390.462,0.00023,0.0,0.0
1.917,4404.245,0.00023,0.0,0.0
1.923,4369.008,0.00023,0.0,0.0
1.93,4388.332,0.00023,0.0,0.0
1.936,4384.517,0.00023,0.0,0.0
1.942,4367.38,0.00023,0.0,0.0
1.948,4364.731,0.00023,0.0,0.0
1.955,4346.027,0.00023,0.0,0.0
1.961,4376.257,0.00023,0.0,0.0
1.967,4347.797,0.00023,0.0,0.0
1.973,4350.324,0.00023,0.0,0.0
1.98,4345.226,0.00023,0.0,0.0
1.986,4311.229,0.00023,0.0,0.0
1.992,4338.497,0.00023,0.0,0.0
1.998,4341.954,0.00023,0.0,0.0
2.005,4306.745,0.00023,0.0,0.0
2.011,4309.759,0.00023,0.0,0.0
2.017,4303.419,0.00023,0.0,0.0
2.023,4318.101,0.00023,0.0,0.0
2.03,4311.575,0.00023,0.0,0.0
2.036,4292.756,0.00023,0.0,0.0
2.042,4299.464,0.00023,0.0,0.0
2.048,4298.538,0.00023,0.0,0.0
2.055,4284.446,0.00023,0.0,0.0
2.061,4303.328,0.00023,0.0,0.0
2.067,4274.691,0.00023,0.0,0.0
2.073,4267.174,0.00023,0.0,0.0
2.08,4283.013,0.00023,0.0,0.0
2.086,4253.902,0.00024,0.0,0.0
2.092,4285.59,0.00023,0.0,0.0
2.098,4261.857,0.00023,0.0,0.0
2.105,4271.461,0.00023,0.0,0.0
2.111,4284.008,0.00023,0.0,0.0
2.117,4259.418,0.00023,0.0,0.0
2.123,4265.618,0.00023,0.0,0.0
2.13,4253.193,0.00024,0.0,0.0
2.136,4254.077,0.00024,0.0,0.0
2.142,4256.883,0.00023,0.0,0.0
2.148,4247.998,0.00024,0.0,0.0
2.154,4234.856,0.00024,0.0,0.0
2.161,4237.271,0.00024,0.0,0.0
2.167,4208.991,0.00024,0.0,0.0
2.173,4244.947,0.00024,0.0,0.0
2.179,4234.425,0.00024,0.0,0.0
2.186,4224.84,0.00024,0.0,0.0
2.192,4233.161,0.00024,0.0,0.0
2.198,4214.513,0.00024,0.0,0.0
2.204,4226.756,0.00024,0.0,0.0
2.211,4249.549,0.00024,0.0,0.0
2.217,4191.121,0.00024,0.0,0.0
2.223,4220.246,0.00024,0.0,0.0
2.229,4206.984,0.00024,0.0,0.0
2.236,4220.23,0.00024,0.0,0.0
2.242,4210.807,0.00024,0.0,0.0
2.248,4189.506,0.00024,0.0,0.0
2.254,4217.216,0.00024,0.0,0.0
2.261,4209.212,0.00024,0.0,0.0
2.267,4195.015,0.00024,0.0,0.0
2.273,4205.653,0.00024,0.0,0.0
2.279,4172.303,0.00024,0.0,0.0
2.286,4209.488,0.00024,0.0,0.0
2.292,4213.667,0.00024,0.0,0.0
2.298,4213.855,0.00024,0.0,0.0
2.304,4207.624,0.00024,0.0,0.0
2.311,4209.643,0.00024,0.0,0.0
2.317,4223.749,0.00024,0.0,0.0
2.323,4223.318,0.00024,0.0,0.0
2.329,4208.912,0.00024,0.0,0.0
2.336,4219.792,0.00024,0.0,0.0
2.342,4210.151,0.00024,0.0,0.0
2.348,4178.32,0.00024,0.0,0.0
2.354,4225.769,0.00024,0.0,0.0
2.361,4188.704,0.00024,0.0,0.0
2.367,4183.753,0.00024,0.0,0.0
2.373,4189.899,0.00024,0.0,0.0
2.379,4168.689,0.00024,0.0,0.0
2.386,4200.329,0.00024,0.0,0.0
2.392,4182.665,0.00024,0.0,0.0
2.398,4187.756,0.00024,0.0,0.0
2.404,4191.632,0.00024,0.0,0.0
2.411,4187.124,0.00024,0.0,0.0
2.417,4199.787,0.00024,0.0,0.0
2.423,4195.068,0.00024,0.0,0.0
2.429,4165.341,0.00024,0.0,0.0
2.436,4199.636,0.00024,0.0,0.0
2.442,4214.865,0.00024,0.0,0.0
2.448,4193.17,0.00024,0.0,0.0
2.454,4213.899,0.00024,0.0,0.0
2.461,4196.284,0.00024,0.0,0.0
2.467,4196.098,0.00024,0.0,0.0
2.473,4239.354,0.00024,0.0,0.0
2.479,4210.437,0.00024,0.0,0.0
2.486,4210.112,0.00024,0.0,0.0
2.492,4201.462,0.00024,0.0,0.0
2.498,4183.766,0.00024,0.0,0.0
2.504,4223.313,0.00024,0.0,0.0
2.511,4178.618,0.00024,0.0,0.0
2.517,4194.849,0.00024,0.0,0.0
2.523,4188.247,0.00024,0.0,0.0
2.529,4207.785,0.00024,0.0,0.0
2.536,4218.82,0.00024,0.0,0.0
2.542,4193.966,0.00024,0.0,0.0
2.548,4197.313,0.00024,0.0,0.0
2.554,4220.678,0.00024,0.0,0.0
2.561,4193.973,0.00024,0.0,0.0
2.567,4217.38,0.00024,0.0,0.0
2.573,4189.819,0.00024,0.0,0.0
2.579,4197.787,0.00024,0.0,0.0
2.586,4204.718,0.00024,0.0,0.0
2.592,4205.122,0.00024,0.0,0.0
2.598,4225.894,0.00024,0.0,0.0
2.604,4184.213,0.00024,0.0,0.0
2.611,4211.299,0.00024,0.0,0.0
2.617,4210.767,0.00024,0.0,0.0
2.623,4205.163,0.00024,0.0,0.0
2.629,4215.691,0.00024,0.0,0.0
2.636,4225.902,0.00024,0.0,0.0
2.642,4208.935,0.00024,0.0,0.0
2.648,4222.633,0.00024,0.0,0.0
2.654,4223.309,0.00024,0.0,0.0
2.661,4227.143,0.00024,0.0,0.0
2.667,4243.126,0.00024,0.0,0.0
2.673,4210.272,0.00024,0.0,0.0
2.679,4248.05,0.00024,0.0,0.0
2.686,4242.838,0.00024,0.0,0.0
2.692,4219.764,0.00024,0.0,0.0
2.698,4254.171,0.00024,0.0,0.0
2.704,4230.716,0.00024,0.0,0.0
2.711,4241.103,0.00024,0.0,0.0
2.717,4263.448,0.00023,0.0,0.0
2.723,4232.125,0.00024,0.0,0.0
2.729,4260.127,0.00023,0.0,0.0
2.736,4235.775,0.00024,0.0,0.0
2.742,4261.574,0.00023,0.0,0.0
2.748,4263.647,0.00023,0.0,0.0
2.754,4249.039,0.00024,0.0,0.0
2.761,4289.65,0.00023,0.0,0.0
2.767,4282.328,0.00023,0.0,0.0
2.773,4277.915,0.00023,0.0,0.0
2.779,4281.786,0.00023,0.0,0.0
2.786,4282.283,0.00023,0.0,0.0
2.792,4273.604,0.00023,0.0,0.0
2.798,4311.565,0.00023,0.0,0.0
2.804,4293.111,0.00023,0.0,0.0
2.811,4328.396,0.00023,0.0,0.0
2.817,4323.105,0.00023,0.0,0.0
2.823,4309.075,0.00023,0.0,0.0
2.829,4350.552,0.00023,0.0,0.0
2.836,4336.66,0.00023,0.0,0.0
2.842,4333.802,0.00023,0.0,0.0
2.848,4349.376,0.00023,0.0,0.0
2.854,4332.146,0.00023,0.0,0.0
2.861,4369.822,0.00023,0.0,0.0
2.867,4369.573,0.00023,0.0,0.0
2.873,4380.122,0.00023,0.0,0.0
2.879,4391.426,0.00023,0.0,0.0
2.886,4382.002,0.00023,0.0,0.0
2.892,4400.951,0.00023,0.0,0.0
2.898,4410.059,0.00023,0.0,0.0
2.904,4376.318,0.00023,0.0,0.0
2.911,4406.423,0.00023,0.0,0.0
2.917,4420.233,0.00023,0.0,0.0
2.923,4433.635,0.00023,0.0,0.0
2.929,4440.887,0.00023,0.0,0.0
2.935,4414.785,0.00023,0.0,0.0
2.942,4433.405,0.00023,0.0,0.0
2.948,4439.045,0.00023,0.0,0.0
2.954,4432.462,0.00023,0.0,0.0
2.96,4439.777,0.00023,0.0,0.0
2.967,4423.274,0.00023,0.0,0.0
2.973,4443.559,0.00023,0.0,0.0
2.979,4452.287,0.00022,0.0,0.0
2.985,4407.922,0.00023,0.0,0.0
2.992,4432.658,0.00023,0.0,0.0
2.998,4394.298,0.00023,0.0,0.0
3.004,4412.252,0.00023,0.0,0.0
3.01,4430.835,0.00023,0.0,0.0
3.017,4404.8,0.00023,0.0,0.0
3.023,4380.668,0.00023,0.0,0.0
3.029,4392.735,0.00023,0.0,0.0
3.035,4375.317,0.00023,0.0,0.0
3.042,4383.978,0.00023,0.0,0.0
3.048,4354.048,0.00023,0.0,0.0
3.054,4336.654,0.00023,0.0,0.0
3.06,4332.987,0.00023,0.0,0.0
3.067,4319.57,0.00023,0.0,0.0
3.073,4339.32,0.00023,0.0,0.0
3.079,4296.387,0.00023,0.0,0.0
3.085,4309.866,0.00023,0.0,0.0
3.092,4298.389,0.00023,0.0,0.0
3.098,4289.291,0.00023,0.0,0.0
3.104,4290.559,0.00023,0.0,0.0
3.11,4282.026,0.00023,0.0,0.0
3.117,4257.689,0.00023,0.0,0.0
3.123,4274.06,0.00023,0.0,0.0
3.129,4270.986,0.00023,0.0,0.0
3.135,4259.671,0.00023,0.0,0.0
3.142,4277.781,0.00023,0.0,0.0
3.148,4247.246,0.00024,0.0,0.0
3.154,4269.001,0.00023,0.0,0.0
3.16,4271.597,0.00023,0.0,0.0
3.167,4236.872,0.00024,0.0,0.0
3.173,4260.959,0.00023,0.0,0.0
3.179,4238.677,0.00024,0.0,0.0
3.185,4266.951,0.00023,0.0,0.0
3.192,4264.059,0.00023,0.0,0.0
3.198,4247.44,0.00024,0.0,0.0
3.204,4255.409,0.00023,0.0,0.0
3.21,4245.603,0.00024,0.0,0.0
3.217,4261.469,0.00023,0.0,0.0
3.223,4271.231,0.00023,0.0,0.0
3.229,4243.241,0.00024,0.0,0.0
3.235,4258.668,0.00023,0.0,0.0
3.242,4238.561,0.00024,0.0,0.0
3.248,4251.505,0.00024,0.0,0.0
3.254,4249.729,0.00024,0.0,0.0
3.26,4240.428,0.00024,0.0,0.0
3.267,4241.941,0.00024,0.0,0.0
3.273,4262.331,0.00023,0.0,0.0
3.279,4237.817,0.00024,0.0,0.0
3.285,4245.91,0.00024,0.0,0.0
3.292,4240.165,0.00024,0.0,0.0
3.298,4223.353,0.00024,0.0,0.0
3.304,4264.403,0.00023,0.0,0.0
3.31,4242.12,0.00024,0.0,0.0
3.317,4246.786,0.00024,0.0,0.0
3.323,4251.649,0.00024,0.0,0.0
3.329,4245.535,0.00024,0.0,0.0
3.335,4271.274,0.00023,0.0,0.0
3.342,4238.466,0.00024,0.0,0.0
3.348,4258.907,0.00023,0.0,0.0
3.354,4249.911,0.00024,0.0,0.0
3.36,4251.033,0.00024,0.0,0.0
3.367,4270.967,0.00023,0.0,0.0
3.373,4271.286,0.00023,0.0,0.0
3.379,4263.145,0.00023,0.0,0.0
3.385,4274.952,0.00023,0.0,0.0
3.392,4294.503,0.00023,0.0,0.0
3.398,4302.71,0.00023,0.0,0.0
3.404,4325.56,0.00023,0.0,0.0
3.41,4298.172,0.00023,0.0,0.0
3.417,4333.078,0.00023,0.0,0.0
3.423,4329.204,0.00023,0.0,0.0
3.429,4329.614,0.00023,0.0,0.0
3.435,4350.153,0.00023,0.0,0.0
3.442,4365.694,0.00023,0.0,0.0
3.448,4364.53,0.00023,0.0,0.0
3.454,4391.222,0.00023,0.0,0.0
3.46,4395.841,0.00023,0.0,0.0
3.467,4433.603,0.00023,0.0,0.0
3.473,4411.826,0.00023,0.0,0.0
3.479,4456.891,0.00022,0.0,0.0
3.485,4476.958,0.00022,0.0,0.0
3.492,4461.541,0.00022,0.0,0.0
3.498,4513.876,0.00022,0.0,0.0
3.504,4508.726,0.00022,0.0,0.0
3.51,4536.174,0.00022,0.0,0.0
3.517,4560.04,0.00022,0.0,0.0
3.523,4583.673,0.00022,0.0,0.0
3.529,4597.542,0.00022,0.0,0.0
3.535,4638.937,0.00022,0.0,0.0
3.542,4662.44,0.00021,0.0,0.0
3.548,4715.301,0.00021,0.0,0.0
3.554,4724.058,0.00021,0.0,0.0
3.56,4751.987,0.00021,0.0,0.0
3.567,4809.618,0.00021,0.0,0.0
3.573,4851.596,0.00021,0.0,0.0
3.579,4882.644,0.0002,0.0,0.0
3.585,4931.937,0.0002,0.0,0.0
3.592,4964.37,0.0002,0.0,0.0
3.598,5023.877,0.0002,0.0,0.0
3.604,5055.107,0.0002,0.0,0.0
3.61,5108.565,0.0002,0.0,0.0
3.617,5182.852,0.00019,0.0,0.0
3.623,5225.848,0.00019,0.0,0.0
3.629,5323.816,0.00019,0.0,0.0
3.635,5364.447,0.00019,0.0,0.0
3.642,5433.829,0.00018,0.0,0.0
3.648,5524.731,0.00018,0.0,0.0
3.654,5603.241,0.00018,0.0,0.0
3.66,5737.21,0.00017,0.0,0.0
3.667,5807.312,0.00017,0.0,0.0
3.673,5931.38,0.00017,0.0,0.0
3.679,6048.089,0.00017,0.0,0.0
3.685,6177.128,0.00016,0.0,0.0
3.692,6319.913,0.00016,0.0,0.0
3.698,6494.16,0.00015,0.0,0.0
3.704,6637.346,0.00015,0.0,0.0
3.71,6833.713,0.00015,0.0,0.0
3.716,7024.427,0.00014,0.0,0.0
3.723,7246.404,0.00014,0.0,0.0
3.729,7491.443,0.00013,0.0,0.0
3.735,7734.968,0.00013,0.0,0.0
3.741,8009.979,0.00012,0.0,0.0
3.748,8333.522,0.00012,0.0,0.0
3.754,8666.43,0.00012,0.0,0.0
3.76,9014.518,0.00011,0.0,0.0
3.766,9411.212,0.00011,0.0,0.0
3.773,9838.402,0.0001,0.0,0.0
3.779,10315.082,0.0001,0.0,0.0
3.785,10800.1,0.00009,0.0,0.0
3.791,11304.993,0.00009,0.0,0.0
3.798,11863.674,0.00008,0.0,0.0
3.804,12432.753,0.00008,0.0,0.0
3.81,13032.258,0.00008,0.0,0.0
3.816,13638.63,0.00007,0.0,0.0
3.823,14270.694,0.00007,0.0,0.0
3.829,14968.778,0.00007,0.0,0.0
3.835,15618.982,0.00006,0.0,0.0
3.841,16316.574,0.00006,0.0,0.0
3.848,16931.888,0.00006,0.0,0.0
3.854,17626.38,0.00006,0.0,0.0
3.86,18250.645,0.00005,0.0,0.0
3.866,18825.233,0.00005,0.0,0.0
3.873,19439.39,0.00005,0.0,0.0
3.879,19931.898,0.00005,0.0,0.0
3.885,20436.381,0.00005,0.0,0.0
3.891,20805.425,0.00005,0.0,0.0
3.898,21158.125,0.00005,0.0,0.0
3.904,21435.345,0.00005,0.0,0.0
3.91,21605.982,0.00005,0.0,0.0
3.916,21686.961,0.00005,0.0,0.0
3.923,21739.064,0.00005,0.0,0.0
3.929,21643.468,0.00005,0.0,0.0
3.935,21521.177,0.00005,0.0,0.0
3.941,21269.535,0.00005,0.0,0.0
3.948,20972.226,0.00005,0.0,0.0
3.954,20601.212,0.00005,0.0,0.0
3.96,20126.296,0.00005,0.0,0.0
3.966,19640.635,0.00005,0.0,0.0
3.973,19088.448,0.00005,0.0,0.0
3.979,18482.247,0.00005,0.0,0.0
3.985,17879.552,0.00006,0.0,0.0
3.991,17188.859,0.00006,0.0,0.0
3.998,16541.37,0.00006,0.0,0.0
4.004,15872.911,0.00006,0.0,0.0
4.01,15157.094,0.00007,0.0,0.0
4.016,14515.437,0.00007,0.0,0.0
4.023,13837.481,0.00007,0.0,0.0
4.029,13207.02,0.00008,0.0,0.0
4.035,12583.915,0.00008,0.0,0.0
4.041,11998.732,0.00008,0.0,0.0
4.048,11418.384,0.00009,0.0,0.0
4.054,10915.361,0.00009,0.0,0.0
4.06,10380.941,0.0001,0.0,0.0
4.066,9939.901,0.0001,0.0,0.0
4.073,9513.625,0.00011,0.0,0.0
4.079,9096.458,0.00011,0.0,0.0
4.085,8748.628,0.00011,0.0,0.0
4.091,8396.323,0.00012,0.0,0.0
4.098,8093.552,0.00012,0.0,0.0
4.104,7796.374,0.00013,0.0,0.0
4.11,7534.54,0.00013,0.0,0.0
4.116,7303.307,0.00014,0.0,0.0
4.123,7075.711,0.00014,0.0,0.0
4.129,6861.355,0.00015,0.0,0.0
4.135,6675.658,0.00015,0.0,0.0
4.141,6507.554,0.00015,0.0,0.0
4.148,6338.853,0.00016,0.0,0.0
4.154,6195.998,0.00016,0.0,0.0
4.16,6046.032,0.00017,0.0,0.0
4.166,5924.05,0.00017,0.0,0.0
4.173,5805.09,0.00017,0.0,0.0
4.179,5706.796,0.00018,0.0,0.0
4.185,5593.878,0.00018,0.0,0.0
4.191,5496.518,0.00018,0.0,0.0
4.198,5412.402,0.00018,0.0,0.0
4.204,5337.535,0.00019,0.0,0.0
4.21,5245.948,0.00019,0.0,0.0
4.216,5185.69,0.00019,0.0,0.0
4.223,5106.157,0.0002,0.0,0.0
4.229,5036.689,0.0002,0.0,0.0
4.235,4986.949,0.0002,0.0,0.0
4.241,4908.947,0.0002,0.0,0.0
4.248,4875.392,0.00021,0.0,0.0
4.254,4817.415,0.00021,0.0,0.0
4.26,4771.558,0.00021,0.0,0.0
4.266,4714.894,0.00021,0.0,0.0
4.273,4683.87,0.00021,0.0,0.0
4.279,4628.129,0.00022,0.0,0.0
4.285,4582.253,0.00022,0.0,0.0
4.291,4542.859,0.00022,0.0,0.0
4.298,4507.151,0.00022,0.0,0.0
4.304,4468.64,0.00022,0.0,0.0
4.31,4423.943,0.00023,0.0,0.0
4.316,4403.056,0.00023,0.0,0.0
4.323,4358.961,0.00023,0.0,0.0
4.329,4345.564,0.00023,0.0,0.0
4.335,4311.523,0.00023,0.0,0.0
4.341,4286.896,0.00023,0.0,0.0
4.348,4270.056,0.00023,0.0,0.0
4.354,4227.237,0.00024,0.0,0.0
4.36,4203.486,0.00024,0.0,0.0
4.366,4180.518,0.00024,0.0,0.0
4.373,4163.12,0.00024,0.0,0.0
4.379,4130.669,0.00024,0.0,0.0
4.385,4126.684,0.00024,0.0,0.0
4.391,4102.956,0.00024,0.0,0.0
4.398,4084.804,0.00024,0.0,0.0
4.404,4048.338,0.00025,0.0,0.0
4.41,4048.02,0.00025,0.0,0.0
4.416,4016.208,0.00025,0.0,0.0
4.423,3998.172,0.00025,0.0,0.0
4.429,3979.264,0.00025,0.0,0.0
4.435,3973.915,0.00025,0.0,0.0
4.441,3952.46,0.00025,0.0,0.0
4.448,3942.215,0.00025,0.0,0.0
4.454,3939.043,0.00025,0.0,0.0
4.46,3925.572,0.00025,0.0,0.0
4.466,3920.037,0.00026,0.0,0.0
4.473,3889.508,0.00026,0.0,0.0
4.479,3899.799,0.00026,0.0,0.0
4.485,3884.183,0.00026,0.0,0.0
4.491,3879.914,0.00026,0.0,0.0
4.497,3885.573,0.00026,0.0,0.0
4.504,3864.824,0.00026,0.0,0.0
4.51,3863.947,0.00026,0.0,0.0
4.516,3855.262,0.00026,0.0,0.0
4.522,3842.098,0.00026,0.0,0.0
4.529,3840.319,0.00026,0.0,0.0
4.535,3846.948,0.00026,0.0,0.0
4.541,3837.438,0.00026,0.0,0.0
4.547,3832.008,0.00026,0.0,0.0
4.554,3831.664,0.00026,0.0,0.0
4.56,3842.354,0.00026,0.0,0.0
4.566,3823.85,0.00026,0.0,0.0
4.572,3831.961,0.00026,0.0,0.0
4.579,3833.328,0.00026,0.0,0.0
4.585,3837.977,0.00026,0.0,0.0
4.591,3854.841,0.00026,0.0,0.0
4.597,3847.9,0.00026,0.0,0.0
4.604,3868.413,0.00026,0.0,0.0
4.61,3877.187,0.00026,0.0,0.0
4.616,3887.939,0.00026,0.0,0.0
4.622,3913.179,0.00026,0.0,0.0
4.629,3928.731,0.00025,0.0,0.0
4.635,3931.014,0.00025,0.0,0.0
4.641,3947.423,0.00025,0.0,0.0
4.647,3947.19,0.00025,0.0,0.0
4.654,3971.12,0.00025,0.0,0.0
4.66,3997.177,0.00025,0.0,0.0
4.666,4021.103,0.00025,0.0,0.0
4.672,4032.376,0.00025,0.0,0.0
4.679,4054.903,0.00025,0.0,0.0
4.685,4081.643,0.00024,0.0,0.0
4.691,4103.244,0.00024,0.0,0.0
4.697,4125.294,0.00024,0.0,0.0
4.704,4150.291,0.00024,0.0,0.0
4.71,4167.403,0.00024,0.0,0.0
4.716,4167.094,0.00024,0.0,0.0
4.722,4192.875,0.00024,0.0,0.0
4.729,4175.484,0.00024,0.0,0.0
4.735,4182.472,0.00024,0.0,0.0
4.741,4184.24,0.00024,0.0,0.0
4.747,4165.586,0.00024,0.0,0.0
4.754,4168.217,0.00024,0.0,0.0
4.76,4144.685,0.00024,0.0,0.0
4.766,4132.767,0.00024,0.0,0.0
4.772,4113.354,0.00024,0.0,0.0
4.779,4081.18,0.00025,0.0,0.0
4.785,4049.076,0.00025,0.0,0.0
4.791,4023.355,0.00025,0.0,0.0
4.797,3987.446,0.00025,0.0,0.0
4.804,3950.246,0.00025,0.0,0.0
4.81,3898.96,0.00026,0.0,0.0
4.816,3863.506,0.00026,0.0,0.0
4.822,3825.306,0.00026,0.0,0.0
4.829,3785.452,0.00026,0.0,0.0
4.835,3744.19,0.00027,0.0,0.0
4.841,3697.197,0.00027,0.0,0.0
4.847,3668.398,0.00027,0.0,0.0
4.854,3621.244,0.00028,0.0,0.0
4.86,3589.301,0.00028,0.0,0.0
4.866,3551.646,0.00028,0.0,0.0
4.872,3510.71,0.00028,0.0,0.0
4.879,3483.373,0.00029,0.0,0.0
4.885,3441.686,0.00029,0.0,0.0
4.891,3409.013,0.00029,0.0,0.0
4.897,3378.697,0.0003,0.0,0.0
4.904,3361.547,0.0003,0.0,0.0
4.91,3329.042,0.0003,0.0,0.0
4.916,3305.365,0.0003,0.0,0.0
4.922,3278.977,0.0003,0.0,0.0
4.929,3260.572,0.00031,0.0,0.0
4.935,3229.797,0.00031,0.0,0.0
4.941,3217.692,0.00031,0.0,0.0
4.947,3197.323,0.00031,0.0,0.0
4.954,3181.946,0.00031,0.0,0.0
4.96,3169.367,0.00032,0.0,0.0
4.966,3150.111,0.00032,0.0,0.0
4.972,3145.215,0.00032,0.0,0.0
4.979,3131.229,0.00032,0.0,0.0
4.985,3105.324,0.00032,0.0,0.0
4.991,3106.938,0.00032,0.0,0.0
4.997,3092.749,0.00032,0.0,0.0
5.004,3081.875,0.00032,0.0,0.0
5.01,3076.97,0.00032,0.0,0.0
5.016,3056.667,0.00033,0.0,0.0
5.022,3061.185,0.00033,0.0,0.0
5.029,3046.001,0.00033,0.0,0.0
5.035,3036.227,0.00033,0.0,0.0
5.041,3033.625,0.00033,0.0,0.0
5.047,3026.611,0.00033,0.0,0.0
5.054,3014.218,0.00033,0.0,0.0
5.06,3015.255,0.00033,0.0,0.0
5.066,3005.148,0.00033,0.0,0.0
5.072,3001.525,0.00033,0.0,0.0
5.079,2989.485,0.00033,0.0,0.0
5.085,2990.864,0.00033,0.0,0.0
5.091,2981.577,0.00034,0.0,0.0
5.097,2964.674,0.00034,0.0,0.0
5.104,2961.312,0.00034,0.0,0.0
5.11,2940.878,0.00034,0.0,0.0
5.116,2942.432,0.00034,0.0,0.0
5.122,2936.991,0.00034,0.0,0.0
5.129,2933.892,0.00034,0.0,0.0
5.135,2909.953,0.00034,0.0,0.0
5.141,2905.371,0.00034,0.0,0.0
5.147,2897.25,0.00035,0.0,0.0
5.154,2872.765,0.00035,0.0,0.0
5.16,2887.879,0.00035,0.0,0.0
5.166,2876.045,0.00035,0.0,0.0
5.172,2869.07,0.00035,0.0,0.0
5.179,2864.819,0.00035,0.0,0.0
5.185,2858.244,0.00035,0.0,0.0
5.191,2867.318,0.00035,0.0,0.0
5.197,2853.502,0.00035,0.0,0.0
5.204,2852.258,0.00035,0.0,0.0
5.21,2838.674,0.00035,0.0,0.0
5.216,2830.936,0.00035,0.0,0.0
5.222,2840.665,0.00035,0.0,0.0
5.229,2833.055,0.00035,0.0,0.0
5.235,2837.221,0.00035,0.0,0.0
5.241,2822.92,0.00035,0.0,0.0
5.247,2822.378,0.00035,0.0,0.0
5.254,2830.826,0.00035,0.0,0.0
5.26,2814.888,0.00036,0.0,0.0
5.266,2826.348,0.00035,0.0,0.0
5.272,2826.345,0.00035,0.0,0.0
5.278,2823.397,0.00035,0.0,0.0
5.285,2830.157,0.00035,0.0,0.0
5.291,2816.918,0.00035,0.0,0.0
5.297,2828.94,0.00035,0.0,0.0
5.303,2832.731,0.00035,0.0,0.0
5.31,2839.387,0.00035,0.0,0.0
5.316,2840.649,0.00035,0.0,0.0
5.322,2840.485,0.00035,0.0,0.0
5.328,2843.735,0.00035,0.0,0.0
5.335,2858.54,0.00035,0.0,0.0
5.341,2849.364,0.00035,0.0,0.0
5.347,2855.924,0.00035,0.0,0.0
5.353,2866.552,0.00035,0.0,0.0
5.36,2866.922,0.00035,0.0,0.0
5.366,2883.0,0.00035,0.0,0.0
5.372,2887.441,0.00035,0.0,0.0
5.378,2893.288,0.00035,0.0,0.0
5.385,2914.176,0.00034,0.0,0.0
5.391,2918.359,0.00034,0.0,0.0
5.397,2941.446,0.00034,0.0,0.0
5.403,2954.652,0.00034,0.0,0.0
5.41,2963.328,0.00034,0.0,0.0
5.416,2985.592,0.00033,0.0,0.0
5.422,2996.781,0.00033,0.0,0.0
5.428,3020.596,0.00033,0.0,0.0
5.435,3047.366,0.00033,0.0,0.0
5.441,3067.642,0.00033,0.0,0.0
5.447,3087.013,0.00032,0.0,0.0
5.453,3110.028,0.00032,0.0,0.0
5.46,3148.54,0.00032,0.0,0.0
5.466,3174.211,0.00032,0.0,0.0
5.472,3198.231,0.00031,0.0,0.0
5.478,3236.103,0.00031,0.0,0.0
5.485,3265.242,0.00031,0.0,0.0
5.491,3300.813,0.0003,0.0,0.0
5.497,3338.133,0.0003,0.0,0.0
5.503,3380.01,0.0003,0.0,0.0
5.51,3417.734,0.00029,0.0,0.0
5.516,3442.448,0.00029,0.0,0.0
5.522,3490.227,0.00029,0.0,0.0
5.528,3529.752,0.00028,0.0,0.0
5.535,3561.381,0.00028,0.0,0.0
5.541,3604.58,0.00028,0.0,0.0
5.547,3647.495,0.00027,0.0,0.0
5.553,3694.491,0.00027,0.0,0.0
5.56,3731.957,0.00027,0.0,0.0
5.566,3764.619,0.00027,0.0,0.0
5.572,3805.427,0.00026,0.0,0.0
5.578,3860.324,0.00026,0.0,0.0
5.585,3901.823,0.00026,0.0,0.0
5.591,3957.821,0.00025,0.0,0.0
5.597,4004.548,0.00025,0.0,0.0
5.603,4048.156,0.00025,0.0,0.0
5.61,4127.874,0.00024,0.0,0.0
5.616,4169.301,0.00024,0.0,0.0
5.622,4226.291,0.00024,0.0,0.0
5.628,4290.971,0.00023,0.0,0.0
5.635,4344.357,0.00023,0.0,0.0
5.641,4417.56,0.00023,0.0,0.0
5.647,4479.663,0.00022,0.0,0.0
5.653,4554.39,0.00022,0.0,0.0
5.66,4634.043,0.00022,0.0,0.0
5.666,4723.996,0.00021,0.0,0.0
5.672,4805.281,0.00021,0.0,0.0
5.678,4914.837,0.0002,0.0,0.0
5.685,5017.558,0.0002,0.0,0.0
5.691,5117.321,0.0002,0.0,0.0
5.697,5233.141,0.00019,0.0,0.0
5.703,5364.091,0.00019,0.0,0.0
5.71,5487.267,0.00018,0.0,0.0
5.716,5628.016,0.00018,0.0,0.0
5.722,5796.791,0.00017,0.0,0.0
5.728,5956.013,0.00017,0.0,0.0
5.735,6144.959,0.00016,0.0,0.0
5.741,6328.307,0.00016,0.0,0.0
5.747,6530.965,0.00015,0.0,0.0
5.753,6741.853,0.00015,0.0,0.0
5.76,6926.015,0.00014,0.0,0.0
5.766,7137.129,0.00014,0.0,0.0
5.772,7344.466,0.00014,0.0,0.0
5.778,7523.871,0.00013,0.0,0.0
5.785,7684.321,0.00013,0.0,0.0
5.791,7837.481,0.00013,0.0,0.0
5.797,7953.344,0.00013,0.0,0.0
5.803,8024.409,0.00012,0.0,0.0
5.81,8068.77,0.00012,0.0,0.0
5.816,8058.357,0.00012,0.0,0.0
5.822,8031.842,0.00012,0.0,0.0
5.828,7941.49,0.00013,0.0,0.0
5.835,7834.551,0.00013,0.0,0.0
5.841,7679.146,0.00013,0.0,0.0
5.847,7501.769,0.00013,0.0,0.0
5.853,7322.524,0.00014,0.0,0.0
5.86,7102.843,0.00014,0.0,0.0
5.866,6887.499,0.00015,0.0,0.0
5.872,6661.133,0.00015,0.0,0.0
5.878,6429.774,0.00016,0.0,0.0
5.885,6231.8,0.00016,0.0,0.0
5.891,6021.205,0.00017,0.0,0.0
5.897,5811.039,0.00017,0.0,0.0
5.903,5619.763,0.00018,0.0,0.0
5.91,5429.573,0.00018,0.0,0.0
5.916,5262.407,0.00019,0.0,0.0
5.922,5105.982,0.0002,0.0,0.0
5.928,4937.441,0.0002,0.0,0.0
5.935,4799.109,0.00021,0.0,0.0
5.941,4661.157,0.00021,0.0,0.0
5.947,4542.472,0.00022,0.0,0.0
5.953,4420.495,0.00023,0.0,0.0
5.96,4314.616,0.00023,0.0,0.0
5.966,4209.858,0.00024,0.0,0.0
5.972,4102.521,0.00024,0.0,0.0
5.978,4003.628,0.00025,0.0,0.0
5.985,3933.122,0.00025,0.0,0.0
5.991,3841.374,0.00026,0.0,0.0
5.997,3765.512,0.00027,0.0,0.0
6.003,3705.423,0.00027,0.0,0.0
6.01,3626.645,0.00028,0.0,0.0
6.016,3562.85,0.00028,0.0,0.0
6.022,3500.329,0.00029,0.0,0.0
6.028,3437.484,0.00029,0.0,0.0
6.035,3378.438,0.0003,0.0,0.0
6.041,3336.712,0.0003,0.0,0.0
6.047,3294.583,0.0003,0.0,0.0
6.053,3253.488,0.00031,0.0,0.0
6.059,3224.204,0.00031,0.0,0.0
6.066,3184.09,0.00031,0.0,0.0
6.072,3149.735,0.00032,0.0,0.0
6.078,3119.926,0.00032,0.0,0.0
6.084,3080.986,0.00032,0.0,0.0
6.091,3057.215,0.00033,0.0,0.0
6.097,3022.267,0.00033,0.0,0.0
6.103,2997.996,0.00033,0.0,0.0
6.109,2973.567,0.00034,0.0,0.0
6.116,2943.154,0.00034,0.0,0.0
6.122,2912.572,0.00034,0.0,0.0
6.128,2892.582,0.00035,0.0,0.0
6.134,2867.412,0.00035,0.0,0.0
6.141,2835.217,0.00035,0.0,0.0
6.147,2822.775,0.00035,0.0,0.0
6.153,2781.891,0.00036,0.0,0.0
6.159,2759.426,0.00036,0.0,0.0
6.166,2734.644,0.00037,0.0,0.0
6.172,2711.955,0.00037,0.0,0.0
6.178,2697.378,0.00037,0.0,0.0
6.184,2667.522,0.00037,0.0,0.0
6.191,2648.51,0.00038,0.0,0.0
6.197,2623.397,0.00038,0.0,0.0
6.203,2599.97,0.00038,0.0,0.0
6.209,2589.242,0.00039,0.0,0.0
6.216,2551.038,0.00039,0.0,0.0
6.222,2542.665,0.00039,0.0,0.0
6.228,2513.627,0.0004,0.0,0.0
6.234,2498.757,0.0004,0.0,0.0
6.241,2488.252,0.0004,0.0,0.0
6.247,2472.29,0.0004,0.0,0.0
6.253,2451.309,0.00041,0.0,0.0
6.259,2453.619,0.00041,0.0,0.0
6.266,2429.292,0.00041,0.0,0.0
6.272,2424.427,0.00041,0.0,0.0
6.278,2422.09,0.00041,0.0,0.0
6.284,2401.195,0.00042,0.0,0.0
6.291,2412.227,0.00041,0.0,0.0
6.297,2400.353,0.00042,0.0,0.0
6.303,2394.649,0.00042,0.0,0.0
6.309,2388.656,0.00042,0.0,0.0
6.316,2393.728,0.00042,0.0,0.0
6.322,2383.702,0.00042,0.0,0.0
6.328,2384.674,0.00042,0.0,0.0
6.334,2387.074,0.00042,0.0,0.0
6.341,2391.424,0.00042,0.0,0.0
6.347,2382.57,0.00042,0.0,0.0
6.353,2386.288,0.00042,0.0,0.0
6.359,2391.684,0.00042,0.0,0.0
6.366,2396.689,0.00042,0.0,0.0
6.372,2404.131,0.00042,0.0,0.0
6.378,2415.708,0.00041,0.0,0.0
6.384,2409.914,0.00041,0.0,0.0
6.391,2422.702,0.00041,0.0,0.0
6.397,2420.038,0.00041,0.0,0.0
6.403,2436.112,0.00041,0.0,0.0
6.409,2438.992,0.00041,0.0,0.0
6.416,2448.141,0.00041,0.0,0.0
6.422,2454.24,0.00041,0.0,0.0
6.428,2458.631,0.00041,0.0,0.0
6.434,2474.311,0.0004,0.0,0.0
6.441,2478.607,0.0004,0.0,0.0
6.447,2484.565,0.0004,0.0,0.0
6.453,2488.928,0.0004,0.0,0.0
6.459,2488.072,0.0004,0.0,0.0
6.466,2489.713,0.0004,0.0,0.0
6.472,2498.643,0.0004,0.0,0.0
6.478,2499.0,0.0004,0.0,0.0
6.484,2505.054,0.0004,0.0,0.0
6.491,2496.608,0.0004,0.0,0.0
6.497,2506.914,0.0004,0.0,0.0
6.503,2497.363,0.0004,0.0,0.0
6.509,2490.907,0.0004,0.0,0.0
6.516,2487.805,0.0004,0.0,0.0
6.522,2485.318,0.0004,0.0,0.0
6.528,2480.414,0.0004,0.0,0.0
6.534,2468.268,0.00041,0.0,0.0
6.541,2467.369,0.00041,0.0,0.0
6.547,2462.795,0.00041,0.0,0.0
6.553,2457.045,0.00041,0.0,0.0
6.559,2444.988,0.00041,0.0,0.0
6.566,2446.601,0.00041,0.0,0.0
6.572,2439.058,0.00041,0.0,0.0
6.578,2433.056,0.00041,0.0,0.0
6.584,2429.184,0.00041,0.0,0.0
6.591,2418.578,0.00041,0.0,0.0
6.597,2422.792,0.00041,0.0,0.0
6.603,2415.358,0.00041,0.0,0.0
6.609,2421.201,0.00041,0.0,0.0
6.616,2416.605,0.00041,0.0,0.0
6.622,2411.265,0.00041,0.0,0.0
6.628,2414.387,0.00041,0.0,0.0
6.634,2411.088,0.00041,0.0,0.0
6.641,2409.379,0.00042,0.0,0.0
6.647,2417.576,0.00041,0.0,0.0
6.653,2415.07,0.00041,0.0,0.0
6.659,2409.003,0.00042,0.0,0.0
6.666,2420.189,0.00041,0.0,0.0
6.672,2416.457,0.00041,0.0,0.0
6.678,2426.305,0.00041,0.0,0.0
6.684,2422.441,0.00041,0.0,0.0
6.691,2429.56,0.00041,0.0,0.0
6.697,2431.639,0.00041,0.0,0.0
6.703,2443.128,0.00041,0.0,0.0
6.709,2443.413,0.00041,0.0,0.0
6.716,2449.773,0.00041,0.0,0.0
6.722,2453.407,0.00041,0.0,0.0
6.728,2460.452,0.00041,0.0,0.0
6.734,2458.642,0.00041,0.0,0.0
6.741,2463.102,0.00041,0.0,0.0
6.747,2464.429,0.00041,0.0,0.0
6.753,2468.149,0.00041,0.0,0.0
6.759,2473.044,0.0004,0.0,0.0
6.766,2485.051,0.0004,0.0,0.0
6.772,2492.547,0.0004,0.0,0.0
6.778,2499.141,0.0004,0.0,0.0
6.784,2508.789,0.0004,0.0,0.0
6.791,2517.852,0.0004,0.0,0.0
6.797,2523.679,0.0004,0.0,0.0
6.803,2532.464,0.00039,0.0,0.0
6.809,2555.148,0.00039,0.0,0.0
6.816,2556.202,0.00039,0.0,0.0
6.822,2571.91,0.00039,0.0,0.0
6.828,2581.241,0.00039,0.0,0.0
6.834,2587.945,0.00039,0.0,0.0
6.84,2606.911,0.00038,0.0,0.0
6.847,2610.239,0.00038,0.0,0.0
6.853,2628.863,0.00038,0.0,0.0
6.859,2652.461,0.00038,0.0,0.0
6.865,2653.629,0.00038,0.0,0.0
6.872,2675.331,0.00037,0.0,0.0
6.878,2689.948,0.00037,0.0,0.0
6.884,2707.343,0.00037,0.0,0.0
6.89,2728.104,0.00037,0.0,0.0
6.897,2745.079,0.00036,0.0,0.0
6.903,2775.541,0.00036,0.0,0.0
6.909,2780.573,0.00036,0.0,0.0
6.915,2805.098,0.00036,0.0,0.0
6.922,2833.574,0.00035,0.0,0.0
6.928,2846.98,0.00035,0.0,0.0
6.934,2878.124,0.00035,0.0,0.0
6.94,2894.067,0.00035,0.0,0.0
6.947,2920.097,0.00034,0.0,0.0
6.953,2937.082,0.00034,0.0,0.0
6.959,2965.01,0.00034,0.0,0.0
6.965,2989.59,0.00033,0.0,0.0
6.972,3016.161,0.00033,0.0,0.0
6.978,3045.354,0.00033,0.0,0.0
6.984,3083.345,0.00032,0.0,0.0
6.99,3097.927,0.00032,0.0,0.0
6.997,3135.791,0.00032,0.0,0.0
7.003,3164.103,0.00032,0.0,0.0
7.009,3195.36,0.00031,0.0,0.0
7.015,3225.107,0.00031,0.0,0.0
7.022,3269.409,0.00031,0.0,0.0
7.028,3293.614,0.0003,0.0,0.0
7.034,3347.006,0.0003,0.0,0.0
7.04,3384.287,0.0003,0.0,0.0
7.047,3427.315,0.00029,0.0,0.0
7.053,3497.601,0.00029,0.0,0.0
7.059,3550.044,0.00028,0.0,0.0
7.065,3615.571,0.00028,0.0,0.0
7.072,3690.386,0.00027,0.0,0.0
7.078,3771.842,0.00027,0.0,0.0
7.084,3871.231,0.00026,0.0,0.0
7.09,3931.563,0.00025,0.0,0.0
7.097,4041.007,0.00025,0.0,0.0
7.103,4140.925,0.00024,0.0,0.0
7.109,4264.525,0.00023,0.0,0.0
7.115,4401.375,0.00023,0.0,0.0
7.122,4520.343,0.00022,0.0,0.0
7.128,4670.411,0.00021,0.0,0.0
7.134,4821.06,0.00021,0.0,0.0
7.14,4985.751,0.0002,0.0,0.0
7.147,5157.501,0.00019,0.0,0.0
7.153,5328.224,0.00019,0.0,0.0
7.159,5525.292,0.00018,0.0,0.0
7.165,5711.401,0.00018,0.0,0.0
7.172,5893.2,0.00017,0.0,0.0
7.178,6099.325,0.00016,0.0,0.0
7.184,6311.537,0.00016,0.0,0.0
7.19,6502.899,0.00015,0.0,0.0
7.197,6704.382,0.00015,0.0,0.0
7.203,6897.886,0.00014,0.0,0.0
7.209,7076.991,0.00014,0.0,0.0
7.215,7256.476,0.00014,0.0,0.0
7.222,7411.752,0.00013,0.0,0.0
7.228,7573.533,0.00013,0.0,0.0
7.234,7706.422,0.00013,0.0,0.0
7.24,7817.775,0.00013,0.0,0.0
7.247,7928.214,0.00013,0.0,0.0
7.253,7997.126,0.00013,0.0,0.0
7.259,8068.093,0.00012,0.0,0.0
7.265,8108.088,0.00012,0.0,0.0
7.272,8116.002,0.00012,0.0,0.0
7.278,8098.126,0.00012,0.0,0.0
7.284,8067.19,0.00012,0.0,0.0
7.29,7997.622,0.00013,0.0,0.0
7.297,7917.921,0.00013,0.0,0.0
7.303,7824.892,0.00013,0.0,0.0
7.309,7701.598,0.00013,0.0,0.0
7.315,7552.766,0.00013,0.0,0.0
7.322,7402.844,0.00014,0.0,0.0
7.328,7236.423,0.00014,0.0,0.0
7.334,7064.498,0.00014,0.0,0.0
7.34,6882.82,0.00015,0.0,0.0
7.347,6672.369,0.00015,0.0,0.0
7.353,6483.11,0.00015,0.0,0.0
7.359,6270.615,0.00016,0.0,0.0
7.365,6072.732,0.00016,0.0,0.0
7.372,5874.468,0.00017,0.0,0.0
7.378,5676.866,0.00018,0.0,0.0
7.384,5492.543,0.00018,0.0,0.0
7.39,5294.82,0.00019,0.0,0.0
7.397,5127.205,0.0002,0.0,0.0
7.403,4945.721,0.0002,0.0,0.0
7.409,4787.949,0.00021,0.0,0.0
7.415,4641.662,0.00022,0.0,0.0
7.422,4507.053,0.00022,0.0,0.0
7.428,4356.132,0.00023,0.0,0.0
7.434,4236.077,0.00024,0.0,0.0
7.44,4109.506,0.00024,0.0,0.0
7.447,4008.99,0.00025,0.0,0.0
7.453,3899.741,0.00026,0.0,0.0
7.459,3804.38,0.00026,0.0,0.0
7.465,3707.112,0.00027,0.0,0.0
7.472,3616.314,0.00028,0.0,0.0
7.478,3530.173,0.00028,0.0,0.0
7.484,3465.947,0.00029,0.0,0.0
7.49,3389.993,0.00029,0.0,0.0
7.497,3318.576,0.0003,0.0,0.0
7.503,3261.129,0.00031,0.0,0.0
7.509,3198.758,0.00031,0.0,0.0
7.515,3148.157,0.00032,0.0,0.0
7.522,3098.629,0.00032,0.0,0.0
7.528,3047.32,0.00033,0.0,0.0
7.534,3009.831,0.00033,0.0,0.0
7.54,2962.463,0.00034,0.0,0.0
7.547,2923.513,0.00034,0.0,0.0
7.553,2882.505,0.00035,0.0,0.0
7.559,2848.621,0.00035,0.0,0.0
7.565,2819.511,0.00035,0.0,0.0
7.572,2790.799,0.00036,0.0,0.0
7.578,2758.659,0.00036,0.0,0.0
7.584,2734.292,0.00037,0.0,0.0
7.59,2709.806,0.00037,0.0,0.0
7.597,2682.063,0.00037,0.0,0.0
7.603,2662.249,0.00038,0.0,0.0
7.609,2638.21,0.00038,0.0,0.0
7.615,2629.396,0.00038,0.0,0.0
7.621,2611.313,0.00038,0.0,0.0
7.628,2598.022,0.00038,0.0,0.0
7.634,2579.643,0.00039,0.0,0.0
7.64,2566.675,0.00039,0.0,0.0
7.646,2562.016,0.00039,0.0,0.0
7.653,2542.025,0.00039,0.0,0.0
7.659,2540.987,0.00039,0.0,0.0
7.665,2532.037,0.00039,0.0,0.0
7.671,2519.687,0.0004,0.0,0.0
7.678,2512.991,0.0004,0.0,0.0
7.684,2508.709,0.0004,0.0,0.0
7.69,2501.689,0.0004,0.0,0.0
7.696,2504.182,0.0004,0.0,0.0
7.703,2496.915,0.0004,0.0,0.0
7.709,2497.689,0.0004,0.0,0.0
7.715,2497.862,0.0004,0.0,0.0
7.721,2499.519,0.0004,0.0,0.0
7.728,2496.807,0.0004,0.0,0.0
7.734,2499.867,0.0004,0.0,0.0
7.74,2503.49,0.0004,0.0,0.0
7.746,2506.969,0.0004,0.0,0.0
7.753,2510.794,0.0004,0.0,0.0
7.759,2515.595,0.0004,0.0,0.0
7.765,2519.364,0.0004,0.0,0.0
7.771,2525.179,0.0004,0.0,0.0
7.778,2528.795,0.0004,0.0,0.0
7.784,2547.047,0.00039,0.0,0.0
7.79,2549.831,0.00039,0.0,0.0
7.796,2558.467,0.00039,0.0,0.0
7.803,2575.283,0.00039,0.0,0.0
7.809,2592.02,0.00039,0.0,0.0
7.815,2597.932,0.00038,0.0,0.0
7.821,2621.39,0.00038,0.0,0.0
7.828,2629.44,0.00038,0.0,0.0
7.834,2639.85,0.00038,0.0,0.0
7.84,2656.354,0.00038,0.0,0.0
7.846,2673.879,0.00037,0.0,0.0
7.853,2689.17,0.00037,0.0,0.0
7.859,2706.69,0.00037,0.0,0.0
7.865,2728.624,0.00037,0.0,0.0
7.871,2753.532,0.00036,0.0,0.0
7.878,2767.137,0.00036,0.0,0.0
7.884,2802.996,0.00036,0.0,0.0
7.89,2823.423,0.00035,0.0,0.0
7.896,2852.249,0.00035,0.0,0.0
7.903,2888.588,0.00035,0.0,0.0
7.909,2918.406,0.00034,0.0,0.0
7.915,2951.4,0.00034,0.0,0.0
7.921,3001.475,0.00033,0.0,0.0
7.928,3041.591,0.00033,0.0,0.0
7.934,3085.037,0.00032,0.0,0.0
7.94,3143.913,0.00032,0.0,0.0
7.946,3199.979,0.00031,0.0,0.0
7.953,3245.565,0.00031,0.0,0.0
7.959,3325.614,0.0003,0.0,0.0
7.965,3384.719,0.0003,0.0,0.0
7.971,3463.275,0.00029,0.0,0.0
7.978,3540.368,0.00028,0.0,0.0
7.984,3633.17,0.00028,0.0,0.0
7.99,3725.247,0.00027,0.0,0.0
7.996,3832.84,0.00026,0.0,0.0
8.003,3938.917,0.00025,0.0,0.0
8.009,4062.543,0.00025,0.0,0.0
8.015,4196.61,0.00024,0.0,0.0
8.021,4331.644,0.00023,0.0,0.0
8.028,4489.299,0.00022,0.0,0.0
8.034,4641.98,0.00022,0.0,0.0
8.04,4816.014,0.00021,0.0,0.0
8.046,4993.13,0.0002,0.0,0.0
8.053,5165.586,0.00019,0.0,0.0
8.059,5365.443,0.00019,0.0,0.0
8.065,5549.788,0.00018,0.0,0.0
8.071,5739.652,0.00017,0.0,0.0
8.078,5954.767,0.00017,0.0,0.0
8.084,6141.058,0.00016,0.0,0.0
8.09,6339.962,0.00016,0.0,0.0
8.096,6526.281,0.00015,0.0,0.0
8.103,6696.127,0.00015,0.0,0.0
8.109,6878.175,0.00015,0.0,0.0
8.115,7033.706,0.00014,0.0,0.0
8.121,7169.272,0.00014,0.0,0.0
8.128,7316.244,0.00014,0.0,0.0
8.134,7423.463,0.00013,0.0,0.0
8.14,7529.128,0.00013,0.0,0.0
8.146,7621.532,0.00013,0.0,0.0
8.153,7688.755,0.00013,0.0,0.0
8.159,7746.517,0.00013,0.0,0.0
8.165,7786.259,0.00013,0.0,0.0
8.171,7822.816,0.00013,0.0,0.0
8.178,7842.673,0.00013,0.0,0.0
8.184,7830.936,0.00013,0.0,0.0
8.19,7838.191,0.00013,0.0,0.0
8.196,7793.739,0.00013,0.0,0.0
8.203,7786.009,0.00013,0.0,0.0
8.209,7739.199,0.00013,0.0,0.0
8.215,7692.392,0.00013,0.0,0.0
8.221,7644.244,0.00013,0.0,0.0
8.228,7578.849,0.00013,0.0,0.0
8.234,7517.358,0.00013,0.0,0.0
8.24,7451.174,0.00013,0.0,0.0
8.246,7377.689,0.00014,0.0,0.0
8.253,7285.062,0.00014,0.0,0.0
8.259,7201.406,0.00014,0.0,0.0
8.265,7111.272,0.00014,0.0,0.0
8.271,7004.238,0.00014,0.0,0.0
8.278,6898.913,0.00014,0.0,0.0
8.284,6783.654,0.00015,0.0,0.0
8.29,6663.05,0.00015,0.0,0.0
8.296,6541.734,0.00015,0.0,0.0
8.303,6418.956,0.00016,0.0,0.0
8.309,6268.709,0.00016,0.0,0.0
8.315,6155.618,0.00016,0.0,0.0
8.321,6009.232,0.00017,0.0,0.0
8.328,5884.135,0.00017,0.0,0.0
8.334,5743.74,0.00017,0.0,0.0
8.34,5592.745,0.00018,0.0,0.0
8.346,5458.434,0.00018,0.0,0.0
8.353,5315.76,0.00019,0.0,0.0
8.359,5171.04,0.00019,0.0,0.0
8.365,5039.899,0.0002,0.0,0.0
8.371,4904.471,0.0002,0.0,0.0
8.378,4777.159,0.00021,0.0,0.0
8.384,4656.599,0.00021,0.0,0.0
8.39,4526.325,0.00022,0.0,0.0
8.396,4415.463,0.00023,0.0,0.0
8.402,4297.769,0.00023,0.0,0.0
8.409,4191.292,0.00024,0.0,0.0
8.415,4097.904,0.00024,0.0,0.0
8.421,3993.427,0.00025,0.0,0.0
8.427,3905.448,0.00026,0.0,0.0
8.434,3825.721,0.00026,0.0,0.0
8.44,3750.381,0.00027,0.0,0.0
8.446,3674.04,0.00027,0.0,0.0
8.452,3607.779,0.00028,0.0,0.0
8.459,3543.67,0.00028,0.0,0.0
8.465,3481.7,0.00029,0.0,0.0
8.471,3416.385,0.00029,0.0,0.0
8.477,3372.153,0.0003,0.0,0.0
8.484,3325.111,0.0003,0.0,0.0
8.49,3271.756,0.00031,0.0,0.0
8.496,3235.897,0.00031,0.0,0.0
8.502,3183.873,0.00031,0.0,0.0
8.509,3149.429,0.00032,0.0,0.0
8.515,3113.087,0.00032,0.0,0.0
8.521,3083.189,0.00032,0.0,0.0
8.527,3042.943,0.00033,0.0,0.0
8.534,3014.093,0.00033,0.0,0.0
8.54,2985.686,0.00033,0.0,0.0
8.546,2956.354,0.00034,0.0,0.0
8.552,2925.295,0.00034,0.0,0.0
8.559,2892.044,0.00035,0.0,0.0
8.565,2866.9,0.00035,0.0,0.0
8.571,2845.121,0.00035,0.0,0.0
8.577,2810.842,0.00036,0.0,0.0
8.584,2789.421,0.00036,0.0,0.0
8.59,2768.591,0.00036,0.0,0.0
8.596,2734.945,0.00037,0.0,0.0
8.602,2713.64,0.00037,0.0,0.0
8.609,2686.841,0.00037,0.0,0.0
8.615,2656.588,0.00038,0.0,0.0
8.621,2643.357,0.00038,0.0,0.0
8.627,2618.068,0.00038,0.0,0.0
8.634,2591.578,0.00039,0.0,0.0
8.64,2580.014,0.00039,0.0,0.0
8.646,2556.563,0.00039,0.0,0.0
8.652,2534.051,0.00039,0.0,0.0
8.659,2514.6,0.0004,0.0,0.0
8.665,2492.606,0.0004,0.0,0.0
8.671,2479.043,0.0004,0.0,0.0
8.677,2465.009,0.00041,0.0,0.0
8.684,2447.166,0.00041,0.0,0.0
8.69,2434.784,0.00041,0.0,0.0
8.696,2417.528,0.00041,0.0,0.0
8.702,2408.766,0.00042,0.0,0.0
8.709,2400.062,0.00042,0.0,0.0
8.715,2384.366,0.00042,0.0,0.0
8.721,2378.033,0.00042,0.0,0.0
8.727,2364.903,0.00042,0.0,0.0
8.734,2361.118,0.00042,0.0,0.0
8.74,2341.877,0.00043,0.0,0.0
8.746,2345.02,0.00043,0.0,0.0
8.752,2337.358,0.00043,0.0,0.0
8.759,2330.221,0.00043,0.0,0.0
8.765,2323.873,0.00043,0.0,0.0
8.771,2321.559,0.00043,0.0,0.0
8.777,2315.732,0.00043,0.0,0.0
8.784,2313.671,0.00043,0.0,0.0
8.79,2300.7,0.00043,0.0,0.0
8.796,2306.046,0.00043,0.0,0.0
8.802,2303.598,0.00043,0.0,0.0
8.809,2298.604,0.00044,0.0,0.0
8.815,2301.818,0.00043,0.0,0.0
8.821,2299.447,0.00043,0.0,0.0
8.827,2305.719,0.00043,0.0,0.0
8.834,2304.961,0.00043,0.0,0.0
8.84,2311.944,0.00043,0.0,0.0
8.846,2308.844,0.00043,0.0,0.0
8.852,2311.789,0.00043,0.0,0.0
8.859,2316.314,0.00043,0.0,0.0
8.865,2322.331,0.00043,0.0,0.0
8.871,2321.359,0.00043,0.0,0.0
8.877,2330.774,0.00043,0.0,0.0
8.884,2336.349,0.00043,0.0,0.0
8.89,2345.771,0.00043,0.0,0.0
8.896,2346.85,0.00043,0.0,0.0
8.902,2350.654,0.00043,0.0,0.0
8.909,2356.541,0.00042,0.0,0.0
8.915,2358.709,0.00042,0.0,0.0
8.921,2364.19,0.00042,0.0,0.0
8.927,2374.958,0.00042,0.0,0.0
8.934,2373.63,0.00042,0.0,0.0
8.94,2388.772,0.00042,0.0,0.0
8.946,2395.624,0.00042,0.0,0.0
8.952,2400.053,0.00042,0.0,0.0
8.959,2403.867,0.00042,0.0,0.0
8.965,2421.081,0.00041,0.0,0.0
8.971,2424.533,0.00041,0.0,0.0
8.977,2432.508,0.00041,0.0,0.0
8.984,2432.411,0.00041,0.0,0.0
8.99,2441.695,0.00041,0.0,0.0
8.996,2448.32,0.00041,0.0,0.0
9.002,2460.567,0.00041,0.0,0.0
9.009,2474.932,0.0004,0.0,0.0
9.015,2483.652,0.0004,0.0,0.0
9.021,2497.478,0.0004,0.0,0.0
9.027,2521.447,0.0004,0.0,0.0
9.034,2533.2,0.00039,0.0,0.0
9.04,2554.782,0.00039,0.0,0.0
9.046,2579.566,0.00039,0.0,0.0
9.052,2593.423,0.00039,0.0,0.0
9.059,2617.592,0.00038,0.0,0.0
9.065,2646.278,0.00038,0.0,0.0
9.071,2674.769,0.00037,0.0,0.0
9.077,2699.526,0.00037,0.0,0.0
9.084,2746.842,0.00036,0.0,0.0
9.09,2779.736,0.00036,0.0,0.0
9.096,2821.514,0.00035,0.0,0.0
9.102,2868.335,0.00035,0.0,0.0
9.109,2906.301,0.00034,0.0,0.0
9.115,2966.568,0.00034,0.0,0.0
9.121,3012.801,0.00033,0.0,0.0
9.127,3070.008,0.00033,0.0,0.0
9.134,3140.445,0.00032,0.0,0.0
9.14,3201.084,0.00031,0.0,0.0
9.146,3278.855,0.0003,0.0,0.0
9.152,3353.401,0.0003,0.0,0.0
9.159,3429.549,0.00029,0.0,0.0
9.165,3522.51,0.00028,0.0,0.0
9.171,3607.459,0.00028,0.0,0.0
9.177,3690.891,0.00027,0.0,0.0
9.183,3799.536,0.00026,0.0,0.0
9.19,3902.406,0.00026,0.0,0.0
9.196,4003.402,0.00025,0.0,0.0
9.202,4107.112,0.00024,0.0,0.0
9.208,4228.271,0.00024,0.0,0.0
9.215,4330.664,0.00023,0.0,0.0
9.221,4440.391,0.00023,0.0,0.0
9.227,4551.58,0.00022,0.0,0.0
9.233,4668.209,0.00021,0.0,0.0
9.24,4773.262,0.00021,0.0,0.0
9.246,4885.95,0.0002,0.0,0.0
9.252,4979.775,0.0002,0.0,0.0
9.258,5083.539,0.0002,0.0,0.0
9.265,5171.24,0.00019,0.0,0.0
9.271,5263.212,0.00019,0.0,0.0
9.277,5344.209,0.00019,0.0,0.0
9.283,5410.853,0.00018,0.0,0.0
9.29,5480.484,0.00018,0.0,0.0
9.296,5523.184,0.00018,0.0,0.0
9.302,5560.661,0.00018,0.0,0.0
9.308,5597.357,0.00018,0.0,0.0
9.315,5612.611,0.00018,0.0,0.0
9.321,5610.524,0.00018,0.0,0.0
9.327,5615.77,0.00018,0.0,0.0
9.333,5587.995,0.00018,0.0,0.0
9.34,5566.457,0.00018,0.0,0.0
9.346,5532.557,0.00018,0.0,0.0
9.352,5479.441,0.00018,0.0,0.0
9.358,5424.44,0.00018,0.0,0.0
9.365,5358.967,0.00019,0.0,0.0
9.371,5287.335,0.00019,0.0,0.0
9.377,5212.565,0.00019,0.0,0.0
9.383,5112.233,0.0002,0.0,0.0
9.39,5036.513,0.0002,0.0,0.0
9.396,4935.361,0.0002,0.0,0.0
9.402,4847.368,0.00021,0.0,0.0
9.408,4741.002,0.00021,0.0,0.0
9.415,4640.064,0.00022,0.0,0.0
9.421,4543.802,0.00022,0.0,0.0
9.427,4431.513,0.00023,0.0,0.0
9.433,4345.07,0.00023,0.0,0.0
9.44,4243.344,0.00024,0.0,0.0
9.446,4149.362,0.00024,0.0,0.0
9.452,4056.256,0.00025,0.0,0.0
9.458,3965.684,0.00025,0.0,0.0
9.465,3877.396,0.00026,0.0,0.0
9.471,3791.394,0.00026,0.0,0.0
9.477,3721.612,0.00027,0.0,0.0
9.483,3645.678,0.00027,0.0,0.0
9.49,3574.338,0.00028,0.0,0.0
9.496,3502.071,0.00029,0.0,0.0
9.502,3443.788,0.00029,0.0,0.0
9.508,3383.824,0.0003,0.0,0.0
9.515,3322.76,0.0003,0.0,0.0
9.521,3276.145,0.00031,0.0,0.0
9.527,3226.135,0.00031,0.0,0.0
9.533,3173.524,0.00032,0.0,0.0
9.54,3134.353,0.00032,0.0,0.0
9.546,3099.42,0.00032,0.0,0.0
9.552,3057.34,0.00033,0.0,0.0
9.558,3010.719,0.00033,0.0,0.0
9.565,2974.852,0.00034,0.0,0.0
9.571,2936.799,0.00034,0.0,0.0
9.577,2909.537,0.00034,0.0,0.0
9.583,2872.71,0.00035,0.0,0.0
9.59,2835.896,0.00035,0.0,0.0
9.596,2814.05,0.00036,0.0,0.0
9.602,2779.73,0.00036,0.0,0.0
9.608,2749.998,0.00036,0.0,0.0
9.615,2723.321,0.00037,0.0,0.0
9.621,2687.833,0.00037,0.0,0.0
9.627,2660.331,0.00038,0.0,0.0
9.633,2624.876,0.00038,0.0,0.0
9.64,2601.094,0.00038,0.0,0.0
9.646,2571.283,0.00039,0.0,0.0
9.652,2541.274,0.00039,0.0,0.0
9.658,2516.951,0.0004,0.0,0.0
9.665,2489.318,0.0004,0.0,0.0
9.671,2468.224,0.00041,0.0,0.0
9.677,2439.967,0.00041,0.0,0.0
9.683,2419.008,0.00041,0.0,0.0
9.69,2399.386,0.00042,0.0,0.0
9.696,2373.53,0.00042,0.0,0.0
9.702,2359.657,0.00042,0.0,0.0
9.708,2344.145,0.00043,0.0,0.0
9.715,2318.846,0.00043,0.0,0.0
9.721,2309.392,0.00043,0.0,0.0
9.727,2289.46,0.00044,0.0,0.0
9.733,2280.606,0.00044,0.0,0.0
9.74,2262.427,0.00044,0.0,0.0
9.746,2255.877,0.00044,0.0,0.0
9.752,2248.165,0.00044,0.0,0.0
9.758,2237.513,0.00045,0.0,0.0
9.765,2223.013,0.00045,0.0,0.0
9.771,2220.103,0.00045,0.0,0.0
9.777,2202.442,0.00045,0.0,0.0
9.783,2207.162,0.00045,0.0,0.0
9.79,2193.96,0.00046,0.0,0.0
9.796,2190.137,0.00046,0.0,0.0
9.802,2182.19,0.00046,0.0,0.0
9.808,2172.117,0.00046,0.0,0.0
9.815,2174.357,0.00046,0.0,0.0
9.821,2169.233,0.00046,0.0,0.0
9.827,2165.439,0.00046,0.0,0.0
9.833,2166.981,0.00046,0.0,0.0
9.84,2162.226,0.00046,0.0,0.0
9.846,2158.73,0.00046,0.0,0.0
9.852,2163.848,0.00046,0.0,0.0
9.858,2162.495,0.00046,0.0,0.0
9.865,2168.807,0.00046,0.0,0.0
9.871,2166.594,0.00046,0.0,0.0
9.877,2172.28,0.00046,0.0,0.0
9.883,2172.806,0.00046,0.0,0.0
9.89,2177.798,0.00046,0.0,0.0
9.896,2181.756,0.00046,0.0,0.0
9.902,2189.642,0.00046,0.0,0.0
9.908,2204.021,0.00045,0.0,0.0
9.915,2212.954,0.00045,0.0,0.0
9.921,2221.367,0.00045,0.0,0.0
9.927,2233.866,0.00045,0.0,0.0
9.933,2243.025,0.00045,0.0,0.0
9.94,2264.279,0.00044,0.0,0.0
9.946,2275.989,0.00044,0.0,0.0
9.952,2291.608,0.00044,0.0,0.0
9.958,2307.432,0.00043,0.0,0.0
9.964,2333.816,0.00043,0.0,0.0
9.971,2352.452,0.00043,0.0,0.0
9.977,2387.777,0.00042,0.0,0.0
9.983,2410.682,0.00041,0.0,0.0
9.989,2436.517,0.00041,0.0,0.0
9.996,2475.326,0.0004,0.0,0.0
10.002,2497.457,0.0004,0.0,0.0
10.008,2538.064,0.00039,0.0,0.0
10.014,2578.102,0.00039,0.0,0.0
10.021,2621.59,0.00038,0.0,0.0
10.027,2672.686,0.00037,0.0,0.0
10.033,2718.3,0.00037,0.0,0.0
10.039,2775.394,0.00036,0.0,0.0
10.046,2830.397,0.00035,0.0,0.0
10.052,2877.048,0.00035,0.0,0.0
10.058,2940.159,0.00034,0.0,0.0
10.064,2993.052,0.00033,0.0,0.0
10.071,3057.9,0.00033,0.0,0.0
10.077,3113.895,0.00032,0.0,0.0
10.083,3180.12,0.00031,0.0,0.0
10.089,3237.898,0.00031,0.0,0.0
10.096,3296.89,0.0003,0.0,0.0
10.102,3340.261,0.0003,0.0,0.0
10.108,3396.719,0.00029,0.0,0.0
10.114,3443.704,0.00029,0.0,0.0
10.121,3486.117,0.00029,0.0,0.0
10.127,3522.597,0.00028,0.0,0.0
10.133,3556.33,0.00028,0.0,0.0
10.139,3589.838,0.00028,0.0,0.0
10.146,3607.265,0.00028,0.0,0.0
10.152,3633.282,0.00028,0.0,0.0
10.158,3631.813,0.00028,0.0,0.0
10.164,3646.782,0.00027,0.0,0.0
10.171,3653.221,0.00027,0.0,0.0
10.177,3660.632,0.00027,0.0,0.0
10.183,3658.926,0.00027,0.0,0.0
10.189,3656.974,0.00027,0.0,0.0
10.196,3651.871,0.00027,0.0,0.0
10.202,3649.095,0.00027,0.0,0.0
10.208,3645.327,0.00027,0.0,0.0
10.214,3632.217,0.00028,0.0,0.0
10.221,3618.546,0.00028,0.0,0.0
10.227,3611.501,0.00028,0.0,0.0
10.233,3596.795,0.00028,0.0,0.0
10.239,3590.283,0.00028,0.0,0.0
10.246,3580.693,0.00028,0.0,0.0
10.252,3571.695,0.00028,0.0,0.0
10.258,3563.506,0.00028,0.0,0.0
10.264,3547.654,0.00028,0.0,0.0
10.271,3525.905,0.00028,0.0,0.0
10.277,3512.646,0.00028,0.0,0.0
10.283,3481.771,0.00029,0.0,0.0
10.289,3460.833,0.00029,0.0,0.0
10.296,3436.539,0.00029,0.0,0.0
10.302,3406.011,0.00029,0.0,0.0
10.308,3384.563,0.0003,0.0,0.0
10.314,3341.182,0.0003,0.0,0.0
10.321,3312.838,0.0003,0.0,0.0
10.327,3281.431,0.0003,0.0,0.0
10.333,3233.524,0.00031,0.0,0.0
10.339,3196.135,0.00031,0.0,0.0
10.346,3150.258,0.00032,0.0,0.0
10.352,3109.805,0.00032,0.0,0.0
10.358,3055.188,0.00033,0.0,0.0
10.364,3011.857,0.00033,0.0,0.0
10.371,2964.956,0.00034,0.0,0.0
10.377,2916.983,0.00034,0.0,0.0
10.383,2879.525,0.00035,0.0,0.0
10.389,2837.653,0.00035,0.0,0.0
10.396,2779.82,0.00036,0.0,0.0
10.402,2740.658,0.00036,0.0,0.0
10.408,2699.184,0.00037,0.0,0.0
10.414,2655.0,0.00038,0.0,0.0
10.421,2619.665,0.00038,0.0,0.0
10.427,2580.704,0.00039,0.0,0.0
10.433,2544.354,0.00039,0.0,0.0
10.439,2505.933,0.0004,0.0,0.0
10.446,2474.369,0.0004,0.0,0.0
10.452,2446.198,0.00041,0.0,0.0
10.458,2419.53,0.00041,0.0,0.0
10.464,2396.19,0.00042,0.0,0.0
10.471,2369.351,0.00042,0.0,0.0
10.477,2349.798,0.00043,0.0,0.0
10.483,2324.163,0.00043,0.0,0.0
10.489,2307.484,0.00043,0.0,0.0
10.496,2289.796,0.00044,0.0,0.0
10.502,2270.681,0.00044,0.0,0.0
10.508,2255.713,0.00044,0.0,0.0
10.514,2238.824,0.00045,0.0,0.0
10.521,2224.796,0.00045,0.0,0.0
10.527,2219.018,0.00045,0.0,0.0
10.533,2206.513,0.00045,0.0,0.0
10.539,2183.811,0.00046,0.0,0.0
10.546,2187.583,0.00046,0.0,0.0
10.552,2169.631,0.00046,0.0,0.0
10.558,2168.356,0.00046,0.0,0.0
10.564,2160.301,0.00046,0.0,0.0
10.571,2146.484,0.00047,0.0,0.0
10.577,2148.645,0.00047,0.0,0.0
10.583,2135.658,0.00047,0.0,0.0
10.589,2137.059,0.00047,0.0,0.0
10.596,2132.511,0.00047,0.0,0.0
10.602,2133.85,0.00047,0.0,0.0
10.608,2133.1,0.00047,0.0,0.0
10.614,2127.907,0.00047,0.0,0.0
10.621,2129.624,0.00047,0.0,0.0
10.627,2137.434,0.00047,0.0,0.0
10.633,2149.279,0.00047,0.0,0.0
10.639,2148.567,0.00047,0.0,0.0
10.646,2157.495,0.00046,0.0,0.0
10.652,2168.181,0.00046,0.0,0.0
10.658,2172.756,0.00046,0.0,0.0
10.664,2188.12,0.00046,0.0,0.0
10.671,2202.135,0.00045,0.0,0.0
10.677,2205.164,0.00045,0.0,0.0
10.683,2226.335,0.00045,0.0,0.0
10.689,2242.957,0.00045,0.0,0.0
10.696,2259.644,0.00044,0.0,0.0
10.702,2277.518,0.00044,0.0,0.0
10.708,2298.266,0.00044,0.0,0.0
10.714,2318.747,0.00043,0.0,0.0
10.721,2344.24,0.00043,0.0,0.0
10.727,2373.663,0.00042,0.0,0.0
10.733,2402.663,0.00042,0.0,0.0
10.739,2437.849,0.00041,0.0,0.0
10.745,2466.336,0.00041,0.0,0.0
10.752,2507.205,0.0004,0.0,0.0
10.758,2545.107,0.00039,0.0,0.0
10.764,2586.617,0.00039,0.0,0.0
10.77,2626.83,0.00038,0.0,0.0
10.777,2679.383,0.00037,0.0,0.0
10.783,2727.692,0.00037,0.0,0.0
10.789,2779.703,0.00036,0.0,0.0
10.795,2836.74,0.00035,0.0,0.0
10.802,2896.758,0.00035,0.0,0.0
10.808,2962.894,0.00034,0.0,0.0
10.814,3021.126,0.00033,0.0,0.0
10.82,3082.826,0.00032,0.0,0.0
10.827,3152.077,0.00032,0.0,0.0
10.833,3212.42,0.00031,0.0,0.0
10.839,3284.598,0.0003,0.0,0.0
10.845,3344.525,0.0003,0.0,0.0
10.852,3413.647,0.00029,0.0,0.0
10.858,3479.49,0.00029,0.0,0.0
10.864,3540.348,0.00028,0.0,0.0
10.87,3601.235,0.00028,0.0,0.0
10.877,3662.493,0.00027,0.0,0.0
10.883,3713.59,0.00027,0.0,0.0
10.889,3772.301,0.00027,0.0,0.0
10.895,3803.312,0.00026,0.0,0.0
10.902,3845.165,0.00026,0.0,0.0
10.908,3883.719,0.00026,0.0,0.0
10.914,3900.202,0.00026,0.0,0.0
10.92,3926.48,0.00025,0.0,0.0
10.927,3935.477,0.00025,0.0,0.0
10.933,3942.184,0.00025,0.0,0.0
10.939,3935.269,0.00025,0.0,0.0
10.945,3930.678,0.00025,0.0,0.0
10.952,3911.18,0.00026,0.0,0.0
10.958,3888.858,0.00026,0.0,0.0
10.964,3850.339,0.00026,0.0,0.0
10.97,3823.264,0.00026,0.0,0.0
10.977,3778.794,0.00026,0.0,0.0
10.983,3727.957,0.00027,0.0,0.0
10.989,3689.232,0.00027,0.0,0.0
10.995,3625.007,0.00028,0.0,0.0
11.002,3582.909,0.00028,0.0,0.0
11.008,3522.772,0.00028,0.0,0.0
11.014,3467.423,0.00029,0.0,0.0
11.02,3408.556,0.00029,0.0,0.0
11.027,3346.291,0.0003,0.0,0.0
11.033,3288.792,0.0003,0.0,0.0
11.039,3231.245,0.00031,0.0,0.0
11.045,3168.514,0.00032,0.0,0.0
11.052,3121.052,0.00032,0.0,0.0
11.058,3057.595,0.00033,0.0,0.0
11.064,3013.493,0.00033,0.0,0.0
11.07,2951.0,0.00034,0.0,0.0
11.077,2902.571,0.00034,0.0,0.0
11.083,2850.401,0.00035,0.0,0.0
11.089,2802.275,0.00036,0.0,0.0
11.095,2760.87,0.00036,0.0,0.0
11.102,2711.964,0.00037,0.0,0.0
11.108,2677.589,0.00037,0.0,0.0
11.114,2630.531,0.00038,0.0,0.0
11.12,2592.065,0.00039,0.0,0.0
11.127,2546.701,0.00039,0.0,0.0
11.133,2511.899,0.0004,0.0,0.0
11.139,2479.303,0.0004,0.0,0.0
11.145,2439.125,0.00041,0.0,0.0
11.152,2407.743,0.00042,0.0,0.0
11.158,2377.931,0.00042,0.0,0.0
11.164,2351.862,0.00043,0.0,0.0
11.17,2321.339,0.00043,0.0,0.0
11.177,2290.558,0.00044,0.0,0.0
11.183,2262.097,0.00044,0.0,0.0
11.189,2238.168,0.00045,0.0,0.0
11.195,2215.494,0.00045,0.0,0.0
11.202,2189.015,0.00046,0.0,0.0
11.208,2163.688,0.00046,0.0,0.0
11.214,2145.132,0.00047,0.0,0.0
11.22,2121.933,0.00047,0.0,0.0
11.227,2106.745,0.00047,0.0,0.0
11.233,2085.989,0.00048,0.0,0.0
11.239,2069.589,0.00048,0.0,0.0
11.245,2049.907,0.00049,0.0,0.0
11.252,2032.557,0.00049,0.0,0.0
11.258,2021.178,0.00049,0.0,0.0
11.264,2002.507,0.0005,0.0,0.0
11.27,1993.58,0.0005,0.0,0.0
11.277,1982.21,0.0005,0.0,0.0
11.283,1970.362,0.00051,0.0,0.0
11.289,1963.791,0.00051,0.0,0.0
11.295,1948.076,0.00051,0.0,0.0
11.302,1940.101,0.00052,0.0,0.0
11.308,1931.447,0.00052,0.0,0.0
11.314,1926.224,0.00052,0.0,0.0
11.32,1920.616,0.00052,0.0,0.0
11.327,1911.986,0.00052,0.0,0.0
11.333,1907.577,0.00052,0.0,0.0
11.339,1899.854,0.00053,0.0,0.0
11.345,1894.734,0.00053,0.0,0.0
11.352,1894.148,0.00053,0.0,0.0
11.358,1882.766,0.00053,0.0,0.0
11.364,1881.25,0.00053,0.0,0.0
11.37,1882.761,0.00053,0.0,0.0
11.377,1880.63,0.00053,0.0,0.0
11.383,1875.916,0.00053,0.0,0.0
11.389,1879.427,0.00053,0.0,0.0
11.395,1872.34,0.00053,0.0,0.0
11.402,1868.551,0.00054,0.0,0.0
11.408,1871.971,0.00053,0.0,0.0
11.414,1871.757,0.00053,0.0,0.0
11.42,1868.034,0.00054,0.0,0.0
11.427,1868.866,0.00054,0.0,0.0
11.433,1866.42,0.00054,0.0,0.0
11.439,1870.944,0.00053,0.0,0.0
11.445,1870.548,0.00053,0.0,0.0
11.452,1868.809,0.00054,0.0,0.0
11.458,1873.893,0.00053,0.0,0.0
11.464,1873.177,0.00053,0.0,0.0
11.47,1873.949,0.00053,0.0,0.0
11.477,1878.894,0.00053,0.0,0.0
11.483,1875.537,0.00053,0.0,0.0
11.489,1885.168,0.00053,0.0,0.0
11.495,1884.509,0.00053,0.0,0.0
11.502,1888.282,0.00053,0.0,0.0
11.508,1895.925,0.00053,0.0,0.0
11.514,1899.57,0.00053,0.0,0.0
11.52,1908.209,0.00052,0.0,0.0
11.526,1912.921,0.00052,0.0,0.0
11.533,1928.155,0.00052,0.0,0.0
11.539,1932.447,0.00052,0.0,0.0
11.545,1943.2,0.00051,0.0,0.0
11.551,1953.317,0.00051,0.0,0.0
11.558,1962.843,0.00051,0.0,0.0
11.564,1980.609,0.0005,0.0,0.0
11.57,1994.865,0.0005,0.0,0.0
11.576,2002.307,0.0005,0.0,0.0
11.583,2016.741,0.0005,0.0,0.0
11.589,2033.254,0.00049,0.0,0.0
11.595,2047.889,0.00049,0.0,0.0
11.601,2062.267,0.00048,0.0,0.0
11.608,2076.741,0.00048,0.0,0.0
11.614,2093.548,0.00048,0.0,0.0
11.62,2110.805,0.00047,0.0,0.0
11.626,2137.669,0.00047,0.0,0.0
11.633,2153.119,0.00046,0.0,0.0
11.639,2171.383,0.00046,0.0,0.0
11.645,2195.006,0.00046,0.0,0.0
11.651,2214.712,0.00045,0.0,0.0
11.658,2241.738,0.00045,0.0,0.0
11.664,2268.433,0.00044,0.0,0.0
11.67,2288.136,0.00044,0.0,0.0
11.676,2316.578,0.00043,0.0,0.0
11.683,2346.458,0.00043,0.0,0.0
11.689,2389.378,0.00042,0.0,0.0
11.695,2420.669,0.00041,0.0,0.0
11.701,2457.188,0.00041,0.0,0.0
11.708,2497.667,0.0004,0.0,0.0
11.714,2536.117,0.00039,0.0,0.0
11.72,2577.334,0.00039,0.0,0.0
11.726,2617.092,0.00038,0.0,0.0
11.733,2666.404,0.00038,0.0,0.0
11.739,2714.473,0.00037,0.0,0.0
11.745,2757.792,0.00036,0.0,0.0
11.751,2803.733,0.00036,0.0,0.0
11.758,2853.222,0.00035,0.0,0.0
11.764,2903.077,0.00034,0.0,0.0
11.77,2944.915,0.00034,0.0,0.0
11.776,2988.912,0.00033,0.0,0.0
11.783,3031.499,0.00033,0.0,0.0
11.789,3067.823,0.00033,0.0,0.0
11.795,3104.975,0.00032,0.0,0.0
11.801,3129.529,0.00032,0.0,0.0
11.808,3158.609,0.00032,0.0,0.0
11.814,3178.409,0.00031,0.0,0.0
11.82,3193.788,0.00031,0.0,0.0
11.826,3202.583,0.00031,0.0,0.0
11.833,3211.284,0.00031,0.0,0.0
11.839,3210.586,0.00031,0.0,0.0
11.845,3198.981,0.00031,0.0,0.0
11.851,3190.921,0.00031,0.0,0.0
11.858,3167.425,0.00032,0.0,0.0
11.864,3153.545,0.00032,0.0,0.0
11.87,3118.841,0.00032,0.0,0.0
11.876,3088.414,0.00032,0.0,0.0
11.883,3053.274,0.00033,0.0,0.0
11.889,3016.632,0.00033,0.0,0.0
11.895,2979.875,0.00034,0.0,0.0
11.901,2934.72,0.00034,0.0,0.0
11.908,2891.67,0.00035,0.0,0.0
11.914,2846.653,0.00035,0.0,0.0
11.92,2799.357,0.00036,0.0,0.0
11.926,2753.838,0.00036,0.0,0.0
11.933,2705.716,0.00037,0.0,0.0
11.939,2652.37,0.00038,0.0,0.0
11.945,2607.124,0.00038,0.0,0.0
11.951,2560.441,0.00039,0.0,0.0
11.958,2514.322,0.0004,0.0,0.0
11.964,2475.477,0.0004,0.0,0.0
11.97,2431.173,0.00041,0.0,0.0
11.976,2385.791,0.00042,0.0,0.0
11.983,2352.631,0.00043,0.0,0.0
11.989,2317.904,0.00043,0.0,0.0
11.995,2280.414,0.00044,0.0,0.0
12.001,2243.405,0.00045,0.0,0.0
12.008,2205.171,0.00045,0.0,0.0
12.014,2179.625,0.00046,0.0,0.0
12.02,2149.812,0.00047,0.0,0.0
12.026,2117.921,0.00047,0.0,0.0
12.033,2094.732,0.00048,0.0,0.0
12.039,2066.279,0.00048,0.0,0.0
12.045,2033.659,0.00049,0.0,0.0
12.051,2018.898,0.0005,0.0,0.0
12.058,1994.666,0.0005,0.0,0.0
12.064,1970.217,0.00051,0.0,0.0
12.07,1952.669,0.00051,0.0,0.0
12.076,1938.909,0.00052,0.0,0.0
12.083,1914.138,0.00052,0.0,0.0
12.089,1902.963,0.00053,0.0,0.0
12.095,1881.399,0.00053,0.0,0.0
12.101,1874.861,0.00053,0.0,0.0
12.108,1859.417,0.00054,0.0,0.0
12.114,1841.091,0.00054,0.0,0.0
12.12,1835.06,0.00054,0.0,0.0
12.126,1812.288,0.00055,0.0,0.0
12.133,1801.998,0.00055,0.0,0.0
12.139,1792.745,0.00056,0.0,0.0
12.145,1785.846,0.00056,0.0,0.0
12.151,1775.396,0.00056,0.0,0.0
12.158,1767.516,0.00057,0.0,0.0
12.164,1757.192,0.00057,0.0,0.0
12.17,1746.948,0.00057,0.0,0.0
12.176,1740.372,0.00057,0.0,0.0
12.183,1731.738,0.00058,0.0,0.0
12.189,1725.579,0.00058,0.0,0.0
12.195,1717.296,0.00058,0.0,0.0
12.201,1712.362,0.00058,0.0,0.0
12.208,1706.39,0.00059,0.0,0.0
12.214,1697.952,0.00059,0.0,0.0
12.22,1693.765,0.00059,0.0,0.0
12.226,1688.84,0.00059,0.0,0.0
12.233,1683.81,0.00059,0.0,0.0
12.239,1682.471,0.00059,0.0,0.0
12.245,1678.446,0.0006,0.0,0.0
12.251,1678.874,0.0006,0.0,0.0
12.258,1671.283,0.0006,0.0,0.0
12.264,1662.119,0.0006,0.0,0.0
12.27,1662.145,0.0006,0.0,0.0
12.276,1652.814,0.00061,0.0,0.0
12.283,1654.479,0.0006,0.0,0.0
12.289,1655.665,0.0006,0.0,0.0
12.295,1650.1,0.00061,0.0,0.0
12.301,1645.465,0.00061,0.0,0.0
12.307,1640.673,0.00061,0.0,0.0
12.314,1638.224,0.00061,0.0,0.0
12.32,1632.338,0.00061,0.0,0.0
12.326,1621.715,0.00062,0.0,0.0
12.332,1623.287,0.00062,0.0,0.0
12.339,1617.198,0.00062,0.0,0.0
12.345,1610.284,0.00062,0.0,0.0
12.351,1605.736,0.00062,0.0,0.0
12.357,1603.269,0.00062,0.0,0.0
12.364,1598.38,0.00063,0.0,0.0
12.37,1587.686,0.00063,0.0,0.0
12.376,1581.813,0.00063,0.0,0.0
12.382,1584.791,0.00063,0.0,0.0
12.389,1571.842,0.00064,0.0,0.0
12.395,1560.633,0.00064,0.0,0.0
12.401,1558.856,0.00064,0.0,0.0
12.407,1554.131,0.00064,0.0,0.0
12.414,1551.002,0.00064,0.0,0.0
12.42,1545.909,0.00065,0.0,0.0
12.426,1534.263,0.00065,0.0,0.0
12.432,1526.31,0.00066,0.0,0.0
12.439,1521.869,0.00066,0.0,0.0
12.445,1519.078,0.00066,0.0,0.0
12.451,1509.618,0.00066,0.0,0.0
12.457,1512.868,0.00066,0.0,0.0
12.464,1502.156,0.00067,0.0,0.0
12.47,1499.607,0.00067,0.0,0.0
12.476,1496.891,0.00067,0.0,0.0
12.482,1495.559,0.00067,0.0,0.0
12.489,1491.544,0.00067,0.0,0.0
12.495,1492.309,0.00067,0.0,0.0
12.501,1489.264,0.00067,0.0,0.0
12.507,1483.643,0.00067,0.0,0.0
12.514,1485.822,0.00067,0.0,0.0
12.52,1478.366,0.00068,0.0,0.0
12.526,1477.547,0.00068,0.0,0.0
12.532,1477.518,0.00068,0.0,0.0
12.539,1477.086,0.00068,0.0,0.0
12.545,1475.498,0.00068,0.0,0.0
12.551,1477.192,0.00068,0.0,0.0
12.557,1475.771,0.00068,0.0,0.0
12.564,1474.268,0.00068,0.0,0.0
12.57,1472.083,0.00068,0.0,0.0
12.576,1466.081,0.00068,0.0,0.0
12.582,1472.927,0.00068,0.0,0.0
12.589,1466.529,0.00068,0.0,0.0
12.595,1469.046,0.00068,0.0,0.0
12.601,1472.853,0.00068,0.0,0.0
12.607,1462.597,0.00068,0.0,0.0
12.614,1468.605,0.00068,0.0,0.0
12.62,1468.98,0.00068,0.0,0.0
12.626,1471.046,0.00068,0.0,0.0
12.632,1475.508,0.00068,0.0,0.0
12.639,1474.147,0.00068,0.0,0.0
12.645,1472.083,0.00068,0.0,0.0
12.651,1472.911,0.00068,0.0,0.0
12.657,1469.979,0.00068,0.0,0.0
12.664,1477.819,0.00068,0.0,0.0
12.67,1477.447,0.00068,0.0,0.0
12.676,1474.551,0.00068,0.0,0.0
12.682,1479.371,0.00068,0.0,0.0
12.689,1478.372,0.00068,0.0,0.0
12.695,1474.646,0.00068,0.0,0.0
12.701,1486.847,0.00067,0.0,0.0
12.707,1485.688,0.00067,0.0,0.0
12.714,1489.788,0.00067,0.0,0.0
12.72,1485.607,0.00067,0.0,0.0
12.726,1487.676,0.00067,0.0,0.0
12.732,1494.422,0.00067,0.0,0.0
12.739,1495.905,0.00067,0.0,0.0
12.745,1496.687,0.00067,0.0,0.0
12.751,1502.029,0.00067,0.0,0.0
12.757,1502.256,0.00067,0.0,0.0
12.764,1505.186,0.00066,0.0,0.0
12.77,1507.468,0.00066,0.0,0.0
12.776,1514.072,0.00066,0.0,0.0
12.782,1518.286,0.00066,0.0,0.0
12.789,1521.074,0.00066,0.0,0.0
12.795,1525.471,0.00066,0.0,0.0
12.801,1535.803,0.00065,0.0,0.0
12.807,1538.628,0.00065,0.0,0.0
12.814,1546.972,0.00065,0.0,0.0
12.82,1543.488,0.00065,0.0,0.0
12.826,1554.086,0.00064,0.0,0.0
12.832,1556.991,0.00064,0.0,0.0
12.839,1566.073,0.00064,0.0,0.0
12.845,1572.753,0.00064,0.0,0.0
12.851,1576.518,0.00063,0.0,0.0
12.857,1583.095,0.00063,0.0,0.0
12.864,1591.747,0.00063,0.0,0.0
12.87,1601.208,0.00062,0.0,0.0
12.876,1612.064,0.00062,0.0,0.0
12.882,1618.386,0.00062,0.0,0.0
12.889,1629.686,0.00061,0.0,0.0
12.895,1637.224,0.00061,0.0,0.0
12.901,1642.277,0.00061,0.0,0.0
12.907,1656.837,0.0006,0.0,0.0
12.914,1666.341,0.0006,0.0,0.0
12.92,1679.552,0.0006,0.0,0.0
12.926,1690.355,0.00059,0.0,0.0
12.932,1705.722,0.00059,0.0,0.0
12.939,1719.712,0.00058,0.0,0.0
12.945,1734.537,0.00058,0.0,0.0
12.951,1746.136,0.00057,0.0,0.0
12.957,1765.369,0.00057,0.0,0.0
12.964,1780.834,0.00056,0.0,0.0
12.97,1795.8,0.00056,0.0,0.0
12.976,1815.688,0.00055,0.0,0.0
12.982,1826.236,0.00055,0.0,0.0
12.989,1851.623,0.00054,0.0,0.0
12.995,1867.761,0.00054,0.0,0.0
13.001,1891.24,0.00053,0.0,0.0
13.007,1907.469,0.00052,0.0,0.0
13.014,1929.768,0.00052,0.0,0.0
13.02,1951.868,0.00051,0.0,0.0
13.026,1970.665,0.00051,0.0,0.0
13.032,1993.955,0.0005,0.0,0.0
13.039,2015.532,0.0005,0.0,0.0
13.045,2035.73,0.00049,0.0,0.0
13.051,2062.245,0.00048,0.0,0.0
13.057,2076.158,0.00048,0.0,0.0
13.064,2107.105,0.00047,0.0,0.0
13.07,2127.389,0.00047,0.0,0.0
13.076,2158.028,0.00046,0.0,0.0
13.082,2174.384,0.00046,0.0,0.0
13.088,2194.48,0.00046,0.0,0.0
13.095,2207.588,0.00045,0.0,0.0
13.101,2231.445,0.00045,0.0,0.0
13.107,2250.311,0.00044,0.0,0.0
13.113,2270.766,0.00044,0.0,0.0
13.12,2284.53,0.00044,0.0,0.0
13.126,2301.144,0.00043,0.0,0.0
13.132,2321.876,0.00043,0.0,0.0
13.138,2330.858,0.00043,0.0,0.0
13.145,2344.768,0.00043,0.0,0.0
13.151,2355.284,0.00042,0.0,0.0
13.157,2363.725,0.00042,0.0,0.0
13.163,2368.248,0.00042,0.0,0.0
13.17,2376.495,0.00042,0.0,0.0
13.176,2374.846,0.00042,0.0,0.0
13.182,2375.815,0.00042,0.0,0.0
13.188,2375.316,0.00042,0.0,0.0
13.195,2372.259,0.00042,0.0,0.0
13.201,2367.245,0.00042,0.0,0.0
13.207,2367.014,0.00042,0.0,0.0
13.213,2359.873,0.00042,0.0,0.0
13.22,2351.288,0.00043,0.0,0.0
13.226,2337.076,0.00043,0.0,0.0
13.232,2327.374,0.00043,0.0,0.0
13.238,2316.752,0.00043,0.0,0.0
13.245,2297.849,0.00044,0.0,0.0
13.251,2289.715,0.00044,0.0,0.0
13.257,2275.919,0.00044,0.0,0.0
13.263,2250.532,0.00044,0.0,0.0
13.27,2244.353,0.00045,0.0,0.0
13.276,2222.268,0.00045,0.0,0.0
13.282,2211.504,0.00045,0.0,0.0
13.288,2191.358,0.00046,0.0,0.0
13.295,2172.116,0.00046,0.0,0.0
13.301,2153.757,0.00046,0.0,0.0
13.307,2136.195,0.00047,0.0,0.0
13.313,2118.356,0.00047,0.0,0.0
13.32,2100.495,0.00048,0.0,0.0
13.326,2082.471,0.00048,0.0,0.0
13.332,2071.792,0.00048,0.0,0.0
13.338,2056.29,0.00049,0.0,0.0
13.345,2040.82,0.00049,0.0,0.0
13.351,2025.329,0.00049,0.0,0.0
13.357,2007.546,0.0005,0.0,0.0
13.363,1998.988,0.0005,0.0,0.0
13.37,1983.622,0.0005,0.0,0.0
13.376,1976.894,0.00051,0.0,0.0
13.382,1965.514,0.00051,0.0,0.0
13.388,1958.864,0.00051,0.0,0.0
13.395,1944.31,0.00051,0.0,0.0
13.401,1928.441,0.00052,0.0,0.0
13.407,1920.778,0.00052,0.0,0.0
13.413,1915.704,0.00052,0.0,0.0
13.42,1905.932,0.00052,0.0,0.0
13.426,1903.981,0.00053,0.0,0.0
13.432,1900.542,0.00053,0.0,0.0
13.438,1897.738,0.00053,0.0,0.0
13.445,1890.03,0.00053,0.0,0.0
13.451,1888.48,0.00053,0.0,0.0
13.457,1889.531,0.00053,0.0,0.0
13.463,1886.146,0.00053,0.0,0.0
13.47,1886.984,0.00053,0.0,0.0
13.476,1897.529,0.00053,0.0,0.0
13.482,1895.116,0.00053,0.0,0.0
13.488,1896.519,0.00053,0.0,0.0
13.495,1900.219,0.00053,0.0,0.0
13.501,1903.585,0.00053,0.0,0.0
13.507,1906.619,0.00052,0.0,0.0
13.513,1919.751,0.00052,0.0,0.0
13.52,1924.743,0.00052,0.0,0.0
13.526,1935.68,0.00052,0.0,0.0
13.532,1940.539,0.00052,0.0,0.0
13.538,1953.872,0.00051,0.0,0.0
13.545,1965.939,0.00051,0.0,0.0
13.551,1975.41,0.00051,0.0,0.0
13.557,1980.297,0.0005,0.0,0.0
13.563,1993.817,0.0005,0.0,0.0
13.57,2000.81,0.0005,0.0,0.0
13.576,2011.083,0.0005,0.0,0.0
13.582,2019.002,0.0005,0.0,0.0
13.588,2021.5,0.00049,0.0,0.0
13.595,2036.95,0.00049,0.0,0.0
13.601,2041.284,0.00049,0.0,0.0
13.607,2048.533,0.00049,0.0,0.0
13.613,2044.049,0.00049,0.0,0.0
13.62,2049.375,0.00049,0.0,0.0
13.626,2048.467,0.00049,0.0,0.0
13.632,2050.391,0.00049,0.0,0.0
13.638,2053.234,0.00049,0.0,0.0
13.645,2050.142,0.00049,0.0,0.0
13.651,2045.895,0.00049,0.0,0.0
13.657,2045.562,0.00049,0.0,0.0
13.663,2044.228,0.00049,0.0,0.0
13.67,2047.644,0.00049,0.0,0.0
13.676,2043.048,0.00049,0.0,0.0
13.682,2043.535,0.00049,0.0,0.0
13.688,2042.257,0.00049,0.0,0.0
13.695,2039.597,0.00049,0.0,0.0
13.701,2040.444,0.00049,0.0,0.0
13.707,2039.833,0.00049,0.0,0.0
13.713,2036.607,0.00049,0.0,0.0
13.72,2035.514,0.00049,0.0,0.0
13.726,2034.068,0.00049,0.0,0.0
13.732,2030.713,0.00049,0.0,0.0
13.738,2026.795,0.00049,0.0,0.0
13.745,2026.227,0.00049,0.0,0.0
13.751,2020.998,0.00049,0.0,0.0
13.757,2016.107,0.0005,0.0,0.0
13.763,2005.937,0.0005,0.0,0.0
13.77,2005.436,0.0005,0.0,0.0
13.776,1993.531,0.0005,0.0,0.0
13.782,1993.229,0.0005,0.0,0.0
13.788,1981.681,0.0005,0.0,0.0
13.795,1977.195,0.00051,0.0,0.0
13.801,1966.053,0.00051,0.0,0.0
13.807,1961.02,0.00051,0.0,0.0
13.813,1949.856,0.00051,0.0,0.0
13.82,1934.641,0.00052,0.0,0.0
13.826,1926.363,0.00052,0.0,0.0
13.832,1919.242,0.00052,0.0,0.0
13.838,1901.922,0.00053,0.0,0.0
13.845,1897.301,0.00053,0.0,0.0
13.851,1879.149,0.00053,0.0,0.0
13.857,1871.879,0.00053,0.0,0.0
13.863,1853.837,0.00054,0.0,0.0
13.869,1850.792,0.00054,0.0,0.0
13.876,1837.057,0.00054,0.0,0.0
13.882,1827.777,0.00055,0.0,0.0
13.888,1816.311,0.00055,0.0,0.0
13.894,1806.756,0.00055,0.0,0.0
13.901,1795.411,0.00056,0.0,0.0
13.907,1789.847,0.00056,0.0,0.0
13.913,1782.113,0.00056,0.0,0.0
13.919,1772.907,0.00056,0.0,0.0
13.926,1760.259,0.00057,0.0,0.0
13.932,1755.22,0.00057,0.0,0.0
13.938,1746.861,0.00057,0.0,0.0
13.944,1741.165,0.00057,0.0,0.0
13.951,1729.601,0.00058,0.0,0.0
13.957,1718.634,0.00058,0.0,0.0
13.963,1710.953,0.00058,0.0,0.0
13.969,1708.893,0.00059,0.0,0.0
13.976,1695.937,0.00059,0.0,0.0
13.982,1689.967,0.00059,0.0,0.0
13.988,1685.825,0.00059,0.0,0.0
13.994,1679.879,0.0006,0.0,0.0
14.001,1678.574,0.0006,0.0,0.0
14.007,1674.396,0.0006,0.0,0.0
14.013,1668.619,0.0006,0.0,0.0
14.019,1666.17,0.0006,0.0,0.0
14.026,1661.12,0.0006,0.0,0.0
14.032,1654.445,0.0006,0.0,0.0
14.038,1655.334,0.0006,0.0,0.0
14.044,1653.096,0.0006,0.0,0.0
14.051,1646.147,0.00061,0.0,0.0
14.057,1640.657,0.00061,0.0,0.0
14.063,1642.553,0.00061,0.0,0.0
14.069,1643.585,0.00061,0.0,0.0
14.076,1634.751,0.00061,0.0,0.0
14.082,1630.614,0.00061,0.0,0.0
14.088,1632.884,0.00061,0.0,0.0
14.094,1627.422,0.00061,0.0,0.0
14.101,1627.787,0.00061,0.0,0.0
14.107,1630.619,0.00061,0.0,0.0
14.113,1619.143,0.00062,0.0,0.0
14.119,1624.717,0.00062,0.0,0.0
14.126,1624.473,0.00062,0.0,0.0
14.132,1628.81,0.00061,0.0,0.0
14.138,1622.413,0.00062,0.0,0.0
14.144,1625.598,0.00062,0.0,0.0
14.151,1624.637,0.00062,0.0,0.0
14.157,1622.316,0.00062,0.0,0.0
14.163,1628.171,0.00061,0.0,0.0
14.169,1623.157,0.00062,0.0,0.0
14.176,1624.569,0.00062,0.0,0.0
14.182,1629.844,0.00061,0.0,0.0
14.188,1628.706,0.00061,0.0,0.0
14.194,1628.204,0.00061,0.0,0.0
14.201,1630.344,0.00061,0.0,0.0
14.207,1634.461,0.00061,0.0,0.0
14.213,1639.526,0.00061,0.0,0.0
14.219,1643.066,0.00061,0.0,0.0
14.226,1641.62,0.00061,0.0,0.0
14.232,1644.049,0.00061,0.0,0.0
14.238,1654.244,0.0006,0.0,0.0
14.244,1655.417,0.0006,0.0,0.0
14.251,1661.044,0.0006,0.0,0.0
14.257,1668.349,0.0006,0.0,0.0
14.263,1672.59,0.0006,0.0,0.0
14.269,1678.927,0.0006,0.0,0.0
14.276,1679.269,0.0006,0.0,0.0
14.282,1694.42,0.00059,0.0,0.0
14.288,1701.787,0.00059,0.0,0.0
14.294,1710.601,0.00058,0.0,0.0
14.301,1720.531,0.00058,0.0,0.0
14.307,1730.502,0.00058,0.0,0.0
14.313,1737.866,0.00058,0.0,0.0
14.319,1751.87,0.00057,0.0,0.0
14.326,1762.635,0.00057,0.0,0.0
14.332,1773.917,0.00056,0.0,0.0
14.338,1791.424,0.00056,0.0,0.0
14.344,1806.048,0.00055,0.0,0.0
14.351,1816.623,0.00055,0.0,0.0
14.357,1833.419,0.00055,0.0,0.0
14.363,1854.18,0.00054,0.0,0.0
14.369,1865.779,0.00054,0.0,0.0
14.376,1884.778,0.00053,0.0,0.0
14.382,1904.305,0.00053,0.0,0.0
14.388,1915.934,0.00052,0.0,0.0
14.394,1931.612,0.00052,0.0,0.0
14.401,1949.167,0.00051,0.0,0.0
14.407,1971.059,0.00051,0.0,0.0
14.413,1976.884,0.00051,0.0,0.0
14.419,1995.66,0.0005,0.0,0.0
14.426,2005.451,0.0005,0.0,0.0
14.432,2020.725,0.00049,0.0,0.0
14.438,2033.16,0.00049,0.0,0.0
14.444,2047.257,0.00049,0.0,0.0
14.451,2061.571,0.00049,0.0,0.0
14.457,2060.201,0.00049,0.0,0.0
14.463,2074.109,0.00048,0.0,0.0
14.469,2080.757,0.00048,0.0,0.0
14.476,2083.854,0.00048,0.0,0.0
14.482,2088.78,0.00048,0.0,0.0
14.488,2093.128,0.00048,0.0,0.0
14.494,2090.495,0.00048,0.0,0.0
14.501,2095.06,0.00048,0.0,0.0
14.507,2095.064,0.00048,0.0,0.0
14.513,2086.121,0.00048,0.0,0.0
14.519,2084.536,0.00048,0.0,0.0
14.526,2086.943,0.00048,0.0,0.0
14.532,2073.884,0.00048,0.0,0.0
14.538,2067.125,0.00048,0.0,0.0
14.544,2066.386,0.00048,0.0,0.0
14.551,2053.294,0.00049,0.0,0.0
14.557,2048.619,0.00049,0.0,0.0
14.563,2040.816,0.00049,0.0,0.0
14.569,2024.663,0.00049,0.0,0.0
14.576,2018.416,0.0005,0.0,0.0
14.582,2005.661,0.0005,0.0,0.0
14.588,1994.533,0.0005,0.0,0.0
14.594,1981.755,0.0005,0.0,0.0
14.601,1969.45,0.00051,0.0,0.0
14.607,1957.211,0.00051,0.0,0.0
14.613,1948.033,0.00051,0.0,0.0
14.619,1933.714,0.00052,0.0,0.0
14.626,1925.308,0.00052,0.0,0.0
14.632,1909.231,0.00052,0.0,0.0
14.638,1897.078,0.00053,0.0,0.0
14.644,1884.337,0.00053,0.0,0.0
14.65,1866.989,0.00054,0.0,0.0
14.657,1856.82,0.00054,0.0,0.0
14.663,1849.07,0.00054,0.0,0.0
14.669,1836.383,0.00054,0.0,0.0
14.675,1819.917,0.00055,0.0,0.0
14.682,1811.012,0.00055,0.0,0.0
14.688,1802.052,0.00055,0.0,0.0
14.694,1787.643,0.00056,0.0,0.0
14.7,1774.048,0.00056,0.0,0.0
14.707,1766.413,0.00057,0.0,0.0
14.713,1759.093,0.00057,0.0,0.0
14.719,1750.289,0.00057,0.0,0.0
14.725,1749.414,0.00057,0.0,0.0
14.732,1736.604,0.00058,0.0,0.0
14.738,1735.693,0.00058,0.0,0.0
14.744,1734.763,0.00058,0.0,0.0
14.75,1720.438,0.00058,0.0,0.0
14.757,1722.28,0.00058,0.0,0.0
14.763,1722.193,0.00058,0.0,0.0
14.769,1713.441,0.00058,0.0,0.0
14.775,1712.22,0.00058,0.0,0.0
14.782,1704.135,0.00059,0.0,0.0
14.788,1706.909,0.00059,0.0,0.0
14.794,1713.437,0.00058,0.0,0.0
14.8,1710.784,0.00058,0.0,0.0
14.807,1715.395,0.00058,0.0,0.0
14.813,1712.815,0.00058,0.0,0.0
14.819,1718.569,0.00058,0.0,0.0
14.825,1719.366,0.00058,0.0,0.0
14.832,1726.789,0.00058,0.0,0.0
14.838,1733.682,0.00058,0.0,0.0
14.844,1737.148,0.00058,0.0,0.0
14.85,1746.556,0.00057,0.0,0.0
14.857,1748.716,0.00057,0.0,0.0
14.863,1760.769,0.00057,0.0,0.0
14.869,1771.569,0.00056,0.0,0.0
14.875,1783.741,0.00056,0.0,0.0
14.882,1796.57,0.00056,0.0,0.0
14.888,1806.075,0.00055,0.0,0.0
14.894,1819.587,0.00055,0.0,0.0
14.9,1839.54,0.00054,0.0,0.0
14.907,1854.061,0.00054,0.0,0.0
14.913,1870.698,0.00053,0.0,0.0
14.919,1891.369,0.00053,0.0,0.0
14.925,1905.814,0.00052,0.0,0.0
14.932,1925.827,0.00052,0.0,0.0
14.938,1944.149,0.00051,0.0,0.0
14.944,1965.378,0.00051,0.0,0.0
14.95,1982.704,0.0005,0.0,0.0
14.957,2006.353,0.0005,0.0,0.0
14.963,2027.131,0.00049,0.0,0.0
14.969,2048.831,0.00049,0.0,0.0
14.975,2067.146,0.00048,0.0,0.0
14.982,2086.649,0.00048,0.0,0.0
14.988,2111.629,0.00047,0.0,0.0
14.994,2131.922,0.00047,0.0,0.0
15.0,2146.583,0.00047,0.0,0.0
15.007,2166.58,0.00046,0.0,0.0
15.013,2178.547,0.00046,0.0,0.0
15.019,2197.535,0.00046,0.0,0.0
15.025,2204.52,0.00045,0.0,0.0
15.032,2213.314,0.00045,0.0,0.0
15.038,2226.012,0.00045,0.0,0.0
15.044,2227.837,0.00045,0.0,0.0
15.05,2238.042,0.00045,0.0,0.0
15.057,2242.728,0.00045,0.0,0.0
15.063,2240.412,0.00045,0.0,0.0
15.069,2243.214,0.00045,0.0,0.0
15.075,2238.916,0.00045,0.0,0.0
15.082,2234.334,0.00045,0.0,0.0
15.088,2226.11,0.00045,0.0,0.0
15.094,2224.248,0.00045,0.0,0.0
15.1,2215.151,0.00045,0.0,0.0
15.107,2208.002,0.00045,0.0,0.0
15.113,2200.658,0.00045,0.0,0.0
15.119,2188.331,0.00046,0.0,0.0
15.125,2174.742,0.00046,0.0,0.0
15.132,2161.418,0.00046,0.0,0.0
15.138,2148.942,0.00047,0.0,0.0
15.144,2134.501,0.00047,0.0,0.0
15.15,2114.031,0.00047,0.0,0.0
15.157,2108.325,0.00047,0.0,0.0
15.163,2086.327,0.00048,0.0,0.0
15.169,2070.293,0.00048,0.0,0.0
15.175,2061.698,0.00049,0.0,0.0
15.182,2041.79,0.00049,0.0,0.0
15.188,2034.418,0.00049,0.0,0.0
15.194,2022.37,0.00049,0.0,0.0
15.2,2011.65,0.0005,0.0,0.0
15.207,2000.351,0.0005,0.0,0.0
15.213,1992.198,0.0005,0.0,0.0
15.219,1978.632,0.00051,0.0,0.0
15.225,1971.647,0.00051,0.0,0.0
15.232,1968.572,0.00051,0.0,0.0
15.238,1961.527,0.00051,0.0,0.0
15.244,1954.9,0.00051,0.0,0.0
15.25,1952.004,0.00051,0.0,0.0
15.257,1955.456,0.00051,0.0,0.0
15.263,1957.094,0.00051,0.0,0.0
15.269,1961.972,0.00051,0.0,0.0
15.275,1963.144,0.00051,0.0,0.0
15.282,1966.612,0.00051,0.0,0.0
15.288,1966.431,0.00051,0.0,0.0
15.294,1982.41,0.0005,0.0,0.0
15.3,1981.094,0.0005,0.0,0.0
15.307,2007.706,0.0005,0.0,0.0
15.313,2011.736,0.0005,0.0,0.0
15.319,2027.285,0.00049,0.0,0.0
15.325,2045.103,0.00049,0.0,0.0
15.332,2060.221,0.00049,0.0,0.0
15.338,2080.836,0.00048,0.0,0.0
15.344,2095.566,0.00048,0.0,0.0
15.35,2128.305,0.00047,0.0,0.0
15.357,2145.95,0.00047,0.0,0.0
15.363,2169.045,0.00046,0.0,0.0
15.369,2195.763,0.00046,0.0,0.0
15.375,2221.072,0.00045,0.0,0.0
15.382,2247.074,0.00045,0.0,0.0
15.388,2272.78,0.00044,0.0,0.0
15.394,2303.278,0.00043,0.0,0.0
15.4,2327.401,0.00043,0.0,0.0
15.407,2356.875,0.00042,0.0,0.0
15.413,2379.983,0.00042,0.0,0.0
15.419,2397.951,0.00042,0.0,0.0
15.425,2430.837,0.00041,0.0,0.0
15.431,2442.355,0.00041,0.0,0.0
15.438,2456.617,0.00041,0.0,0.0
15.444,2475.427,0.0004,0.0,0.0
15.45,2480.658,0.0004,0.0,0.0
15.456,2487.912,0.0004,0.0,0.0
15.463,2489.356,0.0004,0.0,0.0
15.469,2498.26,0.0004,0.0,0.0
15.475,2493.05,0.0004,0.0,0.0
15.481,2489.037,0.0004,0.0,0.0
15.488,2481.093,0.0004,0.0,0.0
15.494,2480.041,0.0004,0.0,0.0
15.5,2469.232,0.0004,0.0,0.0
15.506,2458.009,0.00041,0.0,0.0
15.513,2447.697,0.00041,0.0,0.0
15.519,2435.03,0.00041,0.0,0.0
15.525,2416.542,0.00041,0.0,0.0
15.531,2405.056,0.00042,0.0,0.0
15.538,2397.89,0.00042,0.0,0.0
15.544,2379.515,0.00042,0.0,0.0
15.55,2374.019,0.00042,0.0,0.0
15.556,2359.817,0.00042,0.0,0.0
15.563,2344.292,0.00043,0.0,0.0
15.569,2339.081,0.00043,0.0,0.0
15.575,2330.328,0.00043,0.0,0.0
15.581,2316.716,0.00043,0.0,0.0
15.588,2306.434,0.00043,0.0,0.0
15.594,2306.992,0.00043,0.0,0.0
15.6,2299.613,0.00043,0.0,0.0
15.606,2298.019,0.00044,0.0,0.0
15.613,2294.051,0.00044,0.0,0.0
15.619,2283.702,0.00044,0.0,0.0
15.625,2284.865,0.00044,0.0,0.0
15.631,2278.366,0.00044,0.0,0.0
15.638,2277.28,0.00044,0.0,0.0
15.644,2275.034,0.00044,0.0,0.0
15.65,2270.478,0.00044,0.0,0.0
15.656,2271.22,0.00044,0.0,0.0
15.663,2264.14,0.00044,0.0,0.0
15.669,2260.074,0.00044,0.0,0.0
15.675,2255.836,0.00044,0.0,0.0
15.681,2243.712,0.00045,0.0,0.0
15.688,2245.475,0.00045,0.0,0.0
15.694,2235.751,0.00045,0.0,0.0
15.7,2230.726,0.00045,0.0,0.0
15.706,2222.777,0.00045,0.0,0.0
15.713,2211.867,0.00045,0.0,0.0
15.719,2202.378,0.00045,0.0,0.0
15.725,2189.671,0.00046,0.0,0.0
15.731,2177.901,0.00046,0.0,0.0
15.738,2161.968,0.00046,0.0,0.0
15.744,2149.892,0.00047,0.0,0.0
15.75,2128.941,0.00047,0.0,0.0
15.756,2117.302,0.00047,0.0,0.0
15.763,2103.145,0.00048,0.0,0.0
15.769,2082.23,0.00048,0.0,0.0
15.775,2064.085,0.00048,0.0,0.0
15.781,2040.676,0.00049,0.0,0.0
15.788,2026.684,0.00049,0.0,0.0
15.794,2008.854,0.0005,0.0,0.0
15.8,1988.917,0.0005,0.0,0.0
15.806,1975.446,0.00051,0.0,0.0
15.813,1955.077,0.00051,0.0,0.0
15.819,1933.406,0.00052,0.0,0.0
15.825,1915.926,0.00052,0.0,0.0
15.831,1899.563,0.00053,0.0,0.0
15.838,1884.462,0.00053,0.0,0.0
15.844,1875.615,0.00053,0.0,0.0
15.85,1852.016,0.00054,0.0,0.0
15.856,1839.455,0.00054,0.0,0.0
15.863,1826.268,0.00055,0.0,0.0
15.869,1820.146,0.00055,0.0,0.0
15.875,1800.376,0.00056,0.0,0.0
15.881,1792.697,0.00056,0.0,0.0
15.888,1780.807,0.00056,0.0,0.0
15.894,1769.138,0.00057,0.0,0.0
15.9,1761.093,0.00057,0.0,0.0
15.906,1752.741,0.00057,0.0,0.0
15.913,1746.256,0.00057,0.0,0.0
15.919,1734.918,0.00058,0.0,0.0
15.925,1732.294,0.00058,0.0,0.0
15.931,1725.937,0.00058,0.0,0.0
15.938,1716.147,0.00058,0.0,0.0
15.944,1706.871,0.00059,0.0,0.0
15.95,1704.84,0.00059,0.0,0.0
15.956,1702.616,0.00059,0.0,0.0
15.963,1692.897,0.00059,0.0,0.0
15.969,1686.943,0.00059,0.0,0.0
15.975,1680.982,0.00059,0.0,0.0
15.981,1669.868,0.0006,0.0,0.0
15.988,1670.11,0.0006,0.0,0.0
15.994,1664.547,0.0006,0.0,0.0
16.0,1658.154,0.0006,0.0,0.0
16.006,1655.55,0.0006,0.0,0.0
16.013,1647.508,0.00061,0.0,0.0
16.019,1645.208,0.00061,0.0,0.0
16.025,1639.016,0.00061,0.0,0.0
16.031,1639.228,0.00061,0.0,0.0
16.038,1629.796,0.00061,0.0,0.0
16.044,1628.776,0.00061,0.0,0.0
16.05,1626.304,0.00061,0.0,0.0
16.056,1624.026,0.00062,0.0,0.0
16.063,1624.511,0.00062,0.0,0.0
16.069,1617.584,0.00062,0.0,0.0
16.075,1618.064,0.00062,0.0,0.0
16.081,1618.622,0.00062,0.0,0.0
16.088,1617.722,0.00062,0.0,0.0
16.094,1622.496,0.00062,0.0,0.0
16.1,1614.02,0.00062,0.0,0.0
16.106,1618.573,0.00062,0.0,0.0
16.113,1619.753,0.00062,0.0,0.0
16.119,1613.739,0.00062,0.0,0.0
16.125,1627.293,0.00061,0.0,0.0
16.131,1617.921,0.00062,0.0,0.0
16.138,1627.601,0.00061,0.0,0.0
16.144,1632.6,0.00061,0.0,0.0
16.15,1634.642,0.00061,0.0,0.0
16.156,1639.595,0.00061,0.0,0.0
16.163,1635.932,0.00061,0.0,0.0
16.169,1649.936,0.00061,0.0,0.0
16.175,1646.347,0.00061,0.0,0.0
16.181,1656.13,0.0006,0.0,0.0
16.188,1661.627,0.0006,0.0,0.0
16.194,1660.504,0.0006,0.0,0.0
