"x","y_obs","weight","y_calc","y_bkg"
0.8,2762.093,0.00036,0.0,0.0
0.806,3186.992,0.00031,0.0,0.0
0.813,3326.184,0.0003,0.0,0.0
0.819,3190.325,0.00031,0.0,0.0
0.825,3822.504,0.00026,0.0,0.0
0.832,3663.606,0.00027,0.0,0.0
0.838,3934.942,0.00025,0.0,0.0
0.844,4258.56,0.00023,0.0,0.0
0.851,4129.895,0.00024,0.0,0.0
0.857,4557.357,0.00022,0.0,0.0
0.863,4925.566,0.0002,0.0,0.0
0.87,4529.896,0.00022,0.0,0.0
0.876,5322.766,0.00019,0.0,0.0
0.882,5191.686,0.00019,0.0,0.0
0.888,5420.028,0.00018,0.0,0.0
0.895,5671.492,0.00018,0.0,0.0
0.901,5694.624,0.00018,0.0,0.0
0.907,6231.852,0.00016,0.0,0.0
0.914,6324.018,0.00016,0.0,0.0
0.92,6047.052,0.00017,0.0,0.0
0.926,6688.713,0.00015,0.0,0.0
0.933,6741.409,0.00015,0.0,0.0
0.939,6520.129,0.00015,0.0,0.0
0.945,7136.244,0.00014,0.0,0.0
0.952,6828.681,0.00015,0.0,0.0
0.958,7164.641,0.00014,0.0,0.0
0.964,7200.611,0.00014,0.0,0.0
0.971,6937.387,0.00014,0.0,0.0
0.977,7444.982,0.00013,0.0,0.0
0.983,7392.35,0.00014,0.0,0.0
0.99,7232.261,0.00014,0.0,0.0
0.996,7533.177,0.00013,0.0,0.0
1.002,7223.504,0.00014,0.0,0.0
1.009,7446.544,0.00013,0.0,0.0
1.015,7583.527,0.00013,0.0,0.0
1.021,7338.674,0.00014,0.0,0.0
1.028,7618.815,0.00013,0.0,0.0
1.034,7488.239,0.00013,0.0,0.0
1.04,7447.249,0.00013,0.0,0.0
1.046,7537.684,0.00013,0.0,0.0
1.053,7516.135,0.00013,0.0,0.0
1.059,7499.779,0.00013,0.0,0.0
1.065,7544.523,0.00013,0.0,0.0
1.072,7356.532,0.00014,0.0,0.0
1.078,7454.784,0.00013,0.0,0.0
1.084,7316.185,0.00014,0.0,0.0
1.091,7394.311,0.00014,0.0,0.0
1.097,7409.169,0.00013,0.0,0.0
1.103,7358.687,0.00014,0.0,0.0
1.11,7241.67,0.00014,0.0,0.0
1.116,7259.673,0.00014,0.0,0.0
1.122,7198.169,0.00014,0.0,0.0
1.129,7219.246,0.00014,0.0,0.0
1.135,7153.045,0.00014,0.0,0.0
1.141,7146.608,0.00014,0.0,0.0
1.148,7164.613,0.00014,0.0,0.0
1.154,7001.945,0.00014,0.0,0.0
1.16,6985.322,0.00014,0.0,0.0
1.167,6951.688,0.00014,0.0,0.0
1.173,6927.394,0.00014,0.0,0.0
1.179,6927.736,0.00014,0.0,0.0
1.186,6809.753,0.00015,0.0,0.0
1.192,6768.511,0.00015,0.0,0.0
1.198,6717.465,0.00015,0.0,0.0
1.204,6638.946,0.00015,0.0,0.0
1.211,6686.353,0.00015,0.0,0.0
1.217,6620.367,0.00015,0.0,0.0
1.223,6557.646,0.00015,0.0,0.0
1.23,6501.101,0.00015,0.0,0.0
1.236,6469.697,0.00015,0.0,0.0
1.242,6467.383,0.00015,0.0,0.0
1.249,6501.313,0.00015,0.0,0.0
1.255,6432.305,0.00016,0.0,0.0
1.261,6377.632,0.00016,0.0,0.0
1.268,6368.997,0.00016,0.0,0.0
1.274,6324.973,0.00016,0.0,0.0
1.28,6307.993,0.00016,0.0,0.0
1.287,6265.939,0.00016,0.0,0.0
1.293,6246.393,0.00016,0.0,0.0
1.299,6228.89,0.00016,0.0,0.0
1.306,6209.283,0.00016,0.0,0.0
1.312,6173.539,0.00016,0.0,0.0
1.318,6194.588,0.00016,0.0,0.0
1.325,6125.789,0.00016,0.0,0.0
1.331,6164.167,0.00016,0.0,0.0
1.337,6102.991,0.00016,0.0,0.0
1.344,6103.819,0.00016,0.0,0.0
1.35,6115.132,0.00016,0.0,0.0
1.356,6125.978,0.00016,0.0,0.0
1.362,6052.219,0.00017,0.0,0.0
1.369,6059.765,0.00017,0.0,0.0
1.375,6079.56,0.00016,0.0,0.0
1.381,6036.006,0.00017,0.0,0.0
1.388,6062.101,0.00016,0.0,0.0
1.394,5986.82,0.00017,0.0,0.0
1.4,5996.49,0.00017,0.0,0.0
1.407,6014.68,0.00017,0.0,0.0
1.413,6021.702,0.00017,0.0,0.0
1.419,5946.222,0.00017,0.0,0.0
1.426,6006.912,0.00017,0.0,0.0
1.432,5983.271,0.00017,0.0,0.0
1.438,5978.603,0.00017,0.0,0.0
1.445,5956.247,0.00017,0.0,0.0
1.451,5983.539,0.00017,0.0,0.0
1.457,5972.447,0.00017,0.0,0.0
1.464,5970.246,0.00017,0.0,0.0
1.47,5955.297,0.00017,0.0,0.0
1.476,5949.004,0.00017,0.0,0.0
1.483,5992.51,0.00017,0.0,0.0
1.489,5975.927,0.00017,0.0,0.0
1.495,5939.579,0.00017,0.0,0.0
1.502,5945.341,0.00017,0.0,0.0
1.508,5943.031,0.00017,0.0,0.0
1.514,5960.736,0.00017,0.0,0.0
1.52,5979.721,0.00017,0.0,0.0
1.527,5957.522,0.00017,0.0,0.0
1.533,5989.291,0.00017,0.0,0.0
1.539,6005.735,0.00017,0.0,0.0
1.546,5983.097,0.00017,0.0,0.0
1.552,6003.847,0.00017,0.0,0.0
1.558,6001.338,0.00017,0.0,0.0
1.565,6049.829,0.00017,0.0,0.0
1.571,6041.476,0.00017,0.0,0.0
1.577,6024.369,0.00017,0.0,0.0
1.584,6034.685,0.00017,0.0,0.0
1.59,6087.854,0.00016,0.0,0.0
1.596,6076.724,0.00016,0.0,0.0
1.603,6125.874,0.00016,0.0,0.0
1.609,6076.099,0.00016,0.0,0.0
1.615,6082.063,0.00016,0.0,0.0
1.622,6148.343,0.00016,0.0,0.0
1.628,6128.022,0.00016,0.0,0.0
1.634,6146.579,0.00016,0.0,0.0
1.641,6185.889,0.00016,0.0,0.0
1.647,6192.294,0.00016,0.0,0.0
1.653,6232.044,0.00016,0.0,0.0
1.66,6232.507,0.00016,0.0,0.0
1.666,6236.706,0.00016,0.0,0.0
1.672,6253.171,0.00016,0.0,0.0
1.678,6234.525,0.00016,0.0,0.0
1.685,6266.921,0.00016,0.0,0.0
1.691,6296.753,0.00016,0.0,0.0
1.697,6292.575,0.00016,0.0,0.0
1.704,6322.849,0.00016,0.0,0.0
1.71,6323.251,0.00016,0.0,0.0
1.716,6339.882,0.00016,0.0,0.0
1.723,6355.527,0.00016,0.0,0.0
1.729,6385.432,0.00016,0.0,0.0
1.735,6348.795,0.00016,0.0,0.0
1.742,6374.279,0.00016,0.0,0.0
1.748,6397.914,0.00016,0.0,0.0
1.754,6386.924,0.00016,0.0,0.0
1.761,6453.637,0.00015,0.0,0.0
1.767,6415.841,0.00016,0.0,0.0
1.773,6461.442,0.00015,0.0,0.0
1.78,6428.091,0.00016,0.0,0.0
1.786,6468.318,0.00015,0.0,0.0
1.792,6480.609,0.00015,0.0,0.0
1.799,6513.906,0.00015,0.0,0.0
1.805,6472.402,0.00015,0.0,0.0
1.811,6510.029,0.00015,0.0,0.0
1.818,6508.781,0.00015,0.0,0.0
1.824,6495.47,0.00015,0.0,0.0
1.83,6529.021,0.00015,0.0,0.0
1.836,6506.722,0.00015,0.0,0.0
1.843,6498.68,0.00015,0.0,0.0
1.849,6484.944,0.00015,0.0,0.0
1.855,6511.598,0.00015,0.0,0.0
1.862,6463.942,0.00015,0.0,0.0
1.868,6532.681,0.00015,0.0,0.0
1.874,6502.562,0.00015,0.0,0.0
1.881,6558.108,0.00015,0.0,0.0
1.887,6466.801,0.00015,0.0,0.0
1.893,6517.792,0.00015,0.0,0.0
1.9,6534.151,0.00015,0.0,0.0
1.906,6548.186,0.00015,0.0,0.0
1.912,6535.632,0.00015,0.0,0.0
1.919,6520.69,0.00015,0.0,0.0
1.925,6559.282,0.00015,0.0,0.0
1.931,6522.33,0.00015,0.0,0.0
1.938,6527.856,0.00015,0.0,0.0
1.944,6525.872,0.00015,0.0,0.0
1.95,6498.054,0.00015,0.0,0.0
1.957,6529.767,0.00015,0.0,0.0
1.963,6531.821,0.00015,0.0,0.0
1.969,6533.666,0.00015,0.0,0.0
1.976,6567.781,0.00015,0.0,0.0
1.982,6563.521,0.00015,0.0,0.0
1.988,6547.351,0.00015,0.0,0.0
1.994,6561.55,0.00015,0.0,0.0
2.001,6549.003,0.00015,0.0,0.0
2.007,6616.227,0.00015,0.0,0.0
2.013,6566.617,0.00015,0.0,0.0
2.02,6568.667,0.00015,0.0,0.0
2.026,6567.159,0.00015,0.0,0.0
2.032,6566.708,0.00015,0.0,0.0
2.039,6593.152,0.00015,0.0,0.0
2.045,6592.18,0.00015,0.0,0.0
2.051,6631.062,0.00015,0.0,0.0
2.058,6602.671,0.00015,0.0,0.0
2.064,6600.889,0.00015,0.0,0.0
2.07,6632.381,0.00015,0.0,0.0
2.077,6618.48,0.00015,0.0,0.0
2.083,6637.919,0.00015,0.0,0.0
2.089,6654.229,0.00015,0.0,0.0
2.096,6645.894,0.00015,0.0,0.0
2.102,6646.999,0.00015,0.0,0.0
2.108,6690.448,0.00015,0.0,0.0
2.115,6663.852,0.00015,0.0,0.0
2.121,6650.857,0.00015,0.0,0.0
2.127,6682.09,0.00015,0.0,0.0
2.134,6681.387,0.00015,0.0,0.0
2.14,6712.213,0.00015,0.0,0.0
2.146,6728.146,0.00015,0.0,0.0
2.152,6745.864,0.00015,0.0,0.0
2.159,6734.751,0.00015,0.0,0.0
2.165,6738.628,0.00015,0.0,0.0
2.171,6768.378,0.00015,0.0,0.0
2.178,6786.945,0.00015,0.0,0.0
2.184,6817.016,0.00015,0.0,0.0
2.19,6828.599,0.00015,0.0,0.0
2.197,6816.405,0.00015,0.0,0.0
2.203,6827.582,0.00015,0.0,0.0
2.209,6855.168,0.00015,0.0,0.0
2.216,6898.444,0.00014,0.0,0.0
2.222,6893.361,0.00015,0.0,0.0
2.228,7106.541,0.00014,0.0,0.0
2.235,6919.634,0.00014,0.0,0.0
2.241,6911.722,0.00014,0.0,0.0
2.247,6987.948,0.00014,0.0,0.0
2.254,6971.832,0.00014,0.0,0.0
2.26,7030.119,0.00014,0.0,0.0
2.266,7005.303,0.00014,0.0,0.0
2.273,7025.87,0.00014,0.0,0.0
2.279,7060.227,0.00014,0.0,0.0
2.285,7100.962,0.00014,0.0,0.0
2.292,7128.892,0.00014,0.0,0.0
2.298,7144.737,0.00014,0.0,0.0
2.304,7148.014,0.00014,0.0,0.0
2.31,7188.578,0.00014,0.0,0.0
2.317,7210.665,0.00014,0.0,0.0
2.323,7193.799,0.00014,0.0,0.0
2.329,7270.095,0.00014,0.0,0.0
2.336,7274.934,0.00014,0.0,0.0
2.342,7301.75,0.00014,0.0,0.0
2.348,7296.356,0.00014,0.0,0.0
2.355,7345.823,0.00014,0.0,0.0
2.361,7393.441,0.00014,0.0,0.0
2.367,7433.587,0.00013,0.0,0.0
2.374,7462.862,0.00013,0.0,0.0
2.38,7562.527,0.00013,0.0,0.0
2.386,7594.823,0.00013,0.0,0.0
2.393,7696.643,0.00013,0.0,0.0
2.399,7813.007,0.00013,0.0,0.0
2.405,8020.427,0.00012,0.0,0.0
2.412,8261.035,0.00012,0.0,0.0
2.418,8442.353,0.00012,0.0,0.0
2.424,8628.5,0.00012,0.0,0.0
2.431,8691.714,0.00012,0.0,0.0
2.437,8542.32,0.00012,0.0,0.0
2.443,8334.383,0.00012,0.0,0.0
2.45,8162.76,0.00012,0.0,0.0
2.456,8035.16,0.00012,0.0,0.0
2.462,7985.086,0.00013,0.0,0.0
2.468,7927.271,0.00013,0.0,0.0
2.475,7901.778,0.00013,0.0,0.0
2.481,7927.317,0.00013,0.0,0.0
2.487,7909.955,0.00013,0.0,0.0
2.494,7964.298,0.00013,0.0,0.0
2.5,7984.832,0.00013,0.0,0.0
2.506,8018.159,0.00012,0.0,0.0
2.513,8045.716,0.00012,0.0,0.0
2.519,8074.35,0.00012,0.0,0.0
2.525,8124.439,0.00012,0.0,0.0
2.532,8119.657,0.00012,0.0,0.0
2.538,8160.022,0.00012,0.0,0.0
2.544,8201.001,0.00012,0.0,0.0
2.551,8218.994,0.00012,0.0,0.0
2.557,8252.804,0.00012,0.0,0.0
2.563,8320.33,0.00012,0.0,0.0
2.57,8326.34,0.00012,0.0,0.0
2.576,8329.416,0.00012,0.0,0.0
2.582,8417.838,0.00012,0.0,0.0
2.589,8384.455,0.00012,0.0,0.0
2.595,8457.66,0.00012,0.0,0.0
2.601,8480.936,0.00012,0.0,0.0
2.608,8476.443,0.00012,0.0,0.0
2.614,8552.396,0.00012,0.0,0.0
2.62,8574.905,0.00012,0.0,0.0
2.626,8609.886,0.00012,0.0,0.0
2.633,8654.967,0.00012,0.0,0.0
2.639,8673.192,0.00012,0.0,0.0
2.645,8702.052,0.00011,0.0,0.0
2.652,8735.731,0.00011,0.0,0.0
2.658,8743.266,0.00011,0.0,0.0
2.664,8825.178,0.00011,0.0,0.0
2.671,8837.084,0.00011,0.0,0.0
2.677,8873.386,0.00011,0.0,0.0
2.683,8885.976,0.00011,0.0,0.0
2.69,8930.557,0.00011,0.0,0.0
2.696,8960.033,0.00011,0.0,0.0
2.702,8992.848,0.00011,0.0,0.0
2.709,9038.875,0.00011,0.0,0.0
2.715,9061.358,0.00011,0.0,0.0
2.721,9100.481,0.00011,0.0,0.0
2.728,9142.536,0.00011,0.0,0.0
2.734,9169.018,0.00011,0.0,0.0
2.74,9221.605,0.00011,0.0,0.0
2.747,9233.412,0.00011,0.0,0.0
2.753,9310.907,0.00011,0.0,0.0
2.759,9314.191,0.00011,0.0,0.0
2.766,9336.296,0.00011,0.0,0.0
2.772,9395.567,0.00011,0.0,0.0
2.778,9424.802,0.00011,0.0,0.0
2.784,9440.831,0.00011,0.0,0.0
2.791,9498.242,0.00011,0.0,0.0
2.797,9548.653,0.0001,0.0,0.0
2.803,9597.043,0.0001,0.0,0.0
2.81,9638.787,0.0001,0.0,0.0
2.816,9666.9,0.0001,0.0,0.0
2.822,9731.297,0.0001,0.0,0.0
2.829,9704.443,0.0001,0.0,0.0
2.835,9762.678,0.0001,0.0,0.0
2.841,9790.266,0.0001,0.0,0.0
2.848,9841.76,0.0001,0.0,0.0
2.854,9873.156,0.0001,0.0,0.0
2.86,9911.877,0.0001,0.0,0.0
2.867,9961.065,0.0001,0.0,0.0
2.873,9985.889,0.0001,0.0,0.0
2.879,10026.158,0.0001,0.0,0.0
2.886,10042.373,0.0001,0.0,0.0
2.892,10077.883,0.0001,0.0,0.0
2.898,10120.515,0.0001,0.0,0.0
2.905,10179.804,0.0001,0.0,0.0
2.911,10203.31,0.0001,0.0,0.0
2.917,10240.229,0.0001,0.0,0.0
2.924,10268.82,0.0001,0.0,0.0
2.93,10296.448,0.0001,0.0,0.0
2.936,10306.196,0.0001,0.0,0.0
2.942,10340.682,0.0001,0.0,0.0
2.949,10386.531,0.0001,0.0,0.0
2.955,10404.48,0.0001,0.0,0.0
2.961,10412.887,0.0001,0.0,0.0
2.968,10440.547,0.0001,0.0,0.0
2.974,10503.946,0.0001,0.0,0.0
2.98,10509.942,0.0001,0.0,0.0
2.987,10530.414,0.00009,0.0,0.0
2.993,10522.019,0.0001,0.0,0.0
2.999,10570.267,0.00009,0.0,0.0
3.006,10589.528,0.00009,0.0,0.0
3.012,10595.416,0.00009,0.0,0.0
3.018,10611.415,0.00009,0.0,0.0
3.025,10632.821,0.00009,0.0,0.0
3.031,10654.896,0.00009,0.0,0.0
3.037,10666.57,0.00009,0.0,0.0
3.044,10696.123,0.00009,0.0,0.0
3.05,10692.466,0.00009,0.0,0.0
3.056,10691.647,0.00009,0.0,0.0
3.063,10707.508,0.00009,0.0,0.0
3.069,10741.46,0.00009,0.0,0.0
3.075,10732.852,0.00009,0.0,0.0
3.082,10716.593,0.00009,0.0,0.0
3.088,10749.153,0.00009,0.0,0.0
3.094,10706.525,0.00009,0.0,0.0
3.1,10733.834,0.00009,0.0,0.0
3.107,10724.796,0.00009,0.0,0.0
3.113,10720.375,0.00009,0.0,0.0
3.119,10721.434,0.00009,0.0,0.0
3.126,10729.906,0.00009,0.0,0.0
3.132,10712.583,0.00009,0.0,0.0
3.138,10707.15,0.00009,0.0,0.0
3.145,10712.508,0.00009,0.0,0.0
3.151,10705.66,0.00009,0.0,0.0
3.157,10714.552,0.00009,0.0,0.0
3.164,10682.005,0.00009,0.0,0.0
3.17,10661.076,0.00009,0.0,0.0
3.176,10642.656,0.00009,0.0,0.0
3.183,10632.017,0.00009,0.0,0.0
3.189,10618.669,0.00009,0.0,0.0
3.195,10584.366,0.00009,0.0,0.0
3.202,10590.055,0.00009,0.0,0.0
3.208,10572.934,0.00009,0.0,0.0
3.214,10545.368,0.00009,0.0,0.0
3.221,10544.132,0.00009,0.0,0.0
3.227,10511.425,0.0001,0.0,0.0
3.233,10495.666,0.0001,0.0,0.0
3.24,10457.048,0.0001,0.0,0.0
3.246,10457.16,0.0001,0.0,0.0
3.252,10425.269,0.0001,0.0,0.0
3.258,10388.468,0.0001,0.0,0.0
3.265,10371.638,0.0001,0.0,0.0
3.271,10359.69,0.0001,0.0,0.0
3.277,10319.176,0.0001,0.0,0.0
3.284,10303.21,0.0001,0.0,0.0
3.29,10292.247,0.0001,0.0,0.0
3.296,10251.019,0.0001,0.0,0.0
3.303,10219.684,0.0001,0.0,0.0
3.309,10188.565,0.0001,0.0,0.0
3.315,10177.71,0.0001,0.0,0.0
3.322,10144.447,0.0001,0.0,0.0
3.328,10114.646,0.0001,0.0,0.0
3.334,10071.941,0.0001,0.0,0.0
3.341,10063.424,0.0001,0.0,0.0
3.347,10041.948,0.0001,0.0,0.0
3.353,9979.611,0.0001,0.0,0.0
3.36,9978.905,0.0001,0.0,0.0
3.366,9960.443,0.0001,0.0,0.0
3.372,9946.703,0.0001,0.0,0.0
3.379,9919.389,0.0001,0.0,0.0
3.385,9883.058,0.0001,0.0,0.0
3.391,9872.452,0.0001,0.0,0.0
3.398,9833.068,0.0001,0.0,0.0
3.404,9835.117,0.0001,0.0,0.0
3.41,9772.957,0.0001,0.0,0.0
3.416,9767.923,0.0001,0.0,0.0
3.423,9743.259,0.0001,0.0,0.0
3.429,9727.827,0.0001,0.0,0.0
3.435,9711.692,0.0001,0.0,0.0
3.442,9670.648,0.0001,0.0,0.0
3.448,9626.256,0.0001,0.0,0.0
3.454,9619.925,0.0001,0.0,0.0
3.461,9599.398,0.0001,0.0,0.0
3.467,9570.352,0.0001,0.0,0.0
3.473,9550.868,0.0001,0.0,0.0
3.48,9536.636,0.0001,0.0,0.0
3.486,9500.269,0.00011,0.0,0.0
3.492,9494.414,0.00011,0.0,0.0
3.499,9436.169,0.00011,0.0,0.0
3.505,9419.145,0.00011,0.0,0.0
3.511,9407.239,0.00011,0.0,0.0
3.518,9410.862,0.00011,0.0,0.0
3.524,9368.861,0.00011,0.0,0.0
3.53,9355.82,0.00011,0.0,0.0
3.537,9351.536,0.00011,0.0,0.0
3.543,9328.316,0.00011,0.0,0.0
3.549,9318.393,0.00011,0.0,0.0
3.556,9291.641,0.00011,0.0,0.0
3.562,9248.71,0.00011,0.0,0.0
3.568,9239.754,0.00011,0.0,0.0
3.574,9239.59,0.00011,0.0,0.0
3.581,9231.185,0.00011,0.0,0.0
3.587,9230.53,0.00011,0.0,0.0
3.593,9198.164,0.00011,0.0,0.0
3.6,9164.397,0.00011,0.0,0.0
3.606,9171.611,0.00011,0.0,0.0
3.612,9135.053,0.00011,0.0,0.0
3.619,9152.541,0.00011,0.0,0.0
3.625,9152.274,0.00011,0.0,0.0
3.631,9099.877,0.00011,0.0,0.0
3.638,9114.222,0.00011,0.0,0.0
3.644,9113.522,0.00011,0.0,0.0
3.65,9126.188,0.00011,0.0,0.0
3.657,9121.481,0.00011,0.0,0.0
3.663,9093.864,0.00011,0.0,0.0
3.669,9116.007,0.00011,0.0,0.0
3.676,9136.263,0.00011,0.0,0.0
3.682,9136.955,0.00011,0.0,0.0
3.688,9122.109,0.00011,0.0,0.0
3.695,9146.397,0.00011,0.0,0.0
3.701,9123.026,0.00011,0.0,0.0
3.707,9192.575,0.00011,0.0,0.0
3.714,9176.051,0.00011,0.0,0.0
3.72,9228.718,0.00011,0.0,0.0
3.726,9242.429,0.00011,0.0,0.0
3.732,9241.667,0.00011,0.0,0.0
3.739,9301.263,0.00011,0.0,0.0
3.745,9316.582,0.00011,0.0,0.0
3.751,9326.489,0.00011,0.0,0.0
3.758,9407.637,0.00011,0.0,0.0
3.764,9421.064,0.00011,0.0,0.0
3.77,9478.275,0.00011,0.0,0.0
3.777,9529.234,0.0001,0.0,0.0
3.783,9562.731,0.0001,0.0,0.0
3.789,9638.387,0.0001,0.0,0.0
3.796,9639.806,0.0001,0.0,0.0
3.802,9696.14,0.0001,0.0,0.0
3.808,9738.772,0.0001,0.0,0.0
3.815,9761.775,0.0001,0.0,0.0
3.821,9826.071,0.0001,0.0,0.0
3.827,9858.687,0.0001,0.0,0.0
3.834,9843.121,0.0001,0.0,0.0
3.84,9909.168,0.0001,0.0,0.0
3.846,9930.011,0.0001,0.0,0.0
3.853,9940.852,0.0001,0.0,0.0
3.859,9985.09,0.0001,0.0,0.0
3.865,9952.187,0.0001,0.0,0.0
3.872,10013.979,0.0001,0.0,0.0
3.878,9978.017,0.0001,0.0,0.0
3.884,9937.626,0.0001,0.0,0.0
3.89,9927.804,0.0001,0.0,0.0
3.897,9917.134,0.0001,0.0,0.0
3.903,9849.408,0.0001,0.0,0.0
3.909,9891.967,0.0001,0.0,0.0
3.916,9775.188,0.0001,0.0,0.0
3.922,9770.085,0.0001,0.0,0.0
3.928,9704.245,0.0001,0.0,0.0
3.935,9621.12,0.0001,0.0,0.0
3.941,9631.227,0.0001,0.0,0.0
3.947,9515.027,0.00011,0.0,0.0
3.954,9460.287,0.00011,0.0,0.0
3.96,9481.323,0.00011,0.0,0.0
3.966,9381.479,0.00011,0.0,0.0
3.973,9336.306,0.00011,0.0,0.0
3.979,9242.258,0.00011,0.0,0.0
3.985,9139.266,0.00011,0.0,0.0
3.992,9173.177,0.00011,0.0,0.0
3.998,9038.854,0.00011,0.0,0.0
4.004,9009.716,0.00011,0.0,0.0
4.011,8984.45,0.00011,0.0,0.0
4.017,8850.648,0.00011,0.0,0.0
4.023,8838.207,0.00011,0.0,0.0
4.03,8782.766,0.00011,0.0,0.0
4.036,8703.742,0.00011,0.0,0.0
4.042,8774.814,0.00011,0.0,0.0
4.048,8630.411,0.00012,0.0,0.0
4.055,8602.62,0.00012,0.0,0.0
4.061,8602.504,0.00012,0.0,0.0
4.067,8469.961,0.00012,0.0,0.0
4.074,8506.504,0.00012,0.0,0.0
4.08,8472.342,0.00012,0.0,0.0
4.086,8389.418,0.00012,0.0,0.0
4.093,8442.666,0.00012,0.0,0.0
4.099,8339.632,0.00012,0.0,0.0
4.105,8333.623,0.00012,0.0,0.0
4.112,8377.569,0.00012,0.0,0.0
4.118,8250.285,0.00012,0.0,0.0
4.124,8326.178,0.00012,0.0,0.0
4.131,8230.206,0.00012,0.0,0.0
4.137,8205.13,0.00012,0.0,0.0
4.143,8260.003,0.00012,0.0,0.0
4.15,8162.215,0.00012,0.0,0.0
4.156,8153.404,0.00012,0.0,0.0
4.162,8208.672,0.00012,0.0,0.0
4.169,8075.509,0.00012,0.0,0.0
4.175,8166.614,0.00012,0.0,0.0
4.181,8133.778,0.00012,0.0,0.0
4.188,8038.17,0.00012,0.0,0.0
4.194,8149.661,0.00012,0.0,0.0
4.2,8091.087,0.00012,0.0,0.0
4.206,8048.535,0.00012,0.0,0.0
4.213,8124.615,0.00012,0.0,0.0
4.219,8014.277,0.00012,0.0,0.0
4.225,8069.034,0.00012,0.0,0.0
4.232,8031.041,0.00012,0.0,0.0
4.238,7967.731,0.00013,0.0,0.0
4.244,8070.769,0.00012,0.0,0.0
4.251,8040.633,0.00012,0.0,0.0
4.257,7956.53,0.00013,0.0,0.0
4.263,8019.772,0.00012,0.0,0.0
4.27,7974.864,0.00013,0.0,0.0
4.276,8045.085,0.00012,0.0,0.0
4.282,8010.774,0.00012,0.0,0.0
4.289,7969.808,0.00013,0.0,0.0
4.295,8011.44,0.00012,0.0,0.0
4.301,7973.177,0.00013,0.0,0.0
4.308,8010.271,0.00012,0.0,0.0
4.314,7987.616,0.00013,0.0,0.0
4.32,7967.275,0.00013,0.0,0.0
4.327,7961.023,0.00013,0.0,0.0
4.333,8071.499,0.00012,0.0,0.0
4.339,7932.337,0.00013,0.0,0.0
4.346,8035.16,0.00012,0.0,0.0
4.352,8048.678,0.00012,0.0,0.0
4.358,8020.538,0.00012,0.0,0.0
4.364,8124.385,0.00012,0.0,0.0
4.371,7968.718,0.00013,0.0,0.0
4.377,8187.719,0.00012,0.0,0.0
4.383,8029.816,0.00012,0.0,0.0
4.39,8080.176,0.00012,0.0,0.0
4.396,8120.755,0.00012,0.0,0.0
4.402,8240.247,0.00012,0.0,0.0
4.409,8099.986,0.00012,0.0,0.0
4.415,8236.615,0.00012,0.0,0.0
4.421,8237.292,0.00012,0.0,0.0
4.428,8132.825,0.00012,0.0,0.0
4.434,8438.666,0.00012,0.0,0.0
4.44,8223.307,0.00012,0.0,0.0
4.447,8361.93,0.00012,0.0,0.0
4.453,8387.383,0.00012,0.0,0.0
4.459,8588.3,0.00012,0.0,0.0
4.466,8515.084,0.00012,0.0,0.0
4.472,8493.87,0.00012,0.0,0.0
4.478,8597.019,0.00012,0.0,0.0
4.485,8990.528,0.00011,0.0,0.0
4.491,8774.968,0.00011,0.0,0.0
4.497,8675.075,0.00012,0.0,0.0
4.504,10145.265,0.0001,0.0,0.0
4.51,9061.902,0.00011,0.0,0.0
4.516,12304.023,0.00008,0.0,0.0
4.522,9994.802,0.0001,0.0,0.0
4.529,10344.279,0.0001,0.0,0.0
4.535,24776.972,0.00004,0.0,0.0
4.541,14183.166,0.00007,0.0,0.0
4.548,19394.056,0.00005,0.0,0.0
4.554,44277.44,0.00002,0.0,0.0
4.56,20588.919,0.00005,0.0,0.0
4.567,56530.218,0.00002,0.0,0.0
4.573,30967.666,0.00003,0.0,0.0
4.579,20981.957,0.00005,0.0,0.0
4.586,38082.585,0.00003,0.0,0.0
4.592,15723.772,0.00006,0.0,0.0
4.598,18716.815,0.00005,0.0,0.0
4.605,11419.342,0.00009,0.0,0.0
4.611,9612.472,0.0001,0.0,0.0
4.617,11318.575,0.00009,0.0,0.0
4.624,8943.987,0.00011,0.0,0.0
4.63,8684.166,0.00012,0.0,0.0
4.636,9125.902,0.00011,0.0,0.0
4.643,8651.297,0.00012,0.0,0.0
4.649,8477.716,0.00012,0.0,0.0
4.655,8435.007,0.00012,0.0,0.0
4.662,8199.447,0.00012,0.0,0.0
4.668,8149.608,0.00012,0.0,0.0
4.674,8048.119,0.00012,0.0,0.0
4.68,7879.249,0.00013,0.0,0.0
4.687,8038.863,0.00012,0.0,0.0
4.693,7660.177,0.00013,0.0,0.0
4.699,7746.497,0.00013,0.0,0.0
4.706,7626.397,0.00013,0.0,0.0
4.712,7615.112,0.00013,0.0,0.0
4.718,7581.638,0.00013,0.0,0.0
4.725,7437.57,0.00013,0.0,0.0
4.731,7475.865,0.00013,0.0,0.0
4.737,7354.12,0.00014,0.0,0.0
4.744,7368.76,0.00014,0.0,0.0
4.75,7253.386,0.00014,0.0,0.0
4.756,7277.839,0.00014,0.0,0.0
4.763,7109.339,0.00014,0.0,0.0
4.769,7280.561,0.00014,0.0,0.0
4.775,7050.463,0.00014,0.0,0.0
4.782,7041.441,0.00014,0.0,0.0
4.788,7023.379,0.00014,0.0,0.0
4.794,6987.956,0.00014,0.0,0.0
4.801,6986.303,0.00014,0.0,0.0
4.807,6951.697,0.00014,0.0,0.0
4.813,7003.166,0.00014,0.0,0.0
4.82,6926.825,0.00014,0.0,0.0
4.826,7037.453,0.00014,0.0,0.0
4.832,7137.695,0.00014,0.0,0.0
4.838,7370.251,0.00014,0.0,0.0
4.845,7531.353,0.00013,0.0,0.0
4.851,7790.927,0.00013,0.0,0.0
4.857,7854.137,0.00013,0.0,0.0
4.864,7813.179,0.00013,0.0,0.0
4.87,7587.669,0.00013,0.0,0.0
4.876,7309.983,0.00014,0.0,0.0
4.883,7085.951,0.00014,0.0,0.0
4.889,6876.63,0.00015,0.0,0.0
4.895,6662.06,0.00015,0.0,0.0
4.902,6652.998,0.00015,0.0,0.0
4.908,6505.098,0.00015,0.0,0.0
4.914,6472.587,0.00015,0.0,0.0
4.921,6412.696,0.00016,0.0,0.0
4.927,6398.544,0.00016,0.0,0.0
4.933,6348.626,0.00016,0.0,0.0
4.94,6334.353,0.00016,0.0,0.0
4.946,6292.889,0.00016,0.0,0.0
4.952,6276.192,0.00016,0.0,0.0
4.959,6224.248,0.00016,0.0,0.0
4.965,6220.419,0.00016,0.0,0.0
4.971,6215.185,0.00016,0.0,0.0
4.978,6157.842,0.00016,0.0,0.0
4.984,6163.583,0.00016,0.0,0.0
4.99,6076.323,0.00016,0.0,0.0
4.996,6125.489,0.00016,0.0,0.0
5.003,6071.822,0.00016,0.0,0.0
5.009,6075.167,0.00016,0.0,0.0
5.015,6030.525,0.00017,0.0,0.0
5.022,6012.042,0.00017,0.0,0.0
5.028,5994.666,0.00017,0.0,0.0
5.034,5975.048,0.00017,0.0,0.0
5.041,5993.979,0.00017,0.0,0.0
5.047,5944.253,0.00017,0.0,0.0
5.053,5966.814,0.00017,0.0,0.0
5.06,5876.445,0.00017,0.0,0.0
5.066,5888.001,0.00017,0.0,0.0
5.072,5855.417,0.00017,0.0,0.0
5.079,5870.332,0.00017,0.0,0.0
5.085,5833.207,0.00017,0.0,0.0
5.091,5817.26,0.00017,0.0,0.0
5.098,5798.584,0.00017,0.0,0.0
5.104,5801.706,0.00017,0.0,0.0
5.11,5761.267,0.00017,0.0,0.0
5.117,5753.24,0.00017,0.0,0.0
5.123,5773.109,0.00017,0.0,0.0
5.129,5727.497,0.00017,0.0,0.0
5.136,5738.008,0.00017,0.0,0.0
5.142,5704.738,0.00018,0.0,0.0
5.148,5706.68,0.00018,0.0,0.0
5.154,5693.358,0.00018,0.0,0.0
5.161,5665.088,0.00018,0.0,0.0
5.167,5661.932,0.00018,0.0,0.0
5.173,5678.622,0.00018,0.0,0.0
5.18,5618.178,0.00018,0.0,0.0
5.186,5623.026,0.00018,0.0,0.0
5.192,5598.236,0.00018,0.0,0.0
5.199,5604.296,0.00018,0.0,0.0
5.205,5607.665,0.00018,0.0,0.0
5.211,5565.796,0.00018,0.0,0.0
5.218,5548.177,0.00018,0.0,0.0
5.224,5554.794,0.00018,0.0,0.0
5.23,5543.972,0.00018,0.0,0.0
5.237,5554.388,0.00018,0.0,0.0
5.243,5541.473,0.00018,0.0,0.0
5.249,5539.357,0.00018,0.0,0.0
5.256,5545.733,0.00018,0.0,0.0
5.262,5495.743,0.00018,0.0,0.0
5.268,5489.159,0.00018,0.0,0.0
5.275,5484.72,0.00018,0.0,0.0
5.281,5473.552,0.00018,0.0,0.0
5.287,5454.236,0.00018,0.0,0.0
5.294,5439.284,0.00018,0.0,0.0
5.3,5430.793,0.00018,0.0,0.0
5.306,5453.601,0.00018,0.0,0.0
5.312,5428.554,0.00018,0.0,0.0
5.319,5428.483,0.00018,0.0,0.0
5.325,5420.952,0.00018,0.0,0.0
5.331,5400.592,0.00019,0.0,0.0
5.338,5430.652,0.00018,0.0,0.0
5.344,5396.49,0.00019,0.0,0.0
5.35,5404.392,0.00019,0.0,0.0
5.357,5394.615,0.00019,0.0,0.0
5.363,5385.396,0.00019,0.0,0.0
5.369,5389.032,0.00019,0.0,0.0
5.376,5385.792,0.00019,0.0,0.0
5.382,5345.325,0.00019,0.0,0.0
5.388,5367.296,0.00019,0.0,0.0
5.395,5359.613,0.00019,0.0,0.0
5.401,5374.428,0.00019,0.0,0.0
5.407,5398.285,0.00019,0.0,0.0
5.414,5336.653,0.00019,0.0,0.0
5.42,5360.351,0.00019,0.0,0.0
5.426,5368.849,0.00019,0.0,0.0
5.433,5337.307,0.00019,0.0,0.0
5.439,5343.207,0.00019,0.0,0.0
5.445,5343.052,0.00019,0.0,0.0
5.452,5351.486,0.00019,0.0,0.0
5.458,5332.072,0.00019,0.0,0.0
5.464,5327.72,0.00019,0.0,0.0
5.47,5331.692,0.00019,0.0,0.0
5.477,5341.614,0.00019,0.0,0.0
5.483,5360.689,0.00019,0.0,0.0
5.489,5344.148,0.00019,0.0,0.0
5.496,5327.415,0.00019,0.0,0.0
5.502,5333.281,0.00019,0.0,0.0
5.508,5308.443,0.00019,0.0,0.0
5.515,5315.348,0.00019,0.0,0.0
5.521,5337.322,0.00019,0.0,0.0
5.527,5330.729,0.00019,0.0,0.0
5.534,5321.843,0.00019,0.0,0.0
5.54,5337.672,0.00019,0.0,0.0
5.546,5300.093,0.00019,0.0,0.0
5.553,5338.721,0.00019,0.0,0.0
5.559,5348.083,0.00019,0.0,0.0
5.565,5322.946,0.00019,0.0,0.0
5.572,5352.296,0.00019,0.0,0.0
5.578,5331.608,0.00019,0.0,0.0
5.584,5327.837,0.00019,0.0,0.0
5.591,5344.768,0.00019,0.0,0.0
5.597,5355.106,0.00019,0.0,0.0
5.603,5376.428,0.00019,0.0,0.0
5.61,5365.433,0.00019,0.0,0.0
5.616,5365.501,0.00019,0.0,0.0
5.622,5405.136,0.00019,0.0,0.0
5.628,5377.972,0.00019,0.0,0.0
5.635,5373.827,0.00019,0.0,0.0
5.641,5385.491,0.00019,0.0,0.0
5.647,5414.164,0.00018,0.0,0.0
5.654,5407.483,0.00018,0.0,0.0
5.66,5440.972,0.00018,0.0,0.0
5.666,5421.238,0.00018,0.0,0.0
5.673,5453.522,0.00018,0.0,0.0
5.679,5437.432,0.00018,0.0,0.0
5.685,5462.87,0.00018,0.0,0.0
5.692,5452.259,0.00018,0.0,0.0
5.698,5495.169,0.00018,0.0,0.0
5.704,5480.748,0.00018,0.0,0.0
5.711,5515.37,0.00018,0.0,0.0
5.717,5546.197,0.00018,0.0,0.0
5.723,5540.101,0.00018,0.0,0.0
5.73,5551.499,0.00018,0.0,0.0
5.736,5560.711,0.00018,0.0,0.0
5.742,5601.872,0.00018,0.0,0.0
5.749,5601.398,0.00018,0.0,0.0
5.755,5624.757,0.00018,0.0,0.0
5.761,5619.388,0.00018,0.0,0.0
5.768,5654.677,0.00018,0.0,0.0
5.774,5700.423,0.00018,0.0,0.0
5.78,5716.356,0.00017,0.0,0.0
5.786,5731.869,0.00017,0.0,0.0
5.793,5776.856,0.00017,0.0,0.0
5.799,5805.605,0.00017,0.0,0.0
5.805,5823.334,0.00017,0.0,0.0
5.812,5892.895,0.00017,0.0,0.0
5.818,5864.319,0.00017,0.0,0.0
5.824,5934.023,0.00017,0.0,0.0
5.831,6010.582,0.00017,0.0,0.0
5.837,6065.583,0.00016,0.0,0.0
5.843,6190.775,0.00016,0.0,0.0
5.85,6383.902,0.00016,0.0,0.0
5.856,6661.624,0.00015,0.0,0.0
5.862,7082.222,0.00014,0.0,0.0
5.869,7559.173,0.00013,0.0,0.0
5.875,8057.981,0.00012,0.0,0.0
5.881,8208.512,0.00012,0.0,0.0
5.888,8041.961,0.00012,0.0,0.0
5.894,7675.437,0.00013,0.0,0.0
5.9,7139.054,0.00014,0.0,0.0
5.907,6644.46,0.00015,0.0,0.0
5.913,6235.599,0.00016,0.0,0.0
5.919,5985.182,0.00017,0.0,0.0
5.926,5868.789,0.00017,0.0,0.0
5.932,5752.609,0.00017,0.0,0.0
5.938,5667.022,0.00018,0.0,0.0
5.944,5634.347,0.00018,0.0,0.0
5.951,5567.861,0.00018,0.0,0.0
5.957,5598.836,0.00018,0.0,0.0
5.963,5569.83,0.00018,0.0,0.0
5.97,5524.762,0.00018,0.0,0.0
5.976,5498.458,0.00018,0.0,0.0
5.982,5533.492,0.00018,0.0,0.0
5.989,5503.341,0.00018,0.0,0.0
5.995,5490.825,0.00018,0.0,0.0
6.001,5519.538,0.00018,0.0,0.0
6.008,5484.536,0.00018,0.0,0.0
6.014,5491.073,0.00018,0.0,0.0
6.02,5455.465,0.00018,0.0,0.0
6.027,5492.088,0.00018,0.0,0.0
6.033,5470.621,0.00018,0.0,0.0
6.039,5440.583,0.00018,0.0,0.0
6.046,5508.186,0.00018,0.0,0.0
6.052,5429.522,0.00018,0.0,0.0
6.058,5486.516,0.00018,0.0,0.0
6.065,5504.482,0.00018,0.0,0.0
6.071,5427.396,0.00018,0.0,0.0
6.077,5485.794,0.00018,0.0,0.0
6.084,5448.156,0.00018,0.0,0.0
6.09,5466.042,0.00018,0.0,0.0
6.096,5476.851,0.00018,0.0,0.0
6.102,5466.58,0.00018,0.0,0.0
6.109,5468.086,0.00018,0.0,0.0
6.115,5473.331,0.00018,0.0,0.0
6.121,5460.648,0.00018,0.0,0.0
6.128,5505.203,0.00018,0.0,0.0
6.134,5517.533,0.00018,0.0,0.0
6.14,5474.169,0.00018,0.0,0.0
6.147,5536.515,0.00018,0.0,0.0
6.153,5499.862,0.00018,0.0,0.0
6.159,5576.716,0.00018,0.0,0.0
6.166,5490.051,0.00018,0.0,0.0
6.172,5596.897,0.00018,0.0,0.0
6.178,5542.442,0.00018,0.0,0.0
6.185,5538.875,0.00018,0.0,0.0
6.191,5558.136,0.00018,0.0,0.0
6.197,5623.612,0.00018,0.0,0.0
6.204,5571.37,0.00018,0.0,0.0
6.21,5571.363,0.00018,0.0,0.0
6.216,5674.751,0.00018,0.0,0.0
6.223,5570.426,0.00018,0.0,0.0
6.229,5627.712,0.00018,0.0,0.0
6.235,5672.297,0.00018,0.0,0.0
6.242,5650.111,0.00018,0.0,0.0
6.248,5655.277,0.00018,0.0,0.0
6.254,5695.203,0.00018,0.0,0.0
6.26,5697.405,0.00018,0.0,0.0
6.267,5660.335,0.00018,0.0,0.0
6.273,5747.637,0.00017,0.0,0.0
6.279,5733.768,0.00017,0.0,0.0
6.286,5648.2,0.00018,0.0,0.0
6.292,5754.95,0.00017,0.0,0.0
6.298,5695.139,0.00018,0.0,0.0
6.305,5723.418,0.00017,0.0,0.0
6.311,5734.605,0.00017,0.0,0.0
6.317,5814.864,0.00017,0.0,0.0
6.324,5773.319,0.00017,0.0,0.0
6.33,5756.48,0.00017,0.0,0.0
6.336,5856.489,0.00017,0.0,0.0
6.343,5734.1,0.00017,0.0,0.0
6.349,5846.149,0.00017,0.0,0.0
6.355,5764.512,0.00017,0.0,0.0
6.362,5906.917,0.00017,0.0,0.0
6.368,5833.513,0.00017,0.0,0.0
6.374,5822.227,0.00017,0.0,0.0
6.381,5843.553,0.00017,0.0,0.0
6.387,5898.474,0.00017,0.0,0.0
6.393,5951.889,0.00017,0.0,0.0
6.4,5891.429,0.00017,0.0,0.0
6.406,6012.807,0.00017,0.0,0.0
6.412,6089.754,0.00016,0.0,0.0
6.418,6673.143,0.00015,0.0,0.0
6.425,6491.048,0.00015,0.0,0.0
6.431,8459.087,0.00012,0.0,0.0
6.437,7430.648,0.00013,0.0,0.0
6.444,13175.24,0.00008,0.0,0.0
6.45,8677.912,0.00012,0.0,0.0
6.456,20640.698,0.00005,0.0,0.0
6.463,9898.496,0.0001,0.0,0.0
6.469,16805.924,0.00006,0.0,0.0
6.475,8773.043,0.00011,0.0,0.0
6.482,10924.221,0.00009,0.0,0.0
6.488,7119.034,0.00014,0.0,0.0
6.494,7155.319,0.00014,0.0,0.0
6.501,6450.084,0.00016,0.0,0.0
6.507,6323.652,0.00016,0.0,0.0
6.513,6316.15,0.00016,0.0,0.0
6.52,6159.199,0.00016,0.0,0.0
6.526,6348.136,0.00016,0.0,0.0
6.532,6230.612,0.00016,0.0,0.0
6.539,6412.358,0.00016,0.0,0.0
6.545,6560.232,0.00015,0.0,0.0
6.551,6860.782,0.00015,0.0,0.0
6.558,7097.879,0.00014,0.0,0.0
6.564,7740.73,0.00013,0.0,0.0
6.57,8796.706,0.00011,0.0,0.0
6.576,10448.078,0.0001,0.0,0.0
6.583,14137.932,0.00007,0.0,0.0
6.589,19228.574,0.00005,0.0,0.0
6.595,33475.605,0.00003,0.0,0.0
6.602,49122.719,0.00002,0.0,0.0
6.608,74861.381,0.00001,0.0,0.0
6.614,89785.686,0.00001,0.0,0.0
6.621,97890.505,0.00001,0.0,0.0
6.627,89628.552,0.00001,0.0,0.0
6.633,73144.937,0.00001,0.0,0.0
6.64,44357.581,0.00002,0.0,0.0
6.646,32162.912,0.00003,0.0,0.0
6.652,19099.799,0.00005,0.0,0.0
6.659,13565.063,0.00007,0.0,0.0
6.665,10495.51,0.0001,0.0,0.0
6.671,8590.448,0.00012,0.0,0.0
6.678,7697.467,0.00013,0.0,0.0
6.684,7048.943,0.00014,0.0,0.0
6.69,6734.688,0.00015,0.0,0.0
6.697,6465.313,0.00015,0.0,0.0
6.703,6287.166,0.00016,0.0,0.0
6.709,6187.052,0.00016,0.0,0.0
6.716,6061.193,0.00016,0.0,0.0
6.722,5993.234,0.00017,0.0,0.0
6.728,5970.291,0.00017,0.0,0.0
6.734,5953.381,0.00017,0.0,0.0
6.741,5863.628,0.00017,0.0,0.0
6.747,5859.068,0.00017,0.0,0.0
6.753,5849.609,0.00017,0.0,0.0
6.76,5811.992,0.00017,0.0,0.0
6.766,5802.082,0.00017,0.0,0.0
6.772,5829.38,0.00017,0.0,0.0
6.779,5790.099,0.00017,0.0,0.0
6.785,5814.76,0.00017,0.0,0.0
6.791,5802.18,0.00017,0.0,0.0
6.798,5843.478,0.00017,0.0,0.0
6.804,5814.473,0.00017,0.0,0.0
6.81,5907.115,0.00017,0.0,0.0
6.817,5827.375,0.00017,0.0,0.0
6.823,5855.131,0.00017,0.0,0.0
6.829,5825.479,0.00017,0.0,0.0
6.836,5791.007,0.00017,0.0,0.0
6.842,5758.929,0.00017,0.0,0.0
6.848,5715.578,0.00017,0.0,0.0
6.855,5718.005,0.00017,0.0,0.0
6.861,5680.661,0.00018,0.0,0.0
6.867,5725.982,0.00017,0.0,0.0
6.874,5659.397,0.00018,0.0,0.0
6.88,5669.429,0.00018,0.0,0.0
6.886,5651.047,0.00018,0.0,0.0
6.892,5656.425,0.00018,0.0,0.0
6.899,5693.108,0.00018,0.0,0.0
6.905,5644.1,0.00018,0.0,0.0
6.911,5668.483,0.00018,0.0,0.0
6.918,5684.412,0.00018,0.0,0.0
6.924,5677.931,0.00018,0.0,0.0
6.93,5691.327,0.00018,0.0,0.0
6.937,5688.75,0.00018,0.0,0.0
6.943,5689.798,0.00018,0.0,0.0
6.949,5704.853,0.00018,0.0,0.0
6.956,5699.832,0.00018,0.0,0.0
6.962,5730.222,0.00017,0.0,0.0
6.968,5726.073,0.00017,0.0,0.0
6.975,5709.385,0.00018,0.0,0.0
6.981,5729.045,0.00017,0.0,0.0
6.987,5735.118,0.00017,0.0,0.0
6.994,5756.065,0.00017,0.0,0.0
7.0,5763.978,0.00017,0.0,0.0
7.006,5746.84,0.00017,0.0,0.0
7.013,5772.446,0.00017,0.0,0.0
7.019,5798.537,0.00017,0.0,0.0
7.025,5806.266,0.00017,0.0,0.0
7.032,5858.34,0.00017,0.0,0.0
7.038,5825.316,0.00017,0.0,0.0
7.044,5866.88,0.00017,0.0,0.0
7.05,5882.688,0.00017,0.0,0.0
7.057,5887.969,0.00017,0.0,0.0
7.063,5918.517,0.00017,0.0,0.0
7.069,5904.66,0.00017,0.0,0.0
7.076,5944.167,0.00017,0.0,0.0
7.082,5968.387,0.00017,0.0,0.0
7.088,5977.359,0.00017,0.0,0.0
7.095,5996.804,0.00017,0.0,0.0
7.101,6005.858,0.00017,0.0,0.0
7.107,6028.957,0.00017,0.0,0.0
7.114,6052.117,0.00017,0.0,0.0
7.12,6053.71,0.00017,0.0,0.0
7.126,6034.314,0.00017,0.0,0.0
7.133,6057.701,0.00017,0.0,0.0
7.139,6077.277,0.00016,0.0,0.0
7.145,6105.555,0.00016,0.0,0.0
7.152,6108.81,0.00016,0.0,0.0
7.158,6093.193,0.00016,0.0,0.0
7.164,6129.221,0.00016,0.0,0.0
7.171,6074.99,0.00016,0.0,0.0
7.177,6140.535,0.00016,0.0,0.0
7.183,6123.595,0.00016,0.0,0.0
7.19,6107.224,0.00016,0.0,0.0
7.196,6124.016,0.00016,0.0,0.0
7.202,6117.615,0.00016,0.0,0.0
7.208,6119.99,0.00016,0.0,0.0
7.215,6102.687,0.00016,0.0,0.0
7.221,6106.862,0.00016,0.0,0.0
7.227,6099.164,0.00016,0.0,0.0
7.234,6099.627,0.00016,0.0,0.0
7.24,6084.398,0.00016,0.0,0.0
7.246,6111.612,0.00016,0.0,0.0
7.253,6070.9,0.00016,0.0,0.0
7.259,6076.196,0.00016,0.0,0.0
7.265,6125.843,0.00016,0.0,0.0
7.272,6144.126,0.00016,0.0,0.0
7.278,6200.625,0.00016,0.0,0.0
7.284,6237.835,0.00016,0.0,0.0
7.291,6254.364,0.00016,0.0,0.0
7.297,6247.949,0.00016,0.0,0.0
7.303,6187.48,0.00016,0.0,0.0
7.31,6169.189,0.00016,0.0,0.0
7.316,6094.556,0.00016,0.0,0.0
7.322,6046.019,0.00017,0.0,0.0
7.329,6043.587,0.00017,0.0,0.0
7.335,5982.686,0.00017,0.0,0.0
7.341,5962.218,0.00017,0.0,0.0
7.348,5982.067,0.00017,0.0,0.0
7.354,5945.937,0.00017,0.0,0.0
7.36,5945.233,0.00017,0.0,0.0
7.366,5957.857,0.00017,0.0,0.0
7.373,5954.597,0.00017,0.0,0.0
7.379,5931.036,0.00017,0.0,0.0
7.385,5942.323,0.00017,0.0,0.0
7.392,5916.234,0.00017,0.0,0.0
7.398,5967.402,0.00017,0.0,0.0
7.404,5933.525,0.00017,0.0,0.0
7.411,5966.401,0.00017,0.0,0.0
7.417,5930.675,0.00017,0.0,0.0
7.423,5936.861,0.00017,0.0,0.0
7.43,5997.846,0.00017,0.0,0.0
7.436,5950.923,0.00017,0.0,0.0
7.442,5941.993,0.00017,0.0,0.0
7.449,5988.156,0.00017,0.0,0.0
7.455,6023.514,0.00017,0.0,0.0
7.461,5981.575,0.00017,0.0,0.0
7.468,5981.912,0.00017,0.0,0.0
7.474,5995.198,0.00017,0.0,0.0
7.48,6061.88,0.00016,0.0,0.0
7.487,6037.431,0.00017,0.0,0.0
7.493,6074.357,0.00016,0.0,0.0
7.499,6059.885,0.00017,0.0,0.0
7.506,6058.567,0.00017,0.0,0.0
7.512,6113.786,0.00016,0.0,0.0
7.518,6124.053,0.00016,0.0,0.0
7.524,6119.811,0.00016,0.0,0.0
7.531,6180.12,0.00016,0.0,0.0
7.537,6214.291,0.00016,0.0,0.0
7.543,6231.817,0.00016,0.0,0.0
7.55,6265.494,0.00016,0.0,0.0
7.556,6311.338,0.00016,0.0,0.0
7.562,6449.731,0.00016,0.0,0.0
7.569,6474.778,0.00015,0.0,0.0
7.575,6705.06,0.00015,0.0,0.0
7.581,6914.714,0.00014,0.0,0.0
7.588,7198.113,0.00014,0.0,0.0
7.594,7777.987,0.00013,0.0,0.0
7.6,8557.9,0.00012,0.0,0.0
7.607,10578.759,0.00009,0.0,0.0
7.613,13109.766,0.00008,0.0,0.0
7.619,19582.138,0.00005,0.0,0.0
7.626,26003.151,0.00004,0.0,0.0
7.632,40668.639,0.00002,0.0,0.0
7.638,45502.196,0.00002,0.0,0.0
7.645,54408.168,0.00002,0.0,0.0
7.651,54119.965,0.00002,0.0,0.0
7.657,43743.911,0.00002,0.0,0.0
7.664,32099.787,0.00003,0.0,0.0
7.67,21177.582,0.00005,0.0,0.0
7.676,15906.397,0.00006,0.0,0.0
7.682,11449.085,0.00009,0.0,0.0
7.689,9584.192,0.0001,0.0,0.0
7.695,8318.105,0.00012,0.0,0.0
7.701,7615.845,0.00013,0.0,0.0
7.708,7218.292,0.00014,0.0,0.0
7.714,7011.6,0.00014,0.0,0.0
7.72,6747.169,0.00015,0.0,0.0
7.727,6727.194,0.00015,0.0,0.0
7.733,6636.092,0.00015,0.0,0.0
7.739,6697.979,0.00015,0.0,0.0
7.746,6567.295,0.00015,0.0,0.0
7.752,6634.021,0.00015,0.0,0.0
7.758,6581.678,0.00015,0.0,0.0
7.765,6520.431,0.00015,0.0,0.0
7.771,6614.799,0.00015,0.0,0.0
7.777,6582.417,0.00015,0.0,0.0
7.784,6690.358,0.00015,0.0,0.0
7.79,6583.767,0.00015,0.0,0.0
7.796,6754.373,0.00015,0.0,0.0
7.803,6553.125,0.00015,0.0,0.0
7.809,6745.808,0.00015,0.0,0.0
7.815,6615.544,0.00015,0.0,0.0
7.822,6937.514,0.00014,0.0,0.0
7.828,6761.271,0.00015,0.0,0.0
7.834,7091.547,0.00014,0.0,0.0
7.84,6824.541,0.00015,0.0,0.0
7.847,7179.077,0.00014,0.0,0.0
7.853,7046.818,0.00014,0.0,0.0
7.859,7438.914,0.00013,0.0,0.0
7.866,7795.349,0.00013,0.0,0.0
7.872,7473.309,0.00013,0.0,0.0
7.878,10129.594,0.0001,0.0,0.0
7.885,7127.92,0.00014,0.0,0.0
7.891,12991.715,0.00008,0.0,0.0
7.897,6775.759,0.00015,0.0,0.0
7.904,13917.225,0.00007,0.0,0.0
7.91,7042.214,0.00014,0.0,0.0
7.916,14013.181,0.00007,0.0,0.0
7.923,7442.443,0.00013,0.0,0.0
7.929,12832.519,0.00008,0.0,0.0
7.935,7936.285,0.00013,0.0,0.0
7.942,10484.49,0.0001,0.0,0.0
7.948,8351.765,0.00012,0.0,0.0
7.954,7165.865,0.00014,0.0,0.0
7.961,7969.57,0.00013,0.0,0.0
7.967,6500.345,0.00015,0.0,0.0
7.973,7560.345,0.00013,0.0,0.0
7.98,6492.018,0.00015,0.0,0.0
7.986,7247.465,0.00014,0.0,0.0
7.992,6766.662,0.00015,0.0,0.0
7.998,6745.914,0.00015,0.0,0.0
8.005,6860.394,0.00015,0.0,0.0
8.011,6531.169,0.00015,0.0,0.0
8.017,6807.171,0.00015,0.0,0.0
8.024,6416.482,0.00016,0.0,0.0
8.03,6821.099,0.00015,0.0,0.0
8.036,6422.829,0.00016,0.0,0.0
8.043,6779.056,0.00015,0.0,0.0
8.049,6369.03,0.00016,0.0,0.0
8.055,6753.414,0.00015,0.0,0.0
8.062,6472.107,0.00015,0.0,0.0
8.068,6639.663,0.00015,0.0,0.0
8.074,6538.837,0.00015,0.0,0.0
8.081,6557.413,0.00015,0.0,0.0
8.087,6597.368,0.00015,0.0,0.0
8.093,6540.22,0.00015,0.0,0.0
8.1,6626.864,0.00015,0.0,0.0
8.106,6510.971,0.00015,0.0,0.0
8.112,6712.37,0.00015,0.0,0.0
8.119,6589.149,0.00015,0.0,0.0
8.125,6855.353,0.00015,0.0,0.0
8.131,6762.074,0.00015,0.0,0.0
8.138,7017.727,0.00014,0.0,0.0
8.144,6890.882,0.00015,0.0,0.0
8.15,6912.202,0.00014,0.0,0.0
8.156,6795.107,0.00015,0.0,0.0
8.163,6673.091,0.00015,0.0,0.0
8.169,6589.943,0.00015,0.0,0.0
8.175,6439.467,0.00016,0.0,0.0
8.182,6457.514,0.00015,0.0,0.0
8.188,6313.209,0.00016,0.0,0.0
8.194,6332.602,0.00016,0.0,0.0
8.201,6188.994,0.00016,0.0,0.0
8.207,6288.868,0.00016,0.0,0.0
8.213,6143.609,0.00016,0.0,0.0
8.22,6220.189,0.00016,0.0,0.0
8.226,6123.551,0.00016,0.0,0.0
8.232,6109.559,0.00016,0.0,0.0
8.239,6056.192,0.00017,0.0,0.0
8.245,6060.853,0.00016,0.0,0.0
8.251,6047.568,0.00017,0.0,0.0
8.258,5996.391,0.00017,0.0,0.0
8.264,5992.733,0.00017,0.0,0.0
8.27,5928.048,0.00017,0.0,0.0
8.277,5951.115,0.00017,0.0,0.0
8.283,5868.213,0.00017,0.0,0.0
8.289,5901.003,0.00017,0.0,0.0
8.296,5803.43,0.00017,0.0,0.0
8.302,5879.559,0.00017,0.0,0.0
8.308,5821.549,0.00017,0.0,0.0
8.314,5792.689,0.00017,0.0,0.0
8.321,5791.935,0.00017,0.0,0.0
8.327,5790.191,0.00017,0.0,0.0
8.333,5808.366,0.00017,0.0,0.0
8.34,5812.329,0.00017,0.0,0.0
8.346,5848.009,0.00017,0.0,0.0
8.352,5887.691,0.00017,0.0,0.0
8.359,5974.065,0.00017,0.0,0.0
8.365,5986.606,0.00017,0.0,0.0
8.371,6060.792,0.00016,0.0,0.0
8.378,6028.282,0.00017,0.0,0.0
8.384,6020.721,0.00017,0.0,0.0
8.39,5894.894,0.00017,0.0,0.0
8.397,5841.361,0.00017,0.0,0.0
8.403,5712.944,0.00018,0.0,0.0
8.409,5640.628,0.00018,0.0,0.0
8.416,5576.346,0.00018,0.0,0.0
8.422,5522.116,0.00018,0.0,0.0
8.428,5506.26,0.00018,0.0,0.0
8.435,5466.886,0.00018,0.0,0.0
8.441,5447.538,0.00018,0.0,0.0
8.447,5399.214,0.00019,0.0,0.0
8.454,5428.334,0.00018,0.0,0.0
8.46,5383.318,0.00019,0.0,0.0
8.466,5389.983,0.00019,0.0,0.0
8.472,5369.173,0.00019,0.0,0.0
8.479,5374.262,0.00019,0.0,0.0
8.485,5382.593,0.00019,0.0,0.0
8.491,5350.324,0.00019,0.0,0.0
8.498,5374.568,0.00019,0.0,0.0
8.504,5323.194,0.00019,0.0,0.0
8.51,5332.718,0.00019,0.0,0.0
8.517,5291.154,0.00019,0.0,0.0
8.523,5292.314,0.00019,0.0,0.0
8.529,5256.061,0.00019,0.0,0.0
8.536,5236.238,0.00019,0.0,0.0
8.542,5213.899,0.00019,0.0,0.0
8.548,5231.894,0.00019,0.0,0.0
8.555,5204.679,0.00019,0.0,0.0
8.561,5187.334,0.00019,0.0,0.0
8.567,5183.468,0.00019,0.0,0.0
8.574,5169.016,0.00019,0.0,0.0
8.58,5161.827,0.00019,0.0,0.0
8.586,5153.235,0.00019,0.0,0.0
8.593,5157.636,0.00019,0.0,0.0
8.599,5125.246,0.0002,0.0,0.0
8.605,5141.597,0.00019,0.0,0.0
8.612,5121.548,0.0002,0.0,0.0
8.618,5111.082,0.0002,0.0,0.0
8.624,5091.473,0.0002,0.0,0.0
8.63,5104.191,0.0002,0.0,0.0
8.637,5087.485,0.0002,0.0,0.0
8.643,5091.13,0.0002,0.0,0.0
8.649,5079.127,0.0002,0.0,0.0
8.656,5047.853,0.0002,0.0,0.0
8.662,5072.197,0.0002,0.0,0.0
8.668,5058.36,0.0002,0.0,0.0
8.675,5045.01,0.0002,0.0,0.0
8.681,5029.056,0.0002,0.0,0.0
8.687,5036.583,0.0002,0.0,0.0
8.694,5029.32,0.0002,0.0,0.0
8.7,5037.997,0.0002,0.0,0.0
8.706,5046.294,0.0002,0.0,0.0
8.713,5025.817,0.0002,0.0,0.0
8.719,5009.459,0.0002,0.0,0.0
8.725,5034.745,0.0002,0.0,0.0
8.732,5008.293,0.0002,0.0,0.0
8.738,5010.192,0.0002,0.0,0.0
8.744,4982.305,0.0002,0.0,0.0
8.751,4994.976,0.0002,0.0,0.0
8.757,4999.334,0.0002,0.0,0.0
8.763,4999.403,0.0002,0.0,0.0
8.77,4986.876,0.0002,0.0,0.0
8.776,4961.487,0.0002,0.0,0.0
8.782,4980.722,0.0002,0.0,0.0
8.788,4975.129,0.0002,0.0,0.0
8.795,4982.607,0.0002,0.0,0.0
8.801,4959.079,0.0002,0.0,0.0
8.807,4967.581,0.0002,0.0,0.0
8.814,4965.187,0.0002,0.0,0.0
8.82,4933.393,0.0002,0.0,0.0
8.826,4960.879,0.0002,0.0,0.0
8.833,4976.747,0.0002,0.0,0.0
8.839,4957.721,0.0002,0.0,0.0
8.845,4971.314,0.0002,0.0,0.0
8.852,4948.176,0.0002,0.0,0.0
8.858,4961.71,0.0002,0.0,0.0
8.864,4957.675,0.0002,0.0,0.0
8.871,4962.628,0.0002,0.0,0.0
8.877,4958.235,0.0002,0.0,0.0
8.883,4953.15,0.0002,0.0,0.0
8.89,4946.101,0.0002,0.0,0.0
8.896,4937.025,0.0002,0.0,0.0
8.902,4982.445,0.0002,0.0,0.0
8.909,4994.106,0.0002,0.0,0.0
8.915,4967.508,0.0002,0.0,0.0
8.921,4989.13,0.0002,0.0,0.0
8.928,4974.444,0.0002,0.0,0.0
8.934,4980.87,0.0002,0.0,0.0
8.94,4974.643,0.0002,0.0,0.0
8.946,4990.453,0.0002,0.0,0.0
8.953,4992.562,0.0002,0.0,0.0
8.959,4983.699,0.0002,0.0,0.0
8.965,5025.594,0.0002,0.0,0.0
8.972,5010.947,0.0002,0.0,0.0
8.978,5034.864,0.0002,0.0,0.0
8.984,5029.999,0.0002,0.0,0.0
8.991,5055.324,0.0002,0.0,0.0
8.997,5061.786,0.0002,0.0,0.0
9.003,5056.095,0.0002,0.0,0.0
9.01,5083.125,0.0002,0.0,0.0
9.016,5076.25,0.0002,0.0,0.0
9.022,5157.008,0.00019,0.0,0.0
9.029,5118.878,0.0002,0.0,0.0
9.035,5180.411,0.00019,0.0,0.0
9.041,5191.754,0.00019,0.0,0.0
9.048,5211.985,0.00019,0.0,0.0
9.054,5302.51,0.00019,0.0,0.0
9.06,5294.137,0.00019,0.0,0.0
9.067,5356.703,0.00019,0.0,0.0
9.073,5512.875,0.00018,0.0,0.0
9.079,5654.925,0.00018,0.0,0.0
9.086,5796.579,0.00017,0.0,0.0
9.092,6310.428,0.00016,0.0,0.0
9.098,7721.795,0.00013,0.0,0.0
9.104,6780.92,0.00015,0.0,0.0
9.111,8803.033,0.00011,0.0,0.0
9.117,9485.809,0.00011,0.0,0.0
9.123,10201.995,0.0001,0.0,0.0
9.13,9534.347,0.0001,0.0,0.0
9.136,10693.088,0.00009,0.0,0.0
9.142,9264.07,0.00011,0.0,0.0
9.149,6948.791,0.00014,0.0,0.0
9.155,8543.138,0.00012,0.0,0.0
9.161,7672.907,0.00013,0.0,0.0
9.168,5965.625,0.00017,0.0,0.0
9.174,6224.806,0.00016,0.0,0.0
9.18,5715.011,0.00017,0.0,0.0
9.187,5714.658,0.00017,0.0,0.0
9.193,5539.808,0.00018,0.0,0.0
9.199,5499.466,0.00018,0.0,0.0
9.206,5446.936,0.00018,0.0,0.0
9.212,5364.127,0.00019,0.0,0.0
9.218,5388.232,0.00019,0.0,0.0
9.225,5371.76,0.00019,0.0,0.0
9.231,5271.516,0.00019,0.0,0.0
9.237,5331.093,0.00019,0.0,0.0
9.244,5258.54,0.00019,0.0,0.0
9.25,5276.779,0.00019,0.0,0.0
9.256,5226.853,0.00019,0.0,0.0
9.262,5191.474,0.00019,0.0,0.0
9.269,5247.962,0.00019,0.0,0.0
9.275,5116.828,0.0002,0.0,0.0
9.281,5206.39,0.00019,0.0,0.0
9.288,5124.946,0.0002,0.0,0.0
9.294,5110.88,0.0002,0.0,0.0
9.3,5104.655,0.0002,0.0,0.0
9.307,5066.67,0.0002,0.0,0.0
9.313,5036.506,0.0002,0.0,0.0
9.319,5055.465,0.0002,0.0,0.0
9.326,5016.251,0.0002,0.0,0.0
9.332,4987.942,0.0002,0.0,0.0
9.338,4972.039,0.0002,0.0,0.0
9.345,4954.481,0.0002,0.0,0.0
9.351,4929.758,0.0002,0.0,0.0
9.357,4923.186,0.0002,0.0,0.0
9.364,4900.366,0.0002,0.0,0.0
9.37,4877.921,0.00021,0.0,0.0
9.376,4860.944,0.00021,0.0,0.0
9.383,4828.017,0.00021,0.0,0.0
9.389,4828.558,0.00021,0.0,0.0
9.395,4795.519,0.00021,0.0,0.0
9.402,4780.966,0.00021,0.0,0.0
9.408,4775.644,0.00021,0.0,0.0
9.414,4745.963,0.00021,0.0,0.0
9.42,4744.652,0.00021,0.0,0.0
9.427,4708.118,0.00021,0.0,0.0
9.433,4712.971,0.00021,0.0,0.0
9.439,4688.615,0.00021,0.0,0.0
9.446,4700.547,0.00021,0.0,0.0
9.452,4687.398,0.00021,0.0,0.0
9.458,4692.766,0.00021,0.0,0.0
9.465,4710.917,0.00021,0.0,0.0
9.471,4720.978,0.00021,0.0,0.0
9.477,4721.497,0.00021,0.0,0.0
9.484,4748.939,0.00021,0.0,0.0
9.49,4738.462,0.00021,0.0,0.0
9.496,4731.853,0.00021,0.0,0.0
9.503,4698.014,0.00021,0.0,0.0
9.509,4660.686,0.00021,0.0,0.0
9.515,4626.264,0.00022,0.0,0.0
9.522,4580.489,0.00022,0.0,0.0
9.528,4568.069,0.00022,0.0,0.0
9.534,4526.474,0.00022,0.0,0.0
9.541,4527.23,0.00022,0.0,0.0
9.547,4502.326,0.00022,0.0,0.0
9.553,4474.713,0.00022,0.0,0.0
9.56,4493.162,0.00022,0.0,0.0
9.566,4461.195,0.00022,0.0,0.0
9.572,4460.097,0.00022,0.0,0.0
9.578,4461.844,0.00022,0.0,0.0
9.585,4425.896,0.00023,0.0,0.0
9.591,4435.368,0.00023,0.0,0.0
9.597,4423.045,0.00023,0.0,0.0
9.604,4422.802,0.00023,0.0,0.0
9.61,4411.219,0.00023,0.0,0.0
9.616,4412.5,0.00023,0.0,0.0
9.623,4402.268,0.00023,0.0,0.0
9.629,4400.991,0.00023,0.0,0.0
9.635,4379.103,0.00023,0.0,0.0
9.642,4378.839,0.00023,0.0,0.0
9.648,4383.021,0.00023,0.0,0.0
9.654,4364.898,0.00023,0.0,0.0
9.661,4361.934,0.00023,0.0,0.0
9.667,4359.949,0.00023,0.0,0.0
9.673,4348.777,0.00023,0.0,0.0
9.68,4354.16,0.00023,0.0,0.0
9.686,4335.842,0.00023,0.0,0.0
9.692,4334.866,0.00023,0.0,0.0
9.699,4347.724,0.00023,0.0,0.0
9.705,4339.992,0.00023,0.0,0.0
9.711,4352.189,0.00023,0.0,0.0
9.718,4331.714,0.00023,0.0,0.0
9.724,4340.166,0.00023,0.0,0.0
9.73,4334.933,0.00023,0.0,0.0
9.736,4329.803,0.00023,0.0,0.0
9.743,4326.461,0.00023,0.0,0.0
9.749,4321.722,0.00023,0.0,0.0
9.755,4310.399,0.00023,0.0,0.0
9.762,4322.534,0.00023,0.0,0.0
9.768,4310.511,0.00023,0.0,0.0
9.774,4325.633,0.00023,0.0,0.0
9.781,4311.637,0.00023,0.0,0.0
9.787,4313.14,0.00023,0.0,0.0
9.793,4294.901,0.00023,0.0,0.0
9.8,4303.729,0.00023,0.0,0.0
9.806,4310.202,0.00023,0.0,0.0
9.812,4298.844,0.00023,0.0,0.0
9.819,4310.224,0.00023,0.0,0.0
9.825,4312.173,0.00023,0.0,0.0
9.831,4312.759,0.00023,0.0,0.0
9.838,4302.861,0.00023,0.0,0.0
9.844,4300.813,0.00023,0.0,0.0
9.85,4299.894,0.00023,0.0,0.0
9.857,4289.526,0.00023,0.0,0.0
9.863,4292.278,0.00023,0.0,0.0
9.869,4288.76,0.00023,0.0,0.0
9.876,4304.575,0.00023,0.0,0.0
9.882,4286.556,0.00023,0.0,0.0
9.888,4302.404,0.00023,0.0,0.0
9.894,4275.869,0.00023,0.0,0.0
9.901,4279.514,0.00023,0.0,0.0
9.907,4277.55,0.00023,0.0,0.0
9.913,4283.865,0.00023,0.0,0.0
9.92,4291.974,0.00023,0.0,0.0
9.926,4285.444,0.00023,0.0,0.0
9.932,4271.48,0.00023,0.0,0.0
9.939,4284.536,0.00023,0.0,0.0
9.945,4292.801,0.00023,0.0,0.0
9.951,4294.265,0.00023,0.0,0.0
9.958,4284.908,0.00023,0.0,0.0
9.964,4283.511,0.00023,0.0,0.0
9.97,4284.852,0.00023,0.0,0.0
9.977,4300.643,0.00023,0.0,0.0
9.983,4296.718,0.00023,0.0,0.0
9.989,4306.396,0.00023,0.0,0.0
9.996,4299.298,0.00023,0.0,0.0
10.002,4310.478,0.00023,0.0,0.0
10.008,4306.745,0.00023,0.0,0.0
10.015,4305.958,0.00023,0.0,0.0
10.021,4326.597,0.00023,0.0,0.0
10.027,4310.713,0.00023,0.0,0.0
10.034,4312.353,0.00023,0.0,0.0
10.04,4327.013,0.00023,0.0,0.0
10.046,4326.651,0.00023,0.0,0.0
10.052,4340.095,0.00023,0.0,0.0
10.059,4339.741,0.00023,0.0,0.0
10.065,4347.132,0.00023,0.0,0.0
10.071,4366.237,0.00023,0.0,0.0
10.078,4342.321,0.00023,0.0,0.0
10.084,4371.642,0.00023,0.0,0.0
10.09,4368.125,0.00023,0.0,0.0
10.097,4356.46,0.00023,0.0,0.0
10.103,4373.173,0.00023,0.0,0.0
10.109,4350.424,0.00023,0.0,0.0
10.116,4373.705,0.00023,0.0,0.0
10.122,4358.186,0.00023,0.0,0.0
10.128,4381.073,0.00023,0.0,0.0
10.135,4375.038,0.00023,0.0,0.0
10.141,4375.614,0.00023,0.0,0.0
10.147,4385.59,0.00023,0.0,0.0
10.154,4369.676,0.00023,0.0,0.0
10.16,4376.388,0.00023,0.0,0.0
10.166,4398.568,0.00023,0.0,0.0
10.173,4409.49,0.00023,0.0,0.0
10.179,4445.722,0.00022,0.0,0.0
10.185,4524.036,0.00022,0.0,0.0
10.192,4732.964,0.00021,0.0,0.0
10.198,4660.831,0.00021,0.0,0.0
10.204,4978.689,0.0002,0.0,0.0
10.21,5564.55,0.00018,0.0,0.0
10.217,5666.295,0.00018,0.0,0.0
10.223,5556.169,0.00018,0.0,0.0
10.229,5176.747,0.00019,0.0,0.0
10.236,4876.207,0.00021,0.0,0.0
10.242,4591.467,0.00022,0.0,0.0
10.248,4491.477,0.00022,0.0,0.0
10.255,4402.888,0.00023,0.0,0.0
10.261,4380.446,0.00023,0.0,0.0
10.267,4348.472,0.00023,0.0,0.0
10.274,4338.016,0.00023,0.0,0.0
10.28,4321.452,0.00023,0.0,0.0
10.286,4306.814,0.00023,0.0,0.0
10.293,4284.702,0.00023,0.0,0.0
10.299,4301.376,0.00023,0.0,0.0
10.305,4281.457,0.00023,0.0,0.0
10.312,4272.707,0.00023,0.0,0.0
10.318,4274.179,0.00023,0.0,0.0
10.324,4244.86,0.00024,0.0,0.0
10.331,4259.45,0.00023,0.0,0.0
10.337,4251.185,0.00024,0.0,0.0
10.343,4250.173,0.00024,0.0,0.0
10.35,4252.224,0.00024,0.0,0.0
10.356,4232.024,0.00024,0.0,0.0
10.362,4223.253,0.00024,0.0,0.0
10.368,4220.704,0.00024,0.0,0.0
10.375,4216.75,0.00024,0.0,0.0
10.381,4208.858,0.00024,0.0,0.0
10.387,4195.686,0.00024,0.0,0.0
10.394,4217.986,0.00024,0.0,0.0
10.4,4197.712,0.00024,0.0,0.0
10.406,4204.207,0.00024,0.0,0.0
10.413,4224.521,0.00024,0.0,0.0
10.419,4198.817,0.00024,0.0,0.0
10.425,4206.915,0.00024,0.0,0.0
10.432,4207.205,0.00024,0.0,0.0
10.438,4193.563,0.00024,0.0,0.0
10.444,4210.286,0.00024,0.0,0.0
10.451,4200.577,0.00024,0.0,0.0
10.457,4191.82,0.00024,0.0,0.0
10.463,4199.892,0.00024,0.0,0.0
10.47,4197.239,0.00024,0.0,0.0
10.476,4202.518,0.00024,0.0,0.0
10.482,4202.141,0.00024,0.0,0.0
10.489,4193.353,0.00024,0.0,0.0
10.495,4203.77,0.00024,0.0,0.0
10.501,4199.005,0.00024,0.0,0.0
10.508,4198.893,0.00024,0.0,0.0
10.514,4206.335,0.00024,0.0,0.0
10.52,4209.822,0.00024,0.0,0.0
10.526,4227.286,0.00024,0.0,0.0
10.533,4197.075,0.00024,0.0,0.0
10.539,4221.566,0.00024,0.0,0.0
10.545,4213.621,0.00024,0.0,0.0
10.552,4215.895,0.00024,0.0,0.0
10.558,4230.858,0.00024,0.0,0.0
10.564,4229.556,0.00024,0.0,0.0
10.571,4243.177,0.00024,0.0,0.0
10.577,4237.607,0.00024,0.0,0.0
10.583,4230.454,0.00024,0.0,0.0
10.59,4244.641,0.00024,0.0,0.0
10.596,4244.02,0.00024,0.0,0.0
10.602,4241.808,0.00024,0.0,0.0
10.609,4264.177,0.00023,0.0,0.0
10.615,4245.635,0.00024,0.0,0.0
10.621,4261.116,0.00023,0.0,0.0
10.628,4264.558,0.00023,0.0,0.0
10.634,4274.431,0.00023,0.0,0.0
10.64,4283.249,0.00023,0.0,0.0
10.647,4293.004,0.00023,0.0,0.0
10.653,4296.569,0.00023,0.0,0.0
10.659,4304.411,0.00023,0.0,0.0
10.666,4310.816,0.00023,0.0,0.0
10.672,4325.109,0.00023,0.0,0.0
10.678,4338.926,0.00023,0.0,0.0
10.684,4333.088,0.00023,0.0,0.0
10.691,4370.346,0.00023,0.0,0.0
10.697,4367.105,0.00023,0.0,0.0
10.703,4381.843,0.00023,0.0,0.0
10.71,4403.896,0.00023,0.0,0.0
10.716,4402.45,0.00023,0.0,0.0
10.722,4468.282,0.00022,0.0,0.0
10.729,4482.968,0.00022,0.0,0.0
10.735,4510.171,0.00022,0.0,0.0
10.741,4565.475,0.00022,0.0,0.0
10.748,4626.3,0.00022,0.0,0.0
10.754,4701.79,0.00021,0.0,0.0
10.76,4849.713,0.00021,0.0,0.0
10.767,4983.93,0.0002,0.0,0.0
10.773,5345.802,0.00019,0.0,0.0
10.779,5928.132,0.00017,0.0,0.0
10.786,6767.101,0.00015,0.0,0.0
10.792,9050.369,0.00011,0.0,0.0
10.798,11137.871,0.00009,0.0,0.0
10.805,17977.019,0.00006,0.0,0.0
10.811,21375.438,0.00005,0.0,0.0
10.817,27135.967,0.00004,0.0,0.0
10.824,30571.236,0.00003,0.0,0.0
10.83,27518.575,0.00004,0.0,0.0
10.836,24630.632,0.00004,0.0,0.0
10.842,17792.314,0.00006,0.0,0.0
10.849,12852.105,0.00008,0.0,0.0
10.855,9332.864,0.00011,0.0,0.0
10.861,7480.733,0.00013,0.0,0.0
10.868,6151.132,0.00016,0.0,0.0
10.874,5650.37,0.00018,0.0,0.0
10.88,5210.561,0.00019,0.0,0.0
10.887,5035.138,0.0002,0.0,0.0
10.893,4895.252,0.0002,0.0,0.0
10.899,4806.265,0.00021,0.0,0.0
10.906,4760.487,0.00021,0.0,0.0
10.912,4704.063,0.00021,0.0,0.0
10.918,4707.692,0.00021,0.0,0.0
10.925,4677.392,0.00021,0.0,0.0
10.931,4682.428,0.00021,0.0,0.0
10.937,4670.184,0.00021,0.0,0.0
10.944,4666.406,0.00021,0.0,0.0
10.95,4640.815,0.00022,0.0,0.0
10.956,4628.063,0.00022,0.0,0.0
10.963,4616.468,0.00022,0.0,0.0
10.969,4587.503,0.00022,0.0,0.0
10.975,4578.243,0.00022,0.0,0.0
10.982,4557.564,0.00022,0.0,0.0
10.988,4552.996,0.00022,0.0,0.0
10.994,4527.157,0.00022,0.0,0.0
11.0,4522.704,0.00022,0.0,0.0
11.007,4510.513,0.00022,0.0,0.0
11.013,4529.56,0.00022,0.0,0.0
11.019,4503.703,0.00022,0.0,0.0
11.026,4511.731,0.00022,0.0,0.0
11.032,4531.734,0.00022,0.0,0.0
11.038,4506.557,0.00022,0.0,0.0
11.045,4508.473,0.00022,0.0,0.0
11.051,4490.112,0.00022,0.0,0.0
11.057,4510.961,0.00022,0.0,0.0
11.064,4492.579,0.00022,0.0,0.0
11.07,4508.601,0.00022,0.0,0.0
11.076,4482.862,0.00022,0.0,0.0
11.083,4499.64,0.00022,0.0,0.0
11.089,4503.273,0.00022,0.0,0.0
11.095,4513.679,0.00022,0.0,0.0
11.102,4515.886,0.00022,0.0,0.0
11.108,4503.426,0.00022,0.0,0.0
11.114,4539.092,0.00022,0.0,0.0
11.121,4544.033,0.00022,0.0,0.0
11.127,4556.312,0.00022,0.0,0.0
11.133,4562.263,0.00022,0.0,0.0
11.14,4604.809,0.00022,0.0,0.0
11.146,4631.073,0.00022,0.0,0.0
11.152,4778.993,0.00021,0.0,0.0
11.158,5089.309,0.0002,0.0,0.0
11.165,5229.34,0.00019,0.0,0.0
11.171,5862.704,0.00017,0.0,0.0
11.177,5207.016,0.00019,0.0,0.0
11.184,5341.726,0.00019,0.0,0.0
11.19,5629.424,0.00018,0.0,0.0
11.196,5136.649,0.00019,0.0,0.0
11.203,5114.702,0.0002,0.0,0.0
11.209,4740.659,0.00021,0.0,0.0
11.215,4665.743,0.00021,0.0,0.0
11.222,4606.872,0.00022,0.0,0.0
11.228,4564.82,0.00022,0.0,0.0
11.234,4553.886,0.00022,0.0,0.0
11.241,4546.917,0.00022,0.0,0.0
11.247,4523.631,0.00022,0.0,0.0
11.253,4533.004,0.00022,0.0,0.0
11.26,4484.527,0.00022,0.0,0.0
11.266,4515.344,0.00022,0.0,0.0
11.272,4497.674,0.00022,0.0,0.0
11.279,4474.987,0.00022,0.0,0.0
11.285,4476.172,0.00022,0.0,0.0
11.291,4466.159,0.00022,0.0,0.0
11.298,4474.502,0.00022,0.0,0.0
11.304,4438.303,0.00023,0.0,0.0
11.31,4469.728,0.00022,0.0,0.0
11.316,4461.1,0.00022,0.0,0.0
11.323,4455.285,0.00022,0.0,0.0
11.329,4458.102,0.00022,0.0,0.0
11.335,4450.238,0.00022,0.0,0.0
11.342,4438.546,0.00023,0.0,0.0
11.348,4432.004,0.00023,0.0,0.0
11.354,4430.259,0.00023,0.0,0.0
11.361,4432.849,0.00023,0.0,0.0
11.367,4424.71,0.00023,0.0,0.0
11.373,4414.775,0.00023,0.0,0.0
11.38,4433.555,0.00023,0.0,0.0
11.386,4386.151,0.00023,0.0,0.0
11.392,4418.08,0.00023,0.0,0.0
11.399,4407.76,0.00023,0.0,0.0
11.405,4396.552,0.00023,0.0,0.0
11.411,4406.292,0.00023,0.0,0.0
11.418,4384.119,0.00023,0.0,0.0
11.424,4395.025,0.00023,0.0,0.0
11.43,4402.54,0.00023,0.0,0.0
11.437,4395.325,0.00023,0.0,0.0
11.443,4410.532,0.00023,0.0,0.0
11.449,4393.544,0.00023,0.0,0.0
11.456,4389.366,0.00023,0.0,0.0
11.462,4395.788,0.00023,0.0,0.0
11.468,4390.443,0.00023,0.0,0.0
11.474,4385.553,0.00023,0.0,0.0
11.481,4395.67,0.00023,0.0,0.0
11.487,4384.427,0.00023,0.0,0.0
11.493,4419.258,0.00023,0.0,0.0
11.5,4408.521,0.00023,0.0,0.0
11.506,4427.864,0.00023,0.0,0.0
11.512,4444.745,0.00022,0.0,0.0
11.519,4476.799,0.00022,0.0,0.0
11.525,4502.276,0.00022,0.0,0.0
11.531,4473.367,0.00022,0.0,0.0
11.538,4475.674,0.00022,0.0,0.0
11.544,4454.065,0.00022,0.0,0.0
11.55,4433.655,0.00023,0.0,0.0
11.557,4417.193,0.00023,0.0,0.0
11.563,4413.163,0.00023,0.0,0.0
11.569,4395.156,0.00023,0.0,0.0
11.576,4403.384,0.00023,0.0,0.0
11.582,4382.47,0.00023,0.0,0.0
11.588,4392.671,0.00023,0.0,0.0
11.595,4398.373,0.00023,0.0,0.0
11.601,4372.386,0.00023,0.0,0.0
11.607,4404.028,0.00023,0.0,0.0
11.614,4385.842,0.00023,0.0,0.0
11.62,4398.948,0.00023,0.0,0.0
11.626,4387.469,0.00023,0.0,0.0
11.632,4381.812,0.00023,0.0,0.0
11.639,4397.479,0.00023,0.0,0.0
11.645,4400.651,0.00023,0.0,0.0
11.651,4394.595,0.00023,0.0,0.0
11.658,4391.694,0.00023,0.0,0.0
11.664,4389.552,0.00023,0.0,0.0
11.67,4404.464,0.00023,0.0,0.0
11.677,4405.443,0.00023,0.0,0.0
11.683,4401.953,0.00023,0.0,0.0
11.689,4409.582,0.00023,0.0,0.0
11.696,4390.939,0.00023,0.0,0.0
11.702,4384.844,0.00023,0.0,0.0
11.708,4405.367,0.00023,0.0,0.0
11.715,4396.171,0.00023,0.0,0.0
11.721,4394.531,0.00023,0.0,0.0
11.727,4397.781,0.00023,0.0,0.0
11.734,4395.873,0.00023,0.0,0.0
11.74,4402.606,0.00023,0.0,0.0
11.746,4393.831,0.00023,0.0,0.0
11.753,4401.882,0.00023,0.0,0.0
11.759,4389.511,0.00023,0.0,0.0
11.765,4388.138,0.00023,0.0,0.0
11.772,4390.685,0.00023,0.0,0.0
11.778,4408.657,0.00023,0.0,0.0
11.784,4411.581,0.00023,0.0,0.0
11.79,4396.978,0.00023,0.0,0.0
11.797,4405.878,0.00023,0.0,0.0
11.803,4369.194,0.00023,0.0,0.0
11.809,4377.848,0.00023,0.0,0.0
11.816,4368.075,0.00023,0.0,0.0
11.822,4373.869,0.00023,0.0,0.0
11.828,4357.253,0.00023,0.0,0.0
11.835,4360.556,0.00023,0.0,0.0
11.841,4358.573,0.00023,0.0,0.0
11.847,4350.479,0.00023,0.0,0.0
11.854,4352.09,0.00023,0.0,0.0
11.86,4340.065,0.00023,0.0,0.0
11.866,4341.603,0.00023,0.0,0.0
11.873,4324.167,0.00023,0.0,0.0
11.879,4326.302,0.00023,0.0,0.0
11.885,4320.512,0.00023,0.0,0.0
11.892,4325.278,0.00023,0.0,0.0
11.898,4316.589,0.00023,0.0,0.0
11.904,4320.161,0.00023,0.0,0.0
11.911,4331.623,0.00023,0.0,0.0
11.917,4313.596,0.00023,0.0,0.0
11.923,4310.841,0.00023,0.0,0.0
11.93,4299.23,0.00023,0.0,0.0
11.936,4310.659,0.00023,0.0,0.0
11.942,4311.469,0.00023,0.0,0.0
11.948,4308.694,0.00023,0.0,0.0
11.955,4280.509,0.00023,0.0,0.0
11.961,4321.386,0.00023,0.0,0.0
11.967,4301.065,0.00023,0.0,0.0
11.974,4298.715,0.00023,0.0,0.0
11.98,4296.495,0.00023,0.0,0.0
11.986,4310.56,0.00023,0.0,0.0
11.993,4325.448,0.00023,0.0,0.0
11.999,4318.304,0.00023,0.0,0.0
12.005,4311.988,0.00023,0.0,0.0
12.012,4322.805,0.00023,0.0,0.0
12.018,4331.56,0.00023,0.0,0.0
12.024,4323.762,0.00023,0.0,0.0
12.031,4321.428,0.00023,0.0,0.0
12.037,4321.314,0.00023,0.0,0.0
12.043,4339.766,0.00023,0.0,0.0
12.05,4384.048,0.00023,0.0,0.0
12.056,4351.162,0.00023,0.0,0.0
12.062,4489.259,0.00022,0.0,0.0
12.069,4430.84,0.00023,0.0,0.0
12.075,4406.858,0.00023,0.0,0.0
12.081,5140.906,0.00019,0.0,0.0
12.088,4396.799,0.00023,0.0,0.0
12.094,6019.535,0.00017,0.0,0.0
12.1,5175.445,0.00019,0.0,0.0
12.106,4550.216,0.00022,0.0,0.0
12.113,5050.342,0.0002,0.0,0.0
12.119,4373.751,0.00023,0.0,0.0
12.125,4425.07,0.00023,0.0,0.0
12.132,4320.009,0.00023,0.0,0.0
12.138,4259.244,0.00023,0.0,0.0
12.144,4305.671,0.00023,0.0,0.0
12.151,4257.991,0.00023,0.0,0.0
12.157,4221.923,0.00024,0.0,0.0
12.163,4231.152,0.00024,0.0,0.0
12.17,4207.659,0.00024,0.0,0.0
12.176,4202.36,0.00024,0.0,0.0
12.182,4159.368,0.00024,0.0,0.0
12.189,4175.22,0.00024,0.0,0.0
12.195,4145.849,0.00024,0.0,0.0
12.201,4187.843,0.00024,0.0,0.0
12.208,4130.599,0.00024,0.0,0.0
12.214,4130.643,0.00024,0.0,0.0
12.22,4133.842,0.00024,0.0,0.0
12.227,4095.421,0.00024,0.0,0.0
12.233,4106.578,0.00024,0.0,0.0
12.239,4080.878,0.00025,0.0,0.0
12.246,4100.418,0.00024,0.0,0.0
12.252,4055.472,0.00025,0.0,0.0
12.258,4090.059,0.00024,0.0,0.0
12.264,4062.815,0.00025,0.0,0.0
12.271,4046.804,0.00025,0.0,0.0
12.277,4041.099,0.00025,0.0,0.0
12.283,4029.884,0.00025,0.0,0.0
12.29,4049.098,0.00025,0.0,0.0
12.296,4012.157,0.00025,0.0,0.0
12.302,4043.802,0.00025,0.0,0.0
12.309,4006.477,0.00025,0.0,0.0
12.315,4042.32,0.00025,0.0,0.0
12.321,4016.163,0.00025,0.0,0.0
12.328,4002.328,0.00025,0.0,0.0
12.334,3997.399,0.00025,0.0,0.0
12.34,3981.091,0.00025,0.0,0.0
12.347,3999.676,0.00025,0.0,0.0
12.353,3991.831,0.00025,0.0,0.0
12.359,3986.71,0.00025,0.0,0.0
12.366,3957.33,0.00025,0.0,0.0
12.372,3993.715,0.00025,0.0,0.0
12.378,3987.359,0.00025,0.0,0.0
12.385,3982.95,0.00025,0.0,0.0
12.391,3969.415,0.00025,0.0,0.0
12.397,3972.996,0.00025,0.0,0.0
12.404,3970.52,0.00025,0.0,0.0
12.41,3953.32,0.00025,0.0,0.0
12.416,3972.839,0.00025,0.0,0.0
12.422,3942.491,0.00025,0.0,0.0
12.429,3956.696,0.00025,0.0,0.0
12.435,3929.531,0.00025,0.0,0.0
12.441,3942.33,0.00025,0.0,0.0
12.448,3941.47,0.00025,0.0,0.0
12.454,3937.413,0.00025,0.0,0.0
12.46,3945.539,0.00025,0.0,0.0
12.467,3942.145,0.00025,0.0,0.0
12.473,3948.542,0.00025,0.0,0.0
12.479,3935.013,0.00025,0.0,0.0
12.486,3947.156,0.00025,0.0,0.0
12.492,3943.482,0.00025,0.0,0.0
12.498,3954.463,0.00025,0.0,0.0
12.505,3969.093,0.00025,0.0,0.0
12.511,3969.256,0.00025,0.0,0.0
12.517,3994.949,0.00025,0.0,0.0
12.524,3969.702,0.00025,0.0,0.0
12.53,3976.645,0.00025,0.0,0.0
12.536,3956.708,0.00025,0.0,0.0
12.543,3963.194,0.00025,0.0,0.0
12.549,3960.508,0.00025,0.0,0.0
12.555,3962.84,0.00025,0.0,0.0
12.562,3957.46,0.00025,0.0,0.0
12.568,3956.289,0.00025,0.0,0.0
12.574,3952.261,0.00025,0.0,0.0
12.58,3963.094,0.00025,0.0,0.0
12.587,3977.613,0.00025,0.0,0.0
12.593,3990.718,0.00025,0.0,0.0
12.599,4014.624,0.00025,0.0,0.0
12.606,4029.718,0.00025,0.0,0.0
12.612,4086.465,0.00024,0.0,0.0
12.618,4117.507,0.00024,0.0,0.0
12.625,4206.91,0.00024,0.0,0.0
12.631,4311.896,0.00023,0.0,0.0
12.637,4495.215,0.00022,0.0,0.0
12.644,4784.866,0.00021,0.0,0.0
12.65,5212.358,0.00019,0.0,0.0
12.656,6045.085,0.00017,0.0,0.0
12.663,7484.523,0.00013,0.0,0.0
12.669,10281.68,0.0001,0.0,0.0
12.675,15124.83,0.00007,0.0,0.0
12.682,21163.07,0.00005,0.0,0.0
12.688,29115.747,0.00003,0.0,0.0
12.694,37330.792,0.00003,0.0,0.0
12.701,36237.204,0.00003,0.0,0.0
12.707,36748.431,0.00003,0.0,0.0
12.713,28022.545,0.00004,0.0,0.0
12.72,21356.299,0.00005,0.0,0.0
12.726,13873.646,0.00007,0.0,0.0
12.732,9615.413,0.0001,0.0,0.0
12.738,7251.016,0.00014,0.0,0.0
12.745,5811.881,0.00017,0.0,0.0
12.751,5114.52,0.0002,0.0,0.0
12.757,4653.359,0.00021,0.0,0.0
12.764,4397.13,0.00023,0.0,0.0
12.77,4223.365,0.00024,0.0,0.0
12.776,4119.066,0.00024,0.0,0.0
12.783,4037.892,0.00025,0.0,0.0
12.789,3982.281,0.00025,0.0,0.0
12.795,3936.502,0.00025,0.0,0.0
12.802,3918.845,0.00026,0.0,0.0
12.808,3879.651,0.00026,0.0,0.0
12.814,3877.022,0.00026,0.0,0.0
12.821,3843.188,0.00026,0.0,0.0
12.827,3836.19,0.00026,0.0,0.0
12.833,3819.712,0.00026,0.0,0.0
12.84,3816.006,0.00026,0.0,0.0
12.846,3812.046,0.00026,0.0,0.0
12.852,3806.628,0.00026,0.0,0.0
12.859,3794.983,0.00026,0.0,0.0
12.865,3775.447,0.00026,0.0,0.0
12.871,3781.845,0.00026,0.0,0.0
12.878,3771.098,0.00027,0.0,0.0
12.884,3771.414,0.00027,0.0,0.0
12.89,3757.559,0.00027,0.0,0.0
12.896,3762.414,0.00027,0.0,0.0
12.903,3774.008,0.00026,0.0,0.0
12.909,3756.583,0.00027,0.0,0.0
12.915,3782.656,0.00026,0.0,0.0
12.922,3775.559,0.00026,0.0,0.0
12.928,3815.366,0.00026,0.0,0.0
12.934,3826.064,0.00026,0.0,0.0
12.941,3852.989,0.00026,0.0,0.0
12.947,3848.242,0.00026,0.0,0.0
12.953,3847.589,0.00026,0.0,0.0
12.96,3834.641,0.00026,0.0,0.0
12.966,3829.578,0.00026,0.0,0.0
12.972,3791.522,0.00026,0.0,0.0
12.979,3769.469,0.00027,0.0,0.0
12.985,3741.999,0.00027,0.0,0.0
12.991,3732.997,0.00027,0.0,0.0
12.998,3730.883,0.00027,0.0,0.0
13.004,3715.024,0.00027,0.0,0.0
13.01,3712.466,0.00027,0.0,0.0
13.017,3708.991,0.00027,0.0,0.0
13.023,3688.774,0.00027,0.0,0.0
13.029,3694.68,0.00027,0.0,0.0
13.036,3699.207,0.00027,0.0,0.0
13.042,3705.152,0.00027,0.0,0.0
13.048,3692.211,0.00027,0.0,0.0
13.054,3676.296,0.00027,0.0,0.0
13.061,3672.625,0.00027,0.0,0.0
13.067,3671.188,0.00027,0.0,0.0
13.073,3670.901,0.00027,0.0,0.0
13.08,3670.851,0.00027,0.0,0.0
13.086,3662.253,0.00027,0.0,0.0
13.092,3670.827,0.00027,0.0,0.0
13.099,3664.221,0.00027,0.0,0.0
13.105,3677.496,0.00027,0.0,0.0
13.111,3664.827,0.00027,0.0,0.0
13.118,3658.981,0.00027,0.0,0.0
13.124,3652.267,0.00027,0.0,0.0
13.13,3663.881,0.00027,0.0,0.0
13.137,3644.249,0.00027,0.0,0.0
13.143,3655.944,0.00027,0.0,0.0
13.149,3644.476,0.00027,0.0,0.0
13.156,3668.593,0.00027,0.0,0.0
13.162,3647.014,0.00027,0.0,0.0
13.168,3650.76,0.00027,0.0,0.0
13.175,3653.507,0.00027,0.0,0.0
13.181,3669.476,0.00027,0.0,0.0
13.187,3657.431,0.00027,0.0,0.0
13.194,3696.498,0.00027,0.0,0.0
13.2,3705.038,0.00027,0.0,0.0
13.206,3744.163,0.00027,0.0,0.0
13.212,3805.021,0.00026,0.0,0.0
13.219,3921.431,0.00026,0.0,0.0
13.225,4102.785,0.00024,0.0,0.0
13.231,4443.477,0.00023,0.0,0.0
13.238,5145.18,0.00019,0.0,0.0
13.244,6305.27,0.00016,0.0,0.0
13.25,8005.191,0.00012,0.0,0.0
13.257,9822.52,0.0001,0.0,0.0
13.263,12066.361,0.00008,0.0,0.0
13.269,12308.7,0.00008,0.0,0.0
13.276,11274.539,0.00009,0.0,0.0
13.282,10499.441,0.0001,0.0,0.0
13.288,7599.849,0.00013,0.0,0.0
13.295,6103.64,0.00016,0.0,0.0
13.301,5013.429,0.0002,0.0,0.0
13.307,4327.875,0.00023,0.0,0.0
13.314,4026.731,0.00025,0.0,0.0
13.32,3811.794,0.00026,0.0,0.0
13.326,3718.986,0.00027,0.0,0.0
13.333,3653.86,0.00027,0.0,0.0
13.339,3623.267,0.00028,0.0,0.0
13.345,3604.677,0.00028,0.0,0.0
13.352,3572.663,0.00028,0.0,0.0
13.358,3547.665,0.00028,0.0,0.0
13.364,3548.938,0.00028,0.0,0.0
13.37,3531.413,0.00028,0.0,0.0
13.377,3516.257,0.00028,0.0,0.0
13.383,3526.433,0.00028,0.0,0.0
13.389,3509.424,0.00028,0.0,0.0
13.396,3522.02,0.00028,0.0,0.0
13.402,3505.452,0.00029,0.0,0.0
13.408,3496.638,0.00029,0.0,0.0
13.415,3494.295,0.00029,0.0,0.0
13.421,3473.803,0.00029,0.0,0.0
13.427,3474.292,0.00029,0.0,0.0
13.434,3459.638,0.00029,0.0,0.0
13.44,3456.027,0.00029,0.0,0.0
13.446,3472.305,0.00029,0.0,0.0
13.453,3458.022,0.00029,0.0,0.0
13.459,3454.849,0.00029,0.0,0.0
13.465,3453.854,0.00029,0.0,0.0
13.472,3443.055,0.00029,0.0,0.0
13.478,3446.171,0.00029,0.0,0.0
13.484,3432.782,0.00029,0.0,0.0
13.491,3436.727,0.00029,0.0,0.0
13.497,3436.25,0.00029,0.0,0.0
13.503,3426.599,0.00029,0.0,0.0
13.51,3425.971,0.00029,0.0,0.0
13.516,3432.837,0.00029,0.0,0.0
13.522,3411.963,0.00029,0.0,0.0
13.528,3419.293,0.00029,0.0,0.0
13.535,3425.141,0.00029,0.0,0.0
13.541,3433.332,0.00029,0.0,0.0
13.547,3407.453,0.00029,0.0,0.0
13.554,3426.34,0.00029,0.0,0.0
13.56,3418.107,0.00029,0.0,0.0
13.566,3423.433,0.00029,0.0,0.0
13.573,3425.869,0.00029,0.0,0.0
13.579,3404.039,0.00029,0.0,0.0
13.585,3418.646,0.00029,0.0,0.0
13.592,3414.211,0.00029,0.0,0.0
13.598,3407.126,0.00029,0.0,0.0
13.604,3410.555,0.00029,0.0,0.0
13.611,3403.224,0.00029,0.0,0.0
13.617,3396.686,0.00029,0.0,0.0
13.623,3412.103,0.00029,0.0,0.0
13.63,3412.686,0.00029,0.0,0.0
13.636,3421.331,0.00029,0.0,0.0
13.642,3423.685,0.00029,0.0,0.0
13.649,3420.942,0.00029,0.0,0.0
13.655,3427.847,0.00029,0.0,0.0
13.661,3422.187,0.00029,0.0,0.0
13.668,3427.003,0.00029,0.0,0.0
13.674,3407.059,0.00029,0.0,0.0
13.68,3405.267,0.00029,0.0,0.0
13.686,3385.523,0.0003,0.0,0.0
13.693,3401.586,0.00029,0.0,0.0
13.699,3403.164,0.00029,0.0,0.0
13.705,3396.114,0.00029,0.0,0.0
13.712,3407.37,0.00029,0.0,0.0
13.718,3382.161,0.0003,0.0,0.0
13.724,3385.952,0.0003,0.0,0.0
13.731,3408.18,0.00029,0.0,0.0
13.737,3389.888,0.00029,0.0,0.0
13.743,3405.253,0.00029,0.0,0.0
13.75,3378.469,0.0003,0.0,0.0
13.756,3379.64,0.0003,0.0,0.0
13.762,3352.72,0.0003,0.0,0.0
13.769,3357.977,0.0003,0.0,0.0
13.775,3343.108,0.0003,0.0,0.0
13.781,3352.449,0.0003,0.0,0.0
13.788,3349.103,0.0003,0.0,0.0
13.794,3347.085,0.0003,0.0,0.0
13.8,3335.373,0.0003,0.0,0.0
13.807,3328.583,0.0003,0.0,0.0
13.813,3328.816,0.0003,0.0,0.0
13.819,3322.85,0.0003,0.0,0.0
13.826,3320.523,0.0003,0.0,0.0
13.832,3308.056,0.0003,0.0,0.0
13.838,3299.177,0.0003,0.0,0.0
13.844,3317.51,0.0003,0.0,0.0
13.851,3322.389,0.0003,0.0,0.0
13.857,3313.666,0.0003,0.0,0.0
13.863,3304.88,0.0003,0.0,0.0
13.87,3291.766,0.0003,0.0,0.0
13.876,3287.457,0.0003,0.0,0.0
13.882,3281.347,0.0003,0.0,0.0
13.889,3289.379,0.0003,0.0,0.0
13.895,3290.248,0.0003,0.0,0.0
13.901,3285.654,0.0003,0.0,0.0
13.908,3279.46,0.0003,0.0,0.0
13.914,3278.15,0.00031,0.0,0.0
13.92,3277.828,0.00031,0.0,0.0
13.927,3277.813,0.00031,0.0,0.0
13.933,3263.907,0.00031,0.0,0.0
13.939,3267.845,0.00031,0.0,0.0
13.946,3262.522,0.00031,0.0,0.0
13.952,3263.192,0.00031,0.0,0.0
13.958,3274.332,0.00031,0.0,0.0
13.965,3247.852,0.00031,0.0,0.0
13.971,3252.558,0.00031,0.0,0.0
13.977,3254.097,0.00031,0.0,0.0
13.984,3246.153,0.00031,0.0,0.0
13.99,3256.857,0.00031,0.0,0.0
13.996,3242.187,0.00031,0.0,0.0
14.002,3252.758,0.00031,0.0,0.0
14.009,3239.811,0.00031,0.0,0.0
14.015,3244.885,0.00031,0.0,0.0
14.021,3222.754,0.00031,0.0,0.0
14.028,3226.823,0.00031,0.0,0.0
14.034,3221.513,0.00031,0.0,0.0
14.04,3228.035,0.00031,0.0,0.0
14.047,3229.081,0.00031,0.0,0.0
14.053,3221.676,0.00031,0.0,0.0
14.059,3235.508,0.00031,0.0,0.0
14.066,3218.727,0.00031,0.0,0.0
14.072,3218.024,0.00031,0.0,0.0
14.078,3214.966,0.00031,0.0,0.0
14.085,3215.529,0.00031,0.0,0.0
14.091,3204.867,0.00031,0.0,0.0
14.097,3199.872,0.00031,0.0,0.0
14.104,3207.0,0.00031,0.0,0.0
14.11,3206.204,0.00031,0.0,0.0
14.116,3212.943,0.00031,0.0,0.0
14.123,3208.286,0.00031,0.0,0.0
14.129,3199.914,0.00031,0.0,0.0
14.135,3200.382,0.00031,0.0,0.0
14.142,3193.898,0.00031,0.0,0.0
14.148,3202.624,0.00031,0.0,0.0
14.154,3195.739,0.00031,0.0,0.0
14.16,3182.483,0.00031,0.0,0.0
14.167,3194.443,0.00031,0.0,0.0
14.173,3202.559,0.00031,0.0,0.0
14.179,3194.909,0.00031,0.0,0.0
14.186,3190.14,0.00031,0.0,0.0
14.192,3192.811,0.00031,0.0,0.0
14.198,3191.303,0.00031,0.0,0.0
14.205,3189.142,0.00031,0.0,0.0
14.211,3188.099,0.00031,0.0,0.0
14.217,3192.807,0.00031,0.0,0.0
14.224,3191.39,0.00031,0.0,0.0
14.23,3206.183,0.00031,0.0,0.0
14.236,3197.894,0.00031,0.0,0.0
14.243,3215.052,0.00031,0.0,0.0
14.249,3231.046,0.00031,0.0,0.0
14.255,3223.753,0.00031,0.0,0.0
14.262,3242.682,0.00031,0.0,0.0
14.268,3235.434,0.00031,0.0,0.0
14.274,3244.432,0.00031,0.0,0.0
14.281,3230.723,0.00031,0.0,0.0
14.287,3214.797,0.00031,0.0,0.0
14.293,3206.915,0.00031,0.0,0.0
14.3,3200.999,0.00031,0.0,0.0
14.306,3201.135,0.00031,0.0,0.0
14.312,3190.059,0.00031,0.0,0.0
14.318,3184.411,0.00031,0.0,0.0
14.325,3181.451,0.00031,0.0,0.0
14.331,3188.771,0.00031,0.0,0.0
14.337,3183.849,0.00031,0.0,0.0
14.344,3169.872,0.00032,0.0,0.0
14.35,3187.822,0.00031,0.0,0.0
14.356,3181.694,0.00031,0.0,0.0
14.363,3170.415,0.00032,0.0,0.0
14.369,3172.016,0.00032,0.0,0.0
14.375,3163.428,0.00032,0.0,0.0
14.382,3163.603,0.00032,0.0,0.0
14.388,3177.725,0.00031,0.0,0.0
14.394,3175.778,0.00031,0.0,0.0
14.401,3160.945,0.00032,0.0,0.0
14.407,3164.057,0.00032,0.0,0.0
14.413,3164.815,0.00032,0.0,0.0
14.42,3165.792,0.00032,0.0,0.0
14.426,3170.906,0.00032,0.0,0.0
14.432,3162.026,0.00032,0.0,0.0
14.439,3153.811,0.00032,0.0,0.0
14.445,3161.067,0.00032,0.0,0.0
14.451,3152.713,0.00032,0.0,0.0
14.458,3155.693,0.00032,0.0,0.0
14.464,3158.679,0.00032,0.0,0.0
14.47,3155.579,0.00032,0.0,0.0
14.476,3159.483,0.00032,0.0,0.0
14.483,3140.038,0.00032,0.0,0.0
14.489,3137.438,0.00032,0.0,0.0
14.495,3140.694,0.00032,0.0,0.0
14.502,3132.987,0.00032,0.0,0.0
14.508,3137.028,0.00032,0.0,0.0
14.514,3134.184,0.00032,0.0,0.0
14.521,3132.365,0.00032,0.0,0.0
14.527,3117.458,0.00032,0.0,0.0
14.533,3127.173,0.00032,0.0,0.0
14.54,3122.733,0.00032,0.0,0.0
14.546,3118.545,0.00032,0.0,0.0
14.552,3122.315,0.00032,0.0,0.0
14.559,3124.104,0.00032,0.0,0.0
14.565,3123.463,0.00032,0.0,0.0
14.571,3116.733,0.00032,0.0,0.0
14.578,3116.612,0.00032,0.0,0.0
14.584,3121.025,0.00032,0.0,0.0
14.59,3105.736,0.00032,0.0,0.0
14.597,3105.733,0.00032,0.0,0.0
14.603,3099.721,0.00032,0.0,0.0
14.609,3113.626,0.00032,0.0,0.0
14.616,3104.528,0.00032,0.0,0.0
14.622,3098.31,0.00032,0.0,0.0
14.628,3106.196,0.00032,0.0,0.0
14.634,3106.619,0.00032,0.0,0.0
14.641,3103.666,0.00032,0.0,0.0
14.647,3110.136,0.00032,0.0,0.0
14.653,3093.188,0.00032,0.0,0.0
14.66,3096.296,0.00032,0.0,0.0
14.666,3098.093,0.00032,0.0,0.0
14.672,3101.375,0.00032,0.0,0.0
14.679,3094.32,0.00032,0.0,0.0
14.685,3101.887,0.00032,0.0,0.0
14.691,3093.27,0.00032,0.0,0.0
14.698,3090.586,0.00032,0.0,0.0
14.704,3098.896,0.00032,0.0,0.0
14.71,3083.69,0.00032,0.0,0.0
14.717,3080.299,0.00032,0.0,0.0
14.723,3084.197,0.00032,0.0,0.0
14.729,3088.329,0.00032,0.0,0.0
14.736,3082.822,0.00032,0.0,0.0
14.742,3080.885,0.00032,0.0,0.0
14.748,3078.926,0.00032,0.0,0.0
14.755,3076.976,0.00032,0.0,0.0
14.761,3087.193,0.00032,0.0,0.0
14.767,3079.118,0.00032,0.0,0.0
14.774,3074.208,0.00033,0.0,0.0
14.78,3076.538,0.00033,0.0,0.0
14.786,3081.432,0.00032,0.0,0.0
14.792,3078.348,0.00032,0.0,0.0
14.799,3086.021,0.00032,0.0,0.0
14.805,3088.236,0.00032,0.0,0.0
14.811,3081.947,0.00032,0.0,0.0
14.818,3083.197,0.00032,0.0,0.0
14.824,3081.414,0.00032,0.0,0.0
14.83,3080.037,0.00032,0.0,0.0
14.837,3083.394,0.00032,0.0,0.0
14.843,3074.63,0.00033,0.0,0.0
14.849,3093.394,0.00032,0.0,0.0
14.856,3091.037,0.00032,0.0,0.0
14.862,3087.934,0.00032,0.0,0.0
14.868,3080.023,0.00032,0.0,0.0
14.875,3079.144,0.00032,0.0,0.0
14.881,3087.903,0.00032,0.0,0.0
14.887,3085.956,0.00032,0.0,0.0
14.894,3084.34,0.00032,0.0,0.0
14.9,3084.831,0.00032,0.0,0.0
14.906,3090.792,0.00032,0.0,0.0
14.913,3092.907,0.00032,0.0,0.0
14.919,3081.804,0.00032,0.0,0.0
14.925,3080.474,0.00032,0.0,0.0
14.932,3078.332,0.00032,0.0,0.0
14.938,3088.244,0.00032,0.0,0.0
14.944,3087.372,0.00032,0.0,0.0
14.95,3081.539,0.00032,0.0,0.0
14.957,3080.617,0.00032,0.0,0.0
14.963,3079.411,0.00032,0.0,0.0
14.969,3090.215,0.00032,0.0,0.0
14.976,3073.201,0.00033,0.0,0.0
14.982,3081.98,0.00032,0.0,0.0
14.988,3081.937,0.00032,0.0,0.0
14.995,3077.328,0.00032,0.0,0.0
15.001,3082.277,0.00032,0.0,0.0
15.007,3083.439,0.00032,0.0,0.0
15.014,3084.45,0.00032,0.0,0.0
15.02,3080.047,0.00032,0.0,0.0
15.026,3075.435,0.00033,0.0,0.0
15.033,3074.978,0.00033,0.0,0.0
15.039,3065.903,0.00033,0.0,0.0
15.045,3070.106,0.00033,0.0,0.0
15.052,3068.65,0.00033,0.0,0.0
15.058,3063.344,0.00033,0.0,0.0
15.064,3075.404,0.00033,0.0,0.0
15.071,3069.463,0.00033,0.0,0.0
15.077,3061.731,0.00033,0.0,0.0
15.083,3061.699,0.00033,0.0,0.0
15.09,3070.602,0.00033,0.0,0.0
15.096,3064.134,0.00033,0.0,0.0
15.102,3057.182,0.00033,0.0,0.0
15.108,3055.136,0.00033,0.0,0.0
15.115,3062.446,0.00033,0.0,0.0
15.121,3055.451,0.00033,0.0,0.0
15.127,3065.693,0.00033,0.0,0.0
15.134,3064.004,0.00033,0.0,0.0
15.14,3054.537,0.00033,0.0,0.0
15.146,3053.48,0.00033,0.0,0.0
15.153,3054.675,0.00033,0.0,0.0
15.159,3054.264,0.00033,0.0,0.0
15.165,3069.608,0.00033,0.0,0.0
15.172,3064.121,0.00033,0.0,0.0
15.178,3061.617,0.00033,0.0,0.0
15.184,3066.104,0.00033,0.0,0.0
15.191,3063.093,0.00033,0.0,0.0
15.197,3048.94,0.00033,0.0,0.0
15.203,3062.55,0.00033,0.0,0.0
15.21,3058.224,0.00033,0.0,0.0
15.216,3055.261,0.00033,0.0,0.0
15.222,3069.551,0.00033,0.0,0.0
15.229,3069.873,0.00033,0.0,0.0
15.235,3077.394,0.00032,0.0,0.0
15.241,3054.901,0.00033,0.0,0.0
15.248,3076.129,0.00033,0.0,0.0
15.254,3081.13,0.00032,0.0,0.0
15.26,3106.753,0.00032,0.0,0.0
15.266,3119.791,0.00032,0.0,0.0
15.273,3146.775,0.00032,0.0,0.0
15.279,3211.333,0.00031,0.0,0.0
15.285,3315.75,0.0003,0.0,0.0
15.292,3459.795,0.00029,0.0,0.0
15.298,3763.727,0.00027,0.0,0.0
15.304,4147.044,0.00024,0.0,0.0
15.311,4772.116,0.00021,0.0,0.0
15.317,5239.19,0.00019,0.0,0.0
15.323,6156.589,0.00016,0.0,0.0
15.33,5917.859,0.00017,0.0,0.0
15.336,5992.051,0.00017,0.0,0.0
15.342,5477.399,0.00018,0.0,0.0
15.349,4693.933,0.00021,0.0,0.0
15.355,4343.777,0.00023,0.0,0.0
15.361,3687.822,0.00027,0.0,0.0
15.368,3504.589,0.00029,0.0,0.0
15.374,3309.271,0.0003,0.0,0.0
15.38,3212.276,0.00031,0.0,0.0
15.387,3164.778,0.00032,0.0,0.0
15.393,3121.99,0.00032,0.0,0.0
15.399,3102.291,0.00032,0.0,0.0
15.406,3098.202,0.00032,0.0,0.0
15.412,3097.153,0.00032,0.0,0.0
15.418,3075.674,0.00033,0.0,0.0
15.424,3081.448,0.00032,0.0,0.0
15.431,3076.393,0.00033,0.0,0.0
15.437,3066.755,0.00033,0.0,0.0
15.443,3073.475,0.00033,0.0,0.0
15.45,3062.467,0.00033,0.0,0.0
15.456,3061.635,0.00033,0.0,0.0
15.462,3064.742,0.00033,0.0,0.0
15.469,3071.038,0.00033,0.0,0.0
15.475,3056.587,0.00033,0.0,0.0
15.481,3055.346,0.00033,0.0,0.0
15.488,3058.603,0.00033,0.0,0.0
15.494,3048.653,0.00033,0.0,0.0
15.5,3053.294,0.00033,0.0,0.0
15.507,3044.991,0.00033,0.0,0.0
15.513,3056.507,0.00033,0.0,0.0
15.519,3048.822,0.00033,0.0,0.0
15.526,3055.995,0.00033,0.0,0.0
15.532,3045.528,0.00033,0.0,0.0
15.538,3030.222,0.00033,0.0,0.0
15.545,3045.984,0.00033,0.0,0.0
15.551,3037.498,0.00033,0.0,0.0
15.557,3038.357,0.00033,0.0,0.0
15.564,3031.369,0.00033,0.0,0.0
15.57,3017.137,0.00033,0.0,0.0
15.576,3027.639,0.00033,0.0,0.0
15.582,3019.913,0.00033,0.0,0.0
15.589,3008.438,0.00033,0.0,0.0
15.595,3003.673,0.00033,0.0,0.0
15.601,3007.37,0.00033,0.0,0.0
15.608,3005.681,0.00033,0.0,0.0
15.614,2996.122,0.00033,0.0,0.0
15.62,3001.012,0.00033,0.0,0.0
15.627,2992.727,0.00033,0.0,0.0
15.633,2985.788,0.00033,0.0,0.0
15.639,2986.397,0.00033,0.0,0.0
15.646,2988.858,0.00033,0.0,0.0
15.652,2983.67,0.00034,0.0,0.0
15.658,2976.089,0.00034,0.0,0.0
15.665,2965.916,0.00034,0.0,0.0
15.671,2974.41,0.00034,0.0,0.0
15.677,2963.617,0.00034,0.0,0.0
15.684,2962.555,0.00034,0.0,0.0
15.69,2954.34,0.00034,0.0,0.0
15.696,2958.587,0.00034,0.0,0.0
15.703,2950.836,0.00034,0.0,0.0
15.709,2949.078,0.00034,0.0,0.0
15.715,2939.445,0.00034,0.0,0.0
15.722,2939.134,0.00034,0.0,0.0
15.728,2937.661,0.00034,0.0,0.0
15.734,2934.117,0.00034,0.0,0.0
15.74,2923.635,0.00034,0.0,0.0
15.747,2935.567,0.00034,0.0,0.0
15.753,2935.059,0.00034,0.0,0.0
15.759,2924.291,0.00034,0.0,0.0
15.766,2929.863,0.00034,0.0,0.0
15.772,2918.622,0.00034,0.0,0.0
15.778,2914.955,0.00034,0.0,0.0
15.785,2911.672,0.00034,0.0,0.0
15.791,2922.358,0.00034,0.0,0.0
15.797,2908.539,0.00034,0.0,0.0
15.804,2909.298,0.00034,0.0,0.0
15.81,2914.898,0.00034,0.0,0.0
15.816,2909.754,0.00034,0.0,0.0
15.823,2902.153,0.00034,0.0,0.0
15.829,2913.085,0.00034,0.0,0.0
15.835,2901.207,0.00034,0.0,0.0
15.842,2907.339,0.00034,0.0,0.0
15.848,2885.466,0.00035,0.0,0.0
15.854,2889.692,0.00035,0.0,0.0
15.861,2892.619,0.00035,0.0,0.0
15.867,2884.024,0.00035,0.0,0.0
15.873,2888.363,0.00035,0.0,0.0
15.88,2885.639,0.00035,0.0,0.0
15.886,2891.076,0.00035,0.0,0.0
15.892,2879.837,0.00035,0.0,0.0
15.898,2894.488,0.00035,0.0,0.0
15.905,2879.51,0.00035,0.0,0.0
15.911,2884.13,0.00035,0.0,0.0
15.917,2884.598,0.00035,0.0,0.0
15.924,2879.126,0.00035,0.0,0.0
15.93,2880.539,0.00035,0.0,0.0
15.936,2867.792,0.00035,0.0,0.0
15.943,2882.965,0.00035,0.0,0.0
15.949,2873.532,0.00035,0.0,0.0
15.955,2867.188,0.00035,0.0,0.0
15.962,2871.545,0.00035,0.0,0.0
15.968,2876.655,0.00035,0.0,0.0
15.974,2866.638,0.00035,0.0,0.0
15.981,2874.881,0.00035,0.0,0.0
15.987,2874.614,0.00035,0.0,0.0
15.993,2866.88,0.00035,0.0,0.0
16.0,2865.413,0.00035,0.0,0.0
16.006,2867.155,0.00035,0.0,0.0
16.012,2867.944,0.00035,0.0,0.0
16.019,2867.442,0.00035,0.0,0.0
16.025,2859.232,0.00035,0.0,0.0
16.031,2857.829,0.00035,0.0,0.0
16.038,2867.185,0.00035,0.0,0.0
16.044,2866.653,0.00035,0.0,0.0
16.05,2863.694,0.00035,0.0,0.0
16.056,2867.28,0.00035,0.0,0.0
16.063,2852.072,0.00035,0.0,0.0
16.069,2860.492,0.00035,0.0,0.0
16.075,2860.001,0.00035,0.0,0.0
16.082,2851.225,0.00035,0.0,0.0
16.088,2850.504,0.00035,0.0,0.0
16.094,2851.429,0.00035,0.0,0.0
16.101,2856.438,0.00035,0.0,0.0
16.107,2845.923,0.00035,0.0,0.0
16.113,2853.802,0.00035,0.0,0.0
16.12,2848.847,0.00035,0.0,0.0
16.126,2845.953,0.00035,0.0,0.0
16.132,2847.94,0.00035,0.0,0.0
16.139,2855.291,0.00035,0.0,0.0
16.145,2857.104,0.00035,0.0,0.0
16.151,2856.025,0.00035,0.0,0.0
16.158,2849.682,0.00035,0.0,0.0
16.164,2848.566,0.00035,0.0,0.0
16.17,2852.549,0.00035,0.0,0.0
16.177,2845.704,0.00035,0.0,0.0
16.183,2839.178,0.00035,0.0,0.0
16.189,2847.543,0.00035,0.0,0.0
16.196,2850.49,0.00035,0.0,0.0
16.202,2843.907,0.00035,0.0,0.0
16.208,2843.455,0.00035,0.0,0.0
16.214,2835.896,0.00035,0.0,0.0
16.221,2846.214,0.00035,0.0,0.0
16.227,2838.718,0.00035,0.0,0.0
16.233,2842.392,0.00035,0.0,0.0
16.24,2847.662,0.00035,0.0,0.0
16.246,2831.304,0.00035,0.0,0.0
16.252,2833.928,0.00035,0.0,0.0
16.259,2840.186,0.00035,0.0,0.0
16.265,2830.136,0.00035,0.0,0.0
16.271,2839.407,0.00035,0.0,0.0
16.278,2829.16,0.00035,0.0,0.0
16.284,2837.255,0.00035,0.0,0.0
16.29,2841.967,0.00035,0.0,0.0
16.297,2845.005,0.00035,0.0,0.0
16.303,2844.992,0.00035,0.0,0.0
16.309,2844.705,0.00035,0.0,0.0
16.316,2844.068,0.00035,0.0,0.0
16.322,2844.823,0.00035,0.0,0.0
16.328,2841.85,0.00035,0.0,0.0
16.335,2849.032,0.00035,0.0,0.0
16.341,2834.315,0.00035,0.0,0.0
16.347,2835.852,0.00035,0.0,0.0
16.354,2836.848,0.00035,0.0,0.0
16.36,2830.23,0.00035,0.0,0.0
16.366,2830.318,0.00035,0.0,0.0
16.372,2825.261,0.00035,0.0,0.0
16.379,2833.188,0.00035,0.0,0.0
16.385,2832.832,0.00035,0.0,0.0
16.391,2820.089,0.00035,0.0,0.0
16.398,2829.608,0.00035,0.0,0.0
16.404,2829.395,0.00035,0.0,0.0
16.41,2837.446,0.00035,0.0,0.0
16.417,2827.525,0.00035,0.0,0.0
16.423,2829.02,0.00035,0.0,0.0
16.429,2819.969,0.00035,0.0,0.0
16.436,2831.111,0.00035,0.0,0.0
16.442,2836.23,0.00035,0.0,0.0
16.448,2830.826,0.00035,0.0,0.0
16.455,2835.262,0.00035,0.0,0.0
16.461,2841.669,0.00035,0.0,0.0
16.467,2838.386,0.00035,0.0,0.0
16.474,2840.882,0.00035,0.0,0.0
16.48,2837.358,0.00035,0.0,0.0
16.486,2839.499,0.00035,0.0,0.0
16.493,2847.025,0.00035,0.0,0.0
16.499,2854.158,0.00035,0.0,0.0
16.505,2856.053,0.00035,0.0,0.0
16.512,2851.068,0.00035,0.0,0.0
16.518,2856.646,0.00035,0.0,0.0
16.524,2853.235,0.00035,0.0,0.0
16.53,2864.598,0.00035,0.0,0.0
16.537,2842.828,0.00035,0.0,0.0
16.543,2850.62,0.00035,0.0,0.0
16.549,2863.289,0.00035,0.0,0.0
16.556,2850.95,0.00035,0.0,0.0
16.562,2846.042,0.00035,0.0,0.0
16.568,2852.114,0.00035,0.0,0.0
16.575,2857.438,0.00035,0.0,0.0
16.581,2857.74,0.00035,0.0,0.0
16.587,2849.307,0.00035,0.0,0.0
16.594,2867.133,0.00035,0.0,0.0
