"x","y_obs","weight","y_calc","y_bkg"
0.8,2930.204,0.00034,0.0,0.0
0.806,3363.45,0.0003,0.0,0.0
0.813,3522.088,0.00028,0.0,0.0
0.819,3386.716,0.0003,0.0,0.0
0.825,4077.036,0.00025,0.0,0.0
0.832,3864.333,0.00026,0.0,0.0
0.838,4183.557,0.00024,0.0,0.0
0.844,4501.693,0.00022,0.0,0.0
0.851,4369.359,0.00023,0.0,0.0
0.857,4855.406,0.00021,0.0,0.0
0.863,5177.615,0.00019,0.0,0.0
0.87,4796.661,0.00021,0.0,0.0
0.876,5651.504,0.00018,0.0,0.0
0.882,5508.597,0.00018,0.0,0.0
0.888,5789.658,0.00017,0.0,0.0
0.895,6014.15,0.00017,0.0,0.0
0.901,6066.707,0.00016,0.0,0.0
0.907,6560.355,0.00015,0.0,0.0
0.914,6681.961,0.00015,0.0,0.0
0.92,6362.194,0.00016,0.0,0.0
0.926,7014.349,0.00014,0.0,0.0
0.933,7107.053,0.00014,0.0,0.0
0.939,6877.845,0.00015,0.0,0.0
0.945,7494.073,0.00013,0.0,0.0
0.952,7129.959,0.00014,0.0,0.0
0.958,7499.307,0.00013,0.0,0.0
0.964,7564.313,0.00013,0.0,0.0
0.971,7281.302,0.00014,0.0,0.0
0.977,7810.431,0.00013,0.0,0.0
0.983,7740.49,0.00013,0.0,0.0
0.99,7585.14,0.00013,0.0,0.0
0.996,7940.343,0.00013,0.0,0.0
1.002,7679.178,0.00013,0.0,0.0
1.009,7836.134,0.00013,0.0,0.0
1.015,7977.948,0.00013,0.0,0.0
1.021,7695.697,0.00013,0.0,0.0
1.028,8010.49,0.00012,0.0,0.0
1.034,7873.243,0.00013,0.0,0.0
1.04,7833.813,0.00013,0.0,0.0
1.046,7907.226,0.00013,0.0,0.0
1.053,7862.827,0.00013,0.0,0.0
1.059,7854.907,0.00013,0.0,0.0
1.065,7951.685,0.00013,0.0,0.0
1.072,7750.038,0.00013,0.0,0.0
1.078,7868.552,0.00013,0.0,0.0
1.084,7730.746,0.00013,0.0,0.0
1.091,7783.039,0.00013,0.0,0.0
1.097,7785.7,0.00013,0.0,0.0
1.103,7746.07,0.00013,0.0,0.0
1.11,7635.559,0.00013,0.0,0.0
1.116,7667.203,0.00013,0.0,0.0
1.122,7584.368,0.00013,0.0,0.0
1.129,7582.677,0.00013,0.0,0.0
1.135,7541.577,0.00013,0.0,0.0
1.141,7485.336,0.00013,0.0,0.0
1.148,7492.498,0.00013,0.0,0.0
1.154,7365.75,0.00014,0.0,0.0
1.16,7352.184,0.00014,0.0,0.0
1.167,7325.112,0.00014,0.0,0.0
1.173,7287.625,0.00014,0.0,0.0
1.179,7259.888,0.00014,0.0,0.0
1.186,7191.535,0.00014,0.0,0.0
1.192,7162.217,0.00014,0.0,0.0
1.198,7129.116,0.00014,0.0,0.0
1.204,7031.284,0.00014,0.0,0.0
1.211,7025.968,0.00014,0.0,0.0
1.217,6986.105,0.00014,0.0,0.0
1.223,6922.084,0.00014,0.0,0.0
1.23,6871.094,0.00015,0.0,0.0
1.236,6875.086,0.00015,0.0,0.0
1.242,6813.92,0.00015,0.0,0.0
1.249,6831.267,0.00015,0.0,0.0
1.255,6778.974,0.00015,0.0,0.0
1.261,6727.165,0.00015,0.0,0.0
1.268,6755.585,0.00015,0.0,0.0
1.274,6638.239,0.00015,0.0,0.0
1.28,6654.826,0.00015,0.0,0.0
1.287,6605.851,0.00015,0.0,0.0
1.293,6604.978,0.00015,0.0,0.0
1.299,6572.19,0.00015,0.0,0.0
1.306,6566.096,0.00015,0.0,0.0
1.312,6491.508,0.00015,0.0,0.0
1.318,6542.489,0.00015,0.0,0.0
1.325,6485.808,0.00015,0.0,0.0
1.331,6505.432,0.00015,0.0,0.0
1.337,6449.921,0.00016,0.0,0.0
1.344,6444.455,0.00016,0.0,0.0
1.35,6503.748,0.00015,0.0,0.0
1.356,6418.324,0.00016,0.0,0.0
1.362,6416.349,0.00016,0.0,0.0
1.369,6377.438,0.00016,0.0,0.0
1.375,6350.287,0.00016,0.0,0.0
1.381,6367.059,0.00016,0.0,0.0
1.388,6328.269,0.00016,0.0,0.0
1.394,6342.308,0.00016,0.0,0.0
1.4,6379.055,0.00016,0.0,0.0
1.407,6358.809,0.00016,0.0,0.0
1.413,6343.37,0.00016,0.0,0.0
1.419,6338.752,0.00016,0.0,0.0
1.426,6293.57,0.00016,0.0,0.0
1.432,6278.858,0.00016,0.0,0.0
1.438,6329.167,0.00016,0.0,0.0
1.445,6291.912,0.00016,0.0,0.0
1.451,6302.135,0.00016,0.0,0.0
1.457,6289.208,0.00016,0.0,0.0
1.464,6278.064,0.00016,0.0,0.0
1.47,6271.448,0.00016,0.0,0.0
1.476,6265.472,0.00016,0.0,0.0
1.483,6320.62,0.00016,0.0,0.0
1.489,6260.885,0.00016,0.0,0.0
1.495,6239.926,0.00016,0.0,0.0
1.502,6279.938,0.00016,0.0,0.0
1.508,6285.943,0.00016,0.0,0.0
1.514,6278.951,0.00016,0.0,0.0
1.52,6306.594,0.00016,0.0,0.0
1.527,6303.173,0.00016,0.0,0.0
1.533,6342.259,0.00016,0.0,0.0
1.539,6295.292,0.00016,0.0,0.0
1.546,6296.176,0.00016,0.0,0.0
1.552,6323.442,0.00016,0.0,0.0
1.558,6308.467,0.00016,0.0,0.0
1.565,6333.919,0.00016,0.0,0.0
1.571,6320.36,0.00016,0.0,0.0
1.577,6315.626,0.00016,0.0,0.0
1.584,6351.511,0.00016,0.0,0.0
1.59,6386.642,0.00016,0.0,0.0
1.596,6362.842,0.00016,0.0,0.0
1.603,6417.834,0.00016,0.0,0.0
1.609,6370.901,0.00016,0.0,0.0
1.615,6419.853,0.00016,0.0,0.0
1.622,6426.32,0.00016,0.0,0.0
1.628,6436.512,0.00016,0.0,0.0
1.634,6490.099,0.00015,0.0,0.0
1.641,6465.695,0.00015,0.0,0.0
1.647,6444.048,0.00016,0.0,0.0
1.653,6508.873,0.00015,0.0,0.0
1.66,6504.848,0.00015,0.0,0.0
1.666,6539.384,0.00015,0.0,0.0
1.672,6527.421,0.00015,0.0,0.0
1.678,6562.23,0.00015,0.0,0.0
1.685,6549.39,0.00015,0.0,0.0
1.691,6592.4,0.00015,0.0,0.0
1.697,6630.921,0.00015,0.0,0.0
1.704,6618.314,0.00015,0.0,0.0
1.71,6598.735,0.00015,0.0,0.0
1.716,6631.828,0.00015,0.0,0.0
1.723,6666.436,0.00015,0.0,0.0
1.729,6692.076,0.00015,0.0,0.0
1.735,6672.625,0.00015,0.0,0.0
1.742,6718.398,0.00015,0.0,0.0
1.748,6712.365,0.00015,0.0,0.0
1.754,6708.61,0.00015,0.0,0.0
1.761,6727.416,0.00015,0.0,0.0
1.767,6727.217,0.00015,0.0,0.0
1.773,6739.321,0.00015,0.0,0.0
1.78,6734.54,0.00015,0.0,0.0
1.786,6784.976,0.00015,0.0,0.0
1.792,6756.229,0.00015,0.0,0.0
1.799,6773.419,0.00015,0.0,0.0
1.805,6792.202,0.00015,0.0,0.0
1.811,6776.706,0.00015,0.0,0.0
1.818,6760.141,0.00015,0.0,0.0
1.824,6798.87,0.00015,0.0,0.0
1.83,6798.516,0.00015,0.0,0.0
1.836,6760.626,0.00015,0.0,0.0
1.843,6812.733,0.00015,0.0,0.0
1.849,6815.597,0.00015,0.0,0.0
1.855,6811.002,0.00015,0.0,0.0
1.862,6781.84,0.00015,0.0,0.0
1.868,6816.812,0.00015,0.0,0.0
1.874,6787.651,0.00015,0.0,0.0
1.881,6811.354,0.00015,0.0,0.0
1.887,6818.602,0.00015,0.0,0.0
1.893,6810.18,0.00015,0.0,0.0
1.9,6788.506,0.00015,0.0,0.0
1.906,6789.003,0.00015,0.0,0.0
1.912,6828.19,0.00015,0.0,0.0
1.919,6792.037,0.00015,0.0,0.0
1.925,6789.723,0.00015,0.0,0.0
1.931,6792.687,0.00015,0.0,0.0
1.938,6779.725,0.00015,0.0,0.0
1.944,6765.543,0.00015,0.0,0.0
1.95,6791.559,0.00015,0.0,0.0
1.957,6803.282,0.00015,0.0,0.0
1.963,6804.853,0.00015,0.0,0.0
1.969,6794.572,0.00015,0.0,0.0
1.976,6791.688,0.00015,0.0,0.0
1.982,6822.614,0.00015,0.0,0.0
1.988,6786.393,0.00015,0.0,0.0
1.994,6811.052,0.00015,0.0,0.0
2.001,6815.255,0.00015,0.0,0.0
2.007,6833.981,0.00015,0.0,0.0
2.013,6796.454,0.00015,0.0,0.0
2.02,6817.126,0.00015,0.0,0.0
2.026,6840.9,0.00015,0.0,0.0
2.032,6822.273,0.00015,0.0,0.0
2.039,6830.216,0.00015,0.0,0.0
2.045,6837.569,0.00015,0.0,0.0
2.051,6855.482,0.00015,0.0,0.0
2.058,6859.725,0.00015,0.0,0.0
2.064,6848.223,0.00015,0.0,0.0
2.07,6858.711,0.00015,0.0,0.0
2.077,6866.795,0.00015,0.0,0.0
2.083,6869.307,0.00015,0.0,0.0
2.089,6850.328,0.00015,0.0,0.0
2.096,6879.936,0.00015,0.0,0.0
2.102,6869.834,0.00015,0.0,0.0
2.108,6914.835,0.00014,0.0,0.0
2.115,6905.562,0.00014,0.0,0.0
2.121,6884.223,0.00015,0.0,0.0
2.127,6932.376,0.00014,0.0,0.0
2.134,6926.473,0.00014,0.0,0.0
2.14,6967.497,0.00014,0.0,0.0
2.146,6998.763,0.00014,0.0,0.0
2.152,6992.456,0.00014,0.0,0.0
2.159,7001.741,0.00014,0.0,0.0
2.165,6979.676,0.00014,0.0,0.0
2.171,7015.199,0.00014,0.0,0.0
2.178,7028.513,0.00014,0.0,0.0
2.184,7040.976,0.00014,0.0,0.0
2.19,7055.179,0.00014,0.0,0.0
2.197,7063.251,0.00014,0.0,0.0
2.203,7068.6,0.00014,0.0,0.0
2.209,7095.774,0.00014,0.0,0.0
2.216,7131.056,0.00014,0.0,0.0
2.222,7129.463,0.00014,0.0,0.0
2.228,7127.865,0.00014,0.0,0.0
2.235,7171.128,0.00014,0.0,0.0
2.241,7193.591,0.00014,0.0,0.0
2.247,7187.247,0.00014,0.0,0.0
2.254,7219.539,0.00014,0.0,0.0
2.26,7256.626,0.00014,0.0,0.0
2.266,7283.958,0.00014,0.0,0.0
2.273,7278.538,0.00014,0.0,0.0
2.279,7318.658,0.00014,0.0,0.0
2.285,7340.8,0.00014,0.0,0.0
2.292,7347.809,0.00014,0.0,0.0
2.298,7375.567,0.00014,0.0,0.0
2.304,7413.987,0.00013,0.0,0.0
2.31,7431.916,0.00013,0.0,0.0
2.317,7458.797,0.00013,0.0,0.0
2.323,7479.899,0.00013,0.0,0.0
2.329,7511.439,0.00013,0.0,0.0
2.336,7528.565,0.00013,0.0,0.0
2.342,7579.293,0.00013,0.0,0.0
2.348,7572.359,0.00013,0.0,0.0
2.355,7623.506,0.00013,0.0,0.0
2.361,7632.083,0.00013,0.0,0.0
2.367,7714.149,0.00013,0.0,0.0
2.374,7712.72,0.00013,0.0,0.0
2.38,7767.789,0.00013,0.0,0.0
2.386,7842.36,0.00013,0.0,0.0
2.393,7970.692,0.00013,0.0,0.0
2.399,8073.806,0.00012,0.0,0.0
2.405,8279.587,0.00012,0.0,0.0
2.412,8524.728,0.00012,0.0,0.0
2.418,8717.912,0.00011,0.0,0.0
2.424,8964.095,0.00011,0.0,0.0
2.431,8982.07,0.00011,0.0,0.0
2.437,8830.598,0.00011,0.0,0.0
2.443,8671.72,0.00012,0.0,0.0
2.45,8433.724,0.00012,0.0,0.0
2.456,8330.994,0.00012,0.0,0.0
2.462,8245.644,0.00012,0.0,0.0
2.468,8222.313,0.00012,0.0,0.0
2.475,8198.685,0.00012,0.0,0.0
2.481,8219.576,0.00012,0.0,0.0
2.487,8231.041,0.00012,0.0,0.0
2.494,8242.736,0.00012,0.0,0.0
2.5,8280.633,0.00012,0.0,0.0
2.506,8334.758,0.00012,0.0,0.0
2.513,8323.639,0.00012,0.0,0.0
2.519,8385.397,0.00012,0.0,0.0
2.525,8420.257,0.00012,0.0,0.0
2.532,8438.549,0.00012,0.0,0.0
2.538,8462.512,0.00012,0.0,0.0
2.544,8506.562,0.00012,0.0,0.0
2.551,8534.787,0.00012,0.0,0.0
2.557,8565.087,0.00012,0.0,0.0
2.563,8596.468,0.00012,0.0,0.0
2.57,8633.789,0.00012,0.0,0.0
2.576,8662.458,0.00012,0.0,0.0
2.582,8683.923,0.00012,0.0,0.0
2.589,8690.226,0.00012,0.0,0.0
2.595,8726.181,0.00011,0.0,0.0
2.601,8756.322,0.00011,0.0,0.0
2.608,8801.942,0.00011,0.0,0.0
2.614,8812.638,0.00011,0.0,0.0
2.62,8908.659,0.00011,0.0,0.0
2.626,8896.101,0.00011,0.0,0.0
2.633,8975.22,0.00011,0.0,0.0
2.639,9008.654,0.00011,0.0,0.0
2.645,9043.73,0.00011,0.0,0.0
2.652,9066.044,0.00011,0.0,0.0
2.658,9073.7,0.00011,0.0,0.0
2.664,9133.25,0.00011,0.0,0.0
2.671,9160.111,0.00011,0.0,0.0
2.677,9206.553,0.00011,0.0,0.0
2.683,9226.379,0.00011,0.0,0.0
2.69,9269.691,0.00011,0.0,0.0
2.696,9291.84,0.00011,0.0,0.0
2.702,9333.476,0.00011,0.0,0.0
2.709,9355.712,0.00011,0.0,0.0
2.715,9421.845,0.00011,0.0,0.0
2.721,9410.213,0.00011,0.0,0.0
2.728,9483.721,0.00011,0.0,0.0
2.734,9511.877,0.00011,0.0,0.0
2.74,9535.643,0.0001,0.0,0.0
2.747,9571.75,0.0001,0.0,0.0
2.753,9619.377,0.0001,0.0,0.0
2.759,9669.968,0.0001,0.0,0.0
2.766,9713.261,0.0001,0.0,0.0
2.772,9722.106,0.0001,0.0,0.0
2.778,9772.615,0.0001,0.0,0.0
2.784,9811.576,0.0001,0.0,0.0
2.791,9824.454,0.0001,0.0,0.0
2.797,9865.508,0.0001,0.0,0.0
2.803,9887.323,0.0001,0.0,0.0
2.81,9978.086,0.0001,0.0,0.0
2.816,9991.182,0.0001,0.0,0.0
2.822,10034.926,0.0001,0.0,0.0
2.829,10083.737,0.0001,0.0,0.0
2.835,10120.289,0.0001,0.0,0.0
2.841,10157.511,0.0001,0.0,0.0
2.848,10200.478,0.0001,0.0,0.0
2.854,10211.967,0.0001,0.0,0.0
2.86,10246.076,0.0001,0.0,0.0
2.867,10275.377,0.0001,0.0,0.0
2.873,10292.869,0.0001,0.0,0.0
2.879,10365.065,0.0001,0.0,0.0
2.886,10392.815,0.0001,0.0,0.0
2.892,10454.855,0.0001,0.0,0.0
2.898,10456.136,0.0001,0.0,0.0
2.905,10546.334,0.00009,0.0,0.0
2.911,10556.288,0.00009,0.0,0.0
2.917,10598.66,0.00009,0.0,0.0
2.924,10643.982,0.00009,0.0,0.0
2.93,10656.836,0.00009,0.0,0.0
2.936,10704.113,0.00009,0.0,0.0
2.942,10706.65,0.00009,0.0,0.0
2.949,10742.706,0.00009,0.0,0.0
2.955,10781.462,0.00009,0.0,0.0
2.961,10804.129,0.00009,0.0,0.0
2.968,10845.755,0.00009,0.0,0.0
2.974,10841.905,0.00009,0.0,0.0
2.98,10891.75,0.00009,0.0,0.0
2.987,10928.35,0.00009,0.0,0.0
2.993,10938.537,0.00009,0.0,0.0
2.999,10957.929,0.00009,0.0,0.0
3.006,11017.573,0.00009,0.0,0.0
3.012,11000.758,0.00009,0.0,0.0
3.018,11025.353,0.00009,0.0,0.0
3.025,11064.949,0.00009,0.0,0.0
3.031,11070.639,0.00009,0.0,0.0
3.037,11095.575,0.00009,0.0,0.0
3.044,11098.65,0.00009,0.0,0.0
3.05,11137.699,0.00009,0.0,0.0
3.056,11130.915,0.00009,0.0,0.0
3.063,11159.83,0.00009,0.0,0.0
3.069,11154.248,0.00009,0.0,0.0
3.075,11160.097,0.00009,0.0,0.0
3.082,11201.666,0.00009,0.0,0.0
3.088,11158.881,0.00009,0.0,0.0
3.094,11177.24,0.00009,0.0,0.0
3.1,11171.687,0.00009,0.0,0.0
3.107,11171.4,0.00009,0.0,0.0
3.113,11198.636,0.00009,0.0,0.0
3.119,11176.144,0.00009,0.0,0.0
3.126,11150.422,0.00009,0.0,0.0
3.132,11183.599,0.00009,0.0,0.0
3.138,11161.69,0.00009,0.0,0.0
3.145,11120.727,0.00009,0.0,0.0
3.151,11169.528,0.00009,0.0,0.0
3.157,11141.207,0.00009,0.0,0.0
3.164,11108.254,0.00009,0.0,0.0
3.17,11099.913,0.00009,0.0,0.0
3.176,11092.728,0.00009,0.0,0.0
3.183,11085.929,0.00009,0.0,0.0
3.189,11094.686,0.00009,0.0,0.0
3.195,11074.568,0.00009,0.0,0.0
3.202,11095.094,0.00009,0.0,0.0
3.208,11059.057,0.00009,0.0,0.0
3.214,11024.652,0.00009,0.0,0.0
3.221,11000.099,0.00009,0.0,0.0
3.227,10982.355,0.00009,0.0,0.0
3.233,10960.685,0.00009,0.0,0.0
3.24,10948.853,0.00009,0.0,0.0
3.246,10940.771,0.00009,0.0,0.0
3.252,10916.62,0.00009,0.0,0.0
3.258,10860.443,0.00009,0.0,0.0
3.265,10847.775,0.00009,0.0,0.0
3.271,10839.604,0.00009,0.0,0.0
3.277,10806.965,0.00009,0.0,0.0
3.284,10796.623,0.00009,0.0,0.0
3.29,10736.93,0.00009,0.0,0.0
3.296,10714.903,0.00009,0.0,0.0
3.303,10720.455,0.00009,0.0,0.0
3.309,10698.295,0.00009,0.0,0.0
3.315,10630.116,0.00009,0.0,0.0
3.322,10609.51,0.00009,0.0,0.0
3.328,10568.066,0.00009,0.0,0.0
3.334,10540.088,0.00009,0.0,0.0
3.341,10511.896,0.0001,0.0,0.0
3.347,10508.521,0.0001,0.0,0.0
3.353,10456.884,0.0001,0.0,0.0
3.36,10450.122,0.0001,0.0,0.0
3.366,10425.939,0.0001,0.0,0.0
3.372,10378.54,0.0001,0.0,0.0
3.379,10353.053,0.0001,0.0,0.0
3.385,10329.041,0.0001,0.0,0.0
3.391,10324.656,0.0001,0.0,0.0
3.398,10293.875,0.0001,0.0,0.0
3.404,10264.794,0.0001,0.0,0.0
3.41,10265.755,0.0001,0.0,0.0
3.416,10236.229,0.0001,0.0,0.0
3.423,10240.444,0.0001,0.0,0.0
3.429,10164.867,0.0001,0.0,0.0
3.435,10169.753,0.0001,0.0,0.0
3.442,10136.215,0.0001,0.0,0.0
3.448,10094.373,0.0001,0.0,0.0
3.454,10065.385,0.0001,0.0,0.0
3.461,10011.318,0.0001,0.0,0.0
3.467,10030.798,0.0001,0.0,0.0
3.473,9976.753,0.0001,0.0,0.0
3.48,9974.505,0.0001,0.0,0.0
3.486,9964.881,0.0001,0.0,0.0
3.492,9913.945,0.0001,0.0,0.0
3.499,9897.712,0.0001,0.0,0.0
3.505,9883.514,0.0001,0.0,0.0
3.511,9857.3,0.0001,0.0,0.0
3.518,9838.131,0.0001,0.0,0.0
3.524,9813.294,0.0001,0.0,0.0
3.53,9787.443,0.0001,0.0,0.0
3.537,9778.613,0.0001,0.0,0.0
3.543,9765.875,0.0001,0.0,0.0
3.549,9734.839,0.0001,0.0,0.0
3.556,9749.575,0.0001,0.0,0.0
3.562,9721.152,0.0001,0.0,0.0
3.568,9705.387,0.0001,0.0,0.0
3.574,9697.454,0.0001,0.0,0.0
3.581,9641.076,0.0001,0.0,0.0
3.587,9682.806,0.0001,0.0,0.0
3.593,9646.984,0.0001,0.0,0.0
3.6,9633.751,0.0001,0.0,0.0
3.606,9661.152,0.0001,0.0,0.0
3.612,9641.415,0.0001,0.0,0.0
3.619,9630.618,0.0001,0.0,0.0
3.625,9602.666,0.0001,0.0,0.0
3.631,9588.611,0.0001,0.0,0.0
3.638,9595.782,0.0001,0.0,0.0
3.644,9568.628,0.0001,0.0,0.0
3.65,9610.683,0.0001,0.0,0.0
3.657,9589.542,0.0001,0.0,0.0
3.663,9588.269,0.0001,0.0,0.0
3.669,9611.933,0.0001,0.0,0.0
3.676,9599.094,0.0001,0.0,0.0
3.682,9601.066,0.0001,0.0,0.0
3.688,9607.352,0.0001,0.0,0.0
3.695,9630.088,0.0001,0.0,0.0
3.701,9612.344,0.0001,0.0,0.0
3.707,9633.845,0.0001,0.0,0.0
3.714,9602.591,0.0001,0.0,0.0
3.72,9624.287,0.0001,0.0,0.0
3.726,9603.275,0.0001,0.0,0.0
3.732,9613.716,0.0001,0.0,0.0
3.739,9623.258,0.0001,0.0,0.0
3.745,9606.062,0.0001,0.0,0.0
3.751,9631.268,0.0001,0.0,0.0
3.758,9630.728,0.0001,0.0,0.0
3.764,9601.36,0.0001,0.0,0.0
3.77,9616.476,0.0001,0.0,0.0
3.777,9613.984,0.0001,0.0,0.0
3.783,9615.15,0.0001,0.0,0.0
3.789,9665.567,0.0001,0.0,0.0
3.796,9594.228,0.0001,0.0,0.0
3.802,9622.053,0.0001,0.0,0.0
3.808,9614.665,0.0001,0.0,0.0
3.815,9568.617,0.0001,0.0,0.0
3.821,9578.256,0.0001,0.0,0.0
3.827,9581.47,0.0001,0.0,0.0
3.834,9506.918,0.00011,0.0,0.0
3.84,9553.119,0.0001,0.0,0.0
3.846,9515.449,0.00011,0.0,0.0
3.853,9463.931,0.00011,0.0,0.0
3.859,9515.611,0.00011,0.0,0.0
3.865,9441.184,0.00011,0.0,0.0
3.872,9437.992,0.00011,0.0,0.0
3.878,9384.429,0.00011,0.0,0.0
3.884,9330.2,0.00011,0.0,0.0
3.89,9336.308,0.00011,0.0,0.0
3.897,9273.72,0.00011,0.0,0.0
3.903,9247.45,0.00011,0.0,0.0
3.909,9251.304,0.00011,0.0,0.0
3.916,9178.091,0.00011,0.0,0.0
3.922,9181.36,0.00011,0.0,0.0
3.928,9130.757,0.00011,0.0,0.0
3.935,9070.25,0.00011,0.0,0.0
3.941,9117.017,0.00011,0.0,0.0
3.947,9008.407,0.00011,0.0,0.0
3.954,9016.412,0.00011,0.0,0.0
3.96,8986.14,0.00011,0.0,0.0
3.966,8914.738,0.00011,0.0,0.0
3.973,8943.444,0.00011,0.0,0.0
3.979,8888.966,0.00011,0.0,0.0
3.985,8798.364,0.00011,0.0,0.0
3.992,8874.24,0.00011,0.0,0.0
3.998,8768.781,0.00011,0.0,0.0
4.004,8765.166,0.00011,0.0,0.0
4.011,8748.094,0.00011,0.0,0.0
4.017,8664.827,0.00012,0.0,0.0
4.023,8737.93,0.00011,0.0,0.0
4.03,8652.538,0.00012,0.0,0.0
4.036,8582.007,0.00012,0.0,0.0
4.042,8666.23,0.00012,0.0,0.0
4.048,8546.092,0.00012,0.0,0.0
4.055,8512.588,0.00012,0.0,0.0
4.061,8550.277,0.00012,0.0,0.0
4.067,8545.082,0.00012,0.0,0.0
4.074,8499.126,0.00012,0.0,0.0
4.08,8459.876,0.00012,0.0,0.0
4.086,8397.488,0.00012,0.0,0.0
4.093,8489.373,0.00012,0.0,0.0
4.099,8365.651,0.00012,0.0,0.0
4.105,8395.387,0.00012,0.0,0.0
4.112,8410.822,0.00012,0.0,0.0
4.118,8305.361,0.00012,0.0,0.0
4.124,8375.883,0.00012,0.0,0.0
4.131,8309.401,0.00012,0.0,0.0
4.137,8309.631,0.00012,0.0,0.0
4.143,8375.96,0.00012,0.0,0.0
4.15,8247.518,0.00012,0.0,0.0
4.156,8302.259,0.00012,0.0,0.0
4.162,8320.077,0.00012,0.0,0.0
4.169,8233.615,0.00012,0.0,0.0
4.175,8310.65,0.00012,0.0,0.0
4.181,8265.734,0.00012,0.0,0.0
4.188,8174.59,0.00012,0.0,0.0
4.194,8286.751,0.00012,0.0,0.0
4.2,8231.243,0.00012,0.0,0.0
4.206,8219.432,0.00012,0.0,0.0
4.213,8279.051,0.00012,0.0,0.0
4.219,8176.221,0.00012,0.0,0.0
4.225,8239.338,0.00012,0.0,0.0
4.232,8198.689,0.00012,0.0,0.0
4.238,8175.386,0.00012,0.0,0.0
4.244,8236.091,0.00012,0.0,0.0
4.251,8171.952,0.00012,0.0,0.0
4.257,8137.168,0.00012,0.0,0.0
4.263,8213.178,0.00012,0.0,0.0
4.27,8140.904,0.00012,0.0,0.0
4.276,8233.3,0.00012,0.0,0.0
4.282,8178.196,0.00012,0.0,0.0
4.289,8187.7,0.00012,0.0,0.0
4.295,8206.462,0.00012,0.0,0.0
4.301,8161.444,0.00012,0.0,0.0
4.308,8215.407,0.00012,0.0,0.0
4.314,8156.676,0.00012,0.0,0.0
4.32,8165.784,0.00012,0.0,0.0
4.327,8135.797,0.00012,0.0,0.0
4.333,8246.885,0.00012,0.0,0.0
4.339,8126.082,0.00012,0.0,0.0
4.346,8238.549,0.00012,0.0,0.0
4.352,8217.25,0.00012,0.0,0.0
4.358,8177.274,0.00012,0.0,0.0
4.364,8303.71,0.00012,0.0,0.0
4.371,8144.056,0.00012,0.0,0.0
4.377,8371.167,0.00012,0.0,0.0
4.383,8166.339,0.00012,0.0,0.0
4.39,8260.091,0.00012,0.0,0.0
4.396,8328.166,0.00012,0.0,0.0
4.402,8358.047,0.00012,0.0,0.0
4.409,8308.348,0.00012,0.0,0.0
4.415,8433.948,0.00012,0.0,0.0
4.421,8417.748,0.00012,0.0,0.0
4.428,8372.486,0.00012,0.0,0.0
4.434,8573.386,0.00012,0.0,0.0
4.44,8430.906,0.00012,0.0,0.0
4.447,8594.341,0.00012,0.0,0.0
4.453,8539.116,0.00012,0.0,0.0
4.459,8794.138,0.00011,0.0,0.0
4.466,8673.599,0.00012,0.0,0.0
4.472,8663.223,0.00012,0.0,0.0
4.478,8800.039,0.00011,0.0,0.0
4.485,9063.933,0.00011,0.0,0.0
4.491,8930.215,0.00011,0.0,0.0
4.497,8916.48,0.00011,0.0,0.0
4.504,10074.91,0.0001,0.0,0.0
4.51,9286.425,0.00011,0.0,0.0
4.516,11774.95,0.00008,0.0,0.0
4.522,10205.641,0.0001,0.0,0.0
4.529,11339.598,0.00009,0.0,0.0
4.535,22487.094,0.00004,0.0,0.0
4.541,14370.284,0.00007,0.0,0.0
4.548,22365.97,0.00004,0.0,0.0
4.554,42855.245,0.00002,0.0,0.0
4.56,25603.788,0.00004,0.0,0.0
4.567,57009.052,0.00002,0.0,0.0
4.573,25774.643,0.00004,0.0,0.0
4.579,26636.311,0.00004,0.0,0.0
4.586,39862.915,0.00003,0.0,0.0
4.592,13107.622,0.00008,0.0,0.0
4.598,23044.191,0.00004,0.0,0.0
4.605,11319.484,0.00009,0.0,0.0
4.611,9747.025,0.0001,0.0,0.0
4.617,12090.741,0.00008,0.0,0.0
4.624,9001.389,0.00011,0.0,0.0
4.63,9125.548,0.00011,0.0,0.0
4.636,9213.518,0.00011,0.0,0.0
4.643,8843.711,0.00011,0.0,0.0
4.649,8741.729,0.00011,0.0,0.0
4.655,8623.034,0.00012,0.0,0.0
4.662,8460.756,0.00012,0.0,0.0
4.668,8389.875,0.00012,0.0,0.0
4.674,8250.694,0.00012,0.0,0.0
4.68,8123.092,0.00012,0.0,0.0
4.687,8239.152,0.00012,0.0,0.0
4.693,7890.077,0.00013,0.0,0.0
4.699,7971.311,0.00013,0.0,0.0
4.706,7859.281,0.00013,0.0,0.0
4.712,7852.503,0.00013,0.0,0.0
4.718,7790.529,0.00013,0.0,0.0
4.725,7671.205,0.00013,0.0,0.0
4.731,7727.794,0.00013,0.0,0.0
4.737,7559.335,0.00013,0.0,0.0
4.744,7583.1,0.00013,0.0,0.0
4.75,7486.786,0.00013,0.0,0.0
4.756,7503.38,0.00013,0.0,0.0
4.763,7324.492,0.00014,0.0,0.0
4.769,7506.258,0.00013,0.0,0.0
4.775,7293.377,0.00014,0.0,0.0
4.782,7284.154,0.00014,0.0,0.0
4.788,7246.344,0.00014,0.0,0.0
4.794,7226.111,0.00014,0.0,0.0
4.801,7239.192,0.00014,0.0,0.0
4.807,7183.728,0.00014,0.0,0.0
4.813,7261.433,0.00014,0.0,0.0
4.82,7158.164,0.00014,0.0,0.0
4.826,7314.464,0.00014,0.0,0.0
4.832,7413.385,0.00013,0.0,0.0
4.838,7609.429,0.00013,0.0,0.0
4.845,7802.786,0.00013,0.0,0.0
4.851,8057.953,0.00012,0.0,0.0
4.857,8101.478,0.00012,0.0,0.0
4.864,8095.067,0.00012,0.0,0.0
4.87,7876.459,0.00013,0.0,0.0
4.876,7558.817,0.00013,0.0,0.0
4.883,7358.722,0.00014,0.0,0.0
4.889,7120.646,0.00014,0.0,0.0
4.895,6921.167,0.00014,0.0,0.0
4.902,6898.394,0.00014,0.0,0.0
4.908,6757.158,0.00015,0.0,0.0
4.914,6725.911,0.00015,0.0,0.0
4.921,6676.665,0.00015,0.0,0.0
4.927,6649.522,0.00015,0.0,0.0
4.933,6598.173,0.00015,0.0,0.0
4.94,6581.404,0.00015,0.0,0.0
4.946,6548.212,0.00015,0.0,0.0
4.952,6525.143,0.00015,0.0,0.0
4.959,6484.312,0.00015,0.0,0.0
4.965,6496.868,0.00015,0.0,0.0
4.971,6467.035,0.00015,0.0,0.0
4.978,6389.934,0.00016,0.0,0.0
4.984,6397.291,0.00016,0.0,0.0
4.99,6336.164,0.00016,0.0,0.0
4.996,6375.382,0.00016,0.0,0.0
5.003,6343.367,0.00016,0.0,0.0
5.009,6331.718,0.00016,0.0,0.0
5.015,6297.732,0.00016,0.0,0.0
5.022,6253.199,0.00016,0.0,0.0
5.028,6246.909,0.00016,0.0,0.0
5.034,6237.853,0.00016,0.0,0.0
5.041,6246.495,0.00016,0.0,0.0
5.047,6199.117,0.00016,0.0,0.0
5.053,6238.429,0.00016,0.0,0.0
5.06,6122.079,0.00016,0.0,0.0
5.066,6164.911,0.00016,0.0,0.0
5.072,6127.482,0.00016,0.0,0.0
5.079,6133.807,0.00016,0.0,0.0
5.085,6104.383,0.00016,0.0,0.0
5.091,6106.193,0.00016,0.0,0.0
5.098,6054.398,0.00017,0.0,0.0
5.104,6083.0,0.00016,0.0,0.0
5.11,6005.197,0.00017,0.0,0.0
5.117,6027.831,0.00017,0.0,0.0
5.123,6030.05,0.00017,0.0,0.0
5.129,5980.525,0.00017,0.0,0.0
5.136,6012.709,0.00017,0.0,0.0
5.142,5977.51,0.00017,0.0,0.0
5.148,5971.33,0.00017,0.0,0.0
5.154,5957.466,0.00017,0.0,0.0
5.161,5916.361,0.00017,0.0,0.0
5.167,5947.228,0.00017,0.0,0.0
5.173,5944.003,0.00017,0.0,0.0
5.18,5896.798,0.00017,0.0,0.0
5.186,5899.71,0.00017,0.0,0.0
5.192,5866.572,0.00017,0.0,0.0
5.199,5871.024,0.00017,0.0,0.0
5.205,5897.085,0.00017,0.0,0.0
5.211,5835.958,0.00017,0.0,0.0
5.218,5827.235,0.00017,0.0,0.0
5.224,5825.595,0.00017,0.0,0.0
5.23,5825.759,0.00017,0.0,0.0
5.237,5821.42,0.00017,0.0,0.0
5.243,5797.154,0.00017,0.0,0.0
5.249,5803.446,0.00017,0.0,0.0
5.256,5813.769,0.00017,0.0,0.0
5.262,5758.484,0.00017,0.0,0.0
5.268,5796.499,0.00017,0.0,0.0
5.275,5767.185,0.00017,0.0,0.0
5.281,5762.027,0.00017,0.0,0.0
5.287,5742.43,0.00017,0.0,0.0
5.294,5732.967,0.00017,0.0,0.0
5.3,5734.921,0.00017,0.0,0.0
5.306,5722.661,0.00017,0.0,0.0
5.312,5701.318,0.00018,0.0,0.0
5.319,5716.982,0.00017,0.0,0.0
5.325,5720.86,0.00017,0.0,0.0
5.331,5689.136,0.00018,0.0,0.0
5.338,5713.196,0.00018,0.0,0.0
5.344,5669.09,0.00018,0.0,0.0
5.35,5690.128,0.00018,0.0,0.0
5.357,5673.591,0.00018,0.0,0.0
5.363,5668.25,0.00018,0.0,0.0
5.369,5659.803,0.00018,0.0,0.0
5.376,5667.721,0.00018,0.0,0.0
5.382,5648.443,0.00018,0.0,0.0
5.388,5671.925,0.00018,0.0,0.0
5.395,5635.104,0.00018,0.0,0.0
5.401,5654.781,0.00018,0.0,0.0
5.407,5667.843,0.00018,0.0,0.0
5.414,5641.021,0.00018,0.0,0.0
5.42,5639.528,0.00018,0.0,0.0
5.426,5652.711,0.00018,0.0,0.0
5.433,5636.694,0.00018,0.0,0.0
5.439,5633.695,0.00018,0.0,0.0
5.445,5621.989,0.00018,0.0,0.0
5.452,5650.376,0.00018,0.0,0.0
5.458,5662.3,0.00018,0.0,0.0
5.464,5641.974,0.00018,0.0,0.0
5.47,5649.532,0.00018,0.0,0.0
5.477,5639.876,0.00018,0.0,0.0
5.483,5633.121,0.00018,0.0,0.0
5.489,5632.671,0.00018,0.0,0.0
5.496,5625.338,0.00018,0.0,0.0
5.502,5642.669,0.00018,0.0,0.0
5.508,5639.041,0.00018,0.0,0.0
5.515,5611.917,0.00018,0.0,0.0
5.521,5629.813,0.00018,0.0,0.0
5.527,5647.751,0.00018,0.0,0.0
5.534,5629.959,0.00018,0.0,0.0
5.54,5654.86,0.00018,0.0,0.0
5.546,5613.555,0.00018,0.0,0.0
5.553,5624.375,0.00018,0.0,0.0
5.559,5646.415,0.00018,0.0,0.0
5.565,5623.614,0.00018,0.0,0.0
5.572,5644.307,0.00018,0.0,0.0
5.578,5634.024,0.00018,0.0,0.0
5.584,5640.079,0.00018,0.0,0.0
5.591,5647.252,0.00018,0.0,0.0
5.597,5615.1,0.00018,0.0,0.0
5.603,5662.502,0.00018,0.0,0.0
5.61,5648.452,0.00018,0.0,0.0
5.616,5642.501,0.00018,0.0,0.0
5.622,5679.419,0.00018,0.0,0.0
5.628,5636.063,0.00018,0.0,0.0
5.635,5651.215,0.00018,0.0,0.0
5.641,5673.786,0.00018,0.0,0.0
5.647,5653.911,0.00018,0.0,0.0
5.654,5677.935,0.00018,0.0,0.0
5.66,5674.132,0.00018,0.0,0.0
5.666,5658.862,0.00018,0.0,0.0
5.673,5670.875,0.00018,0.0,0.0
5.679,5648.215,0.00018,0.0,0.0
5.685,5682.361,0.00018,0.0,0.0
5.692,5659.727,0.00018,0.0,0.0
5.698,5701.021,0.00018,0.0,0.0
5.704,5690.049,0.00018,0.0,0.0
5.711,5684.337,0.00018,0.0,0.0
5.717,5691.903,0.00018,0.0,0.0
5.723,5708.142,0.00018,0.0,0.0
5.73,5731.874,0.00017,0.0,0.0
5.736,5695.457,0.00018,0.0,0.0
5.742,5719.69,0.00017,0.0,0.0
5.749,5715.055,0.00017,0.0,0.0
5.755,5722.786,0.00017,0.0,0.0
5.761,5713.821,0.00018,0.0,0.0
5.768,5717.334,0.00017,0.0,0.0
5.774,5751.396,0.00017,0.0,0.0
5.78,5752.388,0.00017,0.0,0.0
5.786,5732.82,0.00017,0.0,0.0
5.793,5754.674,0.00017,0.0,0.0
5.799,5781.792,0.00017,0.0,0.0
5.805,5804.904,0.00017,0.0,0.0
5.812,5856.436,0.00017,0.0,0.0
5.818,5841.399,0.00017,0.0,0.0
5.824,5910.783,0.00017,0.0,0.0
5.831,5963.152,0.00017,0.0,0.0
5.837,6032.46,0.00017,0.0,0.0
5.843,6176.359,0.00016,0.0,0.0
5.85,6415.707,0.00016,0.0,0.0
5.856,6724.108,0.00015,0.0,0.0
5.862,7180.743,0.00014,0.0,0.0
5.869,7704.03,0.00013,0.0,0.0
5.875,8222.159,0.00012,0.0,0.0
5.881,8410.19,0.00012,0.0,0.0
5.888,8281.883,0.00012,0.0,0.0
5.894,7897.07,0.00013,0.0,0.0
5.9,7373.743,0.00014,0.0,0.0
5.907,6927.113,0.00014,0.0,0.0
5.913,6499.064,0.00015,0.0,0.0
5.919,6272.55,0.00016,0.0,0.0
5.926,6155.815,0.00016,0.0,0.0
5.932,6064.562,0.00016,0.0,0.0
5.938,5980.14,0.00017,0.0,0.0
5.944,5976.736,0.00017,0.0,0.0
5.951,5907.766,0.00017,0.0,0.0
5.957,5933.065,0.00017,0.0,0.0
5.963,5921.952,0.00017,0.0,0.0
5.97,5893.254,0.00017,0.0,0.0
5.976,5892.236,0.00017,0.0,0.0
5.982,5929.285,0.00017,0.0,0.0
5.989,5880.73,0.00017,0.0,0.0
5.995,5863.803,0.00017,0.0,0.0
6.001,5920.917,0.00017,0.0,0.0
6.008,5884.426,0.00017,0.0,0.0
6.014,5876.565,0.00017,0.0,0.0
6.02,5846.549,0.00017,0.0,0.0
6.027,5883.658,0.00017,0.0,0.0
6.033,5888.274,0.00017,0.0,0.0
6.039,5853.81,0.00017,0.0,0.0
6.046,5895.09,0.00017,0.0,0.0
6.052,5814.246,0.00017,0.0,0.0
6.058,5907.099,0.00017,0.0,0.0
6.065,5888.436,0.00017,0.0,0.0
6.071,5816.536,0.00017,0.0,0.0
6.077,5867.92,0.00017,0.0,0.0
6.084,5848.296,0.00017,0.0,0.0
6.09,5862.546,0.00017,0.0,0.0
6.096,5860.335,0.00017,0.0,0.0
6.102,5850.67,0.00017,0.0,0.0
6.109,5864.431,0.00017,0.0,0.0
6.115,5859.425,0.00017,0.0,0.0
6.121,5855.809,0.00017,0.0,0.0
6.128,5866.905,0.00017,0.0,0.0
6.134,5887.29,0.00017,0.0,0.0
6.14,5855.718,0.00017,0.0,0.0
6.147,5901.18,0.00017,0.0,0.0
6.153,5861.135,0.00017,0.0,0.0
6.159,5924.198,0.00017,0.0,0.0
6.166,5823.113,0.00017,0.0,0.0
6.172,5957.008,0.00017,0.0,0.0
6.178,5894.814,0.00017,0.0,0.0
6.185,5895.66,0.00017,0.0,0.0
6.191,5916.809,0.00017,0.0,0.0
6.197,5979.782,0.00017,0.0,0.0
6.204,5913.387,0.00017,0.0,0.0
6.21,5921.631,0.00017,0.0,0.0
6.216,6028.054,0.00017,0.0,0.0
6.223,5945.971,0.00017,0.0,0.0
6.229,6005.565,0.00017,0.0,0.0
6.235,6031.467,0.00017,0.0,0.0
6.242,6005.067,0.00017,0.0,0.0
6.248,6011.785,0.00017,0.0,0.0
6.254,6046.695,0.00017,0.0,0.0
6.26,6042.878,0.00017,0.0,0.0
6.267,6000.555,0.00017,0.0,0.0
6.273,6057.329,0.00017,0.0,0.0
6.279,6067.392,0.00016,0.0,0.0
6.286,5978.012,0.00017,0.0,0.0
6.292,6067.951,0.00016,0.0,0.0
6.298,6025.113,0.00017,0.0,0.0
6.305,6049.699,0.00017,0.0,0.0
6.311,6029.42,0.00017,0.0,0.0
6.317,6113.493,0.00016,0.0,0.0
6.324,6076.738,0.00016,0.0,0.0
6.33,6056.02,0.00017,0.0,0.0
6.336,6135.288,0.00016,0.0,0.0
6.343,6027.553,0.00017,0.0,0.0
6.349,6133.335,0.00016,0.0,0.0
6.355,6057.991,0.00017,0.0,0.0
6.362,6194.917,0.00016,0.0,0.0
6.368,6093.335,0.00016,0.0,0.0
6.374,6127.359,0.00016,0.0,0.0
6.381,6132.106,0.00016,0.0,0.0
6.387,6231.35,0.00016,0.0,0.0
6.393,6246.339,0.00016,0.0,0.0
6.4,6231.667,0.00016,0.0,0.0
6.406,6315.877,0.00016,0.0,0.0
6.412,6426.662,0.00016,0.0,0.0
6.418,6890.722,0.00015,0.0,0.0
6.425,6838.516,0.00015,0.0,0.0
6.431,8503.198,0.00012,0.0,0.0
6.437,7594.654,0.00013,0.0,0.0
6.444,12259.116,0.00008,0.0,0.0
6.45,9013.579,0.00011,0.0,0.0
6.456,19163.708,0.00005,0.0,0.0
6.463,9174.843,0.00011,0.0,0.0
6.469,18418.669,0.00005,0.0,0.0
6.475,8673.642,0.00012,0.0,0.0
6.482,13631.493,0.00007,0.0,0.0
6.488,7498.645,0.00013,0.0,0.0
6.494,8347.021,0.00012,0.0,0.0
6.501,6841.222,0.00015,0.0,0.0
6.507,6896.592,0.00014,0.0,0.0
6.513,6683.204,0.00015,0.0,0.0
6.52,6595.752,0.00015,0.0,0.0
6.526,6711.37,0.00015,0.0,0.0
6.532,6675.574,0.00015,0.0,0.0
6.539,6823.419,0.00015,0.0,0.0
6.545,7016.08,0.00014,0.0,0.0
6.551,7296.68,0.00014,0.0,0.0
6.558,7717.241,0.00013,0.0,0.0
6.564,8441.276,0.00012,0.0,0.0
6.57,9651.764,0.0001,0.0,0.0
6.576,11804.976,0.00008,0.0,0.0
6.583,15552.518,0.00006,0.0,0.0
6.589,23800.546,0.00004,0.0,0.0
6.595,39710.918,0.00003,0.0,0.0
6.602,58781.441,0.00002,0.0,0.0
6.608,80631.447,0.00001,0.0,0.0
6.614,101878.333,0.00001,0.0,0.0
6.621,101146.646,0.00001,0.0,0.0
6.627,91863.263,0.00001,0.0,0.0
6.633,70572.243,0.00001,0.0,0.0
6.64,44324.84,0.00002,0.0,0.0
6.646,29240.119,0.00003,0.0,0.0
6.652,18914.437,0.00005,0.0,0.0
6.659,13510.426,0.00007,0.0,0.0
6.665,10543.609,0.00009,0.0,0.0
6.671,8879.718,0.00011,0.0,0.0
6.678,8068.846,0.00012,0.0,0.0
6.684,7414.721,0.00013,0.0,0.0
6.69,7179.517,0.00014,0.0,0.0
6.697,6901.467,0.00014,0.0,0.0
6.703,6711.085,0.00015,0.0,0.0
6.709,6647.505,0.00015,0.0,0.0
6.716,6517.436,0.00015,0.0,0.0
6.722,6443.368,0.00016,0.0,0.0
6.728,6436.35,0.00016,0.0,0.0
6.734,6412.817,0.00016,0.0,0.0
6.741,6335.84,0.00016,0.0,0.0
6.747,6333.726,0.00016,0.0,0.0
6.753,6315.644,0.00016,0.0,0.0
6.76,6258.765,0.00016,0.0,0.0
6.766,6302.033,0.00016,0.0,0.0
6.772,6300.965,0.00016,0.0,0.0
6.779,6261.398,0.00016,0.0,0.0
6.785,6295.428,0.00016,0.0,0.0
6.791,6302.029,0.00016,0.0,0.0
6.798,6348.399,0.00016,0.0,0.0
6.804,6292.347,0.00016,0.0,0.0
6.81,6380.694,0.00016,0.0,0.0
6.817,6301.839,0.00016,0.0,0.0
6.823,6353.63,0.00016,0.0,0.0
6.829,6290.978,0.00016,0.0,0.0
6.836,6253.498,0.00016,0.0,0.0
6.842,6236.385,0.00016,0.0,0.0
6.848,6193.142,0.00016,0.0,0.0
6.855,6156.896,0.00016,0.0,0.0
6.861,6145.226,0.00016,0.0,0.0
6.867,6172.313,0.00016,0.0,0.0
6.874,6116.905,0.00016,0.0,0.0
6.88,6141.685,0.00016,0.0,0.0
6.886,6096.328,0.00016,0.0,0.0
6.892,6108.295,0.00016,0.0,0.0
6.899,6149.031,0.00016,0.0,0.0
6.905,6091.723,0.00016,0.0,0.0
6.911,6107.523,0.00016,0.0,0.0
6.918,6090.628,0.00016,0.0,0.0
6.924,6101.765,0.00016,0.0,0.0
6.93,6109.383,0.00016,0.0,0.0
6.937,6097.51,0.00016,0.0,0.0
6.943,6097.973,0.00016,0.0,0.0
6.949,6104.727,0.00016,0.0,0.0
6.956,6078.877,0.00016,0.0,0.0
6.962,6083.198,0.00016,0.0,0.0
6.968,6076.957,0.00016,0.0,0.0
6.975,6061.893,0.00016,0.0,0.0
6.981,6082.122,0.00016,0.0,0.0
6.987,6074.267,0.00016,0.0,0.0
6.994,6086.583,0.00016,0.0,0.0
7.0,6085.208,0.00016,0.0,0.0
7.006,6058.561,0.00017,0.0,0.0
7.013,6064.57,0.00016,0.0,0.0
7.019,6084.761,0.00016,0.0,0.0
7.025,6060.874,0.00016,0.0,0.0
7.032,6087.128,0.00016,0.0,0.0
7.038,6036.425,0.00017,0.0,0.0
7.044,6060.958,0.00016,0.0,0.0
7.05,6079.858,0.00016,0.0,0.0
7.057,6067.615,0.00016,0.0,0.0
7.063,6089.126,0.00016,0.0,0.0
7.069,6066.245,0.00016,0.0,0.0
7.076,6067.475,0.00016,0.0,0.0
7.082,6061.786,0.00016,0.0,0.0
7.088,6074.612,0.00016,0.0,0.0
7.095,6069.439,0.00016,0.0,0.0
7.101,6039.893,0.00017,0.0,0.0
7.107,6072.535,0.00016,0.0,0.0
7.114,6092.779,0.00016,0.0,0.0
7.12,6056.813,0.00017,0.0,0.0
7.126,6042.247,0.00017,0.0,0.0
7.133,6045.404,0.00017,0.0,0.0
7.139,6041.445,0.00017,0.0,0.0
7.145,6061.066,0.00016,0.0,0.0
7.152,6063.626,0.00016,0.0,0.0
7.158,6035.994,0.00017,0.0,0.0
7.164,6058.513,0.00017,0.0,0.0
7.171,6040.108,0.00017,0.0,0.0
7.177,6048.455,0.00017,0.0,0.0
7.183,6041.793,0.00017,0.0,0.0
7.19,6024.281,0.00017,0.0,0.0
7.196,6048.737,0.00017,0.0,0.0
7.202,6025.459,0.00017,0.0,0.0
7.208,6045.425,0.00017,0.0,0.0
7.215,6037.53,0.00017,0.0,0.0
7.221,6028.751,0.00017,0.0,0.0
7.227,6046.282,0.00017,0.0,0.0
7.234,6070.096,0.00016,0.0,0.0
7.24,6041.659,0.00017,0.0,0.0
7.246,6065.261,0.00016,0.0,0.0
7.253,6070.181,0.00016,0.0,0.0
7.259,6048.091,0.00017,0.0,0.0
7.265,6134.223,0.00016,0.0,0.0
7.272,6142.047,0.00016,0.0,0.0
7.278,6217.906,0.00016,0.0,0.0
7.284,6249.37,0.00016,0.0,0.0
7.291,6266.5,0.00016,0.0,0.0
7.297,6280.098,0.00016,0.0,0.0
7.303,6248.604,0.00016,0.0,0.0
7.31,6234.117,0.00016,0.0,0.0
7.316,6178.849,0.00016,0.0,0.0
7.322,6129.83,0.00016,0.0,0.0
7.329,6126.83,0.00016,0.0,0.0
7.335,6077.123,0.00016,0.0,0.0
7.341,6077.581,0.00016,0.0,0.0
7.348,6095.288,0.00016,0.0,0.0
7.354,6087.094,0.00016,0.0,0.0
7.36,6072.551,0.00016,0.0,0.0
7.366,6097.34,0.00016,0.0,0.0
7.373,6099.278,0.00016,0.0,0.0
7.379,6096.993,0.00016,0.0,0.0
7.385,6118.16,0.00016,0.0,0.0
7.392,6078.651,0.00016,0.0,0.0
7.398,6135.2,0.00016,0.0,0.0
7.404,6096.848,0.00016,0.0,0.0
7.411,6167.294,0.00016,0.0,0.0
7.417,6148.344,0.00016,0.0,0.0
7.423,6110.342,0.00016,0.0,0.0
7.43,6181.85,0.00016,0.0,0.0
7.436,6152.731,0.00016,0.0,0.0
7.442,6141.864,0.00016,0.0,0.0
7.449,6184.809,0.00016,0.0,0.0
7.455,6212.381,0.00016,0.0,0.0
7.461,6206.355,0.00016,0.0,0.0
7.468,6206.281,0.00016,0.0,0.0
7.474,6217.548,0.00016,0.0,0.0
7.48,6266.028,0.00016,0.0,0.0
7.487,6248.866,0.00016,0.0,0.0
7.493,6300.949,0.00016,0.0,0.0
7.499,6285.891,0.00016,0.0,0.0
7.506,6304.752,0.00016,0.0,0.0
7.512,6345.38,0.00016,0.0,0.0
7.518,6360.444,0.00016,0.0,0.0
7.524,6359.261,0.00016,0.0,0.0
7.531,6408.352,0.00016,0.0,0.0
7.537,6472.279,0.00015,0.0,0.0
7.543,6490.334,0.00015,0.0,0.0
7.55,6526.282,0.00015,0.0,0.0
7.556,6608.282,0.00015,0.0,0.0
7.562,6746.48,0.00015,0.0,0.0
7.569,6783.272,0.00015,0.0,0.0
7.575,7070.247,0.00014,0.0,0.0
7.581,7318.741,0.00014,0.0,0.0
7.588,7683.154,0.00013,0.0,0.0
7.594,8376.175,0.00012,0.0,0.0
7.6,9433.237,0.00011,0.0,0.0
7.607,11905.354,0.00008,0.0,0.0
7.613,15842.675,0.00006,0.0,0.0
7.619,22439.36,0.00004,0.0,0.0
7.626,32768.064,0.00003,0.0,0.0
7.632,43184.627,0.00002,0.0,0.0
7.638,50064.593,0.00002,0.0,0.0
7.645,57056.313,0.00002,0.0,0.0
7.651,48639.425,0.00002,0.0,0.0
7.657,44274.839,0.00002,0.0,0.0
7.664,31783.529,0.00003,0.0,0.0
7.67,22447.002,0.00004,0.0,0.0
7.676,15258.907,0.00007,0.0,0.0
7.682,12086.516,0.00008,0.0,0.0
7.689,9517.537,0.00011,0.0,0.0
7.695,8630.524,0.00012,0.0,0.0
7.701,7879.761,0.00013,0.0,0.0
7.708,7466.039,0.00013,0.0,0.0
7.714,7272.167,0.00014,0.0,0.0
7.72,7035.719,0.00014,0.0,0.0
7.727,7011.617,0.00014,0.0,0.0
7.733,6927.946,0.00014,0.0,0.0
7.739,6993.064,0.00014,0.0,0.0
7.746,6846.205,0.00015,0.0,0.0
7.752,6916.471,0.00014,0.0,0.0
7.758,6875.391,0.00015,0.0,0.0
7.765,6815.221,0.00015,0.0,0.0
7.771,6928.087,0.00014,0.0,0.0
7.777,6888.502,0.00015,0.0,0.0
7.784,7005.408,0.00014,0.0,0.0
7.79,6872.922,0.00015,0.0,0.0
7.796,7098.238,0.00014,0.0,0.0
7.803,6856.661,0.00015,0.0,0.0
7.809,7090.462,0.00014,0.0,0.0
7.815,6916.862,0.00014,0.0,0.0
7.822,7291.955,0.00014,0.0,0.0
7.828,7077.102,0.00014,0.0,0.0
7.834,7514.161,0.00013,0.0,0.0
7.84,7187.681,0.00014,0.0,0.0
7.847,7615.38,0.00013,0.0,0.0
7.853,7797.297,0.00013,0.0,0.0
7.859,7849.855,0.00013,0.0,0.0
7.866,9683.853,0.0001,0.0,0.0
7.872,7912.068,0.00013,0.0,0.0
7.878,13513.927,0.00007,0.0,0.0
7.885,7660.98,0.00013,0.0,0.0
7.891,15447.202,0.00006,0.0,0.0
7.897,7442.891,0.00013,0.0,0.0
7.904,15671.131,0.00006,0.0,0.0
7.91,7522.55,0.00013,0.0,0.0
7.916,14736.814,0.00007,0.0,0.0
7.923,8410.735,0.00012,0.0,0.0
7.929,12434.154,0.00008,0.0,0.0
7.935,9602.517,0.0001,0.0,0.0
7.942,8779.296,0.00011,0.0,0.0
7.948,8993.615,0.00011,0.0,0.0
7.954,6977.013,0.00014,0.0,0.0
7.961,8288.336,0.00012,0.0,0.0
7.967,6721.554,0.00015,0.0,0.0
7.973,7845.029,0.00013,0.0,0.0
7.98,6707.796,0.00015,0.0,0.0
7.986,7484.88,0.00013,0.0,0.0
7.992,6989.481,0.00014,0.0,0.0
7.998,6960.25,0.00014,0.0,0.0
8.005,7024.114,0.00014,0.0,0.0
8.011,6733.387,0.00015,0.0,0.0
8.017,6978.142,0.00014,0.0,0.0
8.024,6558.971,0.00015,0.0,0.0
8.03,6942.106,0.00014,0.0,0.0
8.036,6531.005,0.00015,0.0,0.0
8.043,6857.802,0.00015,0.0,0.0
8.049,6452.706,0.00015,0.0,0.0
8.055,6824.482,0.00015,0.0,0.0
8.062,6529.273,0.00015,0.0,0.0
8.068,6673.908,0.00015,0.0,0.0
8.074,6550.433,0.00015,0.0,0.0
8.081,6570.081,0.00015,0.0,0.0
8.087,6571.993,0.00015,0.0,0.0
8.093,6509.174,0.00015,0.0,0.0
8.1,6596.743,0.00015,0.0,0.0
8.106,6459.725,0.00015,0.0,0.0
8.112,6650.536,0.00015,0.0,0.0
8.119,6532.266,0.00015,0.0,0.0
8.125,6803.356,0.00015,0.0,0.0
8.131,6707.308,0.00015,0.0,0.0
8.138,6960.964,0.00014,0.0,0.0
8.144,6819.202,0.00015,0.0,0.0
8.15,6859.417,0.00015,0.0,0.0
8.156,6739.486,0.00015,0.0,0.0
8.163,6604.119,0.00015,0.0,0.0
8.169,6517.678,0.00015,0.0,0.0
8.175,6383.401,0.00016,0.0,0.0
8.182,6391.058,0.00016,0.0,0.0
8.188,6259.456,0.00016,0.0,0.0
8.194,6286.357,0.00016,0.0,0.0
8.201,6164.29,0.00016,0.0,0.0
8.207,6260.237,0.00016,0.0,0.0
8.213,6122.423,0.00016,0.0,0.0
8.22,6214.291,0.00016,0.0,0.0
8.226,6118.549,0.00016,0.0,0.0
8.232,6110.218,0.00016,0.0,0.0
8.239,6078.357,0.00016,0.0,0.0
8.245,6074.168,0.00016,0.0,0.0
8.251,6070.096,0.00016,0.0,0.0
8.258,6026.991,0.00017,0.0,0.0
8.264,6035.696,0.00017,0.0,0.0
8.27,5983.115,0.00017,0.0,0.0
8.277,6042.855,0.00017,0.0,0.0
8.283,5942.628,0.00017,0.0,0.0
8.289,5998.043,0.00017,0.0,0.0
8.296,5914.201,0.00017,0.0,0.0
8.302,5976.992,0.00017,0.0,0.0
8.308,5948.71,0.00017,0.0,0.0
8.314,5920.13,0.00017,0.0,0.0
8.321,5911.012,0.00017,0.0,0.0
8.327,5928.462,0.00017,0.0,0.0
8.333,5955.369,0.00017,0.0,0.0
8.34,5973.491,0.00017,0.0,0.0
8.346,6012.727,0.00017,0.0,0.0
8.352,6070.562,0.00016,0.0,0.0
8.359,6134.009,0.00016,0.0,0.0
8.365,6204.926,0.00016,0.0,0.0
8.371,6267.192,0.00016,0.0,0.0
8.378,6234.935,0.00016,0.0,0.0
8.384,6224.292,0.00016,0.0,0.0
8.39,6104.224,0.00016,0.0,0.0
8.397,6036.254,0.00017,0.0,0.0
8.403,5932.187,0.00017,0.0,0.0
8.409,5838.264,0.00017,0.0,0.0
8.416,5787.665,0.00017,0.0,0.0
8.422,5753.031,0.00017,0.0,0.0
8.428,5714.085,0.00018,0.0,0.0
8.435,5651.075,0.00018,0.0,0.0
8.441,5662.543,0.00018,0.0,0.0
8.447,5618.786,0.00018,0.0,0.0
8.454,5641.88,0.00018,0.0,0.0
8.46,5597.907,0.00018,0.0,0.0
8.466,5609.139,0.00018,0.0,0.0
8.472,5578.306,0.00018,0.0,0.0
8.479,5589.783,0.00018,0.0,0.0
8.485,5592.211,0.00018,0.0,0.0
8.491,5582.678,0.00018,0.0,0.0
8.498,5596.012,0.00018,0.0,0.0
8.504,5552.395,0.00018,0.0,0.0
8.51,5542.133,0.00018,0.0,0.0
8.517,5534.054,0.00018,0.0,0.0
8.523,5527.533,0.00018,0.0,0.0
8.529,5480.94,0.00018,0.0,0.0
8.536,5483.249,0.00018,0.0,0.0
8.542,5451.695,0.00018,0.0,0.0
8.548,5464.558,0.00018,0.0,0.0
8.555,5437.464,0.00018,0.0,0.0
8.561,5415.43,0.00018,0.0,0.0
8.567,5423.919,0.00018,0.0,0.0
8.574,5410.831,0.00018,0.0,0.0
8.58,5404.012,0.00019,0.0,0.0
8.586,5386.302,0.00019,0.0,0.0
8.593,5379.17,0.00019,0.0,0.0
8.599,5367.064,0.00019,0.0,0.0
8.605,5376.67,0.00019,0.0,0.0
8.612,5346.361,0.00019,0.0,0.0
8.618,5380.23,0.00019,0.0,0.0
8.624,5338.649,0.00019,0.0,0.0
8.63,5338.173,0.00019,0.0,0.0
8.637,5343.01,0.00019,0.0,0.0
8.643,5341.442,0.00019,0.0,0.0
8.649,5327.971,0.00019,0.0,0.0
8.656,5307.657,0.00019,0.0,0.0
8.662,5326.239,0.00019,0.0,0.0
8.668,5319.224,0.00019,0.0,0.0
8.675,5290.819,0.00019,0.0,0.0
8.681,5304.364,0.00019,0.0,0.0
8.687,5295.372,0.00019,0.0,0.0
8.694,5299.064,0.00019,0.0,0.0
8.7,5294.387,0.00019,0.0,0.0
8.706,5270.55,0.00019,0.0,0.0
8.713,5293.972,0.00019,0.0,0.0
8.719,5267.312,0.00019,0.0,0.0
8.725,5277.917,0.00019,0.0,0.0
8.732,5269.902,0.00019,0.0,0.0
8.738,5264.054,0.00019,0.0,0.0
8.744,5253.821,0.00019,0.0,0.0
8.751,5289.082,0.00019,0.0,0.0
8.757,5253.855,0.00019,0.0,0.0
8.763,5220.091,0.00019,0.0,0.0
8.77,5239.994,0.00019,0.0,0.0
8.776,5236.688,0.00019,0.0,0.0
8.782,5240.347,0.00019,0.0,0.0
8.788,5253.834,0.00019,0.0,0.0
8.795,5239.195,0.00019,0.0,0.0
8.801,5237.228,0.00019,0.0,0.0
8.807,5240.484,0.00019,0.0,0.0
8.814,5241.666,0.00019,0.0,0.0
8.82,5236.549,0.00019,0.0,0.0
8.826,5235.838,0.00019,0.0,0.0
8.833,5244.982,0.00019,0.0,0.0
8.839,5239.866,0.00019,0.0,0.0
8.845,5264.822,0.00019,0.0,0.0
8.852,5229.98,0.00019,0.0,0.0
8.858,5243.536,0.00019,0.0,0.0
8.864,5229.955,0.00019,0.0,0.0
8.871,5255.874,0.00019,0.0,0.0
8.877,5271.006,0.00019,0.0,0.0
8.883,5247.412,0.00019,0.0,0.0
8.89,5267.491,0.00019,0.0,0.0
8.896,5253.505,0.00019,0.0,0.0
8.902,5266.325,0.00019,0.0,0.0
8.909,5275.527,0.00019,0.0,0.0
8.915,5265.333,0.00019,0.0,0.0
8.921,5295.563,0.00019,0.0,0.0
8.928,5275.88,0.00019,0.0,0.0
8.934,5301.553,0.00019,0.0,0.0
8.94,5293.169,0.00019,0.0,0.0
8.946,5297.652,0.00019,0.0,0.0
8.953,5291.969,0.00019,0.0,0.0
8.959,5288.338,0.00019,0.0,0.0
8.965,5329.739,0.00019,0.0,0.0
8.972,5317.731,0.00019,0.0,0.0
8.978,5361.88,0.00019,0.0,0.0
8.984,5319.826,0.00019,0.0,0.0
8.991,5348.292,0.00019,0.0,0.0
8.997,5375.819,0.00019,0.0,0.0
9.003,5383.777,0.00019,0.0,0.0
9.01,5385.505,0.00019,0.0,0.0
9.016,5403.846,0.00019,0.0,0.0
9.022,5448.367,0.00018,0.0,0.0
9.029,5433.505,0.00018,0.0,0.0
9.035,5485.432,0.00018,0.0,0.0
9.041,5494.048,0.00018,0.0,0.0
9.048,5509.86,0.00018,0.0,0.0
9.054,5594.528,0.00018,0.0,0.0
9.06,5595.523,0.00018,0.0,0.0
9.067,5619.138,0.00018,0.0,0.0
9.073,5773.889,0.00017,0.0,0.0
9.079,5753.324,0.00017,0.0,0.0
9.086,5956.315,0.00017,0.0,0.0
9.092,6032.484,0.00017,0.0,0.0
9.098,6470.166,0.00015,0.0,0.0
9.104,6628.638,0.00015,0.0,0.0
9.111,7665.311,0.00013,0.0,0.0
9.117,9467.893,0.00011,0.0,0.0
9.123,7410.623,0.00013,0.0,0.0
9.13,9689.338,0.0001,0.0,0.0
9.136,11012.652,0.00009,0.0,0.0
9.142,7662.994,0.00013,0.0,0.0
9.149,8551.616,0.00012,0.0,0.0
9.155,8159.441,0.00012,0.0,0.0
9.161,6526.732,0.00015,0.0,0.0
9.168,6153.707,0.00016,0.0,0.0
9.174,6165.677,0.00016,0.0,0.0
9.18,5845.655,0.00017,0.0,0.0
9.187,5875.563,0.00017,0.0,0.0
9.193,5655.022,0.00018,0.0,0.0
9.199,5637.821,0.00018,0.0,0.0
9.206,5589.116,0.00018,0.0,0.0
9.212,5486.371,0.00018,0.0,0.0
9.218,5487.433,0.00018,0.0,0.0
9.225,5452.579,0.00018,0.0,0.0
9.231,5365.46,0.00019,0.0,0.0
9.237,5414.075,0.00018,0.0,0.0
9.244,5342.979,0.00019,0.0,0.0
9.25,5347.407,0.00019,0.0,0.0
9.256,5277.072,0.00019,0.0,0.0
9.262,5256.192,0.00019,0.0,0.0
9.269,5304.798,0.00019,0.0,0.0
9.275,5177.887,0.00019,0.0,0.0
9.281,5259.724,0.00019,0.0,0.0
9.288,5181.429,0.00019,0.0,0.0
9.294,5168.769,0.00019,0.0,0.0
9.3,5148.529,0.00019,0.0,0.0
9.307,5151.145,0.00019,0.0,0.0
9.313,5120.376,0.0002,0.0,0.0
9.319,5140.164,0.00019,0.0,0.0
9.326,5105.712,0.0002,0.0,0.0
9.332,5070.754,0.0002,0.0,0.0
9.338,5075.722,0.0002,0.0,0.0
9.345,5045.551,0.0002,0.0,0.0
9.351,5024.337,0.0002,0.0,0.0
9.357,5024.557,0.0002,0.0,0.0
9.364,5023.291,0.0002,0.0,0.0
9.37,4986.486,0.0002,0.0,0.0
9.376,4995.364,0.0002,0.0,0.0
9.383,4974.233,0.0002,0.0,0.0
9.389,4975.079,0.0002,0.0,0.0
9.395,4927.032,0.0002,0.0,0.0
9.402,4926.341,0.0002,0.0,0.0
9.408,4916.193,0.0002,0.0,0.0
9.414,4922.865,0.0002,0.0,0.0
9.42,4914.296,0.0002,0.0,0.0
9.427,4889.791,0.0002,0.0,0.0
9.433,4898.258,0.0002,0.0,0.0
9.439,4873.193,0.00021,0.0,0.0
9.446,4883.941,0.0002,0.0,0.0
9.452,4877.068,0.00021,0.0,0.0
9.458,4896.832,0.0002,0.0,0.0
9.465,4915.653,0.0002,0.0,0.0
9.471,4918.612,0.0002,0.0,0.0
9.477,4943.791,0.0002,0.0,0.0
9.484,4949.138,0.0002,0.0,0.0
9.49,4942.856,0.0002,0.0,0.0
9.496,4939.199,0.0002,0.0,0.0
9.503,4908.442,0.0002,0.0,0.0
9.509,4875.284,0.00021,0.0,0.0
9.515,4852.58,0.00021,0.0,0.0
9.522,4815.16,0.00021,0.0,0.0
9.528,4791.537,0.00021,0.0,0.0
9.534,4729.884,0.00021,0.0,0.0
9.541,4752.916,0.00021,0.0,0.0
9.547,4732.182,0.00021,0.0,0.0
9.553,4706.773,0.00021,0.0,0.0
9.56,4712.084,0.00021,0.0,0.0
9.566,4669.718,0.00021,0.0,0.0
9.572,4678.712,0.00021,0.0,0.0
9.578,4688.422,0.00021,0.0,0.0
9.585,4661.755,0.00021,0.0,0.0
9.591,4670.194,0.00021,0.0,0.0
9.597,4645.455,0.00022,0.0,0.0
9.604,4640.043,0.00022,0.0,0.0
9.61,4635.511,0.00022,0.0,0.0
9.616,4632.743,0.00022,0.0,0.0
9.623,4618.782,0.00022,0.0,0.0
9.629,4610.696,0.00022,0.0,0.0
9.635,4614.989,0.00022,0.0,0.0
9.642,4616.437,0.00022,0.0,0.0
9.648,4616.08,0.00022,0.0,0.0
9.654,4594.388,0.00022,0.0,0.0
9.661,4601.477,0.00022,0.0,0.0
9.667,4597.495,0.00022,0.0,0.0
9.673,4581.424,0.00022,0.0,0.0
9.68,4577.43,0.00022,0.0,0.0
9.686,4594.266,0.00022,0.0,0.0
9.692,4591.751,0.00022,0.0,0.0
9.699,4570.255,0.00022,0.0,0.0
9.705,4563.06,0.00022,0.0,0.0
9.711,4568.153,0.00022,0.0,0.0
9.718,4557.777,0.00022,0.0,0.0
9.724,4555.028,0.00022,0.0,0.0
9.73,4543.874,0.00022,0.0,0.0
9.736,4558.112,0.00022,0.0,0.0
9.743,4559.427,0.00022,0.0,0.0
9.749,4547.516,0.00022,0.0,0.0
9.755,4548.088,0.00022,0.0,0.0
9.762,4536.96,0.00022,0.0,0.0
9.768,4536.687,0.00022,0.0,0.0
9.774,4546.559,0.00022,0.0,0.0
9.781,4529.752,0.00022,0.0,0.0
9.787,4540.897,0.00022,0.0,0.0
9.793,4514.843,0.00022,0.0,0.0
9.8,4523.372,0.00022,0.0,0.0
9.806,4527.608,0.00022,0.0,0.0
9.812,4507.051,0.00022,0.0,0.0
9.819,4519.349,0.00022,0.0,0.0
9.825,4511.388,0.00022,0.0,0.0
9.831,4507.249,0.00022,0.0,0.0
9.838,4499.723,0.00022,0.0,0.0
9.844,4498.791,0.00022,0.0,0.0
9.85,4493.222,0.00022,0.0,0.0
9.857,4503.454,0.00022,0.0,0.0
9.863,4493.667,0.00022,0.0,0.0
9.869,4478.374,0.00022,0.0,0.0
9.876,4480.674,0.00022,0.0,0.0
9.882,4467.207,0.00022,0.0,0.0
9.888,4481.591,0.00022,0.0,0.0
9.894,4464.058,0.00022,0.0,0.0
9.901,4461.054,0.00022,0.0,0.0
9.907,4459.717,0.00022,0.0,0.0
9.913,4457.24,0.00022,0.0,0.0
9.92,4464.513,0.00022,0.0,0.0
9.926,4453.557,0.00022,0.0,0.0
9.932,4454.822,0.00022,0.0,0.0
9.939,4447.399,0.00022,0.0,0.0
9.945,4455.546,0.00022,0.0,0.0
9.951,4450.558,0.00022,0.0,0.0
9.958,4442.461,0.00023,0.0,0.0
9.964,4435.387,0.00023,0.0,0.0
9.97,4440.704,0.00023,0.0,0.0
9.977,4447.465,0.00022,0.0,0.0
9.983,4451.257,0.00022,0.0,0.0
9.989,4448.867,0.00022,0.0,0.0
9.996,4421.716,0.00023,0.0,0.0
10.002,4445.116,0.00022,0.0,0.0
10.008,4440.912,0.00023,0.0,0.0
10.015,4456.473,0.00022,0.0,0.0
10.021,4447.938,0.00022,0.0,0.0
10.027,4434.417,0.00023,0.0,0.0
10.034,4439.251,0.00023,0.0,0.0
10.04,4429.362,0.00023,0.0,0.0
10.046,4439.251,0.00023,0.0,0.0
10.052,4438.493,0.00023,0.0,0.0
10.059,4452.463,0.00022,0.0,0.0
10.065,4441.589,0.00023,0.0,0.0
10.071,4428.212,0.00023,0.0,0.0
10.078,4422.693,0.00023,0.0,0.0
10.084,4451.08,0.00022,0.0,0.0
10.09,4452.906,0.00022,0.0,0.0
10.097,4440.465,0.00023,0.0,0.0
10.103,4452.306,0.00022,0.0,0.0
10.109,4433.898,0.00023,0.0,0.0
10.116,4450.342,0.00022,0.0,0.0
10.122,4440.439,0.00023,0.0,0.0
10.128,4439.754,0.00023,0.0,0.0
10.135,4453.338,0.00022,0.0,0.0
10.141,4444.046,0.00023,0.0,0.0
10.147,4448.291,0.00022,0.0,0.0
10.154,4442.269,0.00023,0.0,0.0
10.16,4448.442,0.00022,0.0,0.0
10.166,4464.324,0.00022,0.0,0.0
10.173,4479.534,0.00022,0.0,0.0
10.179,4540.115,0.00022,0.0,0.0
10.185,4598.118,0.00022,0.0,0.0
10.192,4705.32,0.00021,0.0,0.0
10.198,4820.867,0.00021,0.0,0.0
10.204,5150.055,0.00019,0.0,0.0
10.21,5499.961,0.00018,0.0,0.0
10.217,5777.024,0.00017,0.0,0.0
10.223,5533.419,0.00018,0.0,0.0
10.229,5263.728,0.00019,0.0,0.0
10.236,4898.387,0.0002,0.0,0.0
10.242,4716.052,0.00021,0.0,0.0
10.248,4592.552,0.00022,0.0,0.0
10.255,4539.557,0.00022,0.0,0.0
10.261,4496.002,0.00022,0.0,0.0
10.267,4461.963,0.00022,0.0,0.0
10.274,4451.012,0.00022,0.0,0.0
10.28,4444.283,0.00023,0.0,0.0
10.286,4440.608,0.00023,0.0,0.0
10.293,4430.719,0.00023,0.0,0.0
10.299,4428.742,0.00023,0.0,0.0
10.305,4420.377,0.00023,0.0,0.0
10.312,4419.231,0.00023,0.0,0.0
10.318,4416.395,0.00023,0.0,0.0
10.324,4380.399,0.00023,0.0,0.0
10.331,4406.337,0.00023,0.0,0.0
10.337,4394.055,0.00023,0.0,0.0
10.343,4385.13,0.00023,0.0,0.0
10.35,4389.36,0.00023,0.0,0.0
10.356,4371.533,0.00023,0.0,0.0
10.362,4395.443,0.00023,0.0,0.0
10.368,4396.123,0.00023,0.0,0.0
10.375,4371.033,0.00023,0.0,0.0
10.381,4381.686,0.00023,0.0,0.0
10.387,4362.51,0.00023,0.0,0.0
10.394,4378.436,0.00023,0.0,0.0
10.4,4380.234,0.00023,0.0,0.0
10.406,4372.614,0.00023,0.0,0.0
10.413,4394.758,0.00023,0.0,0.0
10.419,4357.632,0.00023,0.0,0.0
10.425,4366.157,0.00023,0.0,0.0
10.432,4379.953,0.00023,0.0,0.0
10.438,4361.233,0.00023,0.0,0.0
10.444,4373.886,0.00023,0.0,0.0
10.451,4371.46,0.00023,0.0,0.0
10.457,4373.675,0.00023,0.0,0.0
10.463,4382.896,0.00023,0.0,0.0
10.47,4365.366,0.00023,0.0,0.0
10.476,4376.236,0.00023,0.0,0.0
10.482,4373.01,0.00023,0.0,0.0
10.489,4373.399,0.00023,0.0,0.0
10.495,4393.641,0.00023,0.0,0.0
10.501,4365.773,0.00023,0.0,0.0
10.508,4389.547,0.00023,0.0,0.0
10.514,4392.569,0.00023,0.0,0.0
10.52,4393.032,0.00023,0.0,0.0
10.526,4399.994,0.00023,0.0,0.0
10.533,4383.662,0.00023,0.0,0.0
10.539,4395.195,0.00023,0.0,0.0
10.545,4393.45,0.00023,0.0,0.0
10.552,4386.243,0.00023,0.0,0.0
10.558,4402.987,0.00023,0.0,0.0
10.564,4403.878,0.00023,0.0,0.0
10.571,4412.654,0.00023,0.0,0.0
10.577,4423.571,0.00023,0.0,0.0
10.583,4413.191,0.00023,0.0,0.0
10.59,4429.391,0.00023,0.0,0.0
10.596,4415.801,0.00023,0.0,0.0
10.602,4413.837,0.00023,0.0,0.0
10.609,4449.444,0.00022,0.0,0.0
10.615,4454.795,0.00022,0.0,0.0
10.621,4452.018,0.00022,0.0,0.0
10.628,4446.987,0.00022,0.0,0.0
10.634,4454.249,0.00022,0.0,0.0
10.64,4474.82,0.00022,0.0,0.0
10.647,4477.915,0.00022,0.0,0.0
10.653,4465.579,0.00022,0.0,0.0
10.659,4477.355,0.00022,0.0,0.0
10.666,4502.57,0.00022,0.0,0.0
10.672,4492.299,0.00022,0.0,0.0
10.678,4505.998,0.00022,0.0,0.0
10.684,4507.603,0.00022,0.0,0.0
10.691,4547.941,0.00022,0.0,0.0
10.697,4527.476,0.00022,0.0,0.0
10.703,4534.996,0.00022,0.0,0.0
10.71,4565.193,0.00022,0.0,0.0
10.716,4575.907,0.00022,0.0,0.0
10.722,4607.886,0.00022,0.0,0.0
10.729,4630.725,0.00022,0.0,0.0
10.735,4679.454,0.00021,0.0,0.0
10.741,4711.829,0.00021,0.0,0.0
10.748,4762.248,0.00021,0.0,0.0
10.754,4864.393,0.00021,0.0,0.0
10.76,5018.996,0.0002,0.0,0.0
10.767,5220.361,0.00019,0.0,0.0
10.773,5581.831,0.00018,0.0,0.0
10.779,6233.408,0.00016,0.0,0.0
10.786,7324.36,0.00014,0.0,0.0
10.792,9897.111,0.0001,0.0,0.0
10.798,12614.178,0.00008,0.0,0.0
10.805,19233.265,0.00005,0.0,0.0
10.811,23652.923,0.00004,0.0,0.0
10.817,30008.416,0.00003,0.0,0.0
10.824,28145.238,0.00004,0.0,0.0
10.83,27274.886,0.00004,0.0,0.0
10.836,20880.363,0.00005,0.0,0.0
10.842,15433.982,0.00006,0.0,0.0
10.849,11097.451,0.00009,0.0,0.0
10.855,8818.09,0.00011,0.0,0.0
10.861,6828.798,0.00015,0.0,0.0
10.868,5956.447,0.00017,0.0,0.0
10.874,5475.29,0.00018,0.0,0.0
10.88,5175.496,0.00019,0.0,0.0
10.887,5028.568,0.0002,0.0,0.0
10.893,4895.549,0.0002,0.0,0.0
10.899,4830.264,0.00021,0.0,0.0
10.906,4782.496,0.00021,0.0,0.0
10.912,4754.177,0.00021,0.0,0.0
10.918,4751.471,0.00021,0.0,0.0
10.925,4729.687,0.00021,0.0,0.0
10.931,4740.95,0.00021,0.0,0.0
10.937,4728.62,0.00021,0.0,0.0
10.944,4724.594,0.00021,0.0,0.0
10.95,4714.926,0.00021,0.0,0.0
10.956,4709.924,0.00021,0.0,0.0
10.963,4677.212,0.00021,0.0,0.0
10.969,4685.588,0.00021,0.0,0.0
10.975,4662.266,0.00021,0.0,0.0
10.982,4642.622,0.00022,0.0,0.0
10.988,4640.751,0.00022,0.0,0.0
10.994,4620.256,0.00022,0.0,0.0
11.0,4636.915,0.00022,0.0,0.0
11.007,4623.886,0.00022,0.0,0.0
11.013,4631.216,0.00022,0.0,0.0
11.019,4639.766,0.00022,0.0,0.0
11.026,4630.504,0.00022,0.0,0.0
11.032,4629.579,0.00022,0.0,0.0
11.038,4628.619,0.00022,0.0,0.0
11.045,4630.003,0.00022,0.0,0.0
11.051,4622.277,0.00022,0.0,0.0
11.057,4640.204,0.00022,0.0,0.0
11.064,4638.519,0.00022,0.0,0.0
11.07,4658.117,0.00021,0.0,0.0
11.076,4647.428,0.00022,0.0,0.0
11.083,4655.666,0.00021,0.0,0.0
11.089,4657.259,0.00021,0.0,0.0
11.095,4658.246,0.00021,0.0,0.0
11.102,4673.53,0.00021,0.0,0.0
11.108,4656.535,0.00021,0.0,0.0
11.114,4702.005,0.00021,0.0,0.0
11.121,4678.622,0.00021,0.0,0.0
11.127,4695.102,0.00021,0.0,0.0
11.133,4698.919,0.00021,0.0,0.0
11.14,4715.096,0.00021,0.0,0.0
11.146,4708.278,0.00021,0.0,0.0
11.152,4725.584,0.00021,0.0,0.0
11.158,4719.932,0.00021,0.0,0.0
11.165,4745.654,0.00021,0.0,0.0
11.171,4757.677,0.00021,0.0,0.0
11.177,4763.359,0.00021,0.0,0.0
11.184,4790.11,0.00021,0.0,0.0
11.19,4752.781,0.00021,0.0,0.0
11.196,4765.423,0.00021,0.0,0.0
11.203,4754.108,0.00021,0.0,0.0
11.209,4752.429,0.00021,0.0,0.0
11.215,4759.083,0.00021,0.0,0.0
11.222,4757.47,0.00021,0.0,0.0
11.228,4725.205,0.00021,0.0,0.0
11.234,4711.522,0.00021,0.0,0.0
11.241,4727.062,0.00021,0.0,0.0
11.247,4705.71,0.00021,0.0,0.0
11.253,4709.112,0.00021,0.0,0.0
11.26,4686.048,0.00021,0.0,0.0
11.266,4722.86,0.00021,0.0,0.0
11.272,4685.515,0.00021,0.0,0.0
11.279,4686.707,0.00021,0.0,0.0
11.285,4673.057,0.00021,0.0,0.0
11.291,4666.229,0.00021,0.0,0.0
11.298,4665.562,0.00021,0.0,0.0
11.304,4635.865,0.00022,0.0,0.0
11.31,4662.646,0.00021,0.0,0.0
11.316,4643.015,0.00022,0.0,0.0
11.323,4642.368,0.00022,0.0,0.0
11.329,4630.75,0.00022,0.0,0.0
11.335,4640.288,0.00022,0.0,0.0
11.342,4609.58,0.00022,0.0,0.0
11.348,4619.29,0.00022,0.0,0.0
11.354,4605.187,0.00022,0.0,0.0
11.361,4605.611,0.00022,0.0,0.0
11.367,4609.872,0.00022,0.0,0.0
11.373,4596.561,0.00022,0.0,0.0
11.38,4602.189,0.00022,0.0,0.0
11.386,4586.219,0.00022,0.0,0.0
11.392,4605.091,0.00022,0.0,0.0
11.399,4587.981,0.00022,0.0,0.0
11.405,4579.463,0.00022,0.0,0.0
11.411,4602.772,0.00022,0.0,0.0
11.418,4595.142,0.00022,0.0,0.0
11.424,4593.345,0.00022,0.0,0.0
11.43,4573.727,0.00022,0.0,0.0
11.437,4575.603,0.00022,0.0,0.0
11.443,4569.528,0.00022,0.0,0.0
11.449,4584.874,0.00022,0.0,0.0
11.456,4563.644,0.00022,0.0,0.0
11.462,4577.371,0.00022,0.0,0.0
11.468,4573.041,0.00022,0.0,0.0
11.474,4568.949,0.00022,0.0,0.0
11.481,4570.379,0.00022,0.0,0.0
11.487,4564.605,0.00022,0.0,0.0
11.493,4590.5,0.00022,0.0,0.0
11.5,4593.954,0.00022,0.0,0.0
11.506,4607.767,0.00022,0.0,0.0
11.512,4625.745,0.00022,0.0,0.0
11.519,4645.699,0.00022,0.0,0.0
11.525,4661.746,0.00021,0.0,0.0
11.531,4646.916,0.00022,0.0,0.0
11.538,4649.683,0.00022,0.0,0.0
11.544,4630.956,0.00022,0.0,0.0
11.55,4597.369,0.00022,0.0,0.0
11.557,4583.962,0.00022,0.0,0.0
11.563,4566.028,0.00022,0.0,0.0
11.569,4548.654,0.00022,0.0,0.0
11.576,4542.828,0.00022,0.0,0.0
11.582,4532.126,0.00022,0.0,0.0
11.588,4545.727,0.00022,0.0,0.0
11.595,4543.041,0.00022,0.0,0.0
11.601,4515.605,0.00022,0.0,0.0
11.607,4525.162,0.00022,0.0,0.0
11.614,4512.41,0.00022,0.0,0.0
11.62,4508.529,0.00022,0.0,0.0
11.626,4512.305,0.00022,0.0,0.0
11.632,4503.144,0.00022,0.0,0.0
11.639,4503.469,0.00022,0.0,0.0
11.645,4509.612,0.00022,0.0,0.0
11.651,4490.571,0.00022,0.0,0.0
11.658,4493.982,0.00022,0.0,0.0
11.664,4499.15,0.00022,0.0,0.0
11.67,4495.27,0.00022,0.0,0.0
11.677,4493.06,0.00022,0.0,0.0
11.683,4491.806,0.00022,0.0,0.0
11.689,4501.318,0.00022,0.0,0.0
11.696,4487.111,0.00022,0.0,0.0
11.702,4484.077,0.00022,0.0,0.0
11.708,4495.92,0.00022,0.0,0.0
11.715,4483.738,0.00022,0.0,0.0
11.721,4481.993,0.00022,0.0,0.0
11.727,4476.26,0.00022,0.0,0.0
11.734,4471.078,0.00022,0.0,0.0
11.74,4486.419,0.00022,0.0,0.0
11.746,4467.411,0.00022,0.0,0.0
11.753,4483.403,0.00022,0.0,0.0
11.759,4464.011,0.00022,0.0,0.0
11.765,4483.159,0.00022,0.0,0.0
11.772,4478.739,0.00022,0.0,0.0
11.778,4474.582,0.00022,0.0,0.0
11.784,4474.444,0.00022,0.0,0.0
11.79,4461.021,0.00022,0.0,0.0
11.797,4468.839,0.00022,0.0,0.0
11.803,4473.493,0.00022,0.0,0.0
11.809,4455.806,0.00022,0.0,0.0
11.816,4459.534,0.00022,0.0,0.0
11.822,4454.124,0.00022,0.0,0.0
11.828,4438.257,0.00023,0.0,0.0
11.835,4445.455,0.00022,0.0,0.0
11.841,4425.261,0.00023,0.0,0.0
11.847,4460.169,0.00022,0.0,0.0
11.854,4440.796,0.00023,0.0,0.0
11.86,4440.864,0.00023,0.0,0.0
11.866,4443.803,0.00023,0.0,0.0
11.873,4423.373,0.00023,0.0,0.0
11.879,4428.693,0.00023,0.0,0.0
11.885,4408.793,0.00023,0.0,0.0
11.892,4431.217,0.00023,0.0,0.0
11.898,4429.333,0.00023,0.0,0.0
11.904,4434.069,0.00023,0.0,0.0
11.911,4450.282,0.00022,0.0,0.0
11.917,4426.798,0.00023,0.0,0.0
11.923,4426.642,0.00023,0.0,0.0
11.93,4423.192,0.00023,0.0,0.0
11.936,4420.652,0.00023,0.0,0.0
11.942,4428.158,0.00023,0.0,0.0
11.948,4443.176,0.00023,0.0,0.0
11.955,4419.901,0.00023,0.0,0.0
11.961,4446.46,0.00022,0.0,0.0
11.967,4439.72,0.00023,0.0,0.0
11.974,4432.774,0.00023,0.0,0.0
11.98,4423.985,0.00023,0.0,0.0
11.986,4440.538,0.00023,0.0,0.0
11.993,4449.273,0.00022,0.0,0.0
11.999,4460.169,0.00022,0.0,0.0
12.005,4452.285,0.00022,0.0,0.0
12.012,4473.01,0.00022,0.0,0.0
12.018,4459.826,0.00022,0.0,0.0
12.024,4484.11,0.00022,0.0,0.0
12.031,4461.367,0.00022,0.0,0.0
12.037,4474.701,0.00022,0.0,0.0
12.043,4512.05,0.00022,0.0,0.0
12.05,4524.937,0.00022,0.0,0.0
12.056,4523.274,0.00022,0.0,0.0
12.062,4566.136,0.00022,0.0,0.0
12.069,4625.732,0.00022,0.0,0.0
12.075,4532.168,0.00022,0.0,0.0
12.081,4844.493,0.00021,0.0,0.0
12.088,4672.18,0.00021,0.0,0.0
12.094,4688.828,0.00021,0.0,0.0
12.1,5828.623,0.00017,0.0,0.0
12.106,4554.884,0.00022,0.0,0.0
12.113,5018.603,0.0002,0.0,0.0
12.119,4627.522,0.00022,0.0,0.0
12.125,4501.885,0.00022,0.0,0.0
12.132,4547.772,0.00022,0.0,0.0
12.138,4407.05,0.00023,0.0,0.0
12.144,4459.535,0.00022,0.0,0.0
12.151,4431.026,0.00023,0.0,0.0
12.157,4395.95,0.00023,0.0,0.0
12.163,4397.05,0.00023,0.0,0.0
12.17,4376.238,0.00023,0.0,0.0
12.176,4386.403,0.00023,0.0,0.0
12.182,4320.98,0.00023,0.0,0.0
12.189,4344.099,0.00023,0.0,0.0
12.195,4316.143,0.00023,0.0,0.0
12.201,4332.687,0.00023,0.0,0.0
12.208,4301.744,0.00023,0.0,0.0
12.214,4292.753,0.00023,0.0,0.0
12.22,4291.282,0.00023,0.0,0.0
12.227,4257.473,0.00023,0.0,0.0
12.233,4270.807,0.00023,0.0,0.0
12.239,4228.695,0.00024,0.0,0.0
12.246,4254.552,0.00024,0.0,0.0
12.252,4216.026,0.00024,0.0,0.0
12.258,4261.193,0.00023,0.0,0.0
12.264,4232.081,0.00024,0.0,0.0
12.271,4224.028,0.00024,0.0,0.0
12.277,4208.467,0.00024,0.0,0.0
12.283,4187.888,0.00024,0.0,0.0
12.29,4206.485,0.00024,0.0,0.0
12.296,4164.387,0.00024,0.0,0.0
12.302,4212.583,0.00024,0.0,0.0
12.309,4177.437,0.00024,0.0,0.0
12.315,4189.039,0.00024,0.0,0.0
12.321,4182.279,0.00024,0.0,0.0
12.328,4166.893,0.00024,0.0,0.0
12.334,4155.378,0.00024,0.0,0.0
12.34,4141.489,0.00024,0.0,0.0
12.347,4172.936,0.00024,0.0,0.0
12.353,4147.858,0.00024,0.0,0.0
12.359,4154.182,0.00024,0.0,0.0
12.366,4133.054,0.00024,0.0,0.0
12.372,4176.493,0.00024,0.0,0.0
12.378,4154.74,0.00024,0.0,0.0
12.385,4148.371,0.00024,0.0,0.0
12.391,4133.683,0.00024,0.0,0.0
12.397,4124.893,0.00024,0.0,0.0
12.404,4137.835,0.00024,0.0,0.0
12.41,4121.698,0.00024,0.0,0.0
12.416,4124.65,0.00024,0.0,0.0
12.422,4105.536,0.00024,0.0,0.0
12.429,4115.373,0.00024,0.0,0.0
12.435,4096.755,0.00024,0.0,0.0
12.441,4083.503,0.00024,0.0,0.0
12.448,4091.983,0.00024,0.0,0.0
12.454,4086.142,0.00024,0.0,0.0
12.46,4090.075,0.00024,0.0,0.0
12.467,4103.122,0.00024,0.0,0.0
12.473,4096.551,0.00024,0.0,0.0
12.479,4087.646,0.00024,0.0,0.0
12.486,4104.243,0.00024,0.0,0.0
12.492,4104.092,0.00024,0.0,0.0
12.498,4109.305,0.00024,0.0,0.0
12.505,4121.396,0.00024,0.0,0.0
12.511,4114.852,0.00024,0.0,0.0
12.517,4139.504,0.00024,0.0,0.0
12.524,4126.723,0.00024,0.0,0.0
12.53,4148.408,0.00024,0.0,0.0
12.536,4118.147,0.00024,0.0,0.0
12.543,4125.212,0.00024,0.0,0.0
12.549,4108.662,0.00024,0.0,0.0
12.555,4120.863,0.00024,0.0,0.0
12.562,4116.591,0.00024,0.0,0.0
12.568,4110.803,0.00024,0.0,0.0
12.574,4112.979,0.00024,0.0,0.0
12.58,4130.795,0.00024,0.0,0.0
12.587,4139.421,0.00024,0.0,0.0
12.593,4152.561,0.00024,0.0,0.0
12.599,4182.456,0.00024,0.0,0.0
12.606,4196.204,0.00024,0.0,0.0
12.612,4248.495,0.00024,0.0,0.0
12.618,4305.524,0.00023,0.0,0.0
12.625,4391.672,0.00023,0.0,0.0
12.631,4531.616,0.00022,0.0,0.0
12.637,4734.876,0.00021,0.0,0.0
12.644,5103.619,0.0002,0.0,0.0
12.65,5627.319,0.00018,0.0,0.0
12.656,6665.41,0.00015,0.0,0.0
12.663,8578.944,0.00012,0.0,0.0
12.669,11960.232,0.00008,0.0,0.0
12.675,17228.915,0.00006,0.0,0.0
12.682,21794.848,0.00005,0.0,0.0
12.688,29991.313,0.00003,0.0,0.0
12.694,32912.033,0.00003,0.0,0.0
12.701,31124.496,0.00003,0.0,0.0
12.707,28361.231,0.00004,0.0,0.0
12.713,21888.514,0.00005,0.0,0.0
12.72,16105.895,0.00006,0.0,0.0
12.726,11068.475,0.00009,0.0,0.0
12.732,8229.732,0.00012,0.0,0.0
12.738,6494.607,0.00015,0.0,0.0
12.745,5512.608,0.00018,0.0,0.0
12.751,4928.661,0.0002,0.0,0.0
12.757,4619.48,0.00022,0.0,0.0
12.764,4412.555,0.00023,0.0,0.0
12.77,4298.847,0.00023,0.0,0.0
12.776,4213.467,0.00024,0.0,0.0
12.783,4135.237,0.00024,0.0,0.0
12.789,4095.559,0.00024,0.0,0.0
12.795,4069.782,0.00025,0.0,0.0
12.802,4038.739,0.00025,0.0,0.0
12.808,4013.104,0.00025,0.0,0.0
12.814,3996.101,0.00025,0.0,0.0
12.821,3983.627,0.00025,0.0,0.0
12.827,3972.252,0.00025,0.0,0.0
12.833,3968.114,0.00025,0.0,0.0
12.84,3958.459,0.00025,0.0,0.0
12.846,3937.205,0.00025,0.0,0.0
12.852,3938.838,0.00025,0.0,0.0
12.859,3924.791,0.00025,0.0,0.0
12.865,3902.18,0.00026,0.0,0.0
12.871,3927.203,0.00025,0.0,0.0
12.878,3891.275,0.00026,0.0,0.0
12.884,3916.308,0.00026,0.0,0.0
12.89,3899.932,0.00026,0.0,0.0
12.896,3899.144,0.00026,0.0,0.0
12.903,3909.131,0.00026,0.0,0.0
12.909,3888.7,0.00026,0.0,0.0
12.915,3909.6,0.00026,0.0,0.0
12.922,3907.097,0.00026,0.0,0.0
12.928,3936.006,0.00025,0.0,0.0
12.934,3940.043,0.00025,0.0,0.0
12.941,3971.238,0.00025,0.0,0.0
12.947,3980.959,0.00025,0.0,0.0
12.953,3980.2,0.00025,0.0,0.0
12.96,3963.448,0.00025,0.0,0.0
12.966,3933.231,0.00025,0.0,0.0
12.972,3911.599,0.00026,0.0,0.0
12.979,3894.995,0.00026,0.0,0.0
12.985,3872.515,0.00026,0.0,0.0
12.991,3857.345,0.00026,0.0,0.0
12.998,3831.497,0.00026,0.0,0.0
13.004,3817.306,0.00026,0.0,0.0
13.01,3820.638,0.00026,0.0,0.0
13.017,3816.828,0.00026,0.0,0.0
13.023,3797.628,0.00026,0.0,0.0
13.029,3797.914,0.00026,0.0,0.0
13.036,3786.516,0.00026,0.0,0.0
13.042,3787.751,0.00026,0.0,0.0
13.048,3787.426,0.00026,0.0,0.0
13.054,3786.511,0.00026,0.0,0.0
13.061,3772.007,0.00027,0.0,0.0
13.067,3773.777,0.00026,0.0,0.0
13.073,3760.929,0.00027,0.0,0.0
13.08,3786.278,0.00026,0.0,0.0
13.086,3783.183,0.00026,0.0,0.0
13.092,3770.875,0.00027,0.0,0.0
13.099,3756.179,0.00027,0.0,0.0
13.105,3760.124,0.00027,0.0,0.0
13.111,3764.309,0.00027,0.0,0.0
13.118,3754.968,0.00027,0.0,0.0
13.124,3768.187,0.00027,0.0,0.0
13.13,3765.982,0.00027,0.0,0.0
13.137,3753.735,0.00027,0.0,0.0
13.143,3757.078,0.00027,0.0,0.0
13.149,3749.624,0.00027,0.0,0.0
13.156,3759.932,0.00027,0.0,0.0
13.162,3763.542,0.00027,0.0,0.0
13.168,3751.193,0.00027,0.0,0.0
13.175,3780.222,0.00026,0.0,0.0
13.181,3781.501,0.00026,0.0,0.0
13.187,3790.081,0.00026,0.0,0.0
13.194,3798.284,0.00026,0.0,0.0
13.2,3823.936,0.00026,0.0,0.0
13.206,3893.479,0.00026,0.0,0.0
13.212,3960.096,0.00025,0.0,0.0
13.219,4086.206,0.00024,0.0,0.0
13.225,4358.956,0.00023,0.0,0.0
13.231,4796.599,0.00021,0.0,0.0
13.238,5727.388,0.00017,0.0,0.0
13.244,6857.754,0.00015,0.0,0.0
13.25,8471.674,0.00012,0.0,0.0
13.257,10586.769,0.00009,0.0,0.0
13.263,11168.027,0.00009,0.0,0.0
13.269,11243.718,0.00009,0.0,0.0
13.276,9947.17,0.0001,0.0,0.0
13.282,8458.174,0.00012,0.0,0.0
13.288,6894.785,0.00015,0.0,0.0
13.295,5522.828,0.00018,0.0,0.0
13.301,4751.337,0.00021,0.0,0.0
13.307,4290.499,0.00023,0.0,0.0
13.314,4018.566,0.00025,0.0,0.0
13.32,3898.769,0.00026,0.0,0.0
13.326,3806.365,0.00026,0.0,0.0
13.333,3765.767,0.00027,0.0,0.0
13.339,3726.729,0.00027,0.0,0.0
13.345,3711.553,0.00027,0.0,0.0
13.352,3703.328,0.00027,0.0,0.0
13.358,3694.248,0.00027,0.0,0.0
13.364,3665.749,0.00027,0.0,0.0
13.37,3661.144,0.00027,0.0,0.0
13.377,3648.781,0.00027,0.0,0.0
13.383,3647.7,0.00027,0.0,0.0
13.389,3641.755,0.00027,0.0,0.0
13.396,3648.163,0.00027,0.0,0.0
13.402,3631.094,0.00028,0.0,0.0
13.408,3625.886,0.00028,0.0,0.0
13.415,3624.121,0.00028,0.0,0.0
13.421,3626.698,0.00028,0.0,0.0
13.427,3618.91,0.00028,0.0,0.0
13.434,3611.051,0.00028,0.0,0.0
13.44,3609.776,0.00028,0.0,0.0
13.446,3604.417,0.00028,0.0,0.0
13.453,3600.976,0.00028,0.0,0.0
13.459,3586.307,0.00028,0.0,0.0
13.465,3590.681,0.00028,0.0,0.0
13.472,3590.014,0.00028,0.0,0.0
13.478,3567.717,0.00028,0.0,0.0
13.484,3576.875,0.00028,0.0,0.0
13.491,3570.739,0.00028,0.0,0.0
13.497,3553.881,0.00028,0.0,0.0
13.503,3571.21,0.00028,0.0,0.0
13.51,3588.27,0.00028,0.0,0.0
13.516,3561.048,0.00028,0.0,0.0
13.522,3558.726,0.00028,0.0,0.0
13.528,3562.424,0.00028,0.0,0.0
13.535,3547.979,0.00028,0.0,0.0
13.541,3556.132,0.00028,0.0,0.0
13.547,3541.774,0.00028,0.0,0.0
13.554,3547.844,0.00028,0.0,0.0
13.56,3540.703,0.00028,0.0,0.0
13.566,3542.941,0.00028,0.0,0.0
13.573,3530.444,0.00028,0.0,0.0
13.579,3524.061,0.00028,0.0,0.0
13.585,3533.1,0.00028,0.0,0.0
13.592,3529.143,0.00028,0.0,0.0
13.598,3533.14,0.00028,0.0,0.0
13.604,3527.839,0.00028,0.0,0.0
13.611,3527.996,0.00028,0.0,0.0
13.617,3524.484,0.00028,0.0,0.0
13.623,3531.937,0.00028,0.0,0.0
13.63,3520.519,0.00028,0.0,0.0
13.636,3524.376,0.00028,0.0,0.0
13.642,3517.963,0.00028,0.0,0.0
13.649,3542.02,0.00028,0.0,0.0
13.655,3536.893,0.00028,0.0,0.0
13.661,3521.49,0.00028,0.0,0.0
13.668,3531.522,0.00028,0.0,0.0
13.674,3520.319,0.00028,0.0,0.0
13.68,3521.55,0.00028,0.0,0.0
13.686,3514.949,0.00028,0.0,0.0
13.693,3505.897,0.00029,0.0,0.0
13.699,3504.261,0.00029,0.0,0.0
13.705,3502.871,0.00029,0.0,0.0
13.712,3509.917,0.00028,0.0,0.0
13.718,3499.206,0.00029,0.0,0.0
13.724,3492.803,0.00029,0.0,0.0
13.731,3514.649,0.00028,0.0,0.0
13.737,3496.239,0.00029,0.0,0.0
13.743,3493.057,0.00029,0.0,0.0
13.75,3487.645,0.00029,0.0,0.0
13.756,3468.151,0.00029,0.0,0.0
13.762,3463.779,0.00029,0.0,0.0
13.769,3466.973,0.00029,0.0,0.0
13.775,3453.155,0.00029,0.0,0.0
13.781,3459.664,0.00029,0.0,0.0
13.788,3448.812,0.00029,0.0,0.0
13.794,3454.835,0.00029,0.0,0.0
13.8,3454.452,0.00029,0.0,0.0
13.807,3445.85,0.00029,0.0,0.0
13.813,3465.601,0.00029,0.0,0.0
13.819,3456.996,0.00029,0.0,0.0
13.826,3445.793,0.00029,0.0,0.0
13.832,3445.157,0.00029,0.0,0.0
13.838,3438.73,0.00029,0.0,0.0
13.844,3438.36,0.00029,0.0,0.0
13.851,3440.432,0.00029,0.0,0.0
13.857,3438.537,0.00029,0.0,0.0
13.863,3433.159,0.00029,0.0,0.0
13.87,3424.902,0.00029,0.0,0.0
13.876,3423.389,0.00029,0.0,0.0
13.882,3417.591,0.00029,0.0,0.0
13.889,3423.902,0.00029,0.0,0.0
13.895,3419.613,0.00029,0.0,0.0
13.901,3425.657,0.00029,0.0,0.0
13.908,3413.087,0.00029,0.0,0.0
13.914,3421.102,0.00029,0.0,0.0
13.92,3416.955,0.00029,0.0,0.0
13.927,3404.656,0.00029,0.0,0.0
13.933,3403.296,0.00029,0.0,0.0
13.939,3404.033,0.00029,0.0,0.0
13.946,3399.908,0.00029,0.0,0.0
13.952,3392.052,0.00029,0.0,0.0
13.958,3393.501,0.00029,0.0,0.0
13.965,3398.008,0.00029,0.0,0.0
13.971,3395.192,0.00029,0.0,0.0
13.977,3384.403,0.0003,0.0,0.0
13.984,3388.025,0.0003,0.0,0.0
13.99,3393.519,0.00029,0.0,0.0
13.996,3389.928,0.00029,0.0,0.0
14.002,3381.859,0.0003,0.0,0.0
14.009,3372.95,0.0003,0.0,0.0
14.015,3380.699,0.0003,0.0,0.0
14.021,3375.471,0.0003,0.0,0.0
14.028,3366.457,0.0003,0.0,0.0
14.034,3366.951,0.0003,0.0,0.0
14.04,3365.539,0.0003,0.0,0.0
14.047,3362.591,0.0003,0.0,0.0
14.053,3369.764,0.0003,0.0,0.0
14.059,3353.897,0.0003,0.0,0.0
14.066,3361.443,0.0003,0.0,0.0
14.072,3350.205,0.0003,0.0,0.0
14.078,3355.771,0.0003,0.0,0.0
14.085,3353.977,0.0003,0.0,0.0
14.091,3337.21,0.0003,0.0,0.0
14.097,3349.598,0.0003,0.0,0.0
14.104,3345.763,0.0003,0.0,0.0
14.11,3356.736,0.0003,0.0,0.0
14.116,3342.817,0.0003,0.0,0.0
14.123,3340.812,0.0003,0.0,0.0
14.129,3343.275,0.0003,0.0,0.0
14.135,3342.659,0.0003,0.0,0.0
14.142,3323.787,0.0003,0.0,0.0
14.148,3335.754,0.0003,0.0,0.0
14.154,3330.231,0.0003,0.0,0.0
14.16,3329.478,0.0003,0.0,0.0
14.167,3323.116,0.0003,0.0,0.0
14.173,3322.327,0.0003,0.0,0.0
14.179,3325.993,0.0003,0.0,0.0
14.186,3314.011,0.0003,0.0,0.0
14.192,3333.83,0.0003,0.0,0.0
14.198,3329.721,0.0003,0.0,0.0
14.205,3325.17,0.0003,0.0,0.0
14.211,3317.707,0.0003,0.0,0.0
14.217,3330.124,0.0003,0.0,0.0
14.224,3329.76,0.0003,0.0,0.0
14.23,3335.025,0.0003,0.0,0.0
14.236,3331.219,0.0003,0.0,0.0
14.243,3343.655,0.0003,0.0,0.0
14.249,3348.83,0.0003,0.0,0.0
14.255,3352.167,0.0003,0.0,0.0
14.262,3361.642,0.0003,0.0,0.0
14.268,3353.496,0.0003,0.0,0.0
14.274,3354.682,0.0003,0.0,0.0
14.281,3354.413,0.0003,0.0,0.0
14.287,3340.165,0.0003,0.0,0.0
14.293,3342.56,0.0003,0.0,0.0
14.3,3317.236,0.0003,0.0,0.0
14.306,3313.577,0.0003,0.0,0.0
14.312,3298.726,0.0003,0.0,0.0
14.318,3295.896,0.0003,0.0,0.0
14.325,3299.245,0.0003,0.0,0.0
14.331,3285.424,0.0003,0.0,0.0
14.337,3287.803,0.0003,0.0,0.0
14.344,3278.372,0.00031,0.0,0.0
14.35,3285.295,0.0003,0.0,0.0
14.356,3281.031,0.0003,0.0,0.0
14.363,3278.847,0.0003,0.0,0.0
14.369,3272.862,0.00031,0.0,0.0
14.375,3287.331,0.0003,0.0,0.0
14.382,3266.532,0.00031,0.0,0.0
14.388,3264.059,0.00031,0.0,0.0
14.394,3274.371,0.00031,0.0,0.0
14.401,3271.184,0.00031,0.0,0.0
14.407,3256.8,0.00031,0.0,0.0
14.413,3270.731,0.00031,0.0,0.0
14.42,3257.033,0.00031,0.0,0.0
14.426,3259.311,0.00031,0.0,0.0
14.432,3248.663,0.00031,0.0,0.0
14.439,3249.245,0.00031,0.0,0.0
14.445,3261.367,0.00031,0.0,0.0
14.451,3249.01,0.00031,0.0,0.0
14.458,3246.333,0.00031,0.0,0.0
14.464,3260.92,0.00031,0.0,0.0
14.47,3262.342,0.00031,0.0,0.0
14.476,3254.944,0.00031,0.0,0.0
14.483,3256.726,0.00031,0.0,0.0
14.489,3235.407,0.00031,0.0,0.0
14.495,3248.934,0.00031,0.0,0.0
14.502,3229.448,0.00031,0.0,0.0
14.508,3240.44,0.00031,0.0,0.0
14.514,3243.528,0.00031,0.0,0.0
14.521,3235.262,0.00031,0.0,0.0
14.527,3242.249,0.00031,0.0,0.0
14.533,3224.698,0.00031,0.0,0.0
14.54,3226.395,0.00031,0.0,0.0
14.546,3231.916,0.00031,0.0,0.0
14.552,3238.318,0.00031,0.0,0.0
14.559,3229.421,0.00031,0.0,0.0
14.565,3220.478,0.00031,0.0,0.0
14.571,3238.136,0.00031,0.0,0.0
14.578,3224.524,0.00031,0.0,0.0
14.584,3228.052,0.00031,0.0,0.0
14.59,3241.572,0.00031,0.0,0.0
14.597,3230.231,0.00031,0.0,0.0
14.603,3225.765,0.00031,0.0,0.0
14.609,3219.617,0.00031,0.0,0.0
14.616,3217.68,0.00031,0.0,0.0
14.622,3231.306,0.00031,0.0,0.0
14.628,3215.194,0.00031,0.0,0.0
14.634,3208.697,0.00031,0.0,0.0
14.641,3212.064,0.00031,0.0,0.0
14.647,3216.818,0.00031,0.0,0.0
14.653,3209.959,0.00031,0.0,0.0
14.66,3219.723,0.00031,0.0,0.0
14.666,3233.618,0.00031,0.0,0.0
14.672,3219.626,0.00031,0.0,0.0
14.679,3227.47,0.00031,0.0,0.0
14.685,3221.818,0.00031,0.0,0.0
14.691,3208.438,0.00031,0.0,0.0
14.698,3205.058,0.00031,0.0,0.0
14.704,3200.62,0.00031,0.0,0.0
14.71,3195.993,0.00031,0.0,0.0
14.717,3192.524,0.00031,0.0,0.0
14.723,3198.249,0.00031,0.0,0.0
14.729,3193.858,0.00031,0.0,0.0
14.736,3205.151,0.00031,0.0,0.0
14.742,3186.64,0.00031,0.0,0.0
14.748,3211.911,0.00031,0.0,0.0
14.755,3192.211,0.00031,0.0,0.0
14.761,3191.28,0.00031,0.0,0.0
14.767,3194.438,0.00031,0.0,0.0
14.774,3179.19,0.00031,0.0,0.0
14.78,3196.938,0.00031,0.0,0.0
14.786,3188.381,0.00031,0.0,0.0
14.792,3196.699,0.00031,0.0,0.0
14.799,3180.038,0.00031,0.0,0.0
14.805,3191.422,0.00031,0.0,0.0
14.811,3201.836,0.00031,0.0,0.0
14.818,3198.193,0.00031,0.0,0.0
14.824,3184.71,0.00031,0.0,0.0
14.83,3189.851,0.00031,0.0,0.0
14.837,3193.848,0.00031,0.0,0.0
14.843,3175.251,0.00031,0.0,0.0
14.849,3178.074,0.00031,0.0,0.0
14.856,3182.518,0.00031,0.0,0.0
14.862,3194.504,0.00031,0.0,0.0
14.868,3193.709,0.00031,0.0,0.0
14.875,3169.508,0.00032,0.0,0.0
14.881,3181.072,0.00031,0.0,0.0
14.887,3185.868,0.00031,0.0,0.0
14.894,3171.418,0.00032,0.0,0.0
14.9,3173.876,0.00032,0.0,0.0
14.906,3183.594,0.00031,0.0,0.0
14.913,3172.081,0.00032,0.0,0.0
14.919,3173.403,0.00032,0.0,0.0
14.925,3177.608,0.00031,0.0,0.0
14.932,3173.656,0.00032,0.0,0.0
14.938,3179.144,0.00031,0.0,0.0
14.944,3165.601,0.00032,0.0,0.0
14.95,3177.935,0.00031,0.0,0.0
14.957,3169.444,0.00032,0.0,0.0
14.963,3171.892,0.00032,0.0,0.0
14.969,3161.285,0.00032,0.0,0.0
14.976,3176.737,0.00031,0.0,0.0
14.982,3172.921,0.00032,0.0,0.0
14.988,3164.363,0.00032,0.0,0.0
14.995,3170.732,0.00032,0.0,0.0
15.001,3173.809,0.00032,0.0,0.0
15.007,3164.932,0.00032,0.0,0.0
15.014,3171.218,0.00032,0.0,0.0
15.02,3161.771,0.00032,0.0,0.0
15.026,3161.195,0.00032,0.0,0.0
15.033,3162.776,0.00032,0.0,0.0
15.039,3166.769,0.00032,0.0,0.0
15.045,3169.32,0.00032,0.0,0.0
15.052,3156.849,0.00032,0.0,0.0
15.058,3165.913,0.00032,0.0,0.0
15.064,3164.601,0.00032,0.0,0.0
15.071,3161.931,0.00032,0.0,0.0
15.077,3158.007,0.00032,0.0,0.0
15.083,3169.992,0.00032,0.0,0.0
15.09,3158.955,0.00032,0.0,0.0
15.096,3166.379,0.00032,0.0,0.0
15.102,3159.937,0.00032,0.0,0.0
15.108,3156.903,0.00032,0.0,0.0
15.115,3163.918,0.00032,0.0,0.0
15.121,3156.444,0.00032,0.0,0.0
15.127,3153.974,0.00032,0.0,0.0
15.134,3162.738,0.00032,0.0,0.0
15.14,3151.906,0.00032,0.0,0.0
15.146,3162.723,0.00032,0.0,0.0
15.153,3156.343,0.00032,0.0,0.0
15.159,3158.756,0.00032,0.0,0.0
15.165,3152.132,0.00032,0.0,0.0
15.172,3149.424,0.00032,0.0,0.0
15.178,3163.798,0.00032,0.0,0.0
15.184,3171.499,0.00032,0.0,0.0
15.191,3165.244,0.00032,0.0,0.0
15.197,3150.01,0.00032,0.0,0.0
15.203,3171.989,0.00032,0.0,0.0
15.21,3165.394,0.00032,0.0,0.0
15.216,3168.689,0.00032,0.0,0.0
15.222,3164.322,0.00032,0.0,0.0
15.229,3168.394,0.00032,0.0,0.0
15.235,3173.854,0.00032,0.0,0.0
15.241,3180.25,0.00031,0.0,0.0
15.248,3197.98,0.00031,0.0,0.0
15.254,3204.939,0.00031,0.0,0.0
15.26,3219.966,0.00031,0.0,0.0
15.266,3259.405,0.00031,0.0,0.0
15.273,3308.955,0.0003,0.0,0.0
15.279,3401.39,0.00029,0.0,0.0
15.285,3569.62,0.00028,0.0,0.0
15.292,3810.156,0.00026,0.0,0.0
15.298,4251.229,0.00024,0.0,0.0
15.304,4783.469,0.00021,0.0,0.0
15.311,5460.09,0.00018,0.0,0.0
15.317,6117.583,0.00016,0.0,0.0
15.323,6195.203,0.00016,0.0,0.0
15.33,6620.461,0.00015,0.0,0.0
15.336,5794.62,0.00017,0.0,0.0
15.342,5392.759,0.00019,0.0,0.0
15.349,4636.666,0.00022,0.0,0.0
15.355,4056.81,0.00025,0.0,0.0
15.361,3726.17,0.00027,0.0,0.0
15.368,3466.076,0.00029,0.0,0.0
15.374,3349.385,0.0003,0.0,0.0
15.38,3273.584,0.00031,0.0,0.0
15.387,3216.801,0.00031,0.0,0.0
15.393,3199.695,0.00031,0.0,0.0
15.399,3173.036,0.00032,0.0,0.0
15.406,3166.357,0.00032,0.0,0.0
15.412,3164.479,0.00032,0.0,0.0
15.418,3140.124,0.00032,0.0,0.0
15.424,3143.395,0.00032,0.0,0.0
15.431,3130.026,0.00032,0.0,0.0
15.437,3134.615,0.00032,0.0,0.0
15.443,3129.355,0.00032,0.0,0.0
15.45,3132.465,0.00032,0.0,0.0
15.456,3133.551,0.00032,0.0,0.0
15.462,3124.393,0.00032,0.0,0.0
15.469,3121.032,0.00032,0.0,0.0
15.475,3110.405,0.00032,0.0,0.0
15.481,3115.711,0.00032,0.0,0.0
15.488,3118.095,0.00032,0.0,0.0
15.494,3111.564,0.00032,0.0,0.0
15.5,3108.792,0.00032,0.0,0.0
15.507,3109.919,0.00032,0.0,0.0
15.513,3095.378,0.00032,0.0,0.0
15.519,3094.328,0.00032,0.0,0.0
15.526,3083.3,0.00032,0.0,0.0
15.532,3099.989,0.00032,0.0,0.0
15.538,3090.496,0.00032,0.0,0.0
15.545,3094.198,0.00032,0.0,0.0
15.551,3093.51,0.00032,0.0,0.0
15.557,3085.158,0.00032,0.0,0.0
15.564,3083.515,0.00032,0.0,0.0
15.57,3071.235,0.00033,0.0,0.0
15.576,3074.954,0.00033,0.0,0.0
15.582,3075.375,0.00033,0.0,0.0
15.589,3064.386,0.00033,0.0,0.0
15.595,3079.669,0.00032,0.0,0.0
15.601,3061.243,0.00033,0.0,0.0
15.608,3060.004,0.00033,0.0,0.0
15.614,3060.657,0.00033,0.0,0.0
15.62,3058.335,0.00033,0.0,0.0
15.627,3058.346,0.00033,0.0,0.0
15.633,3053.212,0.00033,0.0,0.0
15.639,3062.691,0.00033,0.0,0.0
15.646,3051.774,0.00033,0.0,0.0
15.652,3045.777,0.00033,0.0,0.0
15.658,3052.873,0.00033,0.0,0.0
15.665,3036.14,0.00033,0.0,0.0
15.671,3041.54,0.00033,0.0,0.0
15.677,3033.527,0.00033,0.0,0.0
15.684,3034.003,0.00033,0.0,0.0
15.69,3039.47,0.00033,0.0,0.0
15.696,3036.685,0.00033,0.0,0.0
15.703,3045.053,0.00033,0.0,0.0
15.709,3027.672,0.00033,0.0,0.0
15.715,3032.255,0.00033,0.0,0.0
15.722,3032.194,0.00033,0.0,0.0
15.728,3023.241,0.00033,0.0,0.0
15.734,3035.965,0.00033,0.0,0.0
15.74,3026.663,0.00033,0.0,0.0
15.747,3023.749,0.00033,0.0,0.0
15.753,3019.169,0.00033,0.0,0.0
15.759,3022.86,0.00033,0.0,0.0
15.766,3019.105,0.00033,0.0,0.0
15.772,3018.853,0.00033,0.0,0.0
15.778,3014.744,0.00033,0.0,0.0
15.785,3011.25,0.00033,0.0,0.0
15.791,3014.588,0.00033,0.0,0.0
15.797,3010.233,0.00033,0.0,0.0
15.804,2997.295,0.00033,0.0,0.0
15.81,3009.443,0.00033,0.0,0.0
15.816,3006.562,0.00033,0.0,0.0
15.823,3008.819,0.00033,0.0,0.0
15.829,3003.489,0.00033,0.0,0.0
15.835,3000.793,0.00033,0.0,0.0
15.842,3001.138,0.00033,0.0,0.0
15.848,2997.188,0.00033,0.0,0.0
15.854,3003.942,0.00033,0.0,0.0
15.861,2991.24,0.00033,0.0,0.0
15.867,2993.324,0.00033,0.0,0.0
15.873,2996.619,0.00033,0.0,0.0
15.88,2990.944,0.00033,0.0,0.0
15.886,2984.882,0.00034,0.0,0.0
15.892,2986.475,0.00033,0.0,0.0
15.898,2978.249,0.00034,0.0,0.0
15.905,2980.949,0.00034,0.0,0.0
15.911,2984.142,0.00034,0.0,0.0
15.917,2984.059,0.00034,0.0,0.0
15.924,2981.879,0.00034,0.0,0.0
15.93,2982.486,0.00034,0.0,0.0
15.936,2977.32,0.00034,0.0,0.0
15.943,2979.444,0.00034,0.0,0.0
15.949,2980.795,0.00034,0.0,0.0
15.955,2981.431,0.00034,0.0,0.0
15.962,2971.818,0.00034,0.0,0.0
15.968,2964.496,0.00034,0.0,0.0
15.974,2965.284,0.00034,0.0,0.0
15.981,2967.617,0.00034,0.0,0.0
15.987,2973.89,0.00034,0.0,0.0
15.993,2973.435,0.00034,0.0,0.0
16.0,2970.784,0.00034,0.0,0.0
16.006,2972.881,0.00034,0.0,0.0
16.012,2968.291,0.00034,0.0,0.0
16.019,2954.721,0.00034,0.0,0.0
16.025,2962.801,0.00034,0.0,0.0
16.031,2959.135,0.00034,0.0,0.0
16.038,2965.898,0.00034,0.0,0.0
16.044,2961.327,0.00034,0.0,0.0
16.05,2968.321,0.00034,0.0,0.0
16.056,2956.637,0.00034,0.0,0.0
16.063,2942.497,0.00034,0.0,0.0
16.069,2954.692,0.00034,0.0,0.0
16.075,2951.372,0.00034,0.0,0.0
16.082,2950.684,0.00034,0.0,0.0
16.088,2948.376,0.00034,0.0,0.0
16.094,2943.559,0.00034,0.0,0.0
16.101,2941.114,0.00034,0.0,0.0
16.107,2953.027,0.00034,0.0,0.0
16.113,2931.95,0.00034,0.0,0.0
16.12,2936.798,0.00034,0.0,0.0
16.126,2946.472,0.00034,0.0,0.0
16.132,2941.353,0.00034,0.0,0.0
16.139,2936.761,0.00034,0.0,0.0
16.145,2949.417,0.00034,0.0,0.0
16.151,2943.086,0.00034,0.0,0.0
16.158,2948.502,0.00034,0.0,0.0
16.164,2934.871,0.00034,0.0,0.0
16.17,2945.218,0.00034,0.0,0.0
16.177,2938.859,0.00034,0.0,0.0
16.183,2939.231,0.00034,0.0,0.0
16.189,2949.474,0.00034,0.0,0.0
16.196,2927.488,0.00034,0.0,0.0
16.202,2946.809,0.00034,0.0,0.0
16.208,2939.035,0.00034,0.0,0.0
16.214,2936.112,0.00034,0.0,0.0
16.221,2945.349,0.00034,0.0,0.0
16.227,2932.146,0.00034,0.0,0.0
16.233,2931.508,0.00034,0.0,0.0
16.24,2940.153,0.00034,0.0,0.0
16.246,2948.462,0.00034,0.0,0.0
16.252,2939.657,0.00034,0.0,0.0
16.259,2922.851,0.00034,0.0,0.0
16.265,2925.889,0.00034,0.0,0.0
16.271,2936.779,0.00034,0.0,0.0
16.278,2927.896,0.00034,0.0,0.0
16.284,2925.067,0.00034,0.0,0.0
16.29,2932.098,0.00034,0.0,0.0
16.297,2932.407,0.00034,0.0,0.0
16.303,2932.647,0.00034,0.0,0.0
16.309,2931.581,0.00034,0.0,0.0
16.316,2929.516,0.00034,0.0,0.0
16.322,2940.598,0.00034,0.0,0.0
16.328,2936.402,0.00034,0.0,0.0
16.335,2928.126,0.00034,0.0,0.0
16.341,2935.238,0.00034,0.0,0.0
16.347,2924.957,0.00034,0.0,0.0
16.354,2930.338,0.00034,0.0,0.0
16.36,2928.165,0.00034,0.0,0.0
16.366,2925.58,0.00034,0.0,0.0
16.372,2911.548,0.00034,0.0,0.0
16.379,2928.597,0.00034,0.0,0.0
16.385,2930.391,0.00034,0.0,0.0
16.391,2920.878,0.00034,0.0,0.0
16.398,2929.887,0.00034,0.0,0.0
16.404,2932.571,0.00034,0.0,0.0
16.41,2917.558,0.00034,0.0,0.0
16.417,2922.7,0.00034,0.0,0.0
16.423,2927.965,0.00034,0.0,0.0
16.429,2923.01,0.00034,0.0,0.0
16.436,2923.162,0.00034,0.0,0.0
16.442,2923.958,0.00034,0.0,0.0
16.448,2924.87,0.00034,0.0,0.0
16.455,2923.723,0.00034,0.0,0.0
16.461,2930.143,0.00034,0.0,0.0
16.467,2939.995,0.00034,0.0,0.0
16.474,2942.819,0.00034,0.0,0.0
16.48,2934.761,0.00034,0.0,0.0
16.486,2949.442,0.00034,0.0,0.0
16.493,2941.39,0.00034,0.0,0.0
16.499,2946.35,0.00034,0.0,0.0
16.505,2953.336,0.00034,0.0,0.0
16.512,2958.102,0.00034,0.0,0.0
16.518,2957.24,0.00034,0.0,0.0
16.524,2939.38,0.00034,0.0,0.0
16.53,2957.027,0.00034,0.0,0.0
16.537,2937.503,0.00034,0.0,0.0
16.543,2950.094,0.00034,0.0,0.0
16.549,2942.065,0.00034,0.0,0.0
16.556,2935.152,0.00034,0.0,0.0
16.562,2936.256,0.00034,0.0,0.0
16.568,2940.68,0.00034,0.0,0.0
16.575,2949.609,0.00034,0.0,0.0
16.581,2949.287,0.00034,0.0,0.0
16.587,2956.275,0.00034,0.0,0.0
16.594,2951.65,0.00034,0.0,0.0
