"x","y_obs","weight","y_calc","y_bkg"
0.8,2660.726,0.00038,0.0,0.0
0.806,3040.22,0.00033,0.0,0.0
0.813,3187.157,0.00031,0.0,0.0
0.819,3092.809,0.00032,0.0,0.0
0.825,3689.818,0.00027,0.0,0.0
0.832,3460.717,0.00029,0.0,0.0
0.838,3759.559,0.00027,0.0,0.0
0.844,4057.715,0.00025,0.0,0.0
0.851,3942.214,0.00025,0.0,0.0
0.857,4369.915,0.00023,0.0,0.0
0.863,4693.4,0.00021,0.0,0.0
0.87,4358.278,0.00023,0.0,0.0
0.876,5139.486,0.00019,0.0,0.0
0.882,4973.426,0.0002,0.0,0.0
0.888,5249.676,0.00019,0.0,0.0
0.895,5439.76,0.00018,0.0,0.0
0.901,5479.847,0.00018,0.0,0.0
0.907,5924.255,0.00017,0.0,0.0
0.914,6053.164,0.00017,0.0,0.0
0.92,5791.414,0.00017,0.0,0.0
0.926,6387.9,0.00016,0.0,0.0
0.933,6401.392,0.00016,0.0,0.0
0.939,6302.403,0.00016,0.0,0.0
0.945,6785.286,0.00015,0.0,0.0
0.952,6512.052,0.00015,0.0,0.0
0.958,6812.791,0.00015,0.0,0.0
0.964,6885.992,0.00015,0.0,0.0
0.971,6666.42,0.00015,0.0,0.0
0.977,7119.6,0.00014,0.0,0.0
0.983,7029.763,0.00014,0.0,0.0
0.99,6917.381,0.00014,0.0,0.0
0.996,7258.208,0.00014,0.0,0.0
1.002,6961.657,0.00014,0.0,0.0
1.009,7172.655,0.00014,0.0,0.0
1.015,7254.979,0.00014,0.0,0.0
1.021,7039.015,0.00014,0.0,0.0
1.028,7319.601,0.00014,0.0,0.0
1.034,7144.94,0.00014,0.0,0.0
1.04,7130.728,0.00014,0.0,0.0
1.046,7190.731,0.00014,0.0,0.0
1.053,7235.398,0.00014,0.0,0.0
1.059,7138.952,0.00014,0.0,0.0
1.065,7242.638,0.00014,0.0,0.0
1.072,7102.078,0.00014,0.0,0.0
1.078,7209.059,0.00014,0.0,0.0
1.084,7071.472,0.00014,0.0,0.0
1.091,7157.272,0.00014,0.0,0.0
1.097,7107.255,0.00014,0.0,0.0
1.103,7038.863,0.00014,0.0,0.0
1.11,7016.816,0.00014,0.0,0.0
1.116,7031.889,0.00014,0.0,0.0
1.122,6916.503,0.00014,0.0,0.0
1.129,7005.225,0.00014,0.0,0.0
1.135,6906.692,0.00014,0.0,0.0
1.141,6873.867,0.00015,0.0,0.0
1.148,6850.6,0.00015,0.0,0.0
1.154,6741.709,0.00015,0.0,0.0
1.16,6712.548,0.00015,0.0,0.0
1.167,6741.317,0.00015,0.0,0.0
1.173,6698.623,0.00015,0.0,0.0
1.179,6679.208,0.00015,0.0,0.0
1.186,6627.159,0.00015,0.0,0.0
1.192,6555.484,0.00015,0.0,0.0
1.198,6527.167,0.00015,0.0,0.0
1.204,6457.741,0.00015,0.0,0.0
1.211,6444.163,0.00016,0.0,0.0
1.217,6383.618,0.00016,0.0,0.0
1.223,6394.933,0.00016,0.0,0.0
1.23,6329.548,0.00016,0.0,0.0
1.236,6298.733,0.00016,0.0,0.0
1.242,6292.834,0.00016,0.0,0.0
1.249,6267.216,0.00016,0.0,0.0
1.255,6254.125,0.00016,0.0,0.0
1.261,6182.721,0.00016,0.0,0.0
1.268,6228.76,0.00016,0.0,0.0
1.274,6108.678,0.00016,0.0,0.0
1.28,6124.913,0.00016,0.0,0.0
1.287,6089.558,0.00016,0.0,0.0
1.293,6099.824,0.00016,0.0,0.0
1.299,6076.254,0.00016,0.0,0.0
1.306,6067.265,0.00016,0.0,0.0
1.312,5969.807,0.00017,0.0,0.0
1.318,6011.766,0.00017,0.0,0.0
1.325,5988.466,0.00017,0.0,0.0
1.331,5981.176,0.00017,0.0,0.0
1.337,5981.181,0.00017,0.0,0.0
1.344,5961.711,0.00017,0.0,0.0
1.35,5929.833,0.00017,0.0,0.0
1.356,5930.969,0.00017,0.0,0.0
1.362,5952.58,0.00017,0.0,0.0
1.369,5904.543,0.00017,0.0,0.0
1.375,5906.78,0.00017,0.0,0.0
1.381,5883.087,0.00017,0.0,0.0
1.388,5865.385,0.00017,0.0,0.0
1.394,5824.701,0.00017,0.0,0.0
1.4,5875.729,0.00017,0.0,0.0
1.407,5846.952,0.00017,0.0,0.0
1.413,5887.226,0.00017,0.0,0.0
1.419,5855.408,0.00017,0.0,0.0
1.426,5856.544,0.00017,0.0,0.0
1.432,5841.981,0.00017,0.0,0.0
1.438,5865.342,0.00017,0.0,0.0
1.445,5822.317,0.00017,0.0,0.0
1.451,5868.81,0.00017,0.0,0.0
1.457,5837.311,0.00017,0.0,0.0
1.464,5848.945,0.00017,0.0,0.0
1.47,5870.659,0.00017,0.0,0.0
1.476,5867.074,0.00017,0.0,0.0
1.483,5877.116,0.00017,0.0,0.0
1.489,5843.169,0.00017,0.0,0.0
1.495,5881.234,0.00017,0.0,0.0
1.502,5854.405,0.00017,0.0,0.0
1.508,5835.652,0.00017,0.0,0.0
1.514,5864.795,0.00017,0.0,0.0
1.52,5863.683,0.00017,0.0,0.0
1.527,5904.844,0.00017,0.0,0.0
1.533,5879.584,0.00017,0.0,0.0
1.539,5891.426,0.00017,0.0,0.0
1.546,5876.097,0.00017,0.0,0.0
1.552,5897.709,0.00017,0.0,0.0
1.558,5906.247,0.00017,0.0,0.0
1.565,5924.209,0.00017,0.0,0.0
1.571,5919.774,0.00017,0.0,0.0
1.577,5938.458,0.00017,0.0,0.0
1.584,5938.905,0.00017,0.0,0.0
1.59,5935.108,0.00017,0.0,0.0
1.596,5945.593,0.00017,0.0,0.0
1.603,6015.361,0.00017,0.0,0.0
1.609,5999.224,0.00017,0.0,0.0
1.615,6023.868,0.00017,0.0,0.0
1.622,6048.638,0.00017,0.0,0.0
1.628,5993.842,0.00017,0.0,0.0
1.634,6074.862,0.00016,0.0,0.0
1.641,6080.805,0.00016,0.0,0.0
1.647,6039.852,0.00017,0.0,0.0
1.653,6113.886,0.00016,0.0,0.0
1.66,6090.749,0.00016,0.0,0.0
1.666,6129.759,0.00016,0.0,0.0
1.672,6127.554,0.00016,0.0,0.0
1.678,6151.728,0.00016,0.0,0.0
1.685,6195.598,0.00016,0.0,0.0
1.691,6192.192,0.00016,0.0,0.0
1.697,6193.234,0.00016,0.0,0.0
1.704,6193.586,0.00016,0.0,0.0
1.71,6190.803,0.00016,0.0,0.0
1.716,6218.324,0.00016,0.0,0.0
1.723,6262.916,0.00016,0.0,0.0
1.729,6283.895,0.00016,0.0,0.0
1.735,6295.345,0.00016,0.0,0.0
1.742,6285.671,0.00016,0.0,0.0
1.748,6294.09,0.00016,0.0,0.0
1.754,6330.952,0.00016,0.0,0.0
1.761,6330.927,0.00016,0.0,0.0
1.767,6340.1,0.00016,0.0,0.0
1.773,6339.817,0.00016,0.0,0.0
1.78,6292.279,0.00016,0.0,0.0
1.786,6380.699,0.00016,0.0,0.0
1.792,6360.576,0.00016,0.0,0.0
1.799,6378.643,0.00016,0.0,0.0
1.805,6431.497,0.00016,0.0,0.0
1.811,6421.626,0.00016,0.0,0.0
1.818,6437.827,0.00016,0.0,0.0
1.824,6431.182,0.00016,0.0,0.0
1.83,6420.053,0.00016,0.0,0.0
1.836,6472.621,0.00015,0.0,0.0
1.843,6449.966,0.00016,0.0,0.0
1.849,6443.004,0.00016,0.0,0.0
1.855,6453.455,0.00015,0.0,0.0
1.862,6448.275,0.00016,0.0,0.0
1.868,6478.017,0.00015,0.0,0.0
1.874,6485.696,0.00015,0.0,0.0
1.881,6455.308,0.00015,0.0,0.0
1.887,6441.941,0.00016,0.0,0.0
1.893,6490.13,0.00015,0.0,0.0
1.9,6438.249,0.00016,0.0,0.0
1.906,6491.855,0.00015,0.0,0.0
1.912,6473.54,0.00015,0.0,0.0
1.919,6427.542,0.00016,0.0,0.0
1.925,6475.65,0.00015,0.0,0.0
1.931,6446.342,0.00016,0.0,0.0
1.938,6469.358,0.00015,0.0,0.0
1.944,6443.289,0.00016,0.0,0.0
1.95,6450.072,0.00016,0.0,0.0
1.957,6482.8,0.00015,0.0,0.0
1.963,6464.986,0.00015,0.0,0.0
1.969,6478.207,0.00015,0.0,0.0
1.976,6496.729,0.00015,0.0,0.0
1.982,6508.242,0.00015,0.0,0.0
1.988,6463.617,0.00015,0.0,0.0
1.994,6497.972,0.00015,0.0,0.0
2.001,6529.561,0.00015,0.0,0.0
2.007,6534.412,0.00015,0.0,0.0
2.013,6528.96,0.00015,0.0,0.0
2.02,6525.549,0.00015,0.0,0.0
2.026,6551.11,0.00015,0.0,0.0
2.032,6537.62,0.00015,0.0,0.0
2.039,6559.877,0.00015,0.0,0.0
2.045,6570.586,0.00015,0.0,0.0
2.051,6572.286,0.00015,0.0,0.0
2.058,6584.604,0.00015,0.0,0.0
2.064,6574.319,0.00015,0.0,0.0
2.07,6603.409,0.00015,0.0,0.0
2.077,6592.311,0.00015,0.0,0.0
2.083,6598.674,0.00015,0.0,0.0
2.089,6615.368,0.00015,0.0,0.0
2.096,6603.589,0.00015,0.0,0.0
2.102,6605.347,0.00015,0.0,0.0
2.108,6627.781,0.00015,0.0,0.0
2.115,6641.484,0.00015,0.0,0.0
2.121,6640.234,0.00015,0.0,0.0
2.127,6650.438,0.00015,0.0,0.0
2.134,6675.12,0.00015,0.0,0.0
2.14,6685.523,0.00015,0.0,0.0
2.146,6700.449,0.00015,0.0,0.0
2.152,6725.662,0.00015,0.0,0.0
2.159,6738.631,0.00015,0.0,0.0
2.165,6742.49,0.00015,0.0,0.0
2.171,6761.253,0.00015,0.0,0.0
2.178,6767.796,0.00015,0.0,0.0
2.184,6800.2,0.00015,0.0,0.0
2.19,6797.369,0.00015,0.0,0.0
2.197,6798.341,0.00015,0.0,0.0
2.203,6848.521,0.00015,0.0,0.0
2.209,6828.263,0.00015,0.0,0.0
2.216,6890.681,0.00015,0.0,0.0
2.222,6871.654,0.00015,0.0,0.0
2.228,6885.391,0.00015,0.0,0.0
2.235,6925.882,0.00014,0.0,0.0
2.241,6927.048,0.00014,0.0,0.0
2.247,6963.522,0.00014,0.0,0.0
2.254,6965.967,0.00014,0.0,0.0
2.26,7000.647,0.00014,0.0,0.0
2.266,6992.099,0.00014,0.0,0.0
2.273,7030.113,0.00014,0.0,0.0
2.279,7048.671,0.00014,0.0,0.0
2.285,7072.722,0.00014,0.0,0.0
2.292,7056.296,0.00014,0.0,0.0
2.298,7096.104,0.00014,0.0,0.0
2.304,7119.297,0.00014,0.0,0.0
2.31,7160.848,0.00014,0.0,0.0
2.317,7173.882,0.00014,0.0,0.0
2.323,7196.668,0.00014,0.0,0.0
2.329,7240.757,0.00014,0.0,0.0
2.336,7277.336,0.00014,0.0,0.0
2.342,7284.638,0.00014,0.0,0.0
2.348,7304.772,0.00014,0.0,0.0
2.355,7336.588,0.00014,0.0,0.0
2.361,7381.731,0.00014,0.0,0.0
2.367,7434.906,0.00013,0.0,0.0
2.374,7461.716,0.00013,0.0,0.0
2.38,7525.32,0.00013,0.0,0.0
2.386,7583.595,0.00013,0.0,0.0
2.393,7677.715,0.00013,0.0,0.0
2.399,7782.751,0.00013,0.0,0.0
2.405,7982.608,0.00013,0.0,0.0
2.412,8248.583,0.00012,0.0,0.0
2.418,8449.403,0.00012,0.0,0.0
2.424,8577.647,0.00012,0.0,0.0
2.431,8673.694,0.00012,0.0,0.0
2.437,8477.315,0.00012,0.0,0.0
2.443,8354.711,0.00012,0.0,0.0
2.45,8156.403,0.00012,0.0,0.0
2.456,8047.019,0.00012,0.0,0.0
2.462,7989.238,0.00013,0.0,0.0
2.468,7906.803,0.00013,0.0,0.0
2.475,7941.586,0.00013,0.0,0.0
2.481,7965.039,0.00013,0.0,0.0
2.487,7938.325,0.00013,0.0,0.0
2.494,7966.461,0.00013,0.0,0.0
2.5,8017.029,0.00012,0.0,0.0
2.506,8026.95,0.00012,0.0,0.0
2.513,8067.596,0.00012,0.0,0.0
2.519,8097.963,0.00012,0.0,0.0
2.525,8134.183,0.00012,0.0,0.0
2.532,8161.295,0.00012,0.0,0.0
2.538,8177.779,0.00012,0.0,0.0
2.544,8196.551,0.00012,0.0,0.0
2.551,8245.185,0.00012,0.0,0.0
2.557,8300.655,0.00012,0.0,0.0
2.563,8322.3,0.00012,0.0,0.0
2.57,8344.459,0.00012,0.0,0.0
2.576,8395.863,0.00012,0.0,0.0
2.582,8373.528,0.00012,0.0,0.0
2.589,8413.404,0.00012,0.0,0.0
2.595,8479.177,0.00012,0.0,0.0
2.601,8494.155,0.00012,0.0,0.0
2.608,8518.082,0.00012,0.0,0.0
2.614,8570.052,0.00012,0.0,0.0
2.62,8616.309,0.00012,0.0,0.0
2.626,8619.695,0.00012,0.0,0.0
2.633,8673.414,0.00012,0.0,0.0
2.639,8687.807,0.00012,0.0,0.0
2.645,8729.241,0.00011,0.0,0.0
2.652,8778.505,0.00011,0.0,0.0
2.658,8828.717,0.00011,0.0,0.0
2.664,8849.986,0.00011,0.0,0.0
2.671,8873.967,0.00011,0.0,0.0
2.677,8914.09,0.00011,0.0,0.0
2.683,8915.796,0.00011,0.0,0.0
2.69,8993.619,0.00011,0.0,0.0
2.696,9056.317,0.00011,0.0,0.0
2.702,9051.536,0.00011,0.0,0.0
2.709,9097.578,0.00011,0.0,0.0
2.715,9124.5,0.00011,0.0,0.0
2.721,9174.255,0.00011,0.0,0.0
2.728,9203.339,0.00011,0.0,0.0
2.734,9253.676,0.00011,0.0,0.0
2.74,9284.071,0.00011,0.0,0.0
2.747,9304.949,0.00011,0.0,0.0
2.753,9364.004,0.00011,0.0,0.0
2.759,9393.501,0.00011,0.0,0.0
2.766,9443.306,0.00011,0.0,0.0
2.772,9491.234,0.00011,0.0,0.0
2.778,9497.436,0.00011,0.0,0.0
2.784,9537.26,0.0001,0.0,0.0
2.791,9587.276,0.0001,0.0,0.0
2.797,9628.818,0.0001,0.0,0.0
2.803,9628.938,0.0001,0.0,0.0
2.81,9702.406,0.0001,0.0,0.0
2.816,9754.096,0.0001,0.0,0.0
2.822,9774.832,0.0001,0.0,0.0
2.829,9816.038,0.0001,0.0,0.0
2.835,9872.976,0.0001,0.0,0.0
2.841,9883.835,0.0001,0.0,0.0
2.848,9937.301,0.0001,0.0,0.0
2.854,9982.425,0.0001,0.0,0.0
2.86,10000.494,0.0001,0.0,0.0
2.867,10048.123,0.0001,0.0,0.0
2.873,10101.512,0.0001,0.0,0.0
2.879,10136.242,0.0001,0.0,0.0
2.886,10155.267,0.0001,0.0,0.0
2.892,10164.745,0.0001,0.0,0.0
2.898,10228.179,0.0001,0.0,0.0
2.905,10267.413,0.0001,0.0,0.0
2.911,10293.186,0.0001,0.0,0.0
2.917,10338.216,0.0001,0.0,0.0
2.924,10360.478,0.0001,0.0,0.0
2.93,10383.541,0.0001,0.0,0.0
2.936,10424.114,0.0001,0.0,0.0
2.942,10441.836,0.0001,0.0,0.0
2.949,10471.707,0.0001,0.0,0.0
2.955,10481.447,0.0001,0.0,0.0
2.961,10544.332,0.00009,0.0,0.0
2.968,10569.645,0.00009,0.0,0.0
2.974,10593.689,0.00009,0.0,0.0
2.98,10611.49,0.00009,0.0,0.0
2.987,10618.315,0.00009,0.0,0.0
2.993,10659.684,0.00009,0.0,0.0
2.999,10678.26,0.00009,0.0,0.0
3.006,10678.411,0.00009,0.0,0.0
3.012,10708.831,0.00009,0.0,0.0
3.018,10718.315,0.00009,0.0,0.0
3.025,10727.377,0.00009,0.0,0.0
3.031,10746.978,0.00009,0.0,0.0
3.037,10752.471,0.00009,0.0,0.0
3.044,10769.695,0.00009,0.0,0.0
3.05,10799.338,0.00009,0.0,0.0
3.056,10775.737,0.00009,0.0,0.0
3.063,10807.665,0.00009,0.0,0.0
3.069,10805.319,0.00009,0.0,0.0
3.075,10802.457,0.00009,0.0,0.0
3.082,10786.372,0.00009,0.0,0.0
3.088,10810.619,0.00009,0.0,0.0
3.094,10786.792,0.00009,0.0,0.0
3.1,10801.65,0.00009,0.0,0.0
3.107,10817.133,0.00009,0.0,0.0
3.113,10812.614,0.00009,0.0,0.0
3.119,10766.415,0.00009,0.0,0.0
3.126,10826.322,0.00009,0.0,0.0
3.132,10783.21,0.00009,0.0,0.0
3.138,10795.771,0.00009,0.0,0.0
3.145,10755.008,0.00009,0.0,0.0
3.151,10779.147,0.00009,0.0,0.0
3.157,10759.505,0.00009,0.0,0.0
3.164,10727.916,0.00009,0.0,0.0
3.17,10697.925,0.00009,0.0,0.0
3.176,10668.444,0.00009,0.0,0.0
3.183,10674.214,0.00009,0.0,0.0
3.189,10661.645,0.00009,0.0,0.0
3.195,10638.064,0.00009,0.0,0.0
3.202,10652.775,0.00009,0.0,0.0
3.208,10611.27,0.00009,0.0,0.0
3.214,10592.188,0.00009,0.0,0.0
3.221,10585.808,0.00009,0.0,0.0
3.227,10569.55,0.00009,0.0,0.0
3.233,10500.004,0.0001,0.0,0.0
3.24,10489.416,0.0001,0.0,0.0
3.246,10453.061,0.0001,0.0,0.0
3.252,10453.521,0.0001,0.0,0.0
3.258,10408.336,0.0001,0.0,0.0
3.265,10401.569,0.0001,0.0,0.0
3.271,10386.751,0.0001,0.0,0.0
3.277,10337.031,0.0001,0.0,0.0
3.284,10324.479,0.0001,0.0,0.0
3.29,10297.83,0.0001,0.0,0.0
3.296,10243.994,0.0001,0.0,0.0
3.303,10268.806,0.0001,0.0,0.0
3.309,10192.502,0.0001,0.0,0.0
3.315,10167.411,0.0001,0.0,0.0
3.322,10172.971,0.0001,0.0,0.0
3.328,10115.112,0.0001,0.0,0.0
3.334,10089.194,0.0001,0.0,0.0
3.341,10062.686,0.0001,0.0,0.0
3.347,10042.719,0.0001,0.0,0.0
3.353,10008.285,0.0001,0.0,0.0
3.36,9975.969,0.0001,0.0,0.0
3.366,9973.684,0.0001,0.0,0.0
3.372,9946.374,0.0001,0.0,0.0
3.379,9903.507,0.0001,0.0,0.0
3.385,9886.647,0.0001,0.0,0.0
3.391,9844.987,0.0001,0.0,0.0
3.398,9815.629,0.0001,0.0,0.0
3.404,9813.244,0.0001,0.0,0.0
3.41,9763.404,0.0001,0.0,0.0
3.416,9722.177,0.0001,0.0,0.0
3.423,9715.493,0.0001,0.0,0.0
3.429,9706.614,0.0001,0.0,0.0
3.435,9698.976,0.0001,0.0,0.0
3.442,9662.562,0.0001,0.0,0.0
3.448,9623.574,0.0001,0.0,0.0
3.454,9609.515,0.0001,0.0,0.0
3.461,9568.161,0.0001,0.0,0.0
3.467,9529.316,0.0001,0.0,0.0
3.473,9541.894,0.0001,0.0,0.0
3.48,9520.655,0.00011,0.0,0.0
3.486,9507.256,0.00011,0.0,0.0
3.492,9458.152,0.00011,0.0,0.0
3.499,9452.719,0.00011,0.0,0.0
3.505,9398.387,0.00011,0.0,0.0
3.511,9369.034,0.00011,0.0,0.0
3.518,9372.891,0.00011,0.0,0.0
3.524,9374.752,0.00011,0.0,0.0
3.53,9321.391,0.00011,0.0,0.0
3.537,9310.32,0.00011,0.0,0.0
3.543,9291.926,0.00011,0.0,0.0
3.549,9255.651,0.00011,0.0,0.0
3.556,9257.596,0.00011,0.0,0.0
3.562,9216.243,0.00011,0.0,0.0
3.568,9185.32,0.00011,0.0,0.0
3.574,9157.925,0.00011,0.0,0.0
3.581,9150.496,0.00011,0.0,0.0
3.587,9168.536,0.00011,0.0,0.0
3.593,9130.397,0.00011,0.0,0.0
3.6,9138.032,0.00011,0.0,0.0
3.606,9100.334,0.00011,0.0,0.0
3.612,9048.798,0.00011,0.0,0.0
3.619,9078.354,0.00011,0.0,0.0
3.625,9076.86,0.00011,0.0,0.0
3.631,9074.096,0.00011,0.0,0.0
3.638,9064.621,0.00011,0.0,0.0
3.644,9025.042,0.00011,0.0,0.0
3.65,9027.947,0.00011,0.0,0.0
3.657,9034.012,0.00011,0.0,0.0
3.663,9024.841,0.00011,0.0,0.0
3.669,9018.163,0.00011,0.0,0.0
3.676,9035.702,0.00011,0.0,0.0
3.682,9001.235,0.00011,0.0,0.0
3.688,9025.221,0.00011,0.0,0.0
3.695,9027.058,0.00011,0.0,0.0
3.701,9055.72,0.00011,0.0,0.0
3.707,9050.001,0.00011,0.0,0.0
3.714,9019.031,0.00011,0.0,0.0
3.72,9077.343,0.00011,0.0,0.0
3.726,9096.522,0.00011,0.0,0.0
3.732,9082.832,0.00011,0.0,0.0
3.739,9139.999,0.00011,0.0,0.0
3.745,9137.665,0.00011,0.0,0.0
3.751,9162.203,0.00011,0.0,0.0
3.758,9231.358,0.00011,0.0,0.0
3.764,9199.52,0.00011,0.0,0.0
3.77,9277.806,0.00011,0.0,0.0
3.777,9347.176,0.00011,0.0,0.0
3.783,9371.697,0.00011,0.0,0.0
3.789,9441.009,0.00011,0.0,0.0
3.796,9441.919,0.00011,0.0,0.0
3.802,9521.316,0.00011,0.0,0.0
3.808,9566.224,0.0001,0.0,0.0
3.815,9618.152,0.0001,0.0,0.0
3.821,9666.609,0.0001,0.0,0.0
3.827,9745.203,0.0001,0.0,0.0
3.834,9768.786,0.0001,0.0,0.0
3.84,9876.514,0.0001,0.0,0.0
3.846,9909.17,0.0001,0.0,0.0
3.853,9925.382,0.0001,0.0,0.0
3.859,10004.281,0.0001,0.0,0.0
3.865,10028.012,0.0001,0.0,0.0
3.872,10096.375,0.0001,0.0,0.0
3.878,10104.235,0.0001,0.0,0.0
3.884,10147.077,0.0001,0.0,0.0
3.89,10175.229,0.0001,0.0,0.0
3.897,10156.625,0.0001,0.0,0.0
3.903,10158.28,0.0001,0.0,0.0
3.909,10196.822,0.0001,0.0,0.0
3.916,10130.693,0.0001,0.0,0.0
3.922,10153.036,0.0001,0.0,0.0
3.928,10123.242,0.0001,0.0,0.0
3.935,10046.902,0.0001,0.0,0.0
3.941,10081.943,0.0001,0.0,0.0
3.947,9958.949,0.0001,0.0,0.0
3.954,9930.204,0.0001,0.0,0.0
3.96,9916.935,0.0001,0.0,0.0
3.966,9792.348,0.0001,0.0,0.0
3.973,9766.555,0.0001,0.0,0.0
3.979,9683.11,0.0001,0.0,0.0
3.985,9564.629,0.0001,0.0,0.0
3.992,9544.451,0.0001,0.0,0.0
3.998,9434.624,0.00011,0.0,0.0
4.004,9342.06,0.00011,0.0,0.0
4.011,9336.589,0.00011,0.0,0.0
4.017,9157.665,0.00011,0.0,0.0
4.023,9168.303,0.00011,0.0,0.0
4.03,9090.187,0.00011,0.0,0.0
4.036,8941.171,0.00011,0.0,0.0
4.042,8992.496,0.00011,0.0,0.0
4.048,8847.152,0.00011,0.0,0.0
4.055,8805.193,0.00011,0.0,0.0
4.061,8756.677,0.00011,0.0,0.0
4.067,8640.922,0.00012,0.0,0.0
4.074,8656.927,0.00012,0.0,0.0
4.08,8578.401,0.00012,0.0,0.0
4.086,8464.789,0.00012,0.0,0.0
4.093,8518.633,0.00012,0.0,0.0
4.099,8424.119,0.00012,0.0,0.0
4.105,8384.965,0.00012,0.0,0.0
4.112,8418.603,0.00012,0.0,0.0
4.118,8290.457,0.00012,0.0,0.0
4.124,8337.065,0.00012,0.0,0.0
4.131,8269.205,0.00012,0.0,0.0
4.137,8248.401,0.00012,0.0,0.0
4.143,8283.611,0.00012,0.0,0.0
4.15,8174.836,0.00012,0.0,0.0
4.156,8180.797,0.00012,0.0,0.0
4.162,8202.44,0.00012,0.0,0.0
4.169,8093.567,0.00012,0.0,0.0
4.175,8171.081,0.00012,0.0,0.0
4.181,8120.775,0.00012,0.0,0.0
4.188,8000.672,0.00012,0.0,0.0
4.194,8105.471,0.00012,0.0,0.0
4.2,8045.522,0.00012,0.0,0.0
4.206,8024.583,0.00012,0.0,0.0
4.213,8068.476,0.00012,0.0,0.0
4.219,7999.711,0.00013,0.0,0.0
4.225,8022.504,0.00012,0.0,0.0
4.232,7992.559,0.00013,0.0,0.0
4.238,7954.336,0.00013,0.0,0.0
4.244,8019.208,0.00012,0.0,0.0
4.251,8008.508,0.00012,0.0,0.0
4.257,7913.398,0.00013,0.0,0.0
4.263,8001.169,0.00012,0.0,0.0
4.27,7934.463,0.00013,0.0,0.0
4.276,7980.526,0.00013,0.0,0.0
4.282,7959.076,0.00013,0.0,0.0
4.289,7941.324,0.00013,0.0,0.0
4.295,7968.414,0.00013,0.0,0.0
4.301,7937.815,0.00013,0.0,0.0
4.308,7959.793,0.00013,0.0,0.0
4.314,7937.914,0.00013,0.0,0.0
4.32,7886.72,0.00013,0.0,0.0
4.327,7877.228,0.00013,0.0,0.0
4.333,8014.653,0.00012,0.0,0.0
4.339,7845.26,0.00013,0.0,0.0
4.346,7981.828,0.00013,0.0,0.0
4.352,8004.662,0.00012,0.0,0.0
4.358,7920.619,0.00013,0.0,0.0
4.364,8050.016,0.00012,0.0,0.0
4.371,7890.937,0.00013,0.0,0.0
4.377,8110.738,0.00012,0.0,0.0
4.383,7946.881,0.00013,0.0,0.0
4.39,8015.408,0.00012,0.0,0.0
4.396,8016.039,0.00012,0.0,0.0
4.402,8165.722,0.00012,0.0,0.0
4.409,8018.581,0.00012,0.0,0.0
4.415,8200.567,0.00012,0.0,0.0
4.421,8158.393,0.00012,0.0,0.0
4.428,8068.931,0.00012,0.0,0.0
4.434,8383.437,0.00012,0.0,0.0
4.44,8139.743,0.00012,0.0,0.0
4.447,8298.023,0.00012,0.0,0.0
4.453,8371.346,0.00012,0.0,0.0
4.459,8536.24,0.00012,0.0,0.0
4.466,8516.554,0.00012,0.0,0.0
4.472,8434.305,0.00012,0.0,0.0
4.478,8528.563,0.00012,0.0,0.0
4.485,9069.459,0.00011,0.0,0.0
4.491,8726.04,0.00011,0.0,0.0
4.497,8640.306,0.00012,0.0,0.0
4.504,10375.493,0.0001,0.0,0.0
4.51,9064.981,0.00011,0.0,0.0
4.516,13312.006,0.00008,0.0,0.0
4.522,9827.738,0.0001,0.0,0.0
4.529,10266.734,0.0001,0.0,0.0
4.535,26716.673,0.00004,0.0,0.0
4.541,14769.142,0.00007,0.0,0.0
4.548,19670.716,0.00005,0.0,0.0
4.554,42207.446,0.00002,0.0,0.0
4.56,28377.681,0.00004,0.0,0.0
4.567,57845.961,0.00002,0.0,0.0
4.573,29154.136,0.00003,0.0,0.0
4.579,27019.882,0.00004,0.0,0.0
4.586,40303.133,0.00002,0.0,0.0
4.592,17231.093,0.00006,0.0,0.0
4.598,19871.16,0.00005,0.0,0.0
4.605,11507.718,0.00009,0.0,0.0
4.611,10054.097,0.0001,0.0,0.0
4.617,11697.837,0.00009,0.0,0.0
4.624,8768.22,0.00011,0.0,0.0
4.63,8736.979,0.00011,0.0,0.0
4.636,9244.868,0.00011,0.0,0.0
4.643,8608.272,0.00012,0.0,0.0
4.649,8444.007,0.00012,0.0,0.0
4.655,8394.598,0.00012,0.0,0.0
4.662,8176.484,0.00012,0.0,0.0
4.668,8130.935,0.00012,0.0,0.0
4.674,7951.636,0.00013,0.0,0.0
4.68,7793.809,0.00013,0.0,0.0
4.687,8026.569,0.00012,0.0,0.0
4.693,7612.029,0.00013,0.0,0.0
4.699,7681.477,0.00013,0.0,0.0
4.706,7556.309,0.00013,0.0,0.0
4.712,7537.818,0.00013,0.0,0.0
4.718,7531.703,0.00013,0.0,0.0
4.725,7356.147,0.00014,0.0,0.0
4.731,7386.659,0.00014,0.0,0.0
4.737,7284.308,0.00014,0.0,0.0
4.744,7284.092,0.00014,0.0,0.0
4.75,7168.983,0.00014,0.0,0.0
4.756,7210.392,0.00014,0.0,0.0
4.763,7029.784,0.00014,0.0,0.0
4.769,7197.631,0.00014,0.0,0.0
4.775,6979.067,0.00014,0.0,0.0
4.782,6941.764,0.00014,0.0,0.0
4.788,6933.437,0.00014,0.0,0.0
4.794,6925.026,0.00014,0.0,0.0
4.801,6917.167,0.00014,0.0,0.0
4.807,6864.438,0.00015,0.0,0.0
4.813,6899.686,0.00014,0.0,0.0
4.82,6825.381,0.00015,0.0,0.0
4.826,6921.926,0.00014,0.0,0.0
4.832,7012.835,0.00014,0.0,0.0
4.838,7235.143,0.00014,0.0,0.0
4.845,7382.987,0.00014,0.0,0.0
4.851,7642.822,0.00013,0.0,0.0
4.857,7691.28,0.00013,0.0,0.0
4.864,7679.03,0.00013,0.0,0.0
4.87,7458.925,0.00013,0.0,0.0
4.876,7217.616,0.00014,0.0,0.0
4.883,6968.73,0.00014,0.0,0.0
4.889,6793.648,0.00015,0.0,0.0
4.895,6553.513,0.00015,0.0,0.0
4.902,6546.581,0.00015,0.0,0.0
4.908,6364.667,0.00016,0.0,0.0
4.914,6368.106,0.00016,0.0,0.0
4.921,6309.547,0.00016,0.0,0.0
4.927,6260.788,0.00016,0.0,0.0
4.933,6229.678,0.00016,0.0,0.0
4.94,6210.768,0.00016,0.0,0.0
4.946,6157.508,0.00016,0.0,0.0
4.952,6166.236,0.00016,0.0,0.0
4.959,6111.981,0.00016,0.0,0.0
4.965,6095.738,0.00016,0.0,0.0
4.971,6084.43,0.00016,0.0,0.0
4.978,6038.689,0.00017,0.0,0.0
4.984,6032.024,0.00017,0.0,0.0
4.99,5970.946,0.00017,0.0,0.0
4.996,5994.34,0.00017,0.0,0.0
5.003,5955.894,0.00017,0.0,0.0
5.009,5942.745,0.00017,0.0,0.0
5.015,5914.822,0.00017,0.0,0.0
5.022,5893.902,0.00017,0.0,0.0
5.028,5882.558,0.00017,0.0,0.0
5.034,5859.035,0.00017,0.0,0.0
5.041,5886.491,0.00017,0.0,0.0
5.047,5821.889,0.00017,0.0,0.0
5.053,5863.114,0.00017,0.0,0.0
5.06,5766.365,0.00017,0.0,0.0
5.066,5788.337,0.00017,0.0,0.0
5.072,5759.238,0.00017,0.0,0.0
5.079,5748.351,0.00017,0.0,0.0
5.085,5727.52,0.00017,0.0,0.0
5.091,5715.179,0.00017,0.0,0.0
5.098,5664.745,0.00018,0.0,0.0
5.104,5710.537,0.00018,0.0,0.0
5.11,5623.84,0.00018,0.0,0.0
5.117,5651.542,0.00018,0.0,0.0
5.123,5647.258,0.00018,0.0,0.0
5.129,5600.707,0.00018,0.0,0.0
5.136,5623.875,0.00018,0.0,0.0
5.142,5579.283,0.00018,0.0,0.0
5.148,5597.411,0.00018,0.0,0.0
5.154,5579.953,0.00018,0.0,0.0
5.161,5548.47,0.00018,0.0,0.0
5.167,5554.421,0.00018,0.0,0.0
5.173,5550.644,0.00018,0.0,0.0
5.18,5503.778,0.00018,0.0,0.0
5.186,5516.986,0.00018,0.0,0.0
5.192,5485.925,0.00018,0.0,0.0
5.199,5497.627,0.00018,0.0,0.0
5.205,5490.833,0.00018,0.0,0.0
5.211,5448.509,0.00018,0.0,0.0
5.218,5467.686,0.00018,0.0,0.0
5.224,5444.969,0.00018,0.0,0.0
5.23,5414.879,0.00018,0.0,0.0
5.237,5434.785,0.00018,0.0,0.0
5.243,5433.232,0.00018,0.0,0.0
5.249,5400.864,0.00019,0.0,0.0
5.256,5408.831,0.00018,0.0,0.0
5.262,5353.395,0.00019,0.0,0.0
5.268,5375.506,0.00019,0.0,0.0
5.275,5379.671,0.00019,0.0,0.0
5.281,5364.271,0.00019,0.0,0.0
5.287,5345.06,0.00019,0.0,0.0
5.294,5339.644,0.00019,0.0,0.0
5.3,5329.246,0.00019,0.0,0.0
5.306,5320.02,0.00019,0.0,0.0
5.312,5305.415,0.00019,0.0,0.0
5.319,5309.168,0.00019,0.0,0.0
5.325,5302.684,0.00019,0.0,0.0
5.331,5280.5,0.00019,0.0,0.0
5.338,5300.898,0.00019,0.0,0.0
5.344,5259.216,0.00019,0.0,0.0
5.35,5266.884,0.00019,0.0,0.0
5.357,5261.824,0.00019,0.0,0.0
5.363,5267.624,0.00019,0.0,0.0
5.369,5266.538,0.00019,0.0,0.0
5.376,5271.493,0.00019,0.0,0.0
5.382,5224.724,0.00019,0.0,0.0
5.388,5263.587,0.00019,0.0,0.0
5.395,5214.149,0.00019,0.0,0.0
5.401,5250.379,0.00019,0.0,0.0
5.407,5230.263,0.00019,0.0,0.0
5.414,5200.779,0.00019,0.0,0.0
5.42,5199.744,0.00019,0.0,0.0
5.426,5222.472,0.00019,0.0,0.0
5.433,5186.203,0.00019,0.0,0.0
5.439,5214.151,0.00019,0.0,0.0
5.445,5205.386,0.00019,0.0,0.0
5.452,5204.622,0.00019,0.0,0.0
5.458,5207.264,0.00019,0.0,0.0
5.464,5195.414,0.00019,0.0,0.0
5.47,5200.957,0.00019,0.0,0.0
5.477,5198.215,0.00019,0.0,0.0
5.483,5193.779,0.00019,0.0,0.0
5.489,5208.248,0.00019,0.0,0.0
5.496,5179.734,0.00019,0.0,0.0
5.502,5202.643,0.00019,0.0,0.0
5.508,5205.432,0.00019,0.0,0.0
5.515,5186.422,0.00019,0.0,0.0
5.521,5201.378,0.00019,0.0,0.0
5.527,5204.731,0.00019,0.0,0.0
5.534,5191.601,0.00019,0.0,0.0
5.54,5216.284,0.00019,0.0,0.0
5.546,5191.831,0.00019,0.0,0.0
5.553,5196.256,0.00019,0.0,0.0
5.559,5216.451,0.00019,0.0,0.0
5.565,5212.653,0.00019,0.0,0.0
5.572,5239.021,0.00019,0.0,0.0
5.578,5207.767,0.00019,0.0,0.0
5.584,5219.642,0.00019,0.0,0.0
5.591,5228.591,0.00019,0.0,0.0
5.597,5230.211,0.00019,0.0,0.0
5.603,5251.128,0.00019,0.0,0.0
5.61,5244.17,0.00019,0.0,0.0
5.616,5262.475,0.00019,0.0,0.0
5.622,5261.763,0.00019,0.0,0.0
5.628,5254.852,0.00019,0.0,0.0
5.635,5268.413,0.00019,0.0,0.0
5.641,5258.748,0.00019,0.0,0.0
5.647,5282.466,0.00019,0.0,0.0
5.654,5286.542,0.00019,0.0,0.0
5.66,5328.522,0.00019,0.0,0.0
5.666,5319.161,0.00019,0.0,0.0
5.673,5352.231,0.00019,0.0,0.0
5.679,5327.114,0.00019,0.0,0.0
5.685,5348.407,0.00019,0.0,0.0
5.692,5337.661,0.00019,0.0,0.0
5.698,5413.039,0.00018,0.0,0.0
5.704,5377.995,0.00019,0.0,0.0
5.711,5417.417,0.00018,0.0,0.0
5.717,5422.836,0.00018,0.0,0.0
5.723,5444.226,0.00018,0.0,0.0
5.73,5470.537,0.00018,0.0,0.0
5.736,5484.632,0.00018,0.0,0.0
5.742,5519.778,0.00018,0.0,0.0
5.749,5521.949,0.00018,0.0,0.0
5.755,5549.612,0.00018,0.0,0.0
5.761,5563.289,0.00018,0.0,0.0
5.768,5595.541,0.00018,0.0,0.0
5.774,5648.889,0.00018,0.0,0.0
5.78,5672.186,0.00018,0.0,0.0
5.786,5675.824,0.00018,0.0,0.0
5.793,5712.044,0.00018,0.0,0.0
5.799,5748.38,0.00017,0.0,0.0
5.805,5762.8,0.00017,0.0,0.0
5.812,5826.722,0.00017,0.0,0.0
5.818,5795.556,0.00017,0.0,0.0
5.824,5854.451,0.00017,0.0,0.0
5.831,5901.175,0.00017,0.0,0.0
5.837,5939.102,0.00017,0.0,0.0
5.843,6064.058,0.00016,0.0,0.0
5.85,6226.451,0.00016,0.0,0.0
5.856,6472.226,0.00015,0.0,0.0
5.862,6853.634,0.00015,0.0,0.0
5.869,7300.469,0.00014,0.0,0.0
5.875,7729.562,0.00013,0.0,0.0
5.881,7880.497,0.00013,0.0,0.0
5.888,7768.885,0.00013,0.0,0.0
5.894,7384.961,0.00014,0.0,0.0
5.9,6879.872,0.00015,0.0,0.0
5.907,6422.671,0.00016,0.0,0.0
5.913,6040.981,0.00017,0.0,0.0
5.919,5811.102,0.00017,0.0,0.0
5.926,5680.67,0.00018,0.0,0.0
5.932,5575.687,0.00018,0.0,0.0
5.938,5500.082,0.00018,0.0,0.0
5.944,5473.293,0.00018,0.0,0.0
5.951,5395.757,0.00019,0.0,0.0
5.957,5417.761,0.00018,0.0,0.0
5.963,5388.818,0.00019,0.0,0.0
5.97,5369.23,0.00019,0.0,0.0
5.976,5341.775,0.00019,0.0,0.0
5.982,5351.016,0.00019,0.0,0.0
5.989,5305.226,0.00019,0.0,0.0
5.995,5311.566,0.00019,0.0,0.0
6.001,5324.048,0.00019,0.0,0.0
6.008,5290.615,0.00019,0.0,0.0
6.014,5310.993,0.00019,0.0,0.0
6.02,5279.406,0.00019,0.0,0.0
6.027,5299.93,0.00019,0.0,0.0
6.033,5294.367,0.00019,0.0,0.0
6.039,5275.481,0.00019,0.0,0.0
6.046,5321.528,0.00019,0.0,0.0
6.052,5270.529,0.00019,0.0,0.0
6.058,5299.189,0.00019,0.0,0.0
6.065,5328.467,0.00019,0.0,0.0
6.071,5267.506,0.00019,0.0,0.0
6.077,5315.271,0.00019,0.0,0.0
6.084,5279.364,0.00019,0.0,0.0
6.09,5319.798,0.00019,0.0,0.0
6.096,5314.409,0.00019,0.0,0.0
6.102,5316.518,0.00019,0.0,0.0
6.109,5317.077,0.00019,0.0,0.0
6.115,5302.382,0.00019,0.0,0.0
6.121,5329.848,0.00019,0.0,0.0
6.128,5321.466,0.00019,0.0,0.0
6.134,5348.742,0.00019,0.0,0.0
6.14,5292.346,0.00019,0.0,0.0
6.147,5382.053,0.00019,0.0,0.0
6.153,5334.322,0.00019,0.0,0.0
6.159,5420.36,0.00018,0.0,0.0
6.166,5315.213,0.00019,0.0,0.0
6.172,5413.132,0.00018,0.0,0.0
6.178,5373.247,0.00019,0.0,0.0
6.185,5367.385,0.00019,0.0,0.0
6.191,5387.131,0.00019,0.0,0.0
6.197,5447.629,0.00018,0.0,0.0
6.204,5392.272,0.00019,0.0,0.0
6.21,5400.688,0.00019,0.0,0.0
6.216,5492.575,0.00018,0.0,0.0
6.223,5410.167,0.00018,0.0,0.0
6.229,5473.845,0.00018,0.0,0.0
6.235,5492.911,0.00018,0.0,0.0
6.242,5491.83,0.00018,0.0,0.0
6.248,5481.519,0.00018,0.0,0.0
6.254,5542.842,0.00018,0.0,0.0
6.26,5525.906,0.00018,0.0,0.0
6.267,5514.361,0.00018,0.0,0.0
6.273,5573.626,0.00018,0.0,0.0
6.279,5593.564,0.00018,0.0,0.0
6.286,5500.016,0.00018,0.0,0.0
6.292,5611.016,0.00018,0.0,0.0
6.298,5574.881,0.00018,0.0,0.0
6.305,5585.157,0.00018,0.0,0.0
6.311,5577.414,0.00018,0.0,0.0
6.317,5679.794,0.00018,0.0,0.0
6.324,5645.54,0.00018,0.0,0.0
6.33,5642.976,0.00018,0.0,0.0
6.336,5740.623,0.00017,0.0,0.0
6.343,5608.962,0.00018,0.0,0.0
6.349,5724.712,0.00017,0.0,0.0
6.355,5643.608,0.00018,0.0,0.0
6.362,5794.573,0.00017,0.0,0.0
6.368,5696.426,0.00018,0.0,0.0
6.374,5707.007,0.00018,0.0,0.0
6.381,5745.025,0.00017,0.0,0.0
6.387,5796.239,0.00017,0.0,0.0
6.393,5871.436,0.00017,0.0,0.0
6.4,5732.102,0.00017,0.0,0.0
6.406,6015.439,0.00017,0.0,0.0
6.412,5880.929,0.00017,0.0,0.0
6.418,6794.928,0.00015,0.0,0.0
6.425,6162.339,0.00016,0.0,0.0
6.431,8907.259,0.00011,0.0,0.0
6.437,6784.529,0.00015,0.0,0.0
6.444,14380.012,0.00007,0.0,0.0
6.45,8944.754,0.00011,0.0,0.0
6.456,20234.984,0.00005,0.0,0.0
6.463,10455.402,0.0001,0.0,0.0
6.469,17864.785,0.00006,0.0,0.0
6.475,9859.666,0.0001,0.0,0.0
6.482,11241.07,0.00009,0.0,0.0
6.488,7827.073,0.00013,0.0,0.0
6.494,6569.789,0.00015,0.0,0.0
6.501,6604.441,0.00015,0.0,0.0
6.507,6048.966,0.00017,0.0,0.0
6.513,6285.557,0.00016,0.0,0.0
6.52,5965.003,0.00017,0.0,0.0
6.526,6261.274,0.00016,0.0,0.0
6.532,6086.705,0.00016,0.0,0.0
6.539,6303.661,0.00016,0.0,0.0
6.545,6401.974,0.00016,0.0,0.0
6.551,6635.923,0.00015,0.0,0.0
6.558,6866.752,0.00015,0.0,0.0
6.564,7427.959,0.00013,0.0,0.0
6.57,8369.679,0.00012,0.0,0.0
6.576,9683.295,0.0001,0.0,0.0
6.583,13097.071,0.00008,0.0,0.0
6.589,17369.407,0.00006,0.0,0.0
6.595,28210.388,0.00004,0.0,0.0
6.602,43915.11,0.00002,0.0,0.0
6.608,62148.975,0.00002,0.0,0.0
6.614,90529.672,0.00001,0.0,0.0
6.621,88192.728,0.00001,0.0,0.0
6.627,90325.342,0.00001,0.0,0.0
6.633,71066.883,0.00001,0.0,0.0
6.64,45637.08,0.00002,0.0,0.0
6.646,30456.618,0.00003,0.0,0.0
6.652,20103.611,0.00005,0.0,0.0
6.659,13558.607,0.00007,0.0,0.0
6.665,10353.867,0.0001,0.0,0.0
6.671,8479.443,0.00012,0.0,0.0
6.678,7540.218,0.00013,0.0,0.0
6.684,6889.893,0.00015,0.0,0.0
6.69,6594.189,0.00015,0.0,0.0
6.697,6300.934,0.00016,0.0,0.0
6.703,6111.775,0.00016,0.0,0.0
6.709,6008.573,0.00017,0.0,0.0
6.716,5901.406,0.00017,0.0,0.0
6.722,5810.391,0.00017,0.0,0.0
6.728,5810.52,0.00017,0.0,0.0
6.734,5770.14,0.00017,0.0,0.0
6.741,5667.939,0.00018,0.0,0.0
6.747,5663.713,0.00018,0.0,0.0
6.753,5678.823,0.00018,0.0,0.0
6.76,5598.43,0.00018,0.0,0.0
6.766,5605.023,0.00018,0.0,0.0
6.772,5626.766,0.00018,0.0,0.0
6.779,5571.464,0.00018,0.0,0.0
6.785,5628.816,0.00018,0.0,0.0
6.791,5610.035,0.00018,0.0,0.0
6.798,5654.765,0.00018,0.0,0.0
6.804,5617.101,0.00018,0.0,0.0
6.81,5698.183,0.00018,0.0,0.0
6.817,5605.212,0.00018,0.0,0.0
6.823,5654.972,0.00018,0.0,0.0
6.829,5620.416,0.00018,0.0,0.0
6.836,5579.015,0.00018,0.0,0.0
6.842,5543.969,0.00018,0.0,0.0
6.848,5509.615,0.00018,0.0,0.0
6.855,5513.403,0.00018,0.0,0.0
6.861,5480.303,0.00018,0.0,0.0
6.867,5511.621,0.00018,0.0,0.0
6.874,5472.297,0.00018,0.0,0.0
6.88,5464.373,0.00018,0.0,0.0
6.886,5458.787,0.00018,0.0,0.0
6.892,5467.133,0.00018,0.0,0.0
6.899,5467.557,0.00018,0.0,0.0
6.905,5437.843,0.00018,0.0,0.0
6.911,5456.632,0.00018,0.0,0.0
6.918,5463.04,0.00018,0.0,0.0
6.924,5458.218,0.00018,0.0,0.0
6.93,5468.382,0.00018,0.0,0.0
6.937,5439.376,0.00018,0.0,0.0
6.943,5462.433,0.00018,0.0,0.0
6.949,5450.035,0.00018,0.0,0.0
6.956,5464.337,0.00018,0.0,0.0
6.962,5482.435,0.00018,0.0,0.0
6.968,5459.746,0.00018,0.0,0.0
6.975,5458.451,0.00018,0.0,0.0
6.981,5479.564,0.00018,0.0,0.0
6.987,5473.391,0.00018,0.0,0.0
6.994,5490.497,0.00018,0.0,0.0
7.0,5481.842,0.00018,0.0,0.0
7.006,5474.508,0.00018,0.0,0.0
7.013,5500.306,0.00018,0.0,0.0
7.019,5502.079,0.00018,0.0,0.0
7.025,5480.804,0.00018,0.0,0.0
7.032,5555.272,0.00018,0.0,0.0
7.038,5499.987,0.00018,0.0,0.0
7.044,5541.629,0.00018,0.0,0.0
7.05,5565.086,0.00018,0.0,0.0
7.057,5564.968,0.00018,0.0,0.0
7.063,5582.067,0.00018,0.0,0.0
7.069,5585.464,0.00018,0.0,0.0
7.076,5610.509,0.00018,0.0,0.0
7.082,5624.148,0.00018,0.0,0.0
7.088,5647.462,0.00018,0.0,0.0
7.095,5655.75,0.00018,0.0,0.0
7.101,5674.766,0.00018,0.0,0.0
7.107,5700.153,0.00018,0.0,0.0
7.114,5749.168,0.00017,0.0,0.0
7.12,5740.915,0.00017,0.0,0.0
7.126,5757.363,0.00017,0.0,0.0
7.133,5788.209,0.00017,0.0,0.0
7.139,5813.506,0.00017,0.0,0.0
7.145,5851.621,0.00017,0.0,0.0
7.152,5890.64,0.00017,0.0,0.0
7.158,5886.621,0.00017,0.0,0.0
7.164,5947.41,0.00017,0.0,0.0
7.171,5907.51,0.00017,0.0,0.0
7.177,5974.33,0.00017,0.0,0.0
7.183,5980.153,0.00017,0.0,0.0
7.19,6020.931,0.00017,0.0,0.0
7.196,6045.05,0.00017,0.0,0.0
7.202,6040.403,0.00017,0.0,0.0
7.208,6101.209,0.00016,0.0,0.0
7.215,6079.667,0.00016,0.0,0.0
7.221,6103.182,0.00016,0.0,0.0
7.227,6116.061,0.00016,0.0,0.0
7.234,6150.884,0.00016,0.0,0.0
7.24,6134.888,0.00016,0.0,0.0
7.246,6176.427,0.00016,0.0,0.0
7.253,6148.731,0.00016,0.0,0.0
7.259,6154.069,0.00016,0.0,0.0
7.265,6215.935,0.00016,0.0,0.0
7.272,6222.426,0.00016,0.0,0.0
7.278,6297.946,0.00016,0.0,0.0
7.284,6305.17,0.00016,0.0,0.0
7.291,6305.506,0.00016,0.0,0.0
7.297,6332.928,0.00016,0.0,0.0
7.303,6262.697,0.00016,0.0,0.0
7.31,6268.63,0.00016,0.0,0.0
7.316,6156.239,0.00016,0.0,0.0
7.322,6133.357,0.00016,0.0,0.0
7.329,6109.562,0.00016,0.0,0.0
7.335,6043.342,0.00017,0.0,0.0
7.341,6017.005,0.00017,0.0,0.0
7.348,6013.427,0.00017,0.0,0.0
7.354,5984.339,0.00017,0.0,0.0
7.36,5973.017,0.00017,0.0,0.0
7.366,5969.643,0.00017,0.0,0.0
7.373,5952.528,0.00017,0.0,0.0
7.379,5916.483,0.00017,0.0,0.0
7.385,5936.352,0.00017,0.0,0.0
7.392,5905.453,0.00017,0.0,0.0
7.398,5943.974,0.00017,0.0,0.0
7.404,5903.016,0.00017,0.0,0.0
7.411,5955.02,0.00017,0.0,0.0
7.417,5915.201,0.00017,0.0,0.0
7.423,5872.523,0.00017,0.0,0.0
7.43,5917.073,0.00017,0.0,0.0
7.436,5905.087,0.00017,0.0,0.0
7.442,5876.086,0.00017,0.0,0.0
7.449,5921.04,0.00017,0.0,0.0
7.455,5966.655,0.00017,0.0,0.0
7.461,5923.494,0.00017,0.0,0.0
7.468,5930.257,0.00017,0.0,0.0
7.474,5908.445,0.00017,0.0,0.0
7.48,5961.311,0.00017,0.0,0.0
7.487,5922.785,0.00017,0.0,0.0
7.493,5993.722,0.00017,0.0,0.0
7.499,5961.152,0.00017,0.0,0.0
7.506,5972.583,0.00017,0.0,0.0
7.512,5997.862,0.00017,0.0,0.0
7.518,6024.153,0.00017,0.0,0.0
7.524,6003.04,0.00017,0.0,0.0
7.531,6064.112,0.00016,0.0,0.0
7.537,6099.531,0.00016,0.0,0.0
7.543,6099.049,0.00016,0.0,0.0
7.55,6154.844,0.00016,0.0,0.0
7.556,6189.027,0.00016,0.0,0.0
7.562,6342.474,0.00016,0.0,0.0
7.569,6352.971,0.00016,0.0,0.0
7.575,6573.371,0.00015,0.0,0.0
7.581,6743.396,0.00015,0.0,0.0
7.588,7074.421,0.00014,0.0,0.0
7.594,7485.984,0.00013,0.0,0.0
7.6,8349.956,0.00012,0.0,0.0
7.607,9996.139,0.0001,0.0,0.0
7.613,12418.541,0.00008,0.0,0.0
7.619,18892.446,0.00005,0.0,0.0
7.626,23416.323,0.00004,0.0,0.0
7.632,36793.172,0.00003,0.0,0.0
7.638,45486.629,0.00002,0.0,0.0
7.645,54719.045,0.00002,0.0,0.0
7.651,51555.822,0.00002,0.0,0.0
7.657,42569.788,0.00002,0.0,0.0
7.664,31455.402,0.00003,0.0,0.0
7.67,23974.971,0.00004,0.0,0.0
7.676,15293.276,0.00007,0.0,0.0
7.682,11646.135,0.00009,0.0,0.0
7.689,9512.108,0.00011,0.0,0.0
7.695,8120.053,0.00012,0.0,0.0
7.701,7591.1,0.00013,0.0,0.0
7.708,7089.922,0.00014,0.0,0.0
7.714,6949.928,0.00014,0.0,0.0
7.72,6646.155,0.00015,0.0,0.0
7.727,6643.258,0.00015,0.0,0.0
7.733,6530.606,0.00015,0.0,0.0
7.739,6614.189,0.00015,0.0,0.0
7.746,6456.279,0.00015,0.0,0.0
7.752,6539.005,0.00015,0.0,0.0
7.758,6457.519,0.00015,0.0,0.0
7.765,6426.932,0.00016,0.0,0.0
7.771,6500.188,0.00015,0.0,0.0
7.777,6465.814,0.00015,0.0,0.0
7.784,6572.913,0.00015,0.0,0.0
7.79,6454.487,0.00015,0.0,0.0
7.796,6676.486,0.00015,0.0,0.0
7.803,6441.664,0.00016,0.0,0.0
7.809,6689.242,0.00015,0.0,0.0
7.815,6477.783,0.00015,0.0,0.0
7.822,6919.778,0.00014,0.0,0.0
7.828,6639.105,0.00015,0.0,0.0
7.834,7129.856,0.00014,0.0,0.0
7.84,6703.545,0.00015,0.0,0.0
7.847,7284.522,0.00014,0.0,0.0
7.853,6989.571,0.00014,0.0,0.0
7.859,7781.03,0.00013,0.0,0.0
7.866,8045.442,0.00012,0.0,0.0
7.872,8259.588,0.00012,0.0,0.0
7.878,12581.772,0.00008,0.0,0.0
7.885,7518.181,0.00013,0.0,0.0
7.891,15654.076,0.00006,0.0,0.0
7.897,6641.47,0.00015,0.0,0.0
7.904,16300.817,0.00006,0.0,0.0
7.91,6897.164,0.00014,0.0,0.0
7.916,16032.861,0.00006,0.0,0.0
7.923,7304.431,0.00014,0.0,0.0
7.929,14544.77,0.00007,0.0,0.0
7.935,8155.195,0.00012,0.0,0.0
7.942,12049.109,0.00008,0.0,0.0
7.948,9868.658,0.0001,0.0,0.0
7.954,9007.384,0.00011,0.0,0.0
7.961,9613.566,0.0001,0.0,0.0
7.967,6528.524,0.00015,0.0,0.0
7.973,8104.076,0.00012,0.0,0.0
7.98,6387.418,0.00016,0.0,0.0
7.986,7423.585,0.00013,0.0,0.0
7.992,6582.941,0.00015,0.0,0.0
7.998,6771.951,0.00015,0.0,0.0
8.005,6690.078,0.00015,0.0,0.0
8.011,6466.749,0.00015,0.0,0.0
8.017,6655.949,0.00015,0.0,0.0
8.024,6305.01,0.00016,0.0,0.0
8.03,6667.342,0.00015,0.0,0.0
8.036,6257.346,0.00016,0.0,0.0
8.043,6630.441,0.00015,0.0,0.0
8.049,6207.658,0.00016,0.0,0.0
8.055,6600.688,0.00015,0.0,0.0
8.062,6306.902,0.00016,0.0,0.0
8.068,6499.168,0.00015,0.0,0.0
8.074,6397.693,0.00016,0.0,0.0
8.081,6430.522,0.00016,0.0,0.0
8.087,6469.14,0.00015,0.0,0.0
8.093,6425.339,0.00016,0.0,0.0
8.1,6517.78,0.00015,0.0,0.0
8.106,6398.273,0.00016,0.0,0.0
8.112,6614.155,0.00015,0.0,0.0
8.119,6488.789,0.00015,0.0,0.0
8.125,6781.804,0.00015,0.0,0.0
8.131,6661.018,0.00015,0.0,0.0
8.138,6946.694,0.00014,0.0,0.0
8.144,6814.354,0.00015,0.0,0.0
8.15,6843.871,0.00015,0.0,0.0
8.156,6760.218,0.00015,0.0,0.0
8.163,6644.943,0.00015,0.0,0.0
8.169,6577.221,0.00015,0.0,0.0
8.175,6419.72,0.00016,0.0,0.0
8.182,6450.343,0.00016,0.0,0.0
8.188,6317.045,0.00016,0.0,0.0
8.194,6351.023,0.00016,0.0,0.0
8.201,6213.209,0.00016,0.0,0.0
8.207,6328.937,0.00016,0.0,0.0
8.213,6180.681,0.00016,0.0,0.0
8.22,6278.408,0.00016,0.0,0.0
8.226,6153.532,0.00016,0.0,0.0
8.232,6167.456,0.00016,0.0,0.0
8.239,6096.629,0.00016,0.0,0.0
8.245,6083.38,0.00016,0.0,0.0
8.251,6068.269,0.00016,0.0,0.0
8.258,6020.889,0.00017,0.0,0.0
8.264,6035.605,0.00017,0.0,0.0
8.27,5968.389,0.00017,0.0,0.0
8.277,5988.998,0.00017,0.0,0.0
8.283,5899.785,0.00017,0.0,0.0
8.289,5935.41,0.00017,0.0,0.0
8.296,5831.574,0.00017,0.0,0.0
8.302,5898.458,0.00017,0.0,0.0
8.308,5847.236,0.00017,0.0,0.0
8.314,5813.745,0.00017,0.0,0.0
8.321,5799.227,0.00017,0.0,0.0
8.327,5773.147,0.00017,0.0,0.0
8.333,5810.875,0.00017,0.0,0.0
8.34,5799.651,0.00017,0.0,0.0
8.346,5832.745,0.00017,0.0,0.0
8.352,5857.844,0.00017,0.0,0.0
8.359,5914.529,0.00017,0.0,0.0
8.365,5951.457,0.00017,0.0,0.0
8.371,6013.119,0.00017,0.0,0.0
8.378,5955.817,0.00017,0.0,0.0
8.384,5955.494,0.00017,0.0,0.0
8.39,5837.002,0.00017,0.0,0.0
8.397,5778.461,0.00017,0.0,0.0
8.403,5658.213,0.00018,0.0,0.0
8.409,5562.659,0.00018,0.0,0.0
8.416,5527.301,0.00018,0.0,0.0
8.422,5457.446,0.00018,0.0,0.0
8.428,5437.508,0.00018,0.0,0.0
8.435,5385.096,0.00019,0.0,0.0
8.441,5374.799,0.00019,0.0,0.0
8.447,5334.301,0.00019,0.0,0.0
8.454,5345.287,0.00019,0.0,0.0
8.46,5308.353,0.00019,0.0,0.0
8.466,5314.857,0.00019,0.0,0.0
8.472,5276.469,0.00019,0.0,0.0
8.479,5275.673,0.00019,0.0,0.0
8.485,5287.288,0.00019,0.0,0.0
8.491,5260.089,0.00019,0.0,0.0
8.498,5284.139,0.00019,0.0,0.0
8.504,5245.762,0.00019,0.0,0.0
8.51,5245.817,0.00019,0.0,0.0
8.517,5212.31,0.00019,0.0,0.0
8.523,5209.927,0.00019,0.0,0.0
8.529,5167.628,0.00019,0.0,0.0
8.536,5169.918,0.00019,0.0,0.0
8.542,5131.613,0.00019,0.0,0.0
8.548,5135.618,0.00019,0.0,0.0
8.555,5114.901,0.0002,0.0,0.0
8.561,5095.179,0.0002,0.0,0.0
8.567,5095.412,0.0002,0.0,0.0
8.574,5089.752,0.0002,0.0,0.0
8.58,5097.985,0.0002,0.0,0.0
8.586,5061.601,0.0002,0.0,0.0
8.593,5049.984,0.0002,0.0,0.0
8.599,5044.86,0.0002,0.0,0.0
8.605,5048.043,0.0002,0.0,0.0
8.612,5021.958,0.0002,0.0,0.0
8.618,5035.413,0.0002,0.0,0.0
8.624,4982.015,0.0002,0.0,0.0
8.63,5007.613,0.0002,0.0,0.0
8.637,5009.635,0.0002,0.0,0.0
8.643,4995.601,0.0002,0.0,0.0
8.649,4994.827,0.0002,0.0,0.0
8.656,4952.49,0.0002,0.0,0.0
8.662,4995.45,0.0002,0.0,0.0
8.668,4956.887,0.0002,0.0,0.0
8.675,4948.143,0.0002,0.0,0.0
8.681,4948.704,0.0002,0.0,0.0
8.687,4920.018,0.0002,0.0,0.0
8.694,4928.639,0.0002,0.0,0.0
8.7,4915.442,0.0002,0.0,0.0
8.706,4932.781,0.0002,0.0,0.0
8.713,4931.005,0.0002,0.0,0.0
8.719,4897.458,0.0002,0.0,0.0
8.725,4905.666,0.0002,0.0,0.0
8.732,4887.512,0.0002,0.0,0.0
8.738,4895.359,0.0002,0.0,0.0
8.744,4880.387,0.0002,0.0,0.0
8.751,4886.018,0.0002,0.0,0.0
8.757,4886.3,0.0002,0.0,0.0
8.763,4873.692,0.00021,0.0,0.0
8.77,4865.237,0.00021,0.0,0.0
8.776,4865.04,0.00021,0.0,0.0
8.782,4875.574,0.00021,0.0,0.0
8.788,4864.868,0.00021,0.0,0.0
8.795,4861.465,0.00021,0.0,0.0
8.801,4852.185,0.00021,0.0,0.0
8.807,4850.268,0.00021,0.0,0.0
8.814,4866.877,0.00021,0.0,0.0
8.82,4850.534,0.00021,0.0,0.0
8.826,4869.711,0.00021,0.0,0.0
8.833,4876.688,0.00021,0.0,0.0
8.839,4857.607,0.00021,0.0,0.0
8.845,4867.967,0.00021,0.0,0.0
8.852,4847.804,0.00021,0.0,0.0
8.858,4854.974,0.00021,0.0,0.0
8.864,4849.384,0.00021,0.0,0.0
8.871,4865.972,0.00021,0.0,0.0
8.877,4875.024,0.00021,0.0,0.0
8.883,4865.08,0.00021,0.0,0.0
8.89,4847.136,0.00021,0.0,0.0
8.896,4863.452,0.00021,0.0,0.0
8.902,4872.256,0.00021,0.0,0.0
8.909,4882.303,0.0002,0.0,0.0
8.915,4864.019,0.00021,0.0,0.0
8.921,4889.936,0.0002,0.0,0.0
8.928,4885.81,0.0002,0.0,0.0
8.934,4872.28,0.00021,0.0,0.0
8.94,4890.647,0.0002,0.0,0.0
8.946,4892.976,0.0002,0.0,0.0
8.953,4916.941,0.0002,0.0,0.0
8.959,4887.252,0.0002,0.0,0.0
8.965,4919.13,0.0002,0.0,0.0
8.972,4896.896,0.0002,0.0,0.0
8.978,4934.922,0.0002,0.0,0.0
8.984,4910.916,0.0002,0.0,0.0
8.991,4940.054,0.0002,0.0,0.0
8.997,4949.265,0.0002,0.0,0.0
9.003,4947.526,0.0002,0.0,0.0
9.01,4978.49,0.0002,0.0,0.0
9.016,4989.967,0.0002,0.0,0.0
9.022,5047.21,0.0002,0.0,0.0
9.029,5029.617,0.0002,0.0,0.0
9.035,5093.882,0.0002,0.0,0.0
9.041,5134.447,0.00019,0.0,0.0
9.048,5175.245,0.00019,0.0,0.0
9.054,5275.071,0.00019,0.0,0.0
9.06,5383.923,0.00019,0.0,0.0
9.067,5488.056,0.00018,0.0,0.0
9.073,5730.672,0.00017,0.0,0.0
9.079,6511.427,0.00015,0.0,0.0
9.086,6563.944,0.00015,0.0,0.0
9.092,7788.367,0.00013,0.0,0.0
9.098,8432.161,0.00012,0.0,0.0
9.104,9782.63,0.0001,0.0,0.0
9.111,8770.723,0.00011,0.0,0.0
9.117,10470.303,0.0001,0.0,0.0
9.123,11160.468,0.00009,0.0,0.0
9.13,8915.584,0.00011,0.0,0.0
9.136,11590.369,0.00009,0.0,0.0
9.142,11060.886,0.00009,0.0,0.0
9.149,8431.311,0.00012,0.0,0.0
9.155,8220.667,0.00012,0.0,0.0
9.161,7578.009,0.00013,0.0,0.0
9.168,6206.848,0.00016,0.0,0.0
9.174,6363.744,0.00016,0.0,0.0
9.18,5713.23,0.00018,0.0,0.0
9.187,5704.596,0.00018,0.0,0.0
9.193,5469.836,0.00018,0.0,0.0
9.199,5384.432,0.00019,0.0,0.0
9.206,5344.524,0.00019,0.0,0.0
9.212,5269.677,0.00019,0.0,0.0
9.218,5251.939,0.00019,0.0,0.0
9.225,5258.104,0.00019,0.0,0.0
9.231,5154.637,0.00019,0.0,0.0
9.237,5223.137,0.00019,0.0,0.0
9.244,5171.84,0.00019,0.0,0.0
9.25,5172.252,0.00019,0.0,0.0
9.256,5135.517,0.00019,0.0,0.0
9.262,5097.054,0.0002,0.0,0.0
9.269,5152.335,0.00019,0.0,0.0
9.275,5046.624,0.0002,0.0,0.0
9.281,5148.703,0.00019,0.0,0.0
9.288,5068.172,0.0002,0.0,0.0
9.294,5071.613,0.0002,0.0,0.0
9.3,5063.819,0.0002,0.0,0.0
9.307,5055.986,0.0002,0.0,0.0
9.313,5035.279,0.0002,0.0,0.0
9.319,5027.434,0.0002,0.0,0.0
9.326,5006.136,0.0002,0.0,0.0
9.332,4989.218,0.0002,0.0,0.0
9.338,4970.782,0.0002,0.0,0.0
9.345,4922.549,0.0002,0.0,0.0
9.351,4914.944,0.0002,0.0,0.0
9.357,4915.094,0.0002,0.0,0.0
9.364,4896.886,0.0002,0.0,0.0
9.37,4865.842,0.00021,0.0,0.0
9.376,4862.642,0.00021,0.0,0.0
9.383,4812.976,0.00021,0.0,0.0
9.389,4815.464,0.00021,0.0,0.0
9.395,4784.407,0.00021,0.0,0.0
9.402,4757.495,0.00021,0.0,0.0
9.408,4758.836,0.00021,0.0,0.0
9.414,4730.792,0.00021,0.0,0.0
9.42,4738.374,0.00021,0.0,0.0
9.427,4692.168,0.00021,0.0,0.0
9.433,4683.716,0.00021,0.0,0.0
9.439,4654.184,0.00021,0.0,0.0
9.446,4684.304,0.00021,0.0,0.0
9.452,4666.23,0.00021,0.0,0.0
9.458,4659.821,0.00021,0.0,0.0
9.465,4691.188,0.00021,0.0,0.0
9.471,4662.491,0.00021,0.0,0.0
9.477,4665.688,0.00021,0.0,0.0
9.484,4697.292,0.00021,0.0,0.0
9.49,4678.581,0.00021,0.0,0.0
9.496,4672.812,0.00021,0.0,0.0
9.503,4640.966,0.00022,0.0,0.0
9.509,4589.191,0.00022,0.0,0.0
9.515,4563.816,0.00022,0.0,0.0
9.522,4524.515,0.00022,0.0,0.0
9.528,4499.931,0.00022,0.0,0.0
9.534,4479.163,0.00022,0.0,0.0
9.541,4460.983,0.00022,0.0,0.0
9.547,4443.239,0.00023,0.0,0.0
9.553,4421.762,0.00023,0.0,0.0
9.56,4427.814,0.00023,0.0,0.0
9.566,4393.28,0.00023,0.0,0.0
9.572,4392.126,0.00023,0.0,0.0
9.578,4376.717,0.00023,0.0,0.0
9.585,4363.873,0.00023,0.0,0.0
9.591,4364.003,0.00023,0.0,0.0
9.597,4339.892,0.00023,0.0,0.0
9.604,4357.35,0.00023,0.0,0.0
9.61,4329.632,0.00023,0.0,0.0
9.616,4345.883,0.00023,0.0,0.0
9.623,4315.364,0.00023,0.0,0.0
9.629,4318.833,0.00023,0.0,0.0
9.635,4297.273,0.00023,0.0,0.0
9.642,4312.16,0.00023,0.0,0.0
9.648,4290.489,0.00023,0.0,0.0
9.654,4290.573,0.00023,0.0,0.0
9.661,4293.794,0.00023,0.0,0.0
9.667,4264.499,0.00023,0.0,0.0
9.673,4275.911,0.00023,0.0,0.0
9.68,4268.513,0.00023,0.0,0.0
9.686,4257.39,0.00023,0.0,0.0
9.692,4239.747,0.00024,0.0,0.0
9.699,4250.112,0.00024,0.0,0.0
9.705,4247.642,0.00024,0.0,0.0
9.711,4245.047,0.00024,0.0,0.0
9.718,4224.801,0.00024,0.0,0.0
9.724,4244.94,0.00024,0.0,0.0
9.73,4209.506,0.00024,0.0,0.0
9.736,4216.217,0.00024,0.0,0.0
9.743,4218.308,0.00024,0.0,0.0
9.749,4199.441,0.00024,0.0,0.0
9.755,4203.905,0.00024,0.0,0.0
9.762,4202.702,0.00024,0.0,0.0
9.768,4193.676,0.00024,0.0,0.0
9.774,4198.243,0.00024,0.0,0.0
9.781,4188.138,0.00024,0.0,0.0
9.787,4189.064,0.00024,0.0,0.0
9.793,4177.203,0.00024,0.0,0.0
9.8,4179.473,0.00024,0.0,0.0
9.806,4200.692,0.00024,0.0,0.0
9.812,4163.981,0.00024,0.0,0.0
9.819,4159.968,0.00024,0.0,0.0
9.825,4185.918,0.00024,0.0,0.0
9.831,4166.017,0.00024,0.0,0.0
9.838,4174.426,0.00024,0.0,0.0
9.844,4166.599,0.00024,0.0,0.0
9.85,4168.753,0.00024,0.0,0.0
9.857,4177.544,0.00024,0.0,0.0
9.863,4162.46,0.00024,0.0,0.0
9.869,4159.571,0.00024,0.0,0.0
9.876,4159.604,0.00024,0.0,0.0
9.882,4147.15,0.00024,0.0,0.0
9.888,4169.188,0.00024,0.0,0.0
9.894,4143.836,0.00024,0.0,0.0
9.901,4145.85,0.00024,0.0,0.0
9.907,4146.824,0.00024,0.0,0.0
9.913,4153.918,0.00024,0.0,0.0
9.92,4160.011,0.00024,0.0,0.0
9.926,4150.403,0.00024,0.0,0.0
9.932,4141.214,0.00024,0.0,0.0
9.939,4161.598,0.00024,0.0,0.0
9.945,4159.08,0.00024,0.0,0.0
9.951,4145.428,0.00024,0.0,0.0
9.958,4153.574,0.00024,0.0,0.0
9.964,4165.497,0.00024,0.0,0.0
9.97,4159.885,0.00024,0.0,0.0
9.977,4150.964,0.00024,0.0,0.0
9.983,4172.785,0.00024,0.0,0.0
9.989,4162.226,0.00024,0.0,0.0
9.996,4156.954,0.00024,0.0,0.0
10.002,4185.043,0.00024,0.0,0.0
10.008,4167.316,0.00024,0.0,0.0
10.015,4182.536,0.00024,0.0,0.0
10.021,4190.852,0.00024,0.0,0.0
10.027,4190.017,0.00024,0.0,0.0
10.034,4187.282,0.00024,0.0,0.0
10.04,4197.925,0.00024,0.0,0.0
10.046,4215.462,0.00024,0.0,0.0
10.052,4214.15,0.00024,0.0,0.0
10.059,4212.234,0.00024,0.0,0.0
10.065,4243.628,0.00024,0.0,0.0
10.071,4242.312,0.00024,0.0,0.0
10.078,4246.239,0.00024,0.0,0.0
10.084,4267.52,0.00023,0.0,0.0
10.09,4253.212,0.00024,0.0,0.0
10.097,4265.903,0.00023,0.0,0.0
10.103,4277.029,0.00023,0.0,0.0
10.109,4271.055,0.00023,0.0,0.0
10.116,4298.749,0.00023,0.0,0.0
10.122,4295.078,0.00023,0.0,0.0
10.128,4306.532,0.00023,0.0,0.0
10.135,4313.861,0.00023,0.0,0.0
10.141,4317.185,0.00023,0.0,0.0
10.147,4317.491,0.00023,0.0,0.0
10.154,4319.748,0.00023,0.0,0.0
10.16,4330.673,0.00023,0.0,0.0
10.166,4344.888,0.00023,0.0,0.0
10.173,4378.869,0.00023,0.0,0.0
10.179,4415.08,0.00023,0.0,0.0
10.185,4457.688,0.00022,0.0,0.0
10.192,4647.896,0.00022,0.0,0.0
10.198,4670.495,0.00021,0.0,0.0
10.204,5111.882,0.0002,0.0,0.0
10.21,5428.756,0.00018,0.0,0.0
10.217,5510.383,0.00018,0.0,0.0
10.223,5405.066,0.00019,0.0,0.0
10.229,4968.88,0.0002,0.0,0.0
10.236,4734.173,0.00021,0.0,0.0
10.242,4526.95,0.00022,0.0,0.0
10.248,4419.194,0.00023,0.0,0.0
10.255,4389.739,0.00023,0.0,0.0
10.261,4344.446,0.00023,0.0,0.0
10.267,4296.179,0.00023,0.0,0.0
10.274,4293.895,0.00023,0.0,0.0
10.28,4279.586,0.00023,0.0,0.0
10.286,4272.13,0.00023,0.0,0.0
10.293,4256.662,0.00023,0.0,0.0
10.299,4253.798,0.00024,0.0,0.0
10.305,4237.484,0.00024,0.0,0.0
10.312,4241.768,0.00024,0.0,0.0
10.318,4232.256,0.00024,0.0,0.0
10.324,4207.472,0.00024,0.0,0.0
10.331,4227.809,0.00024,0.0,0.0
10.337,4204.133,0.00024,0.0,0.0
10.343,4192.189,0.00024,0.0,0.0
10.35,4186.955,0.00024,0.0,0.0
10.356,4167.168,0.00024,0.0,0.0
10.362,4194.261,0.00024,0.0,0.0
10.368,4162.886,0.00024,0.0,0.0
10.375,4169.773,0.00024,0.0,0.0
10.381,4169.028,0.00024,0.0,0.0
10.387,4147.301,0.00024,0.0,0.0
10.394,4164.526,0.00024,0.0,0.0
10.4,4151.623,0.00024,0.0,0.0
10.406,4138.024,0.00024,0.0,0.0
10.413,4141.21,0.00024,0.0,0.0
10.419,4139.934,0.00024,0.0,0.0
10.425,4141.379,0.00024,0.0,0.0
10.432,4130.523,0.00024,0.0,0.0
10.438,4122.444,0.00024,0.0,0.0
10.444,4132.252,0.00024,0.0,0.0
10.451,4125.83,0.00024,0.0,0.0
10.457,4142.732,0.00024,0.0,0.0
10.463,4127.207,0.00024,0.0,0.0
10.47,4120.821,0.00024,0.0,0.0
10.476,4126.633,0.00024,0.0,0.0
10.482,4124.602,0.00024,0.0,0.0
10.489,4142.656,0.00024,0.0,0.0
10.495,4134.744,0.00024,0.0,0.0
10.501,4121.518,0.00024,0.0,0.0
10.508,4127.946,0.00024,0.0,0.0
10.514,4136.539,0.00024,0.0,0.0
10.52,4124.171,0.00024,0.0,0.0
10.526,4141.341,0.00024,0.0,0.0
10.533,4122.978,0.00024,0.0,0.0
10.539,4124.045,0.00024,0.0,0.0
10.545,4130.911,0.00024,0.0,0.0
10.552,4125.256,0.00024,0.0,0.0
10.558,4147.876,0.00024,0.0,0.0
10.564,4127.79,0.00024,0.0,0.0
10.571,4141.027,0.00024,0.0,0.0
10.577,4138.524,0.00024,0.0,0.0
10.583,4142.153,0.00024,0.0,0.0
10.59,4159.748,0.00024,0.0,0.0
10.596,4169.084,0.00024,0.0,0.0
10.602,4140.786,0.00024,0.0,0.0
10.609,4156.753,0.00024,0.0,0.0
10.615,4162.92,0.00024,0.0,0.0
10.621,4170.85,0.00024,0.0,0.0
10.628,4169.5,0.00024,0.0,0.0
10.634,4166.57,0.00024,0.0,0.0
10.64,4190.6,0.00024,0.0,0.0
10.647,4178.249,0.00024,0.0,0.0
10.653,4191.097,0.00024,0.0,0.0
10.659,4201.229,0.00024,0.0,0.0
10.666,4206.81,0.00024,0.0,0.0
10.672,4212.117,0.00024,0.0,0.0
10.678,4211.899,0.00024,0.0,0.0
10.684,4247.217,0.00024,0.0,0.0
10.691,4244.588,0.00024,0.0,0.0
10.697,4239.495,0.00024,0.0,0.0
10.703,4258.467,0.00023,0.0,0.0
10.71,4268.761,0.00023,0.0,0.0
10.716,4293.137,0.00023,0.0,0.0
10.722,4332.519,0.00023,0.0,0.0
10.729,4338.415,0.00023,0.0,0.0
10.735,4359.545,0.00023,0.0,0.0
10.741,4420.096,0.00023,0.0,0.0
10.748,4457.807,0.00022,0.0,0.0
10.754,4557.584,0.00022,0.0,0.0
10.76,4650.145,0.00022,0.0,0.0
10.767,4807.821,0.00021,0.0,0.0
10.773,5094.087,0.0002,0.0,0.0
10.779,5510.565,0.00018,0.0,0.0
10.786,6350.062,0.00016,0.0,0.0
10.792,7786.211,0.00013,0.0,0.0
10.798,10108.66,0.0001,0.0,0.0
10.805,14725.778,0.00007,0.0,0.0
10.811,18923.635,0.00005,0.0,0.0
10.817,24564.111,0.00004,0.0,0.0
10.824,28027.456,0.00004,0.0,0.0
10.83,26224.48,0.00004,0.0,0.0
10.836,24510.445,0.00004,0.0,0.0
10.842,16986.396,0.00006,0.0,0.0
10.849,13510.353,0.00007,0.0,0.0
10.855,9329.203,0.00011,0.0,0.0
10.861,7297.763,0.00014,0.0,0.0
10.868,6142.623,0.00016,0.0,0.0
10.874,5467.273,0.00018,0.0,0.0
10.88,5137.223,0.00019,0.0,0.0
10.887,4945.831,0.0002,0.0,0.0
10.893,4821.432,0.00021,0.0,0.0
10.899,4742.676,0.00021,0.0,0.0
10.906,4693.725,0.00021,0.0,0.0
10.912,4650.795,0.00022,0.0,0.0
10.918,4642.446,0.00022,0.0,0.0
10.925,4630.184,0.00022,0.0,0.0
10.931,4631.687,0.00022,0.0,0.0
10.937,4624.894,0.00022,0.0,0.0
10.944,4620.697,0.00022,0.0,0.0
10.95,4603.895,0.00022,0.0,0.0
10.956,4587.037,0.00022,0.0,0.0
10.963,4563.826,0.00022,0.0,0.0
10.969,4551.575,0.00022,0.0,0.0
10.975,4535.011,0.00022,0.0,0.0
10.982,4500.297,0.00022,0.0,0.0
10.988,4513.751,0.00022,0.0,0.0
10.994,4490.635,0.00022,0.0,0.0
11.0,4481.704,0.00022,0.0,0.0
11.007,4455.261,0.00022,0.0,0.0
11.013,4465.126,0.00022,0.0,0.0
11.019,4472.228,0.00022,0.0,0.0
11.026,4441.687,0.00023,0.0,0.0
11.032,4461.48,0.00022,0.0,0.0
11.038,4426.49,0.00023,0.0,0.0
11.045,4428.989,0.00023,0.0,0.0
11.051,4433.253,0.00023,0.0,0.0
11.057,4420.494,0.00023,0.0,0.0
11.064,4412.362,0.00023,0.0,0.0
11.07,4451.338,0.00022,0.0,0.0
11.076,4427.597,0.00023,0.0,0.0
11.083,4418.38,0.00023,0.0,0.0
11.089,4416.392,0.00023,0.0,0.0
11.095,4435.161,0.00023,0.0,0.0
11.102,4424.05,0.00023,0.0,0.0
11.108,4404.833,0.00023,0.0,0.0
11.114,4437.809,0.00023,0.0,0.0
11.121,4412.612,0.00023,0.0,0.0
11.127,4435.756,0.00023,0.0,0.0
11.133,4440.26,0.00023,0.0,0.0
11.14,4441.429,0.00023,0.0,0.0
11.146,4431.02,0.00023,0.0,0.0
11.152,4460.527,0.00022,0.0,0.0
11.158,4449.987,0.00022,0.0,0.0
11.165,4486.511,0.00022,0.0,0.0
11.171,4476.191,0.00022,0.0,0.0
11.177,4487.342,0.00022,0.0,0.0
11.184,4511.539,0.00022,0.0,0.0
11.19,4492.455,0.00022,0.0,0.0
11.196,4465.785,0.00022,0.0,0.0
11.203,4479.028,0.00022,0.0,0.0
11.209,4479.358,0.00022,0.0,0.0
11.215,4459.887,0.00022,0.0,0.0
11.222,4446.863,0.00022,0.0,0.0
11.228,4433.98,0.00023,0.0,0.0
11.234,4428.806,0.00023,0.0,0.0
11.241,4432.066,0.00023,0.0,0.0
11.247,4409.817,0.00023,0.0,0.0
11.253,4408.685,0.00023,0.0,0.0
11.26,4395.655,0.00023,0.0,0.0
11.266,4404.617,0.00023,0.0,0.0
11.272,4386.428,0.00023,0.0,0.0
11.279,4373.305,0.00023,0.0,0.0
11.285,4367.462,0.00023,0.0,0.0
11.291,4356.844,0.00023,0.0,0.0
11.298,4349.634,0.00023,0.0,0.0
11.304,4329.283,0.00023,0.0,0.0
11.31,4361.776,0.00023,0.0,0.0
11.316,4342.251,0.00023,0.0,0.0
11.323,4349.151,0.00023,0.0,0.0
11.329,4343.399,0.00023,0.0,0.0
11.335,4321.641,0.00023,0.0,0.0
11.342,4326.067,0.00023,0.0,0.0
11.348,4335.253,0.00023,0.0,0.0
11.354,4322.31,0.00023,0.0,0.0
11.361,4331.883,0.00023,0.0,0.0
11.367,4317.066,0.00023,0.0,0.0
11.373,4308.807,0.00023,0.0,0.0
11.38,4322.305,0.00023,0.0,0.0
11.386,4289.276,0.00023,0.0,0.0
11.392,4300.693,0.00023,0.0,0.0
11.399,4295.197,0.00023,0.0,0.0
11.405,4289.775,0.00023,0.0,0.0
11.411,4303.171,0.00023,0.0,0.0
11.418,4279.95,0.00023,0.0,0.0
11.424,4285.01,0.00023,0.0,0.0
11.43,4267.806,0.00023,0.0,0.0
11.437,4273.928,0.00023,0.0,0.0
11.443,4279.233,0.00023,0.0,0.0
11.449,4279.645,0.00023,0.0,0.0
11.456,4266.097,0.00023,0.0,0.0
11.462,4285.339,0.00023,0.0,0.0
11.468,4266.971,0.00023,0.0,0.0
11.474,4279.668,0.00023,0.0,0.0
11.481,4278.213,0.00023,0.0,0.0
11.487,4269.189,0.00023,0.0,0.0
11.493,4280.856,0.00023,0.0,0.0
11.5,4284.302,0.00023,0.0,0.0
11.506,4315.365,0.00023,0.0,0.0
11.512,4335.666,0.00023,0.0,0.0
11.519,4347.34,0.00023,0.0,0.0
11.525,4380.689,0.00023,0.0,0.0
11.531,4353.403,0.00023,0.0,0.0
11.538,4349.795,0.00023,0.0,0.0
11.544,4323.538,0.00023,0.0,0.0
11.55,4313.772,0.00023,0.0,0.0
11.557,4299.502,0.00023,0.0,0.0
11.563,4288.573,0.00023,0.0,0.0
11.569,4264.002,0.00023,0.0,0.0
11.576,4256.563,0.00023,0.0,0.0
11.582,4259.994,0.00023,0.0,0.0
11.588,4237.311,0.00024,0.0,0.0
11.595,4256.589,0.00023,0.0,0.0
11.601,4248.15,0.00024,0.0,0.0
11.607,4265.816,0.00023,0.0,0.0
11.614,4255.445,0.00023,0.0,0.0
11.62,4262.992,0.00023,0.0,0.0
11.626,4246.013,0.00024,0.0,0.0
11.632,4251.409,0.00024,0.0,0.0
11.639,4270.367,0.00023,0.0,0.0
11.645,4256.282,0.00023,0.0,0.0
11.651,4260.127,0.00023,0.0,0.0
11.658,4272.478,0.00023,0.0,0.0
11.664,4262.786,0.00023,0.0,0.0
11.67,4272.153,0.00023,0.0,0.0
11.677,4272.844,0.00023,0.0,0.0
11.683,4285.922,0.00023,0.0,0.0
11.689,4292.717,0.00023,0.0,0.0
11.696,4289.84,0.00023,0.0,0.0
11.702,4301.115,0.00023,0.0,0.0
11.708,4311.689,0.00023,0.0,0.0
11.715,4300.14,0.00023,0.0,0.0
11.721,4302.695,0.00023,0.0,0.0
11.727,4307.452,0.00023,0.0,0.0
11.734,4312.948,0.00023,0.0,0.0
11.74,4321.46,0.00023,0.0,0.0
11.746,4313.768,0.00023,0.0,0.0
11.753,4332.317,0.00023,0.0,0.0
11.759,4327.538,0.00023,0.0,0.0
11.765,4345.455,0.00023,0.0,0.0
11.772,4348.806,0.00023,0.0,0.0
11.778,4342.374,0.00023,0.0,0.0
11.784,4350.993,0.00023,0.0,0.0
11.79,4347.413,0.00023,0.0,0.0
11.797,4339.391,0.00023,0.0,0.0
11.803,4339.146,0.00023,0.0,0.0
11.809,4329.975,0.00023,0.0,0.0
11.816,4322.956,0.00023,0.0,0.0
11.822,4331.908,0.00023,0.0,0.0
11.828,4301.069,0.00023,0.0,0.0
11.835,4328.524,0.00023,0.0,0.0
11.841,4311.526,0.00023,0.0,0.0
11.847,4313.078,0.00023,0.0,0.0
11.854,4306.048,0.00023,0.0,0.0
11.86,4312.743,0.00023,0.0,0.0
11.866,4303.983,0.00023,0.0,0.0
11.873,4288.333,0.00023,0.0,0.0
11.879,4288.621,0.00023,0.0,0.0
11.885,4258.364,0.00023,0.0,0.0
11.892,4292.436,0.00023,0.0,0.0
11.898,4272.423,0.00023,0.0,0.0
11.904,4279.141,0.00023,0.0,0.0
11.911,4270.539,0.00023,0.0,0.0
11.917,4262.539,0.00023,0.0,0.0
11.923,4254.033,0.00024,0.0,0.0
11.93,4253.238,0.00024,0.0,0.0
11.936,4249.719,0.00024,0.0,0.0
11.942,4257.814,0.00023,0.0,0.0
11.948,4269.436,0.00023,0.0,0.0
11.955,4225.567,0.00024,0.0,0.0
11.961,4257.365,0.00023,0.0,0.0
11.967,4249.212,0.00024,0.0,0.0
11.974,4249.219,0.00024,0.0,0.0
11.98,4227.989,0.00024,0.0,0.0
11.986,4247.492,0.00024,0.0,0.0
11.993,4246.18,0.00024,0.0,0.0
11.999,4239.48,0.00024,0.0,0.0
12.005,4255.755,0.00023,0.0,0.0
12.012,4239.5,0.00024,0.0,0.0
12.018,4264.712,0.00023,0.0,0.0
12.024,4256.15,0.00023,0.0,0.0
12.031,4246.739,0.00024,0.0,0.0
12.037,4333.796,0.00023,0.0,0.0
12.043,4262.66,0.00023,0.0,0.0
12.05,4439.391,0.00023,0.0,0.0
12.056,4501.137,0.00022,0.0,0.0
12.062,4387.486,0.00023,0.0,0.0
12.069,5919.121,0.00017,0.0,0.0
12.075,4310.708,0.00023,0.0,0.0
12.081,6667.846,0.00015,0.0,0.0
12.088,6771.364,0.00015,0.0,0.0
12.094,5743.094,0.00017,0.0,0.0
12.1,9478.14,0.00011,0.0,0.0
12.106,5346.063,0.00019,0.0,0.0
12.113,6651.777,0.00015,0.0,0.0
12.119,6763.389,0.00015,0.0,0.0
12.125,4397.922,0.00023,0.0,0.0
12.132,5853.114,0.00017,0.0,0.0
12.138,4356.932,0.00023,0.0,0.0
12.144,4280.001,0.00023,0.0,0.0
12.151,4516.048,0.00022,0.0,0.0
12.157,4149.517,0.00024,0.0,0.0
12.163,4236.207,0.00024,0.0,0.0
12.17,4189.413,0.00024,0.0,0.0
12.176,4149.374,0.00024,0.0,0.0
12.182,4118.751,0.00024,0.0,0.0
12.189,4106.755,0.00024,0.0,0.0
12.195,4078.272,0.00025,0.0,0.0
12.201,4098.22,0.00024,0.0,0.0
12.208,4069.265,0.00025,0.0,0.0
12.214,4039.434,0.00025,0.0,0.0
12.22,4049.676,0.00025,0.0,0.0
12.227,4019.594,0.00025,0.0,0.0
12.233,4023.737,0.00025,0.0,0.0
12.239,4004.052,0.00025,0.0,0.0
12.246,4013.566,0.00025,0.0,0.0
12.252,3974.56,0.00025,0.0,0.0
12.258,4025.982,0.00025,0.0,0.0
12.264,3981.784,0.00025,0.0,0.0
12.271,3985.962,0.00025,0.0,0.0
12.277,3971.341,0.00025,0.0,0.0
12.283,3955.699,0.00025,0.0,0.0
12.29,3981.085,0.00025,0.0,0.0
12.296,3936.708,0.00025,0.0,0.0
12.302,3969.74,0.00025,0.0,0.0
12.309,3930.316,0.00025,0.0,0.0
12.315,3977.323,0.00025,0.0,0.0
12.321,3943.563,0.00025,0.0,0.0
12.328,3934.667,0.00025,0.0,0.0
12.334,3927.72,0.00025,0.0,0.0
12.34,3905.182,0.00026,0.0,0.0
12.347,3930.252,0.00025,0.0,0.0
12.353,3910.83,0.00026,0.0,0.0
12.359,3924.063,0.00025,0.0,0.0
12.366,3878.934,0.00026,0.0,0.0
12.372,3930.571,0.00025,0.0,0.0
12.378,3909.088,0.00026,0.0,0.0
12.385,3904.305,0.00026,0.0,0.0
12.391,3901.109,0.00026,0.0,0.0
12.397,3877.057,0.00026,0.0,0.0
12.404,3901.288,0.00026,0.0,0.0
12.41,3869.441,0.00026,0.0,0.0
12.416,3883.778,0.00026,0.0,0.0
12.422,3860.505,0.00026,0.0,0.0
12.429,3885.788,0.00026,0.0,0.0
12.435,3868.466,0.00026,0.0,0.0
12.441,3852.83,0.00026,0.0,0.0
12.448,3851.75,0.00026,0.0,0.0
12.454,3851.949,0.00026,0.0,0.0
12.46,3852.879,0.00026,0.0,0.0
12.467,3847.729,0.00026,0.0,0.0
12.473,3860.03,0.00026,0.0,0.0
12.479,3843.393,0.00026,0.0,0.0
12.486,3864.633,0.00026,0.0,0.0
12.492,3852.699,0.00026,0.0,0.0
12.498,3865.719,0.00026,0.0,0.0
12.505,3868.231,0.00026,0.0,0.0
12.511,3874.558,0.00026,0.0,0.0
12.517,3882.298,0.00026,0.0,0.0
12.524,3879.193,0.00026,0.0,0.0
12.53,3882.11,0.00026,0.0,0.0
12.536,3864.639,0.00026,0.0,0.0
12.543,3880.154,0.00026,0.0,0.0
12.549,3847.313,0.00026,0.0,0.0
12.555,3853.918,0.00026,0.0,0.0
12.562,3862.787,0.00026,0.0,0.0
12.568,3854.811,0.00026,0.0,0.0
12.574,3855.193,0.00026,0.0,0.0
12.58,3861.939,0.00026,0.0,0.0
12.587,3874.344,0.00026,0.0,0.0
12.593,3864.284,0.00026,0.0,0.0
12.599,3897.551,0.00026,0.0,0.0
12.606,3925.04,0.00025,0.0,0.0
12.612,3956.219,0.00025,0.0,0.0
12.618,4010.403,0.00025,0.0,0.0
12.625,4071.689,0.00025,0.0,0.0
12.631,4154.377,0.00024,0.0,0.0
12.637,4288.586,0.00023,0.0,0.0
12.644,4541.83,0.00022,0.0,0.0
12.65,4893.294,0.0002,0.0,0.0
12.656,5567.482,0.00018,0.0,0.0
12.663,6622.19,0.00015,0.0,0.0
12.669,8947.742,0.00011,0.0,0.0
12.675,12714.105,0.00008,0.0,0.0
12.682,17591.016,0.00006,0.0,0.0
12.688,24771.121,0.00004,0.0,0.0
12.694,29812.958,0.00003,0.0,0.0
12.701,34901.936,0.00003,0.0,0.0
12.707,31993.343,0.00003,0.0,0.0
12.713,25950.967,0.00004,0.0,0.0
12.72,18774.175,0.00005,0.0,0.0
12.726,12995.695,0.00008,0.0,0.0
12.732,9373.534,0.00011,0.0,0.0
12.738,6801.217,0.00015,0.0,0.0
12.745,5657.002,0.00018,0.0,0.0
12.751,4929.934,0.0002,0.0,0.0
12.757,4524.173,0.00022,0.0,0.0
12.764,4256.726,0.00023,0.0,0.0
12.77,4115.248,0.00024,0.0,0.0
12.776,4005.087,0.00025,0.0,0.0
12.783,3935.072,0.00025,0.0,0.0
12.789,3874.639,0.00026,0.0,0.0
12.795,3828.56,0.00026,0.0,0.0
12.802,3797.408,0.00026,0.0,0.0
12.808,3778.706,0.00026,0.0,0.0
12.814,3771.206,0.00027,0.0,0.0
12.821,3750.834,0.00027,0.0,0.0
12.827,3742.506,0.00027,0.0,0.0
12.833,3725.935,0.00027,0.0,0.0
12.84,3723.085,0.00027,0.0,0.0
12.846,3717.17,0.00027,0.0,0.0
12.852,3705.286,0.00027,0.0,0.0
12.859,3680.593,0.00027,0.0,0.0
12.865,3681.96,0.00027,0.0,0.0
12.871,3688.184,0.00027,0.0,0.0
12.878,3660.924,0.00027,0.0,0.0
12.884,3668.247,0.00027,0.0,0.0
12.89,3673.547,0.00027,0.0,0.0
12.896,3669.018,0.00027,0.0,0.0
12.903,3672.198,0.00027,0.0,0.0
12.909,3670.676,0.00027,0.0,0.0
12.915,3677.204,0.00027,0.0,0.0
12.922,3690.681,0.00027,0.0,0.0
12.928,3712.45,0.00027,0.0,0.0
12.934,3723.109,0.00027,0.0,0.0
12.941,3737.258,0.00027,0.0,0.0
12.947,3743.078,0.00027,0.0,0.0
12.953,3749.418,0.00027,0.0,0.0
12.96,3738.313,0.00027,0.0,0.0
12.966,3708.672,0.00027,0.0,0.0
12.972,3690.415,0.00027,0.0,0.0
12.979,3669.322,0.00027,0.0,0.0
12.985,3647.02,0.00027,0.0,0.0
12.991,3645.353,0.00027,0.0,0.0
12.998,3641.492,0.00027,0.0,0.0
13.004,3625.671,0.00028,0.0,0.0
13.01,3628.716,0.00028,0.0,0.0
13.017,3624.314,0.00028,0.0,0.0
13.023,3605.512,0.00028,0.0,0.0
13.029,3615.335,0.00028,0.0,0.0
13.036,3608.231,0.00028,0.0,0.0
13.042,3610.081,0.00028,0.0,0.0
13.048,3613.34,0.00028,0.0,0.0
13.054,3621.317,0.00028,0.0,0.0
13.061,3610.227,0.00028,0.0,0.0
13.067,3618.224,0.00028,0.0,0.0
13.073,3595.907,0.00028,0.0,0.0
13.08,3612.932,0.00028,0.0,0.0
13.086,3607.801,0.00028,0.0,0.0
13.092,3614.659,0.00028,0.0,0.0
13.099,3617.0,0.00028,0.0,0.0
13.105,3606.36,0.00028,0.0,0.0
13.111,3600.816,0.00028,0.0,0.0
13.118,3599.755,0.00028,0.0,0.0
13.124,3605.207,0.00028,0.0,0.0
13.13,3600.717,0.00028,0.0,0.0
13.137,3596.462,0.00028,0.0,0.0
13.143,3605.428,0.00028,0.0,0.0
13.149,3603.689,0.00028,0.0,0.0
13.156,3604.723,0.00028,0.0,0.0
13.162,3601.332,0.00028,0.0,0.0
13.168,3593.434,0.00028,0.0,0.0
13.175,3614.363,0.00028,0.0,0.0
13.181,3614.269,0.00028,0.0,0.0
13.187,3626.949,0.00028,0.0,0.0
13.194,3626.929,0.00028,0.0,0.0
13.2,3647.689,0.00027,0.0,0.0
13.206,3700.257,0.00027,0.0,0.0
13.212,3749.416,0.00027,0.0,0.0
13.219,3843.291,0.00026,0.0,0.0
13.225,4029.914,0.00025,0.0,0.0
13.231,4342.99,0.00023,0.0,0.0
13.238,4965.002,0.0002,0.0,0.0
13.244,5985.524,0.00017,0.0,0.0
13.25,7434.821,0.00013,0.0,0.0
13.257,9307.075,0.00011,0.0,0.0
13.263,11421.683,0.00009,0.0,0.0
13.269,11210.607,0.00009,0.0,0.0
13.276,11287.92,0.00009,0.0,0.0
13.282,9913.523,0.0001,0.0,0.0
13.288,7578.461,0.00013,0.0,0.0
13.295,6088.843,0.00016,0.0,0.0
13.301,4903.648,0.0002,0.0,0.0
13.307,4300.209,0.00023,0.0,0.0
13.314,3973.373,0.00025,0.0,0.0
13.32,3757.503,0.00027,0.0,0.0
13.326,3675.96,0.00027,0.0,0.0
13.333,3591.804,0.00028,0.0,0.0
13.339,3559.875,0.00028,0.0,0.0
13.345,3526.463,0.00028,0.0,0.0
13.352,3504.5,0.00029,0.0,0.0
13.358,3488.439,0.00029,0.0,0.0
13.364,3478.424,0.00029,0.0,0.0
13.37,3469.341,0.00029,0.0,0.0
13.377,3449.983,0.00029,0.0,0.0
13.383,3458.038,0.00029,0.0,0.0
13.389,3447.881,0.00029,0.0,0.0
13.396,3458.225,0.00029,0.0,0.0
13.402,3439.117,0.00029,0.0,0.0
13.408,3420.969,0.00029,0.0,0.0
13.415,3423.945,0.00029,0.0,0.0
13.421,3421.351,0.00029,0.0,0.0
13.427,3413.324,0.00029,0.0,0.0
13.434,3400.737,0.00029,0.0,0.0
13.44,3406.904,0.00029,0.0,0.0
13.446,3401.469,0.00029,0.0,0.0
13.453,3396.815,0.00029,0.0,0.0
13.459,3394.456,0.00029,0.0,0.0
13.465,3403.411,0.00029,0.0,0.0
13.472,3377.227,0.0003,0.0,0.0
13.478,3388.26,0.0003,0.0,0.0
13.484,3366.948,0.0003,0.0,0.0
13.491,3379.298,0.0003,0.0,0.0
13.497,3369.689,0.0003,0.0,0.0
13.503,3367.816,0.0003,0.0,0.0
13.51,3381.679,0.0003,0.0,0.0
13.516,3354.252,0.0003,0.0,0.0
13.522,3365.92,0.0003,0.0,0.0
13.528,3372.025,0.0003,0.0,0.0
13.535,3364.133,0.0003,0.0,0.0
13.541,3356.564,0.0003,0.0,0.0
13.547,3356.541,0.0003,0.0,0.0
13.554,3364.254,0.0003,0.0,0.0
13.56,3352.45,0.0003,0.0,0.0
13.566,3352.577,0.0003,0.0,0.0
13.573,3359.937,0.0003,0.0,0.0
13.579,3363.076,0.0003,0.0,0.0
13.585,3361.349,0.0003,0.0,0.0
13.592,3351.962,0.0003,0.0,0.0
13.598,3349.135,0.0003,0.0,0.0
13.604,3360.342,0.0003,0.0,0.0
13.611,3357.775,0.0003,0.0,0.0
13.617,3345.179,0.0003,0.0,0.0
13.623,3356.251,0.0003,0.0,0.0
13.63,3347.124,0.0003,0.0,0.0
13.636,3356.382,0.0003,0.0,0.0
13.642,3364.237,0.0003,0.0,0.0
13.649,3363.359,0.0003,0.0,0.0
13.655,3363.72,0.0003,0.0,0.0
13.661,3354.807,0.0003,0.0,0.0
13.668,3361.845,0.0003,0.0,0.0
13.674,3350.925,0.0003,0.0,0.0
13.68,3340.873,0.0003,0.0,0.0
13.686,3343.938,0.0003,0.0,0.0
13.693,3337.253,0.0003,0.0,0.0
13.699,3342.202,0.0003,0.0,0.0
13.705,3330.134,0.0003,0.0,0.0
13.712,3327.374,0.0003,0.0,0.0
13.718,3335.981,0.0003,0.0,0.0
13.724,3336.878,0.0003,0.0,0.0
13.731,3329.482,0.0003,0.0,0.0
13.737,3321.403,0.0003,0.0,0.0
13.743,3328.472,0.0003,0.0,0.0
13.75,3320.912,0.0003,0.0,0.0
13.756,3306.135,0.0003,0.0,0.0
13.762,3298.848,0.0003,0.0,0.0
13.769,3293.904,0.0003,0.0,0.0
13.775,3290.351,0.0003,0.0,0.0
13.781,3287.888,0.0003,0.0,0.0
13.788,3271.619,0.00031,0.0,0.0
13.794,3269.093,0.00031,0.0,0.0
13.8,3269.45,0.00031,0.0,0.0
13.807,3270.657,0.00031,0.0,0.0
13.813,3278.007,0.00031,0.0,0.0
13.819,3258.018,0.00031,0.0,0.0
13.826,3257.199,0.00031,0.0,0.0
13.832,3249.198,0.00031,0.0,0.0
13.838,3257.159,0.00031,0.0,0.0
13.844,3251.579,0.00031,0.0,0.0
13.851,3249.272,0.00031,0.0,0.0
13.857,3250.218,0.00031,0.0,0.0
13.863,3234.956,0.00031,0.0,0.0
13.87,3232.851,0.00031,0.0,0.0
13.876,3231.291,0.00031,0.0,0.0
13.882,3221.911,0.00031,0.0,0.0
13.889,3227.667,0.00031,0.0,0.0
13.895,3222.584,0.00031,0.0,0.0
13.901,3208.756,0.00031,0.0,0.0
13.908,3213.17,0.00031,0.0,0.0
13.914,3203.873,0.00031,0.0,0.0
13.92,3208.625,0.00031,0.0,0.0
13.927,3211.254,0.00031,0.0,0.0
13.933,3208.203,0.00031,0.0,0.0
13.939,3189.902,0.00031,0.0,0.0
13.946,3193.367,0.00031,0.0,0.0
13.952,3180.34,0.00031,0.0,0.0
13.958,3182.993,0.00031,0.0,0.0
13.965,3181.11,0.00031,0.0,0.0
13.971,3186.566,0.00031,0.0,0.0
13.977,3166.941,0.00032,0.0,0.0
13.984,3173.033,0.00032,0.0,0.0
13.99,3173.705,0.00032,0.0,0.0
13.996,3179.403,0.00031,0.0,0.0
14.002,3176.531,0.00031,0.0,0.0
14.009,3171.327,0.00032,0.0,0.0
14.015,3181.993,0.00031,0.0,0.0
14.021,3152.694,0.00032,0.0,0.0
14.028,3166.874,0.00032,0.0,0.0
14.034,3150.108,0.00032,0.0,0.0
14.04,3146.337,0.00032,0.0,0.0
14.047,3150.273,0.00032,0.0,0.0
14.053,3134.315,0.00032,0.0,0.0
14.059,3156.195,0.00032,0.0,0.0
14.066,3141.677,0.00032,0.0,0.0
14.072,3142.336,0.00032,0.0,0.0
14.078,3133.048,0.00032,0.0,0.0
14.085,3142.956,0.00032,0.0,0.0
14.091,3132.468,0.00032,0.0,0.0
14.097,3136.1,0.00032,0.0,0.0
14.104,3135.325,0.00032,0.0,0.0
14.11,3137.824,0.00032,0.0,0.0
14.116,3136.969,0.00032,0.0,0.0
14.123,3132.789,0.00032,0.0,0.0
14.129,3131.964,0.00032,0.0,0.0
14.135,3111.734,0.00032,0.0,0.0
14.142,3123.752,0.00032,0.0,0.0
14.148,3122.439,0.00032,0.0,0.0
14.154,3128.757,0.00032,0.0,0.0
14.16,3125.669,0.00032,0.0,0.0
14.167,3123.879,0.00032,0.0,0.0
14.173,3114.651,0.00032,0.0,0.0
14.179,3119.915,0.00032,0.0,0.0
14.186,3130.324,0.00032,0.0,0.0
14.192,3113.149,0.00032,0.0,0.0
14.198,3110.44,0.00032,0.0,0.0
14.205,3113.83,0.00032,0.0,0.0
14.211,3120.604,0.00032,0.0,0.0
14.217,3110.06,0.00032,0.0,0.0
14.224,3131.782,0.00032,0.0,0.0
14.23,3132.369,0.00032,0.0,0.0
14.236,3119.716,0.00032,0.0,0.0
14.243,3133.388,0.00032,0.0,0.0
14.249,3144.24,0.00032,0.0,0.0
14.255,3151.202,0.00032,0.0,0.0
14.262,3156.368,0.00032,0.0,0.0
14.268,3158.968,0.00032,0.0,0.0
14.274,3156.987,0.00032,0.0,0.0
14.281,3148.179,0.00032,0.0,0.0
14.287,3142.465,0.00032,0.0,0.0
14.293,3126.479,0.00032,0.0,0.0
14.3,3134.27,0.00032,0.0,0.0
14.306,3118.005,0.00032,0.0,0.0
14.312,3124.864,0.00032,0.0,0.0
14.318,3111.741,0.00032,0.0,0.0
14.325,3108.478,0.00032,0.0,0.0
14.331,3110.889,0.00032,0.0,0.0
14.337,3119.764,0.00032,0.0,0.0
14.344,3105.992,0.00032,0.0,0.0
14.35,3106.844,0.00032,0.0,0.0
14.356,3114.411,0.00032,0.0,0.0
14.363,3103.331,0.00032,0.0,0.0
14.369,3107.971,0.00032,0.0,0.0
14.375,3107.289,0.00032,0.0,0.0
14.382,3113.622,0.00032,0.0,0.0
14.388,3111.056,0.00032,0.0,0.0
14.394,3116.869,0.00032,0.0,0.0
14.401,3118.748,0.00032,0.0,0.0
14.407,3112.609,0.00032,0.0,0.0
14.413,3112.407,0.00032,0.0,0.0
14.42,3099.173,0.00032,0.0,0.0
14.426,3102.581,0.00032,0.0,0.0
14.432,3108.088,0.00032,0.0,0.0
14.439,3110.395,0.00032,0.0,0.0
14.445,3104.109,0.00032,0.0,0.0
14.451,3121.486,0.00032,0.0,0.0
14.458,3105.054,0.00032,0.0,0.0
14.464,3119.367,0.00032,0.0,0.0
14.47,3102.293,0.00032,0.0,0.0
14.476,3099.387,0.00032,0.0,0.0
14.483,3108.999,0.00032,0.0,0.0
14.489,3090.391,0.00032,0.0,0.0
14.495,3098.159,0.00032,0.0,0.0
14.502,3085.938,0.00032,0.0,0.0
14.508,3088.749,0.00032,0.0,0.0
14.514,3100.541,0.00032,0.0,0.0
14.521,3086.966,0.00032,0.0,0.0
14.527,3092.779,0.00032,0.0,0.0
14.533,3087.04,0.00032,0.0,0.0
14.54,3078.017,0.00032,0.0,0.0
14.546,3080.276,0.00032,0.0,0.0
14.552,3078.473,0.00032,0.0,0.0
14.559,3070.547,0.00033,0.0,0.0
14.565,3070.15,0.00033,0.0,0.0
14.571,3068.91,0.00033,0.0,0.0
14.578,3057.798,0.00033,0.0,0.0
14.584,3073.39,0.00033,0.0,0.0
14.59,3064.044,0.00033,0.0,0.0
14.597,3049.092,0.00033,0.0,0.0
14.603,3053.511,0.00033,0.0,0.0
14.609,3050.001,0.00033,0.0,0.0
14.616,3049.207,0.00033,0.0,0.0
14.622,3043.202,0.00033,0.0,0.0
14.628,3047.349,0.00033,0.0,0.0
14.634,3044.896,0.00033,0.0,0.0
14.641,3044.28,0.00033,0.0,0.0
14.647,3047.921,0.00033,0.0,0.0
14.653,3036.834,0.00033,0.0,0.0
14.66,3035.84,0.00033,0.0,0.0
14.666,3033.722,0.00033,0.0,0.0
14.672,3032.794,0.00033,0.0,0.0
14.679,3028.083,0.00033,0.0,0.0
14.685,3028.698,0.00033,0.0,0.0
14.691,3021.811,0.00033,0.0,0.0
14.698,3024.094,0.00033,0.0,0.0
14.704,3026.245,0.00033,0.0,0.0
14.71,3015.057,0.00033,0.0,0.0
14.717,3016.209,0.00033,0.0,0.0
14.723,3008.618,0.00033,0.0,0.0
14.729,3005.695,0.00033,0.0,0.0
14.736,3006.592,0.00033,0.0,0.0
14.742,2992.625,0.00033,0.0,0.0
14.748,3008.664,0.00033,0.0,0.0
14.755,3010.844,0.00033,0.0,0.0
14.761,3007.155,0.00033,0.0,0.0
14.767,3005.514,0.00033,0.0,0.0
14.774,3008.586,0.00033,0.0,0.0
14.78,3013.977,0.00033,0.0,0.0
14.786,2995.513,0.00033,0.0,0.0
14.792,2995.653,0.00033,0.0,0.0
14.799,2999.806,0.00033,0.0,0.0
14.805,3010.585,0.00033,0.0,0.0
14.811,3004.237,0.00033,0.0,0.0
14.818,3012.275,0.00033,0.0,0.0
14.824,3004.482,0.00033,0.0,0.0
14.83,3001.402,0.00033,0.0,0.0
14.837,3010.493,0.00033,0.0,0.0
14.843,3006.169,0.00033,0.0,0.0
14.849,3014.551,0.00033,0.0,0.0
14.856,3009.83,0.00033,0.0,0.0
14.862,3004.56,0.00033,0.0,0.0
14.868,3008.762,0.00033,0.0,0.0
14.875,3012.348,0.00033,0.0,0.0
14.881,3003.981,0.00033,0.0,0.0
14.887,3013.459,0.00033,0.0,0.0
14.894,3024.365,0.00033,0.0,0.0
14.9,3005.647,0.00033,0.0,0.0
14.906,3013.98,0.00033,0.0,0.0
14.913,3023.56,0.00033,0.0,0.0
14.919,3034.16,0.00033,0.0,0.0
14.925,3030.493,0.00033,0.0,0.0
14.932,3020.651,0.00033,0.0,0.0
14.938,3027.851,0.00033,0.0,0.0
14.944,3018.75,0.00033,0.0,0.0
14.95,3030.185,0.00033,0.0,0.0
14.957,3024.055,0.00033,0.0,0.0
14.963,3028.743,0.00033,0.0,0.0
14.969,3028.143,0.00033,0.0,0.0
14.976,3028.823,0.00033,0.0,0.0
14.982,3039.949,0.00033,0.0,0.0
14.988,3037.77,0.00033,0.0,0.0
14.995,3030.972,0.00033,0.0,0.0
15.001,3043.786,0.00033,0.0,0.0
15.007,3042.163,0.00033,0.0,0.0
15.014,3043.639,0.00033,0.0,0.0
15.02,3033.515,0.00033,0.0,0.0
15.026,3029.749,0.00033,0.0,0.0
15.033,3041.264,0.00033,0.0,0.0
15.039,3028.924,0.00033,0.0,0.0
15.045,3034.909,0.00033,0.0,0.0
15.052,3026.056,0.00033,0.0,0.0
15.058,3023.164,0.00033,0.0,0.0
15.064,3018.23,0.00033,0.0,0.0
15.071,3026.582,0.00033,0.0,0.0
15.077,3025.977,0.00033,0.0,0.0
15.083,3032.063,0.00033,0.0,0.0
15.09,3026.73,0.00033,0.0,0.0
15.096,3021.724,0.00033,0.0,0.0
15.102,3027.446,0.00033,0.0,0.0
15.108,3023.422,0.00033,0.0,0.0
15.115,3032.963,0.00033,0.0,0.0
15.121,3019.523,0.00033,0.0,0.0
15.127,3019.211,0.00033,0.0,0.0
15.134,3020.299,0.00033,0.0,0.0
15.14,3018.595,0.00033,0.0,0.0
15.146,3013.25,0.00033,0.0,0.0
15.153,3022.75,0.00033,0.0,0.0
15.159,3032.557,0.00033,0.0,0.0
15.165,3060.856,0.00033,0.0,0.0
15.172,3054.28,0.00033,0.0,0.0
15.178,3088.031,0.00032,0.0,0.0
15.184,3071.623,0.00033,0.0,0.0
15.191,3035.457,0.00033,0.0,0.0
15.197,3026.384,0.00033,0.0,0.0
15.203,3010.886,0.00033,0.0,0.0
15.21,3009.466,0.00033,0.0,0.0
15.216,3005.865,0.00033,0.0,0.0
15.222,3002.04,0.00033,0.0,0.0
15.229,3005.601,0.00033,0.0,0.0
15.235,3011.473,0.00033,0.0,0.0
15.241,2996.03,0.00033,0.0,0.0
15.248,3012.19,0.00033,0.0,0.0
15.254,3015.412,0.00033,0.0,0.0
15.26,3026.214,0.00033,0.0,0.0
15.266,3044.129,0.00033,0.0,0.0
15.273,3066.22,0.00033,0.0,0.0
15.279,3117.026,0.00032,0.0,0.0
15.285,3190.932,0.00031,0.0,0.0
15.292,3319.742,0.0003,0.0,0.0
15.298,3516.792,0.00028,0.0,0.0
15.304,3884.737,0.00026,0.0,0.0
15.311,4413.933,0.00023,0.0,0.0
15.317,4999.509,0.0002,0.0,0.0
15.323,5372.966,0.00019,0.0,0.0
15.33,5823.362,0.00017,0.0,0.0
15.336,5559.242,0.00018,0.0,0.0
15.342,5242.744,0.00019,0.0,0.0
15.349,4571.798,0.00022,0.0,0.0
15.355,4082.593,0.00024,0.0,0.0
15.361,3683.791,0.00027,0.0,0.0
15.368,3372.966,0.0003,0.0,0.0
15.374,3256.323,0.00031,0.0,0.0
15.38,3141.506,0.00032,0.0,0.0
15.387,3091.541,0.00032,0.0,0.0
15.393,3054.46,0.00033,0.0,0.0
15.399,3050.569,0.00033,0.0,0.0
15.406,3037.413,0.00033,0.0,0.0
15.412,3019.715,0.00033,0.0,0.0
15.418,3016.203,0.00033,0.0,0.0
15.424,3025.359,0.00033,0.0,0.0
15.431,3028.779,0.00033,0.0,0.0
15.437,3017.948,0.00033,0.0,0.0
15.443,3013.315,0.00033,0.0,0.0
15.45,3000.774,0.00033,0.0,0.0
15.456,3006.773,0.00033,0.0,0.0
15.462,3015.347,0.00033,0.0,0.0
15.469,3017.996,0.00033,0.0,0.0
15.475,3000.857,0.00033,0.0,0.0
15.481,3024.802,0.00033,0.0,0.0
15.488,3010.188,0.00033,0.0,0.0
15.494,3007.887,0.00033,0.0,0.0
15.5,3021.069,0.00033,0.0,0.0
15.507,3003.545,0.00033,0.0,0.0
15.513,2992.477,0.00033,0.0,0.0
15.519,3006.31,0.00033,0.0,0.0
15.526,3000.099,0.00033,0.0,0.0
15.532,3006.593,0.00033,0.0,0.0
15.538,2993.865,0.00033,0.0,0.0
15.545,2990.866,0.00033,0.0,0.0
15.551,2981.191,0.00034,0.0,0.0
15.557,2978.659,0.00034,0.0,0.0
15.564,2979.112,0.00034,0.0,0.0
15.57,2980.823,0.00034,0.0,0.0
15.576,2975.638,0.00034,0.0,0.0
15.582,2970.933,0.00034,0.0,0.0
15.589,2963.295,0.00034,0.0,0.0
15.595,2957.308,0.00034,0.0,0.0
15.601,2958.629,0.00034,0.0,0.0
15.608,2945.948,0.00034,0.0,0.0
15.614,2966.263,0.00034,0.0,0.0
15.62,2953.158,0.00034,0.0,0.0
15.627,2953.507,0.00034,0.0,0.0
15.633,2928.306,0.00034,0.0,0.0
15.639,2941.157,0.00034,0.0,0.0
15.646,2940.622,0.00034,0.0,0.0
15.652,2937.527,0.00034,0.0,0.0
15.658,2937.645,0.00034,0.0,0.0
15.665,2941.032,0.00034,0.0,0.0
15.671,2933.695,0.00034,0.0,0.0
15.677,2924.761,0.00034,0.0,0.0
15.684,2916.453,0.00034,0.0,0.0
15.69,2922.298,0.00034,0.0,0.0
15.696,2921.838,0.00034,0.0,0.0
15.703,2920.157,0.00034,0.0,0.0
15.709,2912.472,0.00034,0.0,0.0
15.715,2911.101,0.00034,0.0,0.0
15.722,2902.431,0.00034,0.0,0.0
15.728,2900.239,0.00034,0.0,0.0
15.734,2895.673,0.00035,0.0,0.0
15.74,2888.806,0.00035,0.0,0.0
15.747,2892.655,0.00035,0.0,0.0
15.753,2883.956,0.00035,0.0,0.0
15.759,2885.212,0.00035,0.0,0.0
15.766,2885.277,0.00035,0.0,0.0
15.772,2885.555,0.00035,0.0,0.0
15.778,2871.374,0.00035,0.0,0.0
15.785,2870.459,0.00035,0.0,0.0
15.791,2858.861,0.00035,0.0,0.0
15.797,2869.779,0.00035,0.0,0.0
15.804,2860.529,0.00035,0.0,0.0
15.81,2858.913,0.00035,0.0,0.0
15.816,2860.897,0.00035,0.0,0.0
15.823,2859.822,0.00035,0.0,0.0
15.829,2839.634,0.00035,0.0,0.0
15.835,2843.887,0.00035,0.0,0.0
15.842,2860.129,0.00035,0.0,0.0
15.848,2848.265,0.00035,0.0,0.0
15.854,2836.816,0.00035,0.0,0.0
15.861,2849.228,0.00035,0.0,0.0
15.867,2842.97,0.00035,0.0,0.0
15.873,2836.991,0.00035,0.0,0.0
15.88,2838.633,0.00035,0.0,0.0
15.886,2828.643,0.00035,0.0,0.0
15.892,2831.186,0.00035,0.0,0.0
15.898,2838.908,0.00035,0.0,0.0
15.905,2822.568,0.00035,0.0,0.0
15.911,2825.358,0.00035,0.0,0.0
15.917,2823.421,0.00035,0.0,0.0
15.924,2813.47,0.00036,0.0,0.0
15.93,2816.064,0.00036,0.0,0.0
15.936,2824.021,0.00035,0.0,0.0
15.943,2818.771,0.00035,0.0,0.0
15.949,2820.549,0.00035,0.0,0.0
15.955,2820.984,0.00035,0.0,0.0
15.962,2820.044,0.00035,0.0,0.0
15.968,2817.623,0.00035,0.0,0.0
15.974,2810.103,0.00036,0.0,0.0
15.981,2807.858,0.00036,0.0,0.0
15.987,2799.767,0.00036,0.0,0.0
15.993,2809.65,0.00036,0.0,0.0
16.0,2806.095,0.00036,0.0,0.0
16.006,2803.637,0.00036,0.0,0.0
16.012,2805.983,0.00036,0.0,0.0
16.019,2804.025,0.00036,0.0,0.0
16.025,2800.99,0.00036,0.0,0.0
16.031,2805.603,0.00036,0.0,0.0
16.038,2791.652,0.00036,0.0,0.0
16.044,2795.788,0.00036,0.0,0.0
16.05,2798.945,0.00036,0.0,0.0
16.056,2793.954,0.00036,0.0,0.0
16.063,2793.038,0.00036,0.0,0.0
16.069,2792.012,0.00036,0.0,0.0
16.075,2806.446,0.00036,0.0,0.0
16.082,2794.417,0.00036,0.0,0.0
16.088,2796.927,0.00036,0.0,0.0
16.094,2793.306,0.00036,0.0,0.0
16.101,2802.398,0.00036,0.0,0.0
16.107,2791.442,0.00036,0.0,0.0
16.113,2788.216,0.00036,0.0,0.0
16.12,2798.801,0.00036,0.0,0.0
16.126,2783.266,0.00036,0.0,0.0
16.132,2792.147,0.00036,0.0,0.0
16.139,2791.588,0.00036,0.0,0.0
16.145,2797.176,0.00036,0.0,0.0
16.151,2795.235,0.00036,0.0,0.0
16.158,2792.628,0.00036,0.0,0.0
16.164,2784.163,0.00036,0.0,0.0
16.17,2795.421,0.00036,0.0,0.0
16.177,2799.774,0.00036,0.0,0.0
16.183,2791.729,0.00036,0.0,0.0
16.189,2794.92,0.00036,0.0,0.0
16.196,2789.734,0.00036,0.0,0.0
16.202,2793.579,0.00036,0.0,0.0
16.208,2801.601,0.00036,0.0,0.0
16.214,2797.01,0.00036,0.0,0.0
16.221,2793.402,0.00036,0.0,0.0
16.227,2786.559,0.00036,0.0,0.0
16.233,2789.155,0.00036,0.0,0.0
16.24,2791.333,0.00036,0.0,0.0
16.246,2802.236,0.00036,0.0,0.0
16.252,2782.313,0.00036,0.0,0.0
16.259,2790.847,0.00036,0.0,0.0
16.265,2786.036,0.00036,0.0,0.0
16.271,2788.711,0.00036,0.0,0.0
16.278,2790.138,0.00036,0.0,0.0
16.284,2780.45,0.00036,0.0,0.0
16.29,2783.725,0.00036,0.0,0.0
16.297,2786.618,0.00036,0.0,0.0
16.303,2787.152,0.00036,0.0,0.0
16.309,2786.066,0.00036,0.0,0.0
16.316,2786.759,0.00036,0.0,0.0
16.322,2793.006,0.00036,0.0,0.0
16.328,2792.342,0.00036,0.0,0.0
16.335,2789.681,0.00036,0.0,0.0
16.341,2790.744,0.00036,0.0,0.0
16.347,2778.973,0.00036,0.0,0.0
16.354,2784.06,0.00036,0.0,0.0
16.36,2782.796,0.00036,0.0,0.0
16.366,2778.045,0.00036,0.0,0.0
16.372,2785.644,0.00036,0.0,0.0
16.379,2783.279,0.00036,0.0,0.0
16.385,2761.456,0.00036,0.0,0.0
16.391,2773.233,0.00036,0.0,0.0
16.398,2780.063,0.00036,0.0,0.0
16.404,2779.815,0.00036,0.0,0.0
16.41,2796.792,0.00036,0.0,0.0
16.417,2786.17,0.00036,0.0,0.0
16.423,2772.929,0.00036,0.0,0.0
16.429,2777.211,0.00036,0.0,0.0
16.436,2779.796,0.00036,0.0,0.0
16.442,2784.183,0.00036,0.0,0.0
16.448,2774.943,0.00036,0.0,0.0
16.455,2793.722,0.00036,0.0,0.0
16.461,2778.49,0.00036,0.0,0.0
16.467,2778.063,0.00036,0.0,0.0
16.474,2784.264,0.00036,0.0,0.0
16.48,2776.717,0.00036,0.0,0.0
16.486,2780.133,0.00036,0.0,0.0
16.493,2780.062,0.00036,0.0,0.0
16.499,2796.448,0.00036,0.0,0.0
16.505,2794.076,0.00036,0.0,0.0
16.512,2794.812,0.00036,0.0,0.0
16.518,2789.681,0.00036,0.0,0.0
16.524,2788.691,0.00036,0.0,0.0
16.53,2794.298,0.00036,0.0,0.0
16.537,2794.112,0.00036,0.0,0.0
16.543,2790.724,0.00036,0.0,0.0
16.549,2787.652,0.00036,0.0,0.0
16.556,2788.51,0.00036,0.0,0.0
16.562,2798.694,0.00036,0.0,0.0
16.568,2792.027,0.00036,0.0,0.0
16.575,2802.156,0.00036,0.0,0.0
16.581,2801.443,0.00036,0.0,0.0
16.587,2805.602,0.00036,0.0,0.0
16.594,2810.216,0.00036,0.0,0.0
