"x","y_obs","weight","y_calc","y_bkg"
0.8,2950.044,0.00034,0.0,0.0
0.806,3391.546,0.00029,0.0,0.0
0.813,3562.141,0.00028,0.0,0.0
0.819,3401.079,0.00029,0.0,0.0
0.825,4131.741,0.00024,0.0,0.0
0.832,3849.541,0.00026,0.0,0.0
0.838,4177.456,0.00024,0.0,0.0
0.844,4501.49,0.00022,0.0,0.0
0.851,4392.527,0.00023,0.0,0.0
0.857,4857.337,0.00021,0.0,0.0
0.863,5210.036,0.00019,0.0,0.0
0.87,4816.893,0.00021,0.0,0.0
0.876,5763.37,0.00017,0.0,0.0
0.882,5556.325,0.00018,0.0,0.0
0.888,5873.055,0.00017,0.0,0.0
0.895,6088.626,0.00016,0.0,0.0
0.901,6081.502,0.00016,0.0,0.0
0.907,6586.485,0.00015,0.0,0.0
0.914,6745.946,0.00015,0.0,0.0
0.92,6494.04,0.00015,0.0,0.0
0.926,7092.458,0.00014,0.0,0.0
0.933,7169.005,0.00014,0.0,0.0
0.939,6977.79,0.00014,0.0,0.0
0.945,7572.616,0.00013,0.0,0.0
0.952,7203.913,0.00014,0.0,0.0
0.958,7641.616,0.00013,0.0,0.0
0.964,7681.914,0.00013,0.0,0.0
0.971,7357.479,0.00014,0.0,0.0
0.977,7941.885,0.00013,0.0,0.0
0.983,7837.429,0.00013,0.0,0.0
0.99,7706.034,0.00013,0.0,0.0
0.996,8057.513,0.00012,0.0,0.0
1.002,7725.68,0.00013,0.0,0.0
1.009,7975.142,0.00013,0.0,0.0
1.015,8093.469,0.00012,0.0,0.0
1.021,7808.122,0.00013,0.0,0.0
1.028,8120.876,0.00012,0.0,0.0
1.034,7949.652,0.00013,0.0,0.0
1.04,7923.331,0.00013,0.0,0.0
1.046,8045.534,0.00012,0.0,0.0
1.053,8028.91,0.00012,0.0,0.0
1.059,7943.1,0.00013,0.0,0.0
1.065,8063.125,0.00012,0.0,0.0
1.072,7846.294,0.00013,0.0,0.0
1.078,7964.592,0.00013,0.0,0.0
1.084,7797.085,0.00013,0.0,0.0
1.091,7882.71,0.00013,0.0,0.0
1.097,7885.832,0.00013,0.0,0.0
1.103,7822.886,0.00013,0.0,0.0
1.11,7774.011,0.00013,0.0,0.0
1.116,7769.126,0.00013,0.0,0.0
1.122,7696.718,0.00013,0.0,0.0
1.129,7753.079,0.00013,0.0,0.0
1.135,7657.556,0.00013,0.0,0.0
1.141,7560.764,0.00013,0.0,0.0
1.148,7564.885,0.00013,0.0,0.0
1.154,7510.28,0.00013,0.0,0.0
1.16,7435.819,0.00013,0.0,0.0
1.167,7396.774,0.00014,0.0,0.0
1.173,7379.347,0.00014,0.0,0.0
1.179,7368.072,0.00014,0.0,0.0
1.186,7310.942,0.00014,0.0,0.0
1.192,7236.745,0.00014,0.0,0.0
1.198,7199.77,0.00014,0.0,0.0
1.204,7111.337,0.00014,0.0,0.0
1.211,7157.298,0.00014,0.0,0.0
1.217,7025.012,0.00014,0.0,0.0
1.223,6981.823,0.00014,0.0,0.0
1.23,7016.639,0.00014,0.0,0.0
1.236,6949.911,0.00014,0.0,0.0
1.242,6890.936,0.00015,0.0,0.0
1.249,6915.094,0.00014,0.0,0.0
1.255,6891.858,0.00015,0.0,0.0
1.261,6823.585,0.00015,0.0,0.0
1.268,6783.89,0.00015,0.0,0.0
1.274,6766.458,0.00015,0.0,0.0
1.28,6764.854,0.00015,0.0,0.0
1.287,6717.23,0.00015,0.0,0.0
1.293,6740.848,0.00015,0.0,0.0
1.299,6694.079,0.00015,0.0,0.0
1.306,6646.197,0.00015,0.0,0.0
1.312,6625.201,0.00015,0.0,0.0
1.318,6649.616,0.00015,0.0,0.0
1.325,6607.201,0.00015,0.0,0.0
1.331,6579.906,0.00015,0.0,0.0
1.337,6557.592,0.00015,0.0,0.0
1.344,6563.869,0.00015,0.0,0.0
1.35,6547.978,0.00015,0.0,0.0
1.356,6539.429,0.00015,0.0,0.0
1.362,6499.675,0.00015,0.0,0.0
1.369,6449.838,0.00016,0.0,0.0
1.375,6496.538,0.00015,0.0,0.0
1.381,6458.046,0.00015,0.0,0.0
1.388,6494.617,0.00015,0.0,0.0
1.394,6433.412,0.00016,0.0,0.0
1.4,6480.717,0.00015,0.0,0.0
1.407,6432.287,0.00016,0.0,0.0
1.413,6427.82,0.00016,0.0,0.0
1.419,6389.321,0.00016,0.0,0.0
1.426,6411.052,0.00016,0.0,0.0
1.432,6406.218,0.00016,0.0,0.0
1.438,6465.866,0.00015,0.0,0.0
1.445,6405.574,0.00016,0.0,0.0
1.451,6413.938,0.00016,0.0,0.0
1.457,6408.124,0.00016,0.0,0.0
1.464,6385.355,0.00016,0.0,0.0
1.47,6356.231,0.00016,0.0,0.0
1.476,6376.108,0.00016,0.0,0.0
1.483,6395.882,0.00016,0.0,0.0
1.489,6387.829,0.00016,0.0,0.0
1.495,6424.846,0.00016,0.0,0.0
1.502,6369.749,0.00016,0.0,0.0
1.508,6389.113,0.00016,0.0,0.0
1.514,6376.244,0.00016,0.0,0.0
1.52,6402.061,0.00016,0.0,0.0
1.527,6404.597,0.00016,0.0,0.0
1.533,6398.045,0.00016,0.0,0.0
1.539,6394.139,0.00016,0.0,0.0
1.546,6384.67,0.00016,0.0,0.0
1.552,6404.889,0.00016,0.0,0.0
1.558,6415.511,0.00016,0.0,0.0
1.565,6465.337,0.00015,0.0,0.0
1.571,6462.289,0.00015,0.0,0.0
1.577,6485.088,0.00015,0.0,0.0
1.584,6466.287,0.00015,0.0,0.0
1.59,6516.859,0.00015,0.0,0.0
1.596,6478.605,0.00015,0.0,0.0
1.603,6533.284,0.00015,0.0,0.0
1.609,6467.507,0.00015,0.0,0.0
1.615,6508.051,0.00015,0.0,0.0
1.622,6527.478,0.00015,0.0,0.0
1.628,6541.922,0.00015,0.0,0.0
1.634,6592.193,0.00015,0.0,0.0
1.641,6565.069,0.00015,0.0,0.0
1.647,6582.111,0.00015,0.0,0.0
1.653,6621.802,0.00015,0.0,0.0
1.66,6626.859,0.00015,0.0,0.0
1.666,6650.441,0.00015,0.0,0.0
1.672,6687.094,0.00015,0.0,0.0
1.678,6642.657,0.00015,0.0,0.0
1.685,6672.741,0.00015,0.0,0.0
1.691,6679.281,0.00015,0.0,0.0
1.697,6702.977,0.00015,0.0,0.0
1.704,6691.799,0.00015,0.0,0.0
1.71,6739.899,0.00015,0.0,0.0
1.716,6750.234,0.00015,0.0,0.0
1.723,6743.494,0.00015,0.0,0.0
1.729,6801.805,0.00015,0.0,0.0
1.735,6763.741,0.00015,0.0,0.0
1.742,6809.014,0.00015,0.0,0.0
1.748,6804.234,0.00015,0.0,0.0
1.754,6824.569,0.00015,0.0,0.0
1.761,6858.266,0.00015,0.0,0.0
1.767,6847.34,0.00015,0.0,0.0
1.773,6852.362,0.00015,0.0,0.0
1.78,6817.091,0.00015,0.0,0.0
1.786,6872.532,0.00015,0.0,0.0
1.792,6849.945,0.00015,0.0,0.0
1.799,6921.177,0.00014,0.0,0.0
1.805,6900.232,0.00014,0.0,0.0
1.811,6878.792,0.00015,0.0,0.0
1.818,6883.032,0.00015,0.0,0.0
1.824,6908.121,0.00014,0.0,0.0
1.83,6893.399,0.00015,0.0,0.0
1.836,6906.11,0.00014,0.0,0.0
1.843,6892.74,0.00015,0.0,0.0
1.849,6901.314,0.00014,0.0,0.0
1.855,6919.604,0.00014,0.0,0.0
1.862,6903.87,0.00014,0.0,0.0
1.868,6927.23,0.00014,0.0,0.0
1.874,6908.977,0.00014,0.0,0.0
1.881,6915.409,0.00014,0.0,0.0
1.887,6887.033,0.00015,0.0,0.0
1.893,6939.39,0.00014,0.0,0.0
1.9,6901.362,0.00014,0.0,0.0
1.906,6939.244,0.00014,0.0,0.0
1.912,6899.042,0.00014,0.0,0.0
1.919,6892.077,0.00015,0.0,0.0
1.925,6919.077,0.00014,0.0,0.0
1.931,6866.594,0.00015,0.0,0.0
1.938,6916.134,0.00014,0.0,0.0
1.944,6930.248,0.00014,0.0,0.0
1.95,6893.639,0.00015,0.0,0.0
1.957,6910.933,0.00014,0.0,0.0
1.963,6919.413,0.00014,0.0,0.0
1.969,6902.172,0.00014,0.0,0.0
1.976,6910.379,0.00014,0.0,0.0
1.982,6942.395,0.00014,0.0,0.0
1.988,6899.232,0.00014,0.0,0.0
1.994,6925.272,0.00014,0.0,0.0
2.001,6910.266,0.00014,0.0,0.0
2.007,6913.805,0.00014,0.0,0.0
2.013,6928.958,0.00014,0.0,0.0
2.02,6918.873,0.00014,0.0,0.0
2.026,6934.188,0.00014,0.0,0.0
2.032,6918.625,0.00014,0.0,0.0
2.039,6953.482,0.00014,0.0,0.0
2.045,6951.103,0.00014,0.0,0.0
2.051,6954.523,0.00014,0.0,0.0
2.058,7018.818,0.00014,0.0,0.0
2.064,6999.292,0.00014,0.0,0.0
2.07,7012.62,0.00014,0.0,0.0
2.077,7001.172,0.00014,0.0,0.0
2.083,6989.167,0.00014,0.0,0.0
2.089,7025.519,0.00014,0.0,0.0
2.096,6964.486,0.00014,0.0,0.0
2.102,7002.708,0.00014,0.0,0.0
2.108,7035.29,0.00014,0.0,0.0
2.115,7024.865,0.00014,0.0,0.0
2.121,7012.645,0.00014,0.0,0.0
2.127,7061.902,0.00014,0.0,0.0
2.134,7056.773,0.00014,0.0,0.0
2.14,7063.2,0.00014,0.0,0.0
2.146,7087.019,0.00014,0.0,0.0
2.152,7112.77,0.00014,0.0,0.0
2.159,7096.239,0.00014,0.0,0.0
2.165,7133.07,0.00014,0.0,0.0
2.171,7097.209,0.00014,0.0,0.0
2.178,7136.288,0.00014,0.0,0.0
2.184,7161.001,0.00014,0.0,0.0
2.19,7181.371,0.00014,0.0,0.0
2.197,7171.763,0.00014,0.0,0.0
2.203,7216.677,0.00014,0.0,0.0
2.209,7215.48,0.00014,0.0,0.0
2.216,7255.597,0.00014,0.0,0.0
2.222,7221.722,0.00014,0.0,0.0
2.228,7325.956,0.00014,0.0,0.0
2.235,7304.574,0.00014,0.0,0.0
2.241,7306.278,0.00014,0.0,0.0
2.247,7347.713,0.00014,0.0,0.0
2.254,7362.163,0.00014,0.0,0.0
2.26,7382.075,0.00014,0.0,0.0
2.266,7383.719,0.00014,0.0,0.0
2.273,7453.741,0.00013,0.0,0.0
2.279,7436.741,0.00013,0.0,0.0
2.285,7462.789,0.00013,0.0,0.0
2.292,7460.092,0.00013,0.0,0.0
2.298,7508.752,0.00013,0.0,0.0
2.304,7547.525,0.00013,0.0,0.0
2.31,7566.514,0.00013,0.0,0.0
2.317,7553.57,0.00013,0.0,0.0
2.323,7601.346,0.00013,0.0,0.0
2.329,7657.811,0.00013,0.0,0.0
2.336,7681.142,0.00013,0.0,0.0
2.342,7696.082,0.00013,0.0,0.0
2.348,7745.305,0.00013,0.0,0.0
2.355,7754.055,0.00013,0.0,0.0
2.361,7783.211,0.00013,0.0,0.0
2.367,7829.35,0.00013,0.0,0.0
2.374,7880.437,0.00013,0.0,0.0
2.38,7944.651,0.00013,0.0,0.0
2.386,7992.255,0.00013,0.0,0.0
2.393,8119.637,0.00012,0.0,0.0
2.399,8209.006,0.00012,0.0,0.0
2.405,8424.428,0.00012,0.0,0.0
2.412,8667.58,0.00012,0.0,0.0
2.418,8830.099,0.00011,0.0,0.0
2.424,9069.915,0.00011,0.0,0.0
2.431,9104.039,0.00011,0.0,0.0
2.437,8948.182,0.00011,0.0,0.0
2.443,8824.459,0.00011,0.0,0.0
2.45,8612.414,0.00012,0.0,0.0
2.456,8492.17,0.00012,0.0,0.0
2.462,8421.486,0.00012,0.0,0.0
2.468,8348.649,0.00012,0.0,0.0
2.475,8376.527,0.00012,0.0,0.0
2.481,8397.94,0.00012,0.0,0.0
2.487,8389.399,0.00012,0.0,0.0
2.494,8446.62,0.00012,0.0,0.0
2.5,8465.817,0.00012,0.0,0.0
2.506,8498.413,0.00012,0.0,0.0
2.513,8525.909,0.00012,0.0,0.0
2.519,8512.428,0.00012,0.0,0.0
2.525,8592.1,0.00012,0.0,0.0
2.532,8619.163,0.00012,0.0,0.0
2.538,8642.018,0.00012,0.0,0.0
2.544,8687.057,0.00012,0.0,0.0
2.551,8696.486,0.00011,0.0,0.0
2.557,8720.245,0.00011,0.0,0.0
2.563,8786.25,0.00011,0.0,0.0
2.57,8807.238,0.00011,0.0,0.0
2.576,8830.842,0.00011,0.0,0.0
2.582,8862.946,0.00011,0.0,0.0
2.589,8901.148,0.00011,0.0,0.0
2.595,8909.363,0.00011,0.0,0.0
2.601,8957.754,0.00011,0.0,0.0
2.608,9004.434,0.00011,0.0,0.0
2.614,9038.811,0.00011,0.0,0.0
2.62,9071.73,0.00011,0.0,0.0
2.626,9111.903,0.00011,0.0,0.0
2.633,9153.768,0.00011,0.0,0.0
2.639,9159.376,0.00011,0.0,0.0
2.645,9231.388,0.00011,0.0,0.0
2.652,9252.126,0.00011,0.0,0.0
2.658,9233.371,0.00011,0.0,0.0
2.664,9313.107,0.00011,0.0,0.0
2.671,9316.453,0.00011,0.0,0.0
2.677,9410.317,0.00011,0.0,0.0
2.683,9421.834,0.00011,0.0,0.0
2.69,9424.191,0.00011,0.0,0.0
2.696,9516.137,0.00011,0.0,0.0
2.702,9543.48,0.0001,0.0,0.0
2.709,9571.595,0.0001,0.0,0.0
2.715,9593.244,0.0001,0.0,0.0
2.721,9622.417,0.0001,0.0,0.0
2.728,9685.079,0.0001,0.0,0.0
2.734,9695.395,0.0001,0.0,0.0
2.74,9767.515,0.0001,0.0,0.0
2.747,9764.349,0.0001,0.0,0.0
2.753,9839.339,0.0001,0.0,0.0
2.759,9886.465,0.0001,0.0,0.0
2.766,9906.877,0.0001,0.0,0.0
2.772,9967.656,0.0001,0.0,0.0
2.778,9983.344,0.0001,0.0,0.0
2.784,10034.673,0.0001,0.0,0.0
2.791,10066.863,0.0001,0.0,0.0
2.797,10067.826,0.0001,0.0,0.0
2.803,10143.547,0.0001,0.0,0.0
2.81,10173.494,0.0001,0.0,0.0
2.816,10204.881,0.0001,0.0,0.0
2.822,10278.226,0.0001,0.0,0.0
2.829,10271.166,0.0001,0.0,0.0
2.835,10351.877,0.0001,0.0,0.0
2.841,10370.448,0.0001,0.0,0.0
2.848,10457.475,0.0001,0.0,0.0
2.854,10469.305,0.0001,0.0,0.0
2.86,10502.479,0.0001,0.0,0.0
2.867,10579.984,0.00009,0.0,0.0
2.873,10567.7,0.00009,0.0,0.0
2.879,10622.78,0.00009,0.0,0.0
2.886,10653.477,0.00009,0.0,0.0
2.892,10693.667,0.00009,0.0,0.0
2.898,10748.369,0.00009,0.0,0.0
2.905,10768.531,0.00009,0.0,0.0
2.911,10807.95,0.00009,0.0,0.0
2.917,10831.767,0.00009,0.0,0.0
2.924,10856.042,0.00009,0.0,0.0
2.93,10887.251,0.00009,0.0,0.0
2.936,10940.038,0.00009,0.0,0.0
2.942,10971.632,0.00009,0.0,0.0
2.949,11014.115,0.00009,0.0,0.0
2.955,11003.183,0.00009,0.0,0.0
2.961,11073.261,0.00009,0.0,0.0
2.968,11093.055,0.00009,0.0,0.0
2.974,11140.775,0.00009,0.0,0.0
2.98,11185.323,0.00009,0.0,0.0
2.987,11170.638,0.00009,0.0,0.0
2.993,11231.239,0.00009,0.0,0.0
2.999,11220.727,0.00009,0.0,0.0
3.006,11278.397,0.00009,0.0,0.0
3.012,11268.605,0.00009,0.0,0.0
3.018,11317.274,0.00009,0.0,0.0
3.025,11301.814,0.00009,0.0,0.0
3.031,11317.856,0.00009,0.0,0.0
3.037,11344.13,0.00009,0.0,0.0
3.044,11323.478,0.00009,0.0,0.0
3.05,11366.934,0.00009,0.0,0.0
3.056,11383.253,0.00009,0.0,0.0
3.063,11411.66,0.00009,0.0,0.0
3.069,11429.587,0.00009,0.0,0.0
3.075,11420.997,0.00009,0.0,0.0
3.082,11440.363,0.00009,0.0,0.0
3.088,11443.088,0.00009,0.0,0.0
3.094,11474.45,0.00009,0.0,0.0
3.1,11475.012,0.00009,0.0,0.0
3.107,11478.048,0.00009,0.0,0.0
3.113,11489.234,0.00009,0.0,0.0
3.119,11465.136,0.00009,0.0,0.0
3.126,11470.106,0.00009,0.0,0.0
3.132,11448.697,0.00009,0.0,0.0
3.138,11441.614,0.00009,0.0,0.0
3.145,11480.836,0.00009,0.0,0.0
3.151,11444.233,0.00009,0.0,0.0
3.157,11473.192,0.00009,0.0,0.0
3.164,11423.466,0.00009,0.0,0.0
3.17,11394.233,0.00009,0.0,0.0
3.176,11381.677,0.00009,0.0,0.0
3.183,11380.172,0.00009,0.0,0.0
3.189,11359.954,0.00009,0.0,0.0
3.195,11355.062,0.00009,0.0,0.0
3.202,11325.184,0.00009,0.0,0.0
3.208,11314.511,0.00009,0.0,0.0
3.214,11288.378,0.00009,0.0,0.0
3.221,11275.512,0.00009,0.0,0.0
3.227,11263.853,0.00009,0.0,0.0
3.233,11215.523,0.00009,0.0,0.0
3.24,11218.028,0.00009,0.0,0.0
3.246,11196.507,0.00009,0.0,0.0
3.252,11169.969,0.00009,0.0,0.0
3.258,11152.46,0.00009,0.0,0.0
3.265,11125.523,0.00009,0.0,0.0
3.271,11111.956,0.00009,0.0,0.0
3.277,11066.385,0.00009,0.0,0.0
3.284,11053.551,0.00009,0.0,0.0
3.29,11020.202,0.00009,0.0,0.0
3.296,10992.565,0.00009,0.0,0.0
3.303,10973.527,0.00009,0.0,0.0
3.309,10947.912,0.00009,0.0,0.0
3.315,10898.63,0.00009,0.0,0.0
3.322,10866.17,0.00009,0.0,0.0
3.328,10855.488,0.00009,0.0,0.0
3.334,10806.545,0.00009,0.0,0.0
3.341,10800.875,0.00009,0.0,0.0
3.347,10787.125,0.00009,0.0,0.0
3.353,10758.849,0.00009,0.0,0.0
3.36,10717.199,0.00009,0.0,0.0
3.366,10687.576,0.00009,0.0,0.0
3.372,10670.852,0.00009,0.0,0.0
3.379,10628.541,0.00009,0.0,0.0
3.385,10595.033,0.00009,0.0,0.0
3.391,10542.811,0.00009,0.0,0.0
3.398,10532.313,0.00009,0.0,0.0
3.404,10551.175,0.00009,0.0,0.0
3.41,10500.034,0.0001,0.0,0.0
3.416,10484.483,0.0001,0.0,0.0
3.423,10443.522,0.0001,0.0,0.0
3.429,10409.67,0.0001,0.0,0.0
3.435,10415.631,0.0001,0.0,0.0
3.442,10368.78,0.0001,0.0,0.0
3.448,10332.774,0.0001,0.0,0.0
3.454,10314.899,0.0001,0.0,0.0
3.461,10291.987,0.0001,0.0,0.0
3.467,10260.963,0.0001,0.0,0.0
3.473,10234.289,0.0001,0.0,0.0
3.48,10205.413,0.0001,0.0,0.0
3.486,10180.311,0.0001,0.0,0.0
3.492,10165.819,0.0001,0.0,0.0
3.499,10136.378,0.0001,0.0,0.0
3.505,10079.512,0.0001,0.0,0.0
3.511,10074.287,0.0001,0.0,0.0
3.518,10097.644,0.0001,0.0,0.0
3.524,10058.417,0.0001,0.0,0.0
3.53,10046.304,0.0001,0.0,0.0
3.537,10019.833,0.0001,0.0,0.0
3.543,9972.44,0.0001,0.0,0.0
3.549,9972.176,0.0001,0.0,0.0
3.556,9952.866,0.0001,0.0,0.0
3.562,9940.898,0.0001,0.0,0.0
3.568,9912.111,0.0001,0.0,0.0
3.574,9913.888,0.0001,0.0,0.0
3.581,9879.62,0.0001,0.0,0.0
3.587,9883.596,0.0001,0.0,0.0
3.593,9839.648,0.0001,0.0,0.0
3.6,9855.229,0.0001,0.0,0.0
3.606,9834.989,0.0001,0.0,0.0
3.612,9810.988,0.0001,0.0,0.0
3.619,9809.675,0.0001,0.0,0.0
3.625,9793.702,0.0001,0.0,0.0
3.631,9788.399,0.0001,0.0,0.0
3.638,9815.033,0.0001,0.0,0.0
3.644,9773.594,0.0001,0.0,0.0
3.65,9780.431,0.0001,0.0,0.0
3.657,9770.508,0.0001,0.0,0.0
3.663,9735.09,0.0001,0.0,0.0
3.669,9766.298,0.0001,0.0,0.0
3.676,9723.946,0.0001,0.0,0.0
3.682,9766.421,0.0001,0.0,0.0
3.688,9752.96,0.0001,0.0,0.0
3.695,9738.57,0.0001,0.0,0.0
3.701,9724.254,0.0001,0.0,0.0
3.707,9725.79,0.0001,0.0,0.0
3.714,9728.505,0.0001,0.0,0.0
3.72,9706.071,0.0001,0.0,0.0
3.726,9707.739,0.0001,0.0,0.0
3.732,9685.201,0.0001,0.0,0.0
3.739,9697.976,0.0001,0.0,0.0
3.745,9669.25,0.0001,0.0,0.0
3.751,9668.27,0.0001,0.0,0.0
3.758,9684.944,0.0001,0.0,0.0
3.764,9650.135,0.0001,0.0,0.0
3.77,9650.287,0.0001,0.0,0.0
3.777,9671.109,0.0001,0.0,0.0
3.783,9619.178,0.0001,0.0,0.0
3.789,9664.27,0.0001,0.0,0.0
3.796,9617.612,0.0001,0.0,0.0
3.802,9619.482,0.0001,0.0,0.0
3.808,9599.882,0.0001,0.0,0.0
3.815,9580.644,0.0001,0.0,0.0
3.821,9585.078,0.0001,0.0,0.0
3.827,9557.78,0.0001,0.0,0.0
3.834,9501.192,0.00011,0.0,0.0
3.84,9539.308,0.0001,0.0,0.0
3.846,9469.183,0.00011,0.0,0.0
3.853,9444.689,0.00011,0.0,0.0
3.859,9470.024,0.00011,0.0,0.0
3.865,9393.949,0.00011,0.0,0.0
3.872,9395.699,0.00011,0.0,0.0
3.878,9381.204,0.00011,0.0,0.0
3.884,9316.961,0.00011,0.0,0.0
3.89,9343.307,0.00011,0.0,0.0
3.897,9257.857,0.00011,0.0,0.0
3.903,9257.491,0.00011,0.0,0.0
3.909,9266.764,0.00011,0.0,0.0
3.916,9198.727,0.00011,0.0,0.0
3.922,9198.397,0.00011,0.0,0.0
3.928,9165.494,0.00011,0.0,0.0
3.935,9080.915,0.00011,0.0,0.0
3.941,9106.794,0.00011,0.0,0.0
3.947,9037.656,0.00011,0.0,0.0
3.954,9001.619,0.00011,0.0,0.0
3.96,9025.372,0.00011,0.0,0.0
3.966,8960.594,0.00011,0.0,0.0
3.973,8975.462,0.00011,0.0,0.0
3.979,8914.618,0.00011,0.0,0.0
3.985,8831.921,0.00011,0.0,0.0
3.992,8911.557,0.00011,0.0,0.0
3.998,8818.96,0.00011,0.0,0.0
4.004,8799.945,0.00011,0.0,0.0
4.011,8834.311,0.00011,0.0,0.0
4.017,8711.35,0.00011,0.0,0.0
4.023,8750.83,0.00011,0.0,0.0
4.03,8711.216,0.00011,0.0,0.0
4.036,8613.55,0.00012,0.0,0.0
4.042,8726.315,0.00011,0.0,0.0
4.048,8597.478,0.00012,0.0,0.0
4.055,8578.469,0.00012,0.0,0.0
4.061,8596.074,0.00012,0.0,0.0
4.067,8542.288,0.00012,0.0,0.0
4.074,8577.104,0.00012,0.0,0.0
4.08,8536.365,0.00012,0.0,0.0
4.086,8485.653,0.00012,0.0,0.0
4.093,8553.196,0.00012,0.0,0.0
4.099,8445.5,0.00012,0.0,0.0
4.105,8436.516,0.00012,0.0,0.0
4.112,8494.623,0.00012,0.0,0.0
4.118,8395.493,0.00012,0.0,0.0
4.124,8465.585,0.00012,0.0,0.0
4.131,8413.162,0.00012,0.0,0.0
4.137,8374.736,0.00012,0.0,0.0
4.143,8444.176,0.00012,0.0,0.0
4.15,8353.97,0.00012,0.0,0.0
4.156,8354.832,0.00012,0.0,0.0
4.162,8398.604,0.00012,0.0,0.0
4.169,8301.753,0.00012,0.0,0.0
4.175,8376.221,0.00012,0.0,0.0
4.181,8352.324,0.00012,0.0,0.0
4.188,8237.837,0.00012,0.0,0.0
4.194,8333.422,0.00012,0.0,0.0
4.2,8294.703,0.00012,0.0,0.0
4.206,8279.298,0.00012,0.0,0.0
4.213,8329.292,0.00012,0.0,0.0
4.219,8225.014,0.00012,0.0,0.0
4.225,8308.911,0.00012,0.0,0.0
4.232,8283.883,0.00012,0.0,0.0
4.238,8230.099,0.00012,0.0,0.0
4.244,8309.471,0.00012,0.0,0.0
4.251,8252.079,0.00012,0.0,0.0
4.257,8193.141,0.00012,0.0,0.0
4.263,8282.211,0.00012,0.0,0.0
4.27,8204.404,0.00012,0.0,0.0
4.276,8326.229,0.00012,0.0,0.0
4.282,8289.615,0.00012,0.0,0.0
4.289,8234.533,0.00012,0.0,0.0
4.295,8283.341,0.00012,0.0,0.0
4.301,8222.667,0.00012,0.0,0.0
4.308,8313.867,0.00012,0.0,0.0
4.314,8262.594,0.00012,0.0,0.0
4.32,8224.702,0.00012,0.0,0.0
4.327,8240.52,0.00012,0.0,0.0
4.333,8313.611,0.00012,0.0,0.0
4.339,8191.141,0.00012,0.0,0.0
4.346,8298.318,0.00012,0.0,0.0
4.352,8274.463,0.00012,0.0,0.0
4.358,8257.307,0.00012,0.0,0.0
4.364,8362.794,0.00012,0.0,0.0
4.371,8212.207,0.00012,0.0,0.0
4.377,8461.164,0.00012,0.0,0.0
4.383,8253.945,0.00012,0.0,0.0
4.39,8338.609,0.00012,0.0,0.0
4.396,8377.743,0.00012,0.0,0.0
4.402,8441.413,0.00012,0.0,0.0
4.409,8356.24,0.00012,0.0,0.0
4.415,8502.878,0.00012,0.0,0.0
4.421,8500.18,0.00012,0.0,0.0
4.428,8418.546,0.00012,0.0,0.0
4.434,8639.833,0.00012,0.0,0.0
4.44,8493.062,0.00012,0.0,0.0
4.447,8642.517,0.00012,0.0,0.0
4.453,8578.279,0.00012,0.0,0.0
4.459,8858.545,0.00011,0.0,0.0
4.466,8696.435,0.00011,0.0,0.0
4.472,8748.645,0.00011,0.0,0.0
4.478,8865.022,0.00011,0.0,0.0
4.485,9078.572,0.00011,0.0,0.0
4.491,9049.907,0.00011,0.0,0.0
4.497,8977.182,0.00011,0.0,0.0
4.504,10003.061,0.0001,0.0,0.0
4.51,9425.469,0.00011,0.0,0.0
4.516,11462.802,0.00009,0.0,0.0
4.522,10303.303,0.0001,0.0,0.0
4.529,11902.653,0.00008,0.0,0.0
4.535,20447.025,0.00005,0.0,0.0
4.541,15444.886,0.00006,0.0,0.0
4.548,22836.548,0.00004,0.0,0.0
4.554,42931.358,0.00002,0.0,0.0
4.56,29186.809,0.00003,0.0,0.0
4.567,52757.509,0.00002,0.0,0.0
4.573,26188.766,0.00004,0.0,0.0
4.579,27941.347,0.00004,0.0,0.0
4.586,36678.402,0.00003,0.0,0.0
4.592,13504.642,0.00007,0.0,0.0
4.598,18915.861,0.00005,0.0,0.0
4.605,11028.79,0.00009,0.0,0.0
4.611,9874.954,0.0001,0.0,0.0
4.617,11285.514,0.00009,0.0,0.0
4.624,9081.983,0.00011,0.0,0.0
4.63,9046.996,0.00011,0.0,0.0
4.636,9147.439,0.00011,0.0,0.0
4.643,8898.466,0.00011,0.0,0.0
4.649,8712.401,0.00011,0.0,0.0
4.655,8658.398,0.00012,0.0,0.0
4.662,8510.212,0.00012,0.0,0.0
4.668,8392.724,0.00012,0.0,0.0
4.674,8324.019,0.00012,0.0,0.0
4.68,8152.228,0.00012,0.0,0.0
4.687,8290.09,0.00012,0.0,0.0
4.693,7961.915,0.00013,0.0,0.0
4.699,8061.733,0.00012,0.0,0.0
4.706,7906.723,0.00013,0.0,0.0
4.712,7885.56,0.00013,0.0,0.0
4.718,7856.731,0.00013,0.0,0.0
4.725,7722.736,0.00013,0.0,0.0
4.731,7759.158,0.00013,0.0,0.0
4.737,7622.027,0.00013,0.0,0.0
4.744,7659.688,0.00013,0.0,0.0
4.75,7529.301,0.00013,0.0,0.0
4.756,7548.278,0.00013,0.0,0.0
4.763,7402.81,0.00014,0.0,0.0
4.769,7563.771,0.00013,0.0,0.0
4.775,7367.583,0.00014,0.0,0.0
4.782,7365.191,0.00014,0.0,0.0
4.788,7336.917,0.00014,0.0,0.0
4.794,7287.755,0.00014,0.0,0.0
4.801,7297.167,0.00014,0.0,0.0
4.807,7264.705,0.00014,0.0,0.0
4.813,7319.132,0.00014,0.0,0.0
4.82,7239.194,0.00014,0.0,0.0
4.826,7407.385,0.00014,0.0,0.0
4.832,7479.042,0.00013,0.0,0.0
4.838,7699.788,0.00013,0.0,0.0
4.845,7875.054,0.00013,0.0,0.0
4.851,8154.394,0.00012,0.0,0.0
4.857,8189.308,0.00012,0.0,0.0
4.864,8177.904,0.00012,0.0,0.0
4.87,7950.174,0.00013,0.0,0.0
4.876,7627.295,0.00013,0.0,0.0
4.883,7438.904,0.00013,0.0,0.0
4.889,7196.583,0.00014,0.0,0.0
4.895,7004.493,0.00014,0.0,0.0
4.902,6952.828,0.00014,0.0,0.0
4.908,6831.649,0.00015,0.0,0.0
4.914,6819.922,0.00015,0.0,0.0
4.921,6738.666,0.00015,0.0,0.0
4.927,6712.003,0.00015,0.0,0.0
4.933,6677.463,0.00015,0.0,0.0
4.94,6659.726,0.00015,0.0,0.0
4.946,6612.923,0.00015,0.0,0.0
4.952,6613.301,0.00015,0.0,0.0
4.959,6576.99,0.00015,0.0,0.0
4.965,6548.17,0.00015,0.0,0.0
4.971,6561.669,0.00015,0.0,0.0
4.978,6489.133,0.00015,0.0,0.0
4.984,6509.838,0.00015,0.0,0.0
4.99,6411.466,0.00016,0.0,0.0
4.996,6483.094,0.00015,0.0,0.0
5.003,6429.706,0.00016,0.0,0.0
5.009,6428.225,0.00016,0.0,0.0
5.015,6378.49,0.00016,0.0,0.0
5.022,6335.619,0.00016,0.0,0.0
5.028,6324.277,0.00016,0.0,0.0
5.034,6311.717,0.00016,0.0,0.0
5.041,6364.081,0.00016,0.0,0.0
5.047,6275.964,0.00016,0.0,0.0
5.053,6321.437,0.00016,0.0,0.0
5.06,6212.342,0.00016,0.0,0.0
5.066,6240.325,0.00016,0.0,0.0
5.072,6207.356,0.00016,0.0,0.0
5.079,6232.326,0.00016,0.0,0.0
5.085,6193.053,0.00016,0.0,0.0
5.091,6179.596,0.00016,0.0,0.0
5.098,6145.048,0.00016,0.0,0.0
5.104,6152.744,0.00016,0.0,0.0
5.11,6119.403,0.00016,0.0,0.0
5.117,6103.932,0.00016,0.0,0.0
5.123,6116.375,0.00016,0.0,0.0
5.129,6090.482,0.00016,0.0,0.0
5.136,6090.501,0.00016,0.0,0.0
5.142,6050.38,0.00017,0.0,0.0
5.148,6061.432,0.00016,0.0,0.0
5.154,6036.851,0.00017,0.0,0.0
5.161,6010.004,0.00017,0.0,0.0
5.167,6038.919,0.00017,0.0,0.0
5.173,6029.045,0.00017,0.0,0.0
5.18,5990.97,0.00017,0.0,0.0
5.186,5999.161,0.00017,0.0,0.0
5.192,5955.702,0.00017,0.0,0.0
5.199,5976.019,0.00017,0.0,0.0
5.205,5964.75,0.00017,0.0,0.0
5.211,5936.187,0.00017,0.0,0.0
5.218,5893.848,0.00017,0.0,0.0
5.224,5926.067,0.00017,0.0,0.0
5.23,5904.476,0.00017,0.0,0.0
5.237,5908.862,0.00017,0.0,0.0
5.243,5900.129,0.00017,0.0,0.0
5.249,5869.752,0.00017,0.0,0.0
5.256,5881.627,0.00017,0.0,0.0
5.262,5840.863,0.00017,0.0,0.0
5.268,5859.847,0.00017,0.0,0.0
5.275,5831.464,0.00017,0.0,0.0
5.281,5859.163,0.00017,0.0,0.0
5.287,5842.319,0.00017,0.0,0.0
5.294,5801.655,0.00017,0.0,0.0
5.3,5816.41,0.00017,0.0,0.0
5.306,5819.322,0.00017,0.0,0.0
5.312,5768.005,0.00017,0.0,0.0
5.319,5788.036,0.00017,0.0,0.0
5.325,5803.32,0.00017,0.0,0.0
5.331,5782.187,0.00017,0.0,0.0
5.338,5791.989,0.00017,0.0,0.0
5.344,5775.569,0.00017,0.0,0.0
5.35,5780.229,0.00017,0.0,0.0
5.357,5754.602,0.00017,0.0,0.0
5.363,5780.756,0.00017,0.0,0.0
5.369,5759.169,0.00017,0.0,0.0
5.376,5774.67,0.00017,0.0,0.0
5.382,5747.883,0.00017,0.0,0.0
5.388,5765.747,0.00017,0.0,0.0
5.395,5757.767,0.00017,0.0,0.0
5.401,5755.585,0.00017,0.0,0.0
5.407,5764.031,0.00017,0.0,0.0
5.414,5711.212,0.00018,0.0,0.0
5.42,5740.259,0.00017,0.0,0.0
5.426,5738.488,0.00017,0.0,0.0
5.433,5720.219,0.00017,0.0,0.0
5.439,5766.853,0.00017,0.0,0.0
5.445,5724.136,0.00017,0.0,0.0
5.452,5748.275,0.00017,0.0,0.0
5.458,5737.963,0.00017,0.0,0.0
5.464,5726.408,0.00017,0.0,0.0
5.47,5762.996,0.00017,0.0,0.0
5.477,5737.843,0.00017,0.0,0.0
5.483,5760.75,0.00017,0.0,0.0
5.489,5736.004,0.00017,0.0,0.0
5.496,5741.732,0.00017,0.0,0.0
5.502,5773.219,0.00017,0.0,0.0
5.508,5748.79,0.00017,0.0,0.0
5.515,5753.121,0.00017,0.0,0.0
5.521,5772.138,0.00017,0.0,0.0
5.527,5773.378,0.00017,0.0,0.0
5.534,5755.585,0.00017,0.0,0.0
5.54,5780.133,0.00017,0.0,0.0
5.546,5746.857,0.00017,0.0,0.0
5.553,5775.7,0.00017,0.0,0.0
5.559,5780.199,0.00017,0.0,0.0
5.565,5757.654,0.00017,0.0,0.0
5.572,5758.925,0.00017,0.0,0.0
5.578,5746.395,0.00017,0.0,0.0
5.584,5769.421,0.00017,0.0,0.0
5.591,5744.24,0.00017,0.0,0.0
5.597,5745.758,0.00017,0.0,0.0
5.603,5780.172,0.00017,0.0,0.0
5.61,5777.036,0.00017,0.0,0.0
5.616,5752.997,0.00017,0.0,0.0
5.622,5775.4,0.00017,0.0,0.0
5.628,5730.932,0.00017,0.0,0.0
5.635,5746.332,0.00017,0.0,0.0
5.641,5763.162,0.00017,0.0,0.0
5.647,5759.648,0.00017,0.0,0.0
5.654,5734.801,0.00017,0.0,0.0
5.66,5784.526,0.00017,0.0,0.0
5.666,5739.386,0.00017,0.0,0.0
5.673,5761.206,0.00017,0.0,0.0
5.679,5753.921,0.00017,0.0,0.0
5.685,5772.669,0.00017,0.0,0.0
5.692,5759.849,0.00017,0.0,0.0
5.698,5776.624,0.00017,0.0,0.0
5.704,5757.37,0.00017,0.0,0.0
5.711,5757.79,0.00017,0.0,0.0
5.717,5757.152,0.00017,0.0,0.0
5.723,5777.755,0.00017,0.0,0.0
5.73,5789.13,0.00017,0.0,0.0
5.736,5765.276,0.00017,0.0,0.0
5.742,5783.141,0.00017,0.0,0.0
5.749,5767.728,0.00017,0.0,0.0
5.755,5772.843,0.00017,0.0,0.0
5.761,5770.547,0.00017,0.0,0.0
5.768,5804.159,0.00017,0.0,0.0
5.774,5810.54,0.00017,0.0,0.0
5.78,5825.129,0.00017,0.0,0.0
5.786,5802.549,0.00017,0.0,0.0
5.793,5826.852,0.00017,0.0,0.0
5.799,5830.095,0.00017,0.0,0.0
5.805,5842.553,0.00017,0.0,0.0
5.812,5909.229,0.00017,0.0,0.0
5.818,5877.01,0.00017,0.0,0.0
5.824,5952.182,0.00017,0.0,0.0
5.831,6022.566,0.00017,0.0,0.0
5.837,6105.269,0.00016,0.0,0.0
5.843,6246.189,0.00016,0.0,0.0
5.85,6452.976,0.00015,0.0,0.0
5.856,6759.76,0.00015,0.0,0.0
5.862,7242.231,0.00014,0.0,0.0
5.869,7765.666,0.00013,0.0,0.0
5.875,8269.368,0.00012,0.0,0.0
5.881,8457.093,0.00012,0.0,0.0
5.888,8334.855,0.00012,0.0,0.0
5.894,7962.967,0.00013,0.0,0.0
5.9,7438.453,0.00013,0.0,0.0
5.907,6962.76,0.00014,0.0,0.0
5.913,6576.532,0.00015,0.0,0.0
5.919,6351.483,0.00016,0.0,0.0
5.926,6232.463,0.00016,0.0,0.0
5.932,6116.017,0.00016,0.0,0.0
5.938,6061.972,0.00016,0.0,0.0
5.944,6060.657,0.00016,0.0,0.0
5.951,6000.616,0.00017,0.0,0.0
5.957,6030.779,0.00017,0.0,0.0
5.963,6007.416,0.00017,0.0,0.0
5.97,6017.758,0.00017,0.0,0.0
5.976,5971.095,0.00017,0.0,0.0
5.982,6010.225,0.00017,0.0,0.0
5.989,5979.65,0.00017,0.0,0.0
5.995,5989.611,0.00017,0.0,0.0
6.001,6037.766,0.00017,0.0,0.0
6.008,6002.121,0.00017,0.0,0.0
6.014,6023.742,0.00017,0.0,0.0
6.02,5986.39,0.00017,0.0,0.0
6.027,6025.043,0.00017,0.0,0.0
6.033,6013.847,0.00017,0.0,0.0
6.039,5981.049,0.00017,0.0,0.0
6.046,6040.539,0.00017,0.0,0.0
6.052,5979.585,0.00017,0.0,0.0
6.058,6024.716,0.00017,0.0,0.0
6.065,6069.063,0.00016,0.0,0.0
6.071,5962.143,0.00017,0.0,0.0
6.077,6025.257,0.00017,0.0,0.0
6.084,5999.977,0.00017,0.0,0.0
6.09,6011.279,0.00017,0.0,0.0
6.096,6028.597,0.00017,0.0,0.0
6.102,6037.335,0.00017,0.0,0.0
6.109,5998.117,0.00017,0.0,0.0
6.115,6020.928,0.00017,0.0,0.0
6.121,5985.739,0.00017,0.0,0.0
6.128,6049.259,0.00017,0.0,0.0
6.134,6048.108,0.00017,0.0,0.0
6.14,6005.468,0.00017,0.0,0.0
6.147,6053.831,0.00017,0.0,0.0
6.153,6027.748,0.00017,0.0,0.0
6.159,6093.627,0.00016,0.0,0.0
6.166,5999.956,0.00017,0.0,0.0
6.172,6132.784,0.00016,0.0,0.0
6.178,6066.402,0.00016,0.0,0.0
6.185,6060.668,0.00016,0.0,0.0
6.191,6050.592,0.00017,0.0,0.0
6.197,6137.966,0.00016,0.0,0.0
6.204,6044.906,0.00017,0.0,0.0
6.21,6087.829,0.00016,0.0,0.0
6.216,6182.517,0.00016,0.0,0.0
6.223,6072.927,0.00016,0.0,0.0
6.229,6139.249,0.00016,0.0,0.0
6.235,6164.014,0.00016,0.0,0.0
6.242,6131.633,0.00016,0.0,0.0
6.248,6117.411,0.00016,0.0,0.0
6.254,6195.071,0.00016,0.0,0.0
6.26,6167.253,0.00016,0.0,0.0
6.267,6140.463,0.00016,0.0,0.0
6.273,6174.35,0.00016,0.0,0.0
6.279,6207.221,0.00016,0.0,0.0
6.286,6090.291,0.00016,0.0,0.0
6.292,6200.426,0.00016,0.0,0.0
6.298,6153.088,0.00016,0.0,0.0
6.305,6172.023,0.00016,0.0,0.0
6.311,6149.285,0.00016,0.0,0.0
6.317,6240.458,0.00016,0.0,0.0
6.324,6192.325,0.00016,0.0,0.0
6.33,6169.973,0.00016,0.0,0.0
6.336,6260.582,0.00016,0.0,0.0
6.343,6167.053,0.00016,0.0,0.0
6.349,6254.166,0.00016,0.0,0.0
6.355,6177.938,0.00016,0.0,0.0
6.362,6297.729,0.00016,0.0,0.0
6.368,6204.138,0.00016,0.0,0.0
6.374,6237.83,0.00016,0.0,0.0
6.381,6237.706,0.00016,0.0,0.0
6.387,6329.737,0.00016,0.0,0.0
6.393,6322.438,0.00016,0.0,0.0
6.4,6355.09,0.00016,0.0,0.0
6.406,6452.972,0.00015,0.0,0.0
6.412,6537.871,0.00015,0.0,0.0
6.418,7073.036,0.00014,0.0,0.0
6.425,6968.126,0.00014,0.0,0.0
6.431,8888.73,0.00011,0.0,0.0
6.437,7784.506,0.00013,0.0,0.0
6.444,12839.691,0.00008,0.0,0.0
6.45,9723.972,0.0001,0.0,0.0
6.456,20531.341,0.00005,0.0,0.0
6.463,9494.434,0.00011,0.0,0.0
6.469,20045.46,0.00005,0.0,0.0
6.475,9151.265,0.00011,0.0,0.0
6.482,14339.937,0.00007,0.0,0.0
6.488,7775.037,0.00013,0.0,0.0
6.494,8772.79,0.00011,0.0,0.0
6.501,7059.713,0.00014,0.0,0.0
6.507,7052.251,0.00014,0.0,0.0
6.513,6855.838,0.00015,0.0,0.0
6.52,6734.6,0.00015,0.0,0.0
6.526,6868.87,0.00015,0.0,0.0
6.532,6793.59,0.00015,0.0,0.0
6.539,6965.581,0.00014,0.0,0.0
6.545,7118.31,0.00014,0.0,0.0
6.551,7412.476,0.00013,0.0,0.0
6.558,7743.993,0.00013,0.0,0.0
6.564,8444.606,0.00012,0.0,0.0
6.57,9686.168,0.0001,0.0,0.0
6.576,11533.963,0.00009,0.0,0.0
6.583,15405.094,0.00006,0.0,0.0
6.589,23512.562,0.00004,0.0,0.0
6.595,34475.729,0.00003,0.0,0.0
6.602,58372.395,0.00002,0.0,0.0
6.608,75946.299,0.00001,0.0,0.0
6.614,92403.55,0.00001,0.0,0.0
6.621,98267.62,0.00001,0.0,0.0
6.627,86594.459,0.00001,0.0,0.0
6.633,64203.927,0.00002,0.0,0.0
6.64,46273.886,0.00002,0.0,0.0
6.646,28046.787,0.00004,0.0,0.0
6.652,18141.507,0.00006,0.0,0.0
6.659,13506.197,0.00007,0.0,0.0
6.665,10511.737,0.0001,0.0,0.0
6.671,9023.772,0.00011,0.0,0.0
6.678,8103.652,0.00012,0.0,0.0
6.684,7531.556,0.00013,0.0,0.0
6.69,7295.527,0.00014,0.0,0.0
6.697,7016.586,0.00014,0.0,0.0
6.703,6870.374,0.00015,0.0,0.0
6.709,6806.223,0.00015,0.0,0.0
6.716,6659.412,0.00015,0.0,0.0
6.722,6591.507,0.00015,0.0,0.0
6.728,6593.903,0.00015,0.0,0.0
6.734,6556.559,0.00015,0.0,0.0
6.741,6503.204,0.00015,0.0,0.0
6.747,6492.044,0.00015,0.0,0.0
6.753,6475.245,0.00015,0.0,0.0
6.76,6412.993,0.00016,0.0,0.0
6.766,6420.007,0.00016,0.0,0.0
6.772,6458.974,0.00015,0.0,0.0
6.779,6395.871,0.00016,0.0,0.0
6.785,6423.928,0.00016,0.0,0.0
6.791,6428.665,0.00016,0.0,0.0
6.798,6477.46,0.00015,0.0,0.0
6.804,6417.688,0.00016,0.0,0.0
6.81,6521.743,0.00015,0.0,0.0
6.817,6415.67,0.00016,0.0,0.0
6.823,6493.374,0.00015,0.0,0.0
6.829,6413.323,0.00016,0.0,0.0
6.836,6386.778,0.00016,0.0,0.0
6.842,6342.006,0.00016,0.0,0.0
6.848,6319.679,0.00016,0.0,0.0
6.855,6303.259,0.00016,0.0,0.0
6.861,6290.543,0.00016,0.0,0.0
6.867,6314.277,0.00016,0.0,0.0
6.874,6247.655,0.00016,0.0,0.0
6.88,6267.645,0.00016,0.0,0.0
6.886,6242.166,0.00016,0.0,0.0
6.892,6243.826,0.00016,0.0,0.0
6.899,6254.25,0.00016,0.0,0.0
6.905,6224.873,0.00016,0.0,0.0
6.911,6214.682,0.00016,0.0,0.0
6.918,6238.559,0.00016,0.0,0.0
6.924,6233.79,0.00016,0.0,0.0
6.93,6210.82,0.00016,0.0,0.0
6.937,6213.74,0.00016,0.0,0.0
6.943,6199.054,0.00016,0.0,0.0
6.949,6222.611,0.00016,0.0,0.0
6.956,6188.058,0.00016,0.0,0.0
6.962,6233.352,0.00016,0.0,0.0
6.968,6193.215,0.00016,0.0,0.0
6.975,6193.703,0.00016,0.0,0.0
6.981,6182.687,0.00016,0.0,0.0
6.987,6219.55,0.00016,0.0,0.0
6.994,6190.987,0.00016,0.0,0.0
7.0,6237.266,0.00016,0.0,0.0
7.006,6175.366,0.00016,0.0,0.0
7.013,6199.484,0.00016,0.0,0.0
7.019,6210.392,0.00016,0.0,0.0
7.025,6181.908,0.00016,0.0,0.0
7.032,6242.353,0.00016,0.0,0.0
7.038,6162.219,0.00016,0.0,0.0
7.044,6216.838,0.00016,0.0,0.0
7.05,6189.649,0.00016,0.0,0.0
7.057,6226.895,0.00016,0.0,0.0
7.063,6189.305,0.00016,0.0,0.0
7.069,6232.427,0.00016,0.0,0.0
7.076,6151.773,0.00016,0.0,0.0
7.082,6231.206,0.00016,0.0,0.0
7.088,6187.709,0.00016,0.0,0.0
7.095,6209.206,0.00016,0.0,0.0
7.101,6181.936,0.00016,0.0,0.0
7.107,6189.138,0.00016,0.0,0.0
7.114,6244.283,0.00016,0.0,0.0
7.12,6175.018,0.00016,0.0,0.0
7.126,6191.856,0.00016,0.0,0.0
7.133,6186.645,0.00016,0.0,0.0
7.139,6219.229,0.00016,0.0,0.0
7.145,6177.923,0.00016,0.0,0.0
7.152,6235.901,0.00016,0.0,0.0
7.158,6141.019,0.00016,0.0,0.0
7.164,6263.924,0.00016,0.0,0.0
7.171,6171.363,0.00016,0.0,0.0
7.177,6235.804,0.00016,0.0,0.0
7.183,6230.739,0.00016,0.0,0.0
7.19,6207.035,0.00016,0.0,0.0
7.196,6270.029,0.00016,0.0,0.0
7.202,6197.634,0.00016,0.0,0.0
7.208,6254.024,0.00016,0.0,0.0
7.215,6188.442,0.00016,0.0,0.0
7.221,6260.633,0.00016,0.0,0.0
7.227,6204.202,0.00016,0.0,0.0
7.234,6300.485,0.00016,0.0,0.0
7.24,6212.123,0.00016,0.0,0.0
7.246,6325.429,0.00016,0.0,0.0
7.253,6256.833,0.00016,0.0,0.0
7.259,6287.135,0.00016,0.0,0.0
7.265,6362.293,0.00016,0.0,0.0
7.272,6363.304,0.00016,0.0,0.0
7.278,6468.231,0.00015,0.0,0.0
7.284,6485.692,0.00015,0.0,0.0
7.291,6541.789,0.00015,0.0,0.0
7.297,6511.256,0.00015,0.0,0.0
7.303,6533.311,0.00015,0.0,0.0
7.31,6405.397,0.00016,0.0,0.0
7.316,6501.986,0.00015,0.0,0.0
7.322,6338.048,0.00016,0.0,0.0
7.329,6491.305,0.00015,0.0,0.0
7.335,6330.176,0.00016,0.0,0.0
7.341,6393.136,0.00016,0.0,0.0
7.348,6390.536,0.00016,0.0,0.0
7.354,6349.954,0.00016,0.0,0.0
7.36,6401.819,0.00016,0.0,0.0
7.366,6357.424,0.00016,0.0,0.0
7.373,6467.473,0.00015,0.0,0.0
7.379,6326.866,0.00016,0.0,0.0
7.385,6493.977,0.00015,0.0,0.0
7.392,6330.997,0.00016,0.0,0.0
7.398,6539.306,0.00015,0.0,0.0
7.404,6346.382,0.00016,0.0,0.0
7.411,6582.146,0.00015,0.0,0.0
7.417,6447.031,0.00016,0.0,0.0
7.423,6486.358,0.00015,0.0,0.0
7.43,6573.131,0.00015,0.0,0.0
7.436,6492.688,0.00015,0.0,0.0
7.442,6571.662,0.00015,0.0,0.0
7.449,6523.262,0.00015,0.0,0.0
7.455,6707.255,0.00015,0.0,0.0
7.461,6521.287,0.00015,0.0,0.0
7.468,6725.199,0.00015,0.0,0.0
7.474,6497.778,0.00015,0.0,0.0
7.48,6845.38,0.00015,0.0,0.0
7.487,6537.401,0.00015,0.0,0.0
7.493,6927.668,0.00014,0.0,0.0
7.499,6664.545,0.00015,0.0,0.0
7.506,6811.923,0.00015,0.0,0.0
7.512,6852.59,0.00015,0.0,0.0
7.518,6850.994,0.00015,0.0,0.0
7.524,6910.976,0.00014,0.0,0.0
7.531,6841.033,0.00015,0.0,0.0
7.537,7117.823,0.00014,0.0,0.0
7.543,6893.937,0.00015,0.0,0.0
7.55,7237.155,0.00014,0.0,0.0
7.556,6991.166,0.00014,0.0,0.0
7.562,7544.514,0.00013,0.0,0.0
7.569,7155.756,0.00014,0.0,0.0
7.575,7917.982,0.00013,0.0,0.0
7.581,7838.393,0.00013,0.0,0.0
7.588,8462.951,0.00012,0.0,0.0
7.594,9094.444,0.00011,0.0,0.0
7.6,10182.103,0.0001,0.0,0.0
7.607,12772.907,0.00008,0.0,0.0
7.613,16300.671,0.00006,0.0,0.0
7.619,24615.879,0.00004,0.0,0.0
7.626,32399.823,0.00003,0.0,0.0
7.632,47559.376,0.00002,0.0,0.0
7.638,50752.931,0.00002,0.0,0.0
7.645,62245.649,0.00002,0.0,0.0
7.651,50917.957,0.00002,0.0,0.0
7.657,42535.35,0.00002,0.0,0.0
7.664,33630.422,0.00003,0.0,0.0
7.67,23252.689,0.00004,0.0,0.0
7.676,16101.64,0.00006,0.0,0.0
7.682,13047.379,0.00008,0.0,0.0
7.689,10769.128,0.00009,0.0,0.0
7.695,9402.308,0.00011,0.0,0.0
7.701,9511.691,0.00011,0.0,0.0
7.708,8159.254,0.00012,0.0,0.0
7.714,9204.306,0.00011,0.0,0.0
7.72,7610.974,0.00013,0.0,0.0
7.727,9063.864,0.00011,0.0,0.0
7.733,7538.632,0.00013,0.0,0.0
7.739,9372.982,0.00011,0.0,0.0
7.746,8097.195,0.00012,0.0,0.0
7.752,8800.251,0.00011,0.0,0.0
7.758,8718.886,0.00011,0.0,0.0
7.765,8310.079,0.00012,0.0,0.0
7.771,9280.85,0.00011,0.0,0.0
7.777,8180.456,0.00012,0.0,0.0
7.784,10091.999,0.0001,0.0,0.0
7.79,7959.896,0.00013,0.0,0.0
7.796,11224.798,0.00009,0.0,0.0
7.803,7822.874,0.00013,0.0,0.0
7.809,12536.518,0.00008,0.0,0.0
7.815,7692.63,0.00013,0.0,0.0
7.822,15540.272,0.00006,0.0,0.0
7.828,9277.744,0.00011,0.0,0.0
7.834,17240.193,0.00006,0.0,0.0
7.84,13424.666,0.00007,0.0,0.0
7.847,14199.381,0.00007,0.0,0.0
7.853,16714.645,0.00006,0.0,0.0
7.859,12486.49,0.00008,0.0,0.0
7.866,19493.848,0.00005,0.0,0.0
7.872,10666.262,0.00009,0.0,0.0
7.878,21505.073,0.00005,0.0,0.0
7.885,8824.879,0.00011,0.0,0.0
7.891,22507.687,0.00004,0.0,0.0
7.897,8273.791,0.00012,0.0,0.0
7.904,22781.762,0.00004,0.0,0.0
7.91,11406.099,0.00009,0.0,0.0
7.916,19324.904,0.00005,0.0,0.0
7.923,15063.765,0.00007,0.0,0.0
7.929,14434.058,0.00007,0.0,0.0
7.935,17405.019,0.00006,0.0,0.0
7.942,11457.209,0.00009,0.0,0.0
7.948,19199.624,0.00005,0.0,0.0
7.954,8714.737,0.00011,0.0,0.0
7.961,18601.329,0.00005,0.0,0.0
7.967,7733.075,0.00013,0.0,0.0
7.973,16490.434,0.00006,0.0,0.0
7.98,7864.782,0.00013,0.0,0.0
7.986,13151.172,0.00008,0.0,0.0
7.992,8756.42,0.00011,0.0,0.0
7.998,10228.871,0.0001,0.0,0.0
8.005,9389.904,0.00011,0.0,0.0
8.011,8523.304,0.00012,0.0,0.0
8.017,9214.217,0.00011,0.0,0.0
8.024,7802.268,0.00013,0.0,0.0
8.03,9058.041,0.00011,0.0,0.0
8.036,7512.37,0.00013,0.0,0.0
8.043,8940.679,0.00011,0.0,0.0
8.049,7176.462,0.00014,0.0,0.0
8.055,8805.903,0.00011,0.0,0.0
8.062,7489.661,0.00013,0.0,0.0
8.068,8331.948,0.00012,0.0,0.0
8.074,7650.239,0.00013,0.0,0.0
8.081,7823.349,0.00013,0.0,0.0
8.087,7840.395,0.00013,0.0,0.0
8.093,7458.696,0.00013,0.0,0.0
8.1,7837.612,0.00013,0.0,0.0
8.106,7166.955,0.00014,0.0,0.0
8.112,7886.273,0.00013,0.0,0.0
8.119,7068.217,0.00014,0.0,0.0
8.125,8002.475,0.00012,0.0,0.0
8.131,7180.68,0.00014,0.0,0.0
8.138,8049.756,0.00012,0.0,0.0
8.144,7520.564,0.00013,0.0,0.0
8.15,7644.604,0.00013,0.0,0.0
8.156,7485.788,0.00013,0.0,0.0
8.163,7203.798,0.00014,0.0,0.0
8.169,7296.02,0.00014,0.0,0.0
8.175,6872.219,0.00015,0.0,0.0
8.182,7154.212,0.00014,0.0,0.0
8.188,6688.033,0.00015,0.0,0.0
8.194,7037.515,0.00014,0.0,0.0
8.201,6527.555,0.00015,0.0,0.0
8.207,6970.004,0.00014,0.0,0.0
8.213,6462.746,0.00015,0.0,0.0
8.22,6955.899,0.00014,0.0,0.0
8.226,6613.786,0.00015,0.0,0.0
8.232,6651.476,0.00015,0.0,0.0
8.239,6593.86,0.00015,0.0,0.0
8.245,6509.33,0.00015,0.0,0.0
8.251,6610.156,0.00015,0.0,0.0
8.258,6413.605,0.00016,0.0,0.0
8.264,6586.089,0.00015,0.0,0.0
8.27,6328.54,0.00016,0.0,0.0
8.277,6563.615,0.00015,0.0,0.0
8.283,6222.954,0.00016,0.0,0.0
8.289,6521.11,0.00015,0.0,0.0
8.296,6264.868,0.00016,0.0,0.0
8.302,6429.793,0.00016,0.0,0.0
8.308,6330.56,0.00016,0.0,0.0
8.314,6301.69,0.00016,0.0,0.0
8.321,6322.809,0.00016,0.0,0.0
8.327,6234.745,0.00016,0.0,0.0
8.333,6362.528,0.00016,0.0,0.0
8.34,6243.107,0.00016,0.0,0.0
8.346,6431.87,0.00016,0.0,0.0
8.352,6333.656,0.00016,0.0,0.0
8.359,6545.457,0.00015,0.0,0.0
8.365,6436.314,0.00016,0.0,0.0
8.371,6663.474,0.00015,0.0,0.0
8.378,6529.355,0.00015,0.0,0.0
8.384,6544.676,0.00015,0.0,0.0
8.39,6404.241,0.00016,0.0,0.0
8.397,6330.027,0.00016,0.0,0.0
8.403,6252.57,0.00016,0.0,0.0
8.409,6100.151,0.00016,0.0,0.0
8.416,6112.748,0.00016,0.0,0.0
8.422,5975.348,0.00017,0.0,0.0
8.428,6048.133,0.00017,0.0,0.0
8.435,5903.521,0.00017,0.0,0.0
8.441,5981.742,0.00017,0.0,0.0
8.447,5861.401,0.00017,0.0,0.0
8.454,5926.239,0.00017,0.0,0.0
8.46,5855.411,0.00017,0.0,0.0
8.466,5850.067,0.00017,0.0,0.0
8.472,5822.638,0.00017,0.0,0.0
8.479,5844.505,0.00017,0.0,0.0
8.485,5863.218,0.00017,0.0,0.0
8.491,5787.516,0.00017,0.0,0.0
8.498,5859.668,0.00017,0.0,0.0
8.504,5734.33,0.00017,0.0,0.0
8.51,5823.139,0.00017,0.0,0.0
8.517,5720.306,0.00017,0.0,0.0
8.523,5782.876,0.00017,0.0,0.0
8.529,5708.713,0.00018,0.0,0.0
8.536,5700.044,0.00018,0.0,0.0
8.542,5682.488,0.00018,0.0,0.0
8.548,5667.965,0.00018,0.0,0.0
8.555,5674.212,0.00018,0.0,0.0
8.561,5610.318,0.00018,0.0,0.0
8.567,5676.065,0.00018,0.0,0.0
8.574,5605.849,0.00018,0.0,0.0
8.58,5632.935,0.00018,0.0,0.0
8.586,5559.665,0.00018,0.0,0.0
8.593,5623.881,0.00018,0.0,0.0
8.599,5553.909,0.00018,0.0,0.0
8.605,5592.762,0.00018,0.0,0.0
8.612,5557.77,0.00018,0.0,0.0
8.618,5568.343,0.00018,0.0,0.0
8.624,5529.05,0.00018,0.0,0.0
8.63,5528.533,0.00018,0.0,0.0
8.637,5538.608,0.00018,0.0,0.0
8.643,5495.721,0.00018,0.0,0.0
8.649,5531.515,0.00018,0.0,0.0
8.656,5475.004,0.00018,0.0,0.0
8.662,5549.229,0.00018,0.0,0.0
8.668,5456.263,0.00018,0.0,0.0
8.675,5494.354,0.00018,0.0,0.0
8.681,5463.171,0.00018,0.0,0.0
8.687,5482.159,0.00018,0.0,0.0
8.694,5480.305,0.00018,0.0,0.0
8.7,5459.924,0.00018,0.0,0.0
8.706,5465.677,0.00018,0.0,0.0
8.713,5445.453,0.00018,0.0,0.0
8.719,5451.613,0.00018,0.0,0.0
8.725,5448.121,0.00018,0.0,0.0
8.732,5456.823,0.00018,0.0,0.0
8.738,5415.819,0.00018,0.0,0.0
8.744,5420.114,0.00018,0.0,0.0
8.751,5424.452,0.00018,0.0,0.0
8.757,5434.367,0.00018,0.0,0.0
8.763,5432.238,0.00018,0.0,0.0
8.77,5405.713,0.00018,0.0,0.0
8.776,5417.977,0.00018,0.0,0.0
8.782,5417.44,0.00018,0.0,0.0
8.788,5416.459,0.00018,0.0,0.0
8.795,5407.703,0.00018,0.0,0.0
8.801,5432.112,0.00018,0.0,0.0
8.807,5382.672,0.00019,0.0,0.0
8.814,5421.98,0.00018,0.0,0.0
8.82,5382.803,0.00019,0.0,0.0
8.826,5417.703,0.00018,0.0,0.0
8.833,5403.418,0.00019,0.0,0.0
8.839,5416.507,0.00018,0.0,0.0
8.845,5421.599,0.00018,0.0,0.0
8.852,5386.55,0.00019,0.0,0.0
8.858,5404.645,0.00019,0.0,0.0
8.864,5403.521,0.00019,0.0,0.0
8.871,5416.477,0.00018,0.0,0.0
8.877,5418.234,0.00018,0.0,0.0
8.883,5420.485,0.00018,0.0,0.0
8.89,5411.014,0.00018,0.0,0.0
8.896,5413.428,0.00018,0.0,0.0
8.902,5409.087,0.00018,0.0,0.0
8.909,5446.297,0.00018,0.0,0.0
8.915,5420.365,0.00018,0.0,0.0
8.921,5452.064,0.00018,0.0,0.0
8.928,5433.024,0.00018,0.0,0.0
8.934,5429.406,0.00018,0.0,0.0
8.94,5443.65,0.00018,0.0,0.0
8.946,5433.502,0.00018,0.0,0.0
8.953,5450.528,0.00018,0.0,0.0
8.959,5443.104,0.00018,0.0,0.0
8.965,5501.803,0.00018,0.0,0.0
8.972,5452.339,0.00018,0.0,0.0
8.978,5506.631,0.00018,0.0,0.0
8.984,5451.087,0.00018,0.0,0.0
8.991,5501.251,0.00018,0.0,0.0
8.997,5502.896,0.00018,0.0,0.0
9.003,5496.632,0.00018,0.0,0.0
9.01,5532.061,0.00018,0.0,0.0
9.016,5538.492,0.00018,0.0,0.0
9.022,5592.092,0.00018,0.0,0.0
9.029,5564.396,0.00018,0.0,0.0
9.035,5621.993,0.00018,0.0,0.0
9.041,5612.303,0.00018,0.0,0.0
9.048,5615.794,0.00018,0.0,0.0
9.054,5717.79,0.00017,0.0,0.0
9.06,5691.282,0.00018,0.0,0.0
9.067,5693.783,0.00018,0.0,0.0
9.073,5848.095,0.00017,0.0,0.0
9.079,5795.893,0.00017,0.0,0.0
9.086,6012.207,0.00017,0.0,0.0
9.092,6042.761,0.00017,0.0,0.0
9.098,6182.691,0.00016,0.0,0.0
9.104,6609.926,0.00015,0.0,0.0
9.111,6670.908,0.00015,0.0,0.0
9.117,8157.78,0.00012,0.0,0.0
9.123,7213.566,0.00014,0.0,0.0
9.13,8721.246,0.00011,0.0,0.0
9.136,11449.283,0.00009,0.0,0.0
9.142,7165.596,0.00014,0.0,0.0
9.149,7153.33,0.00014,0.0,0.0
9.155,8998.256,0.00011,0.0,0.0
9.161,6365.118,0.00016,0.0,0.0
9.168,6209.184,0.00016,0.0,0.0
9.174,6305.469,0.00016,0.0,0.0
9.18,5876.4,0.00017,0.0,0.0
9.187,5974.495,0.00017,0.0,0.0
9.193,5738.797,0.00017,0.0,0.0
9.199,5689.473,0.00018,0.0,0.0
9.206,5680.776,0.00018,0.0,0.0
9.212,5553.446,0.00018,0.0,0.0
9.218,5582.32,0.00018,0.0,0.0
9.225,5535.964,0.00018,0.0,0.0
9.231,5445.281,0.00018,0.0,0.0
9.237,5501.056,0.00018,0.0,0.0
9.244,5407.398,0.00018,0.0,0.0
9.25,5417.988,0.00018,0.0,0.0
9.256,5374.053,0.00019,0.0,0.0
9.262,5332.62,0.00019,0.0,0.0
9.269,5380.741,0.00019,0.0,0.0
9.275,5260.539,0.00019,0.0,0.0
9.281,5326.944,0.00019,0.0,0.0
9.288,5261.265,0.00019,0.0,0.0
9.294,5260.425,0.00019,0.0,0.0
9.3,5234.237,0.00019,0.0,0.0
9.307,5200.125,0.00019,0.0,0.0
9.313,5199.652,0.00019,0.0,0.0
9.319,5197.082,0.00019,0.0,0.0
9.326,5168.917,0.00019,0.0,0.0
9.332,5136.947,0.00019,0.0,0.0
9.338,5147.925,0.00019,0.0,0.0
9.345,5121.721,0.0002,0.0,0.0
9.351,5122.929,0.0002,0.0,0.0
9.357,5112.719,0.0002,0.0,0.0
9.364,5097.305,0.0002,0.0,0.0
9.37,5072.305,0.0002,0.0,0.0
9.376,5062.239,0.0002,0.0,0.0
9.383,5050.164,0.0002,0.0,0.0
9.389,5042.774,0.0002,0.0,0.0
9.395,5031.679,0.0002,0.0,0.0
9.402,5028.114,0.0002,0.0,0.0
9.408,5012.185,0.0002,0.0,0.0
9.414,4997.984,0.0002,0.0,0.0
9.42,4999.305,0.0002,0.0,0.0
9.427,4965.846,0.0002,0.0,0.0
9.433,4982.254,0.0002,0.0,0.0
9.439,4960.664,0.0002,0.0,0.0
9.446,4984.665,0.0002,0.0,0.0
9.452,4975.845,0.0002,0.0,0.0
9.458,4975.693,0.0002,0.0,0.0
9.465,5002.383,0.0002,0.0,0.0
9.471,4986.598,0.0002,0.0,0.0
9.477,5010.863,0.0002,0.0,0.0
9.484,5033.089,0.0002,0.0,0.0
9.49,5029.828,0.0002,0.0,0.0
9.496,5027.676,0.0002,0.0,0.0
9.503,4996.516,0.0002,0.0,0.0
9.509,4964.766,0.0002,0.0,0.0
9.515,4932.706,0.0002,0.0,0.0
9.522,4897.576,0.0002,0.0,0.0
9.528,4841.852,0.00021,0.0,0.0
9.534,4829.776,0.00021,0.0,0.0
9.541,4832.064,0.00021,0.0,0.0
9.547,4810.105,0.00021,0.0,0.0
9.553,4783.923,0.00021,0.0,0.0
9.56,4790.444,0.00021,0.0,0.0
9.566,4775.833,0.00021,0.0,0.0
9.572,4765.219,0.00021,0.0,0.0
9.578,4754.391,0.00021,0.0,0.0
9.585,4723.885,0.00021,0.0,0.0
9.591,4741.927,0.00021,0.0,0.0
9.597,4713.472,0.00021,0.0,0.0
9.604,4724.034,0.00021,0.0,0.0
9.61,4707.075,0.00021,0.0,0.0
9.616,4719.071,0.00021,0.0,0.0
9.623,4699.142,0.00021,0.0,0.0
9.629,4692.201,0.00021,0.0,0.0
9.635,4696.878,0.00021,0.0,0.0
9.642,4682.527,0.00021,0.0,0.0
9.648,4690.659,0.00021,0.0,0.0
9.654,4665.819,0.00021,0.0,0.0
9.661,4667.865,0.00021,0.0,0.0
9.667,4667.06,0.00021,0.0,0.0
9.673,4672.271,0.00021,0.0,0.0
9.68,4653.081,0.00021,0.0,0.0
9.686,4657.779,0.00021,0.0,0.0
9.692,4647.093,0.00022,0.0,0.0
9.699,4659.568,0.00021,0.0,0.0
9.705,4633.589,0.00022,0.0,0.0
9.711,4657.967,0.00021,0.0,0.0
9.718,4635.999,0.00022,0.0,0.0
9.724,4632.202,0.00022,0.0,0.0
9.73,4629.344,0.00022,0.0,0.0
9.736,4640.558,0.00022,0.0,0.0
9.743,4628.58,0.00022,0.0,0.0
9.749,4615.591,0.00022,0.0,0.0
9.755,4600.642,0.00022,0.0,0.0
9.762,4613.277,0.00022,0.0,0.0
9.768,4592.481,0.00022,0.0,0.0
9.774,4601.121,0.00022,0.0,0.0
9.781,4598.035,0.00022,0.0,0.0
9.787,4591.251,0.00022,0.0,0.0
9.793,4600.021,0.00022,0.0,0.0
9.8,4587.197,0.00022,0.0,0.0
9.806,4599.66,0.00022,0.0,0.0
9.812,4568.438,0.00022,0.0,0.0
9.819,4577.217,0.00022,0.0,0.0
9.825,4575.953,0.00022,0.0,0.0
9.831,4585.077,0.00022,0.0,0.0
9.838,4576.743,0.00022,0.0,0.0
9.844,4560.386,0.00022,0.0,0.0
9.85,4556.976,0.00022,0.0,0.0
9.857,4559.118,0.00022,0.0,0.0
9.863,4563.317,0.00022,0.0,0.0
9.869,4555.667,0.00022,0.0,0.0
9.876,4561.569,0.00022,0.0,0.0
9.882,4535.608,0.00022,0.0,0.0
9.888,4556.303,0.00022,0.0,0.0
9.894,4529.441,0.00022,0.0,0.0
9.901,4523.995,0.00022,0.0,0.0
9.907,4527.715,0.00022,0.0,0.0
9.913,4510.913,0.00022,0.0,0.0
9.92,4521.942,0.00022,0.0,0.0
9.926,4511.382,0.00022,0.0,0.0
9.932,4512.452,0.00022,0.0,0.0
9.939,4514.753,0.00022,0.0,0.0
9.945,4510.339,0.00022,0.0,0.0
9.951,4502.267,0.00022,0.0,0.0
9.958,4509.058,0.00022,0.0,0.0
9.964,4503.429,0.00022,0.0,0.0
9.97,4502.038,0.00022,0.0,0.0
9.977,4500.464,0.00022,0.0,0.0
9.983,4489.167,0.00022,0.0,0.0
9.989,4510.501,0.00022,0.0,0.0
9.996,4485.532,0.00022,0.0,0.0
10.002,4497.991,0.00022,0.0,0.0
10.008,4503.141,0.00022,0.0,0.0
10.015,4482.181,0.00022,0.0,0.0
10.021,4490.271,0.00022,0.0,0.0
10.027,4488.276,0.00022,0.0,0.0
10.034,4490.305,0.00022,0.0,0.0
10.04,4503.76,0.00022,0.0,0.0
10.046,4496.055,0.00022,0.0,0.0
10.052,4522.725,0.00022,0.0,0.0
10.059,4492.687,0.00022,0.0,0.0
10.065,4502.997,0.00022,0.0,0.0
10.071,4491.049,0.00022,0.0,0.0
10.078,4462.311,0.00022,0.0,0.0
10.084,4507.88,0.00022,0.0,0.0
10.09,4480.164,0.00022,0.0,0.0
10.097,4475.443,0.00022,0.0,0.0
10.103,4493.665,0.00022,0.0,0.0
10.109,4480.38,0.00022,0.0,0.0
10.116,4483.042,0.00022,0.0,0.0
10.122,4488.359,0.00022,0.0,0.0
10.128,4480.083,0.00022,0.0,0.0
10.135,4490.955,0.00022,0.0,0.0
10.141,4490.69,0.00022,0.0,0.0
10.147,4502.934,0.00022,0.0,0.0
10.154,4487.19,0.00022,0.0,0.0
10.16,4485.459,0.00022,0.0,0.0
10.166,4525.87,0.00022,0.0,0.0
10.173,4539.949,0.00022,0.0,0.0
10.179,4599.053,0.00022,0.0,0.0
10.185,4723.727,0.00021,0.0,0.0
10.192,4846.583,0.00021,0.0,0.0
10.198,5084.042,0.0002,0.0,0.0
10.204,5552.052,0.00018,0.0,0.0
10.21,5823.202,0.00017,0.0,0.0
10.217,6254.521,0.00016,0.0,0.0
10.223,6031.423,0.00017,0.0,0.0
10.229,5402.333,0.00019,0.0,0.0
10.236,5001.566,0.0002,0.0,0.0
10.242,4802.434,0.00021,0.0,0.0
10.248,4682.156,0.00021,0.0,0.0
10.255,4601.777,0.00022,0.0,0.0
10.261,4551.759,0.00022,0.0,0.0
10.267,4534.977,0.00022,0.0,0.0
10.274,4509.658,0.00022,0.0,0.0
10.28,4501.095,0.00022,0.0,0.0
10.286,4478.956,0.00022,0.0,0.0
10.293,4475.662,0.00022,0.0,0.0
10.299,4484.627,0.00022,0.0,0.0
10.305,4466.372,0.00022,0.0,0.0
10.312,4472.179,0.00022,0.0,0.0
10.318,4471.896,0.00022,0.0,0.0
10.324,4446.857,0.00022,0.0,0.0
10.331,4459.198,0.00022,0.0,0.0
10.337,4447.431,0.00022,0.0,0.0
10.343,4436.881,0.00023,0.0,0.0
10.35,4435.931,0.00023,0.0,0.0
10.356,4432.424,0.00023,0.0,0.0
10.362,4443.604,0.00023,0.0,0.0
10.368,4430.68,0.00023,0.0,0.0
10.375,4420.836,0.00023,0.0,0.0
10.381,4446.799,0.00022,0.0,0.0
10.387,4430.871,0.00023,0.0,0.0
10.394,4450.182,0.00022,0.0,0.0
10.4,4428.897,0.00023,0.0,0.0
10.406,4425.926,0.00023,0.0,0.0
10.413,4432.18,0.00023,0.0,0.0
10.419,4415.656,0.00023,0.0,0.0
10.425,4407.646,0.00023,0.0,0.0
10.432,4431.902,0.00023,0.0,0.0
10.438,4412.59,0.00023,0.0,0.0
10.444,4424.138,0.00023,0.0,0.0
10.451,4434.222,0.00023,0.0,0.0
10.457,4425.524,0.00023,0.0,0.0
10.463,4436.27,0.00023,0.0,0.0
10.47,4424.302,0.00023,0.0,0.0
10.476,4432.934,0.00023,0.0,0.0
10.482,4419.567,0.00023,0.0,0.0
10.489,4436.286,0.00023,0.0,0.0
10.495,4445.286,0.00022,0.0,0.0
10.501,4445.874,0.00022,0.0,0.0
10.508,4447.769,0.00022,0.0,0.0
10.514,4448.377,0.00022,0.0,0.0
10.52,4433.399,0.00023,0.0,0.0
10.526,4458.523,0.00022,0.0,0.0
10.533,4441.468,0.00023,0.0,0.0
10.539,4455.372,0.00022,0.0,0.0
10.545,4467.207,0.00022,0.0,0.0
10.552,4459.146,0.00022,0.0,0.0
10.558,4464.469,0.00022,0.0,0.0
10.564,4453.985,0.00022,0.0,0.0
10.571,4475.858,0.00022,0.0,0.0
10.577,4471.6,0.00022,0.0,0.0
10.583,4477.76,0.00022,0.0,0.0
10.59,4486.148,0.00022,0.0,0.0
10.596,4480.97,0.00022,0.0,0.0
10.602,4486.182,0.00022,0.0,0.0
10.609,4509.584,0.00022,0.0,0.0
10.615,4503.297,0.00022,0.0,0.0
10.621,4496.718,0.00022,0.0,0.0
10.628,4510.848,0.00022,0.0,0.0
10.634,4504.821,0.00022,0.0,0.0
10.64,4527.477,0.00022,0.0,0.0
10.647,4519.013,0.00022,0.0,0.0
10.653,4528.258,0.00022,0.0,0.0
10.659,4526.377,0.00022,0.0,0.0
10.666,4532.836,0.00022,0.0,0.0
10.672,4540.722,0.00022,0.0,0.0
10.678,4559.962,0.00022,0.0,0.0
10.684,4575.066,0.00022,0.0,0.0
10.691,4574.219,0.00022,0.0,0.0
10.697,4575.417,0.00022,0.0,0.0
10.703,4602.762,0.00022,0.0,0.0
10.71,4609.177,0.00022,0.0,0.0
10.716,4622.945,0.00022,0.0,0.0
10.722,4665.814,0.00021,0.0,0.0
10.729,4676.677,0.00021,0.0,0.0
10.735,4736.433,0.00021,0.0,0.0
10.741,4767.195,0.00021,0.0,0.0
10.748,4833.433,0.00021,0.0,0.0
10.754,4935.409,0.0002,0.0,0.0
10.76,5078.906,0.0002,0.0,0.0
10.767,5336.234,0.00019,0.0,0.0
10.773,5714.004,0.00018,0.0,0.0
10.779,6454.155,0.00015,0.0,0.0
10.786,7593.404,0.00013,0.0,0.0
10.792,10390.152,0.0001,0.0,0.0
10.798,13066.03,0.00008,0.0,0.0
10.805,20988.444,0.00005,0.0,0.0
10.811,25343.809,0.00004,0.0,0.0
10.817,32205.327,0.00003,0.0,0.0
10.824,31600.506,0.00003,0.0,0.0
10.83,29385.69,0.00003,0.0,0.0
10.836,23565.317,0.00004,0.0,0.0
10.842,18111.679,0.00006,0.0,0.0
10.849,12420.349,0.00008,0.0,0.0
10.855,9110.953,0.00011,0.0,0.0
10.861,7201.383,0.00014,0.0,0.0
10.868,6182.885,0.00016,0.0,0.0
10.874,5601.927,0.00018,0.0,0.0
10.88,5275.108,0.00019,0.0,0.0
10.887,5080.709,0.0002,0.0,0.0
10.893,4963.544,0.0002,0.0,0.0
10.899,4885.038,0.0002,0.0,0.0
10.906,4850.433,0.00021,0.0,0.0
10.912,4803.824,0.00021,0.0,0.0
10.918,4803.38,0.00021,0.0,0.0
10.925,4776.451,0.00021,0.0,0.0
10.931,4786.421,0.00021,0.0,0.0
10.937,4774.617,0.00021,0.0,0.0
10.944,4791.701,0.00021,0.0,0.0
10.95,4763.339,0.00021,0.0,0.0
10.956,4760.949,0.00021,0.0,0.0
10.963,4750.437,0.00021,0.0,0.0
10.969,4734.006,0.00021,0.0,0.0
10.975,4715.858,0.00021,0.0,0.0
10.982,4699.263,0.00021,0.0,0.0
10.988,4706.516,0.00021,0.0,0.0
10.994,4680.201,0.00021,0.0,0.0
11.0,4695.637,0.00021,0.0,0.0
11.007,4658.091,0.00021,0.0,0.0
11.013,4665.438,0.00021,0.0,0.0
11.019,4689.788,0.00021,0.0,0.0
11.026,4676.722,0.00021,0.0,0.0
11.032,4708.864,0.00021,0.0,0.0
11.038,4692.153,0.00021,0.0,0.0
11.045,4700.178,0.00021,0.0,0.0
11.051,4673.618,0.00021,0.0,0.0
11.057,4682.272,0.00021,0.0,0.0
11.064,4702.14,0.00021,0.0,0.0
11.07,4712.669,0.00021,0.0,0.0
11.076,4697.063,0.00021,0.0,0.0
11.083,4718.312,0.00021,0.0,0.0
11.089,4690.38,0.00021,0.0,0.0
11.095,4732.434,0.00021,0.0,0.0
11.102,4732.963,0.00021,0.0,0.0
11.108,4700.2,0.00021,0.0,0.0
11.114,4747.656,0.00021,0.0,0.0
11.121,4730.741,0.00021,0.0,0.0
11.127,4769.584,0.00021,0.0,0.0
11.133,4746.305,0.00021,0.0,0.0
11.14,4789.266,0.00021,0.0,0.0
11.146,4757.706,0.00021,0.0,0.0
11.152,4794.111,0.00021,0.0,0.0
11.158,4772.543,0.00021,0.0,0.0
11.165,4805.244,0.00021,0.0,0.0
11.171,4826.029,0.00021,0.0,0.0
11.177,4795.837,0.00021,0.0,0.0
11.184,4825.285,0.00021,0.0,0.0
11.19,4796.214,0.00021,0.0,0.0
11.196,4809.67,0.00021,0.0,0.0
11.203,4798.066,0.00021,0.0,0.0
11.209,4801.555,0.00021,0.0,0.0
11.215,4801.794,0.00021,0.0,0.0
11.222,4801.796,0.00021,0.0,0.0
11.228,4783.267,0.00021,0.0,0.0
11.234,4773.675,0.00021,0.0,0.0
11.241,4767.822,0.00021,0.0,0.0
11.247,4737.867,0.00021,0.0,0.0
11.253,4762.34,0.00021,0.0,0.0
11.26,4750.754,0.00021,0.0,0.0
11.266,4762.877,0.00021,0.0,0.0
11.272,4738.633,0.00021,0.0,0.0
11.279,4730.514,0.00021,0.0,0.0
11.285,4733.581,0.00021,0.0,0.0
11.291,4713.864,0.00021,0.0,0.0
11.298,4722.763,0.00021,0.0,0.0
11.304,4682.275,0.00021,0.0,0.0
11.31,4727.955,0.00021,0.0,0.0
11.316,4697.175,0.00021,0.0,0.0
11.323,4704.504,0.00021,0.0,0.0
11.329,4692.3,0.00021,0.0,0.0
11.335,4697.245,0.00021,0.0,0.0
11.342,4677.987,0.00021,0.0,0.0
11.348,4665.062,0.00021,0.0,0.0
11.354,4668.725,0.00021,0.0,0.0
11.361,4660.056,0.00021,0.0,0.0
11.367,4675.631,0.00021,0.0,0.0
11.373,4650.184,0.00022,0.0,0.0
11.38,4655.104,0.00021,0.0,0.0
11.386,4632.126,0.00022,0.0,0.0
11.392,4653.238,0.00021,0.0,0.0
11.399,4636.239,0.00022,0.0,0.0
11.405,4625.046,0.00022,0.0,0.0
11.411,4643.46,0.00022,0.0,0.0
11.418,4623.387,0.00022,0.0,0.0
11.424,4624.03,0.00022,0.0,0.0
11.43,4627.257,0.00022,0.0,0.0
11.437,4606.335,0.00022,0.0,0.0
11.443,4629.549,0.00022,0.0,0.0
11.449,4618.38,0.00022,0.0,0.0
11.456,4612.7,0.00022,0.0,0.0
11.462,4613.688,0.00022,0.0,0.0
11.468,4619.867,0.00022,0.0,0.0
11.474,4611.656,0.00022,0.0,0.0
11.481,4625.422,0.00022,0.0,0.0
11.487,4609.259,0.00022,0.0,0.0
11.493,4637.212,0.00022,0.0,0.0
11.5,4618.231,0.00022,0.0,0.0
11.506,4652.738,0.00021,0.0,0.0
11.512,4672.936,0.00021,0.0,0.0
11.519,4688.905,0.00021,0.0,0.0
11.525,4706.075,0.00021,0.0,0.0
11.531,4684.602,0.00021,0.0,0.0
11.538,4692.621,0.00021,0.0,0.0
11.544,4665.946,0.00021,0.0,0.0
11.55,4633.715,0.00022,0.0,0.0
11.557,4622.596,0.00022,0.0,0.0
11.563,4601.818,0.00022,0.0,0.0
11.569,4594.103,0.00022,0.0,0.0
11.576,4585.071,0.00022,0.0,0.0
11.582,4577.748,0.00022,0.0,0.0
11.588,4576.173,0.00022,0.0,0.0
11.595,4557.291,0.00022,0.0,0.0
11.601,4569.121,0.00022,0.0,0.0
11.607,4564.293,0.00022,0.0,0.0
11.614,4540.266,0.00022,0.0,0.0
11.62,4551.692,0.00022,0.0,0.0
11.626,4548.276,0.00022,0.0,0.0
11.632,4543.225,0.00022,0.0,0.0
11.639,4540.849,0.00022,0.0,0.0
11.645,4531.589,0.00022,0.0,0.0
11.651,4529.529,0.00022,0.0,0.0
11.658,4527.479,0.00022,0.0,0.0
11.664,4514.514,0.00022,0.0,0.0
11.67,4525.79,0.00022,0.0,0.0
11.677,4524.061,0.00022,0.0,0.0
11.683,4517.238,0.00022,0.0,0.0
11.689,4526.896,0.00022,0.0,0.0
11.696,4512.95,0.00022,0.0,0.0
11.702,4517.592,0.00022,0.0,0.0
11.708,4528.047,0.00022,0.0,0.0
11.715,4498.796,0.00022,0.0,0.0
11.721,4520.989,0.00022,0.0,0.0
11.727,4512.095,0.00022,0.0,0.0
11.734,4517.502,0.00022,0.0,0.0
11.74,4518.856,0.00022,0.0,0.0
11.746,4498.251,0.00022,0.0,0.0
11.753,4510.878,0.00022,0.0,0.0
11.759,4508.137,0.00022,0.0,0.0
11.765,4515.912,0.00022,0.0,0.0
11.772,4502.657,0.00022,0.0,0.0
11.778,4520.254,0.00022,0.0,0.0
11.784,4502.652,0.00022,0.0,0.0
11.79,4506.447,0.00022,0.0,0.0
11.797,4508.055,0.00022,0.0,0.0
11.803,4499.9,0.00022,0.0,0.0
11.809,4493.387,0.00022,0.0,0.0
11.816,4498.89,0.00022,0.0,0.0
11.822,4489.6,0.00022,0.0,0.0
11.828,4475.494,0.00022,0.0,0.0
11.835,4502.617,0.00022,0.0,0.0
11.841,4485.718,0.00022,0.0,0.0
11.847,4476.946,0.00022,0.0,0.0
11.854,4482.032,0.00022,0.0,0.0
11.86,4485.557,0.00022,0.0,0.0
11.866,4481.366,0.00022,0.0,0.0
11.873,4460.83,0.00022,0.0,0.0
11.879,4456.407,0.00022,0.0,0.0
11.885,4462.997,0.00022,0.0,0.0
11.892,4478.501,0.00022,0.0,0.0
11.898,4471.194,0.00022,0.0,0.0
11.904,4483.744,0.00022,0.0,0.0
11.911,4483.797,0.00022,0.0,0.0
11.917,4483.785,0.00022,0.0,0.0
11.923,4461.127,0.00022,0.0,0.0
11.93,4469.641,0.00022,0.0,0.0
11.936,4465.659,0.00022,0.0,0.0
11.942,4471.82,0.00022,0.0,0.0
11.948,4499.087,0.00022,0.0,0.0
11.955,4470.247,0.00022,0.0,0.0
11.961,4501.471,0.00022,0.0,0.0
11.967,4502.039,0.00022,0.0,0.0
11.974,4477.187,0.00022,0.0,0.0
11.98,4493.519,0.00022,0.0,0.0
11.986,4477.367,0.00022,0.0,0.0
11.993,4506.363,0.00022,0.0,0.0
11.999,4519.165,0.00022,0.0,0.0
12.005,4503.582,0.00022,0.0,0.0
12.012,4525.709,0.00022,0.0,0.0
12.018,4521.203,0.00022,0.0,0.0
12.024,4525.364,0.00022,0.0,0.0
12.031,4502.377,0.00022,0.0,0.0
12.037,4517.575,0.00022,0.0,0.0
12.043,4555.131,0.00022,0.0,0.0
12.05,4563.686,0.00022,0.0,0.0
12.056,4578.631,0.00022,0.0,0.0
12.062,4595.279,0.00022,0.0,0.0
12.069,4623.357,0.00022,0.0,0.0
12.075,4582.095,0.00022,0.0,0.0
12.081,4656.323,0.00021,0.0,0.0
12.088,4620.123,0.00022,0.0,0.0
12.094,4610.144,0.00022,0.0,0.0
12.1,4783.608,0.00021,0.0,0.0
12.106,4589.857,0.00022,0.0,0.0
12.113,4680.716,0.00021,0.0,0.0
12.119,4577.586,0.00022,0.0,0.0
12.125,4522.61,0.00022,0.0,0.0
12.132,4528.394,0.00022,0.0,0.0
12.138,4459.737,0.00022,0.0,0.0
12.144,4498.641,0.00022,0.0,0.0
12.151,4471.146,0.00022,0.0,0.0
12.157,4441.766,0.00023,0.0,0.0
12.163,4440.286,0.00023,0.0,0.0
12.17,4423.611,0.00023,0.0,0.0
12.176,4428.413,0.00023,0.0,0.0
12.182,4366.804,0.00023,0.0,0.0
12.189,4406.936,0.00023,0.0,0.0
12.195,4349.701,0.00023,0.0,0.0
12.201,4392.108,0.00023,0.0,0.0
12.208,4357.213,0.00023,0.0,0.0
12.214,4332.939,0.00023,0.0,0.0
12.22,4344.794,0.00023,0.0,0.0
12.227,4305.694,0.00023,0.0,0.0
12.233,4313.683,0.00023,0.0,0.0
12.239,4280.196,0.00023,0.0,0.0
12.246,4308.249,0.00023,0.0,0.0
12.252,4259.796,0.00023,0.0,0.0
12.258,4295.673,0.00023,0.0,0.0
12.264,4279.002,0.00023,0.0,0.0
12.271,4258.161,0.00023,0.0,0.0
12.277,4269.789,0.00023,0.0,0.0
12.283,4236.483,0.00024,0.0,0.0
12.29,4261.014,0.00023,0.0,0.0
12.296,4227.103,0.00024,0.0,0.0
12.302,4246.035,0.00024,0.0,0.0
12.309,4215.725,0.00024,0.0,0.0
12.315,4222.522,0.00024,0.0,0.0
12.321,4216.257,0.00024,0.0,0.0
12.328,4203.804,0.00024,0.0,0.0
12.334,4202.291,0.00024,0.0,0.0
12.34,4202.167,0.00024,0.0,0.0
12.347,4200.018,0.00024,0.0,0.0
12.353,4190.618,0.00024,0.0,0.0
12.359,4214.379,0.00024,0.0,0.0
12.366,4173.497,0.00024,0.0,0.0
12.372,4226.718,0.00024,0.0,0.0
12.378,4194.24,0.00024,0.0,0.0
12.385,4194.764,0.00024,0.0,0.0
12.391,4182.389,0.00024,0.0,0.0
12.397,4178.268,0.00024,0.0,0.0
12.404,4185.054,0.00024,0.0,0.0
12.41,4159.327,0.00024,0.0,0.0
12.416,4161.412,0.00024,0.0,0.0
12.422,4145.78,0.00024,0.0,0.0
12.429,4162.026,0.00024,0.0,0.0
12.435,4152.844,0.00024,0.0,0.0
12.441,4143.287,0.00024,0.0,0.0
12.448,4150.427,0.00024,0.0,0.0
12.454,4139.993,0.00024,0.0,0.0
12.46,4142.637,0.00024,0.0,0.0
12.467,4139.915,0.00024,0.0,0.0
12.473,4137.389,0.00024,0.0,0.0
12.479,4132.918,0.00024,0.0,0.0
12.486,4145.207,0.00024,0.0,0.0
12.492,4150.124,0.00024,0.0,0.0
12.498,4167.237,0.00024,0.0,0.0
12.505,4172.865,0.00024,0.0,0.0
12.511,4174.448,0.00024,0.0,0.0
12.517,4190.67,0.00024,0.0,0.0
12.524,4185.163,0.00024,0.0,0.0
12.53,4185.136,0.00024,0.0,0.0
12.536,4165.835,0.00024,0.0,0.0
12.543,4177.986,0.00024,0.0,0.0
12.549,4167.871,0.00024,0.0,0.0
12.555,4168.409,0.00024,0.0,0.0
12.562,4148.261,0.00024,0.0,0.0
12.568,4158.712,0.00024,0.0,0.0
12.574,4161.093,0.00024,0.0,0.0
12.58,4166.546,0.00024,0.0,0.0
12.587,4186.883,0.00024,0.0,0.0
12.593,4205.829,0.00024,0.0,0.0
12.599,4231.507,0.00024,0.0,0.0
12.606,4247.851,0.00024,0.0,0.0
12.612,4309.025,0.00023,0.0,0.0
12.618,4368.044,0.00023,0.0,0.0
12.625,4468.611,0.00022,0.0,0.0
12.631,4592.51,0.00022,0.0,0.0
12.637,4821.336,0.00021,0.0,0.0
12.644,5230.413,0.00019,0.0,0.0
12.65,5810.686,0.00017,0.0,0.0
12.656,7052.639,0.00014,0.0,0.0
12.663,9027.134,0.00011,0.0,0.0
12.669,12824.508,0.00008,0.0,0.0
12.675,18542.046,0.00005,0.0,0.0
12.682,23030.279,0.00004,0.0,0.0
12.688,33316.418,0.00003,0.0,0.0
12.694,34014.824,0.00003,0.0,0.0
12.701,33635.018,0.00003,0.0,0.0
12.707,30861.487,0.00003,0.0,0.0
12.713,22540.542,0.00004,0.0,0.0
12.72,16974.672,0.00006,0.0,0.0
12.726,11597.299,0.00009,0.0,0.0
12.732,8339.67,0.00012,0.0,0.0
12.738,6677.528,0.00015,0.0,0.0
12.745,5631.973,0.00018,0.0,0.0
12.751,4997.559,0.0002,0.0,0.0
12.757,4690.948,0.00021,0.0,0.0
12.764,4472.153,0.00022,0.0,0.0
12.77,4357.998,0.00023,0.0,0.0
12.776,4255.359,0.00023,0.0,0.0
12.783,4186.389,0.00024,0.0,0.0
12.789,4158.534,0.00024,0.0,0.0
12.795,4111.976,0.00024,0.0,0.0
12.802,4084.752,0.00024,0.0,0.0
12.808,4065.966,0.00025,0.0,0.0
12.814,4054.014,0.00025,0.0,0.0
12.821,4020.441,0.00025,0.0,0.0
12.827,4019.492,0.00025,0.0,0.0
12.833,4019.869,0.00025,0.0,0.0
12.84,3997.945,0.00025,0.0,0.0
12.846,4009.422,0.00025,0.0,0.0
12.852,3985.806,0.00025,0.0,0.0
12.859,3970.744,0.00025,0.0,0.0
12.865,3963.868,0.00025,0.0,0.0
12.871,3961.041,0.00025,0.0,0.0
12.878,3950.019,0.00025,0.0,0.0
12.884,3956.288,0.00025,0.0,0.0
12.89,3942.869,0.00025,0.0,0.0
12.896,3959.474,0.00025,0.0,0.0
12.903,3957.19,0.00025,0.0,0.0
12.909,3923.319,0.00025,0.0,0.0
12.915,3936.458,0.00025,0.0,0.0
12.922,3944.363,0.00025,0.0,0.0
12.928,3983.732,0.00025,0.0,0.0
12.934,3990.14,0.00025,0.0,0.0
12.941,4002.917,0.00025,0.0,0.0
12.947,4010.708,0.00025,0.0,0.0
12.953,4013.55,0.00025,0.0,0.0
12.96,4014.805,0.00025,0.0,0.0
12.966,3995.501,0.00025,0.0,0.0
12.972,3959.551,0.00025,0.0,0.0
12.979,3921.414,0.00026,0.0,0.0
12.985,3906.926,0.00026,0.0,0.0
12.991,3894.959,0.00026,0.0,0.0
12.998,3875.379,0.00026,0.0,0.0
13.004,3865.986,0.00026,0.0,0.0
13.01,3866.009,0.00026,0.0,0.0
13.017,3856.507,0.00026,0.0,0.0
13.023,3852.815,0.00026,0.0,0.0
13.029,3851.826,0.00026,0.0,0.0
13.036,3826.137,0.00026,0.0,0.0
13.042,3831.469,0.00026,0.0,0.0
13.048,3837.415,0.00026,0.0,0.0
13.054,3835.942,0.00026,0.0,0.0
13.061,3820.46,0.00026,0.0,0.0
13.067,3836.123,0.00026,0.0,0.0
13.073,3819.08,0.00026,0.0,0.0
13.08,3825.864,0.00026,0.0,0.0
13.086,3807.753,0.00026,0.0,0.0
13.092,3827.256,0.00026,0.0,0.0
13.099,3812.051,0.00026,0.0,0.0
13.105,3805.713,0.00026,0.0,0.0
13.111,3796.724,0.00026,0.0,0.0
13.118,3802.006,0.00026,0.0,0.0
13.124,3811.425,0.00026,0.0,0.0
13.13,3806.868,0.00026,0.0,0.0
13.137,3803.104,0.00026,0.0,0.0
13.143,3793.562,0.00026,0.0,0.0
13.149,3806.318,0.00026,0.0,0.0
13.156,3804.931,0.00026,0.0,0.0
13.162,3792.278,0.00026,0.0,0.0
13.168,3811.597,0.00026,0.0,0.0
13.175,3814.423,0.00026,0.0,0.0
13.181,3827.193,0.00026,0.0,0.0
13.187,3817.285,0.00026,0.0,0.0
13.194,3846.839,0.00026,0.0,0.0
13.2,3898.191,0.00026,0.0,0.0
13.206,3939.112,0.00025,0.0,0.0
13.212,4012.215,0.00025,0.0,0.0
13.219,4165.952,0.00024,0.0,0.0
13.225,4434.385,0.00023,0.0,0.0
13.231,4926.858,0.0002,0.0,0.0
13.238,5871.159,0.00017,0.0,0.0
13.244,6929.871,0.00014,0.0,0.0
13.25,9481.486,0.00011,0.0,0.0
13.257,9968.807,0.0001,0.0,0.0
13.263,11909.294,0.00008,0.0,0.0
13.269,10933.828,0.00009,0.0,0.0
13.276,9437.969,0.00011,0.0,0.0
13.282,8309.935,0.00012,0.0,0.0
13.288,6645.607,0.00015,0.0,0.0
13.295,5331.649,0.00019,0.0,0.0
13.301,4701.831,0.00021,0.0,0.0
13.307,4265.234,0.00023,0.0,0.0
13.314,4058.269,0.00025,0.0,0.0
13.32,3924.63,0.00025,0.0,0.0
13.326,3854.607,0.00026,0.0,0.0
13.333,3810.169,0.00026,0.0,0.0
13.339,3783.009,0.00026,0.0,0.0
13.345,3748.128,0.00027,0.0,0.0
13.352,3743.481,0.00027,0.0,0.0
13.358,3713.179,0.00027,0.0,0.0
13.364,3720.015,0.00027,0.0,0.0
13.37,3708.949,0.00027,0.0,0.0
13.377,3704.586,0.00027,0.0,0.0
13.383,3685.067,0.00027,0.0,0.0
13.389,3684.399,0.00027,0.0,0.0
13.396,3683.41,0.00027,0.0,0.0
13.402,3677.746,0.00027,0.0,0.0
13.408,3658.748,0.00027,0.0,0.0
13.415,3662.422,0.00027,0.0,0.0
13.421,3662.679,0.00027,0.0,0.0
13.427,3662.588,0.00027,0.0,0.0
13.434,3650.351,0.00027,0.0,0.0
13.44,3645.558,0.00027,0.0,0.0
13.446,3658.111,0.00027,0.0,0.0
13.453,3648.656,0.00027,0.0,0.0
13.459,3643.423,0.00027,0.0,0.0
13.465,3628.654,0.00028,0.0,0.0
13.472,3620.623,0.00028,0.0,0.0
13.478,3619.537,0.00028,0.0,0.0
13.484,3617.107,0.00028,0.0,0.0
13.491,3618.083,0.00028,0.0,0.0
13.497,3604.756,0.00028,0.0,0.0
13.503,3614.47,0.00028,0.0,0.0
13.51,3614.24,0.00028,0.0,0.0
13.516,3589.449,0.00028,0.0,0.0
13.522,3602.321,0.00028,0.0,0.0
13.528,3588.862,0.00028,0.0,0.0
13.535,3582.212,0.00028,0.0,0.0
13.541,3601.992,0.00028,0.0,0.0
13.547,3578.362,0.00028,0.0,0.0
13.554,3573.916,0.00028,0.0,0.0
13.56,3577.589,0.00028,0.0,0.0
13.566,3576.945,0.00028,0.0,0.0
13.573,3583.14,0.00028,0.0,0.0
13.579,3572.628,0.00028,0.0,0.0
13.585,3572.108,0.00028,0.0,0.0
13.592,3573.669,0.00028,0.0,0.0
13.598,3577.592,0.00028,0.0,0.0
13.604,3570.553,0.00028,0.0,0.0
13.611,3571.722,0.00028,0.0,0.0
13.617,3583.281,0.00028,0.0,0.0
13.623,3578.919,0.00028,0.0,0.0
13.63,3580.043,0.00028,0.0,0.0
13.636,3580.072,0.00028,0.0,0.0
13.642,3582.362,0.00028,0.0,0.0
13.649,3567.757,0.00028,0.0,0.0
13.655,3585.447,0.00028,0.0,0.0
13.661,3578.641,0.00028,0.0,0.0
13.668,3578.691,0.00028,0.0,0.0
13.674,3567.52,0.00028,0.0,0.0
13.68,3564.987,0.00028,0.0,0.0
13.686,3562.446,0.00028,0.0,0.0
13.693,3549.047,0.00028,0.0,0.0
13.699,3562.7,0.00028,0.0,0.0
13.705,3536.285,0.00028,0.0,0.0
13.712,3541.344,0.00028,0.0,0.0
13.718,3540.478,0.00028,0.0,0.0
13.724,3532.941,0.00028,0.0,0.0
13.731,3548.809,0.00028,0.0,0.0
13.737,3530.682,0.00028,0.0,0.0
13.743,3536.885,0.00028,0.0,0.0
13.75,3526.029,0.00028,0.0,0.0
13.756,3519.455,0.00028,0.0,0.0
13.762,3513.025,0.00028,0.0,0.0
13.769,3519.154,0.00028,0.0,0.0
13.775,3516.586,0.00028,0.0,0.0
13.781,3509.657,0.00028,0.0,0.0
13.788,3505.735,0.00029,0.0,0.0
13.794,3497.735,0.00029,0.0,0.0
13.8,3502.468,0.00029,0.0,0.0
13.807,3497.063,0.00029,0.0,0.0
13.813,3505.18,0.00029,0.0,0.0
13.819,3481.191,0.00029,0.0,0.0
13.826,3487.698,0.00029,0.0,0.0
13.832,3477.652,0.00029,0.0,0.0
13.838,3481.98,0.00029,0.0,0.0
13.844,3488.013,0.00029,0.0,0.0
13.851,3475.549,0.00029,0.0,0.0
13.857,3478.204,0.00029,0.0,0.0
13.863,3470.079,0.00029,0.0,0.0
13.87,3460.938,0.00029,0.0,0.0
13.876,3466.742,0.00029,0.0,0.0
13.882,3457.521,0.00029,0.0,0.0
13.889,3459.941,0.00029,0.0,0.0
13.895,3456.78,0.00029,0.0,0.0
13.901,3460.42,0.00029,0.0,0.0
13.908,3450.067,0.00029,0.0,0.0
13.914,3457.736,0.00029,0.0,0.0
13.92,3450.739,0.00029,0.0,0.0
13.927,3449.329,0.00029,0.0,0.0
13.933,3441.776,0.00029,0.0,0.0
13.939,3436.805,0.00029,0.0,0.0
13.946,3448.802,0.00029,0.0,0.0
13.952,3439.944,0.00029,0.0,0.0
13.958,3425.148,0.00029,0.0,0.0
13.965,3434.4,0.00029,0.0,0.0
13.971,3432.518,0.00029,0.0,0.0
13.977,3433.98,0.00029,0.0,0.0
13.984,3421.875,0.00029,0.0,0.0
13.99,3439.6,0.00029,0.0,0.0
13.996,3425.568,0.00029,0.0,0.0
14.002,3420.834,0.00029,0.0,0.0
14.009,3421.866,0.00029,0.0,0.0
14.015,3423.824,0.00029,0.0,0.0
14.021,3430.169,0.00029,0.0,0.0
14.028,3415.565,0.00029,0.0,0.0
14.034,3411.643,0.00029,0.0,0.0
14.04,3423.507,0.00029,0.0,0.0
14.047,3403.408,0.00029,0.0,0.0
14.053,3397.576,0.00029,0.0,0.0
14.059,3404.529,0.00029,0.0,0.0
14.066,3398.966,0.00029,0.0,0.0
14.072,3395.896,0.00029,0.0,0.0
14.078,3400.024,0.00029,0.0,0.0
14.085,3404.25,0.00029,0.0,0.0
14.091,3392.586,0.00029,0.0,0.0
14.097,3384.466,0.0003,0.0,0.0
14.104,3384.249,0.0003,0.0,0.0
14.11,3385.891,0.0003,0.0,0.0
14.116,3396.916,0.00029,0.0,0.0
14.123,3376.22,0.0003,0.0,0.0
14.129,3387.974,0.0003,0.0,0.0
14.135,3379.084,0.0003,0.0,0.0
14.142,3368.334,0.0003,0.0,0.0
14.148,3365.133,0.0003,0.0,0.0
14.154,3373.168,0.0003,0.0,0.0
14.16,3372.747,0.0003,0.0,0.0
14.167,3364.063,0.0003,0.0,0.0
14.173,3366.888,0.0003,0.0,0.0
14.179,3363.726,0.0003,0.0,0.0
14.186,3358.783,0.0003,0.0,0.0
14.192,3360.901,0.0003,0.0,0.0
14.198,3361.143,0.0003,0.0,0.0
14.205,3361.596,0.0003,0.0,0.0
14.211,3361.616,0.0003,0.0,0.0
14.217,3365.511,0.0003,0.0,0.0
14.224,3361.611,0.0003,0.0,0.0
14.23,3362.775,0.0003,0.0,0.0
14.236,3375.399,0.0003,0.0,0.0
14.243,3382.1,0.0003,0.0,0.0
14.249,3382.598,0.0003,0.0,0.0
14.255,3395.039,0.00029,0.0,0.0
14.262,3393.653,0.00029,0.0,0.0
14.268,3408.699,0.00029,0.0,0.0
14.274,3399.994,0.00029,0.0,0.0
14.281,3392.458,0.00029,0.0,0.0
14.287,3384.129,0.0003,0.0,0.0
14.293,3375.5,0.0003,0.0,0.0
14.3,3361.86,0.0003,0.0,0.0
14.306,3347.331,0.0003,0.0,0.0
14.312,3355.104,0.0003,0.0,0.0
14.318,3327.934,0.0003,0.0,0.0
14.325,3320.7,0.0003,0.0,0.0
14.331,3324.245,0.0003,0.0,0.0
14.337,3322.254,0.0003,0.0,0.0
14.344,3307.039,0.0003,0.0,0.0
14.35,3318.467,0.0003,0.0,0.0
14.356,3305.575,0.0003,0.0,0.0
14.363,3306.938,0.0003,0.0,0.0
14.369,3323.42,0.0003,0.0,0.0
14.375,3303.616,0.0003,0.0,0.0
14.382,3309.155,0.0003,0.0,0.0
14.388,3309.703,0.0003,0.0,0.0
14.394,3314.155,0.0003,0.0,0.0
14.401,3300.257,0.0003,0.0,0.0
14.407,3303.321,0.0003,0.0,0.0
14.413,3304.703,0.0003,0.0,0.0
14.42,3310.873,0.0003,0.0,0.0
14.426,3302.43,0.0003,0.0,0.0
14.432,3294.733,0.0003,0.0,0.0
14.439,3289.955,0.0003,0.0,0.0
14.445,3294.672,0.0003,0.0,0.0
14.451,3298.415,0.0003,0.0,0.0
14.458,3284.176,0.0003,0.0,0.0
14.464,3295.635,0.0003,0.0,0.0
14.47,3306.802,0.0003,0.0,0.0
14.476,3299.161,0.0003,0.0,0.0
14.483,3289.78,0.0003,0.0,0.0
14.489,3290.744,0.0003,0.0,0.0
14.495,3284.597,0.0003,0.0,0.0
14.502,3271.676,0.00031,0.0,0.0
14.508,3276.007,0.00031,0.0,0.0
14.514,3281.093,0.0003,0.0,0.0
14.521,3282.876,0.0003,0.0,0.0
14.527,3269.23,0.00031,0.0,0.0
14.533,3274.753,0.00031,0.0,0.0
14.54,3279.095,0.0003,0.0,0.0
14.546,3258.738,0.00031,0.0,0.0
14.552,3271.515,0.00031,0.0,0.0
14.559,3269.112,0.00031,0.0,0.0
14.565,3271.58,0.00031,0.0,0.0
14.571,3268.325,0.00031,0.0,0.0
14.578,3259.042,0.00031,0.0,0.0
14.584,3275.713,0.00031,0.0,0.0
14.59,3275.03,0.00031,0.0,0.0
14.597,3266.828,0.00031,0.0,0.0
14.603,3267.89,0.00031,0.0,0.0
14.609,3256.954,0.00031,0.0,0.0
14.616,3258.343,0.00031,0.0,0.0
14.622,3269.317,0.00031,0.0,0.0
14.628,3251.407,0.00031,0.0,0.0
14.634,3251.674,0.00031,0.0,0.0
14.641,3249.668,0.00031,0.0,0.0
14.647,3266.364,0.00031,0.0,0.0
14.653,3260.978,0.00031,0.0,0.0
14.66,3250.847,0.00031,0.0,0.0
14.666,3252.166,0.00031,0.0,0.0
14.672,3250.632,0.00031,0.0,0.0
14.679,3255.959,0.00031,0.0,0.0
14.685,3256.793,0.00031,0.0,0.0
14.691,3240.798,0.00031,0.0,0.0
14.698,3241.934,0.00031,0.0,0.0
14.704,3239.16,0.00031,0.0,0.0
14.71,3239.541,0.00031,0.0,0.0
14.717,3235.525,0.00031,0.0,0.0
14.723,3237.755,0.00031,0.0,0.0
14.729,3238.012,0.00031,0.0,0.0
14.736,3231.799,0.00031,0.0,0.0
14.742,3224.955,0.00031,0.0,0.0
14.748,3225.115,0.00031,0.0,0.0
14.755,3239.171,0.00031,0.0,0.0
14.761,3229.476,0.00031,0.0,0.0
14.767,3224.229,0.00031,0.0,0.0
14.774,3228.709,0.00031,0.0,0.0
14.78,3230.982,0.00031,0.0,0.0
14.786,3225.782,0.00031,0.0,0.0
14.792,3229.971,0.00031,0.0,0.0
14.799,3230.33,0.00031,0.0,0.0
14.805,3222.495,0.00031,0.0,0.0
14.811,3239.046,0.00031,0.0,0.0
14.818,3222.533,0.00031,0.0,0.0
14.824,3230.149,0.00031,0.0,0.0
14.83,3221.783,0.00031,0.0,0.0
14.837,3229.788,0.00031,0.0,0.0
14.843,3219.069,0.00031,0.0,0.0
14.849,3221.415,0.00031,0.0,0.0
14.856,3214.29,0.00031,0.0,0.0
14.862,3216.374,0.00031,0.0,0.0
14.868,3214.445,0.00031,0.0,0.0
14.875,3209.458,0.00031,0.0,0.0
14.881,3218.584,0.00031,0.0,0.0
14.887,3207.824,0.00031,0.0,0.0
14.894,3216.252,0.00031,0.0,0.0
14.9,3226.104,0.00031,0.0,0.0
14.906,3207.817,0.00031,0.0,0.0
14.913,3216.454,0.00031,0.0,0.0
14.919,3216.365,0.00031,0.0,0.0
14.925,3216.199,0.00031,0.0,0.0
14.932,3204.099,0.00031,0.0,0.0
14.938,3208.784,0.00031,0.0,0.0
14.944,3202.04,0.00031,0.0,0.0
14.95,3211.051,0.00031,0.0,0.0
14.957,3201.255,0.00031,0.0,0.0
14.963,3197.972,0.00031,0.0,0.0
14.969,3202.325,0.00031,0.0,0.0
14.976,3194.196,0.00031,0.0,0.0
14.982,3201.9,0.00031,0.0,0.0
14.988,3194.837,0.00031,0.0,0.0
14.995,3196.108,0.00031,0.0,0.0
15.001,3205.677,0.00031,0.0,0.0
15.007,3198.21,0.00031,0.0,0.0
15.014,3199.5,0.00031,0.0,0.0
15.02,3207.526,0.00031,0.0,0.0
15.026,3199.984,0.00031,0.0,0.0
15.033,3210.28,0.00031,0.0,0.0
15.039,3201.819,0.00031,0.0,0.0
15.045,3197.998,0.00031,0.0,0.0
15.052,3197.931,0.00031,0.0,0.0
15.058,3195.641,0.00031,0.0,0.0
15.064,3190.927,0.00031,0.0,0.0
15.071,3199.542,0.00031,0.0,0.0
15.077,3204.451,0.00031,0.0,0.0
15.083,3201.521,0.00031,0.0,0.0
15.09,3195.959,0.00031,0.0,0.0
15.096,3205.416,0.00031,0.0,0.0
15.102,3199.063,0.00031,0.0,0.0
15.108,3199.394,0.00031,0.0,0.0
15.115,3187.345,0.00031,0.0,0.0
15.121,3190.371,0.00031,0.0,0.0
15.127,3197.794,0.00031,0.0,0.0
15.134,3184.85,0.00031,0.0,0.0
15.14,3184.035,0.00031,0.0,0.0
15.146,3189.918,0.00031,0.0,0.0
15.153,3185.803,0.00031,0.0,0.0
15.159,3193.902,0.00031,0.0,0.0
15.165,3197.573,0.00031,0.0,0.0
15.172,3198.777,0.00031,0.0,0.0
15.178,3190.855,0.00031,0.0,0.0
15.184,3192.396,0.00031,0.0,0.0
15.191,3184.728,0.00031,0.0,0.0
15.197,3197.543,0.00031,0.0,0.0
15.203,3203.277,0.00031,0.0,0.0
15.21,3197.498,0.00031,0.0,0.0
15.216,3195.086,0.00031,0.0,0.0
15.222,3197.496,0.00031,0.0,0.0
15.229,3203.845,0.00031,0.0,0.0
15.235,3207.163,0.00031,0.0,0.0
15.241,3223.167,0.00031,0.0,0.0
15.248,3229.888,0.00031,0.0,0.0
15.254,3235.953,0.00031,0.0,0.0
15.26,3264.254,0.00031,0.0,0.0
15.266,3292.548,0.0003,0.0,0.0
15.273,3363.271,0.0003,0.0,0.0
15.279,3454.256,0.00029,0.0,0.0
15.285,3622.302,0.00028,0.0,0.0
15.292,3928.557,0.00025,0.0,0.0
15.298,4335.861,0.00023,0.0,0.0
15.304,4983.116,0.0002,0.0,0.0
15.311,5656.928,0.00018,0.0,0.0
15.317,6289.885,0.00016,0.0,0.0
15.323,6591.975,0.00015,0.0,0.0
15.33,6216.387,0.00016,0.0,0.0
15.336,6082.914,0.00016,0.0,0.0
15.342,5190.04,0.00019,0.0,0.0
15.349,4512.194,0.00022,0.0,0.0
15.355,4085.948,0.00024,0.0,0.0
15.361,3664.904,0.00027,0.0,0.0
15.368,3493.015,0.00029,0.0,0.0
15.374,3356.31,0.0003,0.0,0.0
15.38,3279.959,0.0003,0.0,0.0
15.387,3245.562,0.00031,0.0,0.0
15.393,3217.879,0.00031,0.0,0.0
15.399,3204.973,0.00031,0.0,0.0
15.406,3194.077,0.00031,0.0,0.0
15.412,3177.446,0.00031,0.0,0.0
15.418,3178.532,0.00031,0.0,0.0
15.424,3170.769,0.00032,0.0,0.0
15.431,3169.039,0.00032,0.0,0.0
15.437,3157.424,0.00032,0.0,0.0
15.443,3164.123,0.00032,0.0,0.0
15.45,3141.205,0.00032,0.0,0.0
15.456,3151.412,0.00032,0.0,0.0
15.462,3141.248,0.00032,0.0,0.0
15.469,3135.479,0.00032,0.0,0.0
15.475,3143.358,0.00032,0.0,0.0
15.481,3138.97,0.00032,0.0,0.0
15.488,3139.552,0.00032,0.0,0.0
15.494,3128.228,0.00032,0.0,0.0
15.5,3139.886,0.00032,0.0,0.0
15.507,3125.292,0.00032,0.0,0.0
15.513,3121.045,0.00032,0.0,0.0
15.519,3128.461,0.00032,0.0,0.0
15.526,3134.494,0.00032,0.0,0.0
15.532,3125.971,0.00032,0.0,0.0
15.538,3116.159,0.00032,0.0,0.0
15.545,3118.714,0.00032,0.0,0.0
15.551,3120.643,0.00032,0.0,0.0
15.557,3106.083,0.00032,0.0,0.0
15.564,3102.995,0.00032,0.0,0.0
15.57,3109.094,0.00032,0.0,0.0
15.576,3095.295,0.00032,0.0,0.0
15.582,3106.965,0.00032,0.0,0.0
15.589,3096.714,0.00032,0.0,0.0
15.595,3098.549,0.00032,0.0,0.0
15.601,3096.951,0.00032,0.0,0.0
15.608,3089.181,0.00032,0.0,0.0
15.614,3083.716,0.00032,0.0,0.0
15.62,3097.831,0.00032,0.0,0.0
15.627,3089.58,0.00032,0.0,0.0
15.633,3080.349,0.00032,0.0,0.0
15.639,3088.309,0.00032,0.0,0.0
15.646,3078.971,0.00032,0.0,0.0
15.652,3065.755,0.00033,0.0,0.0
15.658,3077.539,0.00032,0.0,0.0
15.665,3077.254,0.00032,0.0,0.0
15.671,3068.978,0.00033,0.0,0.0
15.677,3061.044,0.00033,0.0,0.0
15.684,3068.634,0.00033,0.0,0.0
15.69,3070.997,0.00033,0.0,0.0
15.696,3066.8,0.00033,0.0,0.0
15.703,3060.485,0.00033,0.0,0.0
15.709,3062.932,0.00033,0.0,0.0
15.715,3052.55,0.00033,0.0,0.0
15.722,3069.914,0.00033,0.0,0.0
15.728,3051.714,0.00033,0.0,0.0
15.734,3049.937,0.00033,0.0,0.0
15.74,3051.52,0.00033,0.0,0.0
15.747,3056.155,0.00033,0.0,0.0
15.753,3050.029,0.00033,0.0,0.0
15.759,3052.275,0.00033,0.0,0.0
15.766,3046.723,0.00033,0.0,0.0
15.772,3041.831,0.00033,0.0,0.0
15.778,3041.342,0.00033,0.0,0.0
15.785,3040.241,0.00033,0.0,0.0
15.791,3031.152,0.00033,0.0,0.0
15.797,3039.361,0.00033,0.0,0.0
15.804,3029.574,0.00033,0.0,0.0
15.81,3037.292,0.00033,0.0,0.0
15.816,3039.022,0.00033,0.0,0.0
15.823,3039.116,0.00033,0.0,0.0
15.829,3029.651,0.00033,0.0,0.0
15.835,3028.315,0.00033,0.0,0.0
15.842,3034.677,0.00033,0.0,0.0
15.848,3032.207,0.00033,0.0,0.0
15.854,3036.949,0.00033,0.0,0.0
15.861,3028.996,0.00033,0.0,0.0
15.867,3014.142,0.00033,0.0,0.0
15.873,3014.632,0.00033,0.0,0.0
15.88,3016.798,0.00033,0.0,0.0
15.886,3019.371,0.00033,0.0,0.0
15.892,3012.775,0.00033,0.0,0.0
15.898,3016.567,0.00033,0.0,0.0
15.905,3009.857,0.00033,0.0,0.0
15.911,3016.659,0.00033,0.0,0.0
15.917,3012.693,0.00033,0.0,0.0
15.924,3010.404,0.00033,0.0,0.0
15.93,2997.885,0.00033,0.0,0.0
15.936,3015.679,0.00033,0.0,0.0
15.943,3006.354,0.00033,0.0,0.0
15.949,2997.931,0.00033,0.0,0.0
15.955,3000.506,0.00033,0.0,0.0
15.962,3000.264,0.00033,0.0,0.0
15.968,3003.295,0.00033,0.0,0.0
15.974,3004.34,0.00033,0.0,0.0
15.981,3001.615,0.00033,0.0,0.0
15.987,2999.113,0.00033,0.0,0.0
15.993,2992.422,0.00033,0.0,0.0
16.0,3001.888,0.00033,0.0,0.0
16.006,2983.619,0.00034,0.0,0.0
16.012,3001.695,0.00033,0.0,0.0
16.019,2995.824,0.00033,0.0,0.0
16.025,2989.722,0.00033,0.0,0.0
16.031,2992.524,0.00033,0.0,0.0
16.038,2982.487,0.00034,0.0,0.0
16.044,2987.935,0.00033,0.0,0.0
16.05,2985.866,0.00033,0.0,0.0
16.056,2990.441,0.00033,0.0,0.0
16.063,2996.95,0.00033,0.0,0.0
16.069,2990.579,0.00033,0.0,0.0
16.075,2995.156,0.00033,0.0,0.0
16.082,2977.398,0.00034,0.0,0.0
16.088,2986.461,0.00033,0.0,0.0
16.094,2972.501,0.00034,0.0,0.0
16.101,2990.086,0.00033,0.0,0.0
16.107,2976.199,0.00034,0.0,0.0
16.113,2971.547,0.00034,0.0,0.0
16.12,2974.578,0.00034,0.0,0.0
16.126,2979.94,0.00034,0.0,0.0
16.132,2972.258,0.00034,0.0,0.0
16.139,2968.696,0.00034,0.0,0.0
16.145,2965.422,0.00034,0.0,0.0
16.151,2968.725,0.00034,0.0,0.0
16.158,2965.847,0.00034,0.0,0.0
16.164,2961.043,0.00034,0.0,0.0
16.17,2966.488,0.00034,0.0,0.0
16.177,2966.678,0.00034,0.0,0.0
16.183,2979.942,0.00034,0.0,0.0
16.189,2971.29,0.00034,0.0,0.0
16.196,2973.809,0.00034,0.0,0.0
16.202,2965.001,0.00034,0.0,0.0
16.208,2963.292,0.00034,0.0,0.0
16.214,2973.321,0.00034,0.0,0.0
16.221,2963.321,0.00034,0.0,0.0
16.227,2968.332,0.00034,0.0,0.0
16.233,2973.635,0.00034,0.0,0.0
16.24,2958.52,0.00034,0.0,0.0
16.246,2963.24,0.00034,0.0,0.0
16.252,2962.884,0.00034,0.0,0.0
16.259,2954.996,0.00034,0.0,0.0
16.265,2970.298,0.00034,0.0,0.0
16.271,2960.486,0.00034,0.0,0.0
16.278,2968.578,0.00034,0.0,0.0
16.284,2958.531,0.00034,0.0,0.0
16.29,2962.411,0.00034,0.0,0.0
16.297,2963.752,0.00034,0.0,0.0
16.303,2978.721,0.00034,0.0,0.0
16.309,2967.743,0.00034,0.0,0.0
16.316,2957.206,0.00034,0.0,0.0
16.322,2963.715,0.00034,0.0,0.0
16.328,2968.102,0.00034,0.0,0.0
16.335,2964.05,0.00034,0.0,0.0
16.341,2970.233,0.00034,0.0,0.0
16.347,2966.648,0.00034,0.0,0.0
16.354,2960.163,0.00034,0.0,0.0
16.36,2963.306,0.00034,0.0,0.0
16.366,2966.339,0.00034,0.0,0.0
16.372,2964.938,0.00034,0.0,0.0
16.379,2959.038,0.00034,0.0,0.0
16.385,2959.484,0.00034,0.0,0.0
16.391,2947.843,0.00034,0.0,0.0
16.398,2955.755,0.00034,0.0,0.0
16.404,2951.077,0.00034,0.0,0.0
16.41,2948.971,0.00034,0.0,0.0
16.417,2955.392,0.00034,0.0,0.0
16.423,2960.443,0.00034,0.0,0.0
16.429,2955.14,0.00034,0.0,0.0
16.436,2951.264,0.00034,0.0,0.0
16.442,2954.401,0.00034,0.0,0.0
16.448,2950.846,0.00034,0.0,0.0
16.455,2965.268,0.00034,0.0,0.0
16.461,2947.697,0.00034,0.0,0.0
16.467,2960.509,0.00034,0.0,0.0
16.474,2966.175,0.00034,0.0,0.0
16.48,2962.238,0.00034,0.0,0.0
16.486,2965.868,0.00034,0.0,0.0
16.493,2963.709,0.00034,0.0,0.0
16.499,2974.919,0.00034,0.0,0.0
16.505,2982.628,0.00034,0.0,0.0
16.512,2976.845,0.00034,0.0,0.0
16.518,2972.552,0.00034,0.0,0.0
16.524,2975.073,0.00034,0.0,0.0
16.53,2979.531,0.00034,0.0,0.0
16.537,2971.113,0.00034,0.0,0.0
16.543,2970.201,0.00034,0.0,0.0
16.549,2969.462,0.00034,0.0,0.0
16.556,2973.813,0.00034,0.0,0.0
16.562,2966.712,0.00034,0.0,0.0
16.568,2977.098,0.00034,0.0,0.0
16.575,2976.509,0.00034,0.0,0.0
16.581,2978.033,0.00034,0.0,0.0
16.587,2978.619,0.00034,0.0,0.0
16.594,2985.32,0.00033,0.0,0.0
