"x","y_obs","weight","y_calc","y_bkg"
0.8,2928.688,0.00034,0.0,0.0
0.806,3402.372,0.00029,0.0,0.0
0.813,3508.69,0.00029,0.0,0.0
0.819,3367.637,0.0003,0.0,0.0
0.825,4078.461,0.00025,0.0,0.0
0.832,3764.147,0.00027,0.0,0.0
0.838,4146.064,0.00024,0.0,0.0
0.844,4411.347,0.00023,0.0,0.0
0.851,4260.297,0.00023,0.0,0.0
0.857,4745.535,0.00021,0.0,0.0
0.863,5128.295,0.00019,0.0,0.0
0.87,4695.89,0.00021,0.0,0.0
0.876,5612.531,0.00018,0.0,0.0
0.882,5379.504,0.00019,0.0,0.0
0.888,5707.446,0.00018,0.0,0.0
0.895,5959.359,0.00017,0.0,0.0
0.901,6038.138,0.00017,0.0,0.0
0.907,6507.232,0.00015,0.0,0.0
0.914,6655.198,0.00015,0.0,0.0
0.92,6306.131,0.00016,0.0,0.0
0.926,6976.21,0.00014,0.0,0.0
0.933,7040.921,0.00014,0.0,0.0
0.939,6834.698,0.00015,0.0,0.0
0.945,7458.287,0.00013,0.0,0.0
0.952,7053.994,0.00014,0.0,0.0
0.958,7459.332,0.00013,0.0,0.0
0.964,7511.287,0.00013,0.0,0.0
0.971,7327.238,0.00014,0.0,0.0
0.977,7796.154,0.00013,0.0,0.0
0.983,7749.553,0.00013,0.0,0.0
0.99,7562.1,0.00013,0.0,0.0
0.996,7910.156,0.00013,0.0,0.0
1.002,7648.447,0.00013,0.0,0.0
1.009,7854.819,0.00013,0.0,0.0
1.015,7985.288,0.00013,0.0,0.0
1.021,7728.518,0.00013,0.0,0.0
1.028,8081.692,0.00012,0.0,0.0
1.034,7888.062,0.00013,0.0,0.0
1.04,7830.77,0.00013,0.0,0.0
1.046,7939.777,0.00013,0.0,0.0
1.053,7897.321,0.00013,0.0,0.0
1.059,7886.9,0.00013,0.0,0.0
1.065,7902.826,0.00013,0.0,0.0
1.072,7723.806,0.00013,0.0,0.0
1.078,7873.815,0.00013,0.0,0.0
1.084,7722.073,0.00013,0.0,0.0
1.091,7759.05,0.00013,0.0,0.0
1.097,7765.521,0.00013,0.0,0.0
1.103,7746.972,0.00013,0.0,0.0
1.11,7659.925,0.00013,0.0,0.0
1.116,7685.845,0.00013,0.0,0.0
1.122,7560.415,0.00013,0.0,0.0
1.129,7586.125,0.00013,0.0,0.0
1.135,7545.609,0.00013,0.0,0.0
1.141,7513.581,0.00013,0.0,0.0
1.148,7497.485,0.00013,0.0,0.0
1.154,7389.518,0.00014,0.0,0.0
1.16,7420.371,0.00013,0.0,0.0
1.167,7346.351,0.00014,0.0,0.0
1.173,7265.54,0.00014,0.0,0.0
1.179,7253.459,0.00014,0.0,0.0
1.186,7188.028,0.00014,0.0,0.0
1.192,7156.942,0.00014,0.0,0.0
1.198,7109.244,0.00014,0.0,0.0
1.204,7023.698,0.00014,0.0,0.0
1.211,7098.717,0.00014,0.0,0.0
1.217,7043.21,0.00014,0.0,0.0
1.223,6913.727,0.00014,0.0,0.0
1.23,6916.264,0.00014,0.0,0.0
1.236,6879.464,0.00015,0.0,0.0
1.242,6818.134,0.00015,0.0,0.0
1.249,6881.759,0.00015,0.0,0.0
1.255,6773.289,0.00015,0.0,0.0
1.261,6758.406,0.00015,0.0,0.0
1.268,6725.699,0.00015,0.0,0.0
1.274,6683.228,0.00015,0.0,0.0
1.28,6721.461,0.00015,0.0,0.0
1.287,6635.77,0.00015,0.0,0.0
1.293,6652.201,0.00015,0.0,0.0
1.299,6594.523,0.00015,0.0,0.0
1.306,6593.362,0.00015,0.0,0.0
1.312,6549.488,0.00015,0.0,0.0
1.318,6557.204,0.00015,0.0,0.0
1.325,6540.891,0.00015,0.0,0.0
1.331,6516.758,0.00015,0.0,0.0
1.337,6509.794,0.00015,0.0,0.0
1.344,6478.915,0.00015,0.0,0.0
1.35,6427.941,0.00016,0.0,0.0
1.356,6442.723,0.00016,0.0,0.0
1.362,6434.966,0.00016,0.0,0.0
1.369,6367.97,0.00016,0.0,0.0
1.375,6414.259,0.00016,0.0,0.0
1.381,6380.124,0.00016,0.0,0.0
1.388,6416.64,0.00016,0.0,0.0
1.394,6354.955,0.00016,0.0,0.0
1.4,6368.128,0.00016,0.0,0.0
1.407,6329.335,0.00016,0.0,0.0
1.413,6353.259,0.00016,0.0,0.0
1.419,6328.362,0.00016,0.0,0.0
1.426,6324.214,0.00016,0.0,0.0
1.432,6314.065,0.00016,0.0,0.0
1.438,6332.239,0.00016,0.0,0.0
1.445,6302.733,0.00016,0.0,0.0
1.451,6367.273,0.00016,0.0,0.0
1.457,6308.56,0.00016,0.0,0.0
1.464,6296.493,0.00016,0.0,0.0
1.47,6326.791,0.00016,0.0,0.0
1.476,6318.813,0.00016,0.0,0.0
1.483,6285.34,0.00016,0.0,0.0
1.489,6289.265,0.00016,0.0,0.0
1.495,6319.851,0.00016,0.0,0.0
1.502,6306.499,0.00016,0.0,0.0
1.508,6321.719,0.00016,0.0,0.0
1.514,6308.363,0.00016,0.0,0.0
1.52,6347.176,0.00016,0.0,0.0
1.527,6331.857,0.00016,0.0,0.0
1.533,6312.084,0.00016,0.0,0.0
1.539,6316.73,0.00016,0.0,0.0
1.546,6297.127,0.00016,0.0,0.0
1.552,6357.016,0.00016,0.0,0.0
1.558,6334.219,0.00016,0.0,0.0
1.565,6404.275,0.00016,0.0,0.0
1.571,6357.189,0.00016,0.0,0.0
1.577,6404.428,0.00016,0.0,0.0
1.584,6394.07,0.00016,0.0,0.0
1.59,6406.539,0.00016,0.0,0.0
1.596,6406.189,0.00016,0.0,0.0
1.603,6436.641,0.00016,0.0,0.0
1.609,6440.868,0.00016,0.0,0.0
1.615,6465.951,0.00015,0.0,0.0
1.622,6441.112,0.00016,0.0,0.0
1.628,6468.528,0.00015,0.0,0.0
1.634,6499.515,0.00015,0.0,0.0
1.641,6514.479,0.00015,0.0,0.0
1.647,6491.258,0.00015,0.0,0.0
1.653,6569.745,0.00015,0.0,0.0
1.66,6533.694,0.00015,0.0,0.0
1.666,6566.228,0.00015,0.0,0.0
1.672,6550.299,0.00015,0.0,0.0
1.678,6566.794,0.00015,0.0,0.0
1.685,6595.417,0.00015,0.0,0.0
1.691,6596.944,0.00015,0.0,0.0
1.697,6598.904,0.00015,0.0,0.0
1.704,6678.585,0.00015,0.0,0.0
1.71,6621.141,0.00015,0.0,0.0
1.716,6706.703,0.00015,0.0,0.0
1.723,6669.165,0.00015,0.0,0.0
1.729,6682.671,0.00015,0.0,0.0
1.735,6683.027,0.00015,0.0,0.0
1.742,6701.521,0.00015,0.0,0.0
1.748,6731.359,0.00015,0.0,0.0
1.754,6709.776,0.00015,0.0,0.0
1.761,6741.074,0.00015,0.0,0.0
1.767,6740.732,0.00015,0.0,0.0
1.773,6760.422,0.00015,0.0,0.0
1.78,6735.701,0.00015,0.0,0.0
1.786,6788.816,0.00015,0.0,0.0
1.792,6770.258,0.00015,0.0,0.0
1.799,6761.857,0.00015,0.0,0.0
1.805,6764.015,0.00015,0.0,0.0
1.811,6770.445,0.00015,0.0,0.0
1.818,6768.138,0.00015,0.0,0.0
1.824,6831.408,0.00015,0.0,0.0
1.83,6804.671,0.00015,0.0,0.0
1.836,6806.653,0.00015,0.0,0.0
1.843,6831.366,0.00015,0.0,0.0
1.849,6808.201,0.00015,0.0,0.0
1.855,6811.033,0.00015,0.0,0.0
1.862,6793.563,0.00015,0.0,0.0
1.868,6786.243,0.00015,0.0,0.0
1.874,6867.051,0.00015,0.0,0.0
1.881,6829.218,0.00015,0.0,0.0
1.887,6802.842,0.00015,0.0,0.0
1.893,6816.555,0.00015,0.0,0.0
1.9,6815.986,0.00015,0.0,0.0
1.906,6799.266,0.00015,0.0,0.0
1.912,6821.032,0.00015,0.0,0.0
1.919,6787.93,0.00015,0.0,0.0
1.925,6838.842,0.00015,0.0,0.0
1.931,6809.614,0.00015,0.0,0.0
1.938,6796.871,0.00015,0.0,0.0
1.944,6775.44,0.00015,0.0,0.0
1.95,6798.674,0.00015,0.0,0.0
1.957,6788.621,0.00015,0.0,0.0
1.963,6797.815,0.00015,0.0,0.0
1.969,6814.889,0.00015,0.0,0.0
1.976,6834.59,0.00015,0.0,0.0
1.982,6817.505,0.00015,0.0,0.0
1.988,6802.08,0.00015,0.0,0.0
1.994,6818.673,0.00015,0.0,0.0
2.001,6805.284,0.00015,0.0,0.0
2.007,6849.623,0.00015,0.0,0.0
2.013,6808.778,0.00015,0.0,0.0
2.02,6831.514,0.00015,0.0,0.0
2.026,6838.419,0.00015,0.0,0.0
2.032,6844.171,0.00015,0.0,0.0
2.039,6845.638,0.00015,0.0,0.0
2.045,6854.775,0.00015,0.0,0.0
2.051,6879.016,0.00015,0.0,0.0
2.058,6869.466,0.00015,0.0,0.0
2.064,6879.326,0.00015,0.0,0.0
2.07,6869.251,0.00015,0.0,0.0
2.077,6913.466,0.00014,0.0,0.0
2.083,6874.424,0.00015,0.0,0.0
2.089,6898.774,0.00014,0.0,0.0
2.096,6872.056,0.00015,0.0,0.0
2.102,6900.046,0.00014,0.0,0.0
2.108,6922.558,0.00014,0.0,0.0
2.115,6908.99,0.00014,0.0,0.0
2.121,6912.98,0.00014,0.0,0.0
2.127,6926.959,0.00014,0.0,0.0
2.134,6961.06,0.00014,0.0,0.0
2.14,6973.051,0.00014,0.0,0.0
2.146,6975.428,0.00014,0.0,0.0
2.152,6999.511,0.00014,0.0,0.0
2.159,6967.505,0.00014,0.0,0.0
2.165,7020.996,0.00014,0.0,0.0
2.171,7045.411,0.00014,0.0,0.0
2.178,7085.649,0.00014,0.0,0.0
2.184,7063.148,0.00014,0.0,0.0
2.19,7088.17,0.00014,0.0,0.0
2.197,7093.435,0.00014,0.0,0.0
2.203,7110.921,0.00014,0.0,0.0
2.209,7069.477,0.00014,0.0,0.0
2.216,7169.642,0.00014,0.0,0.0
2.222,7187.779,0.00014,0.0,0.0
2.228,7180.106,0.00014,0.0,0.0
2.235,7201.845,0.00014,0.0,0.0
2.241,7232.869,0.00014,0.0,0.0
2.247,7245.455,0.00014,0.0,0.0
2.254,7265.955,0.00014,0.0,0.0
2.26,7241.487,0.00014,0.0,0.0
2.266,7252.313,0.00014,0.0,0.0
2.273,7324.152,0.00014,0.0,0.0
2.279,7352.133,0.00014,0.0,0.0
2.285,7351.275,0.00014,0.0,0.0
2.292,7391.399,0.00014,0.0,0.0
2.298,7382.341,0.00014,0.0,0.0
2.304,7426.704,0.00013,0.0,0.0
2.31,7458.821,0.00013,0.0,0.0
2.317,7479.553,0.00013,0.0,0.0
2.323,7531.25,0.00013,0.0,0.0
2.329,7511.287,0.00013,0.0,0.0
2.336,7558.849,0.00013,0.0,0.0
2.342,7578.901,0.00013,0.0,0.0
2.348,7647.456,0.00013,0.0,0.0
2.355,7679.309,0.00013,0.0,0.0
2.361,7685.769,0.00013,0.0,0.0
2.367,7731.986,0.00013,0.0,0.0
2.374,7741.959,0.00013,0.0,0.0
2.38,7808.688,0.00013,0.0,0.0
2.386,7878.873,0.00013,0.0,0.0
2.393,8007.923,0.00012,0.0,0.0
2.399,8086.943,0.00012,0.0,0.0
2.405,8317.952,0.00012,0.0,0.0
2.412,8536.746,0.00012,0.0,0.0
2.418,8697.873,0.00011,0.0,0.0
2.424,8928.073,0.00011,0.0,0.0
2.431,8964.784,0.00011,0.0,0.0
2.437,8809.116,0.00011,0.0,0.0
2.443,8690.969,0.00012,0.0,0.0
2.45,8469.852,0.00012,0.0,0.0
2.456,8351.74,0.00012,0.0,0.0
2.462,8279.965,0.00012,0.0,0.0
2.468,8244.148,0.00012,0.0,0.0
2.475,8247.374,0.00012,0.0,0.0
2.481,8249.7,0.00012,0.0,0.0
2.487,8273.973,0.00012,0.0,0.0
2.494,8275.373,0.00012,0.0,0.0
2.5,8335.412,0.00012,0.0,0.0
2.506,8332.158,0.00012,0.0,0.0
2.513,8369.373,0.00012,0.0,0.0
2.519,8375.095,0.00012,0.0,0.0
2.525,8454.179,0.00012,0.0,0.0
2.532,8496.419,0.00012,0.0,0.0
2.538,8529.017,0.00012,0.0,0.0
2.544,8558.306,0.00012,0.0,0.0
2.551,8566.605,0.00012,0.0,0.0
2.557,8594.336,0.00012,0.0,0.0
2.563,8641.627,0.00012,0.0,0.0
2.57,8686.765,0.00012,0.0,0.0
2.576,8711.484,0.00011,0.0,0.0
2.582,8722.775,0.00011,0.0,0.0
2.589,8783.7,0.00011,0.0,0.0
2.595,8789.563,0.00011,0.0,0.0
2.601,8841.89,0.00011,0.0,0.0
2.608,8863.548,0.00011,0.0,0.0
2.614,8892.706,0.00011,0.0,0.0
2.62,8900.755,0.00011,0.0,0.0
2.626,8935.928,0.00011,0.0,0.0
2.633,9008.353,0.00011,0.0,0.0
2.639,9027.904,0.00011,0.0,0.0
2.645,9075.266,0.00011,0.0,0.0
2.652,9106.292,0.00011,0.0,0.0
2.658,9119.682,0.00011,0.0,0.0
2.664,9186.701,0.00011,0.0,0.0
2.671,9201.228,0.00011,0.0,0.0
2.677,9247.237,0.00011,0.0,0.0
2.683,9274.583,0.00011,0.0,0.0
2.69,9315.736,0.00011,0.0,0.0
2.696,9378.306,0.00011,0.0,0.0
2.702,9369.668,0.00011,0.0,0.0
2.709,9444.248,0.00011,0.0,0.0
2.715,9452.729,0.00011,0.0,0.0
2.721,9495.548,0.00011,0.0,0.0
2.728,9530.145,0.0001,0.0,0.0
2.734,9569.741,0.0001,0.0,0.0
2.74,9619.331,0.0001,0.0,0.0
2.747,9665.024,0.0001,0.0,0.0
2.753,9687.964,0.0001,0.0,0.0
2.759,9735.581,0.0001,0.0,0.0
2.766,9750.995,0.0001,0.0,0.0
2.772,9811.084,0.0001,0.0,0.0
2.778,9827.124,0.0001,0.0,0.0
2.784,9851.544,0.0001,0.0,0.0
2.791,9870.868,0.0001,0.0,0.0
2.797,9924.868,0.0001,0.0,0.0
2.803,9976.533,0.0001,0.0,0.0
2.81,10033.166,0.0001,0.0,0.0
2.816,10082.392,0.0001,0.0,0.0
2.822,10103.738,0.0001,0.0,0.0
2.829,10146.72,0.0001,0.0,0.0
2.835,10184.009,0.0001,0.0,0.0
2.841,10214.885,0.0001,0.0,0.0
2.848,10254.397,0.0001,0.0,0.0
2.854,10291.315,0.0001,0.0,0.0
2.86,10355.176,0.0001,0.0,0.0
2.867,10368.743,0.0001,0.0,0.0
2.873,10393.231,0.0001,0.0,0.0
2.879,10464.737,0.0001,0.0,0.0
2.886,10487.099,0.0001,0.0,0.0
2.892,10496.73,0.0001,0.0,0.0
2.898,10565.521,0.00009,0.0,0.0
2.905,10643.782,0.00009,0.0,0.0
2.911,10649.537,0.00009,0.0,0.0
2.917,10678.421,0.00009,0.0,0.0
2.924,10677.443,0.00009,0.0,0.0
2.93,10750.259,0.00009,0.0,0.0
2.936,10779.99,0.00009,0.0,0.0
2.942,10778.523,0.00009,0.0,0.0
2.949,10824.161,0.00009,0.0,0.0
2.955,10860.232,0.00009,0.0,0.0
2.961,10872.926,0.00009,0.0,0.0
2.968,10933.961,0.00009,0.0,0.0
2.974,10960.583,0.00009,0.0,0.0
2.98,11001.66,0.00009,0.0,0.0
2.987,11008.801,0.00009,0.0,0.0
2.993,11053.278,0.00009,0.0,0.0
2.999,11107.132,0.00009,0.0,0.0
3.006,11099.481,0.00009,0.0,0.0
3.012,11130.997,0.00009,0.0,0.0
3.018,11166.555,0.00009,0.0,0.0
3.025,11168.529,0.00009,0.0,0.0
3.031,11169.641,0.00009,0.0,0.0
3.037,11204.376,0.00009,0.0,0.0
3.044,11217.158,0.00009,0.0,0.0
3.05,11230.489,0.00009,0.0,0.0
3.056,11229.867,0.00009,0.0,0.0
3.063,11284.879,0.00009,0.0,0.0
3.069,11245.157,0.00009,0.0,0.0
3.075,11258.388,0.00009,0.0,0.0
3.082,11272.705,0.00009,0.0,0.0
3.088,11288.735,0.00009,0.0,0.0
3.094,11297.666,0.00009,0.0,0.0
3.1,11291.769,0.00009,0.0,0.0
3.107,11289.675,0.00009,0.0,0.0
3.113,11298.217,0.00009,0.0,0.0
3.119,11302.811,0.00009,0.0,0.0
3.126,11303.187,0.00009,0.0,0.0
3.132,11290.428,0.00009,0.0,0.0
3.138,11281.42,0.00009,0.0,0.0
3.145,11282.197,0.00009,0.0,0.0
3.151,11297.204,0.00009,0.0,0.0
3.157,11260.348,0.00009,0.0,0.0
3.164,11268.433,0.00009,0.0,0.0
3.17,11273.434,0.00009,0.0,0.0
3.176,11243.233,0.00009,0.0,0.0
3.183,11209.012,0.00009,0.0,0.0
3.189,11195.846,0.00009,0.0,0.0
3.195,11208.359,0.00009,0.0,0.0
3.202,11175.663,0.00009,0.0,0.0
3.208,11168.936,0.00009,0.0,0.0
3.214,11154.307,0.00009,0.0,0.0
3.221,11142.788,0.00009,0.0,0.0
3.227,11100.719,0.00009,0.0,0.0
3.233,11107.149,0.00009,0.0,0.0
3.24,11072.258,0.00009,0.0,0.0
3.246,11019.971,0.00009,0.0,0.0
3.252,11055.579,0.00009,0.0,0.0
3.258,10991.91,0.00009,0.0,0.0
3.265,10970.044,0.00009,0.0,0.0
3.271,10939.583,0.00009,0.0,0.0
3.277,10908.594,0.00009,0.0,0.0
3.284,10881.962,0.00009,0.0,0.0
3.29,10872.444,0.00009,0.0,0.0
3.296,10820.69,0.00009,0.0,0.0
3.303,10812.707,0.00009,0.0,0.0
3.309,10784.279,0.00009,0.0,0.0
3.315,10743.483,0.00009,0.0,0.0
3.322,10730.823,0.00009,0.0,0.0
3.328,10713.479,0.00009,0.0,0.0
3.334,10675.807,0.00009,0.0,0.0
3.341,10621.994,0.00009,0.0,0.0
3.347,10616.648,0.00009,0.0,0.0
3.353,10571.262,0.00009,0.0,0.0
3.36,10546.291,0.00009,0.0,0.0
3.366,10540.976,0.00009,0.0,0.0
3.372,10527.377,0.00009,0.0,0.0
3.379,10497.589,0.0001,0.0,0.0
3.385,10438.673,0.0001,0.0,0.0
3.391,10418.098,0.0001,0.0,0.0
3.398,10375.743,0.0001,0.0,0.0
3.404,10393.05,0.0001,0.0,0.0
3.41,10318.606,0.0001,0.0,0.0
3.416,10303.648,0.0001,0.0,0.0
3.423,10314.33,0.0001,0.0,0.0
3.429,10245.865,0.0001,0.0,0.0
3.435,10235.954,0.0001,0.0,0.0
3.442,10227.601,0.0001,0.0,0.0
3.448,10180.314,0.0001,0.0,0.0
3.454,10166.813,0.0001,0.0,0.0
3.461,10116.512,0.0001,0.0,0.0
3.467,10102.104,0.0001,0.0,0.0
3.473,10052.819,0.0001,0.0,0.0
3.48,10066.224,0.0001,0.0,0.0
3.486,9989.745,0.0001,0.0,0.0
3.492,9983.847,0.0001,0.0,0.0
3.499,9983.672,0.0001,0.0,0.0
3.505,9922.659,0.0001,0.0,0.0
3.511,9911.625,0.0001,0.0,0.0
3.518,9912.213,0.0001,0.0,0.0
3.524,9868.123,0.0001,0.0,0.0
3.53,9823.652,0.0001,0.0,0.0
3.537,9855.95,0.0001,0.0,0.0
3.543,9799.795,0.0001,0.0,0.0
3.549,9808.506,0.0001,0.0,0.0
3.556,9791.734,0.0001,0.0,0.0
3.562,9756.884,0.0001,0.0,0.0
3.568,9741.151,0.0001,0.0,0.0
3.574,9748.839,0.0001,0.0,0.0
3.581,9693.708,0.0001,0.0,0.0
3.587,9721.404,0.0001,0.0,0.0
3.593,9690.25,0.0001,0.0,0.0
3.6,9672.151,0.0001,0.0,0.0
3.606,9668.405,0.0001,0.0,0.0
3.612,9614.266,0.0001,0.0,0.0
3.619,9632.045,0.0001,0.0,0.0
3.625,9622.605,0.0001,0.0,0.0
3.631,9597.787,0.0001,0.0,0.0
3.638,9612.8,0.0001,0.0,0.0
3.644,9598.451,0.0001,0.0,0.0
3.65,9603.214,0.0001,0.0,0.0
3.657,9598.495,0.0001,0.0,0.0
3.663,9597.561,0.0001,0.0,0.0
3.669,9555.428,0.0001,0.0,0.0
3.676,9596.258,0.0001,0.0,0.0
3.682,9548.606,0.0001,0.0,0.0
3.688,9564.693,0.0001,0.0,0.0
3.695,9581.069,0.0001,0.0,0.0
3.701,9544.778,0.0001,0.0,0.0
3.707,9566.379,0.0001,0.0,0.0
3.714,9530.914,0.0001,0.0,0.0
3.72,9538.186,0.0001,0.0,0.0
3.726,9535.197,0.0001,0.0,0.0
3.732,9527.9,0.0001,0.0,0.0
3.739,9537.981,0.0001,0.0,0.0
3.745,9522.979,0.00011,0.0,0.0
3.751,9535.854,0.0001,0.0,0.0
3.758,9502.766,0.00011,0.0,0.0
3.764,9478.391,0.00011,0.0,0.0
3.77,9514.524,0.00011,0.0,0.0
3.777,9523.217,0.00011,0.0,0.0
3.783,9463.865,0.00011,0.0,0.0
3.789,9502.724,0.00011,0.0,0.0
3.796,9462.796,0.00011,0.0,0.0
3.802,9469.333,0.00011,0.0,0.0
3.808,9447.909,0.00011,0.0,0.0
3.815,9432.293,0.00011,0.0,0.0
3.821,9423.623,0.00011,0.0,0.0
3.827,9397.814,0.00011,0.0,0.0
3.834,9376.899,0.00011,0.0,0.0
3.84,9383.437,0.00011,0.0,0.0
3.846,9361.581,0.00011,0.0,0.0
3.853,9338.228,0.00011,0.0,0.0
3.859,9330.515,0.00011,0.0,0.0
3.865,9257.749,0.00011,0.0,0.0
3.872,9299.379,0.00011,0.0,0.0
3.878,9230.153,0.00011,0.0,0.0
3.884,9196.719,0.00011,0.0,0.0
3.89,9206.016,0.00011,0.0,0.0
3.897,9147.445,0.00011,0.0,0.0
3.903,9119.337,0.00011,0.0,0.0
3.909,9125.613,0.00011,0.0,0.0
3.916,9041.176,0.00011,0.0,0.0
3.922,9057.619,0.00011,0.0,0.0
3.928,9020.048,0.00011,0.0,0.0
3.935,8965.604,0.00011,0.0,0.0
3.941,8986.089,0.00011,0.0,0.0
3.947,8916.049,0.00011,0.0,0.0
3.954,8909.958,0.00011,0.0,0.0
3.96,8929.642,0.00011,0.0,0.0
3.966,8830.649,0.00011,0.0,0.0
3.973,8842.81,0.00011,0.0,0.0
3.979,8806.301,0.00011,0.0,0.0
3.985,8745.269,0.00011,0.0,0.0
3.992,8792.0,0.00011,0.0,0.0
3.998,8696.527,0.00011,0.0,0.0
4.004,8701.877,0.00011,0.0,0.0
4.011,8723.141,0.00011,0.0,0.0
4.017,8628.216,0.00012,0.0,0.0
4.023,8654.87,0.00012,0.0,0.0
4.03,8606.27,0.00012,0.0,0.0
4.036,8524.51,0.00012,0.0,0.0
4.042,8622.401,0.00012,0.0,0.0
4.048,8488.001,0.00012,0.0,0.0
4.055,8494.563,0.00012,0.0,0.0
4.061,8508.75,0.00012,0.0,0.0
4.067,8443.512,0.00012,0.0,0.0
4.074,8476.792,0.00012,0.0,0.0
4.08,8440.172,0.00012,0.0,0.0
4.086,8354.978,0.00012,0.0,0.0
4.093,8426.355,0.00012,0.0,0.0
4.099,8359.826,0.00012,0.0,0.0
4.105,8337.01,0.00012,0.0,0.0
4.112,8388.839,0.00012,0.0,0.0
4.118,8248.335,0.00012,0.0,0.0
4.124,8346.436,0.00012,0.0,0.0
4.131,8304.898,0.00012,0.0,0.0
4.137,8247.826,0.00012,0.0,0.0
4.143,8338.174,0.00012,0.0,0.0
4.15,8253.367,0.00012,0.0,0.0
4.156,8254.438,0.00012,0.0,0.0
4.162,8309.267,0.00012,0.0,0.0
4.169,8177.208,0.00012,0.0,0.0
4.175,8252.776,0.00012,0.0,0.0
4.181,8219.633,0.00012,0.0,0.0
4.188,8156.063,0.00012,0.0,0.0
4.194,8239.841,0.00012,0.0,0.0
4.2,8170.989,0.00012,0.0,0.0
4.206,8183.606,0.00012,0.0,0.0
4.213,8199.801,0.00012,0.0,0.0
4.219,8124.033,0.00012,0.0,0.0
4.225,8206.54,0.00012,0.0,0.0
4.232,8135.013,0.00012,0.0,0.0
4.238,8111.743,0.00012,0.0,0.0
4.244,8178.512,0.00012,0.0,0.0
4.251,8152.589,0.00012,0.0,0.0
4.257,8086.428,0.00012,0.0,0.0
4.263,8181.329,0.00012,0.0,0.0
4.27,8091.617,0.00012,0.0,0.0
4.276,8177.727,0.00012,0.0,0.0
4.282,8130.354,0.00012,0.0,0.0
4.289,8103.402,0.00012,0.0,0.0
4.295,8155.138,0.00012,0.0,0.0
4.301,8063.82,0.00012,0.0,0.0
4.308,8155.47,0.00012,0.0,0.0
4.314,8142.195,0.00012,0.0,0.0
4.32,8109.022,0.00012,0.0,0.0
4.327,8099.015,0.00012,0.0,0.0
4.333,8200.312,0.00012,0.0,0.0
4.339,8082.849,0.00012,0.0,0.0
4.346,8200.199,0.00012,0.0,0.0
4.352,8161.075,0.00012,0.0,0.0
4.358,8145.182,0.00012,0.0,0.0
4.364,8224.136,0.00012,0.0,0.0
4.371,8088.839,0.00012,0.0,0.0
4.377,8316.524,0.00012,0.0,0.0
4.383,8129.546,0.00012,0.0,0.0
4.39,8213.458,0.00012,0.0,0.0
4.396,8278.075,0.00012,0.0,0.0
4.402,8316.96,0.00012,0.0,0.0
4.409,8246.133,0.00012,0.0,0.0
4.415,8355.612,0.00012,0.0,0.0
4.421,8361.374,0.00012,0.0,0.0
4.428,8297.016,0.00012,0.0,0.0
4.434,8509.813,0.00012,0.0,0.0
4.44,8335.408,0.00012,0.0,0.0
4.447,8491.15,0.00012,0.0,0.0
4.453,8456.846,0.00012,0.0,0.0
4.459,8680.939,0.00012,0.0,0.0
4.466,8566.352,0.00012,0.0,0.0
4.472,8602.081,0.00012,0.0,0.0
4.478,8722.833,0.00011,0.0,0.0
4.485,8917.126,0.00011,0.0,0.0
4.491,8858.651,0.00011,0.0,0.0
4.497,8844.016,0.00011,0.0,0.0
4.504,9791.466,0.0001,0.0,0.0
4.51,9238.359,0.00011,0.0,0.0
4.516,11073.125,0.00009,0.0,0.0
4.522,10172.232,0.0001,0.0,0.0
4.529,11426.974,0.00009,0.0,0.0
4.535,19690.683,0.00005,0.0,0.0
4.541,14357.578,0.00007,0.0,0.0
4.548,22514.334,0.00004,0.0,0.0
4.554,43736.695,0.00002,0.0,0.0
4.56,24879.982,0.00004,0.0,0.0
4.567,51803.217,0.00002,0.0,0.0
4.573,28334.472,0.00004,0.0,0.0
4.579,24200.113,0.00004,0.0,0.0
4.586,34872.296,0.00003,0.0,0.0
4.592,13445.034,0.00007,0.0,0.0
4.598,15635.886,0.00006,0.0,0.0
4.605,10994.758,0.00009,0.0,0.0
4.611,9598.434,0.0001,0.0,0.0
4.617,10537.061,0.00009,0.0,0.0
4.624,8944.751,0.00011,0.0,0.0
4.63,8824.221,0.00011,0.0,0.0
4.636,8950.549,0.00011,0.0,0.0
4.643,8745.361,0.00011,0.0,0.0
4.649,8526.003,0.00012,0.0,0.0
4.655,8512.382,0.00012,0.0,0.0
4.662,8358.256,0.00012,0.0,0.0
4.668,8239.409,0.00012,0.0,0.0
4.674,8159.138,0.00012,0.0,0.0
4.68,8017.034,0.00012,0.0,0.0
4.687,8139.452,0.00012,0.0,0.0
4.693,7813.061,0.00013,0.0,0.0
4.699,7879.862,0.00013,0.0,0.0
4.706,7775.861,0.00013,0.0,0.0
4.712,7773.267,0.00013,0.0,0.0
4.718,7718.27,0.00013,0.0,0.0
4.725,7611.044,0.00013,0.0,0.0
4.731,7663.708,0.00013,0.0,0.0
4.737,7488.331,0.00013,0.0,0.0
4.744,7538.763,0.00013,0.0,0.0
4.75,7417.221,0.00013,0.0,0.0
4.756,7431.822,0.00013,0.0,0.0
4.763,7298.953,0.00014,0.0,0.0
4.769,7449.104,0.00013,0.0,0.0
4.775,7270.272,0.00014,0.0,0.0
4.782,7242.798,0.00014,0.0,0.0
4.788,7214.095,0.00014,0.0,0.0
4.794,7203.156,0.00014,0.0,0.0
4.801,7183.313,0.00014,0.0,0.0
4.807,7164.434,0.00014,0.0,0.0
4.813,7218.628,0.00014,0.0,0.0
4.82,7119.816,0.00014,0.0,0.0
4.826,7269.639,0.00014,0.0,0.0
4.832,7360.124,0.00014,0.0,0.0
4.838,7581.577,0.00013,0.0,0.0
4.845,7757.225,0.00013,0.0,0.0
4.851,7992.086,0.00013,0.0,0.0
4.857,8044.936,0.00012,0.0,0.0
4.864,8019.213,0.00012,0.0,0.0
4.87,7801.37,0.00013,0.0,0.0
4.876,7515.628,0.00013,0.0,0.0
4.883,7293.74,0.00014,0.0,0.0
4.889,7099.805,0.00014,0.0,0.0
4.895,6907.256,0.00014,0.0,0.0
4.902,6858.848,0.00015,0.0,0.0
4.908,6736.588,0.00015,0.0,0.0
4.914,6725.553,0.00015,0.0,0.0
4.921,6654.984,0.00015,0.0,0.0
4.927,6611.576,0.00015,0.0,0.0
4.933,6586.048,0.00015,0.0,0.0
4.94,6558.307,0.00015,0.0,0.0
4.946,6521.63,0.00015,0.0,0.0
4.952,6494.489,0.00015,0.0,0.0
4.959,6464.018,0.00015,0.0,0.0
4.965,6451.7,0.00015,0.0,0.0
4.971,6461.686,0.00015,0.0,0.0
4.978,6393.771,0.00016,0.0,0.0
4.984,6395.871,0.00016,0.0,0.0
4.99,6314.773,0.00016,0.0,0.0
4.996,6366.249,0.00016,0.0,0.0
5.003,6295.71,0.00016,0.0,0.0
5.009,6315.207,0.00016,0.0,0.0
5.015,6279.985,0.00016,0.0,0.0
5.022,6257.344,0.00016,0.0,0.0
5.028,6240.107,0.00016,0.0,0.0
5.034,6205.92,0.00016,0.0,0.0
5.041,6228.888,0.00016,0.0,0.0
5.047,6169.272,0.00016,0.0,0.0
5.053,6205.167,0.00016,0.0,0.0
5.06,6104.328,0.00016,0.0,0.0
5.066,6156.628,0.00016,0.0,0.0
5.072,6119.778,0.00016,0.0,0.0
5.079,6107.464,0.00016,0.0,0.0
5.085,6078.479,0.00016,0.0,0.0
5.091,6088.453,0.00016,0.0,0.0
5.098,6038.725,0.00017,0.0,0.0
5.104,6070.798,0.00016,0.0,0.0
5.11,6021.12,0.00017,0.0,0.0
5.117,6042.83,0.00017,0.0,0.0
5.123,6040.87,0.00017,0.0,0.0
5.129,5997.203,0.00017,0.0,0.0
5.136,5991.812,0.00017,0.0,0.0
5.142,5949.079,0.00017,0.0,0.0
5.148,5965.673,0.00017,0.0,0.0
5.154,5952.479,0.00017,0.0,0.0
5.161,5913.384,0.00017,0.0,0.0
5.167,5930.304,0.00017,0.0,0.0
5.173,5934.333,0.00017,0.0,0.0
5.18,5864.852,0.00017,0.0,0.0
5.186,5881.64,0.00017,0.0,0.0
5.192,5859.48,0.00017,0.0,0.0
5.199,5863.869,0.00017,0.0,0.0
5.205,5882.019,0.00017,0.0,0.0
5.211,5833.567,0.00017,0.0,0.0
5.218,5829.945,0.00017,0.0,0.0
5.224,5824.376,0.00017,0.0,0.0
5.23,5819.393,0.00017,0.0,0.0
5.237,5817.558,0.00017,0.0,0.0
5.243,5786.459,0.00017,0.0,0.0
5.249,5795.637,0.00017,0.0,0.0
5.256,5778.237,0.00017,0.0,0.0
5.262,5736.462,0.00017,0.0,0.0
5.268,5761.086,0.00017,0.0,0.0
5.275,5736.345,0.00017,0.0,0.0
5.281,5736.206,0.00017,0.0,0.0
5.287,5739.79,0.00017,0.0,0.0
5.294,5722.146,0.00017,0.0,0.0
5.3,5718.251,0.00017,0.0,0.0
5.306,5708.188,0.00018,0.0,0.0
5.312,5672.598,0.00018,0.0,0.0
5.319,5665.88,0.00018,0.0,0.0
5.325,5693.632,0.00018,0.0,0.0
5.331,5668.751,0.00018,0.0,0.0
5.338,5678.533,0.00018,0.0,0.0
5.344,5637.933,0.00018,0.0,0.0
5.35,5673.841,0.00018,0.0,0.0
5.357,5637.519,0.00018,0.0,0.0
5.363,5647.963,0.00018,0.0,0.0
5.369,5648.976,0.00018,0.0,0.0
5.376,5649.218,0.00018,0.0,0.0
5.382,5626.158,0.00018,0.0,0.0
5.388,5635.733,0.00018,0.0,0.0
5.395,5619.108,0.00018,0.0,0.0
5.401,5643.115,0.00018,0.0,0.0
5.407,5645.963,0.00018,0.0,0.0
5.414,5609.725,0.00018,0.0,0.0
5.42,5610.958,0.00018,0.0,0.0
5.426,5637.935,0.00018,0.0,0.0
5.433,5608.864,0.00018,0.0,0.0
5.439,5626.21,0.00018,0.0,0.0
5.445,5625.434,0.00018,0.0,0.0
5.452,5624.595,0.00018,0.0,0.0
5.458,5634.735,0.00018,0.0,0.0
5.464,5608.232,0.00018,0.0,0.0
5.47,5620.301,0.00018,0.0,0.0
5.477,5624.212,0.00018,0.0,0.0
5.483,5630.043,0.00018,0.0,0.0
5.489,5630.969,0.00018,0.0,0.0
5.496,5618.564,0.00018,0.0,0.0
5.502,5641.973,0.00018,0.0,0.0
5.508,5634.268,0.00018,0.0,0.0
5.515,5628.143,0.00018,0.0,0.0
5.521,5643.807,0.00018,0.0,0.0
5.527,5645.232,0.00018,0.0,0.0
5.534,5647.011,0.00018,0.0,0.0
5.54,5656.555,0.00018,0.0,0.0
5.546,5623.515,0.00018,0.0,0.0
5.553,5649.715,0.00018,0.0,0.0
5.559,5655.336,0.00018,0.0,0.0
5.565,5635.948,0.00018,0.0,0.0
5.572,5654.119,0.00018,0.0,0.0
5.578,5649.596,0.00018,0.0,0.0
5.584,5639.957,0.00018,0.0,0.0
5.591,5632.515,0.00018,0.0,0.0
5.597,5638.105,0.00018,0.0,0.0
5.603,5668.254,0.00018,0.0,0.0
5.61,5654.169,0.00018,0.0,0.0
5.616,5649.435,0.00018,0.0,0.0
5.622,5671.128,0.00018,0.0,0.0
5.628,5650.469,0.00018,0.0,0.0
5.635,5638.358,0.00018,0.0,0.0
5.641,5655.632,0.00018,0.0,0.0
5.647,5656.681,0.00018,0.0,0.0
5.654,5632.708,0.00018,0.0,0.0
5.66,5661.292,0.00018,0.0,0.0
5.666,5625.892,0.00018,0.0,0.0
5.673,5645.354,0.00018,0.0,0.0
5.679,5620.139,0.00018,0.0,0.0
5.685,5663.156,0.00018,0.0,0.0
5.692,5632.989,0.00018,0.0,0.0
5.698,5672.605,0.00018,0.0,0.0
5.704,5643.627,0.00018,0.0,0.0
5.711,5656.133,0.00018,0.0,0.0
5.717,5675.482,0.00018,0.0,0.0
5.723,5650.671,0.00018,0.0,0.0
5.73,5687.463,0.00018,0.0,0.0
5.736,5681.506,0.00018,0.0,0.0
5.742,5679.859,0.00018,0.0,0.0
5.749,5690.627,0.00018,0.0,0.0
5.755,5679.696,0.00018,0.0,0.0
5.761,5681.277,0.00018,0.0,0.0
5.768,5678.445,0.00018,0.0,0.0
5.774,5705.6,0.00018,0.0,0.0
5.78,5704.112,0.00018,0.0,0.0
5.786,5684.236,0.00018,0.0,0.0
5.793,5674.202,0.00018,0.0,0.0
5.799,5702.566,0.00018,0.0,0.0
5.805,5720.003,0.00017,0.0,0.0
5.812,5792.204,0.00017,0.0,0.0
5.818,5763.974,0.00017,0.0,0.0
5.824,5826.759,0.00017,0.0,0.0
5.831,5878.366,0.00017,0.0,0.0
5.837,5971.351,0.00017,0.0,0.0
5.843,6094.519,0.00016,0.0,0.0
5.85,6321.003,0.00016,0.0,0.0
5.856,6623.674,0.00015,0.0,0.0
5.862,7094.069,0.00014,0.0,0.0
5.869,7596.65,0.00013,0.0,0.0
5.875,8109.74,0.00012,0.0,0.0
5.881,8320.98,0.00012,0.0,0.0
5.888,8168.874,0.00012,0.0,0.0
5.894,7826.351,0.00013,0.0,0.0
5.9,7300.661,0.00014,0.0,0.0
5.907,6804.453,0.00015,0.0,0.0
5.913,6414.747,0.00016,0.0,0.0
5.919,6195.279,0.00016,0.0,0.0
5.926,6108.132,0.00016,0.0,0.0
5.932,6000.058,0.00017,0.0,0.0
5.938,5923.758,0.00017,0.0,0.0
5.944,5920.644,0.00017,0.0,0.0
5.951,5840.4,0.00017,0.0,0.0
5.957,5895.906,0.00017,0.0,0.0
5.963,5876.594,0.00017,0.0,0.0
5.97,5869.346,0.00017,0.0,0.0
5.976,5866.479,0.00017,0.0,0.0
5.982,5890.153,0.00017,0.0,0.0
5.989,5879.791,0.00017,0.0,0.0
5.995,5865.478,0.00017,0.0,0.0
6.001,5912.989,0.00017,0.0,0.0
6.008,5864.166,0.00017,0.0,0.0
6.014,5868.965,0.00017,0.0,0.0
6.02,5850.404,0.00017,0.0,0.0
6.027,5907.509,0.00017,0.0,0.0
6.033,5896.232,0.00017,0.0,0.0
6.039,5855.596,0.00017,0.0,0.0
6.046,5929.79,0.00017,0.0,0.0
6.052,5858.758,0.00017,0.0,0.0
6.058,5917.119,0.00017,0.0,0.0
6.065,5947.348,0.00017,0.0,0.0
6.071,5854.834,0.00017,0.0,0.0
6.077,5889.46,0.00017,0.0,0.0
6.084,5864.452,0.00017,0.0,0.0
6.09,5884.051,0.00017,0.0,0.0
6.096,5894.088,0.00017,0.0,0.0
6.102,5902.944,0.00017,0.0,0.0
6.109,5888.012,0.00017,0.0,0.0
6.115,5885.597,0.00017,0.0,0.0
6.121,5879.232,0.00017,0.0,0.0
6.128,5904.621,0.00017,0.0,0.0
6.134,5907.919,0.00017,0.0,0.0
6.14,5873.466,0.00017,0.0,0.0
6.147,5927.435,0.00017,0.0,0.0
6.153,5886.034,0.00017,0.0,0.0
6.159,5965.351,0.00017,0.0,0.0
6.166,5879.552,0.00017,0.0,0.0
6.172,5996.972,0.00017,0.0,0.0
6.178,5946.478,0.00017,0.0,0.0
6.185,5953.357,0.00017,0.0,0.0
6.191,5934.203,0.00017,0.0,0.0
6.197,6018.46,0.00017,0.0,0.0
6.204,5917.862,0.00017,0.0,0.0
6.21,5948.637,0.00017,0.0,0.0
6.216,6045.031,0.00017,0.0,0.0
6.223,5940.44,0.00017,0.0,0.0
6.229,5999.284,0.00017,0.0,0.0
6.235,6039.65,0.00017,0.0,0.0
6.242,6017.546,0.00017,0.0,0.0
6.248,6010.613,0.00017,0.0,0.0
6.254,6051.51,0.00017,0.0,0.0
6.26,6037.333,0.00017,0.0,0.0
6.267,6004.294,0.00017,0.0,0.0
6.273,6046.15,0.00017,0.0,0.0
6.279,6041.149,0.00017,0.0,0.0
6.286,5984.106,0.00017,0.0,0.0
6.292,6059.119,0.00017,0.0,0.0
6.298,6016.228,0.00017,0.0,0.0
6.305,6044.295,0.00017,0.0,0.0
6.311,6027.593,0.00017,0.0,0.0
6.317,6103.511,0.00016,0.0,0.0
6.324,6063.173,0.00016,0.0,0.0
6.33,6051.799,0.00017,0.0,0.0
6.336,6126.856,0.00016,0.0,0.0
6.343,6006.487,0.00017,0.0,0.0
6.349,6105.624,0.00016,0.0,0.0
6.355,6023.796,0.00017,0.0,0.0
6.362,6157.552,0.00016,0.0,0.0
6.368,6064.16,0.00016,0.0,0.0
6.374,6094.109,0.00016,0.0,0.0
6.381,6096.662,0.00016,0.0,0.0
6.387,6198.721,0.00016,0.0,0.0
6.393,6191.617,0.00016,0.0,0.0
6.4,6188.08,0.00016,0.0,0.0
6.406,6309.212,0.00016,0.0,0.0
6.412,6371.979,0.00016,0.0,0.0
6.418,6893.299,0.00015,0.0,0.0
6.425,6870.991,0.00015,0.0,0.0
6.431,8383.789,0.00012,0.0,0.0
6.437,8089.833,0.00012,0.0,0.0
6.444,11745.662,0.00009,0.0,0.0
6.45,10763.629,0.00009,0.0,0.0
6.456,18456.672,0.00005,0.0,0.0
6.463,10473.696,0.0001,0.0,0.0
6.469,18770.371,0.00005,0.0,0.0
6.475,9322.67,0.00011,0.0,0.0
6.482,13605.314,0.00007,0.0,0.0
6.488,7624.862,0.00013,0.0,0.0
6.494,8399.801,0.00012,0.0,0.0
6.501,6898.228,0.00014,0.0,0.0
6.507,6840.41,0.00015,0.0,0.0
6.513,6674.607,0.00015,0.0,0.0
6.52,6552.418,0.00015,0.0,0.0
6.526,6703.128,0.00015,0.0,0.0
6.532,6616.739,0.00015,0.0,0.0
6.539,6777.915,0.00015,0.0,0.0
6.545,6969.71,0.00014,0.0,0.0
6.551,7232.863,0.00014,0.0,0.0
6.558,7600.561,0.00013,0.0,0.0
6.564,8297.223,0.00012,0.0,0.0
6.57,9281.955,0.00011,0.0,0.0
6.576,11713.391,0.00009,0.0,0.0
6.583,14511.646,0.00007,0.0,0.0
6.589,22486.629,0.00004,0.0,0.0
6.595,37622.227,0.00003,0.0,0.0
6.602,51967.051,0.00002,0.0,0.0
6.608,86834.853,0.00001,0.0,0.0
6.614,95432.267,0.00001,0.0,0.0
6.621,105209.655,0.00001,0.0,0.0
6.627,90899.8,0.00001,0.0,0.0
6.633,74558.077,0.00001,0.0,0.0
6.64,44161.45,0.00002,0.0,0.0
6.646,31087.689,0.00003,0.0,0.0
6.652,19925.382,0.00005,0.0,0.0
6.659,13776.633,0.00007,0.0,0.0
6.665,10974.891,0.00009,0.0,0.0
6.671,9012.797,0.00011,0.0,0.0
6.678,8162.216,0.00012,0.0,0.0
6.684,7508.924,0.00013,0.0,0.0
6.69,7231.295,0.00014,0.0,0.0
6.697,6946.402,0.00014,0.0,0.0
6.703,6790.433,0.00015,0.0,0.0
6.709,6674.93,0.00015,0.0,0.0
6.716,6582.39,0.00015,0.0,0.0
6.722,6494.087,0.00015,0.0,0.0
6.728,6493.239,0.00015,0.0,0.0
6.734,6456.484,0.00015,0.0,0.0
6.741,6387.221,0.00016,0.0,0.0
6.747,6376.485,0.00016,0.0,0.0
6.753,6361.929,0.00016,0.0,0.0
6.76,6318.433,0.00016,0.0,0.0
6.766,6328.037,0.00016,0.0,0.0
6.772,6339.07,0.00016,0.0,0.0
6.779,6300.134,0.00016,0.0,0.0
6.785,6339.263,0.00016,0.0,0.0
6.791,6338.095,0.00016,0.0,0.0
6.798,6401.049,0.00016,0.0,0.0
6.804,6321.831,0.00016,0.0,0.0
6.81,6438.086,0.00016,0.0,0.0
6.817,6343.145,0.00016,0.0,0.0
6.823,6395.116,0.00016,0.0,0.0
6.829,6328.419,0.00016,0.0,0.0
6.836,6298.608,0.00016,0.0,0.0
6.842,6284.038,0.00016,0.0,0.0
6.848,6229.574,0.00016,0.0,0.0
6.855,6214.668,0.00016,0.0,0.0
6.861,6183.572,0.00016,0.0,0.0
6.867,6224.91,0.00016,0.0,0.0
6.874,6153.332,0.00016,0.0,0.0
6.88,6180.972,0.00016,0.0,0.0
6.886,6153.078,0.00016,0.0,0.0
6.892,6165.986,0.00016,0.0,0.0
6.899,6156.389,0.00016,0.0,0.0
6.905,6148.608,0.00016,0.0,0.0
6.911,6140.253,0.00016,0.0,0.0
6.918,6138.506,0.00016,0.0,0.0
6.924,6152.308,0.00016,0.0,0.0
6.93,6149.166,0.00016,0.0,0.0
6.937,6122.145,0.00016,0.0,0.0
6.943,6121.297,0.00016,0.0,0.0
6.949,6135.03,0.00016,0.0,0.0
6.956,6098.068,0.00016,0.0,0.0
6.962,6129.76,0.00016,0.0,0.0
6.968,6098.957,0.00016,0.0,0.0
6.975,6099.904,0.00016,0.0,0.0
6.981,6089.162,0.00016,0.0,0.0
6.987,6114.255,0.00016,0.0,0.0
6.994,6077.299,0.00016,0.0,0.0
7.0,6118.882,0.00016,0.0,0.0
7.006,6091.594,0.00016,0.0,0.0
7.013,6101.397,0.00016,0.0,0.0
7.019,6116.107,0.00016,0.0,0.0
7.025,6083.257,0.00016,0.0,0.0
7.032,6127.019,0.00016,0.0,0.0
7.038,6074.32,0.00016,0.0,0.0
7.044,6099.468,0.00016,0.0,0.0
7.05,6101.045,0.00016,0.0,0.0
7.057,6133.38,0.00016,0.0,0.0
7.063,6084.732,0.00016,0.0,0.0
7.069,6144.849,0.00016,0.0,0.0
7.076,6079.87,0.00016,0.0,0.0
7.082,6143.489,0.00016,0.0,0.0
7.088,6119.952,0.00016,0.0,0.0
7.095,6122.9,0.00016,0.0,0.0
7.101,6101.255,0.00016,0.0,0.0
7.107,6094.679,0.00016,0.0,0.0
7.114,6132.32,0.00016,0.0,0.0
7.12,6092.025,0.00016,0.0,0.0
7.126,6108.463,0.00016,0.0,0.0
7.133,6101.024,0.00016,0.0,0.0
7.139,6126.692,0.00016,0.0,0.0
7.145,6096.726,0.00016,0.0,0.0
7.152,6166.452,0.00016,0.0,0.0
7.158,6062.196,0.00016,0.0,0.0
7.164,6193.347,0.00016,0.0,0.0
7.171,6105.107,0.00016,0.0,0.0
7.177,6138.68,0.00016,0.0,0.0
7.183,6129.936,0.00016,0.0,0.0
7.19,6092.782,0.00016,0.0,0.0
7.196,6165.928,0.00016,0.0,0.0
7.202,6117.603,0.00016,0.0,0.0
7.208,6168.661,0.00016,0.0,0.0
7.215,6115.92,0.00016,0.0,0.0
7.221,6176.841,0.00016,0.0,0.0
7.227,6097.571,0.00016,0.0,0.0
7.234,6224.27,0.00016,0.0,0.0
7.24,6106.928,0.00016,0.0,0.0
7.246,6234.711,0.00016,0.0,0.0
7.253,6171.733,0.00016,0.0,0.0
7.259,6190.924,0.00016,0.0,0.0
7.265,6283.792,0.00016,0.0,0.0
7.272,6255.939,0.00016,0.0,0.0
7.278,6377.509,0.00016,0.0,0.0
7.284,6371.692,0.00016,0.0,0.0
7.291,6444.44,0.00016,0.0,0.0
7.297,6416.652,0.00016,0.0,0.0
7.303,6452.944,0.00015,0.0,0.0
7.31,6322.277,0.00016,0.0,0.0
7.316,6414.815,0.00016,0.0,0.0
7.322,6231.588,0.00016,0.0,0.0
7.329,6397.183,0.00016,0.0,0.0
7.335,6230.461,0.00016,0.0,0.0
7.341,6286.378,0.00016,0.0,0.0
7.348,6295.253,0.00016,0.0,0.0
7.354,6265.304,0.00016,0.0,0.0
7.36,6323.904,0.00016,0.0,0.0
7.366,6264.977,0.00016,0.0,0.0
7.373,6379.807,0.00016,0.0,0.0
7.379,6229.314,0.00016,0.0,0.0
7.385,6386.158,0.00016,0.0,0.0
7.392,6237.466,0.00016,0.0,0.0
7.398,6456.777,0.00015,0.0,0.0
7.404,6261.264,0.00016,0.0,0.0
7.411,6478.848,0.00015,0.0,0.0
7.417,6390.352,0.00016,0.0,0.0
7.423,6419.763,0.00016,0.0,0.0
7.43,6479.043,0.00015,0.0,0.0
7.436,6406.54,0.00016,0.0,0.0
7.442,6468.172,0.00015,0.0,0.0
7.449,6408.226,0.00016,0.0,0.0
7.455,6615.157,0.00015,0.0,0.0
7.461,6430.858,0.00016,0.0,0.0
7.468,6643.506,0.00015,0.0,0.0
7.474,6387.013,0.00016,0.0,0.0
7.48,6750.083,0.00015,0.0,0.0
7.487,6412.766,0.00016,0.0,0.0
7.493,6810.914,0.00015,0.0,0.0
7.499,6555.709,0.00015,0.0,0.0
7.506,6713.969,0.00015,0.0,0.0
7.512,6731.512,0.00015,0.0,0.0
7.518,6751.316,0.00015,0.0,0.0
7.524,6795.27,0.00015,0.0,0.0
7.531,6709.227,0.00015,0.0,0.0
7.537,6991.297,0.00014,0.0,0.0
7.543,6748.117,0.00015,0.0,0.0
7.55,7121.6,0.00014,0.0,0.0
7.556,6841.108,0.00015,0.0,0.0
7.562,7376.293,0.00014,0.0,0.0
7.569,6972.87,0.00014,0.0,0.0
7.575,7690.749,0.00013,0.0,0.0
7.581,7554.875,0.00013,0.0,0.0
7.588,8095.653,0.00012,0.0,0.0
7.594,8589.171,0.00012,0.0,0.0
7.6,9249.248,0.00011,0.0,0.0
7.607,11440.721,0.00009,0.0,0.0
7.613,13778.871,0.00007,0.0,0.0
7.619,19056.341,0.00005,0.0,0.0
7.626,28018.854,0.00004,0.0,0.0
7.632,36167.528,0.00003,0.0,0.0
7.638,43624.165,0.00002,0.0,0.0
7.645,54785.185,0.00002,0.0,0.0
7.651,45443.024,0.00002,0.0,0.0
7.657,40947.134,0.00002,0.0,0.0
7.664,31610.694,0.00003,0.0,0.0
7.67,22247.359,0.00004,0.0,0.0
7.676,16185.863,0.00006,0.0,0.0
7.682,12908.012,0.00008,0.0,0.0
7.689,10822.247,0.00009,0.0,0.0
7.695,9255.614,0.00011,0.0,0.0
7.701,9376.64,0.00011,0.0,0.0
7.708,8050.814,0.00012,0.0,0.0
7.714,9115.319,0.00011,0.0,0.0
7.72,7520.629,0.00013,0.0,0.0
7.727,8984.031,0.00011,0.0,0.0
7.733,7422.174,0.00013,0.0,0.0
7.739,9273.548,0.00011,0.0,0.0
7.746,7971.464,0.00013,0.0,0.0
7.752,8714.542,0.00011,0.0,0.0
7.758,8606.322,0.00012,0.0,0.0
7.765,8224.432,0.00012,0.0,0.0
7.771,9229.964,0.00011,0.0,0.0
7.777,8109.037,0.00012,0.0,0.0
7.784,10068.279,0.0001,0.0,0.0
7.79,7895.803,0.00013,0.0,0.0
7.796,11300.371,0.00009,0.0,0.0
7.803,7729.869,0.00013,0.0,0.0
7.809,12771.09,0.00008,0.0,0.0
7.815,7608.062,0.00013,0.0,0.0
7.822,16021.497,0.00006,0.0,0.0
7.828,9164.204,0.00011,0.0,0.0
7.834,17357.809,0.00006,0.0,0.0
7.84,13269.427,0.00008,0.0,0.0
7.847,14256.815,0.00007,0.0,0.0
7.853,16544.373,0.00006,0.0,0.0
7.859,12522.207,0.00008,0.0,0.0
7.866,19282.622,0.00005,0.0,0.0
7.872,10803.305,0.00009,0.0,0.0
7.878,21417.793,0.00005,0.0,0.0
7.885,8863.215,0.00011,0.0,0.0
7.891,22731.087,0.00004,0.0,0.0
7.897,8395.038,0.00012,0.0,0.0
7.904,22758.223,0.00004,0.0,0.0
7.91,11295.459,0.00009,0.0,0.0
7.916,19261.036,0.00005,0.0,0.0
7.923,14826.302,0.00007,0.0,0.0
7.929,14404.705,0.00007,0.0,0.0
7.935,17090.732,0.00006,0.0,0.0
7.942,11450.497,0.00009,0.0,0.0
7.948,18902.512,0.00005,0.0,0.0
7.954,8675.968,0.00012,0.0,0.0
7.961,18277.193,0.00005,0.0,0.0
7.967,7655.298,0.00013,0.0,0.0
7.973,15995.26,0.00006,0.0,0.0
7.98,7778.816,0.00013,0.0,0.0
7.986,12778.356,0.00008,0.0,0.0
7.992,8625.963,0.00012,0.0,0.0
7.998,10026.85,0.0001,0.0,0.0
8.005,9215.071,0.00011,0.0,0.0
8.011,8402.672,0.00012,0.0,0.0
8.017,9050.041,0.00011,0.0,0.0
8.024,7690.679,0.00013,0.0,0.0
8.03,8926.415,0.00011,0.0,0.0
8.036,7442.786,0.00013,0.0,0.0
8.043,8819.919,0.00011,0.0,0.0
8.049,7076.878,0.00014,0.0,0.0
8.055,8673.901,0.00012,0.0,0.0
8.062,7391.058,0.00014,0.0,0.0
8.068,8223.071,0.00012,0.0,0.0
8.074,7545.084,0.00013,0.0,0.0
8.081,7716.456,0.00013,0.0,0.0
8.087,7715.568,0.00013,0.0,0.0
8.093,7358.196,0.00014,0.0,0.0
8.1,7732.237,0.00013,0.0,0.0
8.106,7053.668,0.00014,0.0,0.0
8.112,7769.859,0.00013,0.0,0.0
8.119,6978.741,0.00014,0.0,0.0
8.125,7877.854,0.00013,0.0,0.0
8.131,7043.631,0.00014,0.0,0.0
8.138,7927.664,0.00013,0.0,0.0
8.144,7400.511,0.00014,0.0,0.0
8.15,7544.229,0.00013,0.0,0.0
8.156,7357.852,0.00014,0.0,0.0
8.163,7102.921,0.00014,0.0,0.0
8.169,7185.297,0.00014,0.0,0.0
8.175,6766.435,0.00015,0.0,0.0
8.182,7055.02,0.00014,0.0,0.0
8.188,6614.855,0.00015,0.0,0.0
8.194,6924.873,0.00014,0.0,0.0
8.201,6432.754,0.00016,0.0,0.0
8.207,6905.244,0.00014,0.0,0.0
8.213,6356.83,0.00016,0.0,0.0
8.22,6860.338,0.00015,0.0,0.0
8.226,6523.265,0.00015,0.0,0.0
8.232,6569.765,0.00015,0.0,0.0
8.239,6493.945,0.00015,0.0,0.0
8.245,6408.251,0.00016,0.0,0.0
8.251,6520.966,0.00015,0.0,0.0
8.258,6331.611,0.00016,0.0,0.0
8.264,6476.942,0.00015,0.0,0.0
8.27,6250.8,0.00016,0.0,0.0
8.277,6468.498,0.00015,0.0,0.0
8.283,6150.047,0.00016,0.0,0.0
8.289,6429.21,0.00016,0.0,0.0
8.296,6160.076,0.00016,0.0,0.0
8.302,6350.16,0.00016,0.0,0.0
8.308,6230.222,0.00016,0.0,0.0
8.314,6205.695,0.00016,0.0,0.0
8.321,6229.129,0.00016,0.0,0.0
8.327,6154.211,0.00016,0.0,0.0
8.333,6268.321,0.00016,0.0,0.0
8.34,6156.282,0.00016,0.0,0.0
8.346,6356.307,0.00016,0.0,0.0
8.352,6220.699,0.00016,0.0,0.0
8.359,6459.282,0.00015,0.0,0.0
8.365,6335.078,0.00016,0.0,0.0
8.371,6567.718,0.00015,0.0,0.0
8.378,6422.551,0.00016,0.0,0.0
8.384,6454.33,0.00015,0.0,0.0
8.39,6307.907,0.00016,0.0,0.0
8.397,6238.676,0.00016,0.0,0.0
8.403,6157.338,0.00016,0.0,0.0
8.409,6018.071,0.00017,0.0,0.0
8.416,6019.644,0.00017,0.0,0.0
8.422,5876.44,0.00017,0.0,0.0
8.428,5948.546,0.00017,0.0,0.0
8.435,5828.48,0.00017,0.0,0.0
8.441,5882.627,0.00017,0.0,0.0
8.447,5766.53,0.00017,0.0,0.0
8.454,5848.715,0.00017,0.0,0.0
8.46,5754.798,0.00017,0.0,0.0
8.466,5784.469,0.00017,0.0,0.0
8.472,5734.373,0.00017,0.0,0.0
8.479,5734.59,0.00017,0.0,0.0
8.485,5789.639,0.00017,0.0,0.0
8.491,5713.083,0.00018,0.0,0.0
8.498,5769.427,0.00017,0.0,0.0
8.504,5670.908,0.00018,0.0,0.0
8.51,5745.51,0.00017,0.0,0.0
8.517,5639.33,0.00018,0.0,0.0
8.523,5704.45,0.00018,0.0,0.0
8.529,5621.292,0.00018,0.0,0.0
8.536,5645.567,0.00018,0.0,0.0
8.542,5611.398,0.00018,0.0,0.0
8.548,5595.36,0.00018,0.0,0.0
8.555,5587.946,0.00018,0.0,0.0
8.561,5527.855,0.00018,0.0,0.0
8.567,5584.354,0.00018,0.0,0.0
8.574,5520.641,0.00018,0.0,0.0
8.58,5558.669,0.00018,0.0,0.0
8.586,5454.393,0.00018,0.0,0.0
8.593,5524.764,0.00018,0.0,0.0
8.599,5460.749,0.00018,0.0,0.0
8.605,5505.396,0.00018,0.0,0.0
8.612,5481.855,0.00018,0.0,0.0
8.618,5469.578,0.00018,0.0,0.0
8.624,5452.692,0.00018,0.0,0.0
8.63,5442.698,0.00018,0.0,0.0
8.637,5457.184,0.00018,0.0,0.0
8.643,5414.732,0.00018,0.0,0.0
8.649,5442.931,0.00018,0.0,0.0
8.656,5374.554,0.00019,0.0,0.0
8.662,5437.498,0.00018,0.0,0.0
8.668,5370.407,0.00019,0.0,0.0
8.675,5423.542,0.00018,0.0,0.0
8.681,5377.803,0.00019,0.0,0.0
8.687,5366.656,0.00019,0.0,0.0
8.694,5393.723,0.00019,0.0,0.0
8.7,5372.585,0.00019,0.0,0.0
8.706,5370.639,0.00019,0.0,0.0
8.713,5364.915,0.00019,0.0,0.0
8.719,5343.514,0.00019,0.0,0.0
8.725,5335.521,0.00019,0.0,0.0
8.732,5359.681,0.00019,0.0,0.0
8.738,5329.462,0.00019,0.0,0.0
8.744,5330.989,0.00019,0.0,0.0
8.751,5331.169,0.00019,0.0,0.0
8.757,5342.255,0.00019,0.0,0.0
8.763,5319.422,0.00019,0.0,0.0
8.77,5310.737,0.00019,0.0,0.0
8.776,5316.594,0.00019,0.0,0.0
8.782,5315.866,0.00019,0.0,0.0
8.788,5331.014,0.00019,0.0,0.0
8.795,5301.633,0.00019,0.0,0.0
8.801,5317.851,0.00019,0.0,0.0
8.807,5286.983,0.00019,0.0,0.0
8.814,5327.381,0.00019,0.0,0.0
8.82,5285.369,0.00019,0.0,0.0
8.826,5327.103,0.00019,0.0,0.0
8.833,5288.912,0.00019,0.0,0.0
8.839,5296.595,0.00019,0.0,0.0
8.845,5307.196,0.00019,0.0,0.0
8.852,5279.863,0.00019,0.0,0.0
8.858,5308.512,0.00019,0.0,0.0
8.864,5293.713,0.00019,0.0,0.0
8.871,5312.816,0.00019,0.0,0.0
8.877,5312.264,0.00019,0.0,0.0
8.883,5312.53,0.00019,0.0,0.0
8.89,5296.091,0.00019,0.0,0.0
8.896,5297.432,0.00019,0.0,0.0
8.902,5307.262,0.00019,0.0,0.0
8.909,5319.438,0.00019,0.0,0.0
8.915,5298.165,0.00019,0.0,0.0
8.921,5322.432,0.00019,0.0,0.0
8.928,5338.181,0.00019,0.0,0.0
8.934,5319.374,0.00019,0.0,0.0
8.94,5345.165,0.00019,0.0,0.0
8.946,5341.248,0.00019,0.0,0.0
8.953,5367.286,0.00019,0.0,0.0
8.959,5328.154,0.00019,0.0,0.0
8.965,5368.176,0.00019,0.0,0.0
8.972,5344.487,0.00019,0.0,0.0
8.978,5380.722,0.00019,0.0,0.0
8.984,5350.417,0.00019,0.0,0.0
8.991,5385.338,0.00019,0.0,0.0
8.997,5419.606,0.00018,0.0,0.0
9.003,5392.467,0.00019,0.0,0.0
9.01,5418.887,0.00018,0.0,0.0
9.016,5411.484,0.00018,0.0,0.0
9.022,5484.256,0.00018,0.0,0.0
9.029,5453.922,0.00018,0.0,0.0
9.035,5511.361,0.00018,0.0,0.0
9.041,5514.528,0.00018,0.0,0.0
9.048,5523.855,0.00018,0.0,0.0
9.054,5625.755,0.00018,0.0,0.0
9.06,5619.399,0.00018,0.0,0.0
9.067,5630.55,0.00018,0.0,0.0
9.073,5798.234,0.00017,0.0,0.0
9.079,5756.369,0.00017,0.0,0.0
9.086,5984.827,0.00017,0.0,0.0
9.092,6087.077,0.00016,0.0,0.0
9.098,6320.421,0.00016,0.0,0.0
9.104,6829.196,0.00015,0.0,0.0
9.111,7779.106,0.00013,0.0,0.0
9.117,9531.11,0.0001,0.0,0.0
9.123,8449.461,0.00012,0.0,0.0
9.13,9775.161,0.0001,0.0,0.0
9.136,14030.341,0.00007,0.0,0.0
9.142,8371.787,0.00012,0.0,0.0
9.149,8765.051,0.00011,0.0,0.0
9.155,10103.256,0.0001,0.0,0.0
9.161,6803.173,0.00015,0.0,0.0
9.168,6372.436,0.00016,0.0,0.0
9.174,6393.19,0.00016,0.0,0.0
9.18,5891.673,0.00017,0.0,0.0
9.187,5990.972,0.00017,0.0,0.0
9.193,5684.372,0.00018,0.0,0.0
9.199,5658.572,0.00018,0.0,0.0
9.206,5611.084,0.00018,0.0,0.0
9.212,5492.434,0.00018,0.0,0.0
9.218,5494.013,0.00018,0.0,0.0
9.225,5464.937,0.00018,0.0,0.0
9.231,5360.221,0.00019,0.0,0.0
9.237,5408.965,0.00018,0.0,0.0
9.244,5345.652,0.00019,0.0,0.0
9.25,5343.991,0.00019,0.0,0.0
9.256,5289.528,0.00019,0.0,0.0
9.262,5254.555,0.00019,0.0,0.0
9.269,5316.653,0.00019,0.0,0.0
9.275,5184.748,0.00019,0.0,0.0
9.281,5259.683,0.00019,0.0,0.0
9.288,5180.143,0.00019,0.0,0.0
9.294,5173.255,0.00019,0.0,0.0
9.3,5152.966,0.00019,0.0,0.0
9.307,5133.173,0.00019,0.0,0.0
9.313,5107.692,0.0002,0.0,0.0
9.319,5120.068,0.0002,0.0,0.0
9.326,5103.349,0.0002,0.0,0.0
9.332,5077.969,0.0002,0.0,0.0
9.338,5090.93,0.0002,0.0,0.0
9.345,5044.731,0.0002,0.0,0.0
9.351,5056.798,0.0002,0.0,0.0
9.357,5031.18,0.0002,0.0,0.0
9.364,5027.865,0.0002,0.0,0.0
9.37,4993.782,0.0002,0.0,0.0
9.376,4996.869,0.0002,0.0,0.0
9.383,4984.765,0.0002,0.0,0.0
9.389,4974.599,0.0002,0.0,0.0
9.395,4945.889,0.0002,0.0,0.0
9.402,4938.759,0.0002,0.0,0.0
9.408,4939.948,0.0002,0.0,0.0
9.414,4916.582,0.0002,0.0,0.0
9.42,4932.875,0.0002,0.0,0.0
9.427,4886.658,0.0002,0.0,0.0
9.433,4909.798,0.0002,0.0,0.0
9.439,4888.307,0.0002,0.0,0.0
9.446,4898.277,0.0002,0.0,0.0
9.452,4901.354,0.0002,0.0,0.0
9.458,4897.782,0.0002,0.0,0.0
9.465,4937.022,0.0002,0.0,0.0
9.471,4918.563,0.0002,0.0,0.0
9.477,4953.84,0.0002,0.0,0.0
9.484,4975.743,0.0002,0.0,0.0
9.49,4970.007,0.0002,0.0,0.0
9.496,4959.749,0.0002,0.0,0.0
9.503,4908.502,0.0002,0.0,0.0
9.509,4911.809,0.0002,0.0,0.0
9.515,4853.913,0.00021,0.0,0.0
9.522,4823.574,0.00021,0.0,0.0
9.528,4788.933,0.00021,0.0,0.0
9.534,4761.895,0.00021,0.0,0.0
9.541,4760.384,0.00021,0.0,0.0
9.547,4730.2,0.00021,0.0,0.0
9.553,4709.874,0.00021,0.0,0.0
9.56,4722.829,0.00021,0.0,0.0
9.566,4689.836,0.00021,0.0,0.0
9.572,4685.987,0.00021,0.0,0.0
9.578,4692.608,0.00021,0.0,0.0
9.585,4675.288,0.00021,0.0,0.0
9.591,4676.774,0.00021,0.0,0.0
9.597,4659.434,0.00021,0.0,0.0
9.604,4667.431,0.00021,0.0,0.0
9.61,4648.914,0.00022,0.0,0.0
9.616,4652.663,0.00021,0.0,0.0
9.623,4633.59,0.00022,0.0,0.0
9.629,4643.145,0.00022,0.0,0.0
9.635,4630.956,0.00022,0.0,0.0
9.642,4635.447,0.00022,0.0,0.0
9.648,4633.872,0.00022,0.0,0.0
9.654,4623.673,0.00022,0.0,0.0
9.661,4608.546,0.00022,0.0,0.0
9.667,4607.208,0.00022,0.0,0.0
9.673,4591.715,0.00022,0.0,0.0
9.68,4602.115,0.00022,0.0,0.0
9.686,4587.165,0.00022,0.0,0.0
9.692,4585.13,0.00022,0.0,0.0
9.699,4585.816,0.00022,0.0,0.0
9.705,4578.139,0.00022,0.0,0.0
9.711,4583.9,0.00022,0.0,0.0
9.718,4569.258,0.00022,0.0,0.0
9.724,4580.063,0.00022,0.0,0.0
9.73,4563.021,0.00022,0.0,0.0
9.736,4563.575,0.00022,0.0,0.0
9.743,4564.699,0.00022,0.0,0.0
9.749,4557.417,0.00022,0.0,0.0
9.755,4544.364,0.00022,0.0,0.0
9.762,4549.73,0.00022,0.0,0.0
9.768,4538.156,0.00022,0.0,0.0
9.774,4551.69,0.00022,0.0,0.0
9.781,4526.373,0.00022,0.0,0.0
9.787,4534.07,0.00022,0.0,0.0
9.793,4531.233,0.00022,0.0,0.0
9.8,4519.178,0.00022,0.0,0.0
9.806,4523.481,0.00022,0.0,0.0
9.812,4509.752,0.00022,0.0,0.0
9.819,4492.967,0.00022,0.0,0.0
9.825,4509.324,0.00022,0.0,0.0
9.831,4508.014,0.00022,0.0,0.0
9.838,4507.647,0.00022,0.0,0.0
9.844,4494.499,0.00022,0.0,0.0
9.85,4486.298,0.00022,0.0,0.0
9.857,4502.103,0.00022,0.0,0.0
9.863,4477.539,0.00022,0.0,0.0
9.869,4482.253,0.00022,0.0,0.0
9.876,4477.1,0.00022,0.0,0.0
9.882,4469.825,0.00022,0.0,0.0
9.888,4478.647,0.00022,0.0,0.0
9.894,4456.942,0.00022,0.0,0.0
9.901,4448.369,0.00022,0.0,0.0
9.907,4457.563,0.00022,0.0,0.0
9.913,4445.927,0.00022,0.0,0.0
9.92,4461.471,0.00022,0.0,0.0
9.926,4443.405,0.00023,0.0,0.0
9.932,4442.065,0.00023,0.0,0.0
9.939,4449.376,0.00022,0.0,0.0
9.945,4451.768,0.00022,0.0,0.0
9.951,4432.84,0.00023,0.0,0.0
9.958,4437.283,0.00023,0.0,0.0
9.964,4417.101,0.00023,0.0,0.0
9.97,4425.201,0.00023,0.0,0.0
9.977,4446.604,0.00022,0.0,0.0
9.983,4423.762,0.00023,0.0,0.0
9.989,4429.587,0.00023,0.0,0.0
9.996,4410.575,0.00023,0.0,0.0
10.002,4432.502,0.00023,0.0,0.0
10.008,4419.931,0.00023,0.0,0.0
10.015,4413.458,0.00023,0.0,0.0
10.021,4426.075,0.00023,0.0,0.0
10.027,4422.283,0.00023,0.0,0.0
10.034,4418.605,0.00023,0.0,0.0
10.04,4413.615,0.00023,0.0,0.0
10.046,4397.535,0.00023,0.0,0.0
10.052,4425.916,0.00023,0.0,0.0
10.059,4432.122,0.00023,0.0,0.0
10.065,4413.164,0.00023,0.0,0.0
10.071,4421.518,0.00023,0.0,0.0
10.078,4407.957,0.00023,0.0,0.0
10.084,4413.767,0.00023,0.0,0.0
10.09,4424.276,0.00023,0.0,0.0
10.097,4403.02,0.00023,0.0,0.0
10.103,4416.694,0.00023,0.0,0.0
10.109,4397.254,0.00023,0.0,0.0
10.116,4419.973,0.00023,0.0,0.0
10.122,4423.076,0.00023,0.0,0.0
10.128,4413.269,0.00023,0.0,0.0
10.135,4424.367,0.00023,0.0,0.0
10.141,4422.157,0.00023,0.0,0.0
10.147,4421.555,0.00023,0.0,0.0
10.154,4415.214,0.00023,0.0,0.0
10.16,4417.638,0.00023,0.0,0.0
10.166,4446.712,0.00022,0.0,0.0
10.173,4481.436,0.00022,0.0,0.0
10.179,4532.066,0.00022,0.0,0.0
10.185,4638.333,0.00022,0.0,0.0
10.192,4786.436,0.00021,0.0,0.0
10.198,5095.352,0.0002,0.0,0.0
10.204,5375.079,0.00019,0.0,0.0
10.21,6177.825,0.00016,0.0,0.0
10.217,6520.217,0.00015,0.0,0.0
10.223,6165.07,0.00016,0.0,0.0
10.229,5585.018,0.00018,0.0,0.0
10.236,4939.793,0.0002,0.0,0.0
10.242,4777.73,0.00021,0.0,0.0
10.248,4614.049,0.00022,0.0,0.0
10.255,4541.311,0.00022,0.0,0.0
10.261,4490.743,0.00022,0.0,0.0
10.267,4444.558,0.00022,0.0,0.0
10.274,4433.215,0.00023,0.0,0.0
10.28,4431.776,0.00023,0.0,0.0
10.286,4419.078,0.00023,0.0,0.0
10.293,4406.525,0.00023,0.0,0.0
10.299,4413.937,0.00023,0.0,0.0
10.305,4403.743,0.00023,0.0,0.0
10.312,4399.466,0.00023,0.0,0.0
10.318,4387.489,0.00023,0.0,0.0
10.324,4384.382,0.00023,0.0,0.0
10.331,4394.104,0.00023,0.0,0.0
10.337,4382.075,0.00023,0.0,0.0
10.343,4365.386,0.00023,0.0,0.0
10.35,4389.309,0.00023,0.0,0.0
10.356,4348.669,0.00023,0.0,0.0
10.362,4371.476,0.00023,0.0,0.0
10.368,4367.721,0.00023,0.0,0.0
10.375,4359.8,0.00023,0.0,0.0
10.381,4363.778,0.00023,0.0,0.0
10.387,4355.77,0.00023,0.0,0.0
10.394,4344.703,0.00023,0.0,0.0
10.4,4359.381,0.00023,0.0,0.0
10.406,4343.72,0.00023,0.0,0.0
10.413,4356.429,0.00023,0.0,0.0
10.419,4356.365,0.00023,0.0,0.0
10.425,4355.87,0.00023,0.0,0.0
10.432,4344.664,0.00023,0.0,0.0
10.438,4339.157,0.00023,0.0,0.0
10.444,4358.551,0.00023,0.0,0.0
10.451,4354.261,0.00023,0.0,0.0
10.457,4356.298,0.00023,0.0,0.0
10.463,4363.199,0.00023,0.0,0.0
10.47,4340.119,0.00023,0.0,0.0
10.476,4367.671,0.00023,0.0,0.0
10.482,4353.327,0.00023,0.0,0.0
10.489,4362.218,0.00023,0.0,0.0
10.495,4370.863,0.00023,0.0,0.0
10.501,4343.272,0.00023,0.0,0.0
10.508,4362.736,0.00023,0.0,0.0
10.514,4358.542,0.00023,0.0,0.0
10.52,4358.296,0.00023,0.0,0.0
10.526,4367.435,0.00023,0.0,0.0
10.533,4362.369,0.00023,0.0,0.0
10.539,4370.95,0.00023,0.0,0.0
10.545,4362.617,0.00023,0.0,0.0
10.552,4387.516,0.00023,0.0,0.0
10.558,4385.918,0.00023,0.0,0.0
10.564,4385.352,0.00023,0.0,0.0
10.571,4396.557,0.00023,0.0,0.0
10.577,4389.614,0.00023,0.0,0.0
10.583,4386.919,0.00023,0.0,0.0
10.59,4389.564,0.00023,0.0,0.0
10.596,4399.152,0.00023,0.0,0.0
10.602,4397.301,0.00023,0.0,0.0
10.609,4410.698,0.00023,0.0,0.0
10.615,4419.885,0.00023,0.0,0.0
10.621,4419.819,0.00023,0.0,0.0
10.628,4421.777,0.00023,0.0,0.0
10.634,4415.224,0.00023,0.0,0.0
10.64,4448.282,0.00022,0.0,0.0
10.647,4424.248,0.00023,0.0,0.0
10.653,4451.899,0.00022,0.0,0.0
10.659,4444.916,0.00022,0.0,0.0
10.666,4456.608,0.00022,0.0,0.0
10.672,4448.658,0.00022,0.0,0.0
10.678,4463.936,0.00022,0.0,0.0
10.684,4481.572,0.00022,0.0,0.0
10.691,4482.079,0.00022,0.0,0.0
10.697,4506.47,0.00022,0.0,0.0
10.703,4509.927,0.00022,0.0,0.0
10.71,4520.101,0.00022,0.0,0.0
10.716,4542.913,0.00022,0.0,0.0
10.722,4561.19,0.00022,0.0,0.0
10.729,4588.816,0.00022,0.0,0.0
10.735,4611.374,0.00022,0.0,0.0
10.741,4654.193,0.00021,0.0,0.0
10.748,4715.897,0.00021,0.0,0.0
10.754,4787.784,0.00021,0.0,0.0
10.76,4919.916,0.0002,0.0,0.0
10.767,5079.476,0.0002,0.0,0.0
10.773,5423.021,0.00018,0.0,0.0
10.779,5964.725,0.00017,0.0,0.0
10.786,6861.709,0.00015,0.0,0.0
10.792,9094.403,0.00011,0.0,0.0
10.798,11127.84,0.00009,0.0,0.0
10.805,17645.14,0.00006,0.0,0.0
10.811,21701.777,0.00005,0.0,0.0
10.817,28968.017,0.00003,0.0,0.0
10.824,29924.004,0.00003,0.0,0.0
10.83,29097.972,0.00003,0.0,0.0
10.836,23308.729,0.00004,0.0,0.0
10.842,17754.374,0.00006,0.0,0.0
10.849,12118.153,0.00008,0.0,0.0
10.855,9437.82,0.00011,0.0,0.0
10.861,7155.249,0.00014,0.0,0.0
10.868,6126.74,0.00016,0.0,0.0
10.874,5571.288,0.00018,0.0,0.0
10.88,5191.201,0.00019,0.0,0.0
10.887,5015.313,0.0002,0.0,0.0
10.893,4873.212,0.00021,0.0,0.0
10.899,4804.63,0.00021,0.0,0.0
10.906,4759.942,0.00021,0.0,0.0
10.912,4729.668,0.00021,0.0,0.0
10.918,4725.979,0.00021,0.0,0.0
10.925,4706.709,0.00021,0.0,0.0
10.931,4699.142,0.00021,0.0,0.0
10.937,4687.296,0.00021,0.0,0.0
10.944,4690.796,0.00021,0.0,0.0
10.95,4685.354,0.00021,0.0,0.0
10.956,4670.408,0.00021,0.0,0.0
10.963,4640.758,0.00022,0.0,0.0
10.969,4641.538,0.00022,0.0,0.0
10.975,4637.317,0.00022,0.0,0.0
10.982,4625.647,0.00022,0.0,0.0
10.988,4620.033,0.00022,0.0,0.0
10.994,4595.044,0.00022,0.0,0.0
11.0,4600.655,0.00022,0.0,0.0
11.007,4581.762,0.00022,0.0,0.0
11.013,4596.824,0.00022,0.0,0.0
11.019,4595.34,0.00022,0.0,0.0
11.026,4589.013,0.00022,0.0,0.0
11.032,4611.239,0.00022,0.0,0.0
11.038,4603.621,0.00022,0.0,0.0
11.045,4605.461,0.00022,0.0,0.0
11.051,4586.787,0.00022,0.0,0.0
11.057,4612.612,0.00022,0.0,0.0
11.064,4588.19,0.00022,0.0,0.0
11.07,4627.344,0.00022,0.0,0.0
11.076,4613.728,0.00022,0.0,0.0
11.083,4631.846,0.00022,0.0,0.0
11.089,4622.148,0.00022,0.0,0.0
11.095,4638.052,0.00022,0.0,0.0
11.102,4646.572,0.00022,0.0,0.0
11.108,4622.245,0.00022,0.0,0.0
11.114,4669.868,0.00021,0.0,0.0
11.121,4647.524,0.00022,0.0,0.0
11.127,4675.959,0.00021,0.0,0.0
11.133,4665.99,0.00021,0.0,0.0
11.14,4699.442,0.00021,0.0,0.0
11.146,4674.48,0.00021,0.0,0.0
11.152,4697.31,0.00021,0.0,0.0
11.158,4693.105,0.00021,0.0,0.0
11.165,4731.556,0.00021,0.0,0.0
11.171,4723.413,0.00021,0.0,0.0
11.177,4715.832,0.00021,0.0,0.0
11.184,4744.174,0.00021,0.0,0.0
11.19,4712.614,0.00021,0.0,0.0
11.196,4736.459,0.00021,0.0,0.0
11.203,4711.034,0.00021,0.0,0.0
11.209,4719.539,0.00021,0.0,0.0
11.215,4723.199,0.00021,0.0,0.0
11.222,4723.323,0.00021,0.0,0.0
11.228,4695.931,0.00021,0.0,0.0
11.234,4696.111,0.00021,0.0,0.0
11.241,4683.921,0.00021,0.0,0.0
11.247,4670.902,0.00021,0.0,0.0
11.253,4686.522,0.00021,0.0,0.0
11.26,4649.853,0.00022,0.0,0.0
11.266,4693.277,0.00021,0.0,0.0
11.272,4660.268,0.00021,0.0,0.0
11.279,4642.107,0.00022,0.0,0.0
11.285,4636.261,0.00022,0.0,0.0
11.291,4647.366,0.00022,0.0,0.0
11.298,4639.844,0.00022,0.0,0.0
11.304,4603.279,0.00022,0.0,0.0
11.31,4637.004,0.00022,0.0,0.0
11.316,4619.166,0.00022,0.0,0.0
11.323,4615.039,0.00022,0.0,0.0
11.329,4613.008,0.00022,0.0,0.0
11.335,4608.001,0.00022,0.0,0.0
11.342,4595.035,0.00022,0.0,0.0
11.348,4596.175,0.00022,0.0,0.0
11.354,4592.72,0.00022,0.0,0.0
11.361,4580.118,0.00022,0.0,0.0
11.367,4580.45,0.00022,0.0,0.0
11.373,4583.662,0.00022,0.0,0.0
11.38,4598.845,0.00022,0.0,0.0
11.386,4562.264,0.00022,0.0,0.0
11.392,4572.387,0.00022,0.0,0.0
11.399,4564.253,0.00022,0.0,0.0
11.405,4566.312,0.00022,0.0,0.0
11.411,4565.01,0.00022,0.0,0.0
11.418,4547.851,0.00022,0.0,0.0
11.424,4559.836,0.00022,0.0,0.0
11.43,4547.398,0.00022,0.0,0.0
11.437,4547.851,0.00022,0.0,0.0
11.443,4551.425,0.00022,0.0,0.0
11.449,4549.616,0.00022,0.0,0.0
11.456,4530.414,0.00022,0.0,0.0
11.462,4542.317,0.00022,0.0,0.0
11.468,4527.953,0.00022,0.0,0.0
11.474,4541.129,0.00022,0.0,0.0
11.481,4539.879,0.00022,0.0,0.0
11.487,4543.25,0.00022,0.0,0.0
11.493,4548.26,0.00022,0.0,0.0
11.5,4547.476,0.00022,0.0,0.0
11.506,4575.846,0.00022,0.0,0.0
11.512,4581.11,0.00022,0.0,0.0
11.519,4594.946,0.00022,0.0,0.0
11.525,4634.648,0.00022,0.0,0.0
11.531,4616.984,0.00022,0.0,0.0
11.538,4616.775,0.00022,0.0,0.0
11.544,4578.214,0.00022,0.0,0.0
11.55,4554.708,0.00022,0.0,0.0
11.557,4548.441,0.00022,0.0,0.0
11.563,4531.417,0.00022,0.0,0.0
11.569,4505.599,0.00022,0.0,0.0
11.576,4500.688,0.00022,0.0,0.0
11.582,4492.581,0.00022,0.0,0.0
11.588,4486.095,0.00022,0.0,0.0
11.595,4493.357,0.00022,0.0,0.0
11.601,4464.067,0.00022,0.0,0.0
11.607,4500.017,0.00022,0.0,0.0
11.614,4460.876,0.00022,0.0,0.0
11.62,4484.276,0.00022,0.0,0.0
11.626,4469.58,0.00022,0.0,0.0
11.632,4469.364,0.00022,0.0,0.0
11.639,4465.991,0.00022,0.0,0.0
11.645,4476.988,0.00022,0.0,0.0
11.651,4457.909,0.00022,0.0,0.0
11.658,4459.797,0.00022,0.0,0.0
11.664,4463.824,0.00022,0.0,0.0
11.67,4460.087,0.00022,0.0,0.0
11.677,4457.18,0.00022,0.0,0.0
11.683,4444.681,0.00022,0.0,0.0
11.689,4453.122,0.00022,0.0,0.0
11.696,4450.344,0.00022,0.0,0.0
11.702,4453.248,0.00022,0.0,0.0
11.708,4452.973,0.00022,0.0,0.0
11.715,4444.564,0.00022,0.0,0.0
11.721,4448.239,0.00022,0.0,0.0
11.727,4440.274,0.00023,0.0,0.0
11.734,4442.71,0.00023,0.0,0.0
11.74,4441.54,0.00023,0.0,0.0
11.746,4438.552,0.00023,0.0,0.0
11.753,4447.272,0.00022,0.0,0.0
11.759,4421.165,0.00023,0.0,0.0
11.765,4441.6,0.00023,0.0,0.0
11.772,4438.084,0.00023,0.0,0.0
11.778,4437.76,0.00023,0.0,0.0
11.784,4437.949,0.00023,0.0,0.0
11.79,4428.385,0.00023,0.0,0.0
11.797,4446.139,0.00022,0.0,0.0
11.803,4427.533,0.00023,0.0,0.0
11.809,4424.118,0.00023,0.0,0.0
11.816,4419.561,0.00023,0.0,0.0
11.822,4426.743,0.00023,0.0,0.0
11.828,4399.489,0.00023,0.0,0.0
11.835,4412.578,0.00023,0.0,0.0
11.841,4400.983,0.00023,0.0,0.0
11.847,4411.921,0.00023,0.0,0.0
11.854,4410.884,0.00023,0.0,0.0
11.86,4414.806,0.00023,0.0,0.0
11.866,4416.572,0.00023,0.0,0.0
11.873,4396.171,0.00023,0.0,0.0
11.879,4405.719,0.00023,0.0,0.0
11.885,4410.173,0.00023,0.0,0.0
11.892,4404.686,0.00023,0.0,0.0
11.898,4410.04,0.00023,0.0,0.0
11.904,4410.088,0.00023,0.0,0.0
11.911,4414.136,0.00023,0.0,0.0
11.917,4392.088,0.00023,0.0,0.0
11.923,4400.723,0.00023,0.0,0.0
11.93,4400.794,0.00023,0.0,0.0
11.936,4406.929,0.00023,0.0,0.0
11.942,4400.864,0.00023,0.0,0.0
11.948,4427.044,0.00023,0.0,0.0
11.955,4391.336,0.00023,0.0,0.0
11.961,4405.985,0.00023,0.0,0.0
11.967,4409.019,0.00023,0.0,0.0
11.974,4408.057,0.00023,0.0,0.0
11.98,4414.212,0.00023,0.0,0.0
11.986,4397.207,0.00023,0.0,0.0
11.993,4431.932,0.00023,0.0,0.0
11.999,4431.031,0.00023,0.0,0.0
12.005,4423.031,0.00023,0.0,0.0
12.012,4439.974,0.00023,0.0,0.0
12.018,4454.634,0.00022,0.0,0.0
12.024,4457.209,0.00022,0.0,0.0
12.031,4440.841,0.00023,0.0,0.0
12.037,4447.585,0.00022,0.0,0.0
12.043,4483.767,0.00022,0.0,0.0
12.05,4495.276,0.00022,0.0,0.0
12.056,4506.641,0.00022,0.0,0.0
12.062,4522.489,0.00022,0.0,0.0
12.069,4569.596,0.00022,0.0,0.0
12.075,4522.47,0.00022,0.0,0.0
12.081,4582.509,0.00022,0.0,0.0
12.088,4590.614,0.00022,0.0,0.0
12.094,4513.049,0.00022,0.0,0.0
12.1,4800.489,0.00021,0.0,0.0
12.106,4534.847,0.00022,0.0,0.0
12.113,4607.022,0.00022,0.0,0.0
12.119,4520.159,0.00022,0.0,0.0
12.125,4456.744,0.00022,0.0,0.0
12.132,4458.476,0.00022,0.0,0.0
12.138,4382.605,0.00023,0.0,0.0
12.144,4428.742,0.00023,0.0,0.0
12.151,4402.105,0.00023,0.0,0.0
12.157,4356.479,0.00023,0.0,0.0
12.163,4380.384,0.00023,0.0,0.0
12.17,4340.332,0.00023,0.0,0.0
12.176,4374.652,0.00023,0.0,0.0
12.182,4290.41,0.00023,0.0,0.0
12.189,4323.073,0.00023,0.0,0.0
12.195,4278.627,0.00023,0.0,0.0
12.201,4305.873,0.00023,0.0,0.0
12.208,4286.215,0.00023,0.0,0.0
12.214,4274.838,0.00023,0.0,0.0
12.22,4267.625,0.00023,0.0,0.0
12.227,4225.201,0.00024,0.0,0.0
12.233,4249.894,0.00024,0.0,0.0
12.239,4216.01,0.00024,0.0,0.0
12.246,4239.906,0.00024,0.0,0.0
12.252,4207.859,0.00024,0.0,0.0
12.258,4226.12,0.00024,0.0,0.0
12.264,4204.319,0.00024,0.0,0.0
12.271,4195.592,0.00024,0.0,0.0
12.277,4195.057,0.00024,0.0,0.0
12.283,4179.791,0.00024,0.0,0.0
12.29,4189.584,0.00024,0.0,0.0
12.296,4163.902,0.00024,0.0,0.0
12.302,4172.119,0.00024,0.0,0.0
12.309,4152.98,0.00024,0.0,0.0
12.315,4168.996,0.00024,0.0,0.0
12.321,4149.24,0.00024,0.0,0.0
12.328,4143.388,0.00024,0.0,0.0
12.334,4148.165,0.00024,0.0,0.0
12.34,4122.852,0.00024,0.0,0.0
12.347,4135.675,0.00024,0.0,0.0
12.353,4128.071,0.00024,0.0,0.0
12.359,4139.536,0.00024,0.0,0.0
12.366,4114.483,0.00024,0.0,0.0
12.372,4134.152,0.00024,0.0,0.0
12.378,4125.437,0.00024,0.0,0.0
12.385,4134.181,0.00024,0.0,0.0
12.391,4115.912,0.00024,0.0,0.0
12.397,4100.824,0.00024,0.0,0.0
12.404,4113.586,0.00024,0.0,0.0
12.41,4096.539,0.00024,0.0,0.0
12.416,4101.663,0.00024,0.0,0.0
12.422,4073.414,0.00025,0.0,0.0
12.429,4087.941,0.00024,0.0,0.0
12.435,4075.058,0.00025,0.0,0.0
12.441,4068.552,0.00025,0.0,0.0
12.448,4082.389,0.00024,0.0,0.0
12.454,4070.006,0.00025,0.0,0.0
12.46,4079.134,0.00025,0.0,0.0
12.467,4077.953,0.00025,0.0,0.0
12.473,4085.817,0.00024,0.0,0.0
12.479,4074.951,0.00025,0.0,0.0
12.486,4093.574,0.00024,0.0,0.0
12.492,4084.03,0.00024,0.0,0.0
12.498,4087.753,0.00024,0.0,0.0
12.505,4106.172,0.00024,0.0,0.0
12.511,4116.073,0.00024,0.0,0.0
12.517,4122.235,0.00024,0.0,0.0
12.524,4100.699,0.00024,0.0,0.0
12.53,4122.148,0.00024,0.0,0.0
12.536,4098.562,0.00024,0.0,0.0
12.543,4111.182,0.00024,0.0,0.0
12.549,4095.998,0.00024,0.0,0.0
12.555,4097.515,0.00024,0.0,0.0
12.562,4091.009,0.00024,0.0,0.0
12.568,4093.014,0.00024,0.0,0.0
12.574,4084.215,0.00024,0.0,0.0
12.58,4097.18,0.00024,0.0,0.0
12.587,4113.921,0.00024,0.0,0.0
12.593,4125.04,0.00024,0.0,0.0
12.599,4149.102,0.00024,0.0,0.0
12.606,4167.951,0.00024,0.0,0.0
12.612,4216.684,0.00024,0.0,0.0
12.618,4253.827,0.00024,0.0,0.0
12.625,4344.979,0.00023,0.0,0.0
12.631,4440.484,0.00023,0.0,0.0
12.637,4627.169,0.00022,0.0,0.0
12.644,4939.091,0.0002,0.0,0.0
12.65,5350.917,0.00019,0.0,0.0
12.656,6260.475,0.00016,0.0,0.0
12.663,7856.885,0.00013,0.0,0.0
12.669,10461.983,0.0001,0.0,0.0
12.675,15312.855,0.00007,0.0,0.0
12.682,20413.26,0.00005,0.0,0.0
12.688,29145.039,0.00003,0.0,0.0
12.694,33148.675,0.00003,0.0,0.0
12.701,34740.914,0.00003,0.0,0.0
12.707,31988.388,0.00003,0.0,0.0
12.713,25888.777,0.00004,0.0,0.0
12.72,19247.487,0.00005,0.0,0.0
12.726,12980.771,0.00008,0.0,0.0
12.732,9423.975,0.00011,0.0,0.0
12.738,6964.66,0.00014,0.0,0.0
12.745,5868.195,0.00017,0.0,0.0
12.751,5099.303,0.0002,0.0,0.0
12.757,4722.51,0.00021,0.0,0.0
12.764,4453.277,0.00022,0.0,0.0
12.77,4333.489,0.00023,0.0,0.0
12.776,4203.841,0.00024,0.0,0.0
12.783,4139.42,0.00024,0.0,0.0
12.789,4104.562,0.00024,0.0,0.0
12.795,4046.223,0.00025,0.0,0.0
12.802,4028.416,0.00025,0.0,0.0
12.808,3997.13,0.00025,0.0,0.0
12.814,3982.947,0.00025,0.0,0.0
12.821,3975.327,0.00025,0.0,0.0
12.827,3956.204,0.00025,0.0,0.0
12.833,3938.411,0.00025,0.0,0.0
12.84,3938.422,0.00025,0.0,0.0
12.846,3922.099,0.00025,0.0,0.0
12.852,3926.096,0.00025,0.0,0.0
12.859,3903.157,0.00026,0.0,0.0
12.865,3889.345,0.00026,0.0,0.0
12.871,3905.139,0.00026,0.0,0.0
12.878,3884.393,0.00026,0.0,0.0
12.884,3887.647,0.00026,0.0,0.0
12.89,3886.919,0.00026,0.0,0.0
12.896,3865.828,0.00026,0.0,0.0
12.903,3873.106,0.00026,0.0,0.0
12.909,3878.124,0.00026,0.0,0.0
12.915,3886.796,0.00026,0.0,0.0
12.922,3886.636,0.00026,0.0,0.0
12.928,3911.617,0.00026,0.0,0.0
12.934,3931.599,0.00025,0.0,0.0
12.941,3938.096,0.00025,0.0,0.0
12.947,3946.479,0.00025,0.0,0.0
12.953,3949.885,0.00025,0.0,0.0
12.96,3915.353,0.00026,0.0,0.0
12.966,3912.319,0.00026,0.0,0.0
12.972,3894.765,0.00026,0.0,0.0
12.979,3865.755,0.00026,0.0,0.0
12.985,3845.062,0.00026,0.0,0.0
12.991,3826.813,0.00026,0.0,0.0
12.998,3831.11,0.00026,0.0,0.0
13.004,3805.091,0.00026,0.0,0.0
13.01,3783.247,0.00026,0.0,0.0
13.017,3796.449,0.00026,0.0,0.0
13.023,3787.456,0.00026,0.0,0.0
13.029,3781.954,0.00026,0.0,0.0
13.036,3778.263,0.00026,0.0,0.0
13.042,3780.032,0.00026,0.0,0.0
13.048,3777.584,0.00026,0.0,0.0
13.054,3775.043,0.00026,0.0,0.0
13.061,3760.971,0.00027,0.0,0.0
13.067,3766.518,0.00027,0.0,0.0
13.073,3757.742,0.00027,0.0,0.0
13.08,3748.921,0.00027,0.0,0.0
13.086,3751.5,0.00027,0.0,0.0
13.092,3748.983,0.00027,0.0,0.0
13.099,3755.843,0.00027,0.0,0.0
13.105,3742.415,0.00027,0.0,0.0
13.111,3744.627,0.00027,0.0,0.0
13.118,3740.735,0.00027,0.0,0.0
13.124,3737.121,0.00027,0.0,0.0
13.13,3736.771,0.00027,0.0,0.0
13.137,3719.73,0.00027,0.0,0.0
13.143,3740.229,0.00027,0.0,0.0
13.149,3735.856,0.00027,0.0,0.0
13.156,3743.312,0.00027,0.0,0.0
13.162,3747.883,0.00027,0.0,0.0
13.168,3759.066,0.00027,0.0,0.0
13.175,3753.217,0.00027,0.0,0.0
13.181,3762.02,0.00027,0.0,0.0
13.187,3769.768,0.00027,0.0,0.0
13.194,3787.03,0.00026,0.0,0.0
13.2,3809.675,0.00026,0.0,0.0
13.206,3868.105,0.00026,0.0,0.0
13.212,3926.856,0.00025,0.0,0.0
13.219,4062.898,0.00025,0.0,0.0
13.225,4326.57,0.00023,0.0,0.0
13.231,4753.665,0.00021,0.0,0.0
13.238,5557.378,0.00018,0.0,0.0
13.244,6732.32,0.00015,0.0,0.0
13.25,9170.326,0.00011,0.0,0.0
13.257,10732.659,0.00009,0.0,0.0
13.263,12580.903,0.00008,0.0,0.0
13.269,12021.4,0.00008,0.0,0.0
13.276,11409.97,0.00009,0.0,0.0
13.282,10067.926,0.0001,0.0,0.0
13.288,7283.608,0.00014,0.0,0.0
13.295,6045.658,0.00017,0.0,0.0
13.301,5001.633,0.0002,0.0,0.0
13.307,4447.014,0.00022,0.0,0.0
13.314,4107.721,0.00024,0.0,0.0
13.32,3922.551,0.00025,0.0,0.0
13.326,3829.312,0.00026,0.0,0.0
13.333,3767.737,0.00027,0.0,0.0
13.339,3726.354,0.00027,0.0,0.0
13.345,3702.569,0.00027,0.0,0.0
13.352,3685.287,0.00027,0.0,0.0
13.358,3655.406,0.00027,0.0,0.0
13.364,3656.862,0.00027,0.0,0.0
13.37,3639.957,0.00027,0.0,0.0
13.377,3639.906,0.00027,0.0,0.0
13.383,3631.791,0.00028,0.0,0.0
13.389,3615.706,0.00028,0.0,0.0
13.396,3628.009,0.00028,0.0,0.0
13.402,3612.484,0.00028,0.0,0.0
13.408,3609.457,0.00028,0.0,0.0
13.415,3607.261,0.00028,0.0,0.0
13.421,3597.123,0.00028,0.0,0.0
13.427,3595.357,0.00028,0.0,0.0
13.434,3594.205,0.00028,0.0,0.0
13.44,3586.817,0.00028,0.0,0.0
13.446,3572.153,0.00028,0.0,0.0
13.453,3577.91,0.00028,0.0,0.0
13.459,3572.038,0.00028,0.0,0.0
13.465,3575.384,0.00028,0.0,0.0
13.472,3569.517,0.00028,0.0,0.0
13.478,3569.512,0.00028,0.0,0.0
13.484,3569.438,0.00028,0.0,0.0
13.491,3560.111,0.00028,0.0,0.0
13.497,3544.939,0.00028,0.0,0.0
13.503,3541.378,0.00028,0.0,0.0
13.51,3540.408,0.00028,0.0,0.0
13.516,3557.572,0.00028,0.0,0.0
13.522,3530.524,0.00028,0.0,0.0
13.528,3535.02,0.00028,0.0,0.0
13.535,3538.431,0.00028,0.0,0.0
13.541,3522.606,0.00028,0.0,0.0
13.547,3535.701,0.00028,0.0,0.0
13.554,3528.417,0.00028,0.0,0.0
13.56,3509.016,0.00028,0.0,0.0
13.566,3525.234,0.00028,0.0,0.0
13.573,3522.238,0.00028,0.0,0.0
13.579,3511.623,0.00028,0.0,0.0
13.585,3509.032,0.00028,0.0,0.0
13.592,3506.675,0.00029,0.0,0.0
13.598,3506.489,0.00029,0.0,0.0
13.604,3513.089,0.00028,0.0,0.0
13.611,3509.027,0.00028,0.0,0.0
13.617,3507.72,0.00029,0.0,0.0
13.623,3507.702,0.00029,0.0,0.0
13.63,3512.694,0.00028,0.0,0.0
13.636,3520.062,0.00028,0.0,0.0
13.642,3522.253,0.00028,0.0,0.0
13.649,3511.63,0.00028,0.0,0.0
13.655,3518.308,0.00028,0.0,0.0
13.661,3516.276,0.00028,0.0,0.0
13.668,3524.039,0.00028,0.0,0.0
13.674,3507.368,0.00029,0.0,0.0
13.68,3500.998,0.00029,0.0,0.0
13.686,3501.12,0.00029,0.0,0.0
13.693,3485.046,0.00029,0.0,0.0
13.699,3491.533,0.00029,0.0,0.0
13.705,3473.291,0.00029,0.0,0.0
13.712,3492.88,0.00029,0.0,0.0
13.718,3484.899,0.00029,0.0,0.0
13.724,3481.788,0.00029,0.0,0.0
13.731,3482.119,0.00029,0.0,0.0
13.737,3477.33,0.00029,0.0,0.0
13.743,3476.585,0.00029,0.0,0.0
13.75,3467.556,0.00029,0.0,0.0
13.756,3452.465,0.00029,0.0,0.0
13.762,3451.938,0.00029,0.0,0.0
13.769,3450.298,0.00029,0.0,0.0
13.775,3441.984,0.00029,0.0,0.0
13.781,3445.169,0.00029,0.0,0.0
13.788,3438.625,0.00029,0.0,0.0
13.794,3435.937,0.00029,0.0,0.0
13.8,3453.885,0.00029,0.0,0.0
13.807,3436.05,0.00029,0.0,0.0
13.813,3441.064,0.00029,0.0,0.0
13.819,3419.453,0.00029,0.0,0.0
13.826,3434.706,0.00029,0.0,0.0
13.832,3423.71,0.00029,0.0,0.0
13.838,3428.318,0.00029,0.0,0.0
13.844,3421.431,0.00029,0.0,0.0
13.851,3419.535,0.00029,0.0,0.0
13.857,3414.515,0.00029,0.0,0.0
13.863,3405.745,0.00029,0.0,0.0
13.87,3396.845,0.00029,0.0,0.0
13.876,3394.62,0.00029,0.0,0.0
13.882,3394.473,0.00029,0.0,0.0
13.889,3395.452,0.00029,0.0,0.0
13.895,3400.162,0.00029,0.0,0.0
13.901,3392.023,0.00029,0.0,0.0
13.908,3378.029,0.0003,0.0,0.0
13.914,3392.639,0.00029,0.0,0.0
13.92,3393.271,0.00029,0.0,0.0
13.927,3388.105,0.0003,0.0,0.0
13.933,3386.027,0.0003,0.0,0.0
13.939,3380.034,0.0003,0.0,0.0
13.946,3383.761,0.0003,0.0,0.0
13.952,3389.603,0.0003,0.0,0.0
13.958,3375.357,0.0003,0.0,0.0
13.965,3381.107,0.0003,0.0,0.0
13.971,3376.829,0.0003,0.0,0.0
13.977,3379.206,0.0003,0.0,0.0
13.984,3379.374,0.0003,0.0,0.0
13.99,3369.214,0.0003,0.0,0.0
13.996,3361.633,0.0003,0.0,0.0
14.002,3359.874,0.0003,0.0,0.0
14.009,3363.877,0.0003,0.0,0.0
14.015,3356.29,0.0003,0.0,0.0
14.021,3351.622,0.0003,0.0,0.0
14.028,3352.235,0.0003,0.0,0.0
14.034,3352.204,0.0003,0.0,0.0
14.04,3348.275,0.0003,0.0,0.0
14.047,3348.433,0.0003,0.0,0.0
14.053,3337.629,0.0003,0.0,0.0
14.059,3339.41,0.0003,0.0,0.0
14.066,3344.581,0.0003,0.0,0.0
14.072,3332.388,0.0003,0.0,0.0
14.078,3330.326,0.0003,0.0,0.0
14.085,3339.492,0.0003,0.0,0.0
14.091,3335.332,0.0003,0.0,0.0
14.097,3319.363,0.0003,0.0,0.0
14.104,3340.574,0.0003,0.0,0.0
14.11,3314.486,0.0003,0.0,0.0
14.116,3326.034,0.0003,0.0,0.0
14.123,3312.278,0.0003,0.0,0.0
14.129,3317.101,0.0003,0.0,0.0
14.135,3317.96,0.0003,0.0,0.0
14.142,3326.478,0.0003,0.0,0.0
14.148,3327.645,0.0003,0.0,0.0
14.154,3315.333,0.0003,0.0,0.0
14.16,3310.003,0.0003,0.0,0.0
14.167,3318.792,0.0003,0.0,0.0
14.173,3306.611,0.0003,0.0,0.0
14.179,3308.624,0.0003,0.0,0.0
14.186,3301.406,0.0003,0.0,0.0
14.192,3316.746,0.0003,0.0,0.0
14.198,3310.009,0.0003,0.0,0.0
14.205,3301.285,0.0003,0.0,0.0
14.211,3299.513,0.0003,0.0,0.0
14.217,3305.036,0.0003,0.0,0.0
14.224,3302.169,0.0003,0.0,0.0
14.23,3311.2,0.0003,0.0,0.0
14.236,3324.963,0.0003,0.0,0.0
14.243,3326.722,0.0003,0.0,0.0
14.249,3329.747,0.0003,0.0,0.0
14.255,3337.507,0.0003,0.0,0.0
14.262,3330.792,0.0003,0.0,0.0
14.268,3341.552,0.0003,0.0,0.0
14.274,3342.695,0.0003,0.0,0.0
14.281,3336.227,0.0003,0.0,0.0
14.287,3317.955,0.0003,0.0,0.0
14.293,3313.894,0.0003,0.0,0.0
14.3,3296.203,0.0003,0.0,0.0
14.306,3293.803,0.0003,0.0,0.0
14.312,3270.338,0.00031,0.0,0.0
14.318,3288.343,0.0003,0.0,0.0
14.325,3276.259,0.00031,0.0,0.0
14.331,3257.448,0.00031,0.0,0.0
14.337,3263.555,0.00031,0.0,0.0
14.344,3267.505,0.00031,0.0,0.0
14.35,3255.461,0.00031,0.0,0.0
14.356,3256.741,0.00031,0.0,0.0
14.363,3254.677,0.00031,0.0,0.0
14.369,3250.157,0.00031,0.0,0.0
14.375,3253.392,0.00031,0.0,0.0
14.382,3259.177,0.00031,0.0,0.0
14.388,3248.128,0.00031,0.0,0.0
14.394,3255.046,0.00031,0.0,0.0
14.401,3247.437,0.00031,0.0,0.0
14.407,3251.285,0.00031,0.0,0.0
14.413,3233.929,0.00031,0.0,0.0
14.42,3239.882,0.00031,0.0,0.0
14.426,3237.709,0.00031,0.0,0.0
14.432,3231.662,0.00031,0.0,0.0
14.439,3248.442,0.00031,0.0,0.0
14.445,3235.326,0.00031,0.0,0.0
14.451,3240.29,0.00031,0.0,0.0
14.458,3233.295,0.00031,0.0,0.0
14.464,3238.877,0.00031,0.0,0.0
14.47,3231.4,0.00031,0.0,0.0
14.476,3241.485,0.00031,0.0,0.0
14.483,3232.865,0.00031,0.0,0.0
14.489,3234.947,0.00031,0.0,0.0
14.495,3235.198,0.00031,0.0,0.0
14.502,3228.116,0.00031,0.0,0.0
14.508,3221.923,0.00031,0.0,0.0
14.514,3219.275,0.00031,0.0,0.0
14.521,3213.558,0.00031,0.0,0.0
14.527,3223.57,0.00031,0.0,0.0
14.533,3213.5,0.00031,0.0,0.0
14.54,3213.173,0.00031,0.0,0.0
14.546,3207.274,0.00031,0.0,0.0
14.552,3215.532,0.00031,0.0,0.0
14.559,3209.11,0.00031,0.0,0.0
14.565,3222.139,0.00031,0.0,0.0
14.571,3215.381,0.00031,0.0,0.0
14.578,3210.293,0.00031,0.0,0.0
14.584,3214.697,0.00031,0.0,0.0
14.59,3222.811,0.00031,0.0,0.0
14.597,3198.797,0.00031,0.0,0.0
14.603,3204.347,0.00031,0.0,0.0
14.609,3197.832,0.00031,0.0,0.0
14.616,3192.126,0.00031,0.0,0.0
14.622,3202.542,0.00031,0.0,0.0
14.628,3195.658,0.00031,0.0,0.0
14.634,3191.307,0.00031,0.0,0.0
14.641,3202.637,0.00031,0.0,0.0
14.647,3194.762,0.00031,0.0,0.0
14.653,3202.698,0.00031,0.0,0.0
14.66,3197.274,0.00031,0.0,0.0
14.666,3196.932,0.00031,0.0,0.0
14.672,3189.235,0.00031,0.0,0.0
14.679,3184.823,0.00031,0.0,0.0
14.685,3191.404,0.00031,0.0,0.0
14.691,3177.415,0.00031,0.0,0.0
14.698,3185.51,0.00031,0.0,0.0
14.704,3189.006,0.00031,0.0,0.0
14.71,3181.584,0.00031,0.0,0.0
14.717,3184.453,0.00031,0.0,0.0
14.723,3171.995,0.00032,0.0,0.0
14.729,3178.186,0.00031,0.0,0.0
14.736,3180.88,0.00031,0.0,0.0
14.742,3177.063,0.00031,0.0,0.0
14.748,3174.063,0.00032,0.0,0.0
14.755,3172.0,0.00032,0.0,0.0
14.761,3164.787,0.00032,0.0,0.0
14.767,3158.174,0.00032,0.0,0.0
14.774,3168.964,0.00032,0.0,0.0
14.78,3161.099,0.00032,0.0,0.0
14.786,3159.821,0.00032,0.0,0.0
14.792,3172.658,0.00032,0.0,0.0
14.799,3167.651,0.00032,0.0,0.0
14.805,3159.418,0.00032,0.0,0.0
14.811,3160.312,0.00032,0.0,0.0
14.818,3153.879,0.00032,0.0,0.0
14.824,3163.449,0.00032,0.0,0.0
14.83,3160.715,0.00032,0.0,0.0
14.837,3169.999,0.00032,0.0,0.0
14.843,3162.083,0.00032,0.0,0.0
14.849,3147.207,0.00032,0.0,0.0
14.856,3156.75,0.00032,0.0,0.0
14.862,3152.335,0.00032,0.0,0.0
14.868,3155.58,0.00032,0.0,0.0
14.875,3148.19,0.00032,0.0,0.0
14.881,3159.001,0.00032,0.0,0.0
14.887,3152.4,0.00032,0.0,0.0
14.894,3149.678,0.00032,0.0,0.0
14.9,3154.73,0.00032,0.0,0.0
14.906,3148.962,0.00032,0.0,0.0
14.913,3149.618,0.00032,0.0,0.0
14.919,3148.512,0.00032,0.0,0.0
14.925,3157.231,0.00032,0.0,0.0
14.932,3139.154,0.00032,0.0,0.0
14.938,3144.24,0.00032,0.0,0.0
14.944,3149.564,0.00032,0.0,0.0
14.95,3136.257,0.00032,0.0,0.0
14.957,3143.937,0.00032,0.0,0.0
14.963,3144.124,0.00032,0.0,0.0
14.969,3139.924,0.00032,0.0,0.0
14.976,3131.982,0.00032,0.0,0.0
14.982,3147.56,0.00032,0.0,0.0
14.988,3139.913,0.00032,0.0,0.0
14.995,3137.633,0.00032,0.0,0.0
15.001,3141.902,0.00032,0.0,0.0
15.007,3139.171,0.00032,0.0,0.0
15.014,3142.021,0.00032,0.0,0.0
15.02,3134.917,0.00032,0.0,0.0
15.026,3138.079,0.00032,0.0,0.0
15.033,3136.031,0.00032,0.0,0.0
15.039,3138.555,0.00032,0.0,0.0
15.045,3137.762,0.00032,0.0,0.0
15.052,3147.036,0.00032,0.0,0.0
15.058,3133.672,0.00032,0.0,0.0
15.064,3142.659,0.00032,0.0,0.0
15.071,3127.909,0.00032,0.0,0.0
15.077,3127.636,0.00032,0.0,0.0
15.083,3154.977,0.00032,0.0,0.0
15.09,3130.025,0.00032,0.0,0.0
15.096,3138.525,0.00032,0.0,0.0
15.102,3145.247,0.00032,0.0,0.0
15.108,3135.982,0.00032,0.0,0.0
15.115,3135.88,0.00032,0.0,0.0
15.121,3138.281,0.00032,0.0,0.0
15.127,3131.444,0.00032,0.0,0.0
15.134,3136.671,0.00032,0.0,0.0
15.14,3136.267,0.00032,0.0,0.0
15.146,3138.555,0.00032,0.0,0.0
15.153,3136.882,0.00032,0.0,0.0
15.159,3134.861,0.00032,0.0,0.0
15.165,3130.229,0.00032,0.0,0.0
15.172,3143.527,0.00032,0.0,0.0
15.178,3138.581,0.00032,0.0,0.0
15.184,3139.692,0.00032,0.0,0.0
15.191,3135.209,0.00032,0.0,0.0
15.197,3136.071,0.00032,0.0,0.0
15.203,3139.458,0.00032,0.0,0.0
15.21,3140.798,0.00032,0.0,0.0
15.216,3132.47,0.00032,0.0,0.0
15.222,3143.661,0.00032,0.0,0.0
15.229,3157.763,0.00032,0.0,0.0
15.235,3154.721,0.00032,0.0,0.0
15.241,3156.299,0.00032,0.0,0.0
15.248,3165.125,0.00032,0.0,0.0
15.254,3161.931,0.00032,0.0,0.0
15.26,3187.743,0.00031,0.0,0.0
15.266,3216.19,0.00031,0.0,0.0
15.273,3244.81,0.00031,0.0,0.0
15.279,3320.494,0.0003,0.0,0.0
15.285,3420.276,0.00029,0.0,0.0
15.292,3646.628,0.00027,0.0,0.0
15.298,3948.245,0.00025,0.0,0.0
15.304,4425.37,0.00023,0.0,0.0
15.311,5196.482,0.00019,0.0,0.0
15.317,5751.069,0.00017,0.0,0.0
15.323,6431.05,0.00016,0.0,0.0
15.33,6325.549,0.00016,0.0,0.0
15.336,6244.361,0.00016,0.0,0.0
15.342,5443.261,0.00018,0.0,0.0
15.349,4856.938,0.00021,0.0,0.0
15.355,4248.214,0.00024,0.0,0.0
15.361,3756.492,0.00027,0.0,0.0
15.368,3526.436,0.00028,0.0,0.0
15.374,3351.528,0.0003,0.0,0.0
15.38,3258.179,0.00031,0.0,0.0
15.387,3204.875,0.00031,0.0,0.0
15.393,3172.036,0.00032,0.0,0.0
15.399,3156.646,0.00032,0.0,0.0
15.406,3133.643,0.00032,0.0,0.0
15.412,3127.784,0.00032,0.0,0.0
15.418,3122.447,0.00032,0.0,0.0
15.424,3104.288,0.00032,0.0,0.0
15.431,3099.451,0.00032,0.0,0.0
15.437,3100.665,0.00032,0.0,0.0
15.443,3103.591,0.00032,0.0,0.0
15.45,3105.818,0.00032,0.0,0.0
15.456,3094.314,0.00032,0.0,0.0
15.462,3102.141,0.00032,0.0,0.0
15.469,3090.006,0.00032,0.0,0.0
15.475,3088.649,0.00032,0.0,0.0
15.481,3081.498,0.00032,0.0,0.0
15.488,3093.224,0.00032,0.0,0.0
15.494,3078.528,0.00032,0.0,0.0
15.5,3078.685,0.00032,0.0,0.0
15.507,3067.108,0.00033,0.0,0.0
15.513,3077.329,0.00032,0.0,0.0
15.519,3064.508,0.00033,0.0,0.0
15.526,3067.693,0.00033,0.0,0.0
15.532,3058.707,0.00033,0.0,0.0
15.538,3055.492,0.00033,0.0,0.0
15.545,3062.224,0.00033,0.0,0.0
15.551,3047.765,0.00033,0.0,0.0
15.557,3054.209,0.00033,0.0,0.0
15.564,3055.361,0.00033,0.0,0.0
15.57,3045.425,0.00033,0.0,0.0
15.576,3058.354,0.00033,0.0,0.0
15.582,3047.285,0.00033,0.0,0.0
15.589,3057.756,0.00033,0.0,0.0
15.595,3052.311,0.00033,0.0,0.0
15.601,3034.646,0.00033,0.0,0.0
15.608,3030.739,0.00033,0.0,0.0
15.614,3038.275,0.00033,0.0,0.0
15.62,3032.152,0.00033,0.0,0.0
15.627,3029.007,0.00033,0.0,0.0
15.633,3030.194,0.00033,0.0,0.0
15.639,3027.551,0.00033,0.0,0.0
15.646,3019.732,0.00033,0.0,0.0
15.652,3023.206,0.00033,0.0,0.0
15.658,3029.046,0.00033,0.0,0.0
15.665,3013.371,0.00033,0.0,0.0
15.671,3010.286,0.00033,0.0,0.0
15.677,3010.076,0.00033,0.0,0.0
15.684,3017.411,0.00033,0.0,0.0
15.69,3020.264,0.00033,0.0,0.0
15.696,3013.993,0.00033,0.0,0.0
15.703,3011.488,0.00033,0.0,0.0
15.709,3003.744,0.00033,0.0,0.0
15.715,3015.064,0.00033,0.0,0.0
15.722,3007.41,0.00033,0.0,0.0
15.728,3005.059,0.00033,0.0,0.0
15.734,2999.333,0.00033,0.0,0.0
15.74,2989.74,0.00033,0.0,0.0
15.747,2995.08,0.00033,0.0,0.0
15.753,3000.929,0.00033,0.0,0.0
15.759,2991.705,0.00033,0.0,0.0
15.766,2997.103,0.00033,0.0,0.0
15.772,2986.57,0.00033,0.0,0.0
15.778,2994.385,0.00033,0.0,0.0
15.785,2984.276,0.00034,0.0,0.0
15.791,2991.047,0.00033,0.0,0.0
15.797,2984.347,0.00034,0.0,0.0
15.804,2973.447,0.00034,0.0,0.0
15.81,2988.093,0.00033,0.0,0.0
15.816,2976.474,0.00034,0.0,0.0
15.823,2972.46,0.00034,0.0,0.0
15.829,2977.658,0.00034,0.0,0.0
15.835,2974.061,0.00034,0.0,0.0
15.842,2974.672,0.00034,0.0,0.0
15.848,3013.921,0.00033,0.0,0.0
15.854,2963.073,0.00034,0.0,0.0
15.861,2968.041,0.00034,0.0,0.0
15.867,2967.703,0.00034,0.0,0.0
15.873,2979.638,0.00034,0.0,0.0
15.88,2961.702,0.00034,0.0,0.0
15.886,2978.969,0.00034,0.0,0.0
15.892,2969.219,0.00034,0.0,0.0
15.898,2969.286,0.00034,0.0,0.0
15.905,2968.465,0.00034,0.0,0.0
15.911,2963.999,0.00034,0.0,0.0
15.917,2963.782,0.00034,0.0,0.0
15.924,2962.793,0.00034,0.0,0.0
15.93,2951.633,0.00034,0.0,0.0
15.936,2964.352,0.00034,0.0,0.0
15.943,2966.954,0.00034,0.0,0.0
15.949,2962.664,0.00034,0.0,0.0
15.955,2954.333,0.00034,0.0,0.0
15.962,2956.669,0.00034,0.0,0.0
15.968,2952.27,0.00034,0.0,0.0
15.974,2951.205,0.00034,0.0,0.0
15.981,2960.841,0.00034,0.0,0.0
15.987,2950.981,0.00034,0.0,0.0
15.993,2943.133,0.00034,0.0,0.0
16.0,2945.169,0.00034,0.0,0.0
16.006,2955.656,0.00034,0.0,0.0
16.012,2939.749,0.00034,0.0,0.0
16.019,2939.848,0.00034,0.0,0.0
16.025,2941.737,0.00034,0.0,0.0
16.031,2946.421,0.00034,0.0,0.0
16.038,2931.836,0.00034,0.0,0.0
16.044,2950.573,0.00034,0.0,0.0
16.05,2935.893,0.00034,0.0,0.0
16.056,2944.345,0.00034,0.0,0.0
16.063,2936.608,0.00034,0.0,0.0
16.069,2933.622,0.00034,0.0,0.0
16.075,2929.361,0.00034,0.0,0.0
16.082,2930.799,0.00034,0.0,0.0
16.088,2926.348,0.00034,0.0,0.0
16.094,2919.434,0.00034,0.0,0.0
16.101,2939.243,0.00034,0.0,0.0
16.107,2925.181,0.00034,0.0,0.0
16.113,2917.857,0.00034,0.0,0.0
16.12,2927.217,0.00034,0.0,0.0
16.126,2925.796,0.00034,0.0,0.0
16.132,2922.192,0.00034,0.0,0.0
16.139,2921.619,0.00034,0.0,0.0
16.145,2925.385,0.00034,0.0,0.0
16.151,2934.415,0.00034,0.0,0.0
16.158,2921.578,0.00034,0.0,0.0
16.164,2927.558,0.00034,0.0,0.0
16.17,2922.956,0.00034,0.0,0.0
16.177,2920.11,0.00034,0.0,0.0
16.183,2916.006,0.00034,0.0,0.0
16.189,2924.067,0.00034,0.0,0.0
16.196,2920.293,0.00034,0.0,0.0
16.202,2910.964,0.00034,0.0,0.0
16.208,2906.535,0.00034,0.0,0.0
16.214,2915.131,0.00034,0.0,0.0
16.221,2908.002,0.00034,0.0,0.0
16.227,2922.913,0.00034,0.0,0.0
16.233,2920.893,0.00034,0.0,0.0
16.24,2910.275,0.00034,0.0,0.0
16.246,2912.625,0.00034,0.0,0.0
16.252,2918.161,0.00034,0.0,0.0
16.259,2898.468,0.00035,0.0,0.0
16.265,2912.416,0.00034,0.0,0.0
16.271,2899.836,0.00034,0.0,0.0
16.278,2910.611,0.00034,0.0,0.0
16.284,2903.328,0.00034,0.0,0.0
16.29,2900.484,0.00034,0.0,0.0
16.297,2911.589,0.00034,0.0,0.0
16.303,2911.419,0.00034,0.0,0.0
16.309,2910.75,0.00034,0.0,0.0
16.316,2915.982,0.00034,0.0,0.0
16.322,2920.87,0.00034,0.0,0.0
16.328,2915.071,0.00034,0.0,0.0
16.335,2919.96,0.00034,0.0,0.0
16.341,2914.745,0.00034,0.0,0.0
16.347,2910.106,0.00034,0.0,0.0
16.354,2910.996,0.00034,0.0,0.0
16.36,2911.901,0.00034,0.0,0.0
16.366,2909.431,0.00034,0.0,0.0
16.372,2904.043,0.00034,0.0,0.0
16.379,2900.87,0.00034,0.0,0.0
16.385,2898.507,0.00035,0.0,0.0
16.391,2900.956,0.00034,0.0,0.0
16.398,2902.442,0.00034,0.0,0.0
16.404,2909.389,0.00034,0.0,0.0
16.41,2909.655,0.00034,0.0,0.0
16.417,2908.025,0.00034,0.0,0.0
16.423,2900.893,0.00034,0.0,0.0
16.429,2911.891,0.00034,0.0,0.0
16.436,2908.329,0.00034,0.0,0.0
16.442,2908.155,0.00034,0.0,0.0
16.448,2902.654,0.00034,0.0,0.0
16.455,2905.607,0.00034,0.0,0.0
16.461,2899.578,0.00034,0.0,0.0
16.467,2902.544,0.00034,0.0,0.0
16.474,2908.314,0.00034,0.0,0.0
16.48,2913.102,0.00034,0.0,0.0
16.486,2916.133,0.00034,0.0,0.0
16.493,2908.796,0.00034,0.0,0.0
16.499,2920.977,0.00034,0.0,0.0
16.505,2913.75,0.00034,0.0,0.0
16.512,2913.76,0.00034,0.0,0.0
16.518,2917.53,0.00034,0.0,0.0
16.524,2917.575,0.00034,0.0,0.0
16.53,2918.463,0.00034,0.0,0.0
16.537,2911.135,0.00034,0.0,0.0
16.543,2907.857,0.00034,0.0,0.0
16.549,2913.441,0.00034,0.0,0.0
16.556,2927.534,0.00034,0.0,0.0
16.562,2918.379,0.00034,0.0,0.0
16.568,2908.1,0.00034,0.0,0.0
16.575,2924.52,0.00034,0.0,0.0
16.581,2911.932,0.00034,0.0,0.0
16.587,2915.413,0.00034,0.0,0.0
16.594,2934.54,0.00034,0.0,0.0
