"x","y_obs","weight","y_calc","y_bkg"
0.8,2837.466,0.00035,0.0,0.0
0.806,3175.302,0.00031,0.0,0.0
0.813,3283.538,0.0003,0.0,0.0
0.819,3205.823,0.00031,0.0,0.0
0.825,3840.009,0.00026,0.0,0.0
0.832,3604.381,0.00028,0.0,0.0
0.838,3900.157,0.00026,0.0,0.0
0.844,4184.29,0.00024,0.0,0.0
0.851,4088.5,0.00024,0.0,0.0
0.857,4481.236,0.00022,0.0,0.0
0.863,4890.9,0.0002,0.0,0.0
0.87,4464.72,0.00022,0.0,0.0
0.876,5326.23,0.00019,0.0,0.0
0.882,5226.523,0.00019,0.0,0.0
0.888,5462.635,0.00018,0.0,0.0
0.895,5638.461,0.00018,0.0,0.0
0.901,5676.327,0.00018,0.0,0.0
0.907,6188.753,0.00016,0.0,0.0
0.914,6344.998,0.00016,0.0,0.0
0.92,6041.055,0.00017,0.0,0.0
0.926,6643.08,0.00015,0.0,0.0
0.933,6664.684,0.00015,0.0,0.0
0.939,6508.145,0.00015,0.0,0.0
0.945,7062.128,0.00014,0.0,0.0
0.952,6766.101,0.00015,0.0,0.0
0.958,7074.217,0.00014,0.0,0.0
0.964,7161.78,0.00014,0.0,0.0
0.971,6940.845,0.00014,0.0,0.0
0.977,7434.712,0.00013,0.0,0.0
0.983,7347.756,0.00014,0.0,0.0
0.99,7225.919,0.00014,0.0,0.0
0.996,7545.576,0.00013,0.0,0.0
1.002,7262.697,0.00014,0.0,0.0
1.009,7413.851,0.00013,0.0,0.0
1.015,7551.017,0.00013,0.0,0.0
1.021,7307.814,0.00014,0.0,0.0
1.028,7587.803,0.00013,0.0,0.0
1.034,7432.26,0.00013,0.0,0.0
1.04,7425.421,0.00013,0.0,0.0
1.046,7479.645,0.00013,0.0,0.0
1.053,7441.974,0.00013,0.0,0.0
1.059,7457.247,0.00013,0.0,0.0
1.065,7573.363,0.00013,0.0,0.0
1.072,7365.198,0.00014,0.0,0.0
1.078,7447.782,0.00013,0.0,0.0
1.084,7343.022,0.00014,0.0,0.0
1.091,7422.864,0.00013,0.0,0.0
1.097,7342.043,0.00014,0.0,0.0
1.103,7323.026,0.00014,0.0,0.0
1.11,7294.916,0.00014,0.0,0.0
1.116,7258.968,0.00014,0.0,0.0
1.122,7163.144,0.00014,0.0,0.0
1.129,7163.586,0.00014,0.0,0.0
1.135,7131.545,0.00014,0.0,0.0
1.141,7080.899,0.00014,0.0,0.0
1.148,7084.284,0.00014,0.0,0.0
1.154,7007.419,0.00014,0.0,0.0
1.16,6964.87,0.00014,0.0,0.0
1.167,6894.447,0.00015,0.0,0.0
1.173,6900.113,0.00014,0.0,0.0
1.179,6830.844,0.00015,0.0,0.0
1.186,6813.858,0.00015,0.0,0.0
1.192,6778.487,0.00015,0.0,0.0
1.198,6726.763,0.00015,0.0,0.0
1.204,6632.686,0.00015,0.0,0.0
1.211,6669.822,0.00015,0.0,0.0
1.217,6586.936,0.00015,0.0,0.0
1.223,6532.956,0.00015,0.0,0.0
1.23,6521.202,0.00015,0.0,0.0
1.236,6497.467,0.00015,0.0,0.0
1.242,6432.158,0.00016,0.0,0.0
1.249,6468.68,0.00015,0.0,0.0
1.255,6406.292,0.00016,0.0,0.0
1.261,6358.343,0.00016,0.0,0.0
1.268,6363.921,0.00016,0.0,0.0
1.274,6302.323,0.00016,0.0,0.0
1.28,6276.564,0.00016,0.0,0.0
1.287,6250.907,0.00016,0.0,0.0
1.293,6268.716,0.00016,0.0,0.0
1.299,6209.135,0.00016,0.0,0.0
1.306,6209.929,0.00016,0.0,0.0
1.312,6144.68,0.00016,0.0,0.0
1.318,6160.429,0.00016,0.0,0.0
1.325,6133.781,0.00016,0.0,0.0
1.331,6152.018,0.00016,0.0,0.0
1.337,6109.651,0.00016,0.0,0.0
1.344,6070.882,0.00016,0.0,0.0
1.35,6083.764,0.00016,0.0,0.0
1.356,6043.037,0.00017,0.0,0.0
1.362,6032.726,0.00017,0.0,0.0
1.369,6040.662,0.00017,0.0,0.0
1.375,5999.114,0.00017,0.0,0.0
1.381,5991.316,0.00017,0.0,0.0
1.388,6041.821,0.00017,0.0,0.0
1.394,5974.017,0.00017,0.0,0.0
1.4,6027.687,0.00017,0.0,0.0
1.407,5951.69,0.00017,0.0,0.0
1.413,5988.427,0.00017,0.0,0.0
1.419,5899.061,0.00017,0.0,0.0
1.426,5972.606,0.00017,0.0,0.0
1.432,5989.935,0.00017,0.0,0.0
1.438,5973.927,0.00017,0.0,0.0
1.445,5960.402,0.00017,0.0,0.0
1.451,5941.565,0.00017,0.0,0.0
1.457,5964.341,0.00017,0.0,0.0
1.464,5945.495,0.00017,0.0,0.0
1.47,5941.011,0.00017,0.0,0.0
1.476,5957.796,0.00017,0.0,0.0
1.483,5977.694,0.00017,0.0,0.0
1.489,5969.596,0.00017,0.0,0.0
1.495,5928.179,0.00017,0.0,0.0
1.502,5964.868,0.00017,0.0,0.0
1.508,5915.526,0.00017,0.0,0.0
1.514,5952.897,0.00017,0.0,0.0
1.52,5960.615,0.00017,0.0,0.0
1.527,5980.044,0.00017,0.0,0.0
1.533,6019.253,0.00017,0.0,0.0
1.539,5933.767,0.00017,0.0,0.0
1.546,5941.415,0.00017,0.0,0.0
1.552,6019.432,0.00017,0.0,0.0
1.558,5992.855,0.00017,0.0,0.0
1.565,6022.427,0.00017,0.0,0.0
1.571,6001.433,0.00017,0.0,0.0
1.577,6016.797,0.00017,0.0,0.0
1.584,6041.596,0.00017,0.0,0.0
1.59,6118.514,0.00016,0.0,0.0
1.596,6036.505,0.00017,0.0,0.0
1.603,6071.245,0.00016,0.0,0.0
1.609,6069.77,0.00016,0.0,0.0
1.615,6088.5,0.00016,0.0,0.0
1.622,6104.167,0.00016,0.0,0.0
1.628,6127.093,0.00016,0.0,0.0
1.634,6120.986,0.00016,0.0,0.0
1.641,6165.405,0.00016,0.0,0.0
1.647,6132.383,0.00016,0.0,0.0
1.653,6150.933,0.00016,0.0,0.0
1.66,6203.466,0.00016,0.0,0.0
1.666,6195.718,0.00016,0.0,0.0
1.672,6220.238,0.00016,0.0,0.0
1.678,6250.099,0.00016,0.0,0.0
1.685,6249.537,0.00016,0.0,0.0
1.691,6267.621,0.00016,0.0,0.0
1.697,6290.554,0.00016,0.0,0.0
1.704,6300.922,0.00016,0.0,0.0
1.71,6304.584,0.00016,0.0,0.0
1.716,6329.297,0.00016,0.0,0.0
1.723,6308.601,0.00016,0.0,0.0
1.729,6340.591,0.00016,0.0,0.0
1.735,6354.075,0.00016,0.0,0.0
1.742,6356.919,0.00016,0.0,0.0
1.748,6363.049,0.00016,0.0,0.0
1.754,6397.304,0.00016,0.0,0.0
1.761,6411.195,0.00016,0.0,0.0
1.767,6434.313,0.00016,0.0,0.0
1.773,6449.636,0.00016,0.0,0.0
1.78,6432.986,0.00016,0.0,0.0
1.786,6473.805,0.00015,0.0,0.0
1.792,6436.297,0.00016,0.0,0.0
1.799,6458.212,0.00015,0.0,0.0
1.805,6479.506,0.00015,0.0,0.0
1.811,6490.476,0.00015,0.0,0.0
1.818,6466.462,0.00015,0.0,0.0
1.824,6489.896,0.00015,0.0,0.0
1.83,6493.676,0.00015,0.0,0.0
1.836,6487.076,0.00015,0.0,0.0
1.843,6480.769,0.00015,0.0,0.0
1.849,6464.977,0.00015,0.0,0.0
1.855,6461.983,0.00015,0.0,0.0
1.862,6499.548,0.00015,0.0,0.0
1.868,6516.689,0.00015,0.0,0.0
1.874,6526.908,0.00015,0.0,0.0
1.881,6534.621,0.00015,0.0,0.0
1.887,6534.712,0.00015,0.0,0.0
1.893,6539.44,0.00015,0.0,0.0
1.9,6518.928,0.00015,0.0,0.0
1.906,6515.003,0.00015,0.0,0.0
1.912,6548.139,0.00015,0.0,0.0
1.919,6488.56,0.00015,0.0,0.0
1.925,6487.895,0.00015,0.0,0.0
1.931,6520.54,0.00015,0.0,0.0
1.938,6524.92,0.00015,0.0,0.0
1.944,6508.592,0.00015,0.0,0.0
1.95,6481.359,0.00015,0.0,0.0
1.957,6470.029,0.00015,0.0,0.0
1.963,6509.219,0.00015,0.0,0.0
1.969,6528.338,0.00015,0.0,0.0
1.976,6527.406,0.00015,0.0,0.0
1.982,6504.984,0.00015,0.0,0.0
1.988,6556.044,0.00015,0.0,0.0
1.994,6522.209,0.00015,0.0,0.0
2.001,6531.709,0.00015,0.0,0.0
2.007,6568.595,0.00015,0.0,0.0
2.013,6567.129,0.00015,0.0,0.0
2.02,6555.151,0.00015,0.0,0.0
2.026,6542.375,0.00015,0.0,0.0
2.032,6541.282,0.00015,0.0,0.0
2.039,6557.928,0.00015,0.0,0.0
2.045,6520.412,0.00015,0.0,0.0
2.051,6582.88,0.00015,0.0,0.0
2.058,6590.626,0.00015,0.0,0.0
2.064,6574.896,0.00015,0.0,0.0
2.07,6586.926,0.00015,0.0,0.0
2.077,6584.37,0.00015,0.0,0.0
2.083,6603.27,0.00015,0.0,0.0
2.089,6619.718,0.00015,0.0,0.0
2.096,6598.89,0.00015,0.0,0.0
2.102,6635.653,0.00015,0.0,0.0
2.108,6639.954,0.00015,0.0,0.0
2.115,6630.611,0.00015,0.0,0.0
2.121,6635.895,0.00015,0.0,0.0
2.127,6646.822,0.00015,0.0,0.0
2.134,6669.72,0.00015,0.0,0.0
2.14,6664.428,0.00015,0.0,0.0
2.146,6706.018,0.00015,0.0,0.0
2.152,6717.529,0.00015,0.0,0.0
2.159,6730.641,0.00015,0.0,0.0
2.165,6725.932,0.00015,0.0,0.0
2.171,6752.584,0.00015,0.0,0.0
2.178,6759.334,0.00015,0.0,0.0
2.184,6775.535,0.00015,0.0,0.0
2.19,6795.707,0.00015,0.0,0.0
2.197,6775.039,0.00015,0.0,0.0
2.203,6847.967,0.00015,0.0,0.0
2.209,6823.754,0.00015,0.0,0.0
2.216,6868.065,0.00015,0.0,0.0
2.222,6855.765,0.00015,0.0,0.0
2.228,6942.529,0.00014,0.0,0.0
2.235,6930.278,0.00014,0.0,0.0
2.241,6906.719,0.00014,0.0,0.0
2.247,6931.483,0.00014,0.0,0.0
2.254,6964.799,0.00014,0.0,0.0
2.26,6970.453,0.00014,0.0,0.0
2.266,6973.974,0.00014,0.0,0.0
2.273,7007.249,0.00014,0.0,0.0
2.279,7023.824,0.00014,0.0,0.0
2.285,7054.543,0.00014,0.0,0.0
2.292,7071.609,0.00014,0.0,0.0
2.298,7114.875,0.00014,0.0,0.0
2.304,7117.476,0.00014,0.0,0.0
2.31,7140.013,0.00014,0.0,0.0
2.317,7150.986,0.00014,0.0,0.0
2.323,7156.399,0.00014,0.0,0.0
2.329,7205.39,0.00014,0.0,0.0
2.336,7229.983,0.00014,0.0,0.0
2.342,7276.025,0.00014,0.0,0.0
2.348,7285.896,0.00014,0.0,0.0
2.355,7329.854,0.00014,0.0,0.0
2.361,7355.711,0.00014,0.0,0.0
2.367,7422.908,0.00013,0.0,0.0
2.374,7445.057,0.00013,0.0,0.0
2.38,7504.808,0.00013,0.0,0.0
2.386,7566.461,0.00013,0.0,0.0
2.393,7632.793,0.00013,0.0,0.0
2.399,7773.658,0.00013,0.0,0.0
2.405,7981.103,0.00013,0.0,0.0
2.412,8213.177,0.00012,0.0,0.0
2.418,8390.469,0.00012,0.0,0.0
2.424,8624.83,0.00012,0.0,0.0
2.431,8622.106,0.00012,0.0,0.0
2.437,8470.682,0.00012,0.0,0.0
2.443,8339.774,0.00012,0.0,0.0
2.45,8157.361,0.00012,0.0,0.0
2.456,8013.729,0.00012,0.0,0.0
2.462,7956.134,0.00013,0.0,0.0
2.468,7897.491,0.00013,0.0,0.0
2.475,7915.013,0.00013,0.0,0.0
2.481,7892.764,0.00013,0.0,0.0
2.487,7899.005,0.00013,0.0,0.0
2.494,7930.076,0.00013,0.0,0.0
2.5,7966.087,0.00013,0.0,0.0
2.506,7987.894,0.00013,0.0,0.0
2.513,8015.888,0.00012,0.0,0.0
2.519,8060.837,0.00012,0.0,0.0
2.525,8053.794,0.00012,0.0,0.0
2.532,8089.635,0.00012,0.0,0.0
2.538,8103.217,0.00012,0.0,0.0
2.544,8193.033,0.00012,0.0,0.0
2.551,8197.387,0.00012,0.0,0.0
2.557,8235.923,0.00012,0.0,0.0
2.563,8278.269,0.00012,0.0,0.0
2.57,8304.492,0.00012,0.0,0.0
2.576,8294.867,0.00012,0.0,0.0
2.582,8334.743,0.00012,0.0,0.0
2.589,8353.797,0.00012,0.0,0.0
2.595,8376.373,0.00012,0.0,0.0
2.601,8416.692,0.00012,0.0,0.0
2.608,8481.717,0.00012,0.0,0.0
2.614,8498.724,0.00012,0.0,0.0
2.62,8569.916,0.00012,0.0,0.0
2.626,8561.088,0.00012,0.0,0.0
2.633,8617.916,0.00012,0.0,0.0
2.639,8652.4,0.00012,0.0,0.0
2.645,8680.836,0.00012,0.0,0.0
2.652,8721.398,0.00011,0.0,0.0
2.658,8764.222,0.00011,0.0,0.0
2.664,8767.162,0.00011,0.0,0.0
2.671,8779.655,0.00011,0.0,0.0
2.677,8823.226,0.00011,0.0,0.0
2.683,8876.51,0.00011,0.0,0.0
2.69,8917.199,0.00011,0.0,0.0
2.696,8924.987,0.00011,0.0,0.0
2.702,8958.233,0.00011,0.0,0.0
2.709,9020.778,0.00011,0.0,0.0
2.715,9028.987,0.00011,0.0,0.0
2.721,9070.777,0.00011,0.0,0.0
2.728,9106.986,0.00011,0.0,0.0
2.734,9137.949,0.00011,0.0,0.0
2.74,9175.996,0.00011,0.0,0.0
2.747,9219.442,0.00011,0.0,0.0
2.753,9253.106,0.00011,0.0,0.0
2.759,9286.461,0.00011,0.0,0.0
2.766,9332.078,0.00011,0.0,0.0
2.772,9358.862,0.00011,0.0,0.0
2.778,9378.923,0.00011,0.0,0.0
2.784,9451.492,0.00011,0.0,0.0
2.791,9484.103,0.00011,0.0,0.0
2.797,9524.566,0.0001,0.0,0.0
2.803,9561.223,0.0001,0.0,0.0
2.81,9594.477,0.0001,0.0,0.0
2.816,9640.621,0.0001,0.0,0.0
2.822,9688.544,0.0001,0.0,0.0
2.829,9691.137,0.0001,0.0,0.0
2.835,9745.244,0.0001,0.0,0.0
2.841,9767.326,0.0001,0.0,0.0
2.848,9801.268,0.0001,0.0,0.0
2.854,9851.273,0.0001,0.0,0.0
2.86,9879.419,0.0001,0.0,0.0
2.867,9899.832,0.0001,0.0,0.0
2.873,9911.885,0.0001,0.0,0.0
2.879,9949.785,0.0001,0.0,0.0
2.886,10015.8,0.0001,0.0,0.0
2.892,10031.11,0.0001,0.0,0.0
2.898,10082.796,0.0001,0.0,0.0
2.905,10101.737,0.0001,0.0,0.0
2.911,10152.292,0.0001,0.0,0.0
2.917,10185.261,0.0001,0.0,0.0
2.924,10199.963,0.0001,0.0,0.0
2.93,10248.133,0.0001,0.0,0.0
2.936,10269.572,0.0001,0.0,0.0
2.942,10312.048,0.0001,0.0,0.0
2.949,10335.295,0.0001,0.0,0.0
2.955,10370.382,0.0001,0.0,0.0
2.961,10410.338,0.0001,0.0,0.0
2.968,10416.205,0.0001,0.0,0.0
2.974,10459.452,0.0001,0.0,0.0
2.98,10474.661,0.0001,0.0,0.0
2.987,10512.014,0.0001,0.0,0.0
2.993,10521.376,0.0001,0.0,0.0
2.999,10553.553,0.00009,0.0,0.0
3.006,10553.144,0.00009,0.0,0.0
3.012,10590.635,0.00009,0.0,0.0
3.018,10581.121,0.00009,0.0,0.0
3.025,10613.97,0.00009,0.0,0.0
3.031,10620.799,0.00009,0.0,0.0
3.037,10643.842,0.00009,0.0,0.0
3.044,10626.67,0.00009,0.0,0.0
3.05,10640.728,0.00009,0.0,0.0
3.056,10661.661,0.00009,0.0,0.0
3.063,10690.858,0.00009,0.0,0.0
3.069,10676.158,0.00009,0.0,0.0
3.075,10678.615,0.00009,0.0,0.0
3.082,10696.085,0.00009,0.0,0.0
3.088,10716.566,0.00009,0.0,0.0
3.094,10693.537,0.00009,0.0,0.0
3.1,10703.698,0.00009,0.0,0.0
3.107,10713.061,0.00009,0.0,0.0
3.113,10706.719,0.00009,0.0,0.0
3.119,10700.775,0.00009,0.0,0.0
3.126,10679.038,0.00009,0.0,0.0
3.132,10681.18,0.00009,0.0,0.0
3.138,10681.275,0.00009,0.0,0.0
3.145,10663.606,0.00009,0.0,0.0
3.151,10674.299,0.00009,0.0,0.0
3.157,10630.149,0.00009,0.0,0.0
3.164,10630.415,0.00009,0.0,0.0
3.17,10635.199,0.00009,0.0,0.0
3.176,10624.854,0.00009,0.0,0.0
3.183,10603.713,0.00009,0.0,0.0
3.189,10575.96,0.00009,0.0,0.0
3.195,10554.202,0.00009,0.0,0.0
3.202,10564.013,0.00009,0.0,0.0
3.208,10536.426,0.00009,0.0,0.0
3.214,10530.234,0.00009,0.0,0.0
3.221,10488.519,0.0001,0.0,0.0
3.227,10488.912,0.0001,0.0,0.0
3.233,10448.103,0.0001,0.0,0.0
3.24,10412.298,0.0001,0.0,0.0
3.246,10424.594,0.0001,0.0,0.0
3.252,10424.548,0.0001,0.0,0.0
3.258,10379.811,0.0001,0.0,0.0
3.265,10369.848,0.0001,0.0,0.0
3.271,10330.2,0.0001,0.0,0.0
3.277,10281.621,0.0001,0.0,0.0
3.284,10267.227,0.0001,0.0,0.0
3.29,10263.858,0.0001,0.0,0.0
3.296,10230.442,0.0001,0.0,0.0
3.303,10192.459,0.0001,0.0,0.0
3.309,10192.519,0.0001,0.0,0.0
3.315,10161.567,0.0001,0.0,0.0
3.322,10136.003,0.0001,0.0,0.0
3.328,10106.365,0.0001,0.0,0.0
3.334,10095.307,0.0001,0.0,0.0
3.341,10069.758,0.0001,0.0,0.0
3.347,10026.541,0.0001,0.0,0.0
3.353,9990.787,0.0001,0.0,0.0
3.36,9926.093,0.0001,0.0,0.0
3.366,9941.177,0.0001,0.0,0.0
3.372,9919.66,0.0001,0.0,0.0
3.379,9889.335,0.0001,0.0,0.0
3.385,9859.382,0.0001,0.0,0.0
3.391,9832.114,0.0001,0.0,0.0
3.398,9830.853,0.0001,0.0,0.0
3.404,9789.505,0.0001,0.0,0.0
3.41,9746.647,0.0001,0.0,0.0
3.416,9743.533,0.0001,0.0,0.0
3.423,9692.03,0.0001,0.0,0.0
3.429,9709.535,0.0001,0.0,0.0
3.435,9670.559,0.0001,0.0,0.0
3.442,9643.015,0.0001,0.0,0.0
3.448,9625.886,0.0001,0.0,0.0
3.454,9626.579,0.0001,0.0,0.0
3.461,9549.021,0.0001,0.0,0.0
3.467,9540.277,0.0001,0.0,0.0
3.473,9533.449,0.0001,0.0,0.0
3.48,9483.606,0.00011,0.0,0.0
3.486,9464.193,0.00011,0.0,0.0
3.492,9427.834,0.00011,0.0,0.0
3.499,9432.873,0.00011,0.0,0.0
3.505,9398.012,0.00011,0.0,0.0
3.511,9352.56,0.00011,0.0,0.0
3.518,9377.69,0.00011,0.0,0.0
3.524,9334.508,0.00011,0.0,0.0
3.53,9312.546,0.00011,0.0,0.0
3.537,9322.267,0.00011,0.0,0.0
3.543,9255.97,0.00011,0.0,0.0
3.549,9262.157,0.00011,0.0,0.0
3.556,9278.113,0.00011,0.0,0.0
3.562,9210.889,0.00011,0.0,0.0
3.568,9207.513,0.00011,0.0,0.0
3.574,9207.519,0.00011,0.0,0.0
3.581,9192.412,0.00011,0.0,0.0
3.587,9183.553,0.00011,0.0,0.0
3.593,9157.403,0.00011,0.0,0.0
3.6,9156.744,0.00011,0.0,0.0
3.606,9159.939,0.00011,0.0,0.0
3.612,9118.436,0.00011,0.0,0.0
3.619,9108.503,0.00011,0.0,0.0
3.625,9103.63,0.00011,0.0,0.0
3.631,9107.769,0.00011,0.0,0.0
3.638,9093.162,0.00011,0.0,0.0
3.644,9085.584,0.00011,0.0,0.0
3.65,9095.558,0.00011,0.0,0.0
3.657,9090.672,0.00011,0.0,0.0
3.663,9089.571,0.00011,0.0,0.0
3.669,9094.131,0.00011,0.0,0.0
3.676,9104.12,0.00011,0.0,0.0
3.682,9101.128,0.00011,0.0,0.0
3.688,9100.906,0.00011,0.0,0.0
3.695,9113.551,0.00011,0.0,0.0
3.701,9129.187,0.00011,0.0,0.0
3.707,9163.988,0.00011,0.0,0.0
3.714,9163.376,0.00011,0.0,0.0
3.72,9202.334,0.00011,0.0,0.0
3.726,9187.622,0.00011,0.0,0.0
3.732,9228.865,0.00011,0.0,0.0
3.739,9267.661,0.00011,0.0,0.0
3.745,9275.571,0.00011,0.0,0.0
3.751,9326.777,0.00011,0.0,0.0
3.758,9384.464,0.00011,0.0,0.0
3.764,9391.107,0.00011,0.0,0.0
3.77,9421.124,0.00011,0.0,0.0
3.777,9514.047,0.00011,0.0,0.0
3.783,9498.043,0.00011,0.0,0.0
3.789,9611.207,0.0001,0.0,0.0
3.796,9615.897,0.0001,0.0,0.0
3.802,9675.008,0.0001,0.0,0.0
3.808,9740.252,0.0001,0.0,0.0
3.815,9731.873,0.0001,0.0,0.0
3.821,9779.251,0.0001,0.0,0.0
3.827,9826.339,0.0001,0.0,0.0
3.834,9826.841,0.0001,0.0,0.0
3.84,9865.904,0.0001,0.0,0.0
3.846,9867.104,0.0001,0.0,0.0
3.853,9910.179,0.0001,0.0,0.0
3.859,9929.495,0.0001,0.0,0.0
3.865,9909.042,0.0001,0.0,0.0
3.872,9922.662,0.0001,0.0,0.0
3.878,9892.649,0.0001,0.0,0.0
3.884,9880.3,0.0001,0.0,0.0
3.89,9885.063,0.0001,0.0,0.0
3.897,9840.564,0.0001,0.0,0.0
3.903,9781.882,0.0001,0.0,0.0
3.909,9821.963,0.0001,0.0,0.0
3.916,9689.078,0.0001,0.0,0.0
3.922,9702.202,0.0001,0.0,0.0
3.928,9624.105,0.0001,0.0,0.0
3.935,9543.326,0.0001,0.0,0.0
3.941,9569.604,0.0001,0.0,0.0
3.947,9464.706,0.00011,0.0,0.0
3.954,9399.398,0.00011,0.0,0.0
3.96,9391.393,0.00011,0.0,0.0
3.966,9267.259,0.00011,0.0,0.0
3.973,9249.352,0.00011,0.0,0.0
3.979,9153.325,0.00011,0.0,0.0
3.985,9058.794,0.00011,0.0,0.0
3.992,9122.604,0.00011,0.0,0.0
3.998,8987.704,0.00011,0.0,0.0
4.004,8905.25,0.00011,0.0,0.0
4.011,8933.499,0.00011,0.0,0.0
4.017,8786.034,0.00011,0.0,0.0
4.023,8812.146,0.00011,0.0,0.0
4.03,8722.487,0.00011,0.0,0.0
4.036,8626.636,0.00012,0.0,0.0
4.042,8688.909,0.00012,0.0,0.0
4.048,8585.645,0.00012,0.0,0.0
4.055,8543.794,0.00012,0.0,0.0
4.061,8563.036,0.00012,0.0,0.0
4.067,8458.193,0.00012,0.0,0.0
4.074,8461.757,0.00012,0.0,0.0
4.08,8431.466,0.00012,0.0,0.0
4.086,8331.757,0.00012,0.0,0.0
4.093,8417.068,0.00012,0.0,0.0
4.099,8311.883,0.00012,0.0,0.0
4.105,8298.464,0.00012,0.0,0.0
4.112,8342.227,0.00012,0.0,0.0
4.118,8202.756,0.00012,0.0,0.0
4.124,8246.484,0.00012,0.0,0.0
4.131,8182.943,0.00012,0.0,0.0
4.137,8147.872,0.00012,0.0,0.0
4.143,8214.303,0.00012,0.0,0.0
4.15,8138.6,0.00012,0.0,0.0
4.156,8105.635,0.00012,0.0,0.0
4.162,8177.277,0.00012,0.0,0.0
4.169,8057.499,0.00012,0.0,0.0
4.175,8102.897,0.00012,0.0,0.0
4.181,8112.261,0.00012,0.0,0.0
4.188,8007.072,0.00012,0.0,0.0
4.194,8099.704,0.00012,0.0,0.0
4.2,8037.508,0.00012,0.0,0.0
4.206,8024.408,0.00012,0.0,0.0
4.213,8077.605,0.00012,0.0,0.0
4.219,7971.012,0.00013,0.0,0.0
4.225,8045.348,0.00012,0.0,0.0
4.232,8017.488,0.00012,0.0,0.0
4.238,7965.551,0.00013,0.0,0.0
4.244,8015.569,0.00012,0.0,0.0
4.251,7979.75,0.00013,0.0,0.0
4.257,7909.445,0.00013,0.0,0.0
4.263,8006.22,0.00012,0.0,0.0
4.27,7924.496,0.00013,0.0,0.0
4.276,8006.462,0.00012,0.0,0.0
4.282,7977.307,0.00013,0.0,0.0
4.289,7941.542,0.00013,0.0,0.0
4.295,7973.242,0.00013,0.0,0.0
4.301,7943.385,0.00013,0.0,0.0
4.308,7972.785,0.00013,0.0,0.0
4.314,7959.123,0.00013,0.0,0.0
4.32,7934.528,0.00013,0.0,0.0
4.327,7915.657,0.00013,0.0,0.0
4.333,8041.952,0.00012,0.0,0.0
4.339,7910.65,0.00013,0.0,0.0
4.346,7977.481,0.00013,0.0,0.0
4.352,8026.331,0.00012,0.0,0.0
4.358,7954.837,0.00013,0.0,0.0
4.364,8077.271,0.00012,0.0,0.0
4.371,7920.148,0.00013,0.0,0.0
4.377,8138.11,0.00012,0.0,0.0
4.383,7952.712,0.00013,0.0,0.0
4.39,8029.929,0.00012,0.0,0.0
4.396,8091.586,0.00012,0.0,0.0
4.402,8195.753,0.00012,0.0,0.0
4.409,8084.496,0.00012,0.0,0.0
4.415,8227.597,0.00012,0.0,0.0
4.421,8211.461,0.00012,0.0,0.0
4.428,8109.238,0.00012,0.0,0.0
4.434,8394.56,0.00012,0.0,0.0
4.44,8196.31,0.00012,0.0,0.0
4.447,8311.698,0.00012,0.0,0.0
4.453,8324.747,0.00012,0.0,0.0
4.459,8552.115,0.00012,0.0,0.0
4.466,8508.263,0.00012,0.0,0.0
4.472,8460.521,0.00012,0.0,0.0
4.478,8557.885,0.00012,0.0,0.0
4.485,8940.882,0.00011,0.0,0.0
4.491,8721.421,0.00011,0.0,0.0
4.497,8645.767,0.00012,0.0,0.0
4.504,10035.997,0.0001,0.0,0.0
4.51,9016.314,0.00011,0.0,0.0
4.516,12126.918,0.00008,0.0,0.0
4.522,9830.456,0.0001,0.0,0.0
4.529,10294.471,0.0001,0.0,0.0
4.535,23959.402,0.00004,0.0,0.0
4.541,13633.321,0.00007,0.0,0.0
4.548,19443.18,0.00005,0.0,0.0
4.554,43199.304,0.00002,0.0,0.0
4.56,19706.755,0.00005,0.0,0.0
4.567,56960.256,0.00002,0.0,0.0
4.573,28894.876,0.00003,0.0,0.0
4.579,21816.99,0.00005,0.0,0.0
4.586,38386.774,0.00003,0.0,0.0
4.592,14161.142,0.00007,0.0,0.0
4.598,19283.091,0.00005,0.0,0.0
4.605,11194.69,0.00009,0.0,0.0
4.611,9424.551,0.00011,0.0,0.0
4.617,11398.972,0.00009,0.0,0.0
4.624,8831.784,0.00011,0.0,0.0
4.63,8608.922,0.00012,0.0,0.0
4.636,9120.201,0.00011,0.0,0.0
4.643,8611.293,0.00012,0.0,0.0
4.649,8456.117,0.00012,0.0,0.0
4.655,8392.459,0.00012,0.0,0.0
4.662,8161.879,0.00012,0.0,0.0
4.668,8134.04,0.00012,0.0,0.0
4.674,7992.972,0.00013,0.0,0.0
4.68,7806.967,0.00013,0.0,0.0
4.687,8014.791,0.00012,0.0,0.0
4.693,7619.207,0.00013,0.0,0.0
4.699,7712.728,0.00013,0.0,0.0
4.706,7597.231,0.00013,0.0,0.0
4.712,7550.354,0.00013,0.0,0.0
4.718,7546.547,0.00013,0.0,0.0
4.725,7401.775,0.00014,0.0,0.0
4.731,7450.859,0.00013,0.0,0.0
4.737,7327.478,0.00014,0.0,0.0
4.744,7338.033,0.00014,0.0,0.0
4.75,7229.962,0.00014,0.0,0.0
4.756,7260.4,0.00014,0.0,0.0
4.763,7073.446,0.00014,0.0,0.0
4.769,7231.285,0.00014,0.0,0.0
4.775,7022.685,0.00014,0.0,0.0
4.782,7025.813,0.00014,0.0,0.0
4.788,6979.717,0.00014,0.0,0.0
4.794,6924.201,0.00014,0.0,0.0
4.801,6953.789,0.00014,0.0,0.0
4.807,6902.417,0.00014,0.0,0.0
4.813,6973.026,0.00014,0.0,0.0
4.82,6889.566,0.00015,0.0,0.0
4.826,7026.937,0.00014,0.0,0.0
4.832,7152.391,0.00014,0.0,0.0
4.838,7370.067,0.00014,0.0,0.0
4.845,7519.918,0.00013,0.0,0.0
4.851,7779.129,0.00013,0.0,0.0
4.857,7805.011,0.00013,0.0,0.0
4.864,7800.175,0.00013,0.0,0.0
4.87,7568.097,0.00013,0.0,0.0
4.876,7278.327,0.00014,0.0,0.0
4.883,7053.255,0.00014,0.0,0.0
4.889,6855.701,0.00015,0.0,0.0
4.895,6614.959,0.00015,0.0,0.0
4.902,6628.299,0.00015,0.0,0.0
4.908,6482.389,0.00015,0.0,0.0
4.914,6457.527,0.00015,0.0,0.0
4.921,6425.613,0.00016,0.0,0.0
4.927,6372.525,0.00016,0.0,0.0
4.933,6325.907,0.00016,0.0,0.0
4.94,6312.119,0.00016,0.0,0.0
4.946,6274.83,0.00016,0.0,0.0
4.952,6238.752,0.00016,0.0,0.0
4.959,6182.46,0.00016,0.0,0.0
4.965,6188.417,0.00016,0.0,0.0
4.971,6195.531,0.00016,0.0,0.0
4.978,6140.574,0.00016,0.0,0.0
4.984,6136.006,0.00016,0.0,0.0
4.99,6042.245,0.00017,0.0,0.0
4.996,6105.783,0.00016,0.0,0.0
5.003,6070.473,0.00016,0.0,0.0
5.009,6045.646,0.00017,0.0,0.0
5.015,6017.78,0.00017,0.0,0.0
5.022,5989.822,0.00017,0.0,0.0
5.028,5973.911,0.00017,0.0,0.0
5.034,5958.296,0.00017,0.0,0.0
5.041,5975.099,0.00017,0.0,0.0
5.047,5913.81,0.00017,0.0,0.0
5.053,5927.522,0.00017,0.0,0.0
5.06,5860.039,0.00017,0.0,0.0
5.066,5870.251,0.00017,0.0,0.0
5.072,5857.176,0.00017,0.0,0.0
5.079,5836.371,0.00017,0.0,0.0
5.085,5822.313,0.00017,0.0,0.0
5.091,5788.117,0.00017,0.0,0.0
5.098,5762.916,0.00017,0.0,0.0
5.104,5804.738,0.00017,0.0,0.0
5.11,5725.641,0.00017,0.0,0.0
5.117,5738.979,0.00017,0.0,0.0
5.123,5746.534,0.00017,0.0,0.0
5.129,5704.094,0.00018,0.0,0.0
5.136,5725.435,0.00017,0.0,0.0
5.142,5671.219,0.00018,0.0,0.0
5.148,5675.065,0.00018,0.0,0.0
5.154,5674.206,0.00018,0.0,0.0
5.161,5641.813,0.00018,0.0,0.0
5.167,5662.488,0.00018,0.0,0.0
5.173,5659.255,0.00018,0.0,0.0
5.18,5594.646,0.00018,0.0,0.0
5.186,5615.174,0.00018,0.0,0.0
5.192,5576.876,0.00018,0.0,0.0
5.199,5598.171,0.00018,0.0,0.0
5.205,5603.552,0.00018,0.0,0.0
5.211,5563.816,0.00018,0.0,0.0
5.218,5545.154,0.00018,0.0,0.0
5.224,5556.27,0.00018,0.0,0.0
5.23,5513.697,0.00018,0.0,0.0
5.237,5551.196,0.00018,0.0,0.0
5.243,5508.396,0.00018,0.0,0.0
5.249,5500.636,0.00018,0.0,0.0
5.256,5511.267,0.00018,0.0,0.0
5.262,5469.224,0.00018,0.0,0.0
5.268,5464.51,0.00018,0.0,0.0
5.275,5472.104,0.00018,0.0,0.0
5.281,5455.892,0.00018,0.0,0.0
5.287,5457.121,0.00018,0.0,0.0
5.294,5435.442,0.00018,0.0,0.0
5.3,5430.133,0.00018,0.0,0.0
5.306,5426.255,0.00018,0.0,0.0
5.312,5405.02,0.00019,0.0,0.0
5.319,5396.587,0.00019,0.0,0.0
5.325,5430.553,0.00018,0.0,0.0
5.331,5365.562,0.00019,0.0,0.0
5.338,5397.943,0.00019,0.0,0.0
5.344,5381.458,0.00019,0.0,0.0
5.35,5384.907,0.00019,0.0,0.0
5.357,5385.17,0.00019,0.0,0.0
5.363,5375.355,0.00019,0.0,0.0
5.369,5370.532,0.00019,0.0,0.0
5.376,5373.29,0.00019,0.0,0.0
5.382,5328.907,0.00019,0.0,0.0
5.388,5358.796,0.00019,0.0,0.0
5.395,5343.091,0.00019,0.0,0.0
5.401,5357.661,0.00019,0.0,0.0
5.407,5359.656,0.00019,0.0,0.0
5.414,5318.124,0.00019,0.0,0.0
5.42,5331.548,0.00019,0.0,0.0
5.426,5323.996,0.00019,0.0,0.0
5.433,5331.405,0.00019,0.0,0.0
5.439,5341.11,0.00019,0.0,0.0
5.445,5323.805,0.00019,0.0,0.0
5.452,5341.078,0.00019,0.0,0.0
5.458,5324.617,0.00019,0.0,0.0
5.464,5309.843,0.00019,0.0,0.0
5.47,5325.785,0.00019,0.0,0.0
5.477,5336.772,0.00019,0.0,0.0
5.483,5322.391,0.00019,0.0,0.0
5.489,5322.993,0.00019,0.0,0.0
5.496,5297.73,0.00019,0.0,0.0
5.502,5317.929,0.00019,0.0,0.0
5.508,5318.104,0.00019,0.0,0.0
5.515,5285.25,0.00019,0.0,0.0
5.521,5325.585,0.00019,0.0,0.0
5.527,5319.65,0.00019,0.0,0.0
5.534,5300.24,0.00019,0.0,0.0
5.54,5322.519,0.00019,0.0,0.0
5.546,5314.208,0.00019,0.0,0.0
5.553,5308.756,0.00019,0.0,0.0
5.559,5314.414,0.00019,0.0,0.0
5.565,5298.5,0.00019,0.0,0.0
5.572,5328.374,0.00019,0.0,0.0
5.578,5316.282,0.00019,0.0,0.0
5.584,5344.451,0.00019,0.0,0.0
5.591,5332.92,0.00019,0.0,0.0
5.597,5330.398,0.00019,0.0,0.0
5.603,5379.909,0.00019,0.0,0.0
5.61,5359.744,0.00019,0.0,0.0
5.616,5360.031,0.00019,0.0,0.0
5.622,5387.021,0.00019,0.0,0.0
5.628,5374.245,0.00019,0.0,0.0
5.635,5391.402,0.00019,0.0,0.0
5.641,5417.125,0.00018,0.0,0.0
5.647,5398.681,0.00019,0.0,0.0
5.654,5399.45,0.00019,0.0,0.0
5.66,5436.346,0.00018,0.0,0.0
5.666,5405.144,0.00019,0.0,0.0
5.673,5458.314,0.00018,0.0,0.0
5.679,5416.306,0.00018,0.0,0.0
5.685,5460.103,0.00018,0.0,0.0
5.692,5454.681,0.00018,0.0,0.0
5.698,5481.687,0.00018,0.0,0.0
5.704,5477.081,0.00018,0.0,0.0
5.711,5499.1,0.00018,0.0,0.0
5.717,5511.093,0.00018,0.0,0.0
5.723,5528.955,0.00018,0.0,0.0
5.73,5565.446,0.00018,0.0,0.0
5.736,5548.112,0.00018,0.0,0.0
5.742,5578.036,0.00018,0.0,0.0
5.749,5582.313,0.00018,0.0,0.0
5.755,5602.55,0.00018,0.0,0.0
5.761,5603.738,0.00018,0.0,0.0
5.768,5649.437,0.00018,0.0,0.0
5.774,5673.311,0.00018,0.0,0.0
5.78,5689.532,0.00018,0.0,0.0
5.786,5695.222,0.00018,0.0,0.0
5.793,5777.5,0.00017,0.0,0.0
5.799,5781.914,0.00017,0.0,0.0
5.805,5794.225,0.00017,0.0,0.0
5.812,5856.853,0.00017,0.0,0.0
5.818,5849.276,0.00017,0.0,0.0
5.824,5902.32,0.00017,0.0,0.0
5.831,5959.969,0.00017,0.0,0.0
5.837,6025.405,0.00017,0.0,0.0
5.843,6170.854,0.00016,0.0,0.0
5.85,6344.307,0.00016,0.0,0.0
5.856,6644.486,0.00015,0.0,0.0
5.862,7075.36,0.00014,0.0,0.0
5.869,7546.021,0.00013,0.0,0.0
5.875,8030.893,0.00012,0.0,0.0
5.881,8203.24,0.00012,0.0,0.0
5.888,8028.872,0.00012,0.0,0.0
5.894,7650.847,0.00013,0.0,0.0
5.9,7123.802,0.00014,0.0,0.0
5.907,6631.437,0.00015,0.0,0.0
5.913,6237.384,0.00016,0.0,0.0
5.919,5989.611,0.00017,0.0,0.0
5.926,5875.437,0.00017,0.0,0.0
5.932,5722.701,0.00017,0.0,0.0
5.938,5665.213,0.00018,0.0,0.0
5.944,5641.66,0.00018,0.0,0.0
5.951,5561.203,0.00018,0.0,0.0
5.957,5576.886,0.00018,0.0,0.0
5.963,5533.52,0.00018,0.0,0.0
5.97,5516.824,0.00018,0.0,0.0
5.976,5494.152,0.00018,0.0,0.0
5.982,5520.381,0.00018,0.0,0.0
5.989,5486.914,0.00018,0.0,0.0
5.995,5477.75,0.00018,0.0,0.0
6.001,5510.548,0.00018,0.0,0.0
6.008,5480.74,0.00018,0.0,0.0
6.014,5462.882,0.00018,0.0,0.0
6.02,5443.667,0.00018,0.0,0.0
6.027,5487.497,0.00018,0.0,0.0
6.033,5470.741,0.00018,0.0,0.0
6.039,5443.443,0.00018,0.0,0.0
6.046,5498.547,0.00018,0.0,0.0
6.052,5421.616,0.00018,0.0,0.0
6.058,5470.16,0.00018,0.0,0.0
6.065,5501.144,0.00018,0.0,0.0
6.071,5408.495,0.00018,0.0,0.0
6.077,5471.043,0.00018,0.0,0.0
6.084,5411.72,0.00018,0.0,0.0
6.09,5456.048,0.00018,0.0,0.0
6.096,5460.615,0.00018,0.0,0.0
6.102,5464.279,0.00018,0.0,0.0
6.109,5461.116,0.00018,0.0,0.0
6.115,5474.314,0.00018,0.0,0.0
6.121,5457.693,0.00018,0.0,0.0
6.128,5494.17,0.00018,0.0,0.0
6.134,5498.382,0.00018,0.0,0.0
6.14,5462.005,0.00018,0.0,0.0
6.147,5515.033,0.00018,0.0,0.0
6.153,5485.034,0.00018,0.0,0.0
6.159,5566.755,0.00018,0.0,0.0
6.166,5468.709,0.00018,0.0,0.0
6.172,5574.669,0.00018,0.0,0.0
6.178,5538.518,0.00018,0.0,0.0
6.185,5537.769,0.00018,0.0,0.0
6.191,5552.691,0.00018,0.0,0.0
6.197,5604.321,0.00018,0.0,0.0
6.204,5560.178,0.00018,0.0,0.0
6.21,5563.948,0.00018,0.0,0.0
6.216,5653.444,0.00018,0.0,0.0
6.223,5559.237,0.00018,0.0,0.0
6.229,5636.382,0.00018,0.0,0.0
6.235,5648.548,0.00018,0.0,0.0
6.242,5655.434,0.00018,0.0,0.0
6.248,5644.306,0.00018,0.0,0.0
6.254,5699.156,0.00018,0.0,0.0
6.26,5691.483,0.00018,0.0,0.0
6.267,5654.746,0.00018,0.0,0.0
6.273,5706.354,0.00018,0.0,0.0
6.279,5729.171,0.00017,0.0,0.0
6.286,5633.745,0.00018,0.0,0.0
6.292,5742.068,0.00017,0.0,0.0
6.298,5687.576,0.00018,0.0,0.0
6.305,5706.64,0.00018,0.0,0.0
6.311,5715.15,0.00017,0.0,0.0
6.317,5810.551,0.00017,0.0,0.0
6.324,5757.722,0.00017,0.0,0.0
6.33,5760.701,0.00017,0.0,0.0
6.336,5848.136,0.00017,0.0,0.0
6.343,5723.847,0.00017,0.0,0.0
6.349,5820.729,0.00017,0.0,0.0
6.355,5745.622,0.00017,0.0,0.0
6.362,5886.944,0.00017,0.0,0.0
6.368,5800.248,0.00017,0.0,0.0
6.374,5813.452,0.00017,0.0,0.0
6.381,5824.185,0.00017,0.0,0.0
6.387,5894.909,0.00017,0.0,0.0
6.393,5931.091,0.00017,0.0,0.0
6.4,5879.208,0.00017,0.0,0.0
6.406,5996.756,0.00017,0.0,0.0
6.412,6088.181,0.00016,0.0,0.0
6.418,6654.675,0.00015,0.0,0.0
6.425,6464.981,0.00015,0.0,0.0
6.431,8461.026,0.00012,0.0,0.0
6.437,7389.762,0.00014,0.0,0.0
6.444,13412.939,0.00007,0.0,0.0
6.45,8614.43,0.00012,0.0,0.0
6.456,21144.093,0.00005,0.0,0.0
6.463,9835.143,0.0001,0.0,0.0
6.469,17121.293,0.00006,0.0,0.0
6.475,8923.271,0.00011,0.0,0.0
6.482,11014.218,0.00009,0.0,0.0
6.488,7246.384,0.00014,0.0,0.0
6.494,7173.706,0.00014,0.0,0.0
6.501,6455.347,0.00015,0.0,0.0
6.507,6319.479,0.00016,0.0,0.0
6.513,6309.715,0.00016,0.0,0.0
6.52,6159.182,0.00016,0.0,0.0
6.526,6339.319,0.00016,0.0,0.0
6.532,6240.118,0.00016,0.0,0.0
6.539,6426.76,0.00016,0.0,0.0
6.545,6527.697,0.00015,0.0,0.0
6.551,6837.638,0.00015,0.0,0.0
6.558,7069.216,0.00014,0.0,0.0
6.564,7727.245,0.00013,0.0,0.0
6.57,8802.394,0.00011,0.0,0.0
6.576,10432.368,0.0001,0.0,0.0
6.583,14075.795,0.00007,0.0,0.0
6.589,19452.254,0.00005,0.0,0.0
6.595,33064.326,0.00003,0.0,0.0
6.602,48847.831,0.00002,0.0,0.0
6.608,76717.522,0.00001,0.0,0.0
6.614,88215.314,0.00001,0.0,0.0
6.621,99294.573,0.00001,0.0,0.0
6.627,90845.13,0.00001,0.0,0.0
6.633,72862.235,0.00001,0.0,0.0
6.64,44171.737,0.00002,0.0,0.0
6.646,32167.388,0.00003,0.0,0.0
6.652,19509.171,0.00005,0.0,0.0
6.659,13578.59,0.00007,0.0,0.0
6.665,10483.111,0.0001,0.0,0.0
6.671,8549.844,0.00012,0.0,0.0
6.678,7662.927,0.00013,0.0,0.0
6.684,7038.446,0.00014,0.0,0.0
6.69,6710.634,0.00015,0.0,0.0
6.697,6452.096,0.00015,0.0,0.0
6.703,6264.909,0.00016,0.0,0.0
6.709,6172.145,0.00016,0.0,0.0
6.716,6037.82,0.00017,0.0,0.0
6.722,5984.839,0.00017,0.0,0.0
6.728,5964.264,0.00017,0.0,0.0
6.734,5932.758,0.00017,0.0,0.0
6.741,5826.882,0.00017,0.0,0.0
6.747,5839.641,0.00017,0.0,0.0
6.753,5845.549,0.00017,0.0,0.0
6.76,5780.071,0.00017,0.0,0.0
6.766,5790.144,0.00017,0.0,0.0
6.772,5811.52,0.00017,0.0,0.0
6.779,5767.168,0.00017,0.0,0.0
6.785,5807.541,0.00017,0.0,0.0
6.791,5787.271,0.00017,0.0,0.0
6.798,5855.739,0.00017,0.0,0.0
6.804,5778.779,0.00017,0.0,0.0
6.81,5873.603,0.00017,0.0,0.0
6.817,5811.871,0.00017,0.0,0.0
6.823,5827.504,0.00017,0.0,0.0
6.829,5791.993,0.00017,0.0,0.0
6.836,5747.853,0.00017,0.0,0.0
6.842,5753.183,0.00017,0.0,0.0
6.848,5699.684,0.00018,0.0,0.0
6.855,5701.824,0.00018,0.0,0.0
6.861,5673.78,0.00018,0.0,0.0
6.867,5723.795,0.00017,0.0,0.0
6.874,5643.846,0.00018,0.0,0.0
6.88,5679.276,0.00018,0.0,0.0
6.886,5651.954,0.00018,0.0,0.0
6.892,5652.084,0.00018,0.0,0.0
6.899,5687.428,0.00018,0.0,0.0
6.905,5638.017,0.00018,0.0,0.0
6.911,5644.288,0.00018,0.0,0.0
6.918,5658.361,0.00018,0.0,0.0
6.924,5673.226,0.00018,0.0,0.0
6.93,5673.09,0.00018,0.0,0.0
6.937,5677.837,0.00018,0.0,0.0
6.943,5671.525,0.00018,0.0,0.0
6.949,5683.32,0.00018,0.0,0.0
6.956,5680.001,0.00018,0.0,0.0
6.962,5713.883,0.00018,0.0,0.0
6.968,5702.705,0.00018,0.0,0.0
6.975,5708.972,0.00018,0.0,0.0
6.981,5738.654,0.00017,0.0,0.0
6.987,5728.481,0.00017,0.0,0.0
6.994,5749.13,0.00017,0.0,0.0
7.0,5768.151,0.00017,0.0,0.0
7.006,5756.811,0.00017,0.0,0.0
7.013,5780.486,0.00017,0.0,0.0
7.019,5799.729,0.00017,0.0,0.0
7.025,5785.924,0.00017,0.0,0.0
7.032,5840.034,0.00017,0.0,0.0
7.038,5815.622,0.00017,0.0,0.0
7.044,5858.967,0.00017,0.0,0.0
7.05,5903.632,0.00017,0.0,0.0
7.057,5905.389,0.00017,0.0,0.0
7.063,5914.598,0.00017,0.0,0.0
7.069,5923.767,0.00017,0.0,0.0
7.076,5948.279,0.00017,0.0,0.0
7.082,5951.643,0.00017,0.0,0.0
7.088,5978.836,0.00017,0.0,0.0
7.095,5974.31,0.00017,0.0,0.0
7.101,5992.907,0.00017,0.0,0.0
7.107,6016.821,0.00017,0.0,0.0
7.114,6055.245,0.00017,0.0,0.0
7.12,6023.602,0.00017,0.0,0.0
7.126,6038.381,0.00017,0.0,0.0
7.133,6052.346,0.00017,0.0,0.0
7.139,6043.464,0.00017,0.0,0.0
7.145,6075.354,0.00016,0.0,0.0
7.152,6081.183,0.00016,0.0,0.0
7.158,6061.722,0.00016,0.0,0.0
7.164,6092.537,0.00016,0.0,0.0
7.171,6063.277,0.00016,0.0,0.0
7.177,6096.299,0.00016,0.0,0.0
7.183,6095.443,0.00016,0.0,0.0
7.19,6068.576,0.00016,0.0,0.0
7.196,6097.114,0.00016,0.0,0.0
7.202,6073.261,0.00016,0.0,0.0
7.208,6074.508,0.00016,0.0,0.0
7.215,6054.642,0.00017,0.0,0.0
7.221,6069.425,0.00016,0.0,0.0
7.227,6050.705,0.00017,0.0,0.0
7.234,6080.619,0.00016,0.0,0.0
7.24,6049.685,0.00017,0.0,0.0
7.246,6076.274,0.00016,0.0,0.0
7.253,6040.249,0.00017,0.0,0.0
7.259,6028.278,0.00017,0.0,0.0
7.265,6103.594,0.00016,0.0,0.0
7.272,6101.352,0.00016,0.0,0.0
7.278,6175.869,0.00016,0.0,0.0
7.284,6185.751,0.00016,0.0,0.0
7.291,6183.34,0.00016,0.0,0.0
7.297,6223.792,0.00016,0.0,0.0
7.303,6150.852,0.00016,0.0,0.0
7.31,6125.718,0.00016,0.0,0.0
7.316,6067.413,0.00016,0.0,0.0
7.322,6019.724,0.00017,0.0,0.0
7.329,6009.708,0.00017,0.0,0.0
7.335,5941.524,0.00017,0.0,0.0
7.341,5941.771,0.00017,0.0,0.0
7.348,5935.23,0.00017,0.0,0.0
7.354,5918.33,0.00017,0.0,0.0
7.36,5915.569,0.00017,0.0,0.0
7.366,5925.937,0.00017,0.0,0.0
7.373,5930.994,0.00017,0.0,0.0
7.379,5907.486,0.00017,0.0,0.0
7.385,5941.656,0.00017,0.0,0.0
7.392,5902.954,0.00017,0.0,0.0
7.398,5949.441,0.00017,0.0,0.0
7.404,5919.236,0.00017,0.0,0.0
7.411,5961.222,0.00017,0.0,0.0
7.417,5928.776,0.00017,0.0,0.0
7.423,5908.273,0.00017,0.0,0.0
7.43,5988.927,0.00017,0.0,0.0
7.436,5942.657,0.00017,0.0,0.0
7.442,5929.006,0.00017,0.0,0.0
7.449,5975.495,0.00017,0.0,0.0
7.455,5992.1,0.00017,0.0,0.0
7.461,5963.618,0.00017,0.0,0.0
7.468,5983.028,0.00017,0.0,0.0
7.474,5969.456,0.00017,0.0,0.0
7.48,6032.882,0.00017,0.0,0.0
7.487,6000.139,0.00017,0.0,0.0
7.493,6056.687,0.00017,0.0,0.0
7.499,6031.944,0.00017,0.0,0.0
7.506,6040.637,0.00017,0.0,0.0
7.512,6093.479,0.00016,0.0,0.0
7.518,6119.476,0.00016,0.0,0.0
7.524,6080.757,0.00016,0.0,0.0
7.531,6143.228,0.00016,0.0,0.0
7.537,6187.858,0.00016,0.0,0.0
7.543,6214.225,0.00016,0.0,0.0
7.55,6273.436,0.00016,0.0,0.0
7.556,6310.508,0.00016,0.0,0.0
7.562,6453.07,0.00015,0.0,0.0
7.569,6468.777,0.00015,0.0,0.0
7.575,6689.261,0.00015,0.0,0.0
7.581,6905.752,0.00014,0.0,0.0
7.588,7196.123,0.00014,0.0,0.0
7.594,7815.821,0.00013,0.0,0.0
7.6,8593.053,0.00012,0.0,0.0
7.607,10755.133,0.00009,0.0,0.0
7.613,13163.696,0.00008,0.0,0.0
7.619,20259.626,0.00005,0.0,0.0
7.626,26942.216,0.00004,0.0,0.0
7.632,41161.015,0.00002,0.0,0.0
7.638,47076.684,0.00002,0.0,0.0
7.645,55320.886,0.00002,0.0,0.0
7.651,53866.382,0.00002,0.0,0.0
7.657,45067.927,0.00002,0.0,0.0
7.664,32045.205,0.00003,0.0,0.0
7.67,21666.468,0.00005,0.0,0.0
7.676,16067.611,0.00006,0.0,0.0
7.682,11517.674,0.00009,0.0,0.0
7.689,9645.417,0.0001,0.0,0.0
7.695,8354.103,0.00012,0.0,0.0
7.701,7631.426,0.00013,0.0,0.0
7.708,7214.792,0.00014,0.0,0.0
7.714,7023.464,0.00014,0.0,0.0
7.72,6746.952,0.00015,0.0,0.0
7.727,6734.749,0.00015,0.0,0.0
7.733,6636.957,0.00015,0.0,0.0
7.739,6702.752,0.00015,0.0,0.0
7.746,6553.882,0.00015,0.0,0.0
7.752,6633.771,0.00015,0.0,0.0
7.758,6578.924,0.00015,0.0,0.0
7.765,6516.315,0.00015,0.0,0.0
7.771,6608.504,0.00015,0.0,0.0
7.777,6573.841,0.00015,0.0,0.0
7.784,6687.117,0.00015,0.0,0.0
7.79,6570.309,0.00015,0.0,0.0
7.796,6789.988,0.00015,0.0,0.0
7.803,6560.935,0.00015,0.0,0.0
7.809,6793.094,0.00015,0.0,0.0
7.815,6606.26,0.00015,0.0,0.0
7.822,6997.488,0.00014,0.0,0.0
7.828,6753.199,0.00015,0.0,0.0
7.834,7184.353,0.00014,0.0,0.0
7.84,6828.979,0.00015,0.0,0.0
7.847,7343.309,0.00014,0.0,0.0
7.853,7132.877,0.00014,0.0,0.0
7.859,7731.297,0.00013,0.0,0.0
7.866,8604.812,0.00012,0.0,0.0
7.872,7720.703,0.00013,0.0,0.0
7.878,12158.677,0.00008,0.0,0.0
7.885,7175.507,0.00014,0.0,0.0
7.891,13946.023,0.00007,0.0,0.0
7.897,6769.129,0.00015,0.0,0.0
7.904,14817.045,0.00007,0.0,0.0
7.91,7071.341,0.00014,0.0,0.0
7.916,14193.872,0.00007,0.0,0.0
7.923,7539.291,0.00013,0.0,0.0
7.929,12991.948,0.00008,0.0,0.0
7.935,8637.484,0.00012,0.0,0.0
7.942,10538.972,0.00009,0.0,0.0
7.948,8984.843,0.00011,0.0,0.0
7.954,7056.129,0.00014,0.0,0.0
7.961,8219.788,0.00012,0.0,0.0
7.967,6484.807,0.00015,0.0,0.0
7.973,7683.965,0.00013,0.0,0.0
7.98,6486.215,0.00015,0.0,0.0
7.986,7309.973,0.00014,0.0,0.0
7.992,6773.337,0.00015,0.0,0.0
7.998,6782.544,0.00015,0.0,0.0
8.005,6852.81,0.00015,0.0,0.0
8.011,6545.246,0.00015,0.0,0.0
8.017,6805.162,0.00015,0.0,0.0
8.024,6412.324,0.00016,0.0,0.0
8.03,6812.946,0.00015,0.0,0.0
8.036,6402.507,0.00016,0.0,0.0
8.043,6786.286,0.00015,0.0,0.0
8.049,6362.921,0.00016,0.0,0.0
8.055,6748.656,0.00015,0.0,0.0
8.062,6462.453,0.00015,0.0,0.0
8.068,6625.576,0.00015,0.0,0.0
8.074,6538.781,0.00015,0.0,0.0
8.081,6536.587,0.00015,0.0,0.0
8.087,6555.689,0.00015,0.0,0.0
8.093,6512.63,0.00015,0.0,0.0
8.1,6614.304,0.00015,0.0,0.0
8.106,6478.596,0.00015,0.0,0.0
8.112,6700.928,0.00015,0.0,0.0
8.119,6558.88,0.00015,0.0,0.0
8.125,6858.105,0.00015,0.0,0.0
8.131,6756.367,0.00015,0.0,0.0
8.138,6992.011,0.00014,0.0,0.0
8.144,6859.381,0.00015,0.0,0.0
8.15,6884.781,0.00015,0.0,0.0
8.156,6786.05,0.00015,0.0,0.0
8.163,6650.9,0.00015,0.0,0.0
8.169,6566.69,0.00015,0.0,0.0
8.175,6420.078,0.00016,0.0,0.0
8.182,6426.564,0.00016,0.0,0.0
8.188,6287.827,0.00016,0.0,0.0
8.194,6302.124,0.00016,0.0,0.0
8.201,6179.197,0.00016,0.0,0.0
8.207,6255.677,0.00016,0.0,0.0
8.213,6115.518,0.00016,0.0,0.0
8.22,6218.336,0.00016,0.0,0.0
8.226,6109.005,0.00016,0.0,0.0
8.232,6090.387,0.00016,0.0,0.0
8.239,6029.445,0.00017,0.0,0.0
8.245,6026.585,0.00017,0.0,0.0
8.251,6013.852,0.00017,0.0,0.0
8.258,5964.305,0.00017,0.0,0.0
8.264,5969.205,0.00017,0.0,0.0
8.27,5895.253,0.00017,0.0,0.0
8.277,5934.082,0.00017,0.0,0.0
8.283,5842.357,0.00017,0.0,0.0
8.289,5879.132,0.00017,0.0,0.0
8.296,5786.748,0.00017,0.0,0.0
8.302,5865.327,0.00017,0.0,0.0
8.308,5803.574,0.00017,0.0,0.0
8.314,5778.373,0.00017,0.0,0.0
8.321,5773.147,0.00017,0.0,0.0
8.327,5756.531,0.00017,0.0,0.0
8.333,5797.044,0.00017,0.0,0.0
8.34,5793.317,0.00017,0.0,0.0
8.346,5837.657,0.00017,0.0,0.0
8.352,5886.333,0.00017,0.0,0.0
8.359,5963.092,0.00017,0.0,0.0
8.365,5981.734,0.00017,0.0,0.0
8.371,6063.898,0.00016,0.0,0.0
8.378,6016.163,0.00017,0.0,0.0
8.384,5997.959,0.00017,0.0,0.0
8.39,5885.289,0.00017,0.0,0.0
8.397,5827.729,0.00017,0.0,0.0
8.403,5712.583,0.00018,0.0,0.0
8.409,5615.456,0.00018,0.0,0.0
8.416,5573.167,0.00018,0.0,0.0
8.422,5519.797,0.00018,0.0,0.0
8.428,5491.184,0.00018,0.0,0.0
8.435,5455.891,0.00018,0.0,0.0
8.441,5435.147,0.00018,0.0,0.0
8.447,5415.292,0.00018,0.0,0.0
8.454,5418.145,0.00018,0.0,0.0
8.46,5373.049,0.00019,0.0,0.0
8.466,5385.908,0.00019,0.0,0.0
8.472,5359.895,0.00019,0.0,0.0
8.479,5360.495,0.00019,0.0,0.0
8.485,5360.438,0.00019,0.0,0.0
8.491,5348.571,0.00019,0.0,0.0
8.498,5351.359,0.00019,0.0,0.0
8.504,5313.229,0.00019,0.0,0.0
8.51,5315.754,0.00019,0.0,0.0
8.517,5287.678,0.00019,0.0,0.0
8.523,5275.489,0.00019,0.0,0.0
8.529,5246.13,0.00019,0.0,0.0
8.536,5234.915,0.00019,0.0,0.0
8.542,5213.09,0.00019,0.0,0.0
8.548,5212.062,0.00019,0.0,0.0
8.555,5187.449,0.00019,0.0,0.0
8.561,5175.074,0.00019,0.0,0.0
8.567,5181.572,0.00019,0.0,0.0
8.574,5176.063,0.00019,0.0,0.0
8.58,5165.386,0.00019,0.0,0.0
8.586,5142.098,0.00019,0.0,0.0
8.593,5144.3,0.00019,0.0,0.0
8.599,5099.32,0.0002,0.0,0.0
8.605,5133.693,0.00019,0.0,0.0
8.612,5105.668,0.0002,0.0,0.0
8.618,5113.906,0.0002,0.0,0.0
8.624,5078.376,0.0002,0.0,0.0
8.63,5079.721,0.0002,0.0,0.0
8.637,5081.893,0.0002,0.0,0.0
8.643,5067.409,0.0002,0.0,0.0
8.649,5073.67,0.0002,0.0,0.0
8.656,5045.817,0.0002,0.0,0.0
8.662,5059.332,0.0002,0.0,0.0
8.668,5045.668,0.0002,0.0,0.0
8.675,5022.093,0.0002,0.0,0.0
8.681,5022.773,0.0002,0.0,0.0
8.687,5020.116,0.0002,0.0,0.0
8.694,5033.852,0.0002,0.0,0.0
8.7,5013.655,0.0002,0.0,0.0
8.706,5001.294,0.0002,0.0,0.0
8.713,5001.791,0.0002,0.0,0.0
8.719,4964.352,0.0002,0.0,0.0
8.725,5011.047,0.0002,0.0,0.0
8.732,4997.659,0.0002,0.0,0.0
8.738,4987.28,0.0002,0.0,0.0
8.744,4974.093,0.0002,0.0,0.0
8.751,4985.085,0.0002,0.0,0.0
8.757,4975.272,0.0002,0.0,0.0
8.763,4955.874,0.0002,0.0,0.0
8.77,4969.274,0.0002,0.0,0.0
8.776,4941.165,0.0002,0.0,0.0
8.782,4979.323,0.0002,0.0,0.0
8.788,4958.432,0.0002,0.0,0.0
8.795,4973.223,0.0002,0.0,0.0
8.801,4948.353,0.0002,0.0,0.0
8.807,4950.429,0.0002,0.0,0.0
8.814,4963.188,0.0002,0.0,0.0
8.82,4929.766,0.0002,0.0,0.0
8.826,4950.632,0.0002,0.0,0.0
8.833,4951.556,0.0002,0.0,0.0
8.839,4954.915,0.0002,0.0,0.0
8.845,4954.481,0.0002,0.0,0.0
8.852,4943.821,0.0002,0.0,0.0
8.858,4940.353,0.0002,0.0,0.0
8.864,4940.011,0.0002,0.0,0.0
8.871,4952.037,0.0002,0.0,0.0
8.877,4962.823,0.0002,0.0,0.0
8.883,4956.398,0.0002,0.0,0.0
8.89,4953.423,0.0002,0.0,0.0
8.896,4929.875,0.0002,0.0,0.0
8.902,4960.879,0.0002,0.0,0.0
8.909,4964.057,0.0002,0.0,0.0
8.915,4944.457,0.0002,0.0,0.0
8.921,4966.012,0.0002,0.0,0.0
8.928,4970.527,0.0002,0.0,0.0
8.934,4956.75,0.0002,0.0,0.0
8.94,4959.87,0.0002,0.0,0.0
8.946,4966.457,0.0002,0.0,0.0
8.953,4976.676,0.0002,0.0,0.0
8.959,4982.884,0.0002,0.0,0.0
8.965,4996.68,0.0002,0.0,0.0
8.972,4998.871,0.0002,0.0,0.0
8.978,5024.858,0.0002,0.0,0.0
8.984,4984.98,0.0002,0.0,0.0
8.991,5021.319,0.0002,0.0,0.0
8.997,5052.223,0.0002,0.0,0.0
9.003,5029.13,0.0002,0.0,0.0
9.01,5067.97,0.0002,0.0,0.0
9.016,5068.257,0.0002,0.0,0.0
9.022,5135.404,0.00019,0.0,0.0
9.029,5113.234,0.0002,0.0,0.0
9.035,5161.435,0.00019,0.0,0.0
9.041,5174.72,0.00019,0.0,0.0
9.048,5184.229,0.00019,0.0,0.0
9.054,5292.896,0.00019,0.0,0.0
9.06,5306.471,0.00019,0.0,0.0
9.067,5343.44,0.00019,0.0,0.0
9.073,5490.975,0.00018,0.0,0.0
9.079,5628.645,0.00018,0.0,0.0
9.086,5782.638,0.00017,0.0,0.0
9.092,6235.371,0.00016,0.0,0.0
9.098,7620.045,0.00013,0.0,0.0
9.104,6637.601,0.00015,0.0,0.0
9.111,8813.676,0.00011,0.0,0.0
9.117,9369.084,0.00011,0.0,0.0
9.123,9459.967,0.00011,0.0,0.0
9.13,9645.596,0.0001,0.0,0.0
9.136,10292.635,0.0001,0.0,0.0
9.142,8983.42,0.00011,0.0,0.0
9.149,6696.175,0.00015,0.0,0.0
9.155,7643.698,0.00013,0.0,0.0
9.161,6589.945,0.00015,0.0,0.0
9.168,5849.108,0.00017,0.0,0.0
9.174,5895.818,0.00017,0.0,0.0
9.18,5607.682,0.00018,0.0,0.0
9.187,5647.609,0.00018,0.0,0.0
9.193,5483.544,0.00018,0.0,0.0
9.199,5450.772,0.00018,0.0,0.0
9.206,5425.666,0.00018,0.0,0.0
9.212,5332.508,0.00019,0.0,0.0
9.218,5348.817,0.00019,0.0,0.0
9.225,5322.964,0.00019,0.0,0.0
9.231,5235.772,0.00019,0.0,0.0
9.237,5304.026,0.00019,0.0,0.0
9.244,5227.585,0.00019,0.0,0.0
9.25,5235.778,0.00019,0.0,0.0
9.256,5182.413,0.00019,0.0,0.0
9.262,5163.504,0.00019,0.0,0.0
9.269,5207.832,0.00019,0.0,0.0
9.275,5112.191,0.0002,0.0,0.0
9.281,5157.564,0.00019,0.0,0.0
9.288,5088.973,0.0002,0.0,0.0
9.294,5091.96,0.0002,0.0,0.0
9.3,5077.782,0.0002,0.0,0.0
9.307,5045.092,0.0002,0.0,0.0
9.313,5026.918,0.0002,0.0,0.0
9.319,5039.032,0.0002,0.0,0.0
9.326,4991.095,0.0002,0.0,0.0
9.332,4984.5,0.0002,0.0,0.0
9.338,4978.921,0.0002,0.0,0.0
9.345,4915.947,0.0002,0.0,0.0
9.351,4903.909,0.0002,0.0,0.0
9.357,4882.932,0.0002,0.0,0.0
9.364,4883.661,0.0002,0.0,0.0
9.37,4853.387,0.00021,0.0,0.0
9.376,4848.853,0.00021,0.0,0.0
9.383,4801.143,0.00021,0.0,0.0
9.389,4801.896,0.00021,0.0,0.0
9.395,4773.743,0.00021,0.0,0.0
9.402,4750.805,0.00021,0.0,0.0
9.408,4745.546,0.00021,0.0,0.0
9.414,4717.88,0.00021,0.0,0.0
9.42,4729.383,0.00021,0.0,0.0
9.427,4698.608,0.00021,0.0,0.0
9.433,4687.245,0.00021,0.0,0.0
9.439,4670.842,0.00021,0.0,0.0
9.446,4689.378,0.00021,0.0,0.0
9.452,4679.301,0.00021,0.0,0.0
9.458,4672.946,0.00021,0.0,0.0
9.465,4705.209,0.00021,0.0,0.0
9.471,4689.234,0.00021,0.0,0.0
9.477,4706.875,0.00021,0.0,0.0
9.484,4724.977,0.00021,0.0,0.0
9.49,4713.014,0.00021,0.0,0.0
9.496,4701.266,0.00021,0.0,0.0
9.503,4693.833,0.00021,0.0,0.0
9.509,4650.937,0.00022,0.0,0.0
9.515,4624.614,0.00022,0.0,0.0
9.522,4567.578,0.00022,0.0,0.0
9.528,4551.638,0.00022,0.0,0.0
9.534,4516.072,0.00022,0.0,0.0
9.541,4513.329,0.00022,0.0,0.0
9.547,4490.108,0.00022,0.0,0.0
9.553,4475.058,0.00022,0.0,0.0
9.56,4489.827,0.00022,0.0,0.0
9.566,4452.411,0.00022,0.0,0.0
9.572,4449.299,0.00022,0.0,0.0
9.578,4462.743,0.00022,0.0,0.0
9.585,4432.919,0.00023,0.0,0.0
9.591,4434.293,0.00023,0.0,0.0
9.597,4424.011,0.00023,0.0,0.0
9.604,4404.161,0.00023,0.0,0.0
9.61,4412.756,0.00023,0.0,0.0
9.616,4398.176,0.00023,0.0,0.0
9.623,4377.257,0.00023,0.0,0.0
9.629,4394.292,0.00023,0.0,0.0
9.635,4377.42,0.00023,0.0,0.0
9.642,4381.459,0.00023,0.0,0.0
9.648,4387.442,0.00023,0.0,0.0
9.654,4368.001,0.00023,0.0,0.0
9.661,4347.857,0.00023,0.0,0.0
9.667,4355.75,0.00023,0.0,0.0
9.673,4327.642,0.00023,0.0,0.0
9.68,4348.482,0.00023,0.0,0.0
9.686,4333.888,0.00023,0.0,0.0
9.692,4325.533,0.00023,0.0,0.0
9.699,4336.223,0.00023,0.0,0.0
9.705,4322.152,0.00023,0.0,0.0
9.711,4336.863,0.00023,0.0,0.0
9.718,4313.805,0.00023,0.0,0.0
9.724,4332.937,0.00023,0.0,0.0
9.73,4322.297,0.00023,0.0,0.0
9.736,4311.447,0.00023,0.0,0.0
9.743,4325.078,0.00023,0.0,0.0
9.749,4306.838,0.00023,0.0,0.0
9.755,4292.366,0.00023,0.0,0.0
9.762,4308.637,0.00023,0.0,0.0
9.768,4301.664,0.00023,0.0,0.0
9.774,4300.497,0.00023,0.0,0.0
9.781,4304.59,0.00023,0.0,0.0
9.787,4307.795,0.00023,0.0,0.0
9.793,4301.133,0.00023,0.0,0.0
9.8,4301.345,0.00023,0.0,0.0
9.806,4310.252,0.00023,0.0,0.0
9.812,4295.642,0.00023,0.0,0.0
9.819,4308.0,0.00023,0.0,0.0
9.825,4283.419,0.00023,0.0,0.0
9.831,4294.881,0.00023,0.0,0.0
9.838,4275.358,0.00023,0.0,0.0
9.844,4271.071,0.00023,0.0,0.0
9.85,4288.708,0.00023,0.0,0.0
9.857,4282.927,0.00023,0.0,0.0
9.863,4266.579,0.00023,0.0,0.0
9.869,4273.789,0.00023,0.0,0.0
9.876,4275.233,0.00023,0.0,0.0
9.882,4276.626,0.00023,0.0,0.0
9.888,4277.398,0.00023,0.0,0.0
9.894,4273.767,0.00023,0.0,0.0
9.901,4277.089,0.00023,0.0,0.0
9.907,4269.589,0.00023,0.0,0.0
9.913,4281.593,0.00023,0.0,0.0
9.92,4280.008,0.00023,0.0,0.0
9.926,4269.505,0.00023,0.0,0.0
9.932,4284.113,0.00023,0.0,0.0
9.939,4268.628,0.00023,0.0,0.0
9.945,4264.34,0.00023,0.0,0.0
9.951,4266.484,0.00023,0.0,0.0
9.958,4275.864,0.00023,0.0,0.0
9.964,4279.337,0.00023,0.0,0.0
9.97,4278.258,0.00023,0.0,0.0
9.977,4282.832,0.00023,0.0,0.0
9.983,4282.895,0.00023,0.0,0.0
9.989,4297.247,0.00023,0.0,0.0
9.996,4288.913,0.00023,0.0,0.0
10.002,4297.566,0.00023,0.0,0.0
10.008,4286.459,0.00023,0.0,0.0
10.015,4294.249,0.00023,0.0,0.0
10.021,4295.946,0.00023,0.0,0.0
10.027,4305.372,0.00023,0.0,0.0
10.034,4301.234,0.00023,0.0,0.0
10.04,4312.748,0.00023,0.0,0.0
10.046,4302.085,0.00023,0.0,0.0
10.052,4326.833,0.00023,0.0,0.0
10.059,4312.636,0.00023,0.0,0.0
10.065,4327.506,0.00023,0.0,0.0
10.071,4335.861,0.00023,0.0,0.0
10.078,4335.032,0.00023,0.0,0.0
10.084,4351.27,0.00023,0.0,0.0
10.09,4350.642,0.00023,0.0,0.0
10.097,4328.689,0.00023,0.0,0.0
10.103,4345.731,0.00023,0.0,0.0
10.109,4337.425,0.00023,0.0,0.0
10.116,4355.725,0.00023,0.0,0.0
10.122,4350.355,0.00023,0.0,0.0
10.128,4355.292,0.00023,0.0,0.0
10.135,4369.976,0.00023,0.0,0.0
10.141,4365.771,0.00023,0.0,0.0
10.147,4352.657,0.00023,0.0,0.0
10.154,4354.452,0.00023,0.0,0.0
10.16,4355.215,0.00023,0.0,0.0
10.166,4393.319,0.00023,0.0,0.0
10.173,4379.726,0.00023,0.0,0.0
10.179,4438.055,0.00023,0.0,0.0
10.185,4505.49,0.00022,0.0,0.0
10.192,4716.588,0.00021,0.0,0.0
10.198,4652.017,0.00021,0.0,0.0
10.204,4964.122,0.0002,0.0,0.0
10.21,5528.994,0.00018,0.0,0.0
10.217,5671.039,0.00018,0.0,0.0
10.223,5537.825,0.00018,0.0,0.0
10.229,5164.699,0.00019,0.0,0.0
10.236,4863.555,0.00021,0.0,0.0
10.242,4553.043,0.00022,0.0,0.0
10.248,4479.144,0.00022,0.0,0.0
10.255,4396.312,0.00023,0.0,0.0
10.261,4365.621,0.00023,0.0,0.0
10.267,4342.661,0.00023,0.0,0.0
10.274,4309.643,0.00023,0.0,0.0
10.28,4315.278,0.00023,0.0,0.0
10.286,4289.975,0.00023,0.0,0.0
10.293,4270.426,0.00023,0.0,0.0
10.299,4280.674,0.00023,0.0,0.0
10.305,4257.135,0.00023,0.0,0.0
10.312,4272.507,0.00023,0.0,0.0
10.318,4256.477,0.00023,0.0,0.0
10.324,4242.959,0.00024,0.0,0.0
10.331,4239.652,0.00024,0.0,0.0
10.337,4229.587,0.00024,0.0,0.0
10.343,4228.033,0.00024,0.0,0.0
10.35,4220.886,0.00024,0.0,0.0
10.356,4198.188,0.00024,0.0,0.0
10.362,4224.186,0.00024,0.0,0.0
10.368,4216.677,0.00024,0.0,0.0
10.375,4204.878,0.00024,0.0,0.0
10.381,4205.52,0.00024,0.0,0.0
10.387,4195.942,0.00024,0.0,0.0
10.394,4197.92,0.00024,0.0,0.0
10.4,4210.759,0.00024,0.0,0.0
10.406,4191.182,0.00024,0.0,0.0
10.413,4196.63,0.00024,0.0,0.0
10.419,4182.437,0.00024,0.0,0.0
10.425,4204.7,0.00024,0.0,0.0
10.432,4184.223,0.00024,0.0,0.0
10.438,4172.048,0.00024,0.0,0.0
10.444,4198.879,0.00024,0.0,0.0
10.451,4190.768,0.00024,0.0,0.0
10.457,4201.574,0.00024,0.0,0.0
10.463,4203.181,0.00024,0.0,0.0
10.47,4176.94,0.00024,0.0,0.0
10.476,4189.414,0.00024,0.0,0.0
10.482,4195.093,0.00024,0.0,0.0
10.489,4192.429,0.00024,0.0,0.0
10.495,4190.144,0.00024,0.0,0.0
10.501,4190.408,0.00024,0.0,0.0
10.508,4207.911,0.00024,0.0,0.0
10.514,4186.701,0.00024,0.0,0.0
10.52,4204.274,0.00024,0.0,0.0
10.526,4209.14,0.00024,0.0,0.0
10.533,4208.929,0.00024,0.0,0.0
10.539,4203.396,0.00024,0.0,0.0
10.545,4211.425,0.00024,0.0,0.0
10.552,4200.71,0.00024,0.0,0.0
10.558,4226.051,0.00024,0.0,0.0
10.564,4226.155,0.00024,0.0,0.0
10.571,4223.137,0.00024,0.0,0.0
10.577,4220.692,0.00024,0.0,0.0
10.583,4227.39,0.00024,0.0,0.0
10.59,4232.537,0.00024,0.0,0.0
10.596,4230.723,0.00024,0.0,0.0
10.602,4238.684,0.00024,0.0,0.0
10.609,4238.97,0.00024,0.0,0.0
10.615,4247.826,0.00024,0.0,0.0
10.621,4257.495,0.00023,0.0,0.0
10.628,4257.579,0.00023,0.0,0.0
10.634,4265.362,0.00023,0.0,0.0
10.64,4263.867,0.00023,0.0,0.0
10.647,4274.384,0.00023,0.0,0.0
10.653,4284.772,0.00023,0.0,0.0
10.659,4281.508,0.00023,0.0,0.0
10.666,4288.931,0.00023,0.0,0.0
10.672,4309.336,0.00023,0.0,0.0
10.678,4311.692,0.00023,0.0,0.0
10.684,4311.727,0.00023,0.0,0.0
10.691,4340.123,0.00023,0.0,0.0
10.697,4350.517,0.00023,0.0,0.0
10.703,4374.451,0.00023,0.0,0.0
10.71,4387.552,0.00023,0.0,0.0
10.716,4411.878,0.00023,0.0,0.0
10.722,4429.259,0.00023,0.0,0.0
10.729,4461.661,0.00022,0.0,0.0
10.735,4487.92,0.00022,0.0,0.0
10.741,4553.484,0.00022,0.0,0.0
10.748,4601.573,0.00022,0.0,0.0
10.754,4709.729,0.00021,0.0,0.0
10.76,4841.107,0.00021,0.0,0.0
10.767,4981.914,0.0002,0.0,0.0
10.773,5351.347,0.00019,0.0,0.0
10.779,5930.878,0.00017,0.0,0.0
10.786,6747.247,0.00015,0.0,0.0
10.792,9177.023,0.00011,0.0,0.0
10.798,11152.463,0.00009,0.0,0.0
10.805,18199.275,0.00005,0.0,0.0
10.811,21252.074,0.00005,0.0,0.0
10.817,27185.325,0.00004,0.0,0.0
10.824,30756.557,0.00003,0.0,0.0
10.83,28063.448,0.00004,0.0,0.0
10.836,24252.039,0.00004,0.0,0.0
10.842,17933.174,0.00006,0.0,0.0
10.849,12610.271,0.00008,0.0,0.0
10.855,9296.131,0.00011,0.0,0.0
10.861,7445.292,0.00013,0.0,0.0
10.868,6109.962,0.00016,0.0,0.0
10.874,5627.86,0.00018,0.0,0.0
10.88,5177.123,0.00019,0.0,0.0
10.887,5019.348,0.0002,0.0,0.0
10.893,4862.013,0.00021,0.0,0.0
10.899,4776.387,0.00021,0.0,0.0
10.906,4735.51,0.00021,0.0,0.0
10.912,4684.517,0.00021,0.0,0.0
10.918,4681.912,0.00021,0.0,0.0
10.925,4663.109,0.00021,0.0,0.0
10.931,4662.379,0.00021,0.0,0.0
10.937,4651.283,0.00021,0.0,0.0
10.944,4635.078,0.00022,0.0,0.0
10.95,4625.822,0.00022,0.0,0.0
10.956,4609.228,0.00022,0.0,0.0
10.963,4599.606,0.00022,0.0,0.0
10.969,4577.051,0.00022,0.0,0.0
10.975,4548.038,0.00022,0.0,0.0
10.982,4548.125,0.00022,0.0,0.0
10.988,4535.85,0.00022,0.0,0.0
10.994,4520.756,0.00022,0.0,0.0
11.0,4522.973,0.00022,0.0,0.0
11.007,4498.99,0.00022,0.0,0.0
11.013,4516.626,0.00022,0.0,0.0
11.019,4497.532,0.00022,0.0,0.0
11.026,4500.909,0.00022,0.0,0.0
11.032,4504.584,0.00022,0.0,0.0
11.038,4488.95,0.00022,0.0,0.0
11.045,4492.771,0.00022,0.0,0.0
11.051,4486.089,0.00022,0.0,0.0
11.057,4496.204,0.00022,0.0,0.0
11.064,4482.973,0.00022,0.0,0.0
11.07,4501.985,0.00022,0.0,0.0
11.076,4469.748,0.00022,0.0,0.0
11.083,4485.012,0.00022,0.0,0.0
11.089,4511.587,0.00022,0.0,0.0
11.095,4503.406,0.00022,0.0,0.0
11.102,4506.031,0.00022,0.0,0.0
11.108,4515.277,0.00022,0.0,0.0
11.114,4543.071,0.00022,0.0,0.0
11.121,4537.445,0.00022,0.0,0.0
11.127,4565.677,0.00022,0.0,0.0
11.133,4578.421,0.00022,0.0,0.0
11.14,4648.525,0.00022,0.0,0.0
11.146,4729.0,0.00021,0.0,0.0
11.152,4993.027,0.0002,0.0,0.0
11.158,5488.171,0.00018,0.0,0.0
11.165,6377.25,0.00016,0.0,0.0
11.171,6002.534,0.00017,0.0,0.0
11.177,6062.425,0.00016,0.0,0.0
11.184,6260.939,0.00016,0.0,0.0
11.19,5999.298,0.00017,0.0,0.0
11.196,6571.677,0.00015,0.0,0.0
11.203,6187.82,0.00016,0.0,0.0
11.209,5300.838,0.00019,0.0,0.0
11.215,4912.916,0.0002,0.0,0.0
11.222,4730.293,0.00021,0.0,0.0
11.228,4628.571,0.00022,0.0,0.0
11.234,4575.709,0.00022,0.0,0.0
11.241,4576.606,0.00022,0.0,0.0
11.247,4528.995,0.00022,0.0,0.0
11.253,4546.014,0.00022,0.0,0.0
11.26,4496.992,0.00022,0.0,0.0
11.266,4519.672,0.00022,0.0,0.0
11.272,4488.438,0.00022,0.0,0.0
11.279,4477.732,0.00022,0.0,0.0
11.285,4464.115,0.00022,0.0,0.0
11.291,4461.384,0.00022,0.0,0.0
11.298,4461.004,0.00022,0.0,0.0
11.304,4427.28,0.00023,0.0,0.0
11.31,4466.733,0.00022,0.0,0.0
11.316,4434.929,0.00023,0.0,0.0
11.323,4443.373,0.00023,0.0,0.0
11.329,4447.886,0.00022,0.0,0.0
11.335,4437.032,0.00023,0.0,0.0
11.342,4420.711,0.00023,0.0,0.0
11.348,4428.694,0.00023,0.0,0.0
11.354,4411.625,0.00023,0.0,0.0
11.361,4432.511,0.00023,0.0,0.0
11.367,4400.318,0.00023,0.0,0.0
11.373,4415.643,0.00023,0.0,0.0
11.38,4402.775,0.00023,0.0,0.0
11.386,4387.751,0.00023,0.0,0.0
11.392,4405.071,0.00023,0.0,0.0
11.399,4401.675,0.00023,0.0,0.0
11.405,4379.405,0.00023,0.0,0.0
11.411,4401.9,0.00023,0.0,0.0
11.418,4380.294,0.00023,0.0,0.0
11.424,4394.733,0.00023,0.0,0.0
11.43,4378.122,0.00023,0.0,0.0
11.437,4373.906,0.00023,0.0,0.0
11.443,4388.69,0.00023,0.0,0.0
11.449,4400.919,0.00023,0.0,0.0
11.456,4368.617,0.00023,0.0,0.0
11.462,4385.469,0.00023,0.0,0.0
11.468,4379.555,0.00023,0.0,0.0
11.474,4386.702,0.00023,0.0,0.0
11.481,4381.934,0.00023,0.0,0.0
11.487,4388.022,0.00023,0.0,0.0
11.493,4394.392,0.00023,0.0,0.0
11.5,4393.109,0.00023,0.0,0.0
11.506,4427.018,0.00023,0.0,0.0
11.512,4436.887,0.00023,0.0,0.0
11.519,4474.053,0.00022,0.0,0.0
11.525,4474.694,0.00022,0.0,0.0
11.531,4467.592,0.00022,0.0,0.0
11.538,4471.264,0.00022,0.0,0.0
11.544,4442.423,0.00023,0.0,0.0
11.55,4424.688,0.00023,0.0,0.0
11.557,4405.153,0.00023,0.0,0.0
11.563,4401.819,0.00023,0.0,0.0
11.569,4382.198,0.00023,0.0,0.0
11.576,4367.5,0.00023,0.0,0.0
11.582,4382.346,0.00023,0.0,0.0
11.588,4375.891,0.00023,0.0,0.0
11.595,4369.661,0.00023,0.0,0.0
11.601,4364.706,0.00023,0.0,0.0
11.607,4383.495,0.00023,0.0,0.0
11.614,4378.144,0.00023,0.0,0.0
11.62,4372.045,0.00023,0.0,0.0
11.626,4367.77,0.00023,0.0,0.0
11.632,4377.108,0.00023,0.0,0.0
11.639,4379.198,0.00023,0.0,0.0
11.645,4386.114,0.00023,0.0,0.0
11.651,4366.97,0.00023,0.0,0.0
11.658,4377.346,0.00023,0.0,0.0
11.664,4384.797,0.00023,0.0,0.0
11.67,4375.014,0.00023,0.0,0.0
11.677,4391.824,0.00023,0.0,0.0
11.683,4378.764,0.00023,0.0,0.0
11.689,4390.121,0.00023,0.0,0.0
11.696,4385.611,0.00023,0.0,0.0
11.702,4383.329,0.00023,0.0,0.0
11.708,4381.108,0.00023,0.0,0.0
11.715,4389.653,0.00023,0.0,0.0
11.721,4378.897,0.00023,0.0,0.0
11.727,4369.636,0.00023,0.0,0.0
11.734,4384.382,0.00023,0.0,0.0
11.74,4378.031,0.00023,0.0,0.0
11.746,4369.091,0.00023,0.0,0.0
11.753,4370.849,0.00023,0.0,0.0
11.759,4376.61,0.00023,0.0,0.0
11.765,4384.669,0.00023,0.0,0.0
11.772,4368.005,0.00023,0.0,0.0
11.778,4382.253,0.00023,0.0,0.0
11.784,4374.815,0.00023,0.0,0.0
11.79,4357.072,0.00023,0.0,0.0
11.797,4363.385,0.00023,0.0,0.0
11.803,4355.191,0.00023,0.0,0.0
11.809,4353.495,0.00023,0.0,0.0
11.816,4351.42,0.00023,0.0,0.0
11.822,4346.629,0.00023,0.0,0.0
11.828,4324.536,0.00023,0.0,0.0
11.835,4347.903,0.00023,0.0,0.0
11.841,4321.789,0.00023,0.0,0.0
11.847,4332.742,0.00023,0.0,0.0
11.854,4323.574,0.00023,0.0,0.0
11.86,4312.409,0.00023,0.0,0.0
11.866,4330.894,0.00023,0.0,0.0
11.873,4302.065,0.00023,0.0,0.0
11.879,4309.973,0.00023,0.0,0.0
11.885,4289.994,0.00023,0.0,0.0
11.892,4304.474,0.00023,0.0,0.0
11.898,4296.656,0.00023,0.0,0.0
11.904,4304.887,0.00023,0.0,0.0
11.911,4315.119,0.00023,0.0,0.0
11.917,4297.891,0.00023,0.0,0.0
11.923,4296.507,0.00023,0.0,0.0
11.93,4279.462,0.00023,0.0,0.0
11.936,4279.883,0.00023,0.0,0.0
11.942,4298.901,0.00023,0.0,0.0
11.948,4299.207,0.00023,0.0,0.0
11.955,4271.976,0.00023,0.0,0.0
11.961,4306.184,0.00023,0.0,0.0
11.967,4291.56,0.00023,0.0,0.0
11.974,4283.107,0.00023,0.0,0.0
11.98,4279.417,0.00023,0.0,0.0
11.986,4276.416,0.00023,0.0,0.0
11.993,4286.299,0.00023,0.0,0.0
11.999,4308.612,0.00023,0.0,0.0
12.005,4299.959,0.00023,0.0,0.0
12.012,4316.198,0.00023,0.0,0.0
12.018,4306.288,0.00023,0.0,0.0
12.024,4313.137,0.00023,0.0,0.0
12.031,4305.244,0.00023,0.0,0.0
12.037,4312.981,0.00023,0.0,0.0
12.043,4330.054,0.00023,0.0,0.0
12.05,4373.978,0.00023,0.0,0.0
12.056,4349.74,0.00023,0.0,0.0
12.062,4461.145,0.00022,0.0,0.0
12.069,4536.572,0.00022,0.0,0.0
12.075,4350.883,0.00023,0.0,0.0
12.081,5525.211,0.00018,0.0,0.0
12.088,4446.566,0.00022,0.0,0.0
12.094,5344.518,0.00019,0.0,0.0
12.1,5891.509,0.00017,0.0,0.0
12.106,4794.376,0.00021,0.0,0.0
12.113,4771.501,0.00021,0.0,0.0
12.119,4846.511,0.00021,0.0,0.0
12.125,4373.459,0.00023,0.0,0.0
12.132,4371.146,0.00023,0.0,0.0
12.138,4276.344,0.00023,0.0,0.0
12.144,4275.547,0.00023,0.0,0.0
12.151,4254.923,0.00024,0.0,0.0
12.157,4205.914,0.00024,0.0,0.0
12.163,4230.673,0.00024,0.0,0.0
12.17,4195.002,0.00024,0.0,0.0
12.176,4201.438,0.00024,0.0,0.0
12.182,4140.689,0.00024,0.0,0.0
12.189,4168.298,0.00024,0.0,0.0
12.195,4131.42,0.00024,0.0,0.0
12.201,4161.228,0.00024,0.0,0.0
12.208,4128.839,0.00024,0.0,0.0
12.214,4097.322,0.00024,0.0,0.0
12.22,4122.663,0.00024,0.0,0.0
12.227,4075.712,0.00025,0.0,0.0
12.233,4080.156,0.00025,0.0,0.0
12.239,4061.48,0.00025,0.0,0.0
12.246,4084.36,0.00024,0.0,0.0
12.252,4035.441,0.00025,0.0,0.0
12.258,4074.172,0.00025,0.0,0.0
12.264,4043.987,0.00025,0.0,0.0
12.271,4043.47,0.00025,0.0,0.0
12.277,4029.322,0.00025,0.0,0.0
12.283,4014.827,0.00025,0.0,0.0
12.29,4031.489,0.00025,0.0,0.0
12.296,4012.173,0.00025,0.0,0.0
12.302,4026.117,0.00025,0.0,0.0
12.309,3995.2,0.00025,0.0,0.0
12.315,4028.506,0.00025,0.0,0.0
12.321,4001.052,0.00025,0.0,0.0
12.328,4002.183,0.00025,0.0,0.0
12.334,3993.375,0.00025,0.0,0.0
12.34,3980.583,0.00025,0.0,0.0
12.347,3981.475,0.00025,0.0,0.0
12.353,3974.498,0.00025,0.0,0.0
12.359,3987.275,0.00025,0.0,0.0
12.366,3957.844,0.00025,0.0,0.0
12.372,3986.626,0.00025,0.0,0.0
12.378,3980.888,0.00025,0.0,0.0
12.385,3974.618,0.00025,0.0,0.0
12.391,3973.557,0.00025,0.0,0.0
12.397,3947.367,0.00025,0.0,0.0
12.404,3962.189,0.00025,0.0,0.0
12.41,3950.065,0.00025,0.0,0.0
12.416,3967.193,0.00025,0.0,0.0
12.422,3931.63,0.00025,0.0,0.0
12.429,3948.927,0.00025,0.0,0.0
12.435,3937.445,0.00025,0.0,0.0
12.441,3934.558,0.00025,0.0,0.0
12.448,3926.454,0.00025,0.0,0.0
12.454,3935.787,0.00025,0.0,0.0
12.46,3928.93,0.00025,0.0,0.0
12.467,3932.321,0.00025,0.0,0.0
12.473,3934.718,0.00025,0.0,0.0
12.479,3926.123,0.00025,0.0,0.0
12.486,3955.123,0.00025,0.0,0.0
12.492,3928.769,0.00025,0.0,0.0
12.498,3951.568,0.00025,0.0,0.0
12.505,3959.785,0.00025,0.0,0.0
12.511,3964.794,0.00025,0.0,0.0
12.517,3979.201,0.00025,0.0,0.0
12.524,3956.459,0.00025,0.0,0.0
12.53,3979.849,0.00025,0.0,0.0
12.536,3947.276,0.00025,0.0,0.0
12.543,3956.666,0.00025,0.0,0.0
12.549,3948.429,0.00025,0.0,0.0
12.555,3941.294,0.00025,0.0,0.0
12.562,3957.002,0.00025,0.0,0.0
12.568,3937.338,0.00025,0.0,0.0
12.574,3940.774,0.00025,0.0,0.0
12.58,3966.426,0.00025,0.0,0.0
12.587,3965.936,0.00025,0.0,0.0
12.593,3978.215,0.00025,0.0,0.0
12.599,4000.762,0.00025,0.0,0.0
12.606,4026.939,0.00025,0.0,0.0
12.612,4073.638,0.00025,0.0,0.0
12.618,4116.698,0.00024,0.0,0.0
12.625,4198.933,0.00024,0.0,0.0
12.631,4313.336,0.00023,0.0,0.0
12.637,4475.559,0.00022,0.0,0.0
12.644,4784.905,0.00021,0.0,0.0
12.65,5220.307,0.00019,0.0,0.0
12.656,6046.765,0.00017,0.0,0.0
12.663,7577.619,0.00013,0.0,0.0
12.669,10259.914,0.0001,0.0,0.0
12.675,15487.997,0.00006,0.0,0.0
12.682,21554.572,0.00005,0.0,0.0
12.688,29160.435,0.00003,0.0,0.0
12.694,37908.291,0.00003,0.0,0.0
12.701,36794.02,0.00003,0.0,0.0
12.707,36458.699,0.00003,0.0,0.0
12.713,28245.463,0.00004,0.0,0.0
12.72,21318.034,0.00005,0.0,0.0
12.726,14044.364,0.00007,0.0,0.0
12.732,9642.579,0.0001,0.0,0.0
12.738,7216.6,0.00014,0.0,0.0
12.745,5826.951,0.00017,0.0,0.0
12.751,5105.776,0.0002,0.0,0.0
12.757,4632.897,0.00022,0.0,0.0
12.764,4373.531,0.00023,0.0,0.0
12.77,4215.802,0.00024,0.0,0.0
12.776,4107.508,0.00024,0.0,0.0
12.783,4023.273,0.00025,0.0,0.0
12.789,3970.592,0.00025,0.0,0.0
12.795,3932.38,0.00025,0.0,0.0
12.802,3892.12,0.00026,0.0,0.0
12.808,3865.884,0.00026,0.0,0.0
12.814,3846.166,0.00026,0.0,0.0
12.821,3834.647,0.00026,0.0,0.0
12.827,3822.324,0.00026,0.0,0.0
12.833,3812.502,0.00026,0.0,0.0
12.84,3801.111,0.00026,0.0,0.0
12.846,3798.044,0.00026,0.0,0.0
12.852,3787.257,0.00026,0.0,0.0
12.859,3774.011,0.00026,0.0,0.0
12.865,3775.084,0.00026,0.0,0.0
12.871,3777.371,0.00026,0.0,0.0
12.878,3760.291,0.00027,0.0,0.0
12.884,3768.076,0.00027,0.0,0.0
12.89,3756.678,0.00027,0.0,0.0
12.896,3762.995,0.00027,0.0,0.0
12.903,3768.035,0.00027,0.0,0.0
12.909,3752.595,0.00027,0.0,0.0
12.915,3763.947,0.00027,0.0,0.0
12.922,3768.727,0.00027,0.0,0.0
12.928,3800.441,0.00026,0.0,0.0
12.934,3797.087,0.00026,0.0,0.0
12.941,3835.683,0.00026,0.0,0.0
12.947,3846.476,0.00026,0.0,0.0
12.953,3839.26,0.00026,0.0,0.0
12.96,3825.401,0.00026,0.0,0.0
12.966,3810.358,0.00026,0.0,0.0
12.972,3776.803,0.00026,0.0,0.0
12.979,3753.814,0.00027,0.0,0.0
12.985,3731.526,0.00027,0.0,0.0
12.991,3711.859,0.00027,0.0,0.0
12.998,3696.777,0.00027,0.0,0.0
13.004,3706.881,0.00027,0.0,0.0
13.01,3701.681,0.00027,0.0,0.0
13.017,3687.927,0.00027,0.0,0.0
13.023,3694.683,0.00027,0.0,0.0
13.029,3690.4,0.00027,0.0,0.0
13.036,3657.838,0.00027,0.0,0.0
13.042,3685.53,0.00027,0.0,0.0
13.048,3667.953,0.00027,0.0,0.0
13.054,3675.796,0.00027,0.0,0.0
13.061,3667.462,0.00027,0.0,0.0
13.067,3673.59,0.00027,0.0,0.0
13.073,3655.139,0.00027,0.0,0.0
13.08,3669.915,0.00027,0.0,0.0
13.086,3649.136,0.00027,0.0,0.0
13.092,3658.629,0.00027,0.0,0.0
13.099,3653.838,0.00027,0.0,0.0
13.105,3647.573,0.00027,0.0,0.0
13.111,3642.146,0.00027,0.0,0.0
13.118,3636.571,0.00027,0.0,0.0
13.124,3634.166,0.00028,0.0,0.0
13.13,3628.224,0.00028,0.0,0.0
13.137,3634.079,0.00028,0.0,0.0
13.143,3641.83,0.00027,0.0,0.0
13.149,3631.046,0.00028,0.0,0.0
13.156,3647.153,0.00027,0.0,0.0
13.162,3645.065,0.00027,0.0,0.0
13.168,3647.189,0.00027,0.0,0.0
13.175,3631.547,0.00028,0.0,0.0
13.181,3652.892,0.00027,0.0,0.0
13.187,3656.025,0.00027,0.0,0.0
13.194,3675.88,0.00027,0.0,0.0
13.2,3699.273,0.00027,0.0,0.0
13.206,3731.211,0.00027,0.0,0.0
13.212,3797.171,0.00026,0.0,0.0
13.219,3897.241,0.00026,0.0,0.0
13.225,4101.515,0.00024,0.0,0.0
13.231,4449.346,0.00022,0.0,0.0
13.238,5155.066,0.00019,0.0,0.0
13.244,6300.112,0.00016,0.0,0.0
13.25,8035.521,0.00012,0.0,0.0
13.257,9953.198,0.0001,0.0,0.0
13.263,12046.569,0.00008,0.0,0.0
13.269,12316.887,0.00008,0.0,0.0
13.276,11456.336,0.00009,0.0,0.0
13.282,10383.762,0.0001,0.0,0.0
13.288,7706.412,0.00013,0.0,0.0
13.295,6065.577,0.00016,0.0,0.0
13.301,5008.24,0.0002,0.0,0.0
13.307,4356.969,0.00023,0.0,0.0
13.314,4013.496,0.00025,0.0,0.0
13.32,3802.924,0.00026,0.0,0.0
13.326,3707.111,0.00027,0.0,0.0
13.333,3634.684,0.00028,0.0,0.0
13.339,3594.125,0.00028,0.0,0.0
13.345,3574.205,0.00028,0.0,0.0
13.352,3547.378,0.00028,0.0,0.0
13.358,3537.906,0.00028,0.0,0.0
13.364,3512.587,0.00028,0.0,0.0
13.37,3522.846,0.00028,0.0,0.0
13.377,3508.958,0.00028,0.0,0.0
13.383,3501.061,0.00029,0.0,0.0
13.389,3496.157,0.00029,0.0,0.0
13.396,3489.361,0.00029,0.0,0.0
13.402,3490.471,0.00029,0.0,0.0
13.408,3489.549,0.00029,0.0,0.0
13.415,3477.844,0.00029,0.0,0.0
13.421,3474.193,0.00029,0.0,0.0
13.427,3465.673,0.00029,0.0,0.0
13.434,3457.016,0.00029,0.0,0.0
13.44,3469.162,0.00029,0.0,0.0
13.446,3454.64,0.00029,0.0,0.0
13.453,3445.584,0.00029,0.0,0.0
13.459,3438.405,0.00029,0.0,0.0
13.465,3437.779,0.00029,0.0,0.0
13.472,3428.487,0.00029,0.0,0.0
13.478,3430.17,0.00029,0.0,0.0
13.484,3432.837,0.00029,0.0,0.0
13.491,3427.527,0.00029,0.0,0.0
13.497,3432.341,0.00029,0.0,0.0
13.503,3421.241,0.00029,0.0,0.0
13.51,3416.552,0.00029,0.0,0.0
13.516,3423.01,0.00029,0.0,0.0
13.522,3420.731,0.00029,0.0,0.0
13.528,3415.892,0.00029,0.0,0.0
13.535,3408.382,0.00029,0.0,0.0
13.541,3408.153,0.00029,0.0,0.0
13.547,3406.759,0.00029,0.0,0.0
13.554,3406.113,0.00029,0.0,0.0
13.56,3393.902,0.00029,0.0,0.0
13.566,3396.476,0.00029,0.0,0.0
13.573,3404.678,0.00029,0.0,0.0
13.579,3397.726,0.00029,0.0,0.0
13.585,3404.876,0.00029,0.0,0.0
13.592,3396.852,0.00029,0.0,0.0
13.598,3403.811,0.00029,0.0,0.0
13.604,3398.373,0.00029,0.0,0.0
13.611,3396.881,0.00029,0.0,0.0
13.617,3399.74,0.00029,0.0,0.0
13.623,3403.465,0.00029,0.0,0.0
13.63,3407.384,0.00029,0.0,0.0
13.636,3401.096,0.00029,0.0,0.0
13.642,3407.928,0.00029,0.0,0.0
13.649,3411.892,0.00029,0.0,0.0
13.655,3403.954,0.00029,0.0,0.0
13.661,3407.223,0.00029,0.0,0.0
13.668,3395.113,0.00029,0.0,0.0
13.674,3403.27,0.00029,0.0,0.0
13.68,3392.582,0.00029,0.0,0.0
13.686,3397.976,0.00029,0.0,0.0
13.693,3384.545,0.0003,0.0,0.0
13.699,3396.879,0.00029,0.0,0.0
13.705,3381.983,0.0003,0.0,0.0
13.712,3392.313,0.00029,0.0,0.0
13.718,3387.913,0.0003,0.0,0.0
13.724,3395.778,0.00029,0.0,0.0
13.731,3402.817,0.00029,0.0,0.0
13.737,3387.7,0.0003,0.0,0.0
13.743,3391.755,0.00029,0.0,0.0
13.75,3360.734,0.0003,0.0,0.0
13.756,3356.958,0.0003,0.0,0.0
13.762,3346.013,0.0003,0.0,0.0
13.769,3341.519,0.0003,0.0,0.0
13.775,3338.458,0.0003,0.0,0.0
13.781,3332.454,0.0003,0.0,0.0
13.788,3325.698,0.0003,0.0,0.0
13.794,3322.924,0.0003,0.0,0.0
13.8,3323.918,0.0003,0.0,0.0
13.807,3318.202,0.0003,0.0,0.0
13.813,3328.879,0.0003,0.0,0.0
13.819,3319.66,0.0003,0.0,0.0
13.826,3314.62,0.0003,0.0,0.0
13.832,3307.942,0.0003,0.0,0.0
13.838,3293.239,0.0003,0.0,0.0
13.844,3284.976,0.0003,0.0,0.0
13.851,3288.506,0.0003,0.0,0.0
13.857,3297.869,0.0003,0.0,0.0
13.863,3288.481,0.0003,0.0,0.0
13.87,3289.577,0.0003,0.0,0.0
13.876,3290.187,0.0003,0.0,0.0
13.882,3280.118,0.0003,0.0,0.0
13.889,3291.382,0.0003,0.0,0.0
13.895,3284.593,0.0003,0.0,0.0
13.901,3278.092,0.00031,0.0,0.0
13.908,3267.114,0.00031,0.0,0.0
13.914,3267.862,0.00031,0.0,0.0
13.92,3264.53,0.00031,0.0,0.0
13.927,3261.854,0.00031,0.0,0.0
13.933,3250.113,0.00031,0.0,0.0
13.939,3259.348,0.00031,0.0,0.0
13.946,3255.663,0.00031,0.0,0.0
13.952,3252.808,0.00031,0.0,0.0
13.958,3256.279,0.00031,0.0,0.0
13.965,3251.934,0.00031,0.0,0.0
13.971,3252.906,0.00031,0.0,0.0
13.977,3238.327,0.00031,0.0,0.0
13.984,3231.707,0.00031,0.0,0.0
13.99,3234.552,0.00031,0.0,0.0
13.996,3233.394,0.00031,0.0,0.0
14.002,3227.79,0.00031,0.0,0.0
14.009,3235.159,0.00031,0.0,0.0
14.015,3227.373,0.00031,0.0,0.0
14.021,3219.476,0.00031,0.0,0.0
14.028,3217.004,0.00031,0.0,0.0
14.034,3212.499,0.00031,0.0,0.0
14.04,3214.27,0.00031,0.0,0.0
14.047,3209.433,0.00031,0.0,0.0
14.053,3209.874,0.00031,0.0,0.0
14.059,3199.196,0.00031,0.0,0.0
14.066,3204.099,0.00031,0.0,0.0
14.072,3202.895,0.00031,0.0,0.0
14.078,3203.655,0.00031,0.0,0.0
14.085,3203.506,0.00031,0.0,0.0
14.091,3210.794,0.00031,0.0,0.0
14.097,3192.675,0.00031,0.0,0.0
14.104,3196.906,0.00031,0.0,0.0
14.11,3191.596,0.00031,0.0,0.0
14.116,3187.866,0.00031,0.0,0.0
14.123,3191.594,0.00031,0.0,0.0
14.129,3186.843,0.00031,0.0,0.0
14.135,3193.492,0.00031,0.0,0.0
14.142,3182.681,0.00031,0.0,0.0
14.148,3193.999,0.00031,0.0,0.0
14.154,3184.797,0.00031,0.0,0.0
14.16,3180.349,0.00031,0.0,0.0
14.167,3177.296,0.00031,0.0,0.0
14.173,3179.667,0.00031,0.0,0.0
14.179,3189.655,0.00031,0.0,0.0
14.186,3175.195,0.00031,0.0,0.0
14.192,3176.304,0.00031,0.0,0.0
14.198,3196.638,0.00031,0.0,0.0
14.205,3178.693,0.00031,0.0,0.0
14.211,3183.881,0.00031,0.0,0.0
14.217,3184.555,0.00031,0.0,0.0
14.224,3181.071,0.00031,0.0,0.0
14.23,3198.537,0.00031,0.0,0.0
14.236,3201.851,0.00031,0.0,0.0
14.243,3208.506,0.00031,0.0,0.0
14.249,3209.651,0.00031,0.0,0.0
14.255,3215.24,0.00031,0.0,0.0
14.262,3223.823,0.00031,0.0,0.0
14.268,3224.606,0.00031,0.0,0.0
14.274,3224.002,0.00031,0.0,0.0
14.281,3214.59,0.00031,0.0,0.0
14.287,3209.282,0.00031,0.0,0.0
14.293,3214.062,0.00031,0.0,0.0
14.3,3194.215,0.00031,0.0,0.0
14.306,3188.147,0.00031,0.0,0.0
14.312,3176.578,0.00031,0.0,0.0
14.318,3181.758,0.00031,0.0,0.0
14.325,3173.328,0.00032,0.0,0.0
14.331,3184.667,0.00031,0.0,0.0
14.337,3157.557,0.00032,0.0,0.0
14.344,3162.916,0.00032,0.0,0.0
14.35,3160.456,0.00032,0.0,0.0
14.356,3156.125,0.00032,0.0,0.0
14.363,3153.808,0.00032,0.0,0.0
14.369,3160.678,0.00032,0.0,0.0
14.375,3154.572,0.00032,0.0,0.0
14.382,3153.814,0.00032,0.0,0.0
14.388,3142.741,0.00032,0.0,0.0
14.394,3145.159,0.00032,0.0,0.0
14.401,3140.971,0.00032,0.0,0.0
14.407,3149.123,0.00032,0.0,0.0
14.413,3147.956,0.00032,0.0,0.0
14.42,3150.35,0.00032,0.0,0.0
14.426,3145.501,0.00032,0.0,0.0
14.432,3142.527,0.00032,0.0,0.0
14.439,3140.564,0.00032,0.0,0.0
14.445,3155.297,0.00032,0.0,0.0
14.451,3149.813,0.00032,0.0,0.0
14.458,3144.926,0.00032,0.0,0.0
14.464,3148.96,0.00032,0.0,0.0
14.47,3142.774,0.00032,0.0,0.0
14.476,3148.786,0.00032,0.0,0.0
14.483,3138.826,0.00032,0.0,0.0
14.489,3151.776,0.00032,0.0,0.0
14.495,3128.244,0.00032,0.0,0.0
14.502,3120.839,0.00032,0.0,0.0
14.508,3113.652,0.00032,0.0,0.0
14.514,3121.162,0.00032,0.0,0.0
14.521,3116.212,0.00032,0.0,0.0
14.527,3110.289,0.00032,0.0,0.0
14.533,3114.781,0.00032,0.0,0.0
14.54,3110.912,0.00032,0.0,0.0
14.546,3118.87,0.00032,0.0,0.0
14.552,3114.514,0.00032,0.0,0.0
14.559,3111.531,0.00032,0.0,0.0
14.565,3122.149,0.00032,0.0,0.0
14.571,3099.707,0.00032,0.0,0.0
14.578,3105.214,0.00032,0.0,0.0
14.584,3101.537,0.00032,0.0,0.0
14.59,3107.472,0.00032,0.0,0.0
14.597,3106.331,0.00032,0.0,0.0
14.603,3112.037,0.00032,0.0,0.0
14.609,3102.512,0.00032,0.0,0.0
14.616,3103.611,0.00032,0.0,0.0
14.622,3101.332,0.00032,0.0,0.0
14.628,3083.294,0.00032,0.0,0.0
14.634,3086.971,0.00032,0.0,0.0
14.641,3084.819,0.00032,0.0,0.0
14.647,3089.43,0.00032,0.0,0.0
14.653,3085.344,0.00032,0.0,0.0
14.66,3094.687,0.00032,0.0,0.0
14.666,3095.867,0.00032,0.0,0.0
14.672,3089.193,0.00032,0.0,0.0
14.679,3069.457,0.00033,0.0,0.0
14.685,3085.149,0.00032,0.0,0.0
14.691,3077.806,0.00032,0.0,0.0
14.698,3073.634,0.00033,0.0,0.0
14.704,3084.415,0.00032,0.0,0.0
14.71,3068.232,0.00033,0.0,0.0
14.717,3075.963,0.00033,0.0,0.0
14.723,3077.189,0.00032,0.0,0.0
14.729,3064.502,0.00033,0.0,0.0
14.736,3075.587,0.00033,0.0,0.0
14.742,3070.248,0.00033,0.0,0.0
14.748,3070.018,0.00033,0.0,0.0
14.755,3074.599,0.00033,0.0,0.0
14.761,3066.727,0.00033,0.0,0.0
14.767,3064.837,0.00033,0.0,0.0
14.774,3072.853,0.00033,0.0,0.0
14.78,3063.02,0.00033,0.0,0.0
14.786,3068.47,0.00033,0.0,0.0
14.792,3064.228,0.00033,0.0,0.0
14.799,3055.277,0.00033,0.0,0.0
14.805,3069.009,0.00033,0.0,0.0
14.811,3077.573,0.00032,0.0,0.0
14.818,3065.646,0.00033,0.0,0.0
14.824,3068.04,0.00033,0.0,0.0
14.83,3069.085,0.00033,0.0,0.0
14.837,3070.467,0.00033,0.0,0.0
14.843,3075.768,0.00033,0.0,0.0
14.849,3052.388,0.00033,0.0,0.0
14.856,3071.59,0.00033,0.0,0.0
14.862,3077.512,0.00032,0.0,0.0
14.868,3073.672,0.00033,0.0,0.0
14.875,3066.289,0.00033,0.0,0.0
14.881,3077.749,0.00032,0.0,0.0
14.887,3073.121,0.00033,0.0,0.0
14.894,3077.37,0.00032,0.0,0.0
14.9,3071.078,0.00033,0.0,0.0
14.906,3084.503,0.00032,0.0,0.0
14.913,3079.447,0.00032,0.0,0.0
14.919,3068.349,0.00033,0.0,0.0
14.925,3077.205,0.00032,0.0,0.0
14.932,3073.008,0.00033,0.0,0.0
14.938,3084.173,0.00032,0.0,0.0
14.944,3076.04,0.00033,0.0,0.0
14.95,3069.861,0.00033,0.0,0.0
14.957,3072.003,0.00033,0.0,0.0
14.963,3069.728,0.00033,0.0,0.0
14.969,3072.004,0.00033,0.0,0.0
14.976,3070.653,0.00033,0.0,0.0
14.982,3065.918,0.00033,0.0,0.0
14.988,3064.203,0.00033,0.0,0.0
14.995,3066.754,0.00033,0.0,0.0
15.001,3068.675,0.00033,0.0,0.0
15.007,3068.44,0.00033,0.0,0.0
15.014,3066.747,0.00033,0.0,0.0
15.02,3058.656,0.00033,0.0,0.0
15.026,3060.035,0.00033,0.0,0.0
15.033,3054.352,0.00033,0.0,0.0
15.039,3050.199,0.00033,0.0,0.0
15.045,3048.837,0.00033,0.0,0.0
15.052,3051.476,0.00033,0.0,0.0
15.058,3066.652,0.00033,0.0,0.0
15.064,3063.441,0.00033,0.0,0.0
15.071,3056.39,0.00033,0.0,0.0
15.077,3046.785,0.00033,0.0,0.0
15.083,3054.218,0.00033,0.0,0.0
15.09,3055.797,0.00033,0.0,0.0
15.096,3046.505,0.00033,0.0,0.0
15.102,3040.378,0.00033,0.0,0.0
15.108,3050.323,0.00033,0.0,0.0
15.115,3054.69,0.00033,0.0,0.0
15.121,3038.506,0.00033,0.0,0.0
15.127,3052.771,0.00033,0.0,0.0
15.134,3044.597,0.00033,0.0,0.0
15.14,3049.598,0.00033,0.0,0.0
15.146,3046.415,0.00033,0.0,0.0
15.153,3046.5,0.00033,0.0,0.0
15.159,3043.9,0.00033,0.0,0.0
15.165,3044.453,0.00033,0.0,0.0
15.172,3044.833,0.00033,0.0,0.0
15.178,3043.301,0.00033,0.0,0.0
15.184,3044.314,0.00033,0.0,0.0
15.191,3046.102,0.00033,0.0,0.0
15.197,3046.333,0.00033,0.0,0.0
15.203,3052.517,0.00033,0.0,0.0
15.21,3041.035,0.00033,0.0,0.0
15.216,3044.536,0.00033,0.0,0.0
15.222,3050.889,0.00033,0.0,0.0
15.229,3043.083,0.00033,0.0,0.0
15.235,3057.203,0.00033,0.0,0.0
15.241,3057.265,0.00033,0.0,0.0
15.248,3062.241,0.00033,0.0,0.0
15.254,3069.536,0.00033,0.0,0.0
15.26,3097.571,0.00032,0.0,0.0
15.266,3108.421,0.00032,0.0,0.0
15.273,3139.37,0.00032,0.0,0.0
15.279,3196.844,0.00031,0.0,0.0
15.285,3280.155,0.0003,0.0,0.0
15.292,3444.095,0.00029,0.0,0.0
15.298,3733.739,0.00027,0.0,0.0
15.304,4116.262,0.00024,0.0,0.0
15.311,4769.396,0.00021,0.0,0.0
15.317,5173.24,0.00019,0.0,0.0
15.323,6107.48,0.00016,0.0,0.0
15.33,5784.799,0.00017,0.0,0.0
15.336,5947.313,0.00017,0.0,0.0
15.342,5440.106,0.00018,0.0,0.0
15.349,4641.852,0.00022,0.0,0.0
15.355,4298.765,0.00023,0.0,0.0
15.361,3660.445,0.00027,0.0,0.0
15.368,3465.335,0.00029,0.0,0.0
15.374,3291.982,0.0003,0.0,0.0
15.38,3193.639,0.00031,0.0,0.0
15.387,3137.891,0.00032,0.0,0.0
15.393,3117.459,0.00032,0.0,0.0
15.399,3098.167,0.00032,0.0,0.0
15.406,3084.312,0.00032,0.0,0.0
15.412,3059.618,0.00033,0.0,0.0
15.418,3073.138,0.00033,0.0,0.0
15.424,3064.725,0.00033,0.0,0.0
15.431,3053.035,0.00033,0.0,0.0
15.437,3058.975,0.00033,0.0,0.0
15.443,3062.968,0.00033,0.0,0.0
15.45,3048.026,0.00033,0.0,0.0
15.456,3049.605,0.00033,0.0,0.0
15.462,3056.592,0.00033,0.0,0.0
15.469,3055.147,0.00033,0.0,0.0
15.475,3050.121,0.00033,0.0,0.0
15.481,3045.637,0.00033,0.0,0.0
15.488,3050.425,0.00033,0.0,0.0
15.494,3029.778,0.00033,0.0,0.0
15.5,3041.68,0.00033,0.0,0.0
15.507,3055.012,0.00033,0.0,0.0
15.513,3040.067,0.00033,0.0,0.0
15.519,3042.883,0.00033,0.0,0.0
15.526,3044.118,0.00033,0.0,0.0
15.532,3033.417,0.00033,0.0,0.0
15.538,3028.127,0.00033,0.0,0.0
15.545,3021.64,0.00033,0.0,0.0
15.551,3017.379,0.00033,0.0,0.0
15.557,3025.322,0.00033,0.0,0.0
15.564,3014.677,0.00033,0.0,0.0
15.57,3018.017,0.00033,0.0,0.0
15.576,3017.92,0.00033,0.0,0.0
15.582,2999.813,0.00033,0.0,0.0
15.589,2997.628,0.00033,0.0,0.0
15.595,2981.861,0.00034,0.0,0.0
15.601,2990.35,0.00033,0.0,0.0
15.608,2977.468,0.00034,0.0,0.0
15.614,2979.01,0.00034,0.0,0.0
15.62,2978.2,0.00034,0.0,0.0
15.627,2979.198,0.00034,0.0,0.0
15.633,2963.474,0.00034,0.0,0.0
15.639,2977.892,0.00034,0.0,0.0
15.646,2960.06,0.00034,0.0,0.0
15.652,2963.973,0.00034,0.0,0.0
15.658,2958.868,0.00034,0.0,0.0
15.665,2953.504,0.00034,0.0,0.0
15.671,2959.902,0.00034,0.0,0.0
15.677,2944.911,0.00034,0.0,0.0
15.684,2938.79,0.00034,0.0,0.0
15.69,2947.104,0.00034,0.0,0.0
15.696,2950.315,0.00034,0.0,0.0
15.703,2941.219,0.00034,0.0,0.0
15.709,2933.092,0.00034,0.0,0.0
15.715,2933.105,0.00034,0.0,0.0
15.722,2934.144,0.00034,0.0,0.0
15.728,2924.689,0.00034,0.0,0.0
15.734,2919.476,0.00034,0.0,0.0
15.74,2922.544,0.00034,0.0,0.0
15.747,2930.109,0.00034,0.0,0.0
15.753,2919.061,0.00034,0.0,0.0
15.759,2914.175,0.00034,0.0,0.0
15.766,2917.777,0.00034,0.0,0.0
15.772,2907.853,0.00034,0.0,0.0
15.778,2916.444,0.00034,0.0,0.0
15.785,2907.942,0.00034,0.0,0.0
15.791,2903.134,0.00034,0.0,0.0
15.797,2898.948,0.00034,0.0,0.0
15.804,2910.612,0.00034,0.0,0.0
15.81,2900.716,0.00034,0.0,0.0
15.816,2894.079,0.00035,0.0,0.0
15.823,2890.874,0.00035,0.0,0.0
15.829,2890.868,0.00035,0.0,0.0
15.835,2883.97,0.00035,0.0,0.0
15.842,2893.545,0.00035,0.0,0.0
15.848,2897.29,0.00035,0.0,0.0
15.854,2887.81,0.00035,0.0,0.0
15.861,2883.077,0.00035,0.0,0.0
15.867,2888.415,0.00035,0.0,0.0
15.873,2874.291,0.00035,0.0,0.0
15.88,2876.169,0.00035,0.0,0.0
15.886,2880.429,0.00035,0.0,0.0
15.892,2870.907,0.00035,0.0,0.0
15.898,2879.531,0.00035,0.0,0.0
15.905,2860.756,0.00035,0.0,0.0
15.911,2864.152,0.00035,0.0,0.0
15.917,2872.761,0.00035,0.0,0.0
15.924,2866.123,0.00035,0.0,0.0
15.93,2861.772,0.00035,0.0,0.0
15.936,2867.332,0.00035,0.0,0.0
15.943,2872.788,0.00035,0.0,0.0
15.949,2868.135,0.00035,0.0,0.0
15.955,2864.053,0.00035,0.0,0.0
15.962,2861.339,0.00035,0.0,0.0
15.968,2865.881,0.00035,0.0,0.0
15.974,2855.585,0.00035,0.0,0.0
15.981,2851.56,0.00035,0.0,0.0
15.987,2851.552,0.00035,0.0,0.0
15.993,2848.075,0.00035,0.0,0.0
16.0,2860.227,0.00035,0.0,0.0
16.006,2858.724,0.00035,0.0,0.0
16.012,2853.177,0.00035,0.0,0.0
16.019,2855.215,0.00035,0.0,0.0
16.025,2850.082,0.00035,0.0,0.0
16.031,2847.63,0.00035,0.0,0.0
16.038,2855.884,0.00035,0.0,0.0
16.044,2860.211,0.00035,0.0,0.0
16.05,2843.823,0.00035,0.0,0.0
16.056,2850.811,0.00035,0.0,0.0
16.063,2849.394,0.00035,0.0,0.0
16.069,2845.437,0.00035,0.0,0.0
16.075,2848.802,0.00035,0.0,0.0
16.082,2833.033,0.00035,0.0,0.0
16.088,2846.164,0.00035,0.0,0.0
16.094,2845.962,0.00035,0.0,0.0
16.101,2848.404,0.00035,0.0,0.0
16.107,2840.228,0.00035,0.0,0.0
16.113,2846.522,0.00035,0.0,0.0
16.12,2850.877,0.00035,0.0,0.0
16.126,2842.477,0.00035,0.0,0.0
16.132,2842.264,0.00035,0.0,0.0
16.139,2830.817,0.00035,0.0,0.0
16.145,2840.487,0.00035,0.0,0.0
16.151,2836.44,0.00035,0.0,0.0
16.158,2841.197,0.00035,0.0,0.0
16.164,2832.556,0.00035,0.0,0.0
16.17,2840.532,0.00035,0.0,0.0
16.177,2827.934,0.00035,0.0,0.0
16.183,2833.428,0.00035,0.0,0.0
16.189,2827.727,0.00035,0.0,0.0
16.196,2823.363,0.00035,0.0,0.0
16.202,2829.392,0.00035,0.0,0.0
16.208,2822.168,0.00035,0.0,0.0
16.214,2828.863,0.00035,0.0,0.0
16.221,2835.945,0.00035,0.0,0.0
16.227,2822.688,0.00035,0.0,0.0
16.233,2835.06,0.00035,0.0,0.0
16.24,2820.078,0.00035,0.0,0.0
16.246,2829.424,0.00035,0.0,0.0
16.252,2832.681,0.00035,0.0,0.0
16.259,2820.458,0.00035,0.0,0.0
16.265,2819.582,0.00035,0.0,0.0
16.271,2821.912,0.00035,0.0,0.0
16.278,2819.956,0.00035,0.0,0.0
16.284,2822.374,0.00035,0.0,0.0
16.29,2822.272,0.00035,0.0,0.0
16.297,2821.717,0.00035,0.0,0.0
16.303,2827.008,0.00035,0.0,0.0
16.309,2834.516,0.00035,0.0,0.0
16.316,2830.694,0.00035,0.0,0.0
16.322,2830.926,0.00035,0.0,0.0
16.328,2831.857,0.00035,0.0,0.0
16.335,2821.185,0.00035,0.0,0.0
16.341,2825.813,0.00035,0.0,0.0
16.347,2821.504,0.00035,0.0,0.0
16.354,2838.708,0.00035,0.0,0.0
16.36,2822.22,0.00035,0.0,0.0
16.366,2831.099,0.00035,0.0,0.0
16.372,2806.48,0.00036,0.0,0.0
16.379,2819.605,0.00035,0.0,0.0
16.385,2821.755,0.00035,0.0,0.0
16.391,2816.406,0.00036,0.0,0.0
16.398,2812.955,0.00036,0.0,0.0
16.404,2827.586,0.00035,0.0,0.0
16.41,2823.637,0.00035,0.0,0.0
16.417,2817.12,0.00035,0.0,0.0
16.423,2810.064,0.00036,0.0,0.0
16.429,2828.534,0.00035,0.0,0.0
16.436,2821.304,0.00035,0.0,0.0
16.442,2828.68,0.00035,0.0,0.0
16.448,2829.451,0.00035,0.0,0.0
16.455,2831.71,0.00035,0.0,0.0
16.461,2821.84,0.00035,0.0,0.0
16.467,2830.404,0.00035,0.0,0.0
16.474,2828.188,0.00035,0.0,0.0
16.48,2827.216,0.00035,0.0,0.0
16.486,2826.907,0.00035,0.0,0.0
16.493,2842.601,0.00035,0.0,0.0
16.499,2842.829,0.00035,0.0,0.0
16.505,2843.303,0.00035,0.0,0.0
16.512,2852.86,0.00035,0.0,0.0
16.518,2846.774,0.00035,0.0,0.0
16.524,2844.047,0.00035,0.0,0.0
16.53,2851.524,0.00035,0.0,0.0
16.537,2848.982,0.00035,0.0,0.0
16.543,2845.923,0.00035,0.0,0.0
16.549,2844.987,0.00035,0.0,0.0
16.556,2841.189,0.00035,0.0,0.0
16.562,2842.962,0.00035,0.0,0.0
16.568,2840.764,0.00035,0.0,0.0
16.575,2848.935,0.00035,0.0,0.0
16.581,2839.753,0.00035,0.0,0.0
16.587,2844.365,0.00035,0.0,0.0
16.594,2849.173,0.00035,0.0,0.0
