"x","y_obs","weight","y_calc","y_bkg"
0.8,2856.821,0.00035,0.0,0.0
0.806,3334.627,0.0003,0.0,0.0
0.813,3462.045,0.00029,0.0,0.0
0.819,3268.572,0.00031,0.0,0.0
0.825,3992.001,0.00025,0.0,0.0
0.832,3732.194,0.00027,0.0,0.0
0.838,4105.067,0.00024,0.0,0.0
0.844,4412.931,0.00023,0.0,0.0
0.851,4244.928,0.00024,0.0,0.0
0.857,4754.836,0.00021,0.0,0.0
0.863,5091.577,0.0002,0.0,0.0
0.87,4700.867,0.00021,0.0,0.0
0.876,5564.608,0.00018,0.0,0.0
0.882,5387.305,0.00019,0.0,0.0
0.888,5666.385,0.00018,0.0,0.0
0.895,5917.136,0.00017,0.0,0.0
0.901,5937.999,0.00017,0.0,0.0
0.907,6434.273,0.00016,0.0,0.0
0.914,6580.089,0.00015,0.0,0.0
0.92,6272.979,0.00016,0.0,0.0
0.926,6865.769,0.00015,0.0,0.0
0.933,6928.348,0.00014,0.0,0.0
0.939,6758.366,0.00015,0.0,0.0
0.945,7378.191,0.00014,0.0,0.0
0.952,6991.292,0.00014,0.0,0.0
0.958,7406.403,0.00014,0.0,0.0
0.964,7418.25,0.00013,0.0,0.0
0.971,7138.789,0.00014,0.0,0.0
0.977,7673.971,0.00013,0.0,0.0
0.983,7600.184,0.00013,0.0,0.0
0.99,7446.938,0.00013,0.0,0.0
0.996,7788.945,0.00013,0.0,0.0
1.002,7555.079,0.00013,0.0,0.0
1.009,7681.602,0.00013,0.0,0.0
1.015,7878.395,0.00013,0.0,0.0
1.021,7567.61,0.00013,0.0,0.0
1.028,7872.428,0.00013,0.0,0.0
1.034,7680.96,0.00013,0.0,0.0
1.04,7670.87,0.00013,0.0,0.0
1.046,7738.841,0.00013,0.0,0.0
1.053,7739.198,0.00013,0.0,0.0
1.059,7684.828,0.00013,0.0,0.0
1.065,7818.324,0.00013,0.0,0.0
1.072,7594.298,0.00013,0.0,0.0
1.078,7694.484,0.00013,0.0,0.0
1.084,7580.033,0.00013,0.0,0.0
1.091,7639.504,0.00013,0.0,0.0
1.097,7653.606,0.00013,0.0,0.0
1.103,7577.503,0.00013,0.0,0.0
1.11,7543.817,0.00013,0.0,0.0
1.116,7507.921,0.00013,0.0,0.0
1.122,7424.072,0.00013,0.0,0.0
1.129,7499.104,0.00013,0.0,0.0
1.135,7416.355,0.00013,0.0,0.0
1.141,7403.578,0.00014,0.0,0.0
1.148,7359.697,0.00014,0.0,0.0
1.154,7226.121,0.00014,0.0,0.0
1.16,7240.25,0.00014,0.0,0.0
1.167,7122.473,0.00014,0.0,0.0
1.173,7127.099,0.00014,0.0,0.0
1.179,7156.368,0.00014,0.0,0.0
1.186,7060.602,0.00014,0.0,0.0
1.192,7024.956,0.00014,0.0,0.0
1.198,7030.674,0.00014,0.0,0.0
1.204,6902.196,0.00014,0.0,0.0
1.211,6935.465,0.00014,0.0,0.0
1.217,6851.906,0.00015,0.0,0.0
1.223,6803.961,0.00015,0.0,0.0
1.23,6788.555,0.00015,0.0,0.0
1.236,6721.51,0.00015,0.0,0.0
1.242,6701.225,0.00015,0.0,0.0
1.249,6690.09,0.00015,0.0,0.0
1.255,6590.887,0.00015,0.0,0.0
1.261,6582.792,0.00015,0.0,0.0
1.268,6562.582,0.00015,0.0,0.0
1.274,6512.644,0.00015,0.0,0.0
1.28,6565.07,0.00015,0.0,0.0
1.287,6518.043,0.00015,0.0,0.0
1.293,6476.146,0.00015,0.0,0.0
1.299,6440.416,0.00016,0.0,0.0
1.306,6445.399,0.00016,0.0,0.0
1.312,6391.468,0.00016,0.0,0.0
1.318,6417.446,0.00016,0.0,0.0
1.325,6359.1,0.00016,0.0,0.0
1.331,6381.65,0.00016,0.0,0.0
1.337,6341.162,0.00016,0.0,0.0
1.344,6345.234,0.00016,0.0,0.0
1.35,6323.009,0.00016,0.0,0.0
1.356,6267.208,0.00016,0.0,0.0
1.362,6306.1,0.00016,0.0,0.0
1.369,6287.896,0.00016,0.0,0.0
1.375,6296.001,0.00016,0.0,0.0
1.381,6229.382,0.00016,0.0,0.0
1.388,6264.805,0.00016,0.0,0.0
1.394,6203.405,0.00016,0.0,0.0
1.4,6240.88,0.00016,0.0,0.0
1.407,6190.84,0.00016,0.0,0.0
1.413,6238.702,0.00016,0.0,0.0
1.419,6163.572,0.00016,0.0,0.0
1.426,6191.165,0.00016,0.0,0.0
1.432,6185.793,0.00016,0.0,0.0
1.438,6189.282,0.00016,0.0,0.0
1.445,6152.477,0.00016,0.0,0.0
1.451,6203.159,0.00016,0.0,0.0
1.457,6126.755,0.00016,0.0,0.0
1.464,6147.322,0.00016,0.0,0.0
1.47,6185.058,0.00016,0.0,0.0
1.476,6126.255,0.00016,0.0,0.0
1.483,6163.832,0.00016,0.0,0.0
1.489,6160.596,0.00016,0.0,0.0
1.495,6150.794,0.00016,0.0,0.0
1.502,6161.233,0.00016,0.0,0.0
1.508,6176.652,0.00016,0.0,0.0
1.514,6136.625,0.00016,0.0,0.0
1.52,6189.35,0.00016,0.0,0.0
1.527,6178.682,0.00016,0.0,0.0
1.533,6183.207,0.00016,0.0,0.0
1.539,6205.53,0.00016,0.0,0.0
1.546,6167.26,0.00016,0.0,0.0
1.552,6209.943,0.00016,0.0,0.0
1.558,6206.438,0.00016,0.0,0.0
1.565,6249.713,0.00016,0.0,0.0
1.571,6218.006,0.00016,0.0,0.0
1.577,6205.313,0.00016,0.0,0.0
1.584,6242.925,0.00016,0.0,0.0
1.59,6243.859,0.00016,0.0,0.0
1.596,6227.03,0.00016,0.0,0.0
1.603,6302.151,0.00016,0.0,0.0
1.609,6285.809,0.00016,0.0,0.0
1.615,6267.136,0.00016,0.0,0.0
1.622,6332.975,0.00016,0.0,0.0
1.628,6327.453,0.00016,0.0,0.0
1.634,6322.411,0.00016,0.0,0.0
1.641,6340.477,0.00016,0.0,0.0
1.647,6351.13,0.00016,0.0,0.0
1.653,6383.607,0.00016,0.0,0.0
1.66,6392.514,0.00016,0.0,0.0
1.666,6414.211,0.00016,0.0,0.0
1.672,6432.102,0.00016,0.0,0.0
1.678,6436.643,0.00016,0.0,0.0
1.685,6452.138,0.00015,0.0,0.0
1.691,6477.958,0.00015,0.0,0.0
1.697,6453.739,0.00015,0.0,0.0
1.704,6476.42,0.00015,0.0,0.0
1.71,6480.011,0.00015,0.0,0.0
1.716,6500.873,0.00015,0.0,0.0
1.723,6542.796,0.00015,0.0,0.0
1.729,6552.526,0.00015,0.0,0.0
1.735,6582.302,0.00015,0.0,0.0
1.742,6585.478,0.00015,0.0,0.0
1.748,6573.579,0.00015,0.0,0.0
1.754,6592.278,0.00015,0.0,0.0
1.761,6589.998,0.00015,0.0,0.0
1.767,6594.213,0.00015,0.0,0.0
1.773,6615.112,0.00015,0.0,0.0
1.78,6620.494,0.00015,0.0,0.0
1.786,6622.087,0.00015,0.0,0.0
1.792,6645.813,0.00015,0.0,0.0
1.799,6693.575,0.00015,0.0,0.0
1.805,6692.7,0.00015,0.0,0.0
1.811,6641.384,0.00015,0.0,0.0
1.818,6644.862,0.00015,0.0,0.0
1.824,6691.555,0.00015,0.0,0.0
1.83,6677.635,0.00015,0.0,0.0
1.836,6626.798,0.00015,0.0,0.0
1.843,6682.092,0.00015,0.0,0.0
1.849,6641.634,0.00015,0.0,0.0
1.855,6713.069,0.00015,0.0,0.0
1.862,6661.441,0.00015,0.0,0.0
1.868,6725.223,0.00015,0.0,0.0
1.874,6681.348,0.00015,0.0,0.0
1.881,6701.301,0.00015,0.0,0.0
1.887,6697.699,0.00015,0.0,0.0
1.893,6707.771,0.00015,0.0,0.0
1.9,6741.729,0.00015,0.0,0.0
1.906,6709.145,0.00015,0.0,0.0
1.912,6687.642,0.00015,0.0,0.0
1.919,6643.95,0.00015,0.0,0.0
1.925,6699.629,0.00015,0.0,0.0
1.931,6682.911,0.00015,0.0,0.0
1.938,6682.57,0.00015,0.0,0.0
1.944,6690.915,0.00015,0.0,0.0
1.95,6672.556,0.00015,0.0,0.0
1.957,6697.323,0.00015,0.0,0.0
1.963,6708.242,0.00015,0.0,0.0
1.969,6655.308,0.00015,0.0,0.0
1.976,6704.723,0.00015,0.0,0.0
1.982,6704.026,0.00015,0.0,0.0
1.988,6677.0,0.00015,0.0,0.0
1.994,6708.653,0.00015,0.0,0.0
2.001,6682.576,0.00015,0.0,0.0
2.007,6715.818,0.00015,0.0,0.0
2.013,6733.713,0.00015,0.0,0.0
2.02,6673.955,0.00015,0.0,0.0
2.026,6690.095,0.00015,0.0,0.0
2.032,6727.866,0.00015,0.0,0.0
2.039,6743.191,0.00015,0.0,0.0
2.045,6726.222,0.00015,0.0,0.0
2.051,6711.226,0.00015,0.0,0.0
2.058,6757.438,0.00015,0.0,0.0
2.064,6724.821,0.00015,0.0,0.0
2.07,6756.906,0.00015,0.0,0.0
2.077,6736.122,0.00015,0.0,0.0
2.083,6792.171,0.00015,0.0,0.0
2.089,6760.131,0.00015,0.0,0.0
2.096,6764.812,0.00015,0.0,0.0
2.102,6764.551,0.00015,0.0,0.0
2.108,6797.243,0.00015,0.0,0.0
2.115,6780.51,0.00015,0.0,0.0
2.121,6818.113,0.00015,0.0,0.0
2.127,6833.405,0.00015,0.0,0.0
2.134,6833.448,0.00015,0.0,0.0
2.14,6828.728,0.00015,0.0,0.0
2.146,6865.587,0.00015,0.0,0.0
2.152,6874.628,0.00015,0.0,0.0
2.159,6858.945,0.00015,0.0,0.0
2.165,6888.893,0.00015,0.0,0.0
2.171,6896.737,0.00014,0.0,0.0
2.178,6920.756,0.00014,0.0,0.0
2.184,6936.243,0.00014,0.0,0.0
2.19,6971.967,0.00014,0.0,0.0
2.197,6958.154,0.00014,0.0,0.0
2.203,6997.114,0.00014,0.0,0.0
2.209,7025.268,0.00014,0.0,0.0
2.216,7022.143,0.00014,0.0,0.0
2.222,7006.695,0.00014,0.0,0.0
2.228,7062.275,0.00014,0.0,0.0
2.235,7071.2,0.00014,0.0,0.0
2.241,7094.645,0.00014,0.0,0.0
2.247,7108.642,0.00014,0.0,0.0
2.254,7116.619,0.00014,0.0,0.0
2.26,7151.708,0.00014,0.0,0.0
2.266,7144.927,0.00014,0.0,0.0
2.273,7197.43,0.00014,0.0,0.0
2.279,7215.787,0.00014,0.0,0.0
2.285,7225.142,0.00014,0.0,0.0
2.292,7257.248,0.00014,0.0,0.0
2.298,7269.448,0.00014,0.0,0.0
2.304,7257.501,0.00014,0.0,0.0
2.31,7310.407,0.00014,0.0,0.0
2.317,7341.825,0.00014,0.0,0.0
2.323,7369.728,0.00014,0.0,0.0
2.329,7372.941,0.00014,0.0,0.0
2.336,7419.716,0.00013,0.0,0.0
2.342,7443.002,0.00013,0.0,0.0
2.348,7462.784,0.00013,0.0,0.0
2.355,7508.478,0.00013,0.0,0.0
2.361,7525.301,0.00013,0.0,0.0
2.367,7558.169,0.00013,0.0,0.0
2.374,7615.871,0.00013,0.0,0.0
2.38,7665.874,0.00013,0.0,0.0
2.386,7722.905,0.00013,0.0,0.0
2.393,7819.369,0.00013,0.0,0.0
2.399,7944.818,0.00013,0.0,0.0
2.405,8181.222,0.00012,0.0,0.0
2.412,8391.131,0.00012,0.0,0.0
2.418,8608.815,0.00012,0.0,0.0
2.424,8792.454,0.00011,0.0,0.0
2.431,8832.021,0.00011,0.0,0.0
2.437,8687.625,0.00012,0.0,0.0
2.443,8519.966,0.00012,0.0,0.0
2.45,8341.031,0.00012,0.0,0.0
2.456,8193.562,0.00012,0.0,0.0
2.462,8106.87,0.00012,0.0,0.0
2.468,8086.531,0.00012,0.0,0.0
2.475,8080.937,0.00012,0.0,0.0
2.481,8110.133,0.00012,0.0,0.0
2.487,8105.865,0.00012,0.0,0.0
2.494,8115.128,0.00012,0.0,0.0
2.5,8183.937,0.00012,0.0,0.0
2.506,8183.459,0.00012,0.0,0.0
2.513,8242.123,0.00012,0.0,0.0
2.519,8253.302,0.00012,0.0,0.0
2.525,8280.585,0.00012,0.0,0.0
2.532,8294.47,0.00012,0.0,0.0
2.538,8325.941,0.00012,0.0,0.0
2.544,8355.616,0.00012,0.0,0.0
2.551,8409.608,0.00012,0.0,0.0
2.557,8440.413,0.00012,0.0,0.0
2.563,8455.132,0.00012,0.0,0.0
2.57,8508.301,0.00012,0.0,0.0
2.576,8549.076,0.00012,0.0,0.0
2.582,8582.165,0.00012,0.0,0.0
2.589,8595.218,0.00012,0.0,0.0
2.595,8613.602,0.00012,0.0,0.0
2.601,8661.005,0.00012,0.0,0.0
2.608,8703.476,0.00011,0.0,0.0
2.614,8746.879,0.00011,0.0,0.0
2.62,8746.62,0.00011,0.0,0.0
2.626,8770.618,0.00011,0.0,0.0
2.633,8822.106,0.00011,0.0,0.0
2.639,8888.503,0.00011,0.0,0.0
2.645,8883.214,0.00011,0.0,0.0
2.652,8960.663,0.00011,0.0,0.0
2.658,8942.97,0.00011,0.0,0.0
2.664,8993.454,0.00011,0.0,0.0
2.671,9017.439,0.00011,0.0,0.0
2.677,9050.863,0.00011,0.0,0.0
2.683,9094.293,0.00011,0.0,0.0
2.69,9112.537,0.00011,0.0,0.0
2.696,9161.054,0.00011,0.0,0.0
2.702,9214.701,0.00011,0.0,0.0
2.709,9262.13,0.00011,0.0,0.0
2.715,9256.132,0.00011,0.0,0.0
2.721,9297.038,0.00011,0.0,0.0
2.728,9340.588,0.00011,0.0,0.0
2.734,9376.231,0.00011,0.0,0.0
2.74,9425.125,0.00011,0.0,0.0
2.747,9446.966,0.00011,0.0,0.0
2.753,9478.302,0.00011,0.0,0.0
2.759,9499.038,0.00011,0.0,0.0
2.766,9562.901,0.0001,0.0,0.0
2.772,9606.134,0.0001,0.0,0.0
2.778,9621.014,0.0001,0.0,0.0
2.784,9691.733,0.0001,0.0,0.0
2.791,9716.784,0.0001,0.0,0.0
2.797,9735.232,0.0001,0.0,0.0
2.803,9796.603,0.0001,0.0,0.0
2.81,9817.214,0.0001,0.0,0.0
2.816,9838.349,0.0001,0.0,0.0
2.822,9912.808,0.0001,0.0,0.0
2.829,9946.336,0.0001,0.0,0.0
2.835,9953.59,0.0001,0.0,0.0
2.841,9995.718,0.0001,0.0,0.0
2.848,10052.174,0.0001,0.0,0.0
2.854,10106.882,0.0001,0.0,0.0
2.86,10110.366,0.0001,0.0,0.0
2.867,10146.485,0.0001,0.0,0.0
2.873,10190.88,0.0001,0.0,0.0
2.879,10232.713,0.0001,0.0,0.0
2.886,10246.241,0.0001,0.0,0.0
2.892,10288.909,0.0001,0.0,0.0
2.898,10314.847,0.0001,0.0,0.0
2.905,10355.811,0.0001,0.0,0.0
2.911,10389.747,0.0001,0.0,0.0
2.917,10447.519,0.0001,0.0,0.0
2.924,10474.952,0.0001,0.0,0.0
2.93,10510.545,0.0001,0.0,0.0
2.936,10552.384,0.00009,0.0,0.0
2.942,10574.634,0.00009,0.0,0.0
2.949,10594.754,0.00009,0.0,0.0
2.955,10625.036,0.00009,0.0,0.0
2.961,10641.779,0.00009,0.0,0.0
2.968,10666.305,0.00009,0.0,0.0
2.974,10724.118,0.00009,0.0,0.0
2.98,10728.027,0.00009,0.0,0.0
2.987,10766.763,0.00009,0.0,0.0
2.993,10785.735,0.00009,0.0,0.0
2.999,10802.302,0.00009,0.0,0.0
3.006,10835.921,0.00009,0.0,0.0
3.012,10847.843,0.00009,0.0,0.0
3.018,10874.291,0.00009,0.0,0.0
3.025,10890.786,0.00009,0.0,0.0
3.031,10907.089,0.00009,0.0,0.0
3.037,10931.998,0.00009,0.0,0.0
3.044,10945.451,0.00009,0.0,0.0
3.05,10957.67,0.00009,0.0,0.0
3.056,10951.922,0.00009,0.0,0.0
3.063,10964.58,0.00009,0.0,0.0
3.069,10955.903,0.00009,0.0,0.0
3.075,10994.191,0.00009,0.0,0.0
3.082,10964.555,0.00009,0.0,0.0
3.088,11015.676,0.00009,0.0,0.0
3.094,11005.636,0.00009,0.0,0.0
3.1,11036.339,0.00009,0.0,0.0
3.107,11030.939,0.00009,0.0,0.0
3.113,11007.432,0.00009,0.0,0.0
3.119,11024.938,0.00009,0.0,0.0
3.126,11007.522,0.00009,0.0,0.0
3.132,11016.632,0.00009,0.0,0.0
3.138,10970.216,0.00009,0.0,0.0
3.145,10996.551,0.00009,0.0,0.0
3.151,10976.147,0.00009,0.0,0.0
3.157,10976.028,0.00009,0.0,0.0
3.164,10944.704,0.00009,0.0,0.0
3.17,10940.198,0.00009,0.0,0.0
3.176,10933.781,0.00009,0.0,0.0
3.183,10888.679,0.00009,0.0,0.0
3.189,10891.835,0.00009,0.0,0.0
3.195,10870.714,0.00009,0.0,0.0
3.202,10870.74,0.00009,0.0,0.0
3.208,10846.376,0.00009,0.0,0.0
3.214,10833.751,0.00009,0.0,0.0
3.221,10853.006,0.00009,0.0,0.0
3.227,10793.01,0.00009,0.0,0.0
3.233,10775.743,0.00009,0.0,0.0
3.24,10768.432,0.00009,0.0,0.0
3.246,10730.299,0.00009,0.0,0.0
3.252,10731.513,0.00009,0.0,0.0
3.258,10667.799,0.00009,0.0,0.0
3.265,10655.72,0.00009,0.0,0.0
3.271,10651.331,0.00009,0.0,0.0
3.277,10624.582,0.00009,0.0,0.0
3.284,10602.415,0.00009,0.0,0.0
3.29,10596.744,0.00009,0.0,0.0
3.296,10553.716,0.00009,0.0,0.0
3.303,10540.652,0.00009,0.0,0.0
3.309,10532.029,0.00009,0.0,0.0
3.315,10477.953,0.0001,0.0,0.0
3.322,10451.26,0.0001,0.0,0.0
3.328,10419.92,0.0001,0.0,0.0
3.334,10394.51,0.0001,0.0,0.0
3.341,10397.169,0.0001,0.0,0.0
3.347,10333.236,0.0001,0.0,0.0
3.353,10309.783,0.0001,0.0,0.0
3.36,10300.353,0.0001,0.0,0.0
3.366,10260.391,0.0001,0.0,0.0
3.372,10230.363,0.0001,0.0,0.0
3.379,10216.068,0.0001,0.0,0.0
3.385,10197.235,0.0001,0.0,0.0
3.391,10165.296,0.0001,0.0,0.0
3.398,10114.192,0.0001,0.0,0.0
3.404,10133.742,0.0001,0.0,0.0
3.41,10064.974,0.0001,0.0,0.0
3.416,10049.132,0.0001,0.0,0.0
3.423,10046.68,0.0001,0.0,0.0
3.429,9987.512,0.0001,0.0,0.0
3.435,9998.596,0.0001,0.0,0.0
3.442,9980.572,0.0001,0.0,0.0
3.448,9931.899,0.0001,0.0,0.0
3.454,9948.279,0.0001,0.0,0.0
3.461,9858.884,0.0001,0.0,0.0
3.467,9865.402,0.0001,0.0,0.0
3.473,9838.848,0.0001,0.0,0.0
3.48,9813.859,0.0001,0.0,0.0
3.486,9778.477,0.0001,0.0,0.0
3.492,9758.216,0.0001,0.0,0.0
3.499,9743.219,0.0001,0.0,0.0
3.505,9719.236,0.0001,0.0,0.0
3.511,9680.853,0.0001,0.0,0.0
3.518,9681.867,0.0001,0.0,0.0
3.524,9660.136,0.0001,0.0,0.0
3.53,9611.037,0.0001,0.0,0.0
3.537,9612.222,0.0001,0.0,0.0
3.543,9598.886,0.0001,0.0,0.0
3.549,9578.541,0.0001,0.0,0.0
3.556,9564.904,0.0001,0.0,0.0
3.562,9557.857,0.0001,0.0,0.0
3.568,9509.158,0.00011,0.0,0.0
3.574,9513.49,0.00011,0.0,0.0
3.581,9498.096,0.00011,0.0,0.0
3.587,9505.823,0.00011,0.0,0.0
3.593,9463.78,0.00011,0.0,0.0
3.6,9477.079,0.00011,0.0,0.0
3.606,9463.031,0.00011,0.0,0.0
3.612,9431.912,0.00011,0.0,0.0
3.619,9437.246,0.00011,0.0,0.0
3.625,9446.375,0.00011,0.0,0.0
3.631,9429.645,0.00011,0.0,0.0
3.638,9419.245,0.00011,0.0,0.0
3.644,9420.286,0.00011,0.0,0.0
3.65,9425.618,0.00011,0.0,0.0
3.657,9416.413,0.00011,0.0,0.0
3.663,9419.079,0.00011,0.0,0.0
3.669,9449.173,0.00011,0.0,0.0
3.676,9454.705,0.00011,0.0,0.0
3.682,9448.689,0.00011,0.0,0.0
3.688,9455.212,0.00011,0.0,0.0
3.695,9470.06,0.00011,0.0,0.0
3.701,9494.439,0.00011,0.0,0.0
3.707,9501.042,0.00011,0.0,0.0
3.714,9466.117,0.00011,0.0,0.0
3.72,9518.698,0.00011,0.0,0.0
3.726,9486.97,0.00011,0.0,0.0
3.732,9521.325,0.00011,0.0,0.0
3.739,9560.217,0.0001,0.0,0.0
3.745,9555.68,0.0001,0.0,0.0
3.751,9588.545,0.0001,0.0,0.0
3.758,9599.592,0.0001,0.0,0.0
3.764,9590.785,0.0001,0.0,0.0
3.77,9607.14,0.0001,0.0,0.0
3.777,9604.787,0.0001,0.0,0.0
3.783,9633.911,0.0001,0.0,0.0
3.789,9679.44,0.0001,0.0,0.0
3.796,9623.065,0.0001,0.0,0.0
3.802,9647.097,0.0001,0.0,0.0
3.808,9666.546,0.0001,0.0,0.0
3.815,9633.379,0.0001,0.0,0.0
3.821,9632.014,0.0001,0.0,0.0
3.827,9669.972,0.0001,0.0,0.0
3.834,9612.974,0.0001,0.0,0.0
3.84,9620.745,0.0001,0.0,0.0
3.846,9589.966,0.0001,0.0,0.0
3.853,9552.819,0.0001,0.0,0.0
3.859,9567.226,0.0001,0.0,0.0
3.865,9522.05,0.00011,0.0,0.0
3.872,9540.875,0.0001,0.0,0.0
3.878,9485.222,0.00011,0.0,0.0
3.884,9446.658,0.00011,0.0,0.0
3.89,9439.731,0.00011,0.0,0.0
3.897,9381.115,0.00011,0.0,0.0
3.903,9329.264,0.00011,0.0,0.0
3.909,9328.313,0.00011,0.0,0.0
3.916,9249.839,0.00011,0.0,0.0
3.922,9237.143,0.00011,0.0,0.0
3.928,9199.363,0.00011,0.0,0.0
3.935,9133.746,0.00011,0.0,0.0
3.941,9145.173,0.00011,0.0,0.0
3.947,9073.396,0.00011,0.0,0.0
3.954,9046.225,0.00011,0.0,0.0
3.96,9037.377,0.00011,0.0,0.0
3.966,8917.171,0.00011,0.0,0.0
3.973,8964.737,0.00011,0.0,0.0
3.979,8896.043,0.00011,0.0,0.0
3.985,8797.745,0.00011,0.0,0.0
3.992,8849.081,0.00011,0.0,0.0
3.998,8749.305,0.00011,0.0,0.0
4.004,8744.87,0.00011,0.0,0.0
4.011,8757.57,0.00011,0.0,0.0
4.017,8665.962,0.00012,0.0,0.0
4.023,8680.226,0.00012,0.0,0.0
4.03,8614.686,0.00012,0.0,0.0
4.036,8559.684,0.00012,0.0,0.0
4.042,8603.261,0.00012,0.0,0.0
4.048,8529.262,0.00012,0.0,0.0
4.055,8477.509,0.00012,0.0,0.0
4.061,8504.429,0.00012,0.0,0.0
4.067,8421.13,0.00012,0.0,0.0
4.074,8458.36,0.00012,0.0,0.0
4.08,8437.667,0.00012,0.0,0.0
4.086,8341.315,0.00012,0.0,0.0
4.093,8411.528,0.00012,0.0,0.0
4.099,8314.38,0.00012,0.0,0.0
4.105,8298.887,0.00012,0.0,0.0
4.112,8365.564,0.00012,0.0,0.0
4.118,8236.021,0.00012,0.0,0.0
4.124,8301.739,0.00012,0.0,0.0
4.131,8231.72,0.00012,0.0,0.0
4.137,8225.385,0.00012,0.0,0.0
4.143,8280.805,0.00012,0.0,0.0
4.15,8189.214,0.00012,0.0,0.0
4.156,8197.534,0.00012,0.0,0.0
4.162,8238.452,0.00012,0.0,0.0
4.169,8115.757,0.00012,0.0,0.0
4.175,8220.809,0.00012,0.0,0.0
4.181,8168.686,0.00012,0.0,0.0
4.188,8078.11,0.00012,0.0,0.0
4.194,8215.774,0.00012,0.0,0.0
4.2,8133.77,0.00012,0.0,0.0
4.206,8136.659,0.00012,0.0,0.0
4.213,8171.285,0.00012,0.0,0.0
4.219,8085.218,0.00012,0.0,0.0
4.225,8137.236,0.00012,0.0,0.0
4.232,8120.211,0.00012,0.0,0.0
4.238,8071.365,0.00012,0.0,0.0
4.244,8138.39,0.00012,0.0,0.0
4.251,8100.139,0.00012,0.0,0.0
4.257,8048.74,0.00012,0.0,0.0
4.263,8126.214,0.00012,0.0,0.0
4.27,8068.4,0.00012,0.0,0.0
4.276,8134.414,0.00012,0.0,0.0
4.282,8098.359,0.00012,0.0,0.0
4.289,8064.845,0.00012,0.0,0.0
4.295,8123.212,0.00012,0.0,0.0
4.301,8042.555,0.00012,0.0,0.0
4.308,8112.672,0.00012,0.0,0.0
4.314,8048.847,0.00012,0.0,0.0
4.32,8057.883,0.00012,0.0,0.0
4.327,8052.617,0.00012,0.0,0.0
4.333,8159.364,0.00012,0.0,0.0
4.339,8031.226,0.00012,0.0,0.0
4.346,8144.955,0.00012,0.0,0.0
4.352,8142.917,0.00012,0.0,0.0
4.358,8092.49,0.00012,0.0,0.0
4.364,8227.071,0.00012,0.0,0.0
4.371,8033.143,0.00012,0.0,0.0
4.377,8294.261,0.00012,0.0,0.0
4.383,8105.019,0.00012,0.0,0.0
4.39,8148.705,0.00012,0.0,0.0
4.396,8234.119,0.00012,0.0,0.0
4.402,8292.299,0.00012,0.0,0.0
4.409,8203.793,0.00012,0.0,0.0
4.415,8348.474,0.00012,0.0,0.0
4.421,8324.465,0.00012,0.0,0.0
4.428,8256.343,0.00012,0.0,0.0
4.434,8500.713,0.00012,0.0,0.0
4.44,8331.605,0.00012,0.0,0.0
4.447,8482.896,0.00012,0.0,0.0
4.453,8477.478,0.00012,0.0,0.0
4.459,8688.635,0.00012,0.0,0.0
4.466,8607.672,0.00012,0.0,0.0
4.472,8563.677,0.00012,0.0,0.0
4.478,8701.598,0.00011,0.0,0.0
4.485,9005.375,0.00011,0.0,0.0
4.491,8836.829,0.00011,0.0,0.0
4.497,8834.228,0.00011,0.0,0.0
4.504,10030.034,0.0001,0.0,0.0
4.51,9173.584,0.00011,0.0,0.0
4.516,12041.276,0.00008,0.0,0.0
4.522,10004.64,0.0001,0.0,0.0
4.529,11079.799,0.00009,0.0,0.0
4.535,23389.54,0.00004,0.0,0.0
4.541,14068.235,0.00007,0.0,0.0
4.548,21865.795,0.00005,0.0,0.0
4.554,42084.974,0.00002,0.0,0.0
4.56,22812.156,0.00004,0.0,0.0
4.567,57293.937,0.00002,0.0,0.0
4.573,28835.811,0.00003,0.0,0.0
4.579,25586.469,0.00004,0.0,0.0
4.586,39484.996,0.00003,0.0,0.0
4.592,13761.377,0.00007,0.0,0.0
4.598,24343.28,0.00004,0.0,0.0
4.605,11219.784,0.00009,0.0,0.0
4.611,9623.266,0.0001,0.0,0.0
4.617,12265.859,0.00008,0.0,0.0
4.624,8904.26,0.00011,0.0,0.0
4.63,9033.174,0.00011,0.0,0.0
4.636,9155.254,0.00011,0.0,0.0
4.643,8752.358,0.00011,0.0,0.0
4.649,8648.89,0.00012,0.0,0.0
4.655,8504.106,0.00012,0.0,0.0
4.662,8343.79,0.00012,0.0,0.0
4.668,8298.695,0.00012,0.0,0.0
4.674,8150.714,0.00012,0.0,0.0
4.68,8017.569,0.00012,0.0,0.0
4.687,8138.084,0.00012,0.0,0.0
4.693,7774.566,0.00013,0.0,0.0
4.699,7887.224,0.00013,0.0,0.0
4.706,7756.41,0.00013,0.0,0.0
4.712,7732.534,0.00013,0.0,0.0
4.718,7678.564,0.00013,0.0,0.0
4.725,7568.823,0.00013,0.0,0.0
4.731,7610.515,0.00013,0.0,0.0
4.737,7462.653,0.00013,0.0,0.0
4.744,7500.108,0.00013,0.0,0.0
4.75,7391.646,0.00014,0.0,0.0
4.756,7389.631,0.00014,0.0,0.0
4.763,7264.494,0.00014,0.0,0.0
4.769,7397.131,0.00014,0.0,0.0
4.775,7202.944,0.00014,0.0,0.0
4.782,7191.62,0.00014,0.0,0.0
4.788,7182.302,0.00014,0.0,0.0
4.794,7132.96,0.00014,0.0,0.0
4.801,7138.822,0.00014,0.0,0.0
4.807,7082.261,0.00014,0.0,0.0
4.813,7176.232,0.00014,0.0,0.0
4.82,7062.363,0.00014,0.0,0.0
4.826,7211.938,0.00014,0.0,0.0
4.832,7305.457,0.00014,0.0,0.0
4.838,7535.984,0.00013,0.0,0.0
4.845,7683.229,0.00013,0.0,0.0
4.851,7967.394,0.00013,0.0,0.0
4.857,7976.205,0.00013,0.0,0.0
4.864,7958.347,0.00013,0.0,0.0
4.87,7743.423,0.00013,0.0,0.0
4.876,7448.97,0.00013,0.0,0.0
4.883,7243.88,0.00014,0.0,0.0
4.889,7028.812,0.00014,0.0,0.0
4.895,6805.35,0.00015,0.0,0.0
4.902,6794.567,0.00015,0.0,0.0
4.908,6639.059,0.00015,0.0,0.0
4.914,6619.791,0.00015,0.0,0.0
4.921,6548.609,0.00015,0.0,0.0
4.927,6533.862,0.00015,0.0,0.0
4.933,6501.385,0.00015,0.0,0.0
4.94,6462.733,0.00015,0.0,0.0
4.946,6432.715,0.00016,0.0,0.0
4.952,6430.355,0.00016,0.0,0.0
4.959,6378.108,0.00016,0.0,0.0
4.965,6359.285,0.00016,0.0,0.0
4.971,6367.105,0.00016,0.0,0.0
4.978,6316.263,0.00016,0.0,0.0
4.984,6320.978,0.00016,0.0,0.0
4.99,6221.761,0.00016,0.0,0.0
4.996,6270.816,0.00016,0.0,0.0
5.003,6228.755,0.00016,0.0,0.0
5.009,6232.957,0.00016,0.0,0.0
5.015,6186.893,0.00016,0.0,0.0
5.022,6155.317,0.00016,0.0,0.0
5.028,6151.684,0.00016,0.0,0.0
5.034,6128.168,0.00016,0.0,0.0
5.041,6156.413,0.00016,0.0,0.0
5.047,6080.43,0.00016,0.0,0.0
5.053,6092.449,0.00016,0.0,0.0
5.06,6030.883,0.00017,0.0,0.0
5.066,6085.955,0.00016,0.0,0.0
5.072,6024.231,0.00017,0.0,0.0
5.079,6013.094,0.00017,0.0,0.0
5.085,5999.298,0.00017,0.0,0.0
5.091,5969.389,0.00017,0.0,0.0
5.098,5959.313,0.00017,0.0,0.0
5.104,5971.912,0.00017,0.0,0.0
5.11,5905.901,0.00017,0.0,0.0
5.117,5943.263,0.00017,0.0,0.0
5.123,5926.866,0.00017,0.0,0.0
5.129,5875.215,0.00017,0.0,0.0
5.136,5908.045,0.00017,0.0,0.0
5.142,5859.901,0.00017,0.0,0.0
5.148,5882.749,0.00017,0.0,0.0
5.154,5863.168,0.00017,0.0,0.0
5.161,5794.443,0.00017,0.0,0.0
5.167,5834.856,0.00017,0.0,0.0
5.173,5831.583,0.00017,0.0,0.0
5.18,5781.063,0.00017,0.0,0.0
5.186,5792.295,0.00017,0.0,0.0
5.192,5776.944,0.00017,0.0,0.0
5.199,5756.987,0.00017,0.0,0.0
5.205,5792.477,0.00017,0.0,0.0
5.211,5741.159,0.00017,0.0,0.0
5.218,5750.962,0.00017,0.0,0.0
5.224,5743.199,0.00017,0.0,0.0
5.23,5708.24,0.00018,0.0,0.0
5.237,5722.456,0.00017,0.0,0.0
5.243,5687.09,0.00018,0.0,0.0
5.249,5699.861,0.00018,0.0,0.0
5.256,5689.093,0.00018,0.0,0.0
5.262,5626.907,0.00018,0.0,0.0
5.268,5668.534,0.00018,0.0,0.0
5.275,5642.79,0.00018,0.0,0.0
5.281,5638.466,0.00018,0.0,0.0
5.287,5619.803,0.00018,0.0,0.0
5.294,5620.608,0.00018,0.0,0.0
5.3,5612.264,0.00018,0.0,0.0
5.306,5587.489,0.00018,0.0,0.0
5.312,5590.735,0.00018,0.0,0.0
5.319,5570.019,0.00018,0.0,0.0
5.325,5614.943,0.00018,0.0,0.0
5.331,5582.109,0.00018,0.0,0.0
5.338,5581.981,0.00018,0.0,0.0
5.344,5559.574,0.00018,0.0,0.0
5.35,5567.697,0.00018,0.0,0.0
5.357,5555.332,0.00018,0.0,0.0
5.363,5564.106,0.00018,0.0,0.0
5.369,5583.407,0.00018,0.0,0.0
5.376,5583.108,0.00018,0.0,0.0
5.382,5534.881,0.00018,0.0,0.0
5.388,5565.557,0.00018,0.0,0.0
5.395,5525.17,0.00018,0.0,0.0
5.401,5553.006,0.00018,0.0,0.0
5.407,5541.547,0.00018,0.0,0.0
5.414,5521.079,0.00018,0.0,0.0
5.42,5549.769,0.00018,0.0,0.0
5.426,5524.592,0.00018,0.0,0.0
5.433,5537.36,0.00018,0.0,0.0
5.439,5548.208,0.00018,0.0,0.0
5.445,5509.875,0.00018,0.0,0.0
5.452,5534.385,0.00018,0.0,0.0
5.458,5525.437,0.00018,0.0,0.0
5.464,5484.287,0.00018,0.0,0.0
5.47,5506.855,0.00018,0.0,0.0
5.477,5534.47,0.00018,0.0,0.0
5.483,5530.87,0.00018,0.0,0.0
5.489,5517.819,0.00018,0.0,0.0
5.496,5508.946,0.00018,0.0,0.0
5.502,5523.299,0.00018,0.0,0.0
5.508,5522.243,0.00018,0.0,0.0
5.515,5499.405,0.00018,0.0,0.0
5.521,5522.231,0.00018,0.0,0.0
5.527,5518.752,0.00018,0.0,0.0
5.534,5508.85,0.00018,0.0,0.0
5.54,5535.159,0.00018,0.0,0.0
5.546,5507.463,0.00018,0.0,0.0
5.553,5528.05,0.00018,0.0,0.0
5.559,5534.717,0.00018,0.0,0.0
5.565,5518.895,0.00018,0.0,0.0
5.572,5537.934,0.00018,0.0,0.0
5.578,5508.973,0.00018,0.0,0.0
5.584,5520.539,0.00018,0.0,0.0
5.591,5534.76,0.00018,0.0,0.0
5.597,5524.747,0.00018,0.0,0.0
5.603,5551.577,0.00018,0.0,0.0
5.61,5535.185,0.00018,0.0,0.0
5.616,5554.416,0.00018,0.0,0.0
5.622,5579.68,0.00018,0.0,0.0
5.628,5547.148,0.00018,0.0,0.0
5.635,5554.465,0.00018,0.0,0.0
5.641,5577.121,0.00018,0.0,0.0
5.647,5565.231,0.00018,0.0,0.0
5.654,5570.469,0.00018,0.0,0.0
5.66,5590.039,0.00018,0.0,0.0
5.666,5571.629,0.00018,0.0,0.0
5.673,5603.76,0.00018,0.0,0.0
5.679,5580.893,0.00018,0.0,0.0
5.685,5601.942,0.00018,0.0,0.0
5.692,5590.132,0.00018,0.0,0.0
5.698,5595.228,0.00018,0.0,0.0
5.704,5600.475,0.00018,0.0,0.0
5.711,5621.684,0.00018,0.0,0.0
5.717,5623.954,0.00018,0.0,0.0
5.723,5634.687,0.00018,0.0,0.0
5.73,5664.604,0.00018,0.0,0.0
5.736,5642.715,0.00018,0.0,0.0
5.742,5642.989,0.00018,0.0,0.0
5.749,5652.701,0.00018,0.0,0.0
5.755,5664.805,0.00018,0.0,0.0
5.761,5664.356,0.00018,0.0,0.0
5.768,5673.357,0.00018,0.0,0.0
5.774,5713.255,0.00018,0.0,0.0
5.78,5711.264,0.00018,0.0,0.0
5.786,5696.387,0.00018,0.0,0.0
5.793,5749.934,0.00017,0.0,0.0
5.799,5759.794,0.00017,0.0,0.0
5.805,5743.854,0.00017,0.0,0.0
5.812,5845.991,0.00017,0.0,0.0
5.818,5805.814,0.00017,0.0,0.0
5.824,5879.254,0.00017,0.0,0.0
5.831,5949.118,0.00017,0.0,0.0
5.837,6008.748,0.00017,0.0,0.0
5.843,6176.516,0.00016,0.0,0.0
5.85,6374.406,0.00016,0.0,0.0
5.856,6676.972,0.00015,0.0,0.0
5.862,7147.095,0.00014,0.0,0.0
5.869,7633.567,0.00013,0.0,0.0
5.875,8143.538,0.00012,0.0,0.0
5.881,8337.822,0.00012,0.0,0.0
5.888,8201.123,0.00012,0.0,0.0
5.894,7831.145,0.00013,0.0,0.0
5.9,7313.32,0.00014,0.0,0.0
5.907,6830.049,0.00015,0.0,0.0
5.913,6444.265,0.00016,0.0,0.0
5.919,6184.973,0.00016,0.0,0.0
5.926,6085.662,0.00016,0.0,0.0
5.932,5963.827,0.00017,0.0,0.0
5.938,5909.777,0.00017,0.0,0.0
5.944,5877.569,0.00017,0.0,0.0
5.951,5808.447,0.00017,0.0,0.0
5.957,5821.503,0.00017,0.0,0.0
5.963,5795.658,0.00017,0.0,0.0
5.97,5782.09,0.00017,0.0,0.0
5.976,5757.121,0.00017,0.0,0.0
5.982,5768.128,0.00017,0.0,0.0
5.989,5727.064,0.00017,0.0,0.0
5.995,5727.189,0.00017,0.0,0.0
6.001,5771.303,0.00017,0.0,0.0
6.008,5728.421,0.00017,0.0,0.0
6.014,5745.213,0.00017,0.0,0.0
6.02,5696.252,0.00018,0.0,0.0
6.027,5729.66,0.00017,0.0,0.0
6.033,5736.054,0.00017,0.0,0.0
6.039,5729.926,0.00017,0.0,0.0
6.046,5750.046,0.00017,0.0,0.0
6.052,5687.505,0.00018,0.0,0.0
6.058,5755.004,0.00017,0.0,0.0
6.065,5760.112,0.00017,0.0,0.0
6.071,5670.58,0.00018,0.0,0.0
6.077,5726.497,0.00017,0.0,0.0
6.084,5695.256,0.00018,0.0,0.0
6.09,5726.359,0.00017,0.0,0.0
6.096,5724.98,0.00017,0.0,0.0
6.102,5727.266,0.00017,0.0,0.0
6.109,5710.826,0.00018,0.0,0.0
6.115,5714.99,0.00017,0.0,0.0
6.121,5691.257,0.00018,0.0,0.0
6.128,5757.528,0.00017,0.0,0.0
6.134,5746.441,0.00017,0.0,0.0
6.14,5714.473,0.00017,0.0,0.0
6.147,5773.903,0.00017,0.0,0.0
6.153,5728.911,0.00017,0.0,0.0
6.159,5821.237,0.00017,0.0,0.0
6.166,5714.308,0.00017,0.0,0.0
6.172,5814.086,0.00017,0.0,0.0
6.178,5793.103,0.00017,0.0,0.0
6.185,5781.68,0.00017,0.0,0.0
6.191,5787.202,0.00017,0.0,0.0
6.197,5846.729,0.00017,0.0,0.0
6.204,5795.684,0.00017,0.0,0.0
6.21,5788.186,0.00017,0.0,0.0
6.216,5881.338,0.00017,0.0,0.0
6.223,5795.62,0.00017,0.0,0.0
6.229,5854.78,0.00017,0.0,0.0
6.235,5882.046,0.00017,0.0,0.0
6.242,5866.82,0.00017,0.0,0.0
6.248,5864.716,0.00017,0.0,0.0
6.254,5927.775,0.00017,0.0,0.0
6.26,5926.131,0.00017,0.0,0.0
6.267,5865.817,0.00017,0.0,0.0
6.273,5947.792,0.00017,0.0,0.0
6.279,5943.014,0.00017,0.0,0.0
6.286,5866.597,0.00017,0.0,0.0
6.292,5956.867,0.00017,0.0,0.0
6.298,5914.47,0.00017,0.0,0.0
6.305,5915.331,0.00017,0.0,0.0
6.311,5907.859,0.00017,0.0,0.0
6.317,6003.074,0.00017,0.0,0.0
6.324,5967.253,0.00017,0.0,0.0
6.33,5941.132,0.00017,0.0,0.0
6.336,6016.031,0.00017,0.0,0.0
6.343,5915.711,0.00017,0.0,0.0
6.349,6015.494,0.00017,0.0,0.0
6.355,5937.033,0.00017,0.0,0.0
6.362,6049.988,0.00017,0.0,0.0
6.368,5980.959,0.00017,0.0,0.0
6.374,6016.137,0.00017,0.0,0.0
6.381,6028.662,0.00017,0.0,0.0
6.387,6095.528,0.00016,0.0,0.0
6.393,6101.393,0.00016,0.0,0.0
6.4,6084.594,0.00016,0.0,0.0
6.406,6172.991,0.00016,0.0,0.0
6.412,6293.439,0.00016,0.0,0.0
6.418,6759.628,0.00015,0.0,0.0
6.425,6686.015,0.00015,0.0,0.0
6.431,8292.909,0.00012,0.0,0.0
6.437,7433.882,0.00013,0.0,0.0
6.444,11787.22,0.00008,0.0,0.0
6.45,8609.781,0.00012,0.0,0.0
6.456,18551.533,0.00005,0.0,0.0
6.463,8915.271,0.00011,0.0,0.0
6.469,17084.536,0.00006,0.0,0.0
6.475,8588.585,0.00012,0.0,0.0
6.482,12330.016,0.00008,0.0,0.0
6.488,7342.694,0.00014,0.0,0.0
6.494,7763.976,0.00013,0.0,0.0
6.501,6675.508,0.00015,0.0,0.0
6.507,6654.434,0.00015,0.0,0.0
6.513,6534.086,0.00015,0.0,0.0
6.52,6386.281,0.00016,0.0,0.0
6.526,6577.035,0.00015,0.0,0.0
6.532,6476.307,0.00015,0.0,0.0
6.539,6640.557,0.00015,0.0,0.0
6.545,6820.389,0.00015,0.0,0.0
6.551,7071.321,0.00014,0.0,0.0
6.558,7434.505,0.00013,0.0,0.0
6.564,8054.197,0.00012,0.0,0.0
6.57,9243.025,0.00011,0.0,0.0
6.576,11026.741,0.00009,0.0,0.0
6.583,14491.184,0.00007,0.0,0.0
6.589,21737.773,0.00005,0.0,0.0
6.595,34202.174,0.00003,0.0,0.0
6.602,50340.578,0.00002,0.0,0.0
6.608,82126.067,0.00001,0.0,0.0
6.614,93677.15,0.00001,0.0,0.0
6.621,103318.609,0.00001,0.0,0.0
6.627,93074.164,0.00001,0.0,0.0
6.633,72222.354,0.00001,0.0,0.0
6.64,49209.58,0.00002,0.0,0.0
6.646,31398.963,0.00003,0.0,0.0
6.652,19794.66,0.00005,0.0,0.0
6.659,14085.032,0.00007,0.0,0.0
6.665,10729.777,0.00009,0.0,0.0
6.671,8935.615,0.00011,0.0,0.0
6.678,7963.008,0.00013,0.0,0.0
6.684,7281.109,0.00014,0.0,0.0
6.69,7036.958,0.00014,0.0,0.0
6.697,6755.696,0.00015,0.0,0.0
6.703,6553.542,0.00015,0.0,0.0
6.709,6498.008,0.00015,0.0,0.0
6.716,6343.712,0.00016,0.0,0.0
6.722,6276.743,0.00016,0.0,0.0
6.728,6254.14,0.00016,0.0,0.0
6.734,6244.686,0.00016,0.0,0.0
6.741,6150.988,0.00016,0.0,0.0
6.747,6178.203,0.00016,0.0,0.0
6.753,6131.507,0.00016,0.0,0.0
6.76,6112.239,0.00016,0.0,0.0
6.766,6118.455,0.00016,0.0,0.0
6.772,6129.042,0.00016,0.0,0.0
6.779,6104.462,0.00016,0.0,0.0
6.785,6120.056,0.00016,0.0,0.0
6.791,6133.955,0.00016,0.0,0.0
6.798,6184.971,0.00016,0.0,0.0
6.804,6158.027,0.00016,0.0,0.0
6.81,6226.435,0.00016,0.0,0.0
6.817,6159.741,0.00016,0.0,0.0
6.823,6179.213,0.00016,0.0,0.0
6.829,6173.438,0.00016,0.0,0.0
6.836,6122.703,0.00016,0.0,0.0
6.842,6098.2,0.00016,0.0,0.0
6.848,6066.105,0.00016,0.0,0.0
6.855,6046.093,0.00017,0.0,0.0
6.861,6032.662,0.00017,0.0,0.0
6.867,6055.515,0.00017,0.0,0.0
6.874,6005.724,0.00017,0.0,0.0
6.88,6031.402,0.00017,0.0,0.0
6.886,6020.421,0.00017,0.0,0.0
6.892,6014.38,0.00017,0.0,0.0
6.899,6056.886,0.00017,0.0,0.0
6.905,5988.45,0.00017,0.0,0.0
6.911,6006.051,0.00017,0.0,0.0
6.918,6013.821,0.00017,0.0,0.0
6.924,6019.532,0.00017,0.0,0.0
6.93,6022.894,0.00017,0.0,0.0
6.937,5999.318,0.00017,0.0,0.0
6.943,5991.932,0.00017,0.0,0.0
6.949,6026.17,0.00017,0.0,0.0
6.956,6008.649,0.00017,0.0,0.0
6.962,6032.017,0.00017,0.0,0.0
6.968,6011.719,0.00017,0.0,0.0
6.975,6010.592,0.00017,0.0,0.0
6.981,6039.803,0.00017,0.0,0.0
6.987,6035.394,0.00017,0.0,0.0
6.994,6024.754,0.00017,0.0,0.0
7.0,6036.321,0.00017,0.0,0.0
7.006,6032.293,0.00017,0.0,0.0
7.013,6043.489,0.00017,0.0,0.0
7.019,6047.448,0.00017,0.0,0.0
7.025,6034.638,0.00017,0.0,0.0
7.032,6079.458,0.00016,0.0,0.0
7.038,6007.318,0.00017,0.0,0.0
7.044,6026.194,0.00017,0.0,0.0
7.05,6047.671,0.00017,0.0,0.0
7.057,6030.833,0.00017,0.0,0.0
7.063,6055.13,0.00017,0.0,0.0
7.069,6045.922,0.00017,0.0,0.0
7.076,6031.99,0.00017,0.0,0.0
7.082,6056.449,0.00017,0.0,0.0
7.088,6040.842,0.00017,0.0,0.0
7.095,6031.245,0.00017,0.0,0.0
7.101,6037.877,0.00017,0.0,0.0
7.107,6060.364,0.00017,0.0,0.0
7.114,6072.246,0.00016,0.0,0.0
7.12,6025.902,0.00017,0.0,0.0
7.126,6045.207,0.00017,0.0,0.0
7.133,6032.152,0.00017,0.0,0.0
7.139,6022.085,0.00017,0.0,0.0
7.145,6025.372,0.00017,0.0,0.0
7.152,6035.567,0.00017,0.0,0.0
7.158,6011.727,0.00017,0.0,0.0
7.164,6051.509,0.00017,0.0,0.0
7.171,5984.06,0.00017,0.0,0.0
7.177,6042.213,0.00017,0.0,0.0
7.183,6010.346,0.00017,0.0,0.0
7.19,6008.676,0.00017,0.0,0.0
7.196,6020.559,0.00017,0.0,0.0
7.202,5999.43,0.00017,0.0,0.0
7.208,6019.159,0.00017,0.0,0.0
7.215,5996.816,0.00017,0.0,0.0
7.221,6003.477,0.00017,0.0,0.0
7.227,6012.409,0.00017,0.0,0.0
7.234,6012.753,0.00017,0.0,0.0
7.24,6006.903,0.00017,0.0,0.0
7.246,6020.34,0.00017,0.0,0.0
7.253,5998.984,0.00017,0.0,0.0
7.259,6026.45,0.00017,0.0,0.0
7.265,6078.967,0.00016,0.0,0.0
7.272,6084.888,0.00016,0.0,0.0
7.278,6167.64,0.00016,0.0,0.0
7.284,6201.831,0.00016,0.0,0.0
7.291,6211.798,0.00016,0.0,0.0
7.297,6240.054,0.00016,0.0,0.0
7.303,6182.868,0.00016,0.0,0.0
7.31,6168.504,0.00016,0.0,0.0
7.316,6118.12,0.00016,0.0,0.0
7.322,6061.202,0.00016,0.0,0.0
7.329,6071.471,0.00016,0.0,0.0
7.335,6014.58,0.00017,0.0,0.0
7.341,6008.071,0.00017,0.0,0.0
7.348,6028.294,0.00017,0.0,0.0
7.354,6015.563,0.00017,0.0,0.0
7.36,5989.242,0.00017,0.0,0.0
7.366,6034.465,0.00017,0.0,0.0
7.373,6018.712,0.00017,0.0,0.0
7.379,5989.7,0.00017,0.0,0.0
7.385,6029.968,0.00017,0.0,0.0
7.392,5990.265,0.00017,0.0,0.0
7.398,6037.059,0.00017,0.0,0.0
7.404,6030.949,0.00017,0.0,0.0
7.411,6071.239,0.00016,0.0,0.0
7.417,6051.057,0.00017,0.0,0.0
7.423,6026.392,0.00017,0.0,0.0
7.43,6099.863,0.00016,0.0,0.0
7.436,6061.025,0.00016,0.0,0.0
7.442,6051.843,0.00017,0.0,0.0
7.449,6123.459,0.00016,0.0,0.0
7.455,6121.09,0.00016,0.0,0.0
7.461,6129.398,0.00016,0.0,0.0
7.468,6138.737,0.00016,0.0,0.0
7.474,6121.185,0.00016,0.0,0.0
7.48,6194.168,0.00016,0.0,0.0
7.487,6160.24,0.00016,0.0,0.0
7.493,6202.168,0.00016,0.0,0.0
7.499,6193.154,0.00016,0.0,0.0
7.506,6185.95,0.00016,0.0,0.0
7.512,6242.619,0.00016,0.0,0.0
7.518,6275.412,0.00016,0.0,0.0
7.524,6253.132,0.00016,0.0,0.0
7.531,6317.464,0.00016,0.0,0.0
7.537,6363.278,0.00016,0.0,0.0
7.543,6384.613,0.00016,0.0,0.0
7.55,6440.538,0.00016,0.0,0.0
7.556,6495.773,0.00015,0.0,0.0
7.562,6624.062,0.00015,0.0,0.0
7.569,6662.386,0.00015,0.0,0.0
7.575,6911.401,0.00014,0.0,0.0
7.581,7154.298,0.00014,0.0,0.0
7.588,7521.127,0.00013,0.0,0.0
7.594,8146.34,0.00012,0.0,0.0
7.6,9116.508,0.00011,0.0,0.0
7.607,11526.235,0.00009,0.0,0.0
7.613,14325.864,0.00007,0.0,0.0
7.619,22516.371,0.00004,0.0,0.0
7.626,29682.122,0.00003,0.0,0.0
7.632,40663.229,0.00002,0.0,0.0
7.638,51394.838,0.00002,0.0,0.0
7.645,56807.674,0.00002,0.0,0.0
7.651,47716.145,0.00002,0.0,0.0
7.657,40851.613,0.00002,0.0,0.0
7.664,33280.522,0.00003,0.0,0.0
7.67,21244.136,0.00005,0.0,0.0
7.676,15583.705,0.00006,0.0,0.0
7.682,11735.47,0.00009,0.0,0.0
7.689,9505.44,0.00011,0.0,0.0
7.695,8420.244,0.00012,0.0,0.0
7.701,7781.268,0.00013,0.0,0.0
7.708,7320.318,0.00014,0.0,0.0
7.714,7182.562,0.00014,0.0,0.0
7.72,6911.879,0.00014,0.0,0.0
7.727,6911.583,0.00014,0.0,0.0
7.733,6829.06,0.00015,0.0,0.0
7.739,6888.324,0.00015,0.0,0.0
7.746,6770.542,0.00015,0.0,0.0
7.752,6834.673,0.00015,0.0,0.0
7.758,6784.93,0.00015,0.0,0.0
7.765,6712.693,0.00015,0.0,0.0
7.771,6819.44,0.00015,0.0,0.0
7.777,6781.703,0.00015,0.0,0.0
7.784,6893.159,0.00015,0.0,0.0
7.79,6767.523,0.00015,0.0,0.0
7.796,6994.63,0.00014,0.0,0.0
7.803,6754.521,0.00015,0.0,0.0
7.809,6996.911,0.00014,0.0,0.0
7.815,6804.936,0.00015,0.0,0.0
7.822,7200.594,0.00014,0.0,0.0
7.828,6963.362,0.00014,0.0,0.0
7.834,7392.315,0.00014,0.0,0.0
7.84,7067.614,0.00014,0.0,0.0
7.847,7500.466,0.00013,0.0,0.0
7.853,7444.794,0.00013,0.0,0.0
7.859,7765.176,0.00013,0.0,0.0
7.866,8626.85,0.00012,0.0,0.0
7.872,7808.584,0.00013,0.0,0.0
7.878,11999.923,0.00008,0.0,0.0
7.885,7503.762,0.00013,0.0,0.0
7.891,15201.943,0.00007,0.0,0.0
7.897,7140.205,0.00014,0.0,0.0
7.904,16446.843,0.00006,0.0,0.0
7.91,7390.885,0.00014,0.0,0.0
7.916,15550.336,0.00006,0.0,0.0
7.923,8185.995,0.00012,0.0,0.0
7.929,13502.215,0.00007,0.0,0.0
7.935,9113.256,0.00011,0.0,0.0
7.942,10658.605,0.00009,0.0,0.0
7.948,10053.868,0.0001,0.0,0.0
7.954,7371.133,0.00014,0.0,0.0
7.961,8718.864,0.00011,0.0,0.0
7.967,6675.005,0.00015,0.0,0.0
7.973,7968.196,0.00013,0.0,0.0
7.98,6658.285,0.00015,0.0,0.0
7.986,7528.282,0.00013,0.0,0.0
7.992,6916.172,0.00014,0.0,0.0
7.998,6956.976,0.00014,0.0,0.0
8.005,6995.971,0.00014,0.0,0.0
8.011,6694.997,0.00015,0.0,0.0
8.017,6935.757,0.00014,0.0,0.0
8.024,6554.078,0.00015,0.0,0.0
8.03,6919.655,0.00014,0.0,0.0
8.036,6502.617,0.00015,0.0,0.0
8.043,6855.404,0.00015,0.0,0.0
8.049,6414.905,0.00016,0.0,0.0
8.055,6790.254,0.00015,0.0,0.0
8.062,6493.912,0.00015,0.0,0.0
8.068,6653.077,0.00015,0.0,0.0
8.074,6539.309,0.00015,0.0,0.0
8.081,6536.443,0.00015,0.0,0.0
8.087,6556.304,0.00015,0.0,0.0
8.093,6503.073,0.00015,0.0,0.0
8.1,6582.516,0.00015,0.0,0.0
8.106,6443.355,0.00016,0.0,0.0
8.112,6643.021,0.00015,0.0,0.0
8.119,6518.401,0.00015,0.0,0.0
8.125,6791.408,0.00015,0.0,0.0
8.131,6705.281,0.00015,0.0,0.0
8.138,6930.579,0.00014,0.0,0.0
8.144,6795.69,0.00015,0.0,0.0
8.15,6833.192,0.00015,0.0,0.0
8.156,6700.356,0.00015,0.0,0.0
8.163,6598.403,0.00015,0.0,0.0
8.169,6503.613,0.00015,0.0,0.0
8.175,6363.208,0.00016,0.0,0.0
8.182,6370.142,0.00016,0.0,0.0
8.188,6237.16,0.00016,0.0,0.0
8.194,6252.859,0.00016,0.0,0.0
8.201,6146.321,0.00016,0.0,0.0
8.207,6231.584,0.00016,0.0,0.0
8.213,6092.53,0.00016,0.0,0.0
8.22,6196.787,0.00016,0.0,0.0
8.226,6094.232,0.00016,0.0,0.0
8.232,6113.749,0.00016,0.0,0.0
8.239,6039.172,0.00017,0.0,0.0
8.245,6048.371,0.00017,0.0,0.0
8.251,6039.635,0.00017,0.0,0.0
8.258,6003.514,0.00017,0.0,0.0
8.264,6004.25,0.00017,0.0,0.0
8.27,5930.817,0.00017,0.0,0.0
8.277,5985.298,0.00017,0.0,0.0
8.283,5895.88,0.00017,0.0,0.0
8.289,5918.597,0.00017,0.0,0.0
8.296,5848.169,0.00017,0.0,0.0
8.302,5921.66,0.00017,0.0,0.0
8.308,5861.151,0.00017,0.0,0.0
8.314,5865.861,0.00017,0.0,0.0
8.321,5850.401,0.00017,0.0,0.0
8.327,5854.694,0.00017,0.0,0.0
8.333,5888.759,0.00017,0.0,0.0
8.34,5916.998,0.00017,0.0,0.0
8.346,5938.834,0.00017,0.0,0.0
8.352,5995.202,0.00017,0.0,0.0
8.359,6064.781,0.00016,0.0,0.0
8.365,6104.154,0.00016,0.0,0.0
8.371,6184.312,0.00016,0.0,0.0
8.378,6136.23,0.00016,0.0,0.0
8.384,6130.16,0.00016,0.0,0.0
8.39,6014.766,0.00017,0.0,0.0
8.397,5941.242,0.00017,0.0,0.0
8.403,5832.514,0.00017,0.0,0.0
8.409,5762.224,0.00017,0.0,0.0
8.416,5696.546,0.00018,0.0,0.0
8.422,5665.363,0.00018,0.0,0.0
8.428,5642.496,0.00018,0.0,0.0
8.435,5592.702,0.00018,0.0,0.0
8.441,5573.716,0.00018,0.0,0.0
8.447,5538.878,0.00018,0.0,0.0
8.454,5562.489,0.00018,0.0,0.0
8.46,5509.216,0.00018,0.0,0.0
8.466,5534.702,0.00018,0.0,0.0
8.472,5499.911,0.00018,0.0,0.0
8.479,5504.774,0.00018,0.0,0.0
8.485,5526.164,0.00018,0.0,0.0
8.491,5495.248,0.00018,0.0,0.0
8.498,5519.978,0.00018,0.0,0.0
8.504,5453.79,0.00018,0.0,0.0
8.51,5483.784,0.00018,0.0,0.0
8.517,5454.219,0.00018,0.0,0.0
8.523,5447.015,0.00018,0.0,0.0
8.529,5392.257,0.00019,0.0,0.0
8.536,5396.605,0.00019,0.0,0.0
8.542,5367.572,0.00019,0.0,0.0
8.548,5386.047,0.00019,0.0,0.0
8.555,5352.419,0.00019,0.0,0.0
8.561,5334.449,0.00019,0.0,0.0
8.567,5341.535,0.00019,0.0,0.0
8.574,5325.3,0.00019,0.0,0.0
8.58,5325.826,0.00019,0.0,0.0
8.586,5286.662,0.00019,0.0,0.0
8.593,5294.549,0.00019,0.0,0.0
8.599,5283.147,0.00019,0.0,0.0
8.605,5299.985,0.00019,0.0,0.0
8.612,5283.081,0.00019,0.0,0.0
8.618,5278.529,0.00019,0.0,0.0
8.624,5240.046,0.00019,0.0,0.0
8.63,5244.09,0.00019,0.0,0.0
8.637,5243.865,0.00019,0.0,0.0
8.643,5236.228,0.00019,0.0,0.0
8.649,5236.48,0.00019,0.0,0.0
8.656,5213.048,0.00019,0.0,0.0
8.662,5225.789,0.00019,0.0,0.0
8.668,5228.534,0.00019,0.0,0.0
8.675,5215.823,0.00019,0.0,0.0
8.681,5200.399,0.00019,0.0,0.0
8.687,5200.194,0.00019,0.0,0.0
8.694,5206.831,0.00019,0.0,0.0
8.7,5202.208,0.00019,0.0,0.0
8.706,5185.941,0.00019,0.0,0.0
8.713,5188.62,0.00019,0.0,0.0
8.719,5169.046,0.00019,0.0,0.0
8.725,5184.131,0.00019,0.0,0.0
8.732,5168.597,0.00019,0.0,0.0
8.738,5171.861,0.00019,0.0,0.0
8.744,5164.889,0.00019,0.0,0.0
8.751,5170.604,0.00019,0.0,0.0
8.757,5161.585,0.00019,0.0,0.0
8.763,5148.086,0.00019,0.0,0.0
8.77,5156.706,0.00019,0.0,0.0
8.776,5153.758,0.00019,0.0,0.0
8.782,5157.909,0.00019,0.0,0.0
8.788,5142.213,0.00019,0.0,0.0
8.795,5155.51,0.00019,0.0,0.0
8.801,5136.65,0.00019,0.0,0.0
8.807,5128.821,0.00019,0.0,0.0
8.814,5139.202,0.00019,0.0,0.0
8.82,5136.058,0.00019,0.0,0.0
8.826,5143.873,0.00019,0.0,0.0
8.833,5150.709,0.00019,0.0,0.0
8.839,5126.688,0.0002,0.0,0.0
8.845,5149.001,0.00019,0.0,0.0
8.852,5115.156,0.0002,0.0,0.0
8.858,5151.173,0.00019,0.0,0.0
8.864,5145.016,0.00019,0.0,0.0
8.871,5145.927,0.00019,0.0,0.0
8.877,5180.623,0.00019,0.0,0.0
8.883,5162.695,0.00019,0.0,0.0
8.89,5148.261,0.00019,0.0,0.0
8.896,5157.588,0.00019,0.0,0.0
8.902,5153.754,0.00019,0.0,0.0
8.909,5180.337,0.00019,0.0,0.0
8.915,5169.422,0.00019,0.0,0.0
8.921,5195.022,0.00019,0.0,0.0
8.928,5177.634,0.00019,0.0,0.0
8.934,5171.764,0.00019,0.0,0.0
8.94,5176.219,0.00019,0.0,0.0
8.946,5201.57,0.00019,0.0,0.0
8.953,5202.583,0.00019,0.0,0.0
8.959,5196.572,0.00019,0.0,0.0
8.965,5224.263,0.00019,0.0,0.0
8.972,5219.155,0.00019,0.0,0.0
8.978,5259.409,0.00019,0.0,0.0
8.984,5243.487,0.00019,0.0,0.0
8.991,5259.167,0.00019,0.0,0.0
8.997,5287.726,0.00019,0.0,0.0
9.003,5276.409,0.00019,0.0,0.0
9.01,5317.676,0.00019,0.0,0.0
9.016,5310.329,0.00019,0.0,0.0
9.022,5357.934,0.00019,0.0,0.0
9.029,5367.85,0.00019,0.0,0.0
9.035,5410.171,0.00018,0.0,0.0
9.041,5419.365,0.00018,0.0,0.0
9.048,5450.506,0.00018,0.0,0.0
9.054,5555.54,0.00018,0.0,0.0
9.06,5574.15,0.00018,0.0,0.0
9.067,5640.033,0.00018,0.0,0.0
9.073,5787.185,0.00017,0.0,0.0
9.079,5839.726,0.00017,0.0,0.0
9.086,6242.844,0.00016,0.0,0.0
9.092,6276.226,0.00016,0.0,0.0
9.098,7522.309,0.00013,0.0,0.0
9.104,8283.21,0.00012,0.0,0.0
9.111,8194.484,0.00012,0.0,0.0
9.117,9521.333,0.00011,0.0,0.0
9.123,9171.502,0.00011,0.0,0.0
9.13,9972.672,0.0001,0.0,0.0
9.136,11025.938,0.00009,0.0,0.0
9.142,9240.785,0.00011,0.0,0.0
9.149,8994.979,0.00011,0.0,0.0
9.155,8868.87,0.00011,0.0,0.0
9.161,7944.023,0.00013,0.0,0.0
9.168,6926.302,0.00014,0.0,0.0
9.174,6873.091,0.00015,0.0,0.0
9.18,6039.371,0.00017,0.0,0.0
9.187,6080.993,0.00016,0.0,0.0
9.193,5751.67,0.00017,0.0,0.0
9.199,5670.243,0.00018,0.0,0.0
9.206,5589.525,0.00018,0.0,0.0
9.212,5488.709,0.00018,0.0,0.0
9.218,5464.562,0.00018,0.0,0.0
9.225,5441.25,0.00018,0.0,0.0
9.231,5340.966,0.00019,0.0,0.0
9.237,5386.764,0.00019,0.0,0.0
9.244,5307.907,0.00019,0.0,0.0
9.25,5321.467,0.00019,0.0,0.0
9.256,5252.053,0.00019,0.0,0.0
9.262,5219.177,0.00019,0.0,0.0
9.269,5257.145,0.00019,0.0,0.0
9.275,5142.96,0.00019,0.0,0.0
9.281,5213.357,0.00019,0.0,0.0
9.288,5138.785,0.00019,0.0,0.0
9.294,5139.754,0.00019,0.0,0.0
9.3,5102.906,0.0002,0.0,0.0
9.307,5095.099,0.0002,0.0,0.0
9.313,5070.829,0.0002,0.0,0.0
9.319,5079.019,0.0002,0.0,0.0
9.326,5031.282,0.0002,0.0,0.0
9.332,5022.499,0.0002,0.0,0.0
9.338,5028.671,0.0002,0.0,0.0
9.345,4995.98,0.0002,0.0,0.0
9.351,4981.159,0.0002,0.0,0.0
9.357,4964.995,0.0002,0.0,0.0
9.364,4962.293,0.0002,0.0,0.0
9.37,4946.97,0.0002,0.0,0.0
9.376,4933.092,0.0002,0.0,0.0
9.383,4899.802,0.0002,0.0,0.0
9.389,4906.334,0.0002,0.0,0.0
9.395,4878.514,0.0002,0.0,0.0
9.402,4861.098,0.00021,0.0,0.0
9.408,4859.936,0.00021,0.0,0.0
9.414,4841.578,0.00021,0.0,0.0
9.42,4833.93,0.00021,0.0,0.0
9.427,4817.218,0.00021,0.0,0.0
9.433,4824.951,0.00021,0.0,0.0
9.439,4805.236,0.00021,0.0,0.0
9.446,4815.393,0.00021,0.0,0.0
9.452,4813.53,0.00021,0.0,0.0
9.458,4803.27,0.00021,0.0,0.0
9.465,4846.35,0.00021,0.0,0.0
9.471,4855.288,0.00021,0.0,0.0
9.477,4862.048,0.00021,0.0,0.0
9.484,4875.318,0.00021,0.0,0.0
9.49,4868.376,0.00021,0.0,0.0
9.496,4866.418,0.00021,0.0,0.0
9.503,4829.861,0.00021,0.0,0.0
9.509,4803.713,0.00021,0.0,0.0
9.515,4764.121,0.00021,0.0,0.0
9.522,4717.605,0.00021,0.0,0.0
9.528,4706.5,0.00021,0.0,0.0
9.534,4683.955,0.00021,0.0,0.0
9.541,4676.025,0.00021,0.0,0.0
9.547,4648.502,0.00022,0.0,0.0
9.553,4619.062,0.00022,0.0,0.0
9.56,4642.549,0.00022,0.0,0.0
9.566,4607.812,0.00022,0.0,0.0
9.572,4601.617,0.00022,0.0,0.0
9.578,4596.021,0.00022,0.0,0.0
9.585,4572.526,0.00022,0.0,0.0
9.591,4578.496,0.00022,0.0,0.0
9.597,4581.074,0.00022,0.0,0.0
9.604,4563.422,0.00022,0.0,0.0
9.61,4568.01,0.00022,0.0,0.0
9.616,4553.438,0.00022,0.0,0.0
9.623,4531.447,0.00022,0.0,0.0
9.629,4544.137,0.00022,0.0,0.0
9.635,4533.912,0.00022,0.0,0.0
9.642,4537.036,0.00022,0.0,0.0
9.648,4530.71,0.00022,0.0,0.0
9.654,4509.885,0.00022,0.0,0.0
9.661,4522.325,0.00022,0.0,0.0
9.667,4508.952,0.00022,0.0,0.0
9.673,4508.402,0.00022,0.0,0.0
9.68,4509.651,0.00022,0.0,0.0
9.686,4504.096,0.00022,0.0,0.0
9.692,4511.212,0.00022,0.0,0.0
9.699,4505.839,0.00022,0.0,0.0
9.705,4502.076,0.00022,0.0,0.0
9.711,4502.16,0.00022,0.0,0.0
9.718,4490.933,0.00022,0.0,0.0
9.724,4497.476,0.00022,0.0,0.0
9.73,4496.618,0.00022,0.0,0.0
9.736,4475.448,0.00022,0.0,0.0
9.743,4495.125,0.00022,0.0,0.0
9.749,4480.172,0.00022,0.0,0.0
9.755,4487.96,0.00022,0.0,0.0
9.762,4465.997,0.00022,0.0,0.0
9.768,4464.47,0.00022,0.0,0.0
9.774,4475.786,0.00022,0.0,0.0
9.781,4465.294,0.00022,0.0,0.0
9.787,4451.728,0.00022,0.0,0.0
9.793,4451.972,0.00022,0.0,0.0
9.8,4446.677,0.00022,0.0,0.0
9.806,4457.58,0.00022,0.0,0.0
9.812,4456.801,0.00022,0.0,0.0
9.819,4459.421,0.00022,0.0,0.0
9.825,4441.775,0.00023,0.0,0.0
9.831,4450.37,0.00022,0.0,0.0
9.838,4426.353,0.00023,0.0,0.0
9.844,4444.388,0.00023,0.0,0.0
9.85,4442.864,0.00023,0.0,0.0
9.857,4449.498,0.00022,0.0,0.0
9.863,4419.732,0.00023,0.0,0.0
9.869,4419.99,0.00023,0.0,0.0
9.876,4422.65,0.00023,0.0,0.0
9.882,4397.731,0.00023,0.0,0.0
9.888,4425.961,0.00023,0.0,0.0
9.894,4411.213,0.00023,0.0,0.0
9.901,4410.555,0.00023,0.0,0.0
9.907,4408.719,0.00023,0.0,0.0
9.913,4411.692,0.00023,0.0,0.0
9.92,4410.477,0.00023,0.0,0.0
9.926,4410.515,0.00023,0.0,0.0
9.932,4396.384,0.00023,0.0,0.0
9.939,4405.059,0.00023,0.0,0.0
9.945,4398.137,0.00023,0.0,0.0
9.951,4383.23,0.00023,0.0,0.0
9.958,4400.509,0.00023,0.0,0.0
9.964,4385.551,0.00023,0.0,0.0
9.97,4402.33,0.00023,0.0,0.0
9.977,4384.555,0.00023,0.0,0.0
9.983,4395.867,0.00023,0.0,0.0
9.989,4384.858,0.00023,0.0,0.0
9.996,4385.924,0.00023,0.0,0.0
10.002,4388.407,0.00023,0.0,0.0
10.008,4392.652,0.00023,0.0,0.0
10.015,4380.825,0.00023,0.0,0.0
10.021,4389.843,0.00023,0.0,0.0
10.027,4380.248,0.00023,0.0,0.0
10.034,4389.588,0.00023,0.0,0.0
10.04,4396.634,0.00023,0.0,0.0
10.046,4368.122,0.00023,0.0,0.0
10.052,4389.719,0.00023,0.0,0.0
10.059,4383.371,0.00023,0.0,0.0
10.065,4394.749,0.00023,0.0,0.0
10.071,4387.637,0.00023,0.0,0.0
10.078,4374.452,0.00023,0.0,0.0
10.084,4393.545,0.00023,0.0,0.0
10.09,4386.322,0.00023,0.0,0.0
10.097,4382.132,0.00023,0.0,0.0
10.103,4394.067,0.00023,0.0,0.0
10.109,4367.322,0.00023,0.0,0.0
10.116,4391.634,0.00023,0.0,0.0
10.122,4382.932,0.00023,0.0,0.0
10.128,4387.49,0.00023,0.0,0.0
10.135,4400.139,0.00023,0.0,0.0
10.141,4402.637,0.00023,0.0,0.0
10.147,4409.373,0.00023,0.0,0.0
10.154,4397.346,0.00023,0.0,0.0
10.16,4389.541,0.00023,0.0,0.0
10.166,4426.822,0.00023,0.0,0.0
10.173,4435.735,0.00023,0.0,0.0
10.179,4475.283,0.00022,0.0,0.0
10.185,4558.178,0.00022,0.0,0.0
10.192,4708.116,0.00021,0.0,0.0
10.198,4751.896,0.00021,0.0,0.0
10.204,5132.709,0.00019,0.0,0.0
10.21,5734.26,0.00017,0.0,0.0
10.217,5627.009,0.00018,0.0,0.0
10.223,5723.577,0.00017,0.0,0.0
10.229,5141.077,0.00019,0.0,0.0
10.236,4888.139,0.0002,0.0,0.0
10.242,4632.379,0.00022,0.0,0.0
10.248,4542.4,0.00022,0.0,0.0
10.255,4478.032,0.00022,0.0,0.0
10.261,4418.83,0.00023,0.0,0.0
10.267,4402.19,0.00023,0.0,0.0
10.274,4397.984,0.00023,0.0,0.0
10.28,4377.842,0.00023,0.0,0.0
10.286,4376.129,0.00023,0.0,0.0
10.293,4352.516,0.00023,0.0,0.0
10.299,4363.471,0.00023,0.0,0.0
10.305,4337.067,0.00023,0.0,0.0
10.312,4349.305,0.00023,0.0,0.0
10.318,4358.917,0.00023,0.0,0.0
10.324,4334.539,0.00023,0.0,0.0
10.331,4335.576,0.00023,0.0,0.0
10.337,4323.263,0.00023,0.0,0.0
10.343,4309.731,0.00023,0.0,0.0
10.35,4316.343,0.00023,0.0,0.0
10.356,4314.66,0.00023,0.0,0.0
10.362,4320.569,0.00023,0.0,0.0
10.368,4322.829,0.00023,0.0,0.0
10.375,4309.058,0.00023,0.0,0.0
10.381,4314.207,0.00023,0.0,0.0
10.387,4298.849,0.00023,0.0,0.0
10.394,4314.085,0.00023,0.0,0.0
10.4,4316.137,0.00023,0.0,0.0
10.406,4297.909,0.00023,0.0,0.0
10.413,4313.795,0.00023,0.0,0.0
10.419,4290.69,0.00023,0.0,0.0
10.425,4300.938,0.00023,0.0,0.0
10.432,4312.504,0.00023,0.0,0.0
10.438,4277.825,0.00023,0.0,0.0
10.444,4307.97,0.00023,0.0,0.0
10.451,4301.672,0.00023,0.0,0.0
10.457,4310.557,0.00023,0.0,0.0
10.463,4314.47,0.00023,0.0,0.0
10.47,4310.103,0.00023,0.0,0.0
10.476,4317.696,0.00023,0.0,0.0
10.482,4297.304,0.00023,0.0,0.0
10.489,4299.955,0.00023,0.0,0.0
10.495,4325.833,0.00023,0.0,0.0
10.501,4300.704,0.00023,0.0,0.0
10.508,4319.299,0.00023,0.0,0.0
10.514,4322.182,0.00023,0.0,0.0
10.52,4304.262,0.00023,0.0,0.0
10.526,4323.46,0.00023,0.0,0.0
10.533,4328.943,0.00023,0.0,0.0
10.539,4343.926,0.00023,0.0,0.0
10.545,4330.611,0.00023,0.0,0.0
10.552,4344.467,0.00023,0.0,0.0
10.558,4329.204,0.00023,0.0,0.0
10.564,4338.479,0.00023,0.0,0.0
10.571,4345.705,0.00023,0.0,0.0
10.577,4349.1,0.00023,0.0,0.0
10.583,4342.245,0.00023,0.0,0.0
10.59,4353.616,0.00023,0.0,0.0
10.596,4360.555,0.00023,0.0,0.0
10.602,4359.819,0.00023,0.0,0.0
10.609,4375.388,0.00023,0.0,0.0
10.615,4382.519,0.00023,0.0,0.0
10.621,4382.984,0.00023,0.0,0.0
10.628,4396.189,0.00023,0.0,0.0
10.634,4378.226,0.00023,0.0,0.0
10.64,4399.358,0.00023,0.0,0.0
10.647,4408.091,0.00023,0.0,0.0
10.653,4415.25,0.00023,0.0,0.0
10.659,4421.323,0.00023,0.0,0.0
10.666,4428.053,0.00023,0.0,0.0
10.672,4440.983,0.00023,0.0,0.0
10.678,4446.398,0.00022,0.0,0.0
10.684,4448.757,0.00022,0.0,0.0
10.691,4473.806,0.00022,0.0,0.0
10.697,4490.057,0.00022,0.0,0.0
10.703,4487.037,0.00022,0.0,0.0
10.71,4513.632,0.00022,0.0,0.0
10.716,4521.337,0.00022,0.0,0.0
10.722,4551.559,0.00022,0.0,0.0
10.729,4569.653,0.00022,0.0,0.0
10.735,4606.277,0.00022,0.0,0.0
10.741,4656.281,0.00021,0.0,0.0
10.748,4710.607,0.00021,0.0,0.0
10.754,4806.045,0.00021,0.0,0.0
10.76,4928.743,0.0002,0.0,0.0
10.767,5121.965,0.0002,0.0,0.0
10.773,5497.023,0.00018,0.0,0.0
10.779,6100.115,0.00016,0.0,0.0
10.786,7088.26,0.00014,0.0,0.0
10.792,9660.654,0.0001,0.0,0.0
10.798,11812.075,0.00008,0.0,0.0
10.805,19007.991,0.00005,0.0,0.0
10.811,22875.529,0.00004,0.0,0.0
10.817,28382.874,0.00004,0.0,0.0
10.824,32116.816,0.00003,0.0,0.0
10.83,27302.433,0.00004,0.0,0.0
10.836,22876.888,0.00004,0.0,0.0
10.842,17403.684,0.00006,0.0,0.0
10.849,11957.859,0.00008,0.0,0.0
10.855,9227.79,0.00011,0.0,0.0
10.861,7052.264,0.00014,0.0,0.0
10.868,6094.856,0.00016,0.0,0.0
10.874,5525.412,0.00018,0.0,0.0
10.88,5162.416,0.00019,0.0,0.0
10.887,4996.029,0.0002,0.0,0.0
10.893,4869.898,0.00021,0.0,0.0
10.899,4802.574,0.00021,0.0,0.0
10.906,4738.806,0.00021,0.0,0.0
10.912,4712.399,0.00021,0.0,0.0
10.918,4707.436,0.00021,0.0,0.0
10.925,4686.208,0.00021,0.0,0.0
10.931,4692.129,0.00021,0.0,0.0
10.937,4682.824,0.00021,0.0,0.0
10.944,4683.419,0.00021,0.0,0.0
10.95,4675.621,0.00021,0.0,0.0
10.956,4668.79,0.00021,0.0,0.0
10.963,4632.976,0.00022,0.0,0.0
10.969,4626.324,0.00022,0.0,0.0
10.975,4605.591,0.00022,0.0,0.0
10.982,4593.337,0.00022,0.0,0.0
10.988,4591.495,0.00022,0.0,0.0
10.994,4574.382,0.00022,0.0,0.0
11.0,4583.352,0.00022,0.0,0.0
11.007,4564.301,0.00022,0.0,0.0
11.013,4572.138,0.00022,0.0,0.0
11.019,4562.661,0.00022,0.0,0.0
11.026,4558.703,0.00022,0.0,0.0
11.032,4575.651,0.00022,0.0,0.0
11.038,4572.346,0.00022,0.0,0.0
11.045,4567.018,0.00022,0.0,0.0
11.051,4561.305,0.00022,0.0,0.0
11.057,4567.16,0.00022,0.0,0.0
11.064,4572.907,0.00022,0.0,0.0
11.07,4584.509,0.00022,0.0,0.0
11.076,4565.609,0.00022,0.0,0.0
11.083,4586.559,0.00022,0.0,0.0
11.089,4584.645,0.00022,0.0,0.0
11.095,4597.732,0.00022,0.0,0.0
11.102,4588.873,0.00022,0.0,0.0
11.108,4580.203,0.00022,0.0,0.0
11.114,4622.96,0.00022,0.0,0.0
11.121,4606.518,0.00022,0.0,0.0
11.127,4636.427,0.00022,0.0,0.0
11.133,4627.704,0.00022,0.0,0.0
11.14,4645.562,0.00022,0.0,0.0
11.146,4632.545,0.00022,0.0,0.0
11.152,4651.795,0.00021,0.0,0.0
11.158,4639.507,0.00022,0.0,0.0
11.165,4693.083,0.00021,0.0,0.0
11.171,4694.03,0.00021,0.0,0.0
11.177,4685.616,0.00021,0.0,0.0
11.184,4720.052,0.00021,0.0,0.0
11.19,4698.926,0.00021,0.0,0.0
11.196,4716.726,0.00021,0.0,0.0
11.203,4697.791,0.00021,0.0,0.0
11.209,4683.564,0.00021,0.0,0.0
11.215,4689.49,0.00021,0.0,0.0
11.222,4680.908,0.00021,0.0,0.0
11.228,4656.192,0.00021,0.0,0.0
11.234,4644.143,0.00022,0.0,0.0
11.241,4638.91,0.00022,0.0,0.0
11.247,4627.244,0.00022,0.0,0.0
11.253,4636.612,0.00022,0.0,0.0
11.26,4593.46,0.00022,0.0,0.0
11.266,4643.29,0.00022,0.0,0.0
11.272,4612.905,0.00022,0.0,0.0
11.279,4601.854,0.00022,0.0,0.0
11.285,4593.891,0.00022,0.0,0.0
11.291,4603.435,0.00022,0.0,0.0
11.298,4579.273,0.00022,0.0,0.0
11.304,4548.919,0.00022,0.0,0.0
11.31,4583.621,0.00022,0.0,0.0
11.316,4583.377,0.00022,0.0,0.0
11.323,4583.55,0.00022,0.0,0.0
11.329,4563.465,0.00022,0.0,0.0
11.335,4551.863,0.00022,0.0,0.0
11.342,4557.211,0.00022,0.0,0.0
11.348,4546.861,0.00022,0.0,0.0
11.354,4536.013,0.00022,0.0,0.0
11.361,4534.84,0.00022,0.0,0.0
11.367,4551.438,0.00022,0.0,0.0
11.373,4530.904,0.00022,0.0,0.0
11.38,4543.003,0.00022,0.0,0.0
11.386,4513.407,0.00022,0.0,0.0
11.392,4540.031,0.00022,0.0,0.0
11.399,4527.228,0.00022,0.0,0.0
11.405,4502.572,0.00022,0.0,0.0
11.411,4524.059,0.00022,0.0,0.0
11.418,4518.635,0.00022,0.0,0.0
11.424,4521.972,0.00022,0.0,0.0
11.43,4511.108,0.00022,0.0,0.0
11.437,4506.337,0.00022,0.0,0.0
11.443,4499.419,0.00022,0.0,0.0
11.449,4500.726,0.00022,0.0,0.0
11.456,4494.718,0.00022,0.0,0.0
11.462,4512.039,0.00022,0.0,0.0
11.468,4491.243,0.00022,0.0,0.0
11.474,4494.439,0.00022,0.0,0.0
11.481,4509.293,0.00022,0.0,0.0
11.487,4503.845,0.00022,0.0,0.0
11.493,4527.737,0.00022,0.0,0.0
11.5,4518.787,0.00022,0.0,0.0
11.506,4544.354,0.00022,0.0,0.0
11.512,4561.024,0.00022,0.0,0.0
11.519,4582.449,0.00022,0.0,0.0
11.525,4598.305,0.00022,0.0,0.0
11.531,4585.765,0.00022,0.0,0.0
11.538,4591.336,0.00022,0.0,0.0
11.544,4570.737,0.00022,0.0,0.0
11.55,4534.307,0.00022,0.0,0.0
11.557,4520.635,0.00022,0.0,0.0
11.563,4502.956,0.00022,0.0,0.0
11.569,4486.265,0.00022,0.0,0.0
11.576,4477.441,0.00022,0.0,0.0
11.582,4480.234,0.00022,0.0,0.0
11.588,4471.172,0.00022,0.0,0.0
11.595,4476.636,0.00022,0.0,0.0
11.601,4460.694,0.00022,0.0,0.0
11.607,4474.207,0.00022,0.0,0.0
11.614,4463.868,0.00022,0.0,0.0
11.62,4453.862,0.00022,0.0,0.0
11.626,4450.821,0.00022,0.0,0.0
11.632,4452.677,0.00022,0.0,0.0
11.639,4460.036,0.00022,0.0,0.0
11.645,4448.744,0.00022,0.0,0.0
11.651,4452.946,0.00022,0.0,0.0
11.658,4465.313,0.00022,0.0,0.0
11.664,4458.275,0.00022,0.0,0.0
11.67,4453.482,0.00022,0.0,0.0
11.677,4441.54,0.00023,0.0,0.0
11.683,4430.764,0.00023,0.0,0.0
11.689,4439.38,0.00023,0.0,0.0
11.696,4438.019,0.00023,0.0,0.0
11.702,4437.728,0.00023,0.0,0.0
11.708,4445.919,0.00022,0.0,0.0
11.715,4431.541,0.00023,0.0,0.0
11.721,4439.992,0.00023,0.0,0.0
11.727,4421.151,0.00023,0.0,0.0
11.734,4431.669,0.00023,0.0,0.0
11.74,4438.674,0.00023,0.0,0.0
11.746,4418.014,0.00023,0.0,0.0
11.753,4426.887,0.00023,0.0,0.0
11.759,4423.073,0.00023,0.0,0.0
11.765,4424.238,0.00023,0.0,0.0
11.772,4425.618,0.00023,0.0,0.0
11.778,4421.553,0.00023,0.0,0.0
11.784,4417.062,0.00023,0.0,0.0
11.79,4419.417,0.00023,0.0,0.0
11.797,4416.108,0.00023,0.0,0.0
11.803,4420.488,0.00023,0.0,0.0
11.809,4410.854,0.00023,0.0,0.0
11.816,4413.579,0.00023,0.0,0.0
11.822,4398.996,0.00023,0.0,0.0
11.828,4403.468,0.00023,0.0,0.0
11.835,4392.916,0.00023,0.0,0.0
11.841,4388.473,0.00023,0.0,0.0
11.847,4404.526,0.00023,0.0,0.0
11.854,4394.681,0.00023,0.0,0.0
11.86,4401.946,0.00023,0.0,0.0
11.866,4397.748,0.00023,0.0,0.0
11.873,4374.587,0.00023,0.0,0.0
11.879,4386.783,0.00023,0.0,0.0
11.885,4367.982,0.00023,0.0,0.0
11.892,4385.032,0.00023,0.0,0.0
11.898,4384.908,0.00023,0.0,0.0
11.904,4384.533,0.00023,0.0,0.0
11.911,4392.911,0.00023,0.0,0.0
11.917,4369.407,0.00023,0.0,0.0
11.923,4385.264,0.00023,0.0,0.0
11.93,4375.676,0.00023,0.0,0.0
11.936,4367.43,0.00023,0.0,0.0
11.942,4389.625,0.00023,0.0,0.0
11.948,4387.307,0.00023,0.0,0.0
11.955,4375.492,0.00023,0.0,0.0
11.961,4391.373,0.00023,0.0,0.0
11.967,4389.558,0.00023,0.0,0.0
11.974,4382.412,0.00023,0.0,0.0
11.98,4380.958,0.00023,0.0,0.0
11.986,4384.383,0.00023,0.0,0.0
11.993,4392.043,0.00023,0.0,0.0
11.999,4419.708,0.00023,0.0,0.0
12.005,4406.044,0.00023,0.0,0.0
12.012,4404.578,0.00023,0.0,0.0
12.018,4418.846,0.00023,0.0,0.0
12.024,4430.277,0.00023,0.0,0.0
12.031,4425.558,0.00023,0.0,0.0
12.037,4416.69,0.00023,0.0,0.0
12.043,4445.158,0.00022,0.0,0.0
12.05,4514.631,0.00022,0.0,0.0
12.056,4505.114,0.00022,0.0,0.0
12.062,4670.074,0.00021,0.0,0.0
12.069,4703.648,0.00021,0.0,0.0
12.075,4559.113,0.00022,0.0,0.0
12.081,6067.09,0.00016,0.0,0.0
12.088,5319.718,0.00019,0.0,0.0
12.094,6612.438,0.00015,0.0,0.0
12.1,8382.517,0.00012,0.0,0.0
12.106,5523.636,0.00018,0.0,0.0
12.113,6435.378,0.00016,0.0,0.0
12.119,5044.515,0.0002,0.0,0.0
12.125,4597.967,0.00022,0.0,0.0
12.132,4641.778,0.00022,0.0,0.0
12.138,4404.231,0.00023,0.0,0.0
12.144,4441.846,0.00023,0.0,0.0
12.151,4395.237,0.00023,0.0,0.0
12.157,4327.075,0.00023,0.0,0.0
12.163,4356.345,0.00023,0.0,0.0
12.17,4314.3,0.00023,0.0,0.0
12.176,4329.912,0.00023,0.0,0.0
12.182,4262.634,0.00023,0.0,0.0
12.189,4292.262,0.00023,0.0,0.0
12.195,4246.175,0.00024,0.0,0.0
12.201,4280.642,0.00023,0.0,0.0
12.208,4258.278,0.00023,0.0,0.0
12.214,4232.384,0.00024,0.0,0.0
12.22,4230.33,0.00024,0.0,0.0
12.227,4186.605,0.00024,0.0,0.0
12.233,4207.158,0.00024,0.0,0.0
12.239,4170.894,0.00024,0.0,0.0
12.246,4192.451,0.00024,0.0,0.0
12.252,4158.919,0.00024,0.0,0.0
12.258,4192.547,0.00024,0.0,0.0
12.264,4167.189,0.00024,0.0,0.0
12.271,4159.853,0.00024,0.0,0.0
12.277,4141.161,0.00024,0.0,0.0
12.283,4130.212,0.00024,0.0,0.0
12.29,4140.338,0.00024,0.0,0.0
12.296,4123.806,0.00024,0.0,0.0
12.302,4132.264,0.00024,0.0,0.0
12.309,4117.739,0.00024,0.0,0.0
12.315,4123.216,0.00024,0.0,0.0
12.321,4108.446,0.00024,0.0,0.0
12.328,4088.205,0.00024,0.0,0.0
12.334,4088.994,0.00024,0.0,0.0
12.34,4070.976,0.00025,0.0,0.0
12.347,4081.364,0.00025,0.0,0.0
12.353,4084.078,0.00024,0.0,0.0
12.359,4088.549,0.00024,0.0,0.0
12.366,4072.637,0.00025,0.0,0.0
12.372,4088.896,0.00024,0.0,0.0
12.378,4076.728,0.00025,0.0,0.0
12.385,4078.787,0.00025,0.0,0.0
12.391,4071.002,0.00025,0.0,0.0
12.397,4051.957,0.00025,0.0,0.0
12.404,4062.648,0.00025,0.0,0.0
12.41,4050.47,0.00025,0.0,0.0
12.416,4062.844,0.00025,0.0,0.0
12.422,4047.432,0.00025,0.0,0.0
12.429,4060.953,0.00025,0.0,0.0
12.435,4038.083,0.00025,0.0,0.0
12.441,4037.765,0.00025,0.0,0.0
12.448,4036.437,0.00025,0.0,0.0
12.454,4032.325,0.00025,0.0,0.0
12.46,4037.451,0.00025,0.0,0.0
12.467,4036.395,0.00025,0.0,0.0
12.473,4035.372,0.00025,0.0,0.0
12.479,4027.714,0.00025,0.0,0.0
12.486,4057.442,0.00025,0.0,0.0
12.492,4037.777,0.00025,0.0,0.0
12.498,4060.236,0.00025,0.0,0.0
12.505,4049.926,0.00025,0.0,0.0
12.511,4055.971,0.00025,0.0,0.0
12.517,4083.2,0.00024,0.0,0.0
12.524,4072.227,0.00025,0.0,0.0
12.53,4086.527,0.00024,0.0,0.0
12.536,4061.144,0.00025,0.0,0.0
12.543,4068.043,0.00025,0.0,0.0
12.549,4067.993,0.00025,0.0,0.0
12.555,4049.249,0.00025,0.0,0.0
12.562,4049.279,0.00025,0.0,0.0
12.568,4044.976,0.00025,0.0,0.0
12.574,4060.291,0.00025,0.0,0.0
12.58,4060.45,0.00025,0.0,0.0
12.587,4078.258,0.00025,0.0,0.0
12.593,4092.217,0.00024,0.0,0.0
12.599,4106.385,0.00024,0.0,0.0
12.606,4148.846,0.00024,0.0,0.0
12.612,4188.672,0.00024,0.0,0.0
12.618,4236.222,0.00024,0.0,0.0
12.625,4312.736,0.00023,0.0,0.0
12.631,4441.143,0.00023,0.0,0.0
12.637,4630.379,0.00022,0.0,0.0
12.644,4996.867,0.0002,0.0,0.0
12.65,5461.847,0.00018,0.0,0.0
12.656,6528.832,0.00015,0.0,0.0
12.663,8336.827,0.00012,0.0,0.0
12.669,10966.006,0.00009,0.0,0.0
12.675,16757.558,0.00006,0.0,0.0
12.682,20727.733,0.00005,0.0,0.0
12.688,29999.354,0.00003,0.0,0.0
12.694,32822.236,0.00003,0.0,0.0
12.701,33121.365,0.00003,0.0,0.0
12.707,31318.131,0.00003,0.0,0.0
12.713,24235.2,0.00004,0.0,0.0
12.72,17983.347,0.00006,0.0,0.0
12.726,12371.053,0.00008,0.0,0.0
12.732,8733.273,0.00011,0.0,0.0
12.738,6730.025,0.00015,0.0,0.0
12.745,5661.959,0.00018,0.0,0.0
12.751,4958.125,0.0002,0.0,0.0
12.757,4649.807,0.00022,0.0,0.0
12.764,4398.587,0.00023,0.0,0.0
12.77,4272.476,0.00023,0.0,0.0
12.776,4173.546,0.00024,0.0,0.0
12.783,4092.38,0.00024,0.0,0.0
12.789,4055.414,0.00025,0.0,0.0
12.795,4014.924,0.00025,0.0,0.0
12.802,3991.768,0.00025,0.0,0.0
12.808,3965.321,0.00025,0.0,0.0
12.814,3944.939,0.00025,0.0,0.0
12.821,3934.429,0.00025,0.0,0.0
12.827,3919.865,0.00026,0.0,0.0
12.833,3901.46,0.00026,0.0,0.0
12.84,3896.9,0.00026,0.0,0.0
12.846,3889.203,0.00026,0.0,0.0
12.852,3880.732,0.00026,0.0,0.0
12.859,3883.06,0.00026,0.0,0.0
12.865,3867.977,0.00026,0.0,0.0
12.871,3873.029,0.00026,0.0,0.0
12.878,3855.906,0.00026,0.0,0.0
12.884,3850.084,0.00026,0.0,0.0
12.89,3847.649,0.00026,0.0,0.0
12.896,3846.666,0.00026,0.0,0.0
12.903,3857.084,0.00026,0.0,0.0
12.909,3844.851,0.00026,0.0,0.0
12.915,3861.01,0.00026,0.0,0.0
12.922,3845.955,0.00026,0.0,0.0
12.928,3889.1,0.00026,0.0,0.0
12.934,3880.66,0.00026,0.0,0.0
12.941,3901.905,0.00026,0.0,0.0
12.947,3908.361,0.00026,0.0,0.0
12.953,3921.638,0.00025,0.0,0.0
12.96,3912.602,0.00026,0.0,0.0
12.966,3894.446,0.00026,0.0,0.0
12.972,3863.77,0.00026,0.0,0.0
12.979,3838.326,0.00026,0.0,0.0
12.985,3808.197,0.00026,0.0,0.0
12.991,3805.358,0.00026,0.0,0.0
12.998,3786.093,0.00026,0.0,0.0
13.004,3763.911,0.00027,0.0,0.0
13.01,3778.23,0.00026,0.0,0.0
13.017,3744.861,0.00027,0.0,0.0
13.023,3761.456,0.00027,0.0,0.0
13.029,3754.085,0.00027,0.0,0.0
13.036,3737.141,0.00027,0.0,0.0
13.042,3760.094,0.00027,0.0,0.0
13.048,3734.147,0.00027,0.0,0.0
13.054,3739.284,0.00027,0.0,0.0
13.061,3735.784,0.00027,0.0,0.0
13.067,3735.496,0.00027,0.0,0.0
13.073,3723.594,0.00027,0.0,0.0
13.08,3726.052,0.00027,0.0,0.0
13.086,3721.93,0.00027,0.0,0.0
13.092,3714.83,0.00027,0.0,0.0
13.099,3722.084,0.00027,0.0,0.0
13.105,3715.494,0.00027,0.0,0.0
13.111,3706.217,0.00027,0.0,0.0
13.118,3701.531,0.00027,0.0,0.0
13.124,3704.149,0.00027,0.0,0.0
13.13,3710.15,0.00027,0.0,0.0
13.137,3707.898,0.00027,0.0,0.0
13.143,3707.866,0.00027,0.0,0.0
13.149,3706.363,0.00027,0.0,0.0
13.156,3712.868,0.00027,0.0,0.0
13.162,3706.279,0.00027,0.0,0.0
13.168,3705.924,0.00027,0.0,0.0
13.175,3730.175,0.00027,0.0,0.0
13.181,3727.68,0.00027,0.0,0.0
13.187,3732.216,0.00027,0.0,0.0
13.194,3754.354,0.00027,0.0,0.0
13.2,3772.817,0.00027,0.0,0.0
13.206,3819.015,0.00026,0.0,0.0
13.212,3898.775,0.00026,0.0,0.0
13.219,4023.849,0.00025,0.0,0.0
13.225,4267.214,0.00023,0.0,0.0
13.231,4717.772,0.00021,0.0,0.0
13.238,5468.892,0.00018,0.0,0.0
13.244,6733.742,0.00015,0.0,0.0
13.25,8338.15,0.00012,0.0,0.0
13.257,9790.397,0.0001,0.0,0.0
13.263,11078.931,0.00009,0.0,0.0
13.269,10751.719,0.00009,0.0,0.0
13.276,9902.504,0.0001,0.0,0.0
13.282,8234.2,0.00012,0.0,0.0
13.288,6763.864,0.00015,0.0,0.0
13.295,5474.786,0.00018,0.0,0.0
13.301,4708.422,0.00021,0.0,0.0
13.307,4224.712,0.00024,0.0,0.0
13.314,3971.602,0.00025,0.0,0.0
13.32,3836.162,0.00026,0.0,0.0
13.326,3766.788,0.00027,0.0,0.0
13.333,3702.972,0.00027,0.0,0.0
13.339,3681.438,0.00027,0.0,0.0
13.345,3647.867,0.00027,0.0,0.0
13.352,3636.918,0.00027,0.0,0.0
13.358,3619.914,0.00028,0.0,0.0
13.364,3609.459,0.00028,0.0,0.0
13.37,3606.16,0.00028,0.0,0.0
13.377,3601.803,0.00028,0.0,0.0
13.383,3590.061,0.00028,0.0,0.0
13.389,3590.627,0.00028,0.0,0.0
13.396,3594.776,0.00028,0.0,0.0
13.402,3583.085,0.00028,0.0,0.0
13.408,3573.497,0.00028,0.0,0.0
13.415,3577.648,0.00028,0.0,0.0
13.421,3578.26,0.00028,0.0,0.0
13.427,3560.924,0.00028,0.0,0.0
13.434,3551.065,0.00028,0.0,0.0
13.44,3549.427,0.00028,0.0,0.0
13.446,3547.764,0.00028,0.0,0.0
13.453,3535.619,0.00028,0.0,0.0
13.459,3529.428,0.00028,0.0,0.0
13.465,3530.189,0.00028,0.0,0.0
13.472,3519.994,0.00028,0.0,0.0
13.478,3518.173,0.00028,0.0,0.0
13.484,3521.06,0.00028,0.0,0.0
13.491,3513.158,0.00028,0.0,0.0
13.497,3508.592,0.00029,0.0,0.0
13.503,3503.352,0.00029,0.0,0.0
13.51,3505.566,0.00029,0.0,0.0
13.516,3506.734,0.00029,0.0,0.0
13.522,3490.87,0.00029,0.0,0.0
13.528,3508.034,0.00029,0.0,0.0
13.535,3499.511,0.00029,0.0,0.0
13.541,3497.845,0.00029,0.0,0.0
13.547,3493.673,0.00029,0.0,0.0
13.554,3493.111,0.00029,0.0,0.0
13.56,3490.541,0.00029,0.0,0.0
13.566,3489.395,0.00029,0.0,0.0
13.573,3481.818,0.00029,0.0,0.0
13.579,3480.47,0.00029,0.0,0.0
13.585,3474.025,0.00029,0.0,0.0
13.592,3482.757,0.00029,0.0,0.0
13.598,3479.519,0.00029,0.0,0.0
13.604,3484.398,0.00029,0.0,0.0
13.611,3480.844,0.00029,0.0,0.0
13.617,3480.697,0.00029,0.0,0.0
13.623,3477.631,0.00029,0.0,0.0
13.63,3477.911,0.00029,0.0,0.0
13.636,3478.362,0.00029,0.0,0.0
13.642,3494.834,0.00029,0.0,0.0
13.649,3480.595,0.00029,0.0,0.0
13.655,3495.856,0.00029,0.0,0.0
13.661,3487.426,0.00029,0.0,0.0
13.668,3484.715,0.00029,0.0,0.0
13.674,3479.446,0.00029,0.0,0.0
13.68,3479.945,0.00029,0.0,0.0
13.686,3473.524,0.00029,0.0,0.0
13.693,3458.548,0.00029,0.0,0.0
13.699,3471.959,0.00029,0.0,0.0
13.705,3453.319,0.00029,0.0,0.0
13.712,3457.367,0.00029,0.0,0.0
13.718,3453.059,0.00029,0.0,0.0
13.724,3447.978,0.00029,0.0,0.0
13.731,3460.001,0.00029,0.0,0.0
13.737,3447.688,0.00029,0.0,0.0
13.743,3447.233,0.00029,0.0,0.0
13.75,3443.357,0.00029,0.0,0.0
13.756,3429.663,0.00029,0.0,0.0
13.762,3422.877,0.00029,0.0,0.0
13.769,3432.535,0.00029,0.0,0.0
13.775,3411.467,0.00029,0.0,0.0
13.781,3421.433,0.00029,0.0,0.0
13.788,3410.941,0.00029,0.0,0.0
13.794,3408.388,0.00029,0.0,0.0
13.8,3413.571,0.00029,0.0,0.0
13.807,3398.516,0.00029,0.0,0.0
13.813,3401.305,0.00029,0.0,0.0
13.819,3388.671,0.0003,0.0,0.0
13.826,3400.854,0.00029,0.0,0.0
13.832,3396.221,0.00029,0.0,0.0
13.838,3389.821,0.0003,0.0,0.0
13.844,3386.978,0.0003,0.0,0.0
13.851,3385.739,0.0003,0.0,0.0
13.857,3381.675,0.0003,0.0,0.0
13.863,3373.263,0.0003,0.0,0.0
13.87,3366.684,0.0003,0.0,0.0
13.876,3368.504,0.0003,0.0,0.0
13.882,3364.506,0.0003,0.0,0.0
13.889,3368.735,0.0003,0.0,0.0
13.895,3375.288,0.0003,0.0,0.0
13.901,3361.543,0.0003,0.0,0.0
13.908,3368.402,0.0003,0.0,0.0
13.914,3368.048,0.0003,0.0,0.0
13.92,3356.256,0.0003,0.0,0.0
13.927,3355.329,0.0003,0.0,0.0
13.933,3359.116,0.0003,0.0,0.0
13.939,3345.38,0.0003,0.0,0.0
13.946,3343.414,0.0003,0.0,0.0
13.952,3348.049,0.0003,0.0,0.0
13.958,3351.465,0.0003,0.0,0.0
13.965,3338.095,0.0003,0.0,0.0
13.971,3340.79,0.0003,0.0,0.0
13.977,3337.582,0.0003,0.0,0.0
13.984,3327.735,0.0003,0.0,0.0
13.99,3335.804,0.0003,0.0,0.0
13.996,3327.623,0.0003,0.0,0.0
14.002,3332.202,0.0003,0.0,0.0
14.009,3330.657,0.0003,0.0,0.0
14.015,3320.767,0.0003,0.0,0.0
14.021,3318.414,0.0003,0.0,0.0
14.028,3308.057,0.0003,0.0,0.0
14.034,3308.67,0.0003,0.0,0.0
14.04,3309.002,0.0003,0.0,0.0
14.047,3314.734,0.0003,0.0,0.0
14.053,3306.481,0.0003,0.0,0.0
14.059,3295.499,0.0003,0.0,0.0
14.066,3309.496,0.0003,0.0,0.0
14.072,3295.777,0.0003,0.0,0.0
14.078,3312.901,0.0003,0.0,0.0
14.085,3296.929,0.0003,0.0,0.0
14.091,3305.682,0.0003,0.0,0.0
14.097,3290.274,0.0003,0.0,0.0
14.104,3290.49,0.0003,0.0,0.0
14.11,3298.387,0.0003,0.0,0.0
14.116,3290.823,0.0003,0.0,0.0
14.123,3290.26,0.0003,0.0,0.0
14.129,3277.452,0.00031,0.0,0.0
14.135,3286.34,0.0003,0.0,0.0
14.142,3282.56,0.0003,0.0,0.0
14.148,3286.633,0.0003,0.0,0.0
14.154,3282.166,0.0003,0.0,0.0
14.16,3290.641,0.0003,0.0,0.0
14.167,3285.412,0.0003,0.0,0.0
14.173,3278.149,0.00031,0.0,0.0
14.179,3288.907,0.0003,0.0,0.0
14.186,3272.127,0.00031,0.0,0.0
14.192,3274.421,0.00031,0.0,0.0
14.198,3264.871,0.00031,0.0,0.0
14.205,3272.284,0.00031,0.0,0.0
14.211,3276.399,0.00031,0.0,0.0
14.217,3262.838,0.00031,0.0,0.0
14.224,3281.757,0.0003,0.0,0.0
14.23,3275.623,0.00031,0.0,0.0
14.236,3280.416,0.0003,0.0,0.0
14.243,3289.299,0.0003,0.0,0.0
14.249,3299.189,0.0003,0.0,0.0
14.255,3306.181,0.0003,0.0,0.0
14.262,3302.976,0.0003,0.0,0.0
14.268,3307.146,0.0003,0.0,0.0
14.274,3307.688,0.0003,0.0,0.0
14.281,3310.856,0.0003,0.0,0.0
14.287,3279.197,0.0003,0.0,0.0
14.293,3275.189,0.00031,0.0,0.0
14.3,3269.486,0.00031,0.0,0.0
14.306,3264.428,0.00031,0.0,0.0
14.312,3263.119,0.00031,0.0,0.0
14.318,3246.996,0.00031,0.0,0.0
14.325,3243.491,0.00031,0.0,0.0
14.331,3241.581,0.00031,0.0,0.0
14.337,3235.935,0.00031,0.0,0.0
14.344,3247.757,0.00031,0.0,0.0
14.35,3236.301,0.00031,0.0,0.0
14.356,3232.207,0.00031,0.0,0.0
14.363,3226.126,0.00031,0.0,0.0
14.369,3226.882,0.00031,0.0,0.0
14.375,3226.831,0.00031,0.0,0.0
14.382,3223.165,0.00031,0.0,0.0
14.388,3222.69,0.00031,0.0,0.0
14.394,3235.066,0.00031,0.0,0.0
14.401,3216.262,0.00031,0.0,0.0
14.407,3223.451,0.00031,0.0,0.0
14.413,3209.077,0.00031,0.0,0.0
14.42,3217.998,0.00031,0.0,0.0
14.426,3210.557,0.00031,0.0,0.0
14.432,3215.337,0.00031,0.0,0.0
14.439,3217.343,0.00031,0.0,0.0
14.445,3205.254,0.00031,0.0,0.0
14.451,3202.448,0.00031,0.0,0.0
14.458,3202.408,0.00031,0.0,0.0
14.464,3224.44,0.00031,0.0,0.0
14.47,3196.659,0.00031,0.0,0.0
14.476,3192.399,0.00031,0.0,0.0
14.483,3203.444,0.00031,0.0,0.0
14.489,3199.823,0.00031,0.0,0.0
14.495,3199.103,0.00031,0.0,0.0
14.502,3184.404,0.00031,0.0,0.0
14.508,3197.838,0.00031,0.0,0.0
14.514,3186.744,0.00031,0.0,0.0
14.521,3185.715,0.00031,0.0,0.0
14.527,3185.603,0.00031,0.0,0.0
14.533,3184.856,0.00031,0.0,0.0
14.54,3197.266,0.00031,0.0,0.0
14.546,3184.133,0.00031,0.0,0.0
14.552,3187.103,0.00031,0.0,0.0
14.559,3182.222,0.00031,0.0,0.0
14.565,3180.729,0.00031,0.0,0.0
14.571,3186.042,0.00031,0.0,0.0
14.578,3180.057,0.00031,0.0,0.0
14.584,3189.316,0.00031,0.0,0.0
14.59,3186.677,0.00031,0.0,0.0
14.597,3175.23,0.00031,0.0,0.0
14.603,3178.968,0.00031,0.0,0.0
14.609,3177.825,0.00031,0.0,0.0
14.616,3183.005,0.00031,0.0,0.0
14.622,3169.478,0.00032,0.0,0.0
14.628,3167.599,0.00032,0.0,0.0
14.634,3170.226,0.00032,0.0,0.0
14.641,3172.526,0.00032,0.0,0.0
14.647,3169.98,0.00032,0.0,0.0
14.653,3158.193,0.00032,0.0,0.0
14.66,3174.215,0.00032,0.0,0.0
14.666,3175.322,0.00031,0.0,0.0
14.672,3170.685,0.00032,0.0,0.0
14.679,3164.383,0.00032,0.0,0.0
14.685,3167.118,0.00032,0.0,0.0
14.691,3166.753,0.00032,0.0,0.0
14.698,3155.788,0.00032,0.0,0.0
14.704,3161.011,0.00032,0.0,0.0
14.71,3150.862,0.00032,0.0,0.0
14.717,3150.512,0.00032,0.0,0.0
14.723,3144.529,0.00032,0.0,0.0
14.729,3162.366,0.00032,0.0,0.0
14.736,3139.432,0.00032,0.0,0.0
14.742,3153.311,0.00032,0.0,0.0
14.748,3160.047,0.00032,0.0,0.0
14.755,3145.161,0.00032,0.0,0.0
14.761,3145.03,0.00032,0.0,0.0
14.767,3146.531,0.00032,0.0,0.0
14.774,3140.246,0.00032,0.0,0.0
14.78,3141.787,0.00032,0.0,0.0
14.786,3149.618,0.00032,0.0,0.0
14.792,3149.399,0.00032,0.0,0.0
14.799,3150.581,0.00032,0.0,0.0
14.805,3139.57,0.00032,0.0,0.0
14.811,3142.549,0.00032,0.0,0.0
14.818,3141.721,0.00032,0.0,0.0
14.824,3137.776,0.00032,0.0,0.0
14.83,3152.663,0.00032,0.0,0.0
14.837,3141.162,0.00032,0.0,0.0
14.843,3142.024,0.00032,0.0,0.0
14.849,3147.917,0.00032,0.0,0.0
14.856,3148.314,0.00032,0.0,0.0
14.862,3135.76,0.00032,0.0,0.0
14.868,3146.632,0.00032,0.0,0.0
14.875,3130.664,0.00032,0.0,0.0
14.881,3141.354,0.00032,0.0,0.0
14.887,3142.748,0.00032,0.0,0.0
14.894,3138.565,0.00032,0.0,0.0
14.9,3125.701,0.00032,0.0,0.0
14.906,3135.387,0.00032,0.0,0.0
14.913,3134.847,0.00032,0.0,0.0
14.919,3132.177,0.00032,0.0,0.0
14.925,3149.239,0.00032,0.0,0.0
14.932,3128.07,0.00032,0.0,0.0
14.938,3127.171,0.00032,0.0,0.0
14.944,3135.273,0.00032,0.0,0.0
14.95,3125.126,0.00032,0.0,0.0
14.957,3115.702,0.00032,0.0,0.0
14.963,3126.172,0.00032,0.0,0.0
14.969,3112.147,0.00032,0.0,0.0
14.976,3125.021,0.00032,0.0,0.0
14.982,3122.286,0.00032,0.0,0.0
14.988,3119.938,0.00032,0.0,0.0
14.995,3126.047,0.00032,0.0,0.0
15.001,3115.005,0.00032,0.0,0.0
15.007,3127.585,0.00032,0.0,0.0
15.014,3126.12,0.00032,0.0,0.0
15.02,3123.833,0.00032,0.0,0.0
15.026,3116.235,0.00032,0.0,0.0
15.033,3119.205,0.00032,0.0,0.0
15.039,3116.375,0.00032,0.0,0.0
15.045,3112.737,0.00032,0.0,0.0
15.052,3124.856,0.00032,0.0,0.0
15.058,3120.015,0.00032,0.0,0.0
15.064,3108.906,0.00032,0.0,0.0
15.071,3126.631,0.00032,0.0,0.0
15.077,3113.427,0.00032,0.0,0.0
15.083,3119.19,0.00032,0.0,0.0
15.09,3116.863,0.00032,0.0,0.0
15.096,3108.25,0.00032,0.0,0.0
15.102,3121.537,0.00032,0.0,0.0
15.108,3113.618,0.00032,0.0,0.0
15.115,3120.653,0.00032,0.0,0.0
15.121,3106.541,0.00032,0.0,0.0
15.127,3128.297,0.00032,0.0,0.0
15.134,3124.242,0.00032,0.0,0.0
15.14,3113.316,0.00032,0.0,0.0
15.146,3110.86,0.00032,0.0,0.0
15.153,3118.678,0.00032,0.0,0.0
15.159,3110.454,0.00032,0.0,0.0
15.165,3114.155,0.00032,0.0,0.0
15.172,3119.592,0.00032,0.0,0.0
15.178,3125.716,0.00032,0.0,0.0
15.184,3121.97,0.00032,0.0,0.0
15.191,3123.75,0.00032,0.0,0.0
15.197,3121.772,0.00032,0.0,0.0
15.203,3124.044,0.00032,0.0,0.0
15.21,3115.698,0.00032,0.0,0.0
15.216,3121.864,0.00032,0.0,0.0
15.222,3119.114,0.00032,0.0,0.0
15.229,3128.48,0.00032,0.0,0.0
15.235,3123.415,0.00032,0.0,0.0
15.241,3129.007,0.00032,0.0,0.0
15.248,3150.086,0.00032,0.0,0.0
15.254,3161.498,0.00032,0.0,0.0
15.26,3178.255,0.00031,0.0,0.0
15.266,3193.862,0.00031,0.0,0.0
15.273,3233.394,0.00031,0.0,0.0
15.279,3321.525,0.0003,0.0,0.0
15.285,3441.068,0.00029,0.0,0.0
15.292,3675.386,0.00027,0.0,0.0
15.298,3961.703,0.00025,0.0,0.0
15.304,4546.176,0.00022,0.0,0.0
15.311,5076.08,0.0002,0.0,0.0
15.317,5670.053,0.00018,0.0,0.0
15.323,6126.051,0.00016,0.0,0.0
15.33,5997.097,0.00017,0.0,0.0
15.336,6016.725,0.00017,0.0,0.0
15.342,5098.005,0.0002,0.0,0.0
15.349,4547.007,0.00022,0.0,0.0
15.355,4123.331,0.00024,0.0,0.0
15.361,3645.944,0.00027,0.0,0.0
15.368,3464.348,0.00029,0.0,0.0
15.374,3311.234,0.0003,0.0,0.0
15.38,3241.333,0.00031,0.0,0.0
15.387,3188.396,0.00031,0.0,0.0
15.393,3158.489,0.00032,0.0,0.0
15.399,3135.886,0.00032,0.0,0.0
15.406,3134.504,0.00032,0.0,0.0
15.412,3123.143,0.00032,0.0,0.0
15.418,3111.471,0.00032,0.0,0.0
15.424,3107.627,0.00032,0.0,0.0
15.431,3094.017,0.00032,0.0,0.0
15.437,3089.701,0.00032,0.0,0.0
15.443,3104.888,0.00032,0.0,0.0
15.45,3091.1,0.00032,0.0,0.0
15.456,3091.977,0.00032,0.0,0.0
15.462,3099.754,0.00032,0.0,0.0
15.469,3093.591,0.00032,0.0,0.0
15.475,3090.449,0.00032,0.0,0.0
15.481,3081.643,0.00032,0.0,0.0
15.488,3077.336,0.00032,0.0,0.0
15.494,3077.412,0.00032,0.0,0.0
15.5,3071.278,0.00033,0.0,0.0
15.507,3067.235,0.00033,0.0,0.0
15.513,3075.173,0.00033,0.0,0.0
15.519,3080.946,0.00032,0.0,0.0
15.526,3068.66,0.00033,0.0,0.0
15.532,3070.758,0.00033,0.0,0.0
15.538,3052.291,0.00033,0.0,0.0
15.545,3066.22,0.00033,0.0,0.0
15.551,3046.549,0.00033,0.0,0.0
15.557,3056.845,0.00033,0.0,0.0
15.564,3053.018,0.00033,0.0,0.0
15.57,3051.558,0.00033,0.0,0.0
15.576,3046.78,0.00033,0.0,0.0
15.582,3047.408,0.00033,0.0,0.0
15.589,3044.359,0.00033,0.0,0.0
15.595,3026.611,0.00033,0.0,0.0
15.601,3035.558,0.00033,0.0,0.0
15.608,3034.578,0.00033,0.0,0.0
15.614,3030.264,0.00033,0.0,0.0
15.62,3031.532,0.00033,0.0,0.0
15.627,3021.158,0.00033,0.0,0.0
15.633,3025.94,0.00033,0.0,0.0
15.639,3033.439,0.00033,0.0,0.0
15.646,3028.548,0.00033,0.0,0.0
15.652,3012.18,0.00033,0.0,0.0
15.658,3011.787,0.00033,0.0,0.0
15.665,3012.988,0.00033,0.0,0.0
15.671,3010.635,0.00033,0.0,0.0
15.677,3004.012,0.00033,0.0,0.0
15.684,3005.512,0.00033,0.0,0.0
15.69,2998.346,0.00033,0.0,0.0
15.696,3003.513,0.00033,0.0,0.0
15.703,2994.383,0.00033,0.0,0.0
15.709,2987.918,0.00033,0.0,0.0
15.715,2983.582,0.00034,0.0,0.0
15.722,2991.48,0.00033,0.0,0.0
15.728,2986.709,0.00033,0.0,0.0
15.734,2978.64,0.00034,0.0,0.0
15.74,2975.465,0.00034,0.0,0.0
15.747,2985.194,0.00033,0.0,0.0
15.753,2983.977,0.00034,0.0,0.0
15.759,2971.992,0.00034,0.0,0.0
15.766,2977.043,0.00034,0.0,0.0
15.772,2970.68,0.00034,0.0,0.0
15.778,2979.911,0.00034,0.0,0.0
15.785,2973.956,0.00034,0.0,0.0
15.791,2969.808,0.00034,0.0,0.0
15.797,2967.612,0.00034,0.0,0.0
15.804,2967.599,0.00034,0.0,0.0
15.81,2963.491,0.00034,0.0,0.0
15.816,2964.783,0.00034,0.0,0.0
15.823,2960.337,0.00034,0.0,0.0
15.829,2969.494,0.00034,0.0,0.0
15.835,2958.848,0.00034,0.0,0.0
15.842,2960.051,0.00034,0.0,0.0
15.848,2953.176,0.00034,0.0,0.0
15.854,2953.999,0.00034,0.0,0.0
15.861,2964.207,0.00034,0.0,0.0
15.867,2949.336,0.00034,0.0,0.0
15.873,2959.476,0.00034,0.0,0.0
15.88,2954.213,0.00034,0.0,0.0
15.886,2945.982,0.00034,0.0,0.0
15.892,2948.934,0.00034,0.0,0.0
15.898,2952.622,0.00034,0.0,0.0
15.905,2941.46,0.00034,0.0,0.0
15.911,2951.468,0.00034,0.0,0.0
15.917,2945.133,0.00034,0.0,0.0
15.924,2946.365,0.00034,0.0,0.0
15.93,2934.529,0.00034,0.0,0.0
15.936,2935.175,0.00034,0.0,0.0
15.943,2932.698,0.00034,0.0,0.0
15.949,2927.496,0.00034,0.0,0.0
15.955,2936.639,0.00034,0.0,0.0
15.962,2934.714,0.00034,0.0,0.0
15.968,2926.82,0.00034,0.0,0.0
15.974,2935.501,0.00034,0.0,0.0
15.981,2925.894,0.00034,0.0,0.0
15.987,2927.07,0.00034,0.0,0.0
15.993,2932.257,0.00034,0.0,0.0
16.0,2921.34,0.00034,0.0,0.0
16.006,2917.964,0.00034,0.0,0.0
16.012,2932.272,0.00034,0.0,0.0
16.019,2913.651,0.00034,0.0,0.0
16.025,2926.332,0.00034,0.0,0.0
16.031,2916.05,0.00034,0.0,0.0
16.038,2908.071,0.00034,0.0,0.0
16.044,2909.691,0.00034,0.0,0.0
16.05,2916.917,0.00034,0.0,0.0
16.056,2920.07,0.00034,0.0,0.0
16.063,2911.142,0.00034,0.0,0.0
16.069,2912.077,0.00034,0.0,0.0
16.075,2907.389,0.00034,0.0,0.0
16.082,2918.003,0.00034,0.0,0.0
16.088,2911.182,0.00034,0.0,0.0
16.094,2911.766,0.00034,0.0,0.0
16.101,2896.143,0.00035,0.0,0.0
16.107,2905.112,0.00034,0.0,0.0
16.113,2910.735,0.00034,0.0,0.0
16.12,2903.899,0.00034,0.0,0.0
16.126,2902.758,0.00034,0.0,0.0
16.132,2903.777,0.00034,0.0,0.0
16.139,2906.837,0.00034,0.0,0.0
16.145,2907.957,0.00034,0.0,0.0
16.151,2892.938,0.00035,0.0,0.0
16.158,2907.248,0.00034,0.0,0.0
16.164,2903.216,0.00034,0.0,0.0
16.17,2898.756,0.00034,0.0,0.0
16.177,2897.044,0.00035,0.0,0.0
16.183,2902.443,0.00034,0.0,0.0
16.189,2900.84,0.00034,0.0,0.0
16.196,2897.076,0.00035,0.0,0.0
16.202,2902.35,0.00034,0.0,0.0
16.208,2897.236,0.00035,0.0,0.0
16.214,2899.384,0.00034,0.0,0.0
16.221,2898.542,0.00035,0.0,0.0
16.227,2888.772,0.00035,0.0,0.0
16.233,2898.691,0.00034,0.0,0.0
16.24,2886.89,0.00035,0.0,0.0
16.246,2892.815,0.00035,0.0,0.0
16.252,2890.157,0.00035,0.0,0.0
16.259,2900.014,0.00034,0.0,0.0
16.265,2892.037,0.00035,0.0,0.0
16.271,2905.23,0.00034,0.0,0.0
16.278,2892.056,0.00035,0.0,0.0
16.284,2889.158,0.00035,0.0,0.0
16.29,2891.966,0.00035,0.0,0.0
16.297,2896.552,0.00035,0.0,0.0
16.303,2899.868,0.00034,0.0,0.0
16.309,2898.928,0.00034,0.0,0.0
16.316,2889.077,0.00035,0.0,0.0
16.322,2894.38,0.00035,0.0,0.0
16.328,2901.427,0.00034,0.0,0.0
16.335,2903.484,0.00034,0.0,0.0
16.341,2907.01,0.00034,0.0,0.0
16.347,2898.765,0.00034,0.0,0.0
16.354,2899.726,0.00034,0.0,0.0
16.36,2893.455,0.00035,0.0,0.0
16.366,2897.814,0.00035,0.0,0.0
16.372,2889.881,0.00035,0.0,0.0
16.379,2874.506,0.00035,0.0,0.0
16.385,2887.937,0.00035,0.0,0.0
16.391,2891.362,0.00035,0.0,0.0
16.398,2885.625,0.00035,0.0,0.0
16.404,2888.252,0.00035,0.0,0.0
16.41,2878.866,0.00035,0.0,0.0
16.417,2884.977,0.00035,0.0,0.0
16.423,2877.507,0.00035,0.0,0.0
16.429,2887.68,0.00035,0.0,0.0
16.436,2882.069,0.00035,0.0,0.0
16.442,2890.133,0.00035,0.0,0.0
16.448,2893.727,0.00035,0.0,0.0
16.455,2875.1,0.00035,0.0,0.0
16.461,2892.13,0.00035,0.0,0.0
16.467,2885.492,0.00035,0.0,0.0
16.474,2896.575,0.00035,0.0,0.0
16.48,2889.73,0.00035,0.0,0.0
16.486,2886.049,0.00035,0.0,0.0
16.493,2897.071,0.00035,0.0,0.0
16.499,2905.626,0.00034,0.0,0.0
16.505,2908.832,0.00034,0.0,0.0
16.512,2916.885,0.00034,0.0,0.0
16.518,2923.953,0.00034,0.0,0.0
16.524,2905.948,0.00034,0.0,0.0
16.53,2921.323,0.00034,0.0,0.0
16.537,2895.128,0.00035,0.0,0.0
16.543,2915.331,0.00034,0.0,0.0
16.549,2902.674,0.00034,0.0,0.0
16.556,2903.036,0.00034,0.0,0.0
16.562,2905.305,0.00034,0.0,0.0
16.568,2898.711,0.00034,0.0,0.0
16.575,2911.158,0.00034,0.0,0.0
16.581,2904.851,0.00034,0.0,0.0
16.587,2912.197,0.00034,0.0,0.0
16.594,2905.939,0.00034,0.0,0.0
