"x","y_obs","weight","y_calc","y_bkg"
0.8,2902.528,0.00034,0.0,0.0
0.806,3349.193,0.0003,0.0,0.0
0.813,3440.988,0.00029,0.0,0.0
0.819,3311.953,0.0003,0.0,0.0
0.825,3995.873,0.00025,0.0,0.0
0.832,3719.897,0.00027,0.0,0.0
0.838,4070.996,0.00025,0.0,0.0
0.844,4413.059,0.00023,0.0,0.0
0.851,4231.624,0.00024,0.0,0.0
0.857,4714.962,0.00021,0.0,0.0
0.863,5101.249,0.0002,0.0,0.0
0.87,4655.79,0.00021,0.0,0.0
0.876,5557.408,0.00018,0.0,0.0
0.882,5401.504,0.00019,0.0,0.0
0.888,5652.747,0.00018,0.0,0.0
0.895,5900.902,0.00017,0.0,0.0
0.901,5926.637,0.00017,0.0,0.0
0.907,6432.722,0.00016,0.0,0.0
0.914,6608.799,0.00015,0.0,0.0
0.92,6275.008,0.00016,0.0,0.0
0.926,6863.958,0.00015,0.0,0.0
0.933,6930.343,0.00014,0.0,0.0
0.939,6750.197,0.00015,0.0,0.0
0.945,7345.78,0.00014,0.0,0.0
0.952,6993.289,0.00014,0.0,0.0
0.958,7360.156,0.00014,0.0,0.0
0.964,7451.213,0.00013,0.0,0.0
0.971,7161.919,0.00014,0.0,0.0
0.977,7678.975,0.00013,0.0,0.0
0.983,7611.314,0.00013,0.0,0.0
0.99,7451.811,0.00013,0.0,0.0
0.996,7795.704,0.00013,0.0,0.0
1.002,7487.489,0.00013,0.0,0.0
1.009,7688.255,0.00013,0.0,0.0
1.015,7815.359,0.00013,0.0,0.0
1.021,7589.015,0.00013,0.0,0.0
1.028,7870.503,0.00013,0.0,0.0
1.034,7696.225,0.00013,0.0,0.0
1.04,7696.26,0.00013,0.0,0.0
1.046,7735.588,0.00013,0.0,0.0
1.053,7787.477,0.00013,0.0,0.0
1.059,7716.284,0.00013,0.0,0.0
1.065,7799.825,0.00013,0.0,0.0
1.072,7594.083,0.00013,0.0,0.0
1.078,7763.431,0.00013,0.0,0.0
1.084,7639.032,0.00013,0.0,0.0
1.091,7640.611,0.00013,0.0,0.0
1.097,7606.299,0.00013,0.0,0.0
1.103,7519.322,0.00013,0.0,0.0
1.11,7540.259,0.00013,0.0,0.0
1.116,7534.94,0.00013,0.0,0.0
1.122,7446.733,0.00013,0.0,0.0
1.129,7465.375,0.00013,0.0,0.0
1.135,7372.492,0.00014,0.0,0.0
1.141,7323.344,0.00014,0.0,0.0
1.148,7361.986,0.00014,0.0,0.0
1.154,7253.176,0.00014,0.0,0.0
1.16,7209.189,0.00014,0.0,0.0
1.167,7239.257,0.00014,0.0,0.0
1.173,7188.972,0.00014,0.0,0.0
1.179,7154.798,0.00014,0.0,0.0
1.186,7084.627,0.00014,0.0,0.0
1.192,7015.817,0.00014,0.0,0.0
1.198,6969.614,0.00014,0.0,0.0
1.204,6895.808,0.00015,0.0,0.0
1.211,6885.191,0.00015,0.0,0.0
1.217,6886.19,0.00015,0.0,0.0
1.223,6824.768,0.00015,0.0,0.0
1.23,6769.166,0.00015,0.0,0.0
1.236,6740.721,0.00015,0.0,0.0
1.242,6696.795,0.00015,0.0,0.0
1.249,6674.159,0.00015,0.0,0.0
1.255,6691.948,0.00015,0.0,0.0
1.261,6636.549,0.00015,0.0,0.0
1.268,6603.345,0.00015,0.0,0.0
1.274,6503.155,0.00015,0.0,0.0
1.28,6569.135,0.00015,0.0,0.0
1.287,6526.934,0.00015,0.0,0.0
1.293,6484.114,0.00015,0.0,0.0
1.299,6459.792,0.00015,0.0,0.0
1.306,6457.452,0.00015,0.0,0.0
1.312,6399.612,0.00016,0.0,0.0
1.318,6418.945,0.00016,0.0,0.0
1.325,6363.146,0.00016,0.0,0.0
1.331,6421.55,0.00016,0.0,0.0
1.337,6316.164,0.00016,0.0,0.0
1.344,6358.221,0.00016,0.0,0.0
1.35,6336.873,0.00016,0.0,0.0
1.356,6287.297,0.00016,0.0,0.0
1.362,6285.69,0.00016,0.0,0.0
1.369,6271.757,0.00016,0.0,0.0
1.375,6265.209,0.00016,0.0,0.0
1.381,6224.292,0.00016,0.0,0.0
1.388,6269.292,0.00016,0.0,0.0
1.394,6197.457,0.00016,0.0,0.0
1.4,6199.973,0.00016,0.0,0.0
1.407,6189.546,0.00016,0.0,0.0
1.413,6218.534,0.00016,0.0,0.0
1.419,6165.976,0.00016,0.0,0.0
1.426,6188.647,0.00016,0.0,0.0
1.432,6213.684,0.00016,0.0,0.0
1.438,6183.931,0.00016,0.0,0.0
1.445,6203.421,0.00016,0.0,0.0
1.451,6220.217,0.00016,0.0,0.0
1.457,6181.363,0.00016,0.0,0.0
1.464,6168.402,0.00016,0.0,0.0
1.47,6181.373,0.00016,0.0,0.0
1.476,6174.743,0.00016,0.0,0.0
1.483,6212.316,0.00016,0.0,0.0
1.489,6203.69,0.00016,0.0,0.0
1.495,6211.359,0.00016,0.0,0.0
1.502,6179.964,0.00016,0.0,0.0
1.508,6165.118,0.00016,0.0,0.0
1.514,6162.269,0.00016,0.0,0.0
1.52,6202.32,0.00016,0.0,0.0
1.527,6212.947,0.00016,0.0,0.0
1.533,6205.911,0.00016,0.0,0.0
1.539,6178.045,0.00016,0.0,0.0
1.546,6133.512,0.00016,0.0,0.0
1.552,6228.555,0.00016,0.0,0.0
1.558,6203.599,0.00016,0.0,0.0
1.565,6216.763,0.00016,0.0,0.0
1.571,6212.763,0.00016,0.0,0.0
1.577,6227.455,0.00016,0.0,0.0
1.584,6223.46,0.00016,0.0,0.0
1.59,6278.64,0.00016,0.0,0.0
1.596,6255.828,0.00016,0.0,0.0
1.603,6317.547,0.00016,0.0,0.0
1.609,6228.489,0.00016,0.0,0.0
1.615,6294.892,0.00016,0.0,0.0
1.622,6318.671,0.00016,0.0,0.0
1.628,6309.023,0.00016,0.0,0.0
1.634,6340.632,0.00016,0.0,0.0
1.641,6366.152,0.00016,0.0,0.0
1.647,6384.186,0.00016,0.0,0.0
1.653,6394.512,0.00016,0.0,0.0
1.66,6409.184,0.00016,0.0,0.0
1.666,6408.331,0.00016,0.0,0.0
1.672,6402.075,0.00016,0.0,0.0
1.678,6458.523,0.00015,0.0,0.0
1.685,6426.758,0.00016,0.0,0.0
1.691,6442.94,0.00016,0.0,0.0
1.697,6470.867,0.00015,0.0,0.0
1.704,6489.716,0.00015,0.0,0.0
1.71,6507.888,0.00015,0.0,0.0
1.716,6556.026,0.00015,0.0,0.0
1.723,6549.783,0.00015,0.0,0.0
1.729,6566.435,0.00015,0.0,0.0
1.735,6536.776,0.00015,0.0,0.0
1.742,6590.449,0.00015,0.0,0.0
1.748,6552.07,0.00015,0.0,0.0
1.754,6570.636,0.00015,0.0,0.0
1.761,6591.731,0.00015,0.0,0.0
1.767,6565.967,0.00015,0.0,0.0
1.773,6633.692,0.00015,0.0,0.0
1.78,6631.124,0.00015,0.0,0.0
1.786,6632.729,0.00015,0.0,0.0
1.792,6639.972,0.00015,0.0,0.0
1.799,6645.529,0.00015,0.0,0.0
1.805,6665.794,0.00015,0.0,0.0
1.811,6622.972,0.00015,0.0,0.0
1.818,6653.428,0.00015,0.0,0.0
1.824,6688.938,0.00015,0.0,0.0
1.83,6663.392,0.00015,0.0,0.0
1.836,6703.215,0.00015,0.0,0.0
1.843,6732.302,0.00015,0.0,0.0
1.849,6711.733,0.00015,0.0,0.0
1.855,6711.971,0.00015,0.0,0.0
1.862,6697.776,0.00015,0.0,0.0
1.868,6734.919,0.00015,0.0,0.0
1.874,6709.086,0.00015,0.0,0.0
1.881,6714.793,0.00015,0.0,0.0
1.887,6700.95,0.00015,0.0,0.0
1.893,6705.664,0.00015,0.0,0.0
1.9,6693.456,0.00015,0.0,0.0
1.906,6721.077,0.00015,0.0,0.0
1.912,6682.265,0.00015,0.0,0.0
1.919,6703.633,0.00015,0.0,0.0
1.925,6711.231,0.00015,0.0,0.0
1.931,6684.185,0.00015,0.0,0.0
1.938,6705.705,0.00015,0.0,0.0
1.944,6693.659,0.00015,0.0,0.0
1.95,6696.988,0.00015,0.0,0.0
1.957,6680.833,0.00015,0.0,0.0
1.963,6693.532,0.00015,0.0,0.0
1.969,6673.839,0.00015,0.0,0.0
1.976,6690.62,0.00015,0.0,0.0
1.982,6717.177,0.00015,0.0,0.0
1.988,6682.93,0.00015,0.0,0.0
1.994,6721.501,0.00015,0.0,0.0
2.001,6720.03,0.00015,0.0,0.0
2.007,6694.691,0.00015,0.0,0.0
2.013,6690.878,0.00015,0.0,0.0
2.02,6728.15,0.00015,0.0,0.0
2.026,6746.558,0.00015,0.0,0.0
2.032,6736.703,0.00015,0.0,0.0
2.039,6722.239,0.00015,0.0,0.0
2.045,6753.095,0.00015,0.0,0.0
2.051,6746.345,0.00015,0.0,0.0
2.058,6750.791,0.00015,0.0,0.0
2.064,6746.12,0.00015,0.0,0.0
2.07,6772.328,0.00015,0.0,0.0
2.077,6770.27,0.00015,0.0,0.0
2.083,6771.493,0.00015,0.0,0.0
2.089,6784.433,0.00015,0.0,0.0
2.096,6794.895,0.00015,0.0,0.0
2.102,6796.312,0.00015,0.0,0.0
2.108,6859.057,0.00015,0.0,0.0
2.115,6855.028,0.00015,0.0,0.0
2.121,6806.906,0.00015,0.0,0.0
2.127,6848.049,0.00015,0.0,0.0
2.134,6831.805,0.00015,0.0,0.0
2.14,6852.106,0.00015,0.0,0.0
2.146,6890.219,0.00015,0.0,0.0
2.152,6907.724,0.00014,0.0,0.0
2.159,6872.821,0.00015,0.0,0.0
2.165,6910.661,0.00014,0.0,0.0
2.171,6875.996,0.00015,0.0,0.0
2.178,6921.517,0.00014,0.0,0.0
2.184,6953.706,0.00014,0.0,0.0
2.19,6961.313,0.00014,0.0,0.0
2.197,7001.518,0.00014,0.0,0.0
2.203,6992.577,0.00014,0.0,0.0
2.209,7011.553,0.00014,0.0,0.0
2.216,7038.774,0.00014,0.0,0.0
2.222,7018.067,0.00014,0.0,0.0
2.228,7046.07,0.00014,0.0,0.0
2.235,7065.399,0.00014,0.0,0.0
2.241,7086.492,0.00014,0.0,0.0
2.247,7088.365,0.00014,0.0,0.0
2.254,7128.543,0.00014,0.0,0.0
2.26,7124.636,0.00014,0.0,0.0
2.266,7136.573,0.00014,0.0,0.0
2.273,7176.275,0.00014,0.0,0.0
2.279,7227.392,0.00014,0.0,0.0
2.285,7249.37,0.00014,0.0,0.0
2.292,7235.623,0.00014,0.0,0.0
2.298,7273.06,0.00014,0.0,0.0
2.304,7283.343,0.00014,0.0,0.0
2.31,7330.027,0.00014,0.0,0.0
2.317,7335.051,0.00014,0.0,0.0
2.323,7370.654,0.00014,0.0,0.0
2.329,7412.86,0.00013,0.0,0.0
2.336,7434.514,0.00013,0.0,0.0
2.342,7483.372,0.00013,0.0,0.0
2.348,7479.875,0.00013,0.0,0.0
2.355,7537.484,0.00013,0.0,0.0
2.361,7551.173,0.00013,0.0,0.0
2.367,7581.921,0.00013,0.0,0.0
2.374,7621.28,0.00013,0.0,0.0
2.38,7692.771,0.00013,0.0,0.0
2.386,7741.841,0.00013,0.0,0.0
2.393,7855.64,0.00013,0.0,0.0
2.399,7950.919,0.00013,0.0,0.0
2.405,8201.442,0.00012,0.0,0.0
2.412,8434.943,0.00012,0.0,0.0
2.418,8610.595,0.00012,0.0,0.0
2.424,8837.03,0.00011,0.0,0.0
2.431,8893.398,0.00011,0.0,0.0
2.437,8696.86,0.00011,0.0,0.0
2.443,8544.872,0.00012,0.0,0.0
2.45,8330.974,0.00012,0.0,0.0
2.456,8202.099,0.00012,0.0,0.0
2.462,8157.344,0.00012,0.0,0.0
2.468,8127.967,0.00012,0.0,0.0
2.475,8096.046,0.00012,0.0,0.0
2.481,8136.9,0.00012,0.0,0.0
2.487,8158.625,0.00012,0.0,0.0
2.494,8140.114,0.00012,0.0,0.0
2.5,8178.361,0.00012,0.0,0.0
2.506,8189.533,0.00012,0.0,0.0
2.513,8210.232,0.00012,0.0,0.0
2.519,8259.943,0.00012,0.0,0.0
2.525,8274.322,0.00012,0.0,0.0
2.532,8316.738,0.00012,0.0,0.0
2.538,8336.989,0.00012,0.0,0.0
2.544,8399.962,0.00012,0.0,0.0
2.551,8438.387,0.00012,0.0,0.0
2.557,8449.477,0.00012,0.0,0.0
2.563,8508.747,0.00012,0.0,0.0
2.57,8511.518,0.00012,0.0,0.0
2.576,8537.732,0.00012,0.0,0.0
2.582,8584.604,0.00012,0.0,0.0
2.589,8581.842,0.00012,0.0,0.0
2.595,8664.316,0.00012,0.0,0.0
2.601,8667.35,0.00012,0.0,0.0
2.608,8706.194,0.00011,0.0,0.0
2.614,8763.437,0.00011,0.0,0.0
2.62,8784.608,0.00011,0.0,0.0
2.626,8794.103,0.00011,0.0,0.0
2.633,8858.415,0.00011,0.0,0.0
2.639,8876.271,0.00011,0.0,0.0
2.645,8898.843,0.00011,0.0,0.0
2.652,8932.747,0.00011,0.0,0.0
2.658,8953.133,0.00011,0.0,0.0
2.664,8997.335,0.00011,0.0,0.0
2.671,9067.086,0.00011,0.0,0.0
2.677,9054.985,0.00011,0.0,0.0
2.683,9098.37,0.00011,0.0,0.0
2.69,9124.435,0.00011,0.0,0.0
2.696,9171.535,0.00011,0.0,0.0
2.702,9185.509,0.00011,0.0,0.0
2.709,9223.159,0.00011,0.0,0.0
2.715,9272.746,0.00011,0.0,0.0
2.721,9327.258,0.00011,0.0,0.0
2.728,9359.668,0.00011,0.0,0.0
2.734,9365.904,0.00011,0.0,0.0
2.74,9422.79,0.00011,0.0,0.0
2.747,9441.529,0.00011,0.0,0.0
2.753,9507.107,0.00011,0.0,0.0
2.759,9526.058,0.0001,0.0,0.0
2.766,9583.204,0.0001,0.0,0.0
2.772,9641.317,0.0001,0.0,0.0
2.778,9655.563,0.0001,0.0,0.0
2.784,9707.03,0.0001,0.0,0.0
2.791,9755.87,0.0001,0.0,0.0
2.797,9777.846,0.0001,0.0,0.0
2.803,9791.03,0.0001,0.0,0.0
2.81,9841.228,0.0001,0.0,0.0
2.816,9886.327,0.0001,0.0,0.0
2.822,9927.948,0.0001,0.0,0.0
2.829,9959.634,0.0001,0.0,0.0
2.835,10020.53,0.0001,0.0,0.0
2.841,10021.729,0.0001,0.0,0.0
2.848,10091.24,0.0001,0.0,0.0
2.854,10100.908,0.0001,0.0,0.0
2.86,10142.322,0.0001,0.0,0.0
2.867,10188.197,0.0001,0.0,0.0
2.873,10194.531,0.0001,0.0,0.0
2.879,10250.157,0.0001,0.0,0.0
2.886,10295.953,0.0001,0.0,0.0
2.892,10318.305,0.0001,0.0,0.0
2.898,10342.758,0.0001,0.0,0.0
2.905,10401.238,0.0001,0.0,0.0
2.911,10431.957,0.0001,0.0,0.0
2.917,10465.557,0.0001,0.0,0.0
2.924,10463.494,0.0001,0.0,0.0
2.93,10534.018,0.00009,0.0,0.0
2.936,10553.932,0.00009,0.0,0.0
2.942,10591.306,0.00009,0.0,0.0
2.949,10613.326,0.00009,0.0,0.0
2.955,10633.915,0.00009,0.0,0.0
2.961,10664.233,0.00009,0.0,0.0
2.968,10700.524,0.00009,0.0,0.0
2.974,10736.577,0.00009,0.0,0.0
2.98,10761.838,0.00009,0.0,0.0
2.987,10755.765,0.00009,0.0,0.0
2.993,10794.4,0.00009,0.0,0.0
2.999,10838.927,0.00009,0.0,0.0
3.006,10851.335,0.00009,0.0,0.0
3.012,10880.402,0.00009,0.0,0.0
3.018,10889.159,0.00009,0.0,0.0
3.025,10914.35,0.00009,0.0,0.0
3.031,10905.21,0.00009,0.0,0.0
3.037,10961.023,0.00009,0.0,0.0
3.044,10978.291,0.00009,0.0,0.0
3.05,10974.071,0.00009,0.0,0.0
3.056,10974.271,0.00009,0.0,0.0
3.063,10981.91,0.00009,0.0,0.0
3.069,10973.631,0.00009,0.0,0.0
3.075,10972.661,0.00009,0.0,0.0
3.082,11015.441,0.00009,0.0,0.0
3.088,11006.234,0.00009,0.0,0.0
3.094,11055.796,0.00009,0.0,0.0
3.1,11017.969,0.00009,0.0,0.0
3.107,11020.668,0.00009,0.0,0.0
3.113,11019.515,0.00009,0.0,0.0
3.119,11025.42,0.00009,0.0,0.0
3.126,10992.129,0.00009,0.0,0.0
3.132,11044.127,0.00009,0.0,0.0
3.138,11015.571,0.00009,0.0,0.0
3.145,10986.001,0.00009,0.0,0.0
3.151,10985.739,0.00009,0.0,0.0
3.157,10982.605,0.00009,0.0,0.0
3.164,10973.431,0.00009,0.0,0.0
3.17,10974.865,0.00009,0.0,0.0
3.176,10923.633,0.00009,0.0,0.0
3.183,10930.404,0.00009,0.0,0.0
3.189,10919.178,0.00009,0.0,0.0
3.195,10908.188,0.00009,0.0,0.0
3.202,10886.975,0.00009,0.0,0.0
3.208,10863.153,0.00009,0.0,0.0
3.214,10884.343,0.00009,0.0,0.0
3.221,10852.826,0.00009,0.0,0.0
3.227,10837.89,0.00009,0.0,0.0
3.233,10790.894,0.00009,0.0,0.0
3.24,10792.528,0.00009,0.0,0.0
3.246,10786.682,0.00009,0.0,0.0
3.252,10736.257,0.00009,0.0,0.0
3.258,10734.511,0.00009,0.0,0.0
3.265,10708.074,0.00009,0.0,0.0
3.271,10680.921,0.00009,0.0,0.0
3.277,10639.685,0.00009,0.0,0.0
3.284,10607.404,0.00009,0.0,0.0
3.29,10587.546,0.00009,0.0,0.0
3.296,10571.817,0.00009,0.0,0.0
3.303,10542.647,0.00009,0.0,0.0
3.309,10508.527,0.0001,0.0,0.0
3.315,10480.079,0.0001,0.0,0.0
3.322,10448.168,0.0001,0.0,0.0
3.328,10431.841,0.0001,0.0,0.0
3.334,10381.241,0.0001,0.0,0.0
3.341,10373.326,0.0001,0.0,0.0
3.347,10372.089,0.0001,0.0,0.0
3.353,10354.043,0.0001,0.0,0.0
3.36,10298.256,0.0001,0.0,0.0
3.366,10269.484,0.0001,0.0,0.0
3.372,10253.831,0.0001,0.0,0.0
3.379,10219.119,0.0001,0.0,0.0
3.385,10199.026,0.0001,0.0,0.0
3.391,10153.1,0.0001,0.0,0.0
3.398,10144.481,0.0001,0.0,0.0
3.404,10113.25,0.0001,0.0,0.0
3.41,10106.901,0.0001,0.0,0.0
3.416,10065.593,0.0001,0.0,0.0
3.423,10046.647,0.0001,0.0,0.0
3.429,10027.684,0.0001,0.0,0.0
3.435,9997.082,0.0001,0.0,0.0
3.442,9970.224,0.0001,0.0,0.0
3.448,9938.775,0.0001,0.0,0.0
3.454,9928.018,0.0001,0.0,0.0
3.461,9882.353,0.0001,0.0,0.0
3.467,9848.778,0.0001,0.0,0.0
3.473,9857.144,0.0001,0.0,0.0
3.48,9837.963,0.0001,0.0,0.0
3.486,9793.009,0.0001,0.0,0.0
3.492,9782.372,0.0001,0.0,0.0
3.499,9767.889,0.0001,0.0,0.0
3.505,9694.664,0.0001,0.0,0.0
3.511,9679.883,0.0001,0.0,0.0
3.518,9689.389,0.0001,0.0,0.0
3.524,9663.92,0.0001,0.0,0.0
3.53,9617.474,0.0001,0.0,0.0
3.537,9603.921,0.0001,0.0,0.0
3.543,9601.704,0.0001,0.0,0.0
3.549,9574.992,0.0001,0.0,0.0
3.556,9549.795,0.0001,0.0,0.0
3.562,9552.634,0.0001,0.0,0.0
3.568,9517.686,0.00011,0.0,0.0
3.574,9504.379,0.00011,0.0,0.0
3.581,9477.094,0.00011,0.0,0.0
3.587,9496.725,0.00011,0.0,0.0
3.593,9493.823,0.00011,0.0,0.0
3.6,9468.994,0.00011,0.0,0.0
3.606,9480.254,0.00011,0.0,0.0
3.612,9406.932,0.00011,0.0,0.0
3.619,9422.941,0.00011,0.0,0.0
3.625,9448.97,0.00011,0.0,0.0
3.631,9423.119,0.00011,0.0,0.0
3.638,9428.785,0.00011,0.0,0.0
3.644,9415.655,0.00011,0.0,0.0
3.65,9438.584,0.00011,0.0,0.0
3.657,9447.698,0.00011,0.0,0.0
3.663,9438.635,0.00011,0.0,0.0
3.669,9434.972,0.00011,0.0,0.0
3.676,9427.724,0.00011,0.0,0.0
3.682,9452.276,0.00011,0.0,0.0
3.688,9478.523,0.00011,0.0,0.0
3.695,9442.455,0.00011,0.0,0.0
3.701,9463.081,0.00011,0.0,0.0
3.707,9519.325,0.00011,0.0,0.0
3.714,9488.542,0.00011,0.0,0.0
3.72,9523.956,0.0001,0.0,0.0
3.726,9535.739,0.0001,0.0,0.0
3.732,9533.686,0.0001,0.0,0.0
3.739,9587.943,0.0001,0.0,0.0
3.745,9567.656,0.0001,0.0,0.0
3.751,9584.993,0.0001,0.0,0.0
3.758,9619.742,0.0001,0.0,0.0
3.764,9616.461,0.0001,0.0,0.0
3.77,9657.459,0.0001,0.0,0.0
3.777,9685.819,0.0001,0.0,0.0
3.783,9641.456,0.0001,0.0,0.0
3.789,9707.92,0.0001,0.0,0.0
3.796,9668.919,0.0001,0.0,0.0
3.802,9704.953,0.0001,0.0,0.0
3.808,9712.288,0.0001,0.0,0.0
3.815,9686.094,0.0001,0.0,0.0
3.821,9735.027,0.0001,0.0,0.0
3.827,9714.638,0.0001,0.0,0.0
3.834,9689.172,0.0001,0.0,0.0
3.84,9722.979,0.0001,0.0,0.0
3.846,9641.435,0.0001,0.0,0.0
3.853,9630.901,0.0001,0.0,0.0
3.859,9663.215,0.0001,0.0,0.0
3.865,9617.646,0.0001,0.0,0.0
3.872,9616.546,0.0001,0.0,0.0
3.878,9548.686,0.0001,0.0,0.0
3.884,9506.903,0.00011,0.0,0.0
3.89,9517.033,0.00011,0.0,0.0
3.897,9454.982,0.00011,0.0,0.0
3.903,9435.899,0.00011,0.0,0.0
3.909,9426.931,0.00011,0.0,0.0
3.916,9355.833,0.00011,0.0,0.0
3.922,9343.572,0.00011,0.0,0.0
3.928,9263.167,0.00011,0.0,0.0
3.935,9214.804,0.00011,0.0,0.0
3.941,9234.03,0.00011,0.0,0.0
3.947,9138.88,0.00011,0.0,0.0
3.954,9113.159,0.00011,0.0,0.0
3.96,9116.116,0.00011,0.0,0.0
3.966,9017.9,0.00011,0.0,0.0
3.973,9041.958,0.00011,0.0,0.0
3.979,8960.913,0.00011,0.0,0.0
3.985,8890.92,0.00011,0.0,0.0
3.992,8938.31,0.00011,0.0,0.0
3.998,8815.191,0.00011,0.0,0.0
4.004,8764.614,0.00011,0.0,0.0
4.011,8811.953,0.00011,0.0,0.0
4.017,8705.145,0.00011,0.0,0.0
4.023,8725.976,0.00011,0.0,0.0
4.03,8650.679,0.00012,0.0,0.0
4.036,8595.631,0.00012,0.0,0.0
4.042,8674.906,0.00012,0.0,0.0
4.048,8577.092,0.00012,0.0,0.0
4.055,8541.714,0.00012,0.0,0.0
4.061,8537.813,0.00012,0.0,0.0
4.067,8540.429,0.00012,0.0,0.0
4.074,8517.335,0.00012,0.0,0.0
4.08,8466.245,0.00012,0.0,0.0
4.086,8343.585,0.00012,0.0,0.0
4.093,8463.404,0.00012,0.0,0.0
4.099,8349.546,0.00012,0.0,0.0
4.105,8341.945,0.00012,0.0,0.0
4.112,8377.457,0.00012,0.0,0.0
4.118,8283.302,0.00012,0.0,0.0
4.124,8345.745,0.00012,0.0,0.0
4.131,8278.07,0.00012,0.0,0.0
4.137,8249.042,0.00012,0.0,0.0
4.143,8293.518,0.00012,0.0,0.0
4.15,8213.101,0.00012,0.0,0.0
4.156,8216.908,0.00012,0.0,0.0
4.162,8245.954,0.00012,0.0,0.0
4.169,8149.967,0.00012,0.0,0.0
4.175,8248.167,0.00012,0.0,0.0
4.181,8207.949,0.00012,0.0,0.0
4.188,8122.536,0.00012,0.0,0.0
4.194,8234.394,0.00012,0.0,0.0
4.2,8152.374,0.00012,0.0,0.0
4.206,8154.477,0.00012,0.0,0.0
4.213,8203.726,0.00012,0.0,0.0
4.219,8083.498,0.00012,0.0,0.0
4.225,8152.031,0.00012,0.0,0.0
4.232,8138.214,0.00012,0.0,0.0
4.238,8087.863,0.00012,0.0,0.0
4.244,8158.825,0.00012,0.0,0.0
4.251,8095.842,0.00012,0.0,0.0
4.257,8057.373,0.00012,0.0,0.0
4.263,8147.757,0.00012,0.0,0.0
4.27,8069.019,0.00012,0.0,0.0
4.276,8133.54,0.00012,0.0,0.0
4.282,8121.41,0.00012,0.0,0.0
4.289,8067.904,0.00012,0.0,0.0
4.295,8152.331,0.00012,0.0,0.0
4.301,8068.433,0.00012,0.0,0.0
4.308,8131.638,0.00012,0.0,0.0
4.314,8072.734,0.00012,0.0,0.0
4.32,8093.11,0.00012,0.0,0.0
4.327,8085.132,0.00012,0.0,0.0
4.333,8168.897,0.00012,0.0,0.0
4.339,8072.991,0.00012,0.0,0.0
4.346,8179.482,0.00012,0.0,0.0
4.352,8138.828,0.00012,0.0,0.0
4.358,8089.612,0.00012,0.0,0.0
4.364,8235.365,0.00012,0.0,0.0
4.371,8077.303,0.00012,0.0,0.0
4.377,8314.852,0.00012,0.0,0.0
4.383,8104.656,0.00012,0.0,0.0
4.39,8197.384,0.00012,0.0,0.0
4.396,8222.195,0.00012,0.0,0.0
4.402,8305.593,0.00012,0.0,0.0
4.409,8210.112,0.00012,0.0,0.0
4.415,8362.806,0.00012,0.0,0.0
4.421,8323.086,0.00012,0.0,0.0
4.428,8266.769,0.00012,0.0,0.0
4.434,8524.366,0.00012,0.0,0.0
4.44,8336.07,0.00012,0.0,0.0
4.447,8515.25,0.00012,0.0,0.0
4.453,8470.477,0.00012,0.0,0.0
4.459,8710.443,0.00011,0.0,0.0
4.466,8616.24,0.00012,0.0,0.0
4.472,8605.233,0.00012,0.0,0.0
4.478,8720.211,0.00011,0.0,0.0
4.485,9040.14,0.00011,0.0,0.0
4.491,8870.843,0.00011,0.0,0.0
4.497,8870.921,0.00011,0.0,0.0
4.504,10077.079,0.0001,0.0,0.0
4.51,9203.291,0.00011,0.0,0.0
4.516,12105.699,0.00008,0.0,0.0
4.522,10159.593,0.0001,0.0,0.0
4.529,11088.993,0.00009,0.0,0.0
4.535,23616.7,0.00004,0.0,0.0
4.541,14554.426,0.00007,0.0,0.0
4.548,21775.606,0.00005,0.0,0.0
4.554,45235.937,0.00002,0.0,0.0
4.56,22668.705,0.00004,0.0,0.0
4.567,57030.992,0.00002,0.0,0.0
4.573,33007.107,0.00003,0.0,0.0
4.579,25087.457,0.00004,0.0,0.0
4.586,39887.299,0.00003,0.0,0.0
4.592,14824.434,0.00007,0.0,0.0
4.598,25078.848,0.00004,0.0,0.0
4.605,11484.919,0.00009,0.0,0.0
4.611,9695.765,0.0001,0.0,0.0
4.617,12493.769,0.00008,0.0,0.0
4.624,9021.273,0.00011,0.0,0.0
4.63,9057.051,0.00011,0.0,0.0
4.636,9221.434,0.00011,0.0,0.0
4.643,8773.934,0.00011,0.0,0.0
4.649,8689.156,0.00012,0.0,0.0
4.655,8535.525,0.00012,0.0,0.0
4.662,8366.311,0.00012,0.0,0.0
4.668,8291.81,0.00012,0.0,0.0
4.674,8160.816,0.00012,0.0,0.0
4.68,8020.05,0.00012,0.0,0.0
4.687,8172.13,0.00012,0.0,0.0
4.693,7810.314,0.00013,0.0,0.0
4.699,7917.909,0.00013,0.0,0.0
4.706,7739.557,0.00013,0.0,0.0
4.712,7772.623,0.00013,0.0,0.0
4.718,7711.79,0.00013,0.0,0.0
4.725,7579.0,0.00013,0.0,0.0
4.731,7628.079,0.00013,0.0,0.0
4.737,7467.95,0.00013,0.0,0.0
4.744,7520.621,0.00013,0.0,0.0
4.75,7408.715,0.00013,0.0,0.0
4.756,7407.904,0.00013,0.0,0.0
4.763,7251.326,0.00014,0.0,0.0
4.769,7404.803,0.00014,0.0,0.0
4.775,7217.371,0.00014,0.0,0.0
4.782,7190.31,0.00014,0.0,0.0
4.788,7165.833,0.00014,0.0,0.0
4.794,7137.654,0.00014,0.0,0.0
4.801,7156.966,0.00014,0.0,0.0
4.807,7093.447,0.00014,0.0,0.0
4.813,7169.436,0.00014,0.0,0.0
4.82,7073.067,0.00014,0.0,0.0
4.826,7212.658,0.00014,0.0,0.0
4.832,7315.87,0.00014,0.0,0.0
4.838,7525.612,0.00013,0.0,0.0
4.845,7706.355,0.00013,0.0,0.0
4.851,7977.028,0.00013,0.0,0.0
4.857,7986.236,0.00013,0.0,0.0
4.864,7987.657,0.00013,0.0,0.0
4.87,7752.348,0.00013,0.0,0.0
4.876,7470.743,0.00013,0.0,0.0
4.883,7248.548,0.00014,0.0,0.0
4.889,7040.962,0.00014,0.0,0.0
4.895,6827.97,0.00015,0.0,0.0
4.902,6795.109,0.00015,0.0,0.0
4.908,6655.24,0.00015,0.0,0.0
4.914,6648.285,0.00015,0.0,0.0
4.921,6567.032,0.00015,0.0,0.0
4.927,6539.841,0.00015,0.0,0.0
4.933,6511.64,0.00015,0.0,0.0
4.94,6487.238,0.00015,0.0,0.0
4.946,6459.716,0.00015,0.0,0.0
4.952,6435.988,0.00016,0.0,0.0
4.959,6413.17,0.00016,0.0,0.0
4.965,6364.099,0.00016,0.0,0.0
4.971,6364.314,0.00016,0.0,0.0
4.978,6313.069,0.00016,0.0,0.0
4.984,6319.195,0.00016,0.0,0.0
4.99,6224.814,0.00016,0.0,0.0
4.996,6289.935,0.00016,0.0,0.0
5.003,6241.354,0.00016,0.0,0.0
5.009,6241.442,0.00016,0.0,0.0
5.015,6184.655,0.00016,0.0,0.0
5.022,6186.086,0.00016,0.0,0.0
5.028,6161.101,0.00016,0.0,0.0
5.034,6132.143,0.00016,0.0,0.0
5.041,6163.07,0.00016,0.0,0.0
5.047,6107.59,0.00016,0.0,0.0
5.053,6130.613,0.00016,0.0,0.0
5.06,6050.827,0.00017,0.0,0.0
5.066,6090.277,0.00016,0.0,0.0
5.072,6041.985,0.00017,0.0,0.0
5.079,6051.582,0.00017,0.0,0.0
5.085,6011.076,0.00017,0.0,0.0
5.091,6016.155,0.00017,0.0,0.0
5.098,5983.756,0.00017,0.0,0.0
5.104,5987.155,0.00017,0.0,0.0
5.11,5926.683,0.00017,0.0,0.0
5.117,5956.243,0.00017,0.0,0.0
5.123,5936.249,0.00017,0.0,0.0
5.129,5894.343,0.00017,0.0,0.0
5.136,5918.241,0.00017,0.0,0.0
5.142,5874.681,0.00017,0.0,0.0
5.148,5872.109,0.00017,0.0,0.0
5.154,5856.433,0.00017,0.0,0.0
5.161,5830.276,0.00017,0.0,0.0
5.167,5832.359,0.00017,0.0,0.0
5.173,5840.163,0.00017,0.0,0.0
5.18,5798.554,0.00017,0.0,0.0
5.186,5815.719,0.00017,0.0,0.0
5.192,5775.746,0.00017,0.0,0.0
5.199,5805.757,0.00017,0.0,0.0
5.205,5796.823,0.00017,0.0,0.0
5.211,5754.957,0.00017,0.0,0.0
5.218,5742.17,0.00017,0.0,0.0
5.224,5753.53,0.00017,0.0,0.0
5.23,5722.797,0.00017,0.0,0.0
5.237,5731.682,0.00017,0.0,0.0
5.243,5711.477,0.00018,0.0,0.0
5.249,5669.207,0.00018,0.0,0.0
5.256,5705.746,0.00018,0.0,0.0
5.262,5622.947,0.00018,0.0,0.0
5.268,5678.749,0.00018,0.0,0.0
5.275,5658.079,0.00018,0.0,0.0
5.281,5652.532,0.00018,0.0,0.0
5.287,5653.991,0.00018,0.0,0.0
5.294,5612.348,0.00018,0.0,0.0
5.3,5610.905,0.00018,0.0,0.0
5.306,5638.446,0.00018,0.0,0.0
5.312,5581.468,0.00018,0.0,0.0
5.319,5606.865,0.00018,0.0,0.0
5.325,5594.968,0.00018,0.0,0.0
5.331,5585.444,0.00018,0.0,0.0
5.338,5579.975,0.00018,0.0,0.0
5.344,5578.43,0.00018,0.0,0.0
5.35,5580.055,0.00018,0.0,0.0
5.357,5560.399,0.00018,0.0,0.0
5.363,5570.741,0.00018,0.0,0.0
5.369,5561.052,0.00018,0.0,0.0
5.376,5568.6,0.00018,0.0,0.0
5.382,5523.104,0.00018,0.0,0.0
5.388,5564.255,0.00018,0.0,0.0
5.395,5525.968,0.00018,0.0,0.0
5.401,5560.603,0.00018,0.0,0.0
5.407,5527.488,0.00018,0.0,0.0
5.414,5526.742,0.00018,0.0,0.0
5.42,5523.838,0.00018,0.0,0.0
5.426,5527.722,0.00018,0.0,0.0
5.433,5525.277,0.00018,0.0,0.0
5.439,5531.288,0.00018,0.0,0.0
5.445,5506.106,0.00018,0.0,0.0
5.452,5516.565,0.00018,0.0,0.0
5.458,5536.82,0.00018,0.0,0.0
5.464,5522.781,0.00018,0.0,0.0
5.47,5542.061,0.00018,0.0,0.0
5.477,5523.599,0.00018,0.0,0.0
5.483,5523.477,0.00018,0.0,0.0
5.489,5532.345,0.00018,0.0,0.0
5.496,5498.92,0.00018,0.0,0.0
5.502,5532.755,0.00018,0.0,0.0
5.508,5520.3,0.00018,0.0,0.0
5.515,5509.096,0.00018,0.0,0.0
5.521,5522.924,0.00018,0.0,0.0
5.527,5526.677,0.00018,0.0,0.0
5.534,5520.549,0.00018,0.0,0.0
5.54,5507.222,0.00018,0.0,0.0
5.546,5525.033,0.00018,0.0,0.0
5.553,5532.912,0.00018,0.0,0.0
5.559,5525.293,0.00018,0.0,0.0
5.565,5531.751,0.00018,0.0,0.0
5.572,5535.842,0.00018,0.0,0.0
5.578,5529.976,0.00018,0.0,0.0
5.584,5537.409,0.00018,0.0,0.0
5.591,5528.868,0.00018,0.0,0.0
5.597,5530.17,0.00018,0.0,0.0
5.603,5556.219,0.00018,0.0,0.0
5.61,5536.498,0.00018,0.0,0.0
5.616,5551.078,0.00018,0.0,0.0
5.622,5575.863,0.00018,0.0,0.0
5.628,5554.078,0.00018,0.0,0.0
5.635,5570.199,0.00018,0.0,0.0
5.641,5586.79,0.00018,0.0,0.0
5.647,5578.458,0.00018,0.0,0.0
5.654,5576.299,0.00018,0.0,0.0
5.66,5585.117,0.00018,0.0,0.0
5.666,5575.563,0.00018,0.0,0.0
5.673,5580.937,0.00018,0.0,0.0
5.679,5597.992,0.00018,0.0,0.0
5.685,5623.854,0.00018,0.0,0.0
5.692,5606.375,0.00018,0.0,0.0
5.698,5635.435,0.00018,0.0,0.0
5.704,5613.337,0.00018,0.0,0.0
5.711,5641.464,0.00018,0.0,0.0
5.717,5643.837,0.00018,0.0,0.0
5.723,5649.437,0.00018,0.0,0.0
5.73,5659.406,0.00018,0.0,0.0
5.736,5654.613,0.00018,0.0,0.0
5.742,5677.844,0.00018,0.0,0.0
5.749,5673.624,0.00018,0.0,0.0
5.755,5694.77,0.00018,0.0,0.0
5.761,5711.548,0.00018,0.0,0.0
5.768,5695.835,0.00018,0.0,0.0
5.774,5730.776,0.00017,0.0,0.0
5.78,5739.632,0.00017,0.0,0.0
5.786,5742.654,0.00017,0.0,0.0
5.793,5806.932,0.00017,0.0,0.0
5.799,5806.51,0.00017,0.0,0.0
5.805,5786.316,0.00017,0.0,0.0
5.812,5865.417,0.00017,0.0,0.0
5.818,5843.55,0.00017,0.0,0.0
5.824,5907.409,0.00017,0.0,0.0
5.831,5971.91,0.00017,0.0,0.0
5.837,6061.166,0.00016,0.0,0.0
5.843,6212.959,0.00016,0.0,0.0
5.85,6399.873,0.00016,0.0,0.0
5.856,6717.805,0.00015,0.0,0.0
5.862,7199.115,0.00014,0.0,0.0
5.869,7666.729,0.00013,0.0,0.0
5.875,8184.345,0.00012,0.0,0.0
5.881,8374.261,0.00012,0.0,0.0
5.888,8242.538,0.00012,0.0,0.0
5.894,7867.678,0.00013,0.0,0.0
5.9,7311.447,0.00014,0.0,0.0
5.907,6841.309,0.00015,0.0,0.0
5.913,6454.318,0.00015,0.0,0.0
5.919,6202.327,0.00016,0.0,0.0
5.926,6092.762,0.00016,0.0,0.0
5.932,5934.077,0.00017,0.0,0.0
5.938,5885.067,0.00017,0.0,0.0
5.944,5863.505,0.00017,0.0,0.0
5.951,5804.686,0.00017,0.0,0.0
5.957,5835.035,0.00017,0.0,0.0
5.963,5792.134,0.00017,0.0,0.0
5.97,5756.298,0.00017,0.0,0.0
5.976,5733.844,0.00017,0.0,0.0
5.982,5793.593,0.00017,0.0,0.0
5.989,5739.427,0.00017,0.0,0.0
5.995,5743.899,0.00017,0.0,0.0
6.001,5750.835,0.00017,0.0,0.0
6.008,5730.317,0.00017,0.0,0.0
6.014,5715.094,0.00017,0.0,0.0
6.02,5705.158,0.00018,0.0,0.0
6.027,5754.048,0.00017,0.0,0.0
6.033,5723.835,0.00017,0.0,0.0
6.039,5716.441,0.00017,0.0,0.0
6.046,5731.05,0.00017,0.0,0.0
6.052,5680.634,0.00018,0.0,0.0
6.058,5737.674,0.00017,0.0,0.0
6.065,5760.872,0.00017,0.0,0.0
6.071,5663.222,0.00018,0.0,0.0
6.077,5720.828,0.00017,0.0,0.0
6.084,5680.93,0.00018,0.0,0.0
6.09,5711.449,0.00018,0.0,0.0
6.096,5694.392,0.00018,0.0,0.0
6.102,5705.248,0.00018,0.0,0.0
6.109,5724.094,0.00017,0.0,0.0
6.115,5709.599,0.00018,0.0,0.0
6.121,5694.52,0.00018,0.0,0.0
6.128,5725.172,0.00017,0.0,0.0
6.134,5740.988,0.00017,0.0,0.0
6.14,5707.613,0.00018,0.0,0.0
6.147,5758.979,0.00017,0.0,0.0
6.153,5727.519,0.00017,0.0,0.0
6.159,5809.486,0.00017,0.0,0.0
6.166,5718.383,0.00017,0.0,0.0
6.172,5822.094,0.00017,0.0,0.0
6.178,5752.81,0.00017,0.0,0.0
6.185,5789.021,0.00017,0.0,0.0
6.191,5786.961,0.00017,0.0,0.0
6.197,5851.329,0.00017,0.0,0.0
6.204,5799.16,0.00017,0.0,0.0
6.21,5808.728,0.00017,0.0,0.0
6.216,5913.188,0.00017,0.0,0.0
6.223,5817.114,0.00017,0.0,0.0
6.229,5853.834,0.00017,0.0,0.0
6.235,5879.921,0.00017,0.0,0.0
6.242,5886.514,0.00017,0.0,0.0
6.248,5862.318,0.00017,0.0,0.0
6.254,5901.861,0.00017,0.0,0.0
6.26,5903.357,0.00017,0.0,0.0
6.267,5865.795,0.00017,0.0,0.0
6.273,5928.351,0.00017,0.0,0.0
6.279,5931.069,0.00017,0.0,0.0
6.286,5840.345,0.00017,0.0,0.0
6.292,5962.178,0.00017,0.0,0.0
6.298,5901.994,0.00017,0.0,0.0
6.305,5912.137,0.00017,0.0,0.0
6.311,5910.077,0.00017,0.0,0.0
6.317,5993.524,0.00017,0.0,0.0
6.324,5951.476,0.00017,0.0,0.0
6.33,5937.732,0.00017,0.0,0.0
6.336,6033.678,0.00017,0.0,0.0
6.343,5922.76,0.00017,0.0,0.0
6.349,6004.158,0.00017,0.0,0.0
6.355,5933.854,0.00017,0.0,0.0
6.362,6095.849,0.00016,0.0,0.0
6.368,6005.387,0.00017,0.0,0.0
6.374,6005.838,0.00017,0.0,0.0
6.381,6010.869,0.00017,0.0,0.0
6.387,6105.584,0.00016,0.0,0.0
6.393,6129.517,0.00016,0.0,0.0
6.4,6102.944,0.00016,0.0,0.0
6.406,6178.569,0.00016,0.0,0.0
6.412,6287.611,0.00016,0.0,0.0
6.418,6745.197,0.00015,0.0,0.0
6.425,6675.237,0.00015,0.0,0.0
6.431,8247.573,0.00012,0.0,0.0
6.437,7380.874,0.00014,0.0,0.0
6.444,11732.925,0.00009,0.0,0.0
6.45,8635.048,0.00012,0.0,0.0
6.456,18281.924,0.00005,0.0,0.0
6.463,9014.227,0.00011,0.0,0.0
6.469,16560.988,0.00006,0.0,0.0
6.475,8661.92,0.00012,0.0,0.0
6.482,12013.607,0.00008,0.0,0.0
6.488,7296.982,0.00014,0.0,0.0
6.494,7651.931,0.00013,0.0,0.0
6.501,6679.922,0.00015,0.0,0.0
6.507,6613.974,0.00015,0.0,0.0
6.513,6520.204,0.00015,0.0,0.0
6.52,6380.316,0.00016,0.0,0.0
6.526,6564.136,0.00015,0.0,0.0
6.532,6478.336,0.00015,0.0,0.0
6.539,6649.802,0.00015,0.0,0.0
6.545,6819.095,0.00015,0.0,0.0
6.551,7070.117,0.00014,0.0,0.0
6.558,7463.206,0.00013,0.0,0.0
6.564,8038.857,0.00012,0.0,0.0
6.57,9266.172,0.00011,0.0,0.0
6.576,11098.759,0.00009,0.0,0.0
6.583,14625.193,0.00007,0.0,0.0
6.589,22263.155,0.00004,0.0,0.0
6.595,34112.3,0.00003,0.0,0.0
6.602,51650.269,0.00002,0.0,0.0
6.608,83327.752,0.00001,0.0,0.0
6.614,93154.226,0.00001,0.0,0.0
6.621,104969.357,0.00001,0.0,0.0
6.627,95007.567,0.00001,0.0,0.0
6.633,71561.218,0.00001,0.0,0.0
6.64,50709.269,0.00002,0.0,0.0
6.646,30886.896,0.00003,0.0,0.0
6.652,19506.146,0.00005,0.0,0.0
6.659,14159.842,0.00007,0.0,0.0
6.665,10674.296,0.00009,0.0,0.0
6.671,8928.989,0.00011,0.0,0.0
6.678,7966.53,0.00013,0.0,0.0
6.684,7271.638,0.00014,0.0,0.0
6.69,7031.477,0.00014,0.0,0.0
6.697,6714.646,0.00015,0.0,0.0
6.703,6554.318,0.00015,0.0,0.0
6.709,6471.392,0.00015,0.0,0.0
6.716,6328.78,0.00016,0.0,0.0
6.722,6280.744,0.00016,0.0,0.0
6.728,6242.587,0.00016,0.0,0.0
6.734,6225.926,0.00016,0.0,0.0
6.741,6149.722,0.00016,0.0,0.0
6.747,6132.489,0.00016,0.0,0.0
6.753,6139.357,0.00016,0.0,0.0
6.76,6084.216,0.00016,0.0,0.0
6.766,6107.043,0.00016,0.0,0.0
6.772,6104.294,0.00016,0.0,0.0
6.779,6083.999,0.00016,0.0,0.0
6.785,6115.857,0.00016,0.0,0.0
6.791,6120.811,0.00016,0.0,0.0
6.798,6197.009,0.00016,0.0,0.0
6.804,6116.636,0.00016,0.0,0.0
6.81,6232.201,0.00016,0.0,0.0
6.817,6137.264,0.00016,0.0,0.0
6.823,6177.678,0.00016,0.0,0.0
6.829,6148.092,0.00016,0.0,0.0
6.836,6114.517,0.00016,0.0,0.0
6.842,6097.317,0.00016,0.0,0.0
6.848,6052.321,0.00017,0.0,0.0
6.855,6038.665,0.00017,0.0,0.0
6.861,6031.618,0.00017,0.0,0.0
6.867,6055.192,0.00017,0.0,0.0
6.874,6011.521,0.00017,0.0,0.0
6.88,6010.16,0.00017,0.0,0.0
6.886,6018.167,0.00017,0.0,0.0
6.892,6023.431,0.00017,0.0,0.0
6.899,6026.992,0.00017,0.0,0.0
6.905,5991.459,0.00017,0.0,0.0
6.911,6009.411,0.00017,0.0,0.0
6.918,6012.556,0.00017,0.0,0.0
6.924,6028.34,0.00017,0.0,0.0
6.93,6034.477,0.00017,0.0,0.0
6.937,6009.943,0.00017,0.0,0.0
6.943,6018.345,0.00017,0.0,0.0
6.949,6020.698,0.00017,0.0,0.0
6.956,6018.524,0.00017,0.0,0.0
6.962,6034.691,0.00017,0.0,0.0
6.968,6034.368,0.00017,0.0,0.0
6.975,6004.548,0.00017,0.0,0.0
6.981,6036.93,0.00017,0.0,0.0
6.987,6035.249,0.00017,0.0,0.0
6.994,6030.271,0.00017,0.0,0.0
7.0,6038.747,0.00017,0.0,0.0
7.006,6011.057,0.00017,0.0,0.0
7.013,6030.022,0.00017,0.0,0.0
7.019,6074.371,0.00016,0.0,0.0
7.025,6039.096,0.00017,0.0,0.0
7.032,6076.434,0.00016,0.0,0.0
7.038,6028.749,0.00017,0.0,0.0
7.044,6050.727,0.00017,0.0,0.0
7.05,6061.877,0.00016,0.0,0.0
7.057,6066.564,0.00016,0.0,0.0
7.063,6087.171,0.00016,0.0,0.0
7.069,6065.718,0.00016,0.0,0.0
7.076,6070.052,0.00016,0.0,0.0
7.082,6052.356,0.00017,0.0,0.0
7.088,6056.815,0.00017,0.0,0.0
7.095,6061.486,0.00016,0.0,0.0
7.101,6081.897,0.00016,0.0,0.0
7.107,6056.575,0.00017,0.0,0.0
7.114,6086.694,0.00016,0.0,0.0
7.12,6064.483,0.00016,0.0,0.0
7.126,6034.43,0.00017,0.0,0.0
7.133,6067.349,0.00016,0.0,0.0
7.139,6045.938,0.00017,0.0,0.0
7.145,6084.716,0.00016,0.0,0.0
7.152,6067.622,0.00016,0.0,0.0
7.158,6046.496,0.00017,0.0,0.0
7.164,6088.18,0.00016,0.0,0.0
7.171,6023.457,0.00017,0.0,0.0
7.177,6052.455,0.00017,0.0,0.0
7.183,6040.916,0.00017,0.0,0.0
7.19,6029.523,0.00017,0.0,0.0
7.196,6057.574,0.00017,0.0,0.0
7.202,6030.972,0.00017,0.0,0.0
7.208,6038.382,0.00017,0.0,0.0
7.215,6038.874,0.00017,0.0,0.0
7.221,6024.652,0.00017,0.0,0.0
7.227,6023.655,0.00017,0.0,0.0
7.234,6049.619,0.00017,0.0,0.0
7.24,6036.197,0.00017,0.0,0.0
7.246,6062.017,0.00016,0.0,0.0
7.253,6028.368,0.00017,0.0,0.0
7.259,6024.322,0.00017,0.0,0.0
7.265,6092.708,0.00016,0.0,0.0
7.272,6100.143,0.00016,0.0,0.0
7.278,6190.056,0.00016,0.0,0.0
7.284,6203.537,0.00016,0.0,0.0
7.291,6238.417,0.00016,0.0,0.0
7.297,6247.795,0.00016,0.0,0.0
7.303,6204.571,0.00016,0.0,0.0
7.31,6178.291,0.00016,0.0,0.0
7.316,6134.309,0.00016,0.0,0.0
7.322,6071.472,0.00016,0.0,0.0
7.329,6079.731,0.00016,0.0,0.0
7.335,6040.394,0.00017,0.0,0.0
7.341,6012.198,0.00017,0.0,0.0
7.348,6033.917,0.00017,0.0,0.0
7.354,6017.74,0.00017,0.0,0.0
7.36,6017.63,0.00017,0.0,0.0
7.366,6030.156,0.00017,0.0,0.0
7.373,6033.103,0.00017,0.0,0.0
7.379,6003.967,0.00017,0.0,0.0
7.385,6035.195,0.00017,0.0,0.0
7.392,6015.72,0.00017,0.0,0.0
7.398,6061.624,0.00016,0.0,0.0
7.404,6035.091,0.00017,0.0,0.0
7.411,6086.351,0.00016,0.0,0.0
7.417,6072.882,0.00016,0.0,0.0
7.423,6038.59,0.00017,0.0,0.0
7.43,6118.181,0.00016,0.0,0.0
7.436,6092.165,0.00016,0.0,0.0
7.442,6075.006,0.00016,0.0,0.0
7.449,6123.736,0.00016,0.0,0.0
7.455,6146.834,0.00016,0.0,0.0
7.461,6118.359,0.00016,0.0,0.0
7.468,6128.473,0.00016,0.0,0.0
7.474,6126.432,0.00016,0.0,0.0
7.48,6192.948,0.00016,0.0,0.0
7.487,6161.577,0.00016,0.0,0.0
7.493,6212.842,0.00016,0.0,0.0
7.499,6190.998,0.00016,0.0,0.0
7.506,6193.679,0.00016,0.0,0.0
7.512,6256.467,0.00016,0.0,0.0
7.518,6263.005,0.00016,0.0,0.0
7.524,6261.599,0.00016,0.0,0.0
7.531,6315.881,0.00016,0.0,0.0
7.537,6380.494,0.00016,0.0,0.0
7.543,6378.511,0.00016,0.0,0.0
7.55,6439.613,0.00016,0.0,0.0
7.556,6477.379,0.00015,0.0,0.0
7.562,6636.36,0.00015,0.0,0.0
7.569,6683.475,0.00015,0.0,0.0
7.575,6914.884,0.00014,0.0,0.0
7.581,7143.062,0.00014,0.0,0.0
7.588,7488.854,0.00013,0.0,0.0
7.594,8071.118,0.00012,0.0,0.0
7.6,9070.443,0.00011,0.0,0.0
7.607,11268.512,0.00009,0.0,0.0
7.613,14108.729,0.00007,0.0,0.0
7.619,21555.671,0.00005,0.0,0.0
7.626,28579.397,0.00003,0.0,0.0
7.632,40564.537,0.00002,0.0,0.0
7.638,49255.909,0.00002,0.0,0.0
7.645,55090.908,0.00002,0.0,0.0
7.651,49354.032,0.00002,0.0,0.0
7.657,40181.338,0.00002,0.0,0.0
7.664,34332.187,0.00003,0.0,0.0
7.67,21637.704,0.00005,0.0,0.0
7.676,15837.194,0.00006,0.0,0.0
7.682,11882.721,0.00008,0.0,0.0
7.689,9607.887,0.0001,0.0,0.0
7.695,8480.28,0.00012,0.0,0.0
7.701,7809.759,0.00013,0.0,0.0
7.708,7346.457,0.00014,0.0,0.0
7.714,7204.179,0.00014,0.0,0.0
7.72,6931.286,0.00014,0.0,0.0
7.727,6940.47,0.00014,0.0,0.0
7.733,6833.965,0.00015,0.0,0.0
7.739,6905.861,0.00014,0.0,0.0
7.746,6752.392,0.00015,0.0,0.0
7.752,6831.109,0.00015,0.0,0.0
7.758,6782.461,0.00015,0.0,0.0
7.765,6705.904,0.00015,0.0,0.0
7.771,6827.86,0.00015,0.0,0.0
7.777,6772.271,0.00015,0.0,0.0
7.784,6898.077,0.00014,0.0,0.0
7.79,6754.505,0.00015,0.0,0.0
7.796,7005.188,0.00014,0.0,0.0
7.803,6764.6,0.00015,0.0,0.0
7.809,7012.854,0.00014,0.0,0.0
7.815,6814.845,0.00015,0.0,0.0
7.822,7221.204,0.00014,0.0,0.0
7.828,6974.666,0.00014,0.0,0.0
7.834,7417.52,0.00013,0.0,0.0
7.84,7099.371,0.00014,0.0,0.0
7.847,7541.226,0.00013,0.0,0.0
7.853,7491.513,0.00013,0.0,0.0
7.859,7828.096,0.00013,0.0,0.0
7.866,8780.944,0.00011,0.0,0.0
7.872,7861.153,0.00013,0.0,0.0
7.878,12472.55,0.00008,0.0,0.0
7.885,7457.159,0.00013,0.0,0.0
7.891,15178.844,0.00007,0.0,0.0
7.897,7095.197,0.00014,0.0,0.0
7.904,16376.586,0.00006,0.0,0.0
7.91,7371.666,0.00014,0.0,0.0
7.916,15615.016,0.00006,0.0,0.0
7.923,8212.642,0.00012,0.0,0.0
7.929,13648.025,0.00007,0.0,0.0
7.935,9267.847,0.00011,0.0,0.0
7.942,10757.443,0.00009,0.0,0.0
7.948,10504.409,0.0001,0.0,0.0
7.954,7522.084,0.00013,0.0,0.0
7.961,8939.811,0.00011,0.0,0.0
7.967,6706.061,0.00015,0.0,0.0
7.973,8075.543,0.00012,0.0,0.0
7.98,6687.614,0.00015,0.0,0.0
7.986,7569.047,0.00013,0.0,0.0
7.992,6962.202,0.00014,0.0,0.0
7.998,7006.009,0.00014,0.0,0.0
8.005,7024.034,0.00014,0.0,0.0
8.011,6721.192,0.00015,0.0,0.0
8.017,6972.0,0.00014,0.0,0.0
8.024,6560.1,0.00015,0.0,0.0
8.03,6957.104,0.00014,0.0,0.0
8.036,6510.031,0.00015,0.0,0.0
8.043,6889.322,0.00015,0.0,0.0
8.049,6451.665,0.00015,0.0,0.0
8.055,6827.318,0.00015,0.0,0.0
8.062,6511.206,0.00015,0.0,0.0
8.068,6669.828,0.00015,0.0,0.0
8.074,6580.552,0.00015,0.0,0.0
8.081,6564.736,0.00015,0.0,0.0
8.087,6598.7,0.00015,0.0,0.0
8.093,6550.33,0.00015,0.0,0.0
8.1,6638.372,0.00015,0.0,0.0
8.106,6472.771,0.00015,0.0,0.0
8.112,6666.225,0.00015,0.0,0.0
8.119,6549.091,0.00015,0.0,0.0
8.125,6831.697,0.00015,0.0,0.0
8.131,6716.958,0.00015,0.0,0.0
8.138,6977.647,0.00014,0.0,0.0
8.144,6839.794,0.00015,0.0,0.0
8.15,6873.087,0.00015,0.0,0.0
8.156,6759.153,0.00015,0.0,0.0
8.163,6614.143,0.00015,0.0,0.0
8.169,6529.648,0.00015,0.0,0.0
8.175,6408.71,0.00016,0.0,0.0
8.182,6411.536,0.00016,0.0,0.0
8.188,6288.118,0.00016,0.0,0.0
8.194,6274.659,0.00016,0.0,0.0
8.201,6168.27,0.00016,0.0,0.0
8.207,6254.777,0.00016,0.0,0.0
8.213,6111.892,0.00016,0.0,0.0
8.22,6214.83,0.00016,0.0,0.0
8.226,6118.187,0.00016,0.0,0.0
8.232,6122.641,0.00016,0.0,0.0
8.239,6062.217,0.00016,0.0,0.0
8.245,6071.926,0.00016,0.0,0.0
8.251,6066.476,0.00016,0.0,0.0
8.258,6017.616,0.00017,0.0,0.0
8.264,6017.664,0.00017,0.0,0.0
8.27,5951.16,0.00017,0.0,0.0
8.277,6011.006,0.00017,0.0,0.0
8.283,5911.547,0.00017,0.0,0.0
8.289,5947.416,0.00017,0.0,0.0
8.296,5878.895,0.00017,0.0,0.0
8.302,5946.089,0.00017,0.0,0.0
8.308,5892.961,0.00017,0.0,0.0
8.314,5882.153,0.00017,0.0,0.0
8.321,5869.604,0.00017,0.0,0.0
8.327,5867.367,0.00017,0.0,0.0
8.333,5896.048,0.00017,0.0,0.0
8.34,5912.996,0.00017,0.0,0.0
8.346,5956.68,0.00017,0.0,0.0
8.352,5986.922,0.00017,0.0,0.0
8.359,6087.921,0.00016,0.0,0.0
8.365,6113.504,0.00016,0.0,0.0
8.371,6200.203,0.00016,0.0,0.0
8.378,6142.354,0.00016,0.0,0.0
8.384,6136.619,0.00016,0.0,0.0
8.39,6030.582,0.00017,0.0,0.0
8.397,5977.443,0.00017,0.0,0.0
8.403,5846.343,0.00017,0.0,0.0
8.409,5779.767,0.00017,0.0,0.0
8.416,5713.064,0.00018,0.0,0.0
8.422,5658.74,0.00018,0.0,0.0
8.428,5641.99,0.00018,0.0,0.0
8.435,5602.486,0.00018,0.0,0.0
8.441,5579.04,0.00018,0.0,0.0
8.447,5548.761,0.00018,0.0,0.0
8.454,5561.446,0.00018,0.0,0.0
8.46,5520.887,0.00018,0.0,0.0
8.466,5530.856,0.00018,0.0,0.0
8.472,5503.54,0.00018,0.0,0.0
8.479,5507.523,0.00018,0.0,0.0
8.485,5521.705,0.00018,0.0,0.0
8.491,5505.065,0.00018,0.0,0.0
8.498,5530.108,0.00018,0.0,0.0
8.504,5478.084,0.00018,0.0,0.0
8.51,5485.858,0.00018,0.0,0.0
8.517,5429.141,0.00018,0.0,0.0
8.523,5438.172,0.00018,0.0,0.0
8.529,5401.701,0.00019,0.0,0.0
8.536,5400.162,0.00019,0.0,0.0
8.542,5367.904,0.00019,0.0,0.0
8.548,5377.182,0.00019,0.0,0.0
8.555,5347.886,0.00019,0.0,0.0
8.561,5343.223,0.00019,0.0,0.0
8.567,5335.388,0.00019,0.0,0.0
8.574,5340.756,0.00019,0.0,0.0
8.58,5338.479,0.00019,0.0,0.0
8.586,5303.092,0.00019,0.0,0.0
8.593,5308.509,0.00019,0.0,0.0
8.599,5273.799,0.00019,0.0,0.0
8.605,5302.708,0.00019,0.0,0.0
8.612,5279.684,0.00019,0.0,0.0
8.618,5292.801,0.00019,0.0,0.0
8.624,5251.809,0.00019,0.0,0.0
8.63,5254.528,0.00019,0.0,0.0
8.637,5245.919,0.00019,0.0,0.0
8.643,5238.437,0.00019,0.0,0.0
8.649,5237.246,0.00019,0.0,0.0
8.656,5206.819,0.00019,0.0,0.0
8.662,5241.022,0.00019,0.0,0.0
8.668,5220.257,0.00019,0.0,0.0
8.675,5213.491,0.00019,0.0,0.0
8.681,5218.519,0.00019,0.0,0.0
8.687,5209.344,0.00019,0.0,0.0
8.694,5217.21,0.00019,0.0,0.0
8.7,5202.928,0.00019,0.0,0.0
8.706,5177.059,0.00019,0.0,0.0
8.713,5186.623,0.00019,0.0,0.0
8.719,5159.926,0.00019,0.0,0.0
8.725,5193.924,0.00019,0.0,0.0
8.732,5177.237,0.00019,0.0,0.0
8.738,5181.023,0.00019,0.0,0.0
8.744,5145.622,0.00019,0.0,0.0
8.751,5179.386,0.00019,0.0,0.0
8.757,5165.574,0.00019,0.0,0.0
8.763,5152.782,0.00019,0.0,0.0
8.77,5159.06,0.00019,0.0,0.0
8.776,5150.875,0.00019,0.0,0.0
8.782,5157.659,0.00019,0.0,0.0
8.788,5160.757,0.00019,0.0,0.0
8.795,5156.006,0.00019,0.0,0.0
8.801,5158.091,0.00019,0.0,0.0
8.807,5133.343,0.00019,0.0,0.0
8.814,5147.741,0.00019,0.0,0.0
8.82,5127.391,0.0002,0.0,0.0
8.826,5142.366,0.00019,0.0,0.0
8.833,5146.984,0.00019,0.0,0.0
8.839,5134.948,0.00019,0.0,0.0
8.845,5164.341,0.00019,0.0,0.0
8.852,5135.347,0.00019,0.0,0.0
8.858,5157.842,0.00019,0.0,0.0
8.864,5139.64,0.00019,0.0,0.0
8.871,5139.066,0.00019,0.0,0.0
8.877,5155.681,0.00019,0.0,0.0
8.883,5142.557,0.00019,0.0,0.0
8.89,5157.516,0.00019,0.0,0.0
8.896,5138.484,0.00019,0.0,0.0
8.902,5168.299,0.00019,0.0,0.0
8.909,5184.528,0.00019,0.0,0.0
8.915,5162.505,0.00019,0.0,0.0
8.921,5197.336,0.00019,0.0,0.0
8.928,5183.17,0.00019,0.0,0.0
8.934,5200.98,0.00019,0.0,0.0
8.94,5189.612,0.00019,0.0,0.0
8.946,5206.161,0.00019,0.0,0.0
8.953,5213.053,0.00019,0.0,0.0
8.959,5198.915,0.00019,0.0,0.0
8.965,5225.687,0.00019,0.0,0.0
8.972,5213.327,0.00019,0.0,0.0
8.978,5246.884,0.00019,0.0,0.0
8.984,5225.778,0.00019,0.0,0.0
8.991,5256.872,0.00019,0.0,0.0
8.997,5267.591,0.00019,0.0,0.0
9.003,5286.282,0.00019,0.0,0.0
9.01,5302.269,0.00019,0.0,0.0
9.016,5323.582,0.00019,0.0,0.0
9.022,5377.275,0.00019,0.0,0.0
9.029,5360.103,0.00019,0.0,0.0
9.035,5410.322,0.00018,0.0,0.0
9.041,5459.978,0.00018,0.0,0.0
9.048,5462.409,0.00018,0.0,0.0
9.054,5568.904,0.00018,0.0,0.0
9.06,5575.992,0.00018,0.0,0.0
9.067,5627.262,0.00018,0.0,0.0
9.073,5825.447,0.00017,0.0,0.0
9.079,5875.184,0.00017,0.0,0.0
9.086,6297.307,0.00016,0.0,0.0
9.092,6353.765,0.00016,0.0,0.0
9.098,7697.876,0.00013,0.0,0.0
9.104,8550.459,0.00012,0.0,0.0
9.111,8353.839,0.00012,0.0,0.0
9.117,9545.016,0.0001,0.0,0.0
9.123,9577.296,0.0001,0.0,0.0
9.13,10055.331,0.0001,0.0,0.0
9.136,11008.248,0.00009,0.0,0.0
9.142,9737.883,0.0001,0.0,0.0
9.149,9013.581,0.00011,0.0,0.0
9.155,8883.244,0.00011,0.0,0.0
9.161,8316.652,0.00012,0.0,0.0
9.168,6986.598,0.00014,0.0,0.0
9.174,7096.42,0.00014,0.0,0.0
9.18,6103.356,0.00016,0.0,0.0
9.187,6154.569,0.00016,0.0,0.0
9.193,5816.189,0.00017,0.0,0.0
9.199,5689.053,0.00018,0.0,0.0
9.206,5642.147,0.00018,0.0,0.0
9.212,5509.732,0.00018,0.0,0.0
9.218,5503.198,0.00018,0.0,0.0
9.225,5476.055,0.00018,0.0,0.0
9.231,5365.168,0.00019,0.0,0.0
9.237,5401.044,0.00019,0.0,0.0
9.244,5329.353,0.00019,0.0,0.0
9.25,5331.067,0.00019,0.0,0.0
9.256,5274.497,0.00019,0.0,0.0
9.262,5238.349,0.00019,0.0,0.0
9.269,5288.57,0.00019,0.0,0.0
9.275,5165.571,0.00019,0.0,0.0
9.281,5229.15,0.00019,0.0,0.0
9.288,5152.023,0.00019,0.0,0.0
9.294,5151.431,0.00019,0.0,0.0
9.3,5141.058,0.00019,0.0,0.0
9.307,5105.514,0.0002,0.0,0.0
9.313,5088.346,0.0002,0.0,0.0
9.319,5106.184,0.0002,0.0,0.0
9.326,5062.54,0.0002,0.0,0.0
9.332,5043.182,0.0002,0.0,0.0
9.338,5035.481,0.0002,0.0,0.0
9.345,4999.208,0.0002,0.0,0.0
9.351,4983.991,0.0002,0.0,0.0
9.357,4990.738,0.0002,0.0,0.0
9.364,4966.049,0.0002,0.0,0.0
9.37,4951.439,0.0002,0.0,0.0
9.376,4934.478,0.0002,0.0,0.0
9.383,4902.017,0.0002,0.0,0.0
9.389,4907.241,0.0002,0.0,0.0
9.395,4884.697,0.0002,0.0,0.0
9.402,4872.117,0.00021,0.0,0.0
9.408,4861.256,0.00021,0.0,0.0
9.414,4846.96,0.00021,0.0,0.0
9.42,4840.639,0.00021,0.0,0.0
9.427,4825.839,0.00021,0.0,0.0
9.433,4830.428,0.00021,0.0,0.0
9.439,4818.545,0.00021,0.0,0.0
9.446,4815.524,0.00021,0.0,0.0
9.452,4802.085,0.00021,0.0,0.0
9.458,4821.128,0.00021,0.0,0.0
9.465,4851.401,0.00021,0.0,0.0
9.471,4843.671,0.00021,0.0,0.0
9.477,4868.205,0.00021,0.0,0.0
9.484,4876.415,0.00021,0.0,0.0
9.49,4886.68,0.0002,0.0,0.0
9.496,4871.876,0.00021,0.0,0.0
9.503,4821.077,0.00021,0.0,0.0
9.509,4811.106,0.00021,0.0,0.0
9.515,4772.161,0.00021,0.0,0.0
9.522,4732.607,0.00021,0.0,0.0
9.528,4708.343,0.00021,0.0,0.0
9.534,4665.549,0.00021,0.0,0.0
9.541,4664.558,0.00021,0.0,0.0
9.547,4667.183,0.00021,0.0,0.0
9.553,4621.931,0.00022,0.0,0.0
9.56,4639.156,0.00022,0.0,0.0
9.566,4595.856,0.00022,0.0,0.0
9.572,4614.309,0.00022,0.0,0.0
9.578,4599.512,0.00022,0.0,0.0
9.585,4588.744,0.00022,0.0,0.0
9.591,4587.36,0.00022,0.0,0.0
9.597,4568.958,0.00022,0.0,0.0
9.604,4571.225,0.00022,0.0,0.0
9.61,4565.96,0.00022,0.0,0.0
9.616,4571.454,0.00022,0.0,0.0
9.623,4552.135,0.00022,0.0,0.0
9.629,4542.624,0.00022,0.0,0.0
9.635,4524.192,0.00022,0.0,0.0
9.642,4534.769,0.00022,0.0,0.0
9.648,4543.306,0.00022,0.0,0.0
9.654,4548.626,0.00022,0.0,0.0
9.661,4530.866,0.00022,0.0,0.0
9.667,4525.546,0.00022,0.0,0.0
9.673,4510.37,0.00022,0.0,0.0
9.68,4526.594,0.00022,0.0,0.0
9.686,4502.855,0.00022,0.0,0.0
9.692,4498.489,0.00022,0.0,0.0
9.699,4498.689,0.00022,0.0,0.0
9.705,4493.303,0.00022,0.0,0.0
9.711,4502.866,0.00022,0.0,0.0
9.718,4483.057,0.00022,0.0,0.0
9.724,4494.623,0.00022,0.0,0.0
9.73,4484.704,0.00022,0.0,0.0
9.736,4494.785,0.00022,0.0,0.0
9.743,4484.688,0.00022,0.0,0.0
9.749,4480.104,0.00022,0.0,0.0
9.755,4472.847,0.00022,0.0,0.0
9.762,4477.891,0.00022,0.0,0.0
9.768,4463.965,0.00022,0.0,0.0
9.774,4490.23,0.00022,0.0,0.0
9.781,4471.505,0.00022,0.0,0.0
9.787,4487.314,0.00022,0.0,0.0
9.793,4473.681,0.00022,0.0,0.0
9.8,4460.059,0.00022,0.0,0.0
9.806,4477.776,0.00022,0.0,0.0
9.812,4449.058,0.00022,0.0,0.0
9.819,4454.259,0.00022,0.0,0.0
9.825,4454.106,0.00022,0.0,0.0
9.831,4445.551,0.00022,0.0,0.0
9.838,4452.402,0.00022,0.0,0.0
9.844,4444.64,0.00022,0.0,0.0
9.85,4435.377,0.00023,0.0,0.0
9.857,4452.952,0.00022,0.0,0.0
9.863,4435.422,0.00023,0.0,0.0
9.869,4425.952,0.00023,0.0,0.0
9.876,4438.215,0.00023,0.0,0.0
9.882,4418.936,0.00023,0.0,0.0
9.888,4432.767,0.00023,0.0,0.0
9.894,4424.194,0.00023,0.0,0.0
9.901,4424.673,0.00023,0.0,0.0
9.907,4427.968,0.00023,0.0,0.0
9.913,4417.136,0.00023,0.0,0.0
9.92,4425.194,0.00023,0.0,0.0
9.926,4420.023,0.00023,0.0,0.0
9.932,4405.772,0.00023,0.0,0.0
9.939,4414.337,0.00023,0.0,0.0
9.945,4390.918,0.00023,0.0,0.0
9.951,4400.143,0.00023,0.0,0.0
9.958,4405.161,0.00023,0.0,0.0
9.964,4378.078,0.00023,0.0,0.0
9.97,4407.891,0.00023,0.0,0.0
9.977,4388.666,0.00023,0.0,0.0
9.983,4394.875,0.00023,0.0,0.0
9.989,4394.564,0.00023,0.0,0.0
9.996,4396.584,0.00023,0.0,0.0
10.002,4397.824,0.00023,0.0,0.0
10.008,4392.841,0.00023,0.0,0.0
10.015,4391.614,0.00023,0.0,0.0
10.021,4396.76,0.00023,0.0,0.0
10.027,4397.59,0.00023,0.0,0.0
10.034,4417.792,0.00023,0.0,0.0
10.04,4410.577,0.00023,0.0,0.0
10.046,4410.166,0.00023,0.0,0.0
10.052,4398.329,0.00023,0.0,0.0
10.059,4399.756,0.00023,0.0,0.0
10.065,4391.203,0.00023,0.0,0.0
10.071,4411.784,0.00023,0.0,0.0
10.078,4390.998,0.00023,0.0,0.0
10.084,4427.469,0.00023,0.0,0.0
10.09,4404.236,0.00023,0.0,0.0
10.097,4397.503,0.00023,0.0,0.0
10.103,4413.655,0.00023,0.0,0.0
10.109,4396.743,0.00023,0.0,0.0
10.116,4409.908,0.00023,0.0,0.0
10.122,4408.785,0.00023,0.0,0.0
10.128,4405.754,0.00023,0.0,0.0
10.135,4407.567,0.00023,0.0,0.0
10.141,4407.05,0.00023,0.0,0.0
10.147,4421.519,0.00023,0.0,0.0
10.154,4395.081,0.00023,0.0,0.0
10.16,4408.98,0.00023,0.0,0.0
10.166,4429.793,0.00023,0.0,0.0
10.173,4445.468,0.00022,0.0,0.0
10.179,4476.596,0.00022,0.0,0.0
10.185,4571.931,0.00022,0.0,0.0
10.192,4693.9,0.00021,0.0,0.0
10.198,4774.456,0.00021,0.0,0.0
10.204,5179.009,0.00019,0.0,0.0
10.21,5740.624,0.00017,0.0,0.0
10.217,5668.33,0.00018,0.0,0.0
10.223,5722.143,0.00017,0.0,0.0
10.229,5156.53,0.00019,0.0,0.0
10.236,4903.285,0.0002,0.0,0.0
10.242,4626.944,0.00022,0.0,0.0
10.248,4534.738,0.00022,0.0,0.0
10.255,4484.744,0.00022,0.0,0.0
10.261,4438.967,0.00023,0.0,0.0
10.267,4413.607,0.00023,0.0,0.0
10.274,4389.145,0.00023,0.0,0.0
10.28,4399.684,0.00023,0.0,0.0
10.286,4391.238,0.00023,0.0,0.0
10.293,4367.217,0.00023,0.0,0.0
10.299,4377.087,0.00023,0.0,0.0
10.305,4365.363,0.00023,0.0,0.0
10.312,4376.951,0.00023,0.0,0.0
10.318,4352.08,0.00023,0.0,0.0
10.324,4332.874,0.00023,0.0,0.0
10.331,4338.571,0.00023,0.0,0.0
10.337,4325.71,0.00023,0.0,0.0
10.343,4314.913,0.00023,0.0,0.0
10.35,4330.611,0.00023,0.0,0.0
10.356,4299.413,0.00023,0.0,0.0
10.362,4323.425,0.00023,0.0,0.0
10.368,4315.555,0.00023,0.0,0.0
10.375,4314.262,0.00023,0.0,0.0
10.381,4305.197,0.00023,0.0,0.0
10.387,4312.455,0.00023,0.0,0.0
10.394,4317.329,0.00023,0.0,0.0
10.4,4293.777,0.00023,0.0,0.0
10.406,4294.812,0.00023,0.0,0.0
10.413,4311.874,0.00023,0.0,0.0
10.419,4298.7,0.00023,0.0,0.0
10.425,4311.528,0.00023,0.0,0.0
10.432,4305.776,0.00023,0.0,0.0
10.438,4284.231,0.00023,0.0,0.0
10.444,4310.028,0.00023,0.0,0.0
10.451,4305.301,0.00023,0.0,0.0
10.457,4319.09,0.00023,0.0,0.0
10.463,4316.53,0.00023,0.0,0.0
10.47,4311.616,0.00023,0.0,0.0
10.476,4320.504,0.00023,0.0,0.0
10.482,4312.876,0.00023,0.0,0.0
10.489,4324.57,0.00023,0.0,0.0
10.495,4330.939,0.00023,0.0,0.0
10.501,4323.776,0.00023,0.0,0.0
10.508,4325.472,0.00023,0.0,0.0
10.514,4321.239,0.00023,0.0,0.0
10.52,4322.186,0.00023,0.0,0.0
10.526,4330.73,0.00023,0.0,0.0
10.533,4335.936,0.00023,0.0,0.0
10.539,4327.683,0.00023,0.0,0.0
10.545,4334.461,0.00023,0.0,0.0
10.552,4324.816,0.00023,0.0,0.0
10.558,4331.985,0.00023,0.0,0.0
10.564,4345.875,0.00023,0.0,0.0
10.571,4360.353,0.00023,0.0,0.0
10.577,4350.551,0.00023,0.0,0.0
10.583,4350.493,0.00023,0.0,0.0
10.59,4360.923,0.00023,0.0,0.0
10.596,4357.722,0.00023,0.0,0.0
10.602,4354.331,0.00023,0.0,0.0
10.609,4384.667,0.00023,0.0,0.0
10.615,4385.174,0.00023,0.0,0.0
10.621,4381.642,0.00023,0.0,0.0
10.628,4403.025,0.00023,0.0,0.0
10.634,4401.81,0.00023,0.0,0.0
10.64,4414.219,0.00023,0.0,0.0
10.647,4413.225,0.00023,0.0,0.0
10.653,4420.767,0.00023,0.0,0.0
10.659,4421.284,0.00023,0.0,0.0
10.666,4434.359,0.00023,0.0,0.0
10.672,4446.597,0.00022,0.0,0.0
10.678,4444.308,0.00023,0.0,0.0
10.684,4457.11,0.00022,0.0,0.0
10.691,4487.388,0.00022,0.0,0.0
10.697,4489.532,0.00022,0.0,0.0
10.703,4500.49,0.00022,0.0,0.0
10.71,4527.709,0.00022,0.0,0.0
10.716,4527.278,0.00022,0.0,0.0
10.722,4575.873,0.00022,0.0,0.0
10.729,4587.547,0.00022,0.0,0.0
10.735,4619.972,0.00022,0.0,0.0
10.741,4671.093,0.00021,0.0,0.0
10.748,4716.284,0.00021,0.0,0.0
10.754,4811.782,0.00021,0.0,0.0
10.76,4972.101,0.0002,0.0,0.0
10.767,5136.118,0.00019,0.0,0.0
10.773,5527.238,0.00018,0.0,0.0
10.779,6154.52,0.00016,0.0,0.0
10.786,7087.355,0.00014,0.0,0.0
10.792,9833.869,0.0001,0.0,0.0
10.798,11682.303,0.00009,0.0,0.0
10.805,19092.291,0.00005,0.0,0.0
10.811,24112.255,0.00004,0.0,0.0
10.817,28820.831,0.00003,0.0,0.0
10.824,33429.126,0.00003,0.0,0.0
10.83,28553.434,0.00004,0.0,0.0
10.836,23760.306,0.00004,0.0,0.0
10.842,18943.174,0.00005,0.0,0.0
10.849,12045.788,0.00008,0.0,0.0
10.855,9645.442,0.0001,0.0,0.0
10.861,7175.33,0.00014,0.0,0.0
10.868,6176.341,0.00016,0.0,0.0
10.874,5593.388,0.00018,0.0,0.0
10.88,5179.577,0.00019,0.0,0.0
10.887,5038.122,0.0002,0.0,0.0
10.893,4882.284,0.0002,0.0,0.0
10.899,4808.521,0.00021,0.0,0.0
10.906,4757.968,0.00021,0.0,0.0
10.912,4734.676,0.00021,0.0,0.0
10.918,4724.644,0.00021,0.0,0.0
10.925,4704.157,0.00021,0.0,0.0
10.931,4713.164,0.00021,0.0,0.0
10.937,4679.893,0.00021,0.0,0.0
10.944,4679.545,0.00021,0.0,0.0
10.95,4681.33,0.00021,0.0,0.0
10.956,4685.12,0.00021,0.0,0.0
10.963,4650.179,0.00022,0.0,0.0
10.969,4632.681,0.00022,0.0,0.0
10.975,4624.69,0.00022,0.0,0.0
10.982,4628.521,0.00022,0.0,0.0
10.988,4615.145,0.00022,0.0,0.0
10.994,4589.374,0.00022,0.0,0.0
11.0,4612.617,0.00022,0.0,0.0
11.007,4567.2,0.00022,0.0,0.0
11.013,4588.431,0.00022,0.0,0.0
11.019,4583.701,0.00022,0.0,0.0
11.026,4575.87,0.00022,0.0,0.0
11.032,4584.866,0.00022,0.0,0.0
11.038,4568.079,0.00022,0.0,0.0
11.045,4586.34,0.00022,0.0,0.0
11.051,4579.63,0.00022,0.0,0.0
11.057,4597.372,0.00022,0.0,0.0
11.064,4571.44,0.00022,0.0,0.0
11.07,4602.788,0.00022,0.0,0.0
11.076,4570.332,0.00022,0.0,0.0
11.083,4595.717,0.00022,0.0,0.0
11.089,4581.527,0.00022,0.0,0.0
11.095,4599.233,0.00022,0.0,0.0
11.102,4597.863,0.00022,0.0,0.0
11.108,4605.73,0.00022,0.0,0.0
11.114,4639.921,0.00022,0.0,0.0
11.121,4619.716,0.00022,0.0,0.0
11.127,4639.718,0.00022,0.0,0.0
11.133,4631.29,0.00022,0.0,0.0
11.14,4647.948,0.00022,0.0,0.0
11.146,4640.317,0.00022,0.0,0.0
11.152,4651.214,0.00021,0.0,0.0
11.158,4665.542,0.00021,0.0,0.0
11.165,4689.044,0.00021,0.0,0.0
11.171,4700.498,0.00021,0.0,0.0
11.177,4704.831,0.00021,0.0,0.0
11.184,4746.991,0.00021,0.0,0.0
11.19,4723.584,0.00021,0.0,0.0
11.196,4721.534,0.00021,0.0,0.0
11.203,4724.727,0.00021,0.0,0.0
11.209,4695.293,0.00021,0.0,0.0
11.215,4686.098,0.00021,0.0,0.0
11.222,4684.34,0.00021,0.0,0.0
11.228,4668.008,0.00021,0.0,0.0
11.234,4655.517,0.00021,0.0,0.0
11.241,4652.841,0.00021,0.0,0.0
11.247,4629.674,0.00022,0.0,0.0
11.253,4635.557,0.00022,0.0,0.0
11.26,4619.584,0.00022,0.0,0.0
11.266,4651.14,0.00022,0.0,0.0
11.272,4617.991,0.00022,0.0,0.0
11.279,4608.854,0.00022,0.0,0.0
11.285,4603.38,0.00022,0.0,0.0
11.291,4592.34,0.00022,0.0,0.0
11.298,4591.923,0.00022,0.0,0.0
11.304,4566.437,0.00022,0.0,0.0
11.31,4594.126,0.00022,0.0,0.0
11.316,4582.612,0.00022,0.0,0.0
11.323,4587.629,0.00022,0.0,0.0
11.329,4568.956,0.00022,0.0,0.0
11.335,4571.85,0.00022,0.0,0.0
11.342,4561.823,0.00022,0.0,0.0
11.348,4559.421,0.00022,0.0,0.0
11.354,4548.352,0.00022,0.0,0.0
11.361,4545.607,0.00022,0.0,0.0
11.367,4548.602,0.00022,0.0,0.0
11.373,4537.372,0.00022,0.0,0.0
11.38,4539.683,0.00022,0.0,0.0
11.386,4524.512,0.00022,0.0,0.0
11.392,4543.833,0.00022,0.0,0.0
11.399,4529.552,0.00022,0.0,0.0
11.405,4522.638,0.00022,0.0,0.0
11.411,4542.153,0.00022,0.0,0.0
11.418,4522.545,0.00022,0.0,0.0
11.424,4535.014,0.00022,0.0,0.0
11.43,4517.757,0.00022,0.0,0.0
11.437,4511.201,0.00022,0.0,0.0
11.443,4512.1,0.00022,0.0,0.0
11.449,4515.332,0.00022,0.0,0.0
11.456,4526.108,0.00022,0.0,0.0
11.462,4519.97,0.00022,0.0,0.0
11.468,4511.441,0.00022,0.0,0.0
11.474,4522.774,0.00022,0.0,0.0
11.481,4497.01,0.00022,0.0,0.0
11.487,4505.676,0.00022,0.0,0.0
11.493,4529.223,0.00022,0.0,0.0
11.5,4530.726,0.00022,0.0,0.0
11.506,4546.669,0.00022,0.0,0.0
11.512,4571.043,0.00022,0.0,0.0
11.519,4586.627,0.00022,0.0,0.0
11.525,4608.015,0.00022,0.0,0.0
11.531,4598.651,0.00022,0.0,0.0
11.538,4598.353,0.00022,0.0,0.0
11.544,4594.893,0.00022,0.0,0.0
11.55,4549.904,0.00022,0.0,0.0
11.557,4538.331,0.00022,0.0,0.0
11.563,4522.44,0.00022,0.0,0.0
11.569,4499.952,0.00022,0.0,0.0
11.576,4499.404,0.00022,0.0,0.0
11.582,4487.764,0.00022,0.0,0.0
11.588,4487.151,0.00022,0.0,0.0
11.595,4481.84,0.00022,0.0,0.0
11.601,4477.853,0.00022,0.0,0.0
11.607,4475.654,0.00022,0.0,0.0
11.614,4464.541,0.00022,0.0,0.0
11.62,4463.33,0.00022,0.0,0.0
11.626,4476.819,0.00022,0.0,0.0
11.632,4470.555,0.00022,0.0,0.0
11.639,4470.761,0.00022,0.0,0.0
11.645,4466.148,0.00022,0.0,0.0
11.651,4455.035,0.00022,0.0,0.0
11.658,4480.267,0.00022,0.0,0.0
11.664,4458.964,0.00022,0.0,0.0
11.67,4459.844,0.00022,0.0,0.0
11.677,4451.574,0.00022,0.0,0.0
11.683,4464.701,0.00022,0.0,0.0
11.689,4464.42,0.00022,0.0,0.0
11.696,4450.878,0.00022,0.0,0.0
11.702,4459.4,0.00022,0.0,0.0
11.708,4454.68,0.00022,0.0,0.0
11.715,4445.689,0.00022,0.0,0.0
11.721,4437.87,0.00023,0.0,0.0
11.727,4439.003,0.00023,0.0,0.0
11.734,4439.155,0.00023,0.0,0.0
11.74,4447.677,0.00022,0.0,0.0
11.746,4434.314,0.00023,0.0,0.0
11.753,4436.396,0.00023,0.0,0.0
11.759,4428.961,0.00023,0.0,0.0
11.765,4453.556,0.00022,0.0,0.0
11.772,4427.233,0.00023,0.0,0.0
11.778,4452.709,0.00022,0.0,0.0
11.784,4442.05,0.00023,0.0,0.0
11.79,4427.736,0.00023,0.0,0.0
11.797,4438.716,0.00023,0.0,0.0
11.803,4421.556,0.00023,0.0,0.0
11.809,4408.327,0.00023,0.0,0.0
11.816,4417.693,0.00023,0.0,0.0
11.822,4395.426,0.00023,0.0,0.0
11.828,4401.17,0.00023,0.0,0.0
11.835,4411.105,0.00023,0.0,0.0
11.841,4406.493,0.00023,0.0,0.0
11.847,4410.212,0.00023,0.0,0.0
11.854,4399.286,0.00023,0.0,0.0
11.86,4408.803,0.00023,0.0,0.0
11.866,4393.423,0.00023,0.0,0.0
11.873,4388.172,0.00023,0.0,0.0
11.879,4402.192,0.00023,0.0,0.0
11.885,4377.392,0.00023,0.0,0.0
11.892,4387.496,0.00023,0.0,0.0
11.898,4370.082,0.00023,0.0,0.0
11.904,4400.669,0.00023,0.0,0.0
11.911,4398.876,0.00023,0.0,0.0
11.917,4388.239,0.00023,0.0,0.0
11.923,4380.534,0.00023,0.0,0.0
11.93,4379.597,0.00023,0.0,0.0
11.936,4374.981,0.00023,0.0,0.0
11.942,4391.119,0.00023,0.0,0.0
11.948,4402.332,0.00023,0.0,0.0
11.955,4383.75,0.00023,0.0,0.0
11.961,4402.717,0.00023,0.0,0.0
11.967,4400.75,0.00023,0.0,0.0
11.974,4393.441,0.00023,0.0,0.0
11.98,4393.481,0.00023,0.0,0.0
11.986,4381.22,0.00023,0.0,0.0
11.993,4413.32,0.00023,0.0,0.0
11.999,4424.384,0.00023,0.0,0.0
12.005,4395.877,0.00023,0.0,0.0
12.012,4423.301,0.00023,0.0,0.0
12.018,4425.581,0.00023,0.0,0.0
12.024,4422.036,0.00023,0.0,0.0
12.031,4424.569,0.00023,0.0,0.0
12.037,4428.769,0.00023,0.0,0.0
12.043,4462.63,0.00022,0.0,0.0
12.05,4521.64,0.00022,0.0,0.0
12.056,4513.57,0.00022,0.0,0.0
12.062,4689.916,0.00021,0.0,0.0
12.069,4700.358,0.00021,0.0,0.0
12.075,4616.619,0.00022,0.0,0.0
12.081,6147.345,0.00016,0.0,0.0
12.088,5290.939,0.00019,0.0,0.0
12.094,6938.513,0.00014,0.0,0.0
12.1,8517.921,0.00012,0.0,0.0
12.106,5471.118,0.00018,0.0,0.0
12.113,6654.423,0.00015,0.0,0.0
12.119,5106.436,0.0002,0.0,0.0
12.125,4637.508,0.00022,0.0,0.0
12.132,4658.062,0.00021,0.0,0.0
12.138,4404.465,0.00023,0.0,0.0
12.144,4450.044,0.00022,0.0,0.0
12.151,4406.65,0.00023,0.0,0.0
12.157,4351.976,0.00023,0.0,0.0
12.163,4360.834,0.00023,0.0,0.0
12.17,4316.693,0.00023,0.0,0.0
12.176,4330.702,0.00023,0.0,0.0
12.182,4274.49,0.00023,0.0,0.0
12.189,4294.871,0.00023,0.0,0.0
12.195,4251.379,0.00024,0.0,0.0
12.201,4282.728,0.00023,0.0,0.0
12.208,4260.464,0.00023,0.0,0.0
12.214,4228.871,0.00024,0.0,0.0
12.22,4235.471,0.00024,0.0,0.0
12.227,4204.005,0.00024,0.0,0.0
12.233,4214.118,0.00024,0.0,0.0
12.239,4183.586,0.00024,0.0,0.0
12.246,4193.754,0.00024,0.0,0.0
12.252,4160.913,0.00024,0.0,0.0
12.258,4205.803,0.00024,0.0,0.0
12.264,4178.904,0.00024,0.0,0.0
12.271,4167.871,0.00024,0.0,0.0
12.277,4165.692,0.00024,0.0,0.0
12.283,4133.424,0.00024,0.0,0.0
12.29,4155.048,0.00024,0.0,0.0
12.296,4128.952,0.00024,0.0,0.0
12.302,4152.534,0.00024,0.0,0.0
12.309,4116.399,0.00024,0.0,0.0
12.315,4128.61,0.00024,0.0,0.0
12.321,4115.417,0.00024,0.0,0.0
12.328,4114.764,0.00024,0.0,0.0
12.334,4110.18,0.00024,0.0,0.0
12.34,4069.394,0.00025,0.0,0.0
12.347,4101.329,0.00024,0.0,0.0
12.353,4092.376,0.00024,0.0,0.0
12.359,4110.464,0.00024,0.0,0.0
12.366,4064.066,0.00025,0.0,0.0
12.372,4125.527,0.00024,0.0,0.0
12.378,4088.59,0.00024,0.0,0.0
12.385,4084.928,0.00024,0.0,0.0
12.391,4084.215,0.00024,0.0,0.0
12.397,4064.523,0.00025,0.0,0.0
12.404,4073.728,0.00025,0.0,0.0
12.41,4062.543,0.00025,0.0,0.0
12.416,4075.933,0.00025,0.0,0.0
12.422,4044.87,0.00025,0.0,0.0
12.429,4058.916,0.00025,0.0,0.0
12.435,4048.701,0.00025,0.0,0.0
12.441,4034.743,0.00025,0.0,0.0
12.448,4047.084,0.00025,0.0,0.0
12.454,4035.922,0.00025,0.0,0.0
12.46,4031.47,0.00025,0.0,0.0
12.467,4051.609,0.00025,0.0,0.0
12.473,4031.053,0.00025,0.0,0.0
12.479,4030.666,0.00025,0.0,0.0
12.486,4053.588,0.00025,0.0,0.0
12.492,4048.925,0.00025,0.0,0.0
12.498,4056.596,0.00025,0.0,0.0
12.505,4071.053,0.00025,0.0,0.0
12.511,4066.414,0.00025,0.0,0.0
12.517,4088.465,0.00024,0.0,0.0
12.524,4061.593,0.00025,0.0,0.0
12.53,4089.543,0.00024,0.0,0.0
12.536,4059.066,0.00025,0.0,0.0
12.543,4058.681,0.00025,0.0,0.0
12.549,4050.499,0.00025,0.0,0.0
12.555,4056.32,0.00025,0.0,0.0
12.562,4051.973,0.00025,0.0,0.0
12.568,4058.802,0.00025,0.0,0.0
12.574,4051.901,0.00025,0.0,0.0
12.58,4078.825,0.00025,0.0,0.0
12.587,4075.782,0.00025,0.0,0.0
12.593,4089.465,0.00024,0.0,0.0
12.599,4100.962,0.00024,0.0,0.0
12.606,4136.01,0.00024,0.0,0.0
12.612,4181.785,0.00024,0.0,0.0
12.618,4229.111,0.00024,0.0,0.0
12.625,4309.101,0.00023,0.0,0.0
12.631,4438.898,0.00023,0.0,0.0
12.637,4607.512,0.00022,0.0,0.0
12.644,4969.245,0.0002,0.0,0.0
12.65,5377.007,0.00019,0.0,0.0
12.656,6394.423,0.00016,0.0,0.0
12.663,8069.53,0.00012,0.0,0.0
12.669,10714.424,0.00009,0.0,0.0
12.675,16301.164,0.00006,0.0,0.0
12.682,19825.267,0.00005,0.0,0.0
12.688,28779.011,0.00003,0.0,0.0
12.694,32715.879,0.00003,0.0,0.0
12.701,32882.625,0.00003,0.0,0.0
12.707,31459.821,0.00003,0.0,0.0
12.713,24745.892,0.00004,0.0,0.0
12.72,17976.28,0.00006,0.0,0.0
12.726,12646.16,0.00008,0.0,0.0
12.732,8873.749,0.00011,0.0,0.0
12.738,6745.398,0.00015,0.0,0.0
12.745,5701.965,0.00018,0.0,0.0
12.751,4991.581,0.0002,0.0,0.0
12.757,4662.298,0.00021,0.0,0.0
12.764,4403.164,0.00023,0.0,0.0
12.77,4255.948,0.00023,0.0,0.0
12.776,4172.412,0.00024,0.0,0.0
12.783,4103.149,0.00024,0.0,0.0
12.789,4060.443,0.00025,0.0,0.0
12.795,4013.966,0.00025,0.0,0.0
12.802,3998.944,0.00025,0.0,0.0
12.808,3960.358,0.00025,0.0,0.0
12.814,3950.334,0.00025,0.0,0.0
12.821,3933.997,0.00025,0.0,0.0
12.827,3928.222,0.00025,0.0,0.0
12.833,3922.162,0.00025,0.0,0.0
12.84,3914.348,0.00026,0.0,0.0
12.846,3893.121,0.00026,0.0,0.0
12.852,3893.021,0.00026,0.0,0.0
12.859,3879.277,0.00026,0.0,0.0
12.865,3870.856,0.00026,0.0,0.0
12.871,3870.296,0.00026,0.0,0.0
12.878,3852.911,0.00026,0.0,0.0
12.884,3873.148,0.00026,0.0,0.0
12.89,3849.332,0.00026,0.0,0.0
12.896,3856.09,0.00026,0.0,0.0
12.903,3851.298,0.00026,0.0,0.0
12.909,3843.857,0.00026,0.0,0.0
12.915,3864.99,0.00026,0.0,0.0
12.922,3869.616,0.00026,0.0,0.0
12.928,3894.116,0.00026,0.0,0.0
12.934,3898.56,0.00026,0.0,0.0
12.941,3916.572,0.00026,0.0,0.0
12.947,3927.106,0.00025,0.0,0.0
12.953,3939.337,0.00025,0.0,0.0
12.96,3916.763,0.00026,0.0,0.0
12.966,3911.344,0.00026,0.0,0.0
12.972,3868.586,0.00026,0.0,0.0
12.979,3860.102,0.00026,0.0,0.0
12.985,3820.276,0.00026,0.0,0.0
12.991,3806.09,0.00026,0.0,0.0
12.998,3802.929,0.00026,0.0,0.0
13.004,3793.325,0.00026,0.0,0.0
13.01,3765.007,0.00027,0.0,0.0
13.017,3772.919,0.00027,0.0,0.0
13.023,3762.849,0.00027,0.0,0.0
13.029,3756.859,0.00027,0.0,0.0
13.036,3754.62,0.00027,0.0,0.0
13.042,3748.247,0.00027,0.0,0.0
13.048,3756.757,0.00027,0.0,0.0
13.054,3744.537,0.00027,0.0,0.0
13.061,3735.439,0.00027,0.0,0.0
13.067,3738.136,0.00027,0.0,0.0
13.073,3727.217,0.00027,0.0,0.0
13.08,3737.952,0.00027,0.0,0.0
13.086,3728.702,0.00027,0.0,0.0
13.092,3736.386,0.00027,0.0,0.0
13.099,3719.665,0.00027,0.0,0.0
13.105,3720.247,0.00027,0.0,0.0
13.111,3713.197,0.00027,0.0,0.0
13.118,3700.689,0.00027,0.0,0.0
13.124,3722.126,0.00027,0.0,0.0
13.13,3717.594,0.00027,0.0,0.0
13.137,3694.304,0.00027,0.0,0.0
13.143,3722.381,0.00027,0.0,0.0
13.149,3705.294,0.00027,0.0,0.0
13.156,3727.889,0.00027,0.0,0.0
13.162,3712.787,0.00027,0.0,0.0
13.168,3709.559,0.00027,0.0,0.0
13.175,3722.648,0.00027,0.0,0.0
13.181,3724.734,0.00027,0.0,0.0
13.187,3740.115,0.00027,0.0,0.0
13.194,3752.212,0.00027,0.0,0.0
13.2,3792.295,0.00026,0.0,0.0
13.206,3837.451,0.00026,0.0,0.0
13.212,3916.663,0.00026,0.0,0.0
13.219,4044.439,0.00025,0.0,0.0
13.225,4302.991,0.00023,0.0,0.0
13.231,4770.798,0.00021,0.0,0.0
13.238,5570.413,0.00018,0.0,0.0
13.244,6820.928,0.00015,0.0,0.0
13.25,8661.888,0.00012,0.0,0.0
13.257,10254.899,0.0001,0.0,0.0
13.263,11671.935,0.00009,0.0,0.0
13.269,11514.045,0.00009,0.0,0.0
13.276,10587.769,0.00009,0.0,0.0
13.282,8717.245,0.00011,0.0,0.0
13.288,7056.396,0.00014,0.0,0.0
13.295,5568.46,0.00018,0.0,0.0
13.301,4807.292,0.00021,0.0,0.0
13.307,4290.092,0.00023,0.0,0.0
13.314,4007.835,0.00025,0.0,0.0
13.32,3857.502,0.00026,0.0,0.0
13.326,3774.455,0.00026,0.0,0.0
13.333,3722.873,0.00027,0.0,0.0
13.339,3679.996,0.00027,0.0,0.0
13.345,3653.943,0.00027,0.0,0.0
13.352,3642.855,0.00027,0.0,0.0
13.358,3621.526,0.00028,0.0,0.0
13.364,3625.868,0.00028,0.0,0.0
13.37,3611.054,0.00028,0.0,0.0
13.377,3602.407,0.00028,0.0,0.0
13.383,3603.48,0.00028,0.0,0.0
13.389,3604.986,0.00028,0.0,0.0
13.396,3582.415,0.00028,0.0,0.0
13.402,3598.329,0.00028,0.0,0.0
13.408,3574.066,0.00028,0.0,0.0
13.415,3574.689,0.00028,0.0,0.0
13.421,3569.752,0.00028,0.0,0.0
13.427,3561.837,0.00028,0.0,0.0
13.434,3556.413,0.00028,0.0,0.0
13.44,3546.954,0.00028,0.0,0.0
13.446,3559.853,0.00028,0.0,0.0
13.453,3536.898,0.00028,0.0,0.0
13.459,3540.446,0.00028,0.0,0.0
13.465,3532.155,0.00028,0.0,0.0
13.472,3530.491,0.00028,0.0,0.0
13.478,3529.299,0.00028,0.0,0.0
13.484,3522.683,0.00028,0.0,0.0
13.491,3525.729,0.00028,0.0,0.0
13.497,3525.375,0.00028,0.0,0.0
13.503,3505.778,0.00029,0.0,0.0
13.51,3517.598,0.00028,0.0,0.0
13.516,3512.167,0.00028,0.0,0.0
13.522,3510.5,0.00028,0.0,0.0
13.528,3511.282,0.00028,0.0,0.0
13.535,3496.451,0.00029,0.0,0.0
13.541,3500.994,0.00029,0.0,0.0
13.547,3488.052,0.00029,0.0,0.0
13.554,3493.129,0.00029,0.0,0.0
13.56,3492.315,0.00029,0.0,0.0
13.566,3501.315,0.00029,0.0,0.0
13.573,3493.128,0.00029,0.0,0.0
13.579,3468.968,0.00029,0.0,0.0
13.585,3485.111,0.00029,0.0,0.0
13.592,3477.866,0.00029,0.0,0.0
13.598,3465.895,0.00029,0.0,0.0
13.604,3480.524,0.00029,0.0,0.0
13.611,3480.706,0.00029,0.0,0.0
13.617,3475.256,0.00029,0.0,0.0
13.623,3485.878,0.00029,0.0,0.0
13.63,3485.581,0.00029,0.0,0.0
13.636,3488.108,0.00029,0.0,0.0
13.642,3483.896,0.00029,0.0,0.0
13.649,3488.946,0.00029,0.0,0.0
13.655,3498.573,0.00029,0.0,0.0
13.661,3489.579,0.00029,0.0,0.0
13.668,3494.529,0.00029,0.0,0.0
13.674,3478.385,0.00029,0.0,0.0
13.68,3477.825,0.00029,0.0,0.0
13.686,3463.359,0.00029,0.0,0.0
13.693,3470.373,0.00029,0.0,0.0
13.699,3470.601,0.00029,0.0,0.0
13.705,3467.17,0.00029,0.0,0.0
13.712,3448.072,0.00029,0.0,0.0
13.718,3469.522,0.00029,0.0,0.0
13.724,3448.254,0.00029,0.0,0.0
13.731,3467.501,0.00029,0.0,0.0
13.737,3450.595,0.00029,0.0,0.0
13.743,3443.944,0.00029,0.0,0.0
13.75,3439.329,0.00029,0.0,0.0
13.756,3432.917,0.00029,0.0,0.0
13.762,3435.09,0.00029,0.0,0.0
13.769,3420.326,0.00029,0.0,0.0
13.775,3408.485,0.00029,0.0,0.0
13.781,3418.407,0.00029,0.0,0.0
13.788,3416.726,0.00029,0.0,0.0
13.794,3407.498,0.00029,0.0,0.0
13.8,3410.802,0.00029,0.0,0.0
13.807,3413.171,0.00029,0.0,0.0
13.813,3417.287,0.00029,0.0,0.0
13.819,3397.356,0.00029,0.0,0.0
13.826,3402.881,0.00029,0.0,0.0
13.832,3395.012,0.00029,0.0,0.0
13.838,3397.769,0.00029,0.0,0.0
13.844,3399.793,0.00029,0.0,0.0
13.851,3389.911,0.00029,0.0,0.0
13.857,3380.16,0.0003,0.0,0.0
13.863,3383.876,0.0003,0.0,0.0
13.87,3384.143,0.0003,0.0,0.0
13.876,3389.245,0.0003,0.0,0.0
13.882,3372.744,0.0003,0.0,0.0
13.889,3368.441,0.0003,0.0,0.0
13.895,3374.27,0.0003,0.0,0.0
13.901,3372.943,0.0003,0.0,0.0
13.908,3357.927,0.0003,0.0,0.0
13.914,3350.687,0.0003,0.0,0.0
13.92,3347.693,0.0003,0.0,0.0
13.927,3353.083,0.0003,0.0,0.0
13.933,3368.774,0.0003,0.0,0.0
13.939,3354.347,0.0003,0.0,0.0
13.946,3353.768,0.0003,0.0,0.0
13.952,3339.78,0.0003,0.0,0.0
13.958,3351.626,0.0003,0.0,0.0
13.965,3339.978,0.0003,0.0,0.0
13.971,3338.54,0.0003,0.0,0.0
13.977,3340.31,0.0003,0.0,0.0
13.984,3333.389,0.0003,0.0,0.0
13.99,3341.44,0.0003,0.0,0.0
13.996,3336.34,0.0003,0.0,0.0
14.002,3332.402,0.0003,0.0,0.0
14.009,3330.671,0.0003,0.0,0.0
14.015,3337.115,0.0003,0.0,0.0
14.021,3325.314,0.0003,0.0,0.0
14.028,3310.748,0.0003,0.0,0.0
14.034,3324.214,0.0003,0.0,0.0
14.04,3321.869,0.0003,0.0,0.0
14.047,3312.831,0.0003,0.0,0.0
14.053,3311.146,0.0003,0.0,0.0
14.059,3313.645,0.0003,0.0,0.0
14.066,3312.005,0.0003,0.0,0.0
14.072,3309.409,0.0003,0.0,0.0
14.078,3308.487,0.0003,0.0,0.0
14.085,3304.612,0.0003,0.0,0.0
14.091,3302.539,0.0003,0.0,0.0
14.097,3281.388,0.0003,0.0,0.0
14.104,3303.698,0.0003,0.0,0.0
14.11,3290.471,0.0003,0.0,0.0
14.116,3304.073,0.0003,0.0,0.0
14.123,3285.312,0.0003,0.0,0.0
14.129,3285.762,0.0003,0.0,0.0
14.135,3296.825,0.0003,0.0,0.0
14.142,3291.918,0.0003,0.0,0.0
14.148,3295.809,0.0003,0.0,0.0
14.154,3285.18,0.0003,0.0,0.0
14.16,3282.768,0.0003,0.0,0.0
14.167,3279.089,0.0003,0.0,0.0
14.173,3280.928,0.0003,0.0,0.0
14.179,3278.549,0.00031,0.0,0.0
14.186,3281.649,0.0003,0.0,0.0
14.192,3284.427,0.0003,0.0,0.0
14.198,3270.58,0.00031,0.0,0.0
14.205,3266.125,0.00031,0.0,0.0
14.211,3281.841,0.0003,0.0,0.0
14.217,3273.991,0.00031,0.0,0.0
14.224,3289.601,0.0003,0.0,0.0
14.23,3286.901,0.0003,0.0,0.0
14.236,3288.442,0.0003,0.0,0.0
14.243,3296.871,0.0003,0.0,0.0
14.249,3305.204,0.0003,0.0,0.0
14.255,3302.31,0.0003,0.0,0.0
14.262,3330.088,0.0003,0.0,0.0
14.268,3327.059,0.0003,0.0,0.0
14.274,3310.881,0.0003,0.0,0.0
14.281,3308.885,0.0003,0.0,0.0
14.287,3296.866,0.0003,0.0,0.0
14.293,3286.449,0.0003,0.0,0.0
14.3,3275.169,0.00031,0.0,0.0
14.306,3266.261,0.00031,0.0,0.0
14.312,3263.476,0.00031,0.0,0.0
14.318,3259.7,0.00031,0.0,0.0
14.325,3248.794,0.00031,0.0,0.0
14.331,3249.926,0.00031,0.0,0.0
14.337,3247.624,0.00031,0.0,0.0
14.344,3243.894,0.00031,0.0,0.0
14.35,3241.91,0.00031,0.0,0.0
14.356,3240.426,0.00031,0.0,0.0
14.363,3220.508,0.00031,0.0,0.0
14.369,3235.054,0.00031,0.0,0.0
14.375,3231.599,0.00031,0.0,0.0
14.382,3236.647,0.00031,0.0,0.0
14.388,3218.261,0.00031,0.0,0.0
14.394,3228.365,0.00031,0.0,0.0
14.401,3229.933,0.00031,0.0,0.0
14.407,3213.397,0.00031,0.0,0.0
14.413,3217.886,0.00031,0.0,0.0
14.42,3216.867,0.00031,0.0,0.0
14.426,3227.98,0.00031,0.0,0.0
14.432,3211.076,0.00031,0.0,0.0
14.439,3218.204,0.00031,0.0,0.0
14.445,3222.002,0.00031,0.0,0.0
14.451,3216.065,0.00031,0.0,0.0
14.458,3213.842,0.00031,0.0,0.0
14.464,3215.298,0.00031,0.0,0.0
14.47,3213.689,0.00031,0.0,0.0
14.476,3212.131,0.00031,0.0,0.0
14.483,3211.266,0.00031,0.0,0.0
14.489,3208.681,0.00031,0.0,0.0
14.495,3201.053,0.00031,0.0,0.0
14.502,3197.493,0.00031,0.0,0.0
14.508,3195.595,0.00031,0.0,0.0
14.514,3191.889,0.00031,0.0,0.0
14.521,3204.206,0.00031,0.0,0.0
14.527,3200.628,0.00031,0.0,0.0
14.533,3192.404,0.00031,0.0,0.0
14.54,3185.852,0.00031,0.0,0.0
14.546,3194.61,0.00031,0.0,0.0
14.552,3190.276,0.00031,0.0,0.0
14.559,3183.812,0.00031,0.0,0.0
14.565,3186.667,0.00031,0.0,0.0
14.571,3184.199,0.00031,0.0,0.0
14.578,3189.887,0.00031,0.0,0.0
14.584,3189.782,0.00031,0.0,0.0
14.59,3195.534,0.00031,0.0,0.0
14.597,3191.069,0.00031,0.0,0.0
14.603,3177.544,0.00031,0.0,0.0
14.609,3183.119,0.00031,0.0,0.0
14.616,3183.732,0.00031,0.0,0.0
14.622,3177.145,0.00031,0.0,0.0
14.628,3181.675,0.00031,0.0,0.0
14.634,3178.485,0.00031,0.0,0.0
14.641,3171.179,0.00032,0.0,0.0
14.647,3161.8,0.00032,0.0,0.0
14.653,3170.217,0.00032,0.0,0.0
14.66,3170.654,0.00032,0.0,0.0
14.666,3167.788,0.00032,0.0,0.0
14.672,3166.934,0.00032,0.0,0.0
14.679,3168.148,0.00032,0.0,0.0
14.685,3171.241,0.00032,0.0,0.0
14.691,3156.844,0.00032,0.0,0.0
14.698,3155.113,0.00032,0.0,0.0
14.704,3162.596,0.00032,0.0,0.0
14.71,3159.502,0.00032,0.0,0.0
14.717,3159.393,0.00032,0.0,0.0
14.723,3158.326,0.00032,0.0,0.0
14.729,3146.152,0.00032,0.0,0.0
14.736,3154.234,0.00032,0.0,0.0
14.742,3151.18,0.00032,0.0,0.0
14.748,3158.793,0.00032,0.0,0.0
14.755,3163.228,0.00032,0.0,0.0
14.761,3143.855,0.00032,0.0,0.0
14.767,3153.961,0.00032,0.0,0.0
14.774,3147.762,0.00032,0.0,0.0
14.78,3146.875,0.00032,0.0,0.0
14.786,3152.375,0.00032,0.0,0.0
14.792,3166.81,0.00032,0.0,0.0
14.799,3154.536,0.00032,0.0,0.0
14.805,3144.716,0.00032,0.0,0.0
14.811,3158.25,0.00032,0.0,0.0
14.818,3150.399,0.00032,0.0,0.0
14.824,3153.115,0.00032,0.0,0.0
14.83,3146.839,0.00032,0.0,0.0
14.837,3141.3,0.00032,0.0,0.0
14.843,3148.901,0.00032,0.0,0.0
14.849,3157.431,0.00032,0.0,0.0
14.856,3134.333,0.00032,0.0,0.0
14.862,3153.272,0.00032,0.0,0.0
14.868,3138.272,0.00032,0.0,0.0
14.875,3138.8,0.00032,0.0,0.0
14.881,3140.512,0.00032,0.0,0.0
14.887,3134.943,0.00032,0.0,0.0
14.894,3147.87,0.00032,0.0,0.0
14.9,3138.736,0.00032,0.0,0.0
14.906,3130.72,0.00032,0.0,0.0
14.913,3146.05,0.00032,0.0,0.0
14.919,3134.603,0.00032,0.0,0.0
14.925,3130.273,0.00032,0.0,0.0
14.932,3140.353,0.00032,0.0,0.0
14.938,3147.2,0.00032,0.0,0.0
14.944,3131.498,0.00032,0.0,0.0
14.95,3141.136,0.00032,0.0,0.0
14.957,3140.398,0.00032,0.0,0.0
14.963,3137.717,0.00032,0.0,0.0
14.969,3135.048,0.00032,0.0,0.0
14.976,3138.191,0.00032,0.0,0.0
14.982,3132.938,0.00032,0.0,0.0
14.988,3131.446,0.00032,0.0,0.0
14.995,3126.106,0.00032,0.0,0.0
15.001,3128.158,0.00032,0.0,0.0
15.007,3128.09,0.00032,0.0,0.0
15.014,3131.041,0.00032,0.0,0.0
15.02,3125.568,0.00032,0.0,0.0
15.026,3115.518,0.00032,0.0,0.0
15.033,3119.279,0.00032,0.0,0.0
15.039,3121.74,0.00032,0.0,0.0
15.045,3122.357,0.00032,0.0,0.0
15.052,3118.238,0.00032,0.0,0.0
15.058,3120.649,0.00032,0.0,0.0
15.064,3102.878,0.00032,0.0,0.0
15.071,3121.272,0.00032,0.0,0.0
15.077,3115.166,0.00032,0.0,0.0
15.083,3131.748,0.00032,0.0,0.0
15.09,3114.948,0.00032,0.0,0.0
15.096,3127.228,0.00032,0.0,0.0
15.102,3133.311,0.00032,0.0,0.0
15.108,3125.409,0.00032,0.0,0.0
15.115,3127.355,0.00032,0.0,0.0
15.121,3119.711,0.00032,0.0,0.0
15.127,3119.058,0.00032,0.0,0.0
15.134,3112.032,0.00032,0.0,0.0
15.14,3123.963,0.00032,0.0,0.0
15.146,3118.052,0.00032,0.0,0.0
15.153,3125.604,0.00032,0.0,0.0
15.159,3126.383,0.00032,0.0,0.0
15.165,3120.54,0.00032,0.0,0.0
15.172,3127.645,0.00032,0.0,0.0
15.178,3118.556,0.00032,0.0,0.0
15.184,3122.95,0.00032,0.0,0.0
15.191,3127.891,0.00032,0.0,0.0
15.197,3121.068,0.00032,0.0,0.0
15.203,3122.577,0.00032,0.0,0.0
15.21,3119.831,0.00032,0.0,0.0
15.216,3134.385,0.00032,0.0,0.0
15.222,3124.232,0.00032,0.0,0.0
15.229,3120.156,0.00032,0.0,0.0
15.235,3134.427,0.00032,0.0,0.0
15.241,3150.969,0.00032,0.0,0.0
15.248,3140.214,0.00032,0.0,0.0
15.254,3167.922,0.00032,0.0,0.0
15.26,3183.315,0.00031,0.0,0.0
15.266,3203.044,0.00031,0.0,0.0
15.273,3251.74,0.00031,0.0,0.0
15.279,3313.838,0.0003,0.0,0.0
15.285,3448.332,0.00029,0.0,0.0
15.292,3668.11,0.00027,0.0,0.0
15.298,3971.431,0.00025,0.0,0.0
15.304,4527.861,0.00022,0.0,0.0
15.311,5067.315,0.0002,0.0,0.0
15.317,5717.333,0.00017,0.0,0.0
15.323,6262.881,0.00016,0.0,0.0
15.33,6104.862,0.00016,0.0,0.0
15.336,6069.181,0.00016,0.0,0.0
15.342,5260.264,0.00019,0.0,0.0
15.349,4595.231,0.00022,0.0,0.0
15.355,4187.113,0.00024,0.0,0.0
15.361,3647.445,0.00027,0.0,0.0
15.368,3487.419,0.00029,0.0,0.0
15.374,3320.975,0.0003,0.0,0.0
15.38,3249.036,0.00031,0.0,0.0
15.387,3200.463,0.00031,0.0,0.0
15.393,3170.192,0.00032,0.0,0.0
15.399,3137.633,0.00032,0.0,0.0
15.406,3132.933,0.00032,0.0,0.0
15.412,3120.98,0.00032,0.0,0.0
15.418,3127.861,0.00032,0.0,0.0
15.424,3106.893,0.00032,0.0,0.0
15.431,3114.188,0.00032,0.0,0.0
15.437,3119.147,0.00032,0.0,0.0
15.443,3107.369,0.00032,0.0,0.0
15.45,3105.629,0.00032,0.0,0.0
15.456,3095.458,0.00032,0.0,0.0
15.462,3099.362,0.00032,0.0,0.0
15.469,3107.097,0.00032,0.0,0.0
15.475,3090.417,0.00032,0.0,0.0
15.481,3099.448,0.00032,0.0,0.0
15.488,3089.981,0.00032,0.0,0.0
15.494,3087.675,0.00032,0.0,0.0
15.5,3077.764,0.00032,0.0,0.0
15.507,3083.272,0.00032,0.0,0.0
15.513,3083.77,0.00032,0.0,0.0
15.519,3088.863,0.00032,0.0,0.0
15.526,3080.75,0.00032,0.0,0.0
15.532,3074.498,0.00033,0.0,0.0
15.538,3066.47,0.00033,0.0,0.0
15.545,3060.713,0.00033,0.0,0.0
15.551,3072.568,0.00033,0.0,0.0
15.557,3055.815,0.00033,0.0,0.0
15.564,3051.305,0.00033,0.0,0.0
15.57,3049.321,0.00033,0.0,0.0
15.576,3044.611,0.00033,0.0,0.0
15.582,3049.073,0.00033,0.0,0.0
15.589,3051.084,0.00033,0.0,0.0
15.595,3052.402,0.00033,0.0,0.0
15.601,3040.047,0.00033,0.0,0.0
15.608,3030.185,0.00033,0.0,0.0
15.614,3026.832,0.00033,0.0,0.0
15.62,3036.009,0.00033,0.0,0.0
15.627,3031.336,0.00033,0.0,0.0
15.633,3021.192,0.00033,0.0,0.0
15.639,3036.811,0.00033,0.0,0.0
15.646,3025.551,0.00033,0.0,0.0
15.652,3018.372,0.00033,0.0,0.0
15.658,3018.661,0.00033,0.0,0.0
15.665,3015.845,0.00033,0.0,0.0
15.671,3029.104,0.00033,0.0,0.0
15.677,3015.513,0.00033,0.0,0.0
15.684,3009.532,0.00033,0.0,0.0
15.69,2998.746,0.00033,0.0,0.0
15.696,2999.612,0.00033,0.0,0.0
15.703,2996.188,0.00033,0.0,0.0
15.709,3001.472,0.00033,0.0,0.0
15.715,3005.888,0.00033,0.0,0.0
15.722,2997.509,0.00033,0.0,0.0
15.728,2978.807,0.00034,0.0,0.0
15.734,2993.695,0.00033,0.0,0.0
15.74,2986.687,0.00033,0.0,0.0
15.747,2986.332,0.00033,0.0,0.0
15.753,2988.99,0.00033,0.0,0.0
15.759,2984.909,0.00034,0.0,0.0
15.766,2976.484,0.00034,0.0,0.0
15.772,2977.223,0.00034,0.0,0.0
15.778,2987.125,0.00033,0.0,0.0
15.785,2965.123,0.00034,0.0,0.0
15.791,2974.345,0.00034,0.0,0.0
15.797,2971.506,0.00034,0.0,0.0
15.804,2968.916,0.00034,0.0,0.0
15.81,2969.554,0.00034,0.0,0.0
15.816,2971.4,0.00034,0.0,0.0
15.823,2969.858,0.00034,0.0,0.0
15.829,2965.409,0.00034,0.0,0.0
15.835,2958.249,0.00034,0.0,0.0
15.842,2961.107,0.00034,0.0,0.0
15.848,2972.678,0.00034,0.0,0.0
15.854,2956.881,0.00034,0.0,0.0
15.861,2957.219,0.00034,0.0,0.0
15.867,2954.719,0.00034,0.0,0.0
15.873,2958.532,0.00034,0.0,0.0
15.88,2943.885,0.00034,0.0,0.0
15.886,2944.448,0.00034,0.0,0.0
15.892,2955.906,0.00034,0.0,0.0
15.898,2942.862,0.00034,0.0,0.0
15.905,2949.122,0.00034,0.0,0.0
15.911,2940.306,0.00034,0.0,0.0
15.917,2951.255,0.00034,0.0,0.0
15.924,2941.203,0.00034,0.0,0.0
15.93,2939.925,0.00034,0.0,0.0
15.936,2944.21,0.00034,0.0,0.0
15.943,2944.875,0.00034,0.0,0.0
15.949,2941.521,0.00034,0.0,0.0
15.955,2936.585,0.00034,0.0,0.0
15.962,2929.771,0.00034,0.0,0.0
15.968,2928.724,0.00034,0.0,0.0
15.974,2936.068,0.00034,0.0,0.0
15.981,2932.695,0.00034,0.0,0.0
15.987,2941.614,0.00034,0.0,0.0
15.993,2940.021,0.00034,0.0,0.0
16.0,2923.92,0.00034,0.0,0.0
16.006,2928.625,0.00034,0.0,0.0
16.012,2931.513,0.00034,0.0,0.0
16.019,2916.681,0.00034,0.0,0.0
16.025,2931.382,0.00034,0.0,0.0
16.031,2930.533,0.00034,0.0,0.0
16.038,2920.675,0.00034,0.0,0.0
16.044,2925.205,0.00034,0.0,0.0
16.05,2923.356,0.00034,0.0,0.0
16.056,2921.395,0.00034,0.0,0.0
16.063,2925.69,0.00034,0.0,0.0
16.069,2917.328,0.00034,0.0,0.0
16.075,2928.355,0.00034,0.0,0.0
16.082,2913.369,0.00034,0.0,0.0
16.088,2911.253,0.00034,0.0,0.0
16.094,2912.77,0.00034,0.0,0.0
16.101,2907.647,0.00034,0.0,0.0
16.107,2918.387,0.00034,0.0,0.0
16.113,2911.334,0.00034,0.0,0.0
16.12,2915.111,0.00034,0.0,0.0
16.126,2916.657,0.00034,0.0,0.0
16.132,2914.79,0.00034,0.0,0.0
16.139,2914.19,0.00034,0.0,0.0
16.145,2908.771,0.00034,0.0,0.0
16.151,2908.197,0.00034,0.0,0.0
16.158,2902.098,0.00034,0.0,0.0
16.164,2904.669,0.00034,0.0,0.0
16.17,2910.797,0.00034,0.0,0.0
16.177,2902.32,0.00034,0.0,0.0
16.183,2898.089,0.00035,0.0,0.0
16.189,2909.204,0.00034,0.0,0.0
16.196,2903.185,0.00034,0.0,0.0
16.202,2897.142,0.00035,0.0,0.0
16.208,2898.537,0.00035,0.0,0.0
16.214,2893.35,0.00035,0.0,0.0
16.221,2899.671,0.00034,0.0,0.0
16.227,2908.855,0.00034,0.0,0.0
16.233,2901.205,0.00034,0.0,0.0
16.24,2904.523,0.00034,0.0,0.0
16.246,2900.914,0.00034,0.0,0.0
16.252,2901.607,0.00034,0.0,0.0
16.259,2899.46,0.00034,0.0,0.0
16.265,2902.028,0.00034,0.0,0.0
16.271,2896.116,0.00035,0.0,0.0
16.278,2892.907,0.00035,0.0,0.0
16.284,2893.256,0.00035,0.0,0.0
16.29,2897.474,0.00035,0.0,0.0
16.297,2893.694,0.00035,0.0,0.0
16.303,2888.946,0.00035,0.0,0.0
16.309,2900.661,0.00034,0.0,0.0
16.316,2895.102,0.00035,0.0,0.0
16.322,2910.911,0.00034,0.0,0.0
16.328,2901.493,0.00034,0.0,0.0
16.335,2900.367,0.00034,0.0,0.0
16.341,2906.948,0.00034,0.0,0.0
16.347,2893.301,0.00035,0.0,0.0
16.354,2900.534,0.00034,0.0,0.0
16.36,2891.093,0.00035,0.0,0.0
16.366,2885.968,0.00035,0.0,0.0
16.372,2891.487,0.00035,0.0,0.0
16.379,2886.503,0.00035,0.0,0.0
16.385,2894.032,0.00035,0.0,0.0
16.391,2888.595,0.00035,0.0,0.0
16.398,2898.065,0.00035,0.0,0.0
16.404,2888.672,0.00035,0.0,0.0
16.41,2893.377,0.00035,0.0,0.0
16.417,2896.815,0.00035,0.0,0.0
16.423,2890.563,0.00035,0.0,0.0
16.429,2892.168,0.00035,0.0,0.0
16.436,2888.163,0.00035,0.0,0.0
16.442,2887.1,0.00035,0.0,0.0
16.448,2893.56,0.00035,0.0,0.0
16.455,2879.282,0.00035,0.0,0.0
16.461,2902.264,0.00034,0.0,0.0
16.467,2892.0,0.00035,0.0,0.0
16.474,2905.192,0.00034,0.0,0.0
16.48,2900.482,0.00034,0.0,0.0
16.486,2902.859,0.00034,0.0,0.0
16.493,2909.108,0.00034,0.0,0.0
16.499,2914.496,0.00034,0.0,0.0
16.505,2918.416,0.00034,0.0,0.0
16.512,2924.706,0.00034,0.0,0.0
16.518,2925.032,0.00034,0.0,0.0
16.524,2916.034,0.00034,0.0,0.0
16.53,2904.003,0.00034,0.0,0.0
16.537,2911.208,0.00034,0.0,0.0
16.543,2899.251,0.00034,0.0,0.0
16.549,2911.659,0.00034,0.0,0.0
16.556,2916.79,0.00034,0.0,0.0
16.562,2915.861,0.00034,0.0,0.0
16.568,2925.496,0.00034,0.0,0.0
16.575,2910.776,0.00034,0.0,0.0
16.581,2912.375,0.00034,0.0,0.0
16.587,2907.025,0.00034,0.0,0.0
16.594,2924.244,0.00034,0.0,0.0
