"x","y_obs","weight","y_calc","y_bkg"
0.8,243.451,0.00411,0.0,0.0
0.822,495.543,0.00202,0.0,0.0
0.845,325.225,0.00307,0.0,0.0
0.867,371.476,0.00269,0.0,0.0
0.889,495.356,0.00202,0.0,0.0
0.912,399.486,0.0025,0.0,0.0
0.934,593.787,0.00168,0.0,0.0
0.956,557.359,0.00179,0.0,0.0
0.978,629.97,0.00159,0.0,0.0
1.001,678.475,0.00147,0.0,0.0
1.023,739.045,0.00135,0.0,0.0
1.045,764.887,0.00131,0.0,0.0
1.068,831.633,0.0012,0.0,0.0
1.09,843.445,0.00119,0.0,0.0
1.112,911.463,0.0011,0.0,0.0
1.135,969.241,0.00103,0.0,0.0
1.157,944.178,0.00106,0.0,0.0
1.179,1022.144,0.00098,0.0,0.0
1.201,974.458,0.00103,0.0,0.0
1.224,1035.149,0.00097,0.0,0.0
1.246,1070.416,0.00093,0.0,0.0
1.268,1060.125,0.00094,0.0,0.0
1.291,1108.483,0.0009,0.0,0.0
1.313,1094.378,0.00091,0.0,0.0
1.335,1149.09,0.00087,0.0,0.0
1.357,1131.63,0.00088,0.0,0.0
1.38,1156.399,0.00086,0.0,0.0
1.402,1175.484,0.00085,0.0,0.0
1.424,1180.261,0.00085,0.0,0.0
1.447,1169.972,0.00085,0.0,0.0
1.469,1190.415,0.00084,0.0,0.0
1.491,1211.453,0.00083,0.0,0.0
1.514,1230.329,0.00081,0.0,0.0
1.536,1240.344,0.00081,0.0,0.0
1.558,1218.488,0.00082,0.0,0.0
1.581,1242.231,0.00081,0.0,0.0
1.603,1247.514,0.0008,0.0,0.0
1.625,1244.85,0.0008,0.0,0.0
1.647,1275.217,0.00078,0.0,0.0
1.67,1244.194,0.0008,0.0,0.0
1.692,1284.864,0.00078,0.0,0.0
1.714,1270.156,0.00079,0.0,0.0
1.737,1323.149,0.00076,0.0,0.0
1.759,1329.764,0.00075,0.0,0.0
1.781,1319.58,0.00076,0.0,0.0
1.804,1337.898,0.00075,0.0,0.0
1.826,1342.172,0.00075,0.0,0.0
1.848,1366.695,0.00073,0.0,0.0
1.87,1371.835,0.00073,0.0,0.0
1.893,1333.151,0.00075,0.0,0.0
1.915,1401.585,0.00071,0.0,0.0
1.937,1368.125,0.00073,0.0,0.0
1.96,1394.518,0.00072,0.0,0.0
1.982,1443.267,0.00069,0.0,0.0
2.004,1401.96,0.00071,0.0,0.0
2.026,1498.265,0.00067,0.0,0.0
2.049,1471.113,0.00068,0.0,0.0
2.071,1483.648,0.00067,0.0,0.0
2.093,1530.961,0.00065,0.0,0.0
2.116,1513.3,0.00066,0.0,0.0
2.138,1580.561,0.00063,0.0,0.0
2.16,1600.449,0.00062,0.0,0.0
2.183,1550.966,0.00064,0.0,0.0
2.205,1668.393,0.0006,0.0,0.0
2.227,1633.109,0.00061,0.0,0.0
2.25,1702.254,0.00059,0.0,0.0
2.272,1716.762,0.00058,0.0,0.0
2.294,1710.385,0.00058,0.0,0.0
2.316,1853.167,0.00054,0.0,0.0
2.339,1783.504,0.00056,0.0,0.0
2.361,1848.243,0.00054,0.0,0.0
2.383,1923.068,0.00052,0.0,0.0
2.406,1876.367,0.00053,0.0,0.0
2.428,1984.495,0.0005,0.0,0.0
2.45,1996.855,0.0005,0.0,0.0
2.473,2023.726,0.00049,0.0,0.0
2.495,2097.77,0.00048,0.0,0.0
2.517,2087.115,0.00048,0.0,0.0
2.539,2187.346,0.00046,0.0,0.0
2.562,2176.607,0.00046,0.0,0.0
2.584,2205.455,0.00045,0.0,0.0
2.606,2321.782,0.00043,0.0,0.0
2.629,2306.39,0.00043,0.0,0.0
2.651,2364.752,0.00042,0.0,0.0
2.673,2406.55,0.00042,0.0,0.0
2.696,2434.354,0.00041,0.0,0.0
2.718,2527.838,0.0004,0.0,0.0
2.74,2573.339,0.00039,0.0,0.0
2.762,2618.9,0.00038,0.0,0.0
2.785,2697.372,0.00037,0.0,0.0
2.807,2754.804,0.00036,0.0,0.0
2.829,2861.654,0.00035,0.0,0.0
2.852,2895.685,0.00035,0.0,0.0
2.874,2988.097,0.00033,0.0,0.0
2.896,3093.373,0.00032,0.0,0.0
2.918,3162.845,0.00032,0.0,0.0
2.941,3228.577,0.00031,0.0,0.0
2.963,3329.383,0.0003,0.0,0.0
2.985,3417.589,0.00029,0.0,0.0
3.008,3488.257,0.00029,0.0,0.0
3.03,3529.476,0.00028,0.0,0.0
3.052,3595.454,0.00028,0.0,0.0
3.075,3620.155,0.00028,0.0,0.0
3.097,3642.124,0.00027,0.0,0.0
3.119,3644.218,0.00027,0.0,0.0
3.141,3599.271,0.00028,0.0,0.0
3.164,3631.97,0.00028,0.0,0.0
3.186,3554.582,0.00028,0.0,0.0
3.208,3506.236,0.00029,0.0,0.0
3.231,3469.316,0.00029,0.0,0.0
3.253,3418.236,0.00029,0.0,0.0
3.275,3365.87,0.0003,0.0,0.0
3.298,3303.14,0.0003,0.0,0.0
3.32,3257.075,0.00031,0.0,0.0
3.342,3220.392,0.00031,0.0,0.0
3.365,3159.744,0.00032,0.0,0.0
3.387,3138.477,0.00032,0.0,0.0
3.409,3138.668,0.00032,0.0,0.0
3.431,3105.016,0.00032,0.0,0.0
3.454,3102.938,0.00032,0.0,0.0
3.476,3074.134,0.00033,0.0,0.0
3.498,3077.251,0.00032,0.0,0.0
3.521,3058.808,0.00033,0.0,0.0
3.543,3059.135,0.00033,0.0,0.0
3.565,3047.31,0.00033,0.0,0.0
3.588,3046.703,0.00033,0.0,0.0
3.61,3034.034,0.00033,0.0,0.0
3.632,3050.817,0.00033,0.0,0.0
3.654,3039.585,0.00033,0.0,0.0
3.677,3020.85,0.00033,0.0,0.0
3.699,3010.562,0.00033,0.0,0.0
3.721,2989.821,0.00033,0.0,0.0
3.744,2976.227,0.00034,0.0,0.0
3.766,3015.625,0.00033,0.0,0.0
3.788,2970.875,0.00034,0.0,0.0
3.811,2999.069,0.00033,0.0,0.0
3.833,2958.041,0.00034,0.0,0.0
3.855,2961.876,0.00034,0.0,0.0
3.877,2936.8,0.00034,0.0,0.0
3.9,2914.915,0.00034,0.0,0.0
3.922,2892.113,0.00035,0.0,0.0
3.944,2884.578,0.00035,0.0,0.0
3.967,2831.388,0.00035,0.0,0.0
3.989,2823.346,0.00035,0.0,0.0
4.011,2767.316,0.00036,0.0,0.0
4.034,2748.168,0.00036,0.0,0.0
4.056,2694.502,0.00037,0.0,0.0
4.078,2666.934,0.00037,0.0,0.0
4.1,2654.478,0.00038,0.0,0.0
4.123,2615.28,0.00038,0.0,0.0
4.145,2600.053,0.00038,0.0,0.0
4.167,2577.331,0.00039,0.0,0.0
4.19,2543.863,0.00039,0.0,0.0
4.212,2532.455,0.00039,0.0,0.0
4.234,2496.078,0.0004,0.0,0.0
4.256,2481.524,0.0004,0.0,0.0
4.279,2485.627,0.0004,0.0,0.0
4.301,2444.092,0.00041,0.0,0.0
4.323,2445.993,0.00041,0.0,0.0
4.346,2408.335,0.00042,0.0,0.0
4.368,2406.677,0.00042,0.0,0.0
4.39,2391.902,0.00042,0.0,0.0
4.413,2371.941,0.00042,0.0,0.0
4.435,2352.918,0.00043,0.0,0.0
4.457,2359.267,0.00042,0.0,0.0
4.479,2337.056,0.00043,0.0,0.0
4.502,2323.565,0.00043,0.0,0.0
4.524,2319.219,0.00043,0.0,0.0
4.546,2326.003,0.00043,0.0,0.0
4.569,2284.147,0.00044,0.0,0.0
4.591,2293.889,0.00044,0.0,0.0
4.613,2281.093,0.00044,0.0,0.0
4.636,2259.165,0.00044,0.0,0.0
4.658,2276.421,0.00044,0.0,0.0
4.68,2247.411,0.00044,0.0,0.0
4.702,2233.5,0.00045,0.0,0.0
4.725,2246.484,0.00045,0.0,0.0
4.747,2216.586,0.00045,0.0,0.0
4.769,2210.862,0.00045,0.0,0.0
4.792,2218.035,0.00045,0.0,0.0
4.814,2185.518,0.00046,0.0,0.0
4.836,2200.839,0.00045,0.0,0.0
4.859,2205.657,0.00045,0.0,0.0
4.881,2207.309,0.00045,0.0,0.0
4.903,2184.833,0.00046,0.0,0.0
4.925,2170.603,0.00046,0.0,0.0
4.948,2162.088,0.00046,0.0,0.0
4.97,2158.906,0.00046,0.0,0.0
4.992,2164.478,0.00046,0.0,0.0
5.015,2161.613,0.00046,0.0,0.0
5.037,2143.792,0.00047,0.0,0.0
5.059,2163.1,0.00046,0.0,0.0
5.082,2144.542,0.00047,0.0,0.0
5.104,2132.793,0.00047,0.0,0.0
5.126,2126.312,0.00047,0.0,0.0
5.149,2135.564,0.00047,0.0,0.0
5.171,2126.445,0.00047,0.0,0.0
5.193,2128.304,0.00047,0.0,0.0
5.215,2132.845,0.00047,0.0,0.0
5.238,2132.366,0.00047,0.0,0.0
5.26,2128.597,0.00047,0.0,0.0
5.282,2116.215,0.00047,0.0,0.0
5.305,2109.132,0.00047,0.0,0.0
5.327,2093.106,0.00048,0.0,0.0
5.349,2124.309,0.00047,0.0,0.0
5.372,2101.846,0.00048,0.0,0.0
5.394,2119.222,0.00047,0.0,0.0
5.416,2102.945,0.00048,0.0,0.0
5.438,2095.217,0.00048,0.0,0.0
5.461,2109.675,0.00047,0.0,0.0
5.483,2112.595,0.00047,0.0,0.0
5.505,2113.748,0.00047,0.0,0.0
5.528,2110.205,0.00047,0.0,0.0
5.55,2109.416,0.00047,0.0,0.0
5.572,2109.321,0.00047,0.0,0.0
5.595,2119.298,0.00047,0.0,0.0
5.617,2122.854,0.00047,0.0,0.0
5.639,2124.282,0.00047,0.0,0.0
5.661,2115.239,0.00047,0.0,0.0
5.684,2114.92,0.00047,0.0,0.0
5.706,2132.198,0.00047,0.0,0.0
5.728,2135.306,0.00047,0.0,0.0
5.751,2152.073,0.00046,0.0,0.0
5.773,2148.597,0.00047,0.0,0.0
5.795,2149.267,0.00047,0.0,0.0
5.817,2149.017,0.00047,0.0,0.0
5.84,2148.044,0.00047,0.0,0.0
5.862,2150.81,0.00046,0.0,0.0
5.884,2166.075,0.00046,0.0,0.0
5.907,2156.849,0.00046,0.0,0.0
5.929,2158.316,0.00046,0.0,0.0
5.951,2167.39,0.00046,0.0,0.0
5.974,2182.722,0.00046,0.0,0.0
5.996,2174.057,0.00046,0.0,0.0
6.018,2180.074,0.00046,0.0,0.0
6.04,2191.811,0.00046,0.0,0.0
6.063,2191.109,0.00046,0.0,0.0
6.085,2166.94,0.00046,0.0,0.0
6.107,2195.034,0.00046,0.0,0.0
6.13,2172.027,0.00046,0.0,0.0
6.152,2179.369,0.00046,0.0,0.0
6.174,2172.007,0.00046,0.0,0.0
6.197,2164.169,0.00046,0.0,0.0
6.219,2161.52,0.00046,0.0,0.0
6.241,2160.274,0.00046,0.0,0.0
6.263,2175.072,0.00046,0.0,0.0
6.286,2161.835,0.00046,0.0,0.0
6.308,2156.683,0.00046,0.0,0.0
6.33,2138.13,0.00047,0.0,0.0
6.353,2144.103,0.00047,0.0,0.0
6.375,2129.173,0.00047,0.0,0.0
6.397,2123.161,0.00047,0.0,0.0
6.42,2140.6,0.00047,0.0,0.0
6.442,2122.572,0.00047,0.0,0.0
6.464,2116.305,0.00047,0.0,0.0
6.486,2111.323,0.00047,0.0,0.0
6.509,2122.089,0.00047,0.0,0.0
6.531,2110.456,0.00047,0.0,0.0
6.553,2111.551,0.00047,0.0,0.0
6.576,2092.344,0.00048,0.0,0.0
6.598,2109.747,0.00047,0.0,0.0
6.62,2089.601,0.00048,0.0,0.0
6.643,2086.626,0.00048,0.0,0.0
6.665,2095.449,0.00048,0.0,0.0
6.687,2088.831,0.00048,0.0,0.0
6.71,2101.546,0.00048,0.0,0.0
6.732,2074.792,0.00048,0.0,0.0
6.754,2092.019,0.00048,0.0,0.0
6.776,2074.162,0.00048,0.0,0.0
6.799,2074.067,0.00048,0.0,0.0
6.821,2058.137,0.00049,0.0,0.0
6.843,2073.993,0.00048,0.0,0.0
6.866,2058.55,0.00049,0.0,0.0
6.888,2038.942,0.00049,0.0,0.0
6.91,2063.189,0.00048,0.0,0.0
6.933,2045.422,0.00049,0.0,0.0
6.955,2057.9,0.00049,0.0,0.0
6.977,2047.84,0.00049,0.0,0.0
6.999,2049.929,0.00049,0.0,0.0
7.022,2043.675,0.00049,0.0,0.0
7.044,2036.286,0.00049,0.0,0.0
7.066,2061.144,0.00049,0.0,0.0
7.089,2031.438,0.00049,0.0,0.0
7.111,2045.987,0.00049,0.0,0.0
7.133,2051.329,0.00049,0.0,0.0
7.155,2045.153,0.00049,0.0,0.0
7.178,2049.054,0.00049,0.0,0.0
7.2,2037.994,0.00049,0.0,0.0
7.222,2043.114,0.00049,0.0,0.0
7.245,2052.969,0.00049,0.0,0.0
7.267,2028.208,0.00049,0.0,0.0
7.289,2055.642,0.00049,0.0,0.0
7.312,2054.258,0.00049,0.0,0.0
7.334,2028.59,0.00049,0.0,0.0
7.356,2056.307,0.00049,0.0,0.0
7.378,2035.633,0.00049,0.0,0.0
7.401,2050.891,0.00049,0.0,0.0
7.423,2054.792,0.00049,0.0,0.0
7.445,2051.091,0.00049,0.0,0.0
7.468,2057.522,0.00049,0.0,0.0
7.49,2041.726,0.00049,0.0,0.0
7.512,2064.85,0.00048,0.0,0.0
7.535,2052.83,0.00049,0.0,0.0
7.557,2063.966,0.00048,0.0,0.0
7.579,2062.437,0.00048,0.0,0.0
7.601,2065.568,0.00048,0.0,0.0
7.624,2063.973,0.00048,0.0,0.0
7.646,2072.417,0.00048,0.0,0.0
7.668,2075.933,0.00048,0.0,0.0
7.691,2068.541,0.00048,0.0,0.0
7.713,2075.188,0.00048,0.0,0.0
7.735,2076.977,0.00048,0.0,0.0
7.758,2080.487,0.00048,0.0,0.0
7.78,2069.225,0.00048,0.0,0.0
7.802,2076.795,0.00048,0.0,0.0
7.824,2074.557,0.00048,0.0,0.0
7.847,2084.491,0.00048,0.0,0.0
7.869,2082.928,0.00048,0.0,0.0
7.891,2073.236,0.00048,0.0,0.0
7.914,2089.89,0.00048,0.0,0.0
7.936,2080.816,0.00048,0.0,0.0
7.958,2088.424,0.00048,0.0,0.0
7.981,2085.768,0.00048,0.0,0.0
8.003,2074.557,0.00048,0.0,0.0
8.025,2100.31,0.00048,0.0,0.0
8.048,2081.584,0.00048,0.0,0.0
8.07,2078.256,0.00048,0.0,0.0
8.092,2093.918,0.00048,0.0,0.0
8.114,2082.66,0.00048,0.0,0.0
8.137,2086.837,0.00048,0.0,0.0
8.159,2074.312,0.00048,0.0,0.0
8.181,2077.005,0.00048,0.0,0.0
8.204,2064.365,0.00048,0.0,0.0
8.226,2067.355,0.00048,0.0,0.0
8.248,2063.601,0.00048,0.0,0.0
8.271,2055.767,0.00049,0.0,0.0
8.293,2049.468,0.00049,0.0,0.0
8.315,2065.453,0.00048,0.0,0.0
8.337,2042.547,0.00049,0.0,0.0
8.36,2046.539,0.00049,0.0,0.0
8.382,2048.762,0.00049,0.0,0.0
8.404,2041.742,0.00049,0.0,0.0
8.427,2058.804,0.00049,0.0,0.0
8.449,2034.196,0.00049,0.0,0.0
8.471,2051.615,0.00049,0.0,0.0
8.494,2029.192,0.00049,0.0,0.0
8.516,2039.761,0.00049,0.0,0.0
8.538,2037.82,0.00049,0.0,0.0
8.56,2038.506,0.00049,0.0,0.0
8.583,2041.896,0.00049,0.0,0.0
8.605,2042.754,0.00049,0.0,0.0
8.627,2040.248,0.00049,0.0,0.0
8.65,2043.533,0.00049,0.0,0.0
8.672,2037.823,0.00049,0.0,0.0
8.694,2041.891,0.00049,0.0,0.0
8.716,2043.912,0.00049,0.0,0.0
8.739,2037.683,0.00049,0.0,0.0
8.761,2058.421,0.00049,0.0,0.0
8.783,2052.325,0.00049,0.0,0.0
8.806,2045.501,0.00049,0.0,0.0
8.828,2062.515,0.00048,0.0,0.0
8.85,2029.174,0.00049,0.0,0.0
8.873,2056.574,0.00049,0.0,0.0
8.895,2043.79,0.00049,0.0,0.0
8.917,2048.394,0.00049,0.0,0.0
8.94,2050.939,0.00049,0.0,0.0
8.962,2034.017,0.00049,0.0,0.0
8.984,2060.199,0.00049,0.0,0.0
9.006,2042.26,0.00049,0.0,0.0
9.029,2051.638,0.00049,0.0,0.0
9.051,2052.149,0.00049,0.0,0.0
9.073,2047.034,0.00049,0.0,0.0
9.096,2052.161,0.00049,0.0,0.0
9.118,2046.273,0.00049,0.0,0.0
9.14,2046.555,0.00049,0.0,0.0
9.163,2041.856,0.00049,0.0,0.0
9.185,2037.244,0.00049,0.0,0.0
9.207,2041.395,0.00049,0.0,0.0
9.229,2043.944,0.00049,0.0,0.0
9.252,2036.824,0.00049,0.0,0.0
9.274,2045.443,0.00049,0.0,0.0
9.296,2043.968,0.00049,0.0,0.0
9.319,2051.773,0.00049,0.0,0.0
9.341,2032.775,0.00049,0.0,0.0
9.363,2039.691,0.00049,0.0,0.0
9.386,2060.731,0.00049,0.0,0.0
9.408,2025.936,0.00049,0.0,0.0
9.43,2043.496,0.00049,0.0,0.0
9.452,2038.718,0.00049,0.0,0.0
9.475,2031.665,0.00049,0.0,0.0
9.497,2047.909,0.00049,0.0,0.0
9.519,2018.027,0.0005,0.0,0.0
9.542,2050.812,0.00049,0.0,0.0
9.564,2036.426,0.00049,0.0,0.0
9.586,2034.116,0.00049,0.0,0.0
9.609,2050.689,0.00049,0.0,0.0
9.631,2023.354,0.00049,0.0,0.0
9.653,2037.968,0.00049,0.0,0.0
9.675,2029.872,0.00049,0.0,0.0
9.698,2035.546,0.00049,0.0,0.0
9.72,2021.405,0.00049,0.0,0.0
9.742,2017.679,0.0005,0.0,0.0
9.765,2027.966,0.00049,0.0,0.0
9.787,2025.163,0.00049,0.0,0.0
9.809,2018.172,0.0005,0.0,0.0
9.832,2026.221,0.00049,0.0,0.0
9.854,2018.623,0.0005,0.0,0.0
9.876,2024.319,0.00049,0.0,0.0
9.898,2024.889,0.00049,0.0,0.0
9.921,2023.951,0.00049,0.0,0.0
9.943,2047.603,0.00049,0.0,0.0
9.965,2014.54,0.0005,0.0,0.0
9.988,2032.937,0.00049,0.0,0.0
10.01,2027.7,0.00049,0.0,0.0
10.032,2009.991,0.0005,0.0,0.0
10.055,2040.908,0.00049,0.0,0.0
10.077,2015.15,0.0005,0.0,0.0
10.099,2028.906,0.00049,0.0,0.0
10.121,2016.087,0.0005,0.0,0.0
10.144,1996.047,0.0005,0.0,0.0
10.166,2012.374,0.0005,0.0,0.0
10.188,2008.945,0.0005,0.0,0.0
10.211,2008.353,0.0005,0.0,0.0
10.233,1987.757,0.0005,0.0,0.0
10.255,2004.226,0.0005,0.0,0.0
10.278,2002.77,0.0005,0.0,0.0
10.3,1979.043,0.00051,0.0,0.0
10.322,1992.489,0.0005,0.0,0.0
10.344,1971.498,0.00051,0.0,0.0
10.367,1983.796,0.0005,0.0,0.0
10.389,1980.655,0.0005,0.0,0.0
10.411,1972.578,0.00051,0.0,0.0
10.434,1979.846,0.00051,0.0,0.0
10.456,1961.052,0.00051,0.0,0.0
10.478,1974.563,0.00051,0.0,0.0
10.501,1970.901,0.00051,0.0,0.0
10.523,1953.64,0.00051,0.0,0.0
10.545,1973.015,0.00051,0.0,0.0
10.567,1962.947,0.00051,0.0,0.0
10.59,1974.935,0.00051,0.0,0.0
10.612,1961.755,0.00051,0.0,0.0
10.634,1949.272,0.00051,0.0,0.0
10.657,1966.046,0.00051,0.0,0.0
10.679,1954.325,0.00051,0.0,0.0
10.701,1950.327,0.00051,0.0,0.0
10.724,1957.91,0.00051,0.0,0.0
10.746,1948.763,0.00051,0.0,0.0
10.768,1970.124,0.00051,0.0,0.0
10.79,1950.909,0.00051,0.0,0.0
10.813,1961.335,0.00051,0.0,0.0
10.835,1966.379,0.00051,0.0,0.0
10.857,1939.534,0.00052,0.0,0.0
10.88,1964.604,0.00051,0.0,0.0
10.902,1934.842,0.00052,0.0,0.0
10.924,1956.121,0.00051,0.0,0.0
10.947,1937.942,0.00052,0.0,0.0
10.969,1924.436,0.00052,0.0,0.0
10.991,1945.424,0.00051,0.0,0.0
11.013,1911.734,0.00052,0.0,0.0
11.036,1919.026,0.00052,0.0,0.0
11.058,1913.274,0.00052,0.0,0.0
11.08,1913.448,0.00052,0.0,0.0
11.103,1926.712,0.00052,0.0,0.0
11.125,1894.212,0.00053,0.0,0.0
11.147,1892.307,0.00053,0.0,0.0
11.17,1889.851,0.00053,0.0,0.0
11.192,1877.186,0.00053,0.0,0.0
11.214,1882.103,0.00053,0.0,0.0
11.236,1871.171,0.00053,0.0,0.0
11.259,1871.882,0.00053,0.0,0.0
11.281,1861.162,0.00054,0.0,0.0
11.303,1865.826,0.00054,0.0,0.0
11.326,1859.163,0.00054,0.0,0.0
11.348,1845.965,0.00054,0.0,0.0
11.37,1857.383,0.00054,0.0,0.0
11.393,1845.603,0.00054,0.0,0.0
11.415,1839.343,0.00054,0.0,0.0
11.437,1838.823,0.00054,0.0,0.0
11.459,1826.495,0.00055,0.0,0.0
11.482,1829.584,0.00055,0.0,0.0
11.504,1832.306,0.00055,0.0,0.0
11.526,1823.698,0.00055,0.0,0.0
11.549,1830.97,0.00055,0.0,0.0
11.571,1816.806,0.00055,0.0,0.0
11.593,1822.171,0.00055,0.0,0.0
11.616,1811.234,0.00055,0.0,0.0
11.638,1812.168,0.00055,0.0,0.0
11.66,1816.191,0.00055,0.0,0.0
11.682,1792.219,0.00056,0.0,0.0
11.705,1803.43,0.00055,0.0,0.0
11.727,1801.979,0.00055,0.0,0.0
11.749,1801.684,0.00056,0.0,0.0
11.772,1796.441,0.00056,0.0,0.0
11.794,1774.906,0.00056,0.0,0.0
11.816,1791.238,0.00056,0.0,0.0
11.839,1770.566,0.00056,0.0,0.0
11.861,1779.629,0.00056,0.0,0.0
11.883,1772.838,0.00056,0.0,0.0
11.905,1759.961,0.00057,0.0,0.0
11.928,1767.852,0.00057,0.0,0.0
11.95,1751.354,0.00057,0.0,0.0
11.972,1765.42,0.00057,0.0,0.0
11.995,1744.094,0.00057,0.0,0.0
12.017,1738.636,0.00058,0.0,0.0
12.039,1746.999,0.00057,0.0,0.0
12.062,1725.661,0.00058,0.0,0.0
12.084,1739.945,0.00057,0.0,0.0
12.106,1713.602,0.00058,0.0,0.0
12.128,1718.795,0.00058,0.0,0.0
12.151,1706.869,0.00059,0.0,0.0
12.173,1692.534,0.00059,0.0,0.0
12.195,1716.919,0.00058,0.0,0.0
12.218,1687.636,0.00059,0.0,0.0
12.24,1699.291,0.00059,0.0,0.0
12.262,1701.934,0.00059,0.0,0.0
12.285,1679.716,0.0006,0.0,0.0
12.307,1687.051,0.00059,0.0,0.0
12.329,1682.522,0.00059,0.0,0.0
12.351,1669.36,0.0006,0.0,0.0
12.374,1678.627,0.0006,0.0,0.0
12.396,1666.252,0.0006,0.0,0.0
12.418,1666.362,0.0006,0.0,0.0
12.441,1664.963,0.0006,0.0,0.0
12.463,1658.257,0.0006,0.0,0.0
12.485,1653.421,0.0006,0.0,0.0
12.508,1641.632,0.00061,0.0,0.0
12.53,1650.109,0.00061,0.0,0.0
12.552,1639.549,0.00061,0.0,0.0
12.574,1645.416,0.00061,0.0,0.0
12.597,1638.103,0.00061,0.0,0.0
12.619,1628.725,0.00061,0.0,0.0
12.641,1631.473,0.00061,0.0,0.0
12.664,1625.428,0.00062,0.0,0.0
12.686,1631.434,0.00061,0.0,0.0
12.708,1627.017,0.00061,0.0,0.0
12.731,1622.871,0.00062,0.0,0.0
12.753,1627.342,0.00061,0.0,0.0
12.775,1614.303,0.00062,0.0,0.0
12.797,1624.24,0.00062,0.0,0.0
12.82,1609.96,0.00062,0.0,0.0
12.842,1606.794,0.00062,0.0,0.0
12.864,1602.498,0.00062,0.0,0.0
12.887,1596.607,0.00063,0.0,0.0
12.909,1606.095,0.00062,0.0,0.0
12.931,1593.647,0.00063,0.0,0.0
12.954,1596.078,0.00063,0.0,0.0
12.976,1603.029,0.00062,0.0,0.0
12.998,1584.546,0.00063,0.0,0.0
13.02,1589.271,0.00063,0.0,0.0
13.043,1594.311,0.00063,0.0,0.0
13.065,1584.542,0.00063,0.0,0.0
13.087,1596.688,0.00063,0.0,0.0
13.11,1583.469,0.00063,0.0,0.0
13.132,1590.335,0.00063,0.0,0.0
13.154,1568.069,0.00064,0.0,0.0
13.177,1588.073,0.00063,0.0,0.0
13.199,1578.465,0.00063,0.0,0.0
13.221,1569.522,0.00064,0.0,0.0
13.243,1580.686,0.00063,0.0,0.0
13.266,1557.554,0.00064,0.0,0.0
13.288,1575.137,0.00063,0.0,0.0
13.31,1553.463,0.00064,0.0,0.0
13.333,1570.124,0.00064,0.0,0.0
13.355,1577.169,0.00063,0.0,0.0
13.377,1559.613,0.00064,0.0,0.0
13.4,1572.216,0.00064,0.0,0.0
13.422,1555.48,0.00064,0.0,0.0
13.444,1566.982,0.00064,0.0,0.0
13.466,1558.72,0.00064,0.0,0.0
13.489,1551.985,0.00064,0.0,0.0
13.511,1546.137,0.00065,0.0,0.0
13.533,1541.741,0.00065,0.0,0.0
13.556,1556.724,0.00064,0.0,0.0
13.578,1541.029,0.00065,0.0,0.0
13.6,1547.074,0.00065,0.0,0.0
13.623,1542.311,0.00065,0.0,0.0
13.645,1536.27,0.00065,0.0,0.0
13.667,1548.093,0.00065,0.0,0.0
13.689,1538.941,0.00065,0.0,0.0
13.712,1547.082,0.00065,0.0,0.0
13.734,1535.108,0.00065,0.0,0.0
13.756,1533.275,0.00065,0.0,0.0
13.779,1540.69,0.00065,0.0,0.0
13.801,1524.305,0.00066,0.0,0.0
13.823,1530.456,0.00065,0.0,0.0
13.846,1520.945,0.00066,0.0,0.0
13.868,1521.594,0.00066,0.0,0.0
13.89,1527.068,0.00065,0.0,0.0
13.912,1511.743,0.00066,0.0,0.0
13.935,1514.491,0.00066,0.0,0.0
13.957,1509.669,0.00066,0.0,0.0
13.979,1501.83,0.00067,0.0,0.0
14.002,1499.519,0.00067,0.0,0.0
14.024,1486.094,0.00067,0.0,0.0
14.046,1501.637,0.00067,0.0,0.0
14.069,1480.63,0.00068,0.0,0.0
14.091,1491.417,0.00067,0.0,0.0
14.113,1481.833,0.00067,0.0,0.0
14.135,1471.905,0.00068,0.0,0.0
14.158,1473.877,0.00068,0.0,0.0
14.18,1470.357,0.00068,0.0,0.0
14.202,1470.896,0.00068,0.0,0.0
14.225,1459.047,0.00069,0.0,0.0
14.247,1450.563,0.00069,0.0,0.0
14.269,1447.577,0.00069,0.0,0.0
14.292,1430.965,0.0007,0.0,0.0
14.314,1457.007,0.00069,0.0,0.0
14.336,1422.964,0.0007,0.0,0.0
14.358,1432.13,0.0007,0.0,0.0
14.381,1419.577,0.0007,0.0,0.0
14.403,1409.259,0.00071,0.0,0.0
14.425,1414.702,0.00071,0.0,0.0
14.448,1409.538,0.00071,0.0,0.0
14.47,1408.087,0.00071,0.0,0.0
14.492,1403.358,0.00071,0.0,0.0
14.515,1404.155,0.00071,0.0,0.0
14.537,1400.24,0.00071,0.0,0.0
14.559,1382.103,0.00072,0.0,0.0
14.581,1394.481,0.00072,0.0,0.0
14.604,1379.864,0.00072,0.0,0.0
14.626,1377.971,0.00073,0.0,0.0
14.648,1372.413,0.00073,0.0,0.0
14.671,1362.315,0.00073,0.0,0.0
14.693,1369.477,0.00073,0.0,0.0
14.715,1353.676,0.00074,0.0,0.0
14.738,1366.725,0.00073,0.0,0.0
14.76,1353.65,0.00074,0.0,0.0
14.782,1339.968,0.00075,0.0,0.0
14.804,1350.018,0.00074,0.0,0.0
14.827,1332.522,0.00075,0.0,0.0
14.849,1346.329,0.00074,0.0,0.0
14.871,1323.981,0.00076,0.0,0.0
14.894,1326.9,0.00075,0.0,0.0
14.916,1321.572,0.00076,0.0,0.0
14.938,1300.839,0.00077,0.0,0.0
14.961,1318.362,0.00076,0.0,0.0
14.983,1301.462,0.00077,0.0,0.0
15.005,1308.584,0.00076,0.0,0.0
15.027,1302.66,0.00077,0.0,0.0
15.05,1298.107,0.00077,0.0,0.0
15.072,1288.586,0.00078,0.0,0.0
15.094,1282.514,0.00078,0.0,0.0
15.117,1291.067,0.00077,0.0,0.0
15.139,1280.743,0.00078,0.0,0.0
15.161,1285.609,0.00078,0.0,0.0
15.184,1278.913,0.00078,0.0,0.0
15.206,1265.62,0.00079,0.0,0.0
15.228,1279.859,0.00078,0.0,0.0
15.25,1263.425,0.00079,0.0,0.0
15.273,1267.804,0.00079,0.0,0.0
15.295,1255.377,0.0008,0.0,0.0
15.317,1252.91,0.0008,0.0,0.0
15.34,1250.53,0.0008,0.0,0.0
15.362,1234.924,0.00081,0.0,0.0
15.384,1246.205,0.0008,0.0,0.0
15.407,1225.546,0.00082,0.0,0.0
15.429,1218.5,0.00082,0.0,0.0
15.451,1233.033,0.00081,0.0,0.0
15.473,1222.24,0.00082,0.0,0.0
15.496,1218.32,0.00082,0.0,0.0
15.518,1209.222,0.00083,0.0,0.0
15.54,1216.505,0.00082,0.0,0.0
15.563,1207.629,0.00083,0.0,0.0
15.585,1203.407,0.00083,0.0,0.0
15.607,1202.622,0.00083,0.0,0.0
15.63,1187.735,0.00084,0.0,0.0
15.652,1194.284,0.00084,0.0,0.0
15.674,1196.064,0.00084,0.0,0.0
15.696,1182.275,0.00085,0.0,0.0
15.719,1186.176,0.00084,0.0,0.0
15.741,1171.56,0.00085,0.0,0.0
15.763,1173.131,0.00085,0.0,0.0
15.786,1159.037,0.00086,0.0,0.0
15.808,1165.118,0.00086,0.0,0.0
15.83,1153.453,0.00087,0.0,0.0
15.853,1150.604,0.00087,0.0,0.0
15.875,1146.778,0.00087,0.0,0.0
15.897,1138.493,0.00088,0.0,0.0
15.919,1142.222,0.00088,0.0,0.0
15.942,1141.928,0.00088,0.0,0.0
15.964,1141.805,0.00088,0.0,0.0
15.986,1144.846,0.00087,0.0,0.0
16.009,1138.528,0.00088,0.0,0.0
16.031,1119.387,0.00089,0.0,0.0
16.053,1120.25,0.00089,0.0,0.0
16.076,1129.673,0.00089,0.0,0.0
16.098,1103.214,0.00091,0.0,0.0
16.12,1115.235,0.0009,0.0,0.0
16.142,1115.379,0.0009,0.0,0.0
16.165,1104.037,0.00091,0.0,0.0
16.187,1111.099,0.0009,0.0,0.0
16.209,1101.065,0.00091,0.0,0.0
16.232,1111.705,0.0009,0.0,0.0
16.254,1096.858,0.00091,0.0,0.0
16.276,1098.989,0.00091,0.0,0.0
16.299,1094.162,0.00091,0.0,0.0
16.321,1089.881,0.00092,0.0,0.0
16.343,1095.323,0.00091,0.0,0.0
16.365,1094.554,0.00091,0.0,0.0
16.388,1079.169,0.00093,0.0,0.0
16.41,1076.76,0.00093,0.0,0.0
16.432,1080.976,0.00093,0.0,0.0
16.455,1069.402,0.00094,0.0,0.0
16.477,1054.351,0.00095,0.0,0.0
16.499,1060.391,0.00094,0.0,0.0
16.521,1053.121,0.00095,0.0,0.0
16.544,1061.414,0.00094,0.0,0.0
16.566,1053.254,0.00095,0.0,0.0
16.588,1039.522,0.00096,0.0,0.0
16.611,1042.598,0.00096,0.0,0.0
16.633,1043.358,0.00096,0.0,0.0
16.655,1041.691,0.00096,0.0,0.0
16.678,1046.825,0.00096,0.0,0.0
16.7,1031.443,0.00097,0.0,0.0
16.722,1045.726,0.00096,0.0,0.0
16.744,1032.775,0.00097,0.0,0.0
16.767,1042.882,0.00096,0.0,0.0
16.789,1035.017,0.00097,0.0,0.0
16.811,1021.362,0.00098,0.0,0.0
16.834,1023.271,0.00098,0.0,0.0
16.856,1020.255,0.00098,0.0,0.0
16.878,1018.026,0.00098,0.0,0.0
16.901,1017.03,0.00098,0.0,0.0
16.923,1015.658,0.00098,0.0,0.0
16.945,1010.17,0.00099,0.0,0.0
16.968,1010.506,0.00099,0.0,0.0
16.99,1004.851,0.001,0.0,0.0
17.012,1001.317,0.001,0.0,0.0
17.034,1007.153,0.00099,0.0,0.0
17.057,998.175,0.001,0.0,0.0
17.079,999.553,0.001,0.0,0.0
17.101,987.104,0.00101,0.0,0.0
17.124,994.197,0.00101,0.0,0.0
17.146,982.286,0.00102,0.0,0.0
17.168,989.476,0.00101,0.0,0.0
17.191,980.133,0.00102,0.0,0.0
17.213,987.171,0.00101,0.0,0.0
17.235,982.426,0.00102,0.0,0.0
17.257,983.468,0.00102,0.0,0.0
17.28,972.14,0.00103,0.0,0.0
17.302,974.29,0.00103,0.0,0.0
17.324,967.643,0.00103,0.0,0.0
17.347,962.694,0.00104,0.0,0.0
17.369,967.966,0.00103,0.0,0.0
17.391,966.78,0.00103,0.0,0.0
17.414,964.137,0.00104,0.0,0.0
17.436,954.011,0.00105,0.0,0.0
17.458,947.646,0.00106,0.0,0.0
17.48,959.823,0.00104,0.0,0.0
17.503,957.597,0.00104,0.0,0.0
17.525,953.972,0.00105,0.0,0.0
17.547,944.935,0.00106,0.0,0.0
17.57,960.124,0.00104,0.0,0.0
17.592,940.421,0.00106,0.0,0.0
17.614,944.725,0.00106,0.0,0.0
17.637,940.866,0.00106,0.0,0.0
17.659,937.619,0.00107,0.0,0.0
17.681,935.218,0.00107,0.0,0.0
17.703,937.072,0.00107,0.0,0.0
17.726,933.999,0.00107,0.0,0.0
17.748,928.919,0.00108,0.0,0.0
17.77,930.762,0.00107,0.0,0.0
17.793,933.341,0.00107,0.0,0.0
17.815,930.59,0.00107,0.0,0.0
17.837,926.163,0.00108,0.0,0.0
17.86,933.91,0.00107,0.0,0.0
17.882,916.515,0.00109,0.0,0.0
17.904,916.763,0.00109,0.0,0.0
17.926,924.7,0.00108,0.0,0.0
17.949,912.381,0.0011,0.0,0.0
17.971,918.187,0.00109,0.0,0.0
17.993,911.529,0.0011,0.0,0.0
18.016,906.197,0.0011,0.0,0.0
18.038,904.598,0.00111,0.0,0.0
18.06,898.334,0.00111,0.0,0.0
18.082,909.553,0.0011,0.0,0.0
18.105,905.884,0.0011,0.0,0.0
18.127,903.946,0.00111,0.0,0.0
18.149,901.093,0.00111,0.0,0.0
18.172,901.039,0.00111,0.0,0.0
18.194,908.038,0.0011,0.0,0.0
18.216,897.95,0.00111,0.0,0.0
18.239,897.095,0.00111,0.0,0.0
18.261,894.097,0.00112,0.0,0.0
18.283,892.301,0.00112,0.0,0.0
18.306,890.711,0.00112,0.0,0.0
18.328,897.574,0.00111,0.0,0.0
18.35,901.508,0.00111,0.0,0.0
18.372,896.111,0.00112,0.0,0.0
18.395,885.979,0.00113,0.0,0.0
18.417,886.651,0.00113,0.0,0.0
18.439,892.742,0.00112,0.0,0.0
18.462,891.832,0.00112,0.0,0.0
18.484,893.029,0.00112,0.0,0.0
18.506,879.476,0.00114,0.0,0.0
18.529,887.142,0.00113,0.0,0.0
18.551,885.133,0.00113,0.0,0.0
18.573,884.304,0.00113,0.0,0.0
18.595,881.578,0.00113,0.0,0.0
18.618,877.211,0.00114,0.0,0.0
18.64,876.609,0.00114,0.0,0.0
18.662,883.738,0.00113,0.0,0.0
18.685,877.017,0.00114,0.0,0.0
18.707,881.949,0.00113,0.0,0.0
18.729,879.538,0.00114,0.0,0.0
18.752,879.763,0.00114,0.0,0.0
18.774,881.73,0.00113,0.0,0.0
18.796,881.653,0.00113,0.0,0.0
18.818,870.235,0.00115,0.0,0.0
18.841,874.801,0.00114,0.0,0.0
18.863,874.884,0.00114,0.0,0.0
18.885,879.995,0.00114,0.0,0.0
18.908,875.338,0.00114,0.0,0.0
18.93,870.418,0.00115,0.0,0.0
18.952,872.933,0.00115,0.0,0.0
18.975,861.868,0.00116,0.0,0.0
18.997,873.711,0.00114,0.0,0.0
19.019,870.467,0.00115,0.0,0.0
19.041,864.706,0.00116,0.0,0.0
19.064,864.991,0.00116,0.0,0.0
19.086,867.228,0.00115,0.0,0.0
19.108,855.005,0.00117,0.0,0.0
19.131,857.623,0.00117,0.0,0.0
19.153,858.487,0.00116,0.0,0.0
19.175,850.634,0.00118,0.0,0.0
19.198,856.548,0.00117,0.0,0.0
19.22,848.266,0.00118,0.0,0.0
19.242,853.869,0.00117,0.0,0.0
19.264,846.511,0.00118,0.0,0.0
19.287,842.192,0.00119,0.0,0.0
19.309,846.738,0.00118,0.0,0.0
19.331,832.422,0.0012,0.0,0.0
19.354,844.272,0.00118,0.0,0.0
19.376,835.818,0.0012,0.0,0.0
19.398,832.312,0.0012,0.0,0.0
19.421,829.914,0.0012,0.0,0.0
19.443,826.252,0.00121,0.0,0.0
19.465,831.202,0.0012,0.0,0.0
19.487,820.802,0.00122,0.0,0.0
19.51,829.889,0.0012,0.0,0.0
19.532,832.241,0.0012,0.0,0.0
19.554,824.876,0.00121,0.0,0.0
19.577,824.627,0.00121,0.0,0.0
19.599,822.482,0.00122,0.0,0.0
19.621,821.023,0.00122,0.0,0.0
19.643,824.073,0.00121,0.0,0.0
19.666,826.302,0.00121,0.0,0.0
19.688,825.251,0.00121,0.0,0.0
19.71,829.037,0.00121,0.0,0.0
19.733,820.348,0.00122,0.0,0.0
19.755,817.222,0.00122,0.0,0.0
19.777,820.463,0.00122,0.0,0.0
19.8,817.759,0.00122,0.0,0.0
19.822,818.619,0.00122,0.0,0.0
19.844,821.885,0.00122,0.0,0.0
19.867,813.189,0.00123,0.0,0.0
19.889,822.364,0.00122,0.0,0.0
19.911,814.583,0.00123,0.0,0.0
19.933,817.53,0.00122,0.0,0.0
19.956,816.292,0.00123,0.0,0.0
19.978,811.346,0.00123,0.0,0.0
20.0,807.246,0.00124,0.0,0.0
20.023,803.927,0.00124,0.0,0.0
20.045,806.131,0.00124,0.0,0.0
20.067,808.025,0.00124,0.0,0.0
20.09,814.788,0.00123,0.0,0.0
20.112,802.865,0.00125,0.0,0.0
20.134,805.79,0.00124,0.0,0.0
20.156,797.577,0.00125,0.0,0.0
20.179,803.202,0.00125,0.0,0.0
20.201,799.863,0.00125,0.0,0.0
20.223,801.129,0.00125,0.0,0.0
20.246,802.493,0.00125,0.0,0.0
20.268,794.698,0.00126,0.0,0.0
20.29,800.054,0.00125,0.0,0.0
20.312,794.992,0.00126,0.0,0.0
20.335,788.718,0.00127,0.0,0.0
20.357,795.13,0.00126,0.0,0.0
20.379,790.407,0.00127,0.0,0.0
20.402,787.583,0.00127,0.0,0.0
20.424,786.736,0.00127,0.0,0.0
20.446,791.272,0.00126,0.0,0.0
20.469,784.185,0.00128,0.0,0.0
20.491,781.365,0.00128,0.0,0.0
20.513,783.344,0.00128,0.0,0.0
20.536,778.793,0.00128,0.0,0.0
20.558,781.662,0.00128,0.0,0.0
20.58,780.441,0.00128,0.0,0.0
20.602,783.466,0.00128,0.0,0.0
20.625,784.333,0.00127,0.0,0.0
20.647,777.588,0.00129,0.0,0.0
20.669,780.756,0.00128,0.0,0.0
20.692,781.311,0.00128,0.0,0.0
20.714,769.243,0.0013,0.0,0.0
20.736,778.505,0.00128,0.0,0.0
20.759,768.536,0.0013,0.0,0.0
20.781,766.208,0.00131,0.0,0.0
20.803,768.639,0.0013,0.0,0.0
20.825,762.164,0.00131,0.0,0.0
20.848,762.487,0.00131,0.0,0.0
20.87,770.876,0.0013,0.0,0.0
20.892,763.589,0.00131,0.0,0.0
20.915,763.706,0.00131,0.0,0.0
20.937,766.981,0.0013,0.0,0.0
20.959,764.946,0.00131,0.0,0.0
20.982,763.914,0.00131,0.0,0.0
21.004,765.381,0.00131,0.0,0.0
21.026,765.6,0.00131,0.0,0.0
21.048,760.564,0.00131,0.0,0.0
21.071,768.848,0.0013,0.0,0.0
21.093,764.476,0.00131,0.0,0.0
21.115,764.964,0.00131,0.0,0.0
21.138,757.65,0.00132,0.0,0.0
21.16,760.483,0.00131,0.0,0.0
21.182,762.234,0.00131,0.0,0.0
21.204,759.432,0.00132,0.0,0.0
21.227,759.934,0.00132,0.0,0.0
21.249,760.992,0.00131,0.0,0.0
21.271,758.002,0.00132,0.0,0.0
21.294,754.145,0.00133,0.0,0.0
21.316,752.3,0.00133,0.0,0.0
21.338,751.034,0.00133,0.0,0.0
21.361,755.036,0.00132,0.0,0.0
21.383,752.456,0.00133,0.0,0.0
21.405,758.499,0.00132,0.0,0.0
21.428,752.768,0.00133,0.0,0.0
21.45,765.433,0.00131,0.0,0.0
21.472,753.462,0.00133,0.0,0.0
21.494,753.284,0.00133,0.0,0.0
21.517,747.64,0.00134,0.0,0.0
21.539,746.434,0.00134,0.0,0.0
21.561,755.527,0.00132,0.0,0.0
21.584,748.123,0.00134,0.0,0.0
21.606,753.709,0.00133,0.0,0.0
21.628,748.436,0.00134,0.0,0.0
21.651,747.738,0.00134,0.0,0.0
21.673,752.699,0.00133,0.0,0.0
21.695,756.577,0.00132,0.0,0.0
21.717,752.887,0.00133,0.0,0.0
21.74,748.16,0.00134,0.0,0.0
21.762,749.675,0.00133,0.0,0.0
21.784,744.443,0.00134,0.0,0.0
21.807,748.304,0.00134,0.0,0.0
21.829,741.646,0.00135,0.0,0.0
21.851,745.761,0.00134,0.0,0.0
21.873,743.717,0.00134,0.0,0.0
21.896,744.988,0.00134,0.0,0.0
21.918,740.794,0.00135,0.0,0.0
21.94,749.623,0.00133,0.0,0.0
21.963,753.292,0.00133,0.0,0.0
21.985,750.102,0.00133,0.0,0.0
22.007,747.526,0.00134,0.0,0.0
22.03,748.599,0.00134,0.0,0.0
22.052,755.221,0.00132,0.0,0.0
22.074,751.718,0.00133,0.0,0.0
22.097,746.903,0.00134,0.0,0.0
22.119,750.887,0.00133,0.0,0.0
22.141,756.314,0.00132,0.0,0.0
22.163,755.714,0.00132,0.0,0.0
22.186,760.433,0.00132,0.0,0.0
22.208,752.64,0.00133,0.0,0.0
22.23,757.968,0.00132,0.0,0.0
22.253,754.779,0.00132,0.0,0.0
22.275,756.045,0.00132,0.0,0.0
22.297,763.302,0.00131,0.0,0.0
22.32,759.318,0.00132,0.0,0.0
22.342,764.05,0.00131,0.0,0.0
22.364,766.852,0.0013,0.0,0.0
22.386,757.166,0.00132,0.0,0.0
22.409,763.612,0.00131,0.0,0.0
22.431,764.968,0.00131,0.0,0.0
22.453,765.63,0.00131,0.0,0.0
22.476,764.692,0.00131,0.0,0.0
22.498,761.914,0.00131,0.0,0.0
22.52,768.359,0.0013,0.0,0.0
22.543,766.739,0.0013,0.0,0.0
22.565,757.971,0.00132,0.0,0.0
22.587,755.8,0.00132,0.0,0.0
22.609,760.203,0.00132,0.0,0.0
22.632,760.524,0.00131,0.0,0.0
22.654,759.162,0.00132,0.0,0.0
22.676,759.025,0.00132,0.0,0.0
22.699,758.422,0.00132,0.0,0.0
22.721,758.339,0.00132,0.0,0.0
22.743,755.761,0.00132,0.0,0.0
22.765,751.14,0.00133,0.0,0.0
22.788,754.797,0.00132,0.0,0.0
22.81,755.658,0.00132,0.0,0.0
22.832,758.498,0.00132,0.0,0.0
22.855,755.145,0.00132,0.0,0.0
22.877,750.586,0.00133,0.0,0.0
22.899,753.162,0.00133,0.0,0.0
22.922,751.6,0.00133,0.0,0.0
22.944,754.111,0.00133,0.0,0.0
22.966,749.927,0.00133,0.0,0.0
22.989,747.02,0.00134,0.0,0.0
23.011,742.536,0.00135,0.0,0.0
23.033,745.598,0.00134,0.0,0.0
23.055,746.303,0.00134,0.0,0.0
23.078,735.164,0.00136,0.0,0.0
23.1,744.224,0.00134,0.0,0.0
23.122,740.196,0.00135,0.0,0.0
23.145,743.551,0.00134,0.0,0.0
23.167,738.318,0.00135,0.0,0.0
23.189,746.496,0.00134,0.0,0.0
23.212,738.731,0.00135,0.0,0.0
23.234,738.492,0.00135,0.0,0.0
23.256,737.817,0.00136,0.0,0.0
23.278,735.117,0.00136,0.0,0.0
23.301,726.446,0.00138,0.0,0.0
23.323,731.928,0.00137,0.0,0.0
23.345,735.807,0.00136,0.0,0.0
23.368,728.549,0.00137,0.0,0.0
23.39,734.397,0.00136,0.0,0.0
23.412,729.453,0.00137,0.0,0.0
23.434,734.133,0.00136,0.0,0.0
23.457,730.358,0.00137,0.0,0.0
23.479,723.192,0.00138,0.0,0.0
23.501,731.39,0.00137,0.0,0.0
23.524,742.891,0.00135,0.0,0.0
23.546,730.727,0.00137,0.0,0.0
23.568,727.038,0.00138,0.0,0.0
23.591,730.574,0.00137,0.0,0.0
23.613,722.373,0.00138,0.0,0.0
23.635,726.848,0.00138,0.0,0.0
23.658,722.753,0.00138,0.0,0.0
23.68,720.963,0.00139,0.0,0.0
23.702,712.45,0.0014,0.0,0.0
23.724,711.695,0.00141,0.0,0.0
23.747,706.17,0.00142,0.0,0.0
23.769,715.131,0.0014,0.0,0.0
23.791,712.969,0.0014,0.0,0.0
23.814,706.823,0.00141,0.0,0.0
23.836,708.89,0.00141,0.0,0.0
23.858,699.806,0.00143,0.0,0.0
23.881,701.279,0.00143,0.0,0.0
23.903,704.947,0.00142,0.0,0.0
23.925,699.373,0.00143,0.0,0.0
23.947,693.778,0.00144,0.0,0.0
23.97,695.392,0.00144,0.0,0.0
23.992,688.766,0.00145,0.0,0.0
24.014,689.301,0.00145,0.0,0.0
24.037,689.4,0.00145,0.0,0.0
24.059,692.171,0.00144,0.0,0.0
24.081,692.128,0.00144,0.0,0.0
24.104,692.098,0.00144,0.0,0.0
24.126,682.469,0.00147,0.0,0.0
24.148,692.979,0.00144,0.0,0.0
24.17,685.472,0.00146,0.0,0.0
24.193,680.332,0.00147,0.0,0.0
24.215,682.967,0.00146,0.0,0.0
24.237,679.017,0.00147,0.0,0.0
24.26,680.391,0.00147,0.0,0.0
24.282,681.657,0.00147,0.0,0.0
24.304,681.271,0.00147,0.0,0.0
24.326,672.748,0.00149,0.0,0.0
24.349,676.602,0.00148,0.0,0.0
24.371,677.794,0.00148,0.0,0.0
24.393,668.81,0.0015,0.0,0.0
24.416,672.048,0.00149,0.0,0.0
24.438,678.173,0.00147,0.0,0.0
24.46,675.701,0.00148,0.0,0.0
24.483,666.504,0.0015,0.0,0.0
24.505,669.199,0.00149,0.0,0.0
24.527,663.069,0.00151,0.0,0.0
24.55,666.212,0.0015,0.0,0.0
24.572,665.067,0.0015,0.0,0.0
24.594,666.438,0.0015,0.0,0.0
24.616,663.916,0.00151,0.0,0.0
24.639,663.494,0.00151,0.0,0.0
24.661,670.085,0.00149,0.0,0.0
24.683,666.334,0.0015,0.0,0.0
24.706,664.123,0.00151,0.0,0.0
24.728,665.698,0.0015,0.0,0.0
24.75,664.892,0.0015,0.0,0.0
24.773,665.318,0.0015,0.0,0.0
24.795,658.301,0.00152,0.0,0.0
24.817,663.651,0.00151,0.0,0.0
24.839,649.515,0.00154,0.0,0.0
24.862,659.46,0.00152,0.0,0.0
24.884,651.519,0.00153,0.0,0.0
24.906,655.557,0.00153,0.0,0.0
24.929,651.102,0.00154,0.0,0.0
24.951,649.702,0.00154,0.0,0.0
24.973,644.104,0.00155,0.0,0.0
24.995,643.542,0.00155,0.0,0.0
25.018,645.795,0.00155,0.0,0.0
25.04,649.176,0.00154,0.0,0.0
25.062,647.665,0.00154,0.0,0.0
25.085,651.084,0.00154,0.0,0.0
25.107,646.981,0.00155,0.0,0.0
25.129,652.411,0.00153,0.0,0.0
25.152,653.043,0.00153,0.0,0.0
25.174,644.22,0.00155,0.0,0.0
25.196,642.587,0.00156,0.0,0.0
25.219,652.204,0.00153,0.0,0.0
25.241,644.306,0.00155,0.0,0.0
25.263,649.474,0.00154,0.0,0.0
25.285,643.808,0.00155,0.0,0.0
25.308,646.887,0.00155,0.0,0.0
25.33,639.285,0.00156,0.0,0.0
25.352,643.647,0.00155,0.0,0.0
25.375,637.224,0.00157,0.0,0.0
25.397,644.769,0.00155,0.0,0.0
25.419,645.208,0.00155,0.0,0.0
25.442,640.095,0.00156,0.0,0.0
25.464,637.549,0.00157,0.0,0.0
25.486,640.415,0.00156,0.0,0.0
25.508,636.393,0.00157,0.0,0.0
25.531,638.03,0.00157,0.0,0.0
25.553,631.11,0.00158,0.0,0.0
25.575,638.663,0.00157,0.0,0.0
25.598,639.967,0.00156,0.0,0.0
25.62,641.336,0.00156,0.0,0.0
25.642,634.57,0.00158,0.0,0.0
25.665,635.768,0.00157,0.0,0.0
25.687,632.993,0.00158,0.0,0.0
25.709,636.252,0.00157,0.0,0.0
25.731,634.946,0.00157,0.0,0.0
25.754,628.029,0.00159,0.0,0.0
25.776,626.881,0.0016,0.0,0.0
25.798,631.556,0.00158,0.0,0.0
25.821,637.966,0.00157,0.0,0.0
25.843,632.029,0.00158,0.0,0.0
25.865,628.9,0.00159,0.0,0.0
25.888,628.782,0.00159,0.0,0.0
25.91,631.622,0.00158,0.0,0.0
25.932,629.398,0.00159,0.0,0.0
25.954,634.384,0.00158,0.0,0.0
25.977,633.781,0.00158,0.0,0.0
25.999,631.09,0.00158,0.0,0.0
26.021,625.798,0.0016,0.0,0.0
26.044,625.81,0.0016,0.0,0.0
26.066,618.732,0.00162,0.0,0.0
26.088,627.625,0.00159,0.0,0.0
26.111,632.555,0.00158,0.0,0.0
26.133,628.807,0.00159,0.0,0.0
26.155,629.77,0.00159,0.0,0.0
26.177,633.382,0.00158,0.0,0.0
26.2,618.041,0.00162,0.0,0.0
26.222,629.615,0.00159,0.0,0.0
26.244,625.479,0.0016,0.0,0.0
26.267,633.671,0.00158,0.0,0.0
26.289,620.179,0.00161,0.0,0.0
26.311,627.791,0.00159,0.0,0.0
26.334,622.138,0.00161,0.0,0.0
26.356,628.386,0.00159,0.0,0.0
26.378,629.987,0.00159,0.0,0.0
26.4,621.581,0.00161,0.0,0.0
26.423,623.956,0.0016,0.0,0.0
26.445,620.695,0.00161,0.0,0.0
26.467,622.209,0.00161,0.0,0.0
26.49,624.489,0.0016,0.0,0.0
26.512,622.937,0.00161,0.0,0.0
26.534,620.278,0.00161,0.0,0.0
26.556,617.15,0.00162,0.0,0.0
26.579,623.24,0.0016,0.0,0.0
26.601,619.446,0.00161,0.0,0.0
26.623,616.209,0.00162,0.0,0.0
26.646,621.364,0.00161,0.0,0.0
26.668,618.744,0.00162,0.0,0.0
26.69,622.241,0.00161,0.0,0.0
26.713,617.624,0.00162,0.0,0.0
26.735,620.262,0.00161,0.0,0.0
26.757,619.462,0.00161,0.0,0.0
26.78,623.932,0.0016,0.0,0.0
26.802,615.275,0.00163,0.0,0.0
26.824,619.339,0.00161,0.0,0.0
26.846,621.416,0.00161,0.0,0.0
26.869,619.268,0.00161,0.0,0.0
26.891,626.851,0.0016,0.0,0.0
26.913,616.217,0.00162,0.0,0.0
26.936,623.892,0.0016,0.0,0.0
26.958,621.655,0.00161,0.0,0.0
26.98,620.597,0.00161,0.0,0.0
27.003,621.774,0.00161,0.0,0.0
27.025,617.387,0.00162,0.0,0.0
27.047,618.434,0.00162,0.0,0.0
27.069,617.054,0.00162,0.0,0.0
27.092,621.748,0.00161,0.0,0.0
27.114,615.572,0.00162,0.0,0.0
27.136,619.466,0.00161,0.0,0.0
27.159,617.183,0.00162,0.0,0.0
27.181,620.213,0.00161,0.0,0.0
27.203,623.857,0.0016,0.0,0.0
27.226,620.216,0.00161,0.0,0.0
27.248,623.333,0.0016,0.0,0.0
27.27,617.813,0.00162,0.0,0.0
27.292,619.817,0.00161,0.0,0.0
27.315,613.866,0.00163,0.0,0.0
27.337,618.576,0.00162,0.0,0.0
27.359,617.423,0.00162,0.0,0.0
27.382,622.382,0.00161,0.0,0.0
27.404,616.525,0.00162,0.0,0.0
27.426,620.843,0.00161,0.0,0.0
27.449,621.279,0.00161,0.0,0.0
27.471,619.668,0.00161,0.0,0.0
27.493,617.653,0.00162,0.0,0.0
27.515,616.186,0.00162,0.0,0.0
27.538,614.479,0.00163,0.0,0.0
27.56,619.861,0.00161,0.0,0.0
27.582,615.767,0.00162,0.0,0.0
27.605,615.474,0.00162,0.0,0.0
27.627,613.293,0.00163,0.0,0.0
27.649,613.94,0.00163,0.0,0.0
27.672,611.946,0.00163,0.0,0.0
27.694,611.115,0.00164,0.0,0.0
27.716,613.227,0.00163,0.0,0.0
27.738,617.59,0.00162,0.0,0.0
27.761,618.052,0.00162,0.0,0.0
27.783,614.886,0.00163,0.0,0.0
27.805,615.742,0.00162,0.0,0.0
27.828,610.394,0.00164,0.0,0.0
27.85,614.54,0.00163,0.0,0.0
27.872,611.651,0.00163,0.0,0.0
27.895,614.276,0.00163,0.0,0.0
27.917,610.081,0.00164,0.0,0.0
27.939,615.645,0.00162,0.0,0.0
27.961,606.501,0.00165,0.0,0.0
27.984,607.063,0.00165,0.0,0.0
28.006,614.139,0.00163,0.0,0.0
28.028,605.515,0.00165,0.0,0.0
28.051,608.897,0.00164,0.0,0.0
28.073,605.301,0.00165,0.0,0.0
28.095,614.742,0.00163,0.0,0.0
28.117,612.026,0.00163,0.0,0.0
28.14,605.018,0.00165,0.0,0.0
28.162,608.483,0.00164,0.0,0.0
28.184,614.087,0.00163,0.0,0.0
28.207,617.589,0.00162,0.0,0.0
28.229,599.591,0.00167,0.0,0.0
28.251,606.852,0.00165,0.0,0.0
28.274,604.559,0.00165,0.0,0.0
28.296,603.06,0.00166,0.0,0.0
28.318,601.442,0.00166,0.0,0.0
28.341,600.406,0.00167,0.0,0.0
28.363,602.797,0.00166,0.0,0.0
28.385,599.262,0.00167,0.0,0.0
28.407,611.937,0.00163,0.0,0.0
28.43,609.397,0.00164,0.0,0.0
28.452,610.726,0.00164,0.0,0.0
28.474,608.968,0.00164,0.0,0.0
28.497,604.598,0.00165,0.0,0.0
28.519,608.511,0.00164,0.0,0.0
28.541,612.065,0.00163,0.0,0.0
28.564,604.313,0.00165,0.0,0.0
28.586,604.152,0.00166,0.0,0.0
28.608,605.783,0.00165,0.0,0.0
28.63,605.356,0.00165,0.0,0.0
28.653,604.68,0.00165,0.0,0.0
28.675,604.529,0.00165,0.0,0.0
28.697,614.742,0.00163,0.0,0.0
28.72,610.541,0.00164,0.0,0.0
28.742,607.831,0.00165,0.0,0.0
28.764,608.11,0.00164,0.0,0.0
28.787,610.784,0.00164,0.0,0.0
28.809,606.554,0.00165,0.0,0.0
28.831,613.913,0.00163,0.0,0.0
28.853,607.686,0.00165,0.0,0.0
28.876,610.062,0.00164,0.0,0.0
28.898,601.757,0.00166,0.0,0.0
28.92,608.392,0.00164,0.0,0.0
28.943,610.446,0.00164,0.0,0.0
28.965,602.487,0.00166,0.0,0.0
28.987,612.866,0.00163,0.0,0.0
29.01,609.463,0.00164,0.0,0.0
29.032,605.447,0.00165,0.0,0.0
29.054,608.72,0.00164,0.0,0.0
29.076,607.08,0.00165,0.0,0.0
29.099,607.699,0.00165,0.0,0.0
29.121,614.526,0.00163,0.0,0.0
29.143,603.532,0.00166,0.0,0.0
29.166,616.883,0.00162,0.0,0.0
29.188,614.355,0.00163,0.0,0.0
29.21,604.832,0.00165,0.0,0.0
29.233,601.444,0.00166,0.0,0.0
29.255,609.833,0.00164,0.0,0.0
29.277,604.258,0.00165,0.0,0.0
29.299,612.393,0.00163,0.0,0.0
29.322,611.091,0.00164,0.0,0.0
29.344,605.357,0.00165,0.0,0.0
29.366,609.445,0.00164,0.0,0.0
29.389,604.16,0.00166,0.0,0.0
29.411,602.74,0.00166,0.0,0.0
29.433,607.45,0.00165,0.0,0.0
29.456,606.664,0.00165,0.0,0.0
29.478,608.281,0.00164,0.0,0.0
29.5,605.667,0.00165,0.0,0.0
29.522,614.086,0.00163,0.0,0.0
29.545,609.285,0.00164,0.0,0.0
29.567,607.536,0.00165,0.0,0.0
29.589,607.379,0.00165,0.0,0.0
29.612,599.057,0.00167,0.0,0.0
29.634,612.737,0.00163,0.0,0.0
29.656,601.936,0.00166,0.0,0.0
29.678,605.931,0.00165,0.0,0.0
29.701,604.503,0.00165,0.0,0.0
29.723,606.435,0.00165,0.0,0.0
29.745,614.222,0.00163,0.0,0.0
29.768,600.2,0.00167,0.0,0.0
29.79,601.979,0.00166,0.0,0.0
29.812,611.218,0.00164,0.0,0.0
29.835,609.199,0.00164,0.0,0.0
29.857,605.147,0.00165,0.0,0.0
29.879,608.829,0.00164,0.0,0.0
29.902,608.597,0.00164,0.0,0.0
29.924,618.138,0.00162,0.0,0.0
29.946,609.776,0.00164,0.0,0.0
29.968,614.781,0.00163,0.0,0.0
29.991,607.195,0.00165,0.0,0.0
30.013,608.464,0.00164,0.0,0.0
30.035,611.205,0.00164,0.0,0.0
30.058,610.782,0.00164,0.0,0.0
30.08,608.657,0.00164,0.0,0.0
30.102,610.444,0.00164,0.0,0.0
30.125,614.243,0.00163,0.0,0.0
30.147,608.975,0.00164,0.0,0.0
30.169,616.193,0.00162,0.0,0.0
30.191,614.581,0.00163,0.0,0.0
30.214,611.838,0.00163,0.0,0.0
30.236,608.997,0.00164,0.0,0.0
30.258,608.23,0.00164,0.0,0.0
30.281,618.6,0.00162,0.0,0.0
30.303,617.367,0.00162,0.0,0.0
30.325,615.966,0.00162,0.0,0.0
30.348,617.822,0.00162,0.0,0.0
30.37,616.408,0.00162,0.0,0.0
30.392,612.682,0.00163,0.0,0.0
30.414,623.294,0.0016,0.0,0.0
30.437,614.704,0.00163,0.0,0.0
30.459,613.599,0.00163,0.0,0.0
30.481,611.803,0.00163,0.0,0.0
30.504,614.455,0.00163,0.0,0.0
30.526,618.371,0.00162,0.0,0.0
30.548,614.918,0.00163,0.0,0.0
30.571,620.446,0.00161,0.0,0.0
30.593,618.285,0.00162,0.0,0.0
30.615,612.483,0.00163,0.0,0.0
30.637,616.301,0.00162,0.0,0.0
30.66,619.35,0.00161,0.0,0.0
30.682,617.854,0.00162,0.0,0.0
30.704,608.925,0.00164,0.0,0.0
30.727,620.219,0.00161,0.0,0.0
30.749,615.278,0.00163,0.0,0.0
30.771,618.332,0.00162,0.0,0.0
30.794,619.551,0.00161,0.0,0.0
30.816,616.423,0.00162,0.0,0.0
30.838,617.147,0.00162,0.0,0.0
30.86,617.348,0.00162,0.0,0.0
30.883,619.588,0.00161,0.0,0.0
30.905,613.991,0.00163,0.0,0.0
30.927,621.847,0.00161,0.0,0.0
30.95,616.503,0.00162,0.0,0.0
30.972,617.027,0.00162,0.0,0.0
30.994,618.408,0.00162,0.0,0.0
31.017,616.142,0.00162,0.0,0.0
31.039,616.778,0.00162,0.0,0.0
31.061,615.448,0.00162,0.0,0.0
31.083,621.751,0.00161,0.0,0.0
31.106,625.853,0.0016,0.0,0.0
31.128,617.611,0.00162,0.0,0.0
31.15,617.708,0.00162,0.0,0.0
31.173,626.786,0.0016,0.0,0.0
31.195,621.056,0.00161,0.0,0.0
31.217,623.8,0.0016,0.0,0.0
31.239,613.499,0.00163,0.0,0.0
31.262,624.165,0.0016,0.0,0.0
31.284,617.27,0.00162,0.0,0.0
31.306,616.512,0.00162,0.0,0.0
31.329,619.305,0.00161,0.0,0.0
31.351,623.493,0.0016,0.0,0.0
31.373,618.192,0.00162,0.0,0.0
31.396,619.653,0.00161,0.0,0.0
31.418,622.057,0.00161,0.0,0.0
31.44,624.056,0.0016,0.0,0.0
31.463,621.954,0.00161,0.0,0.0
31.485,627.898,0.00159,0.0,0.0
31.507,627.17,0.00159,0.0,0.0
31.529,613.357,0.00163,0.0,0.0
31.552,618.687,0.00162,0.0,0.0
31.574,624.864,0.0016,0.0,0.0
31.596,623.812,0.0016,0.0,0.0
31.619,625.746,0.0016,0.0,0.0
31.641,624.331,0.0016,0.0,0.0
31.663,622.516,0.00161,0.0,0.0
31.686,624.676,0.0016,0.0,0.0
31.708,622.749,0.00161,0.0,0.0
31.73,623.173,0.0016,0.0,0.0
31.752,622.816,0.00161,0.0,0.0
31.775,624.243,0.0016,0.0,0.0
31.797,626.525,0.0016,0.0,0.0
31.819,623.444,0.0016,0.0,0.0
31.842,625.966,0.0016,0.0,0.0
31.864,626.822,0.0016,0.0,0.0
31.886,624.617,0.0016,0.0,0.0
31.909,627.933,0.00159,0.0,0.0
31.931,625.599,0.0016,0.0,0.0
31.953,632.114,0.00158,0.0,0.0
31.975,623.634,0.0016,0.0,0.0
31.998,624.28,0.0016,0.0,0.0
32.02,624.488,0.0016,0.0,0.0
32.042,631.307,0.00158,0.0,0.0
32.065,627.401,0.00159,0.0,0.0
32.087,626.211,0.0016,0.0,0.0
32.109,625.837,0.0016,0.0,0.0
32.132,624.525,0.0016,0.0,0.0
32.154,623.406,0.0016,0.0,0.0
32.176,636.42,0.00157,0.0,0.0
32.198,631.213,0.00158,0.0,0.0
32.221,619.572,0.00161,0.0,0.0
32.243,631.929,0.00158,0.0,0.0
32.265,630.591,0.00159,0.0,0.0
32.288,632.924,0.00158,0.0,0.0
32.31,629.03,0.00159,0.0,0.0
32.332,630.497,0.00159,0.0,0.0
32.355,626.466,0.0016,0.0,0.0
32.377,627.428,0.00159,0.0,0.0
32.399,634.923,0.00157,0.0,0.0
32.421,633.573,0.00158,0.0,0.0
32.444,630.438,0.00159,0.0,0.0
32.466,630.812,0.00159,0.0,0.0
32.488,626.568,0.0016,0.0,0.0
32.511,619.997,0.00161,0.0,0.0
32.533,629.829,0.00159,0.0,0.0
32.555,632.585,0.00158,0.0,0.0
32.578,626.446,0.0016,0.0,0.0
32.6,631.082,0.00158,0.0,0.0
32.622,631.665,0.00158,0.0,0.0
32.644,633.971,0.00158,0.0,0.0
32.667,637.016,0.00157,0.0,0.0
32.689,637.524,0.00157,0.0,0.0
32.711,637.318,0.00157,0.0,0.0
32.734,630.218,0.00159,0.0,0.0
32.756,632.081,0.00158,0.0,0.0
32.778,634.142,0.00158,0.0,0.0
32.8,636.924,0.00157,0.0,0.0
32.823,630.477,0.00159,0.0,0.0
32.845,629.665,0.00159,0.0,0.0
32.867,635.554,0.00157,0.0,0.0
32.89,638.469,0.00157,0.0,0.0
32.912,637.281,0.00157,0.0,0.0
32.934,640.006,0.00156,0.0,0.0
32.957,639.451,0.00156,0.0,0.0
32.979,639.842,0.00156,0.0,0.0
33.001,641.345,0.00156,0.0,0.0
33.023,639.676,0.00156,0.0,0.0
33.046,642.1,0.00156,0.0,0.0
33.068,635.881,0.00157,0.0,0.0
33.09,643.535,0.00155,0.0,0.0
33.113,644.738,0.00155,0.0,0.0
33.135,640.78,0.00156,0.0,0.0
33.157,639.896,0.00156,0.0,0.0
33.18,639.615,0.00156,0.0,0.0
33.202,640.458,0.00156,0.0,0.0
33.224,641.326,0.00156,0.0,0.0
33.246,641.358,0.00156,0.0,0.0
33.269,642.015,0.00156,0.0,0.0
33.291,648.286,0.00154,0.0,0.0
33.313,642.272,0.00156,0.0,0.0
33.336,637.965,0.00157,0.0,0.0
33.358,637.967,0.00157,0.0,0.0
33.38,646.624,0.00155,0.0,0.0
33.403,644.231,0.00155,0.0,0.0
33.425,646.923,0.00155,0.0,0.0
33.447,641.615,0.00156,0.0,0.0
33.469,644.82,0.00155,0.0,0.0
33.492,645.851,0.00155,0.0,0.0
33.514,653.535,0.00153,0.0,0.0
33.536,642.771,0.00156,0.0,0.0
33.559,645.245,0.00155,0.0,0.0
33.581,652.576,0.00153,0.0,0.0
33.603,651.615,0.00153,0.0,0.0
33.626,652.975,0.00153,0.0,0.0
33.648,652.775,0.00153,0.0,0.0
33.67,647.476,0.00154,0.0,0.0
33.692,644.652,0.00155,0.0,0.0
33.715,642.912,0.00156,0.0,0.0
33.737,651.746,0.00153,0.0,0.0
33.759,648.462,0.00154,0.0,0.0
33.782,653.694,0.00153,0.0,0.0
33.804,648.048,0.00154,0.0,0.0
33.826,651.663,0.00153,0.0,0.0
33.849,650.073,0.00154,0.0,0.0
33.871,649.104,0.00154,0.0,0.0
33.893,652.963,0.00153,0.0,0.0
33.915,653.856,0.00153,0.0,0.0
33.938,650.552,0.00154,0.0,0.0
33.96,655.551,0.00153,0.0,0.0
33.982,648.903,0.00154,0.0,0.0
34.005,659.593,0.00152,0.0,0.0
34.027,655.134,0.00153,0.0,0.0
34.049,656.631,0.00152,0.0,0.0
34.072,660.111,0.00151,0.0,0.0
34.094,658.06,0.00152,0.0,0.0
34.116,662.596,0.00151,0.0,0.0
34.139,657.801,0.00152,0.0,0.0
34.161,655.142,0.00153,0.0,0.0
34.183,657.443,0.00152,0.0,0.0
34.205,666.479,0.0015,0.0,0.0
34.228,660.524,0.00151,0.0,0.0
34.25,664.425,0.00151,0.0,0.0
34.272,663.32,0.00151,0.0,0.0
34.295,659.493,0.00152,0.0,0.0
34.317,665.061,0.0015,0.0,0.0
34.339,657.143,0.00152,0.0,0.0
34.361,667.616,0.0015,0.0,0.0
34.384,667.476,0.0015,0.0,0.0
34.406,665.905,0.0015,0.0,0.0
34.428,661.344,0.00151,0.0,0.0
34.451,663.493,0.00151,0.0,0.0
34.473,666.995,0.0015,0.0,0.0
34.495,662.567,0.00151,0.0,0.0
34.518,663.053,0.00151,0.0,0.0
34.54,663.043,0.00151,0.0,0.0
34.562,669.15,0.00149,0.0,0.0
34.584,673.291,0.00149,0.0,0.0
34.607,662.384,0.00151,0.0,0.0
34.629,673.18,0.00149,0.0,0.0
34.651,674.61,0.00148,0.0,0.0
34.674,674.497,0.00148,0.0,0.0
34.696,668.029,0.0015,0.0,0.0
34.718,671.446,0.00149,0.0,0.0
34.741,666.269,0.0015,0.0,0.0
34.763,672.716,0.00149,0.0,0.0
34.785,673.288,0.00149,0.0,0.0
34.807,669.77,0.00149,0.0,0.0
34.83,670.738,0.00149,0.0,0.0
34.852,668.284,0.0015,0.0,0.0
34.874,673.242,0.00149,0.0,0.0
34.897,675.464,0.00148,0.0,0.0
34.919,671.034,0.00149,0.0,0.0
34.941,678.429,0.00147,0.0,0.0
34.964,672.737,0.00149,0.0,0.0
34.986,674.853,0.00148,0.0,0.0
35.008,674.651,0.00148,0.0,0.0
35.03,678.027,0.00147,0.0,0.0
35.053,675.491,0.00148,0.0,0.0
35.075,680.575,0.00147,0.0,0.0
35.097,673.078,0.00149,0.0,0.0
35.12,683.515,0.00146,0.0,0.0
35.142,675.628,0.00148,0.0,0.0
35.164,677.233,0.00148,0.0,0.0
35.187,674.275,0.00148,0.0,0.0
35.209,674.768,0.00148,0.0,0.0
35.231,675.513,0.00148,0.0,0.0
35.253,676.014,0.00148,0.0,0.0
35.276,671.733,0.00149,0.0,0.0
35.298,672.809,0.00149,0.0,0.0
35.32,679.327,0.00147,0.0,0.0
35.343,680.276,0.00147,0.0,0.0
35.365,684.652,0.00146,0.0,0.0
35.387,683.198,0.00146,0.0,0.0
35.41,670.291,0.00149,0.0,0.0
35.432,671.615,0.00149,0.0,0.0
35.454,684.406,0.00146,0.0,0.0
35.476,677.676,0.00148,0.0,0.0
35.499,673.731,0.00148,0.0,0.0
35.521,677.097,0.00148,0.0,0.0
35.543,674.0,0.00148,0.0,0.0
35.566,678.687,0.00147,0.0,0.0
35.588,679.222,0.00147,0.0,0.0
35.61,678.786,0.00147,0.0,0.0
35.633,674.473,0.00148,0.0,0.0
35.655,671.14,0.00149,0.0,0.0
35.677,666.115,0.0015,0.0,0.0
35.7,678.548,0.00147,0.0,0.0
35.722,674.075,0.00148,0.0,0.0
35.744,675.175,0.00148,0.0,0.0
35.766,676.99,0.00148,0.0,0.0
35.789,669.951,0.00149,0.0,0.0
35.811,667.503,0.0015,0.0,0.0
35.833,673.591,0.00148,0.0,0.0
35.856,670.827,0.00149,0.0,0.0
35.878,682.987,0.00146,0.0,0.0
35.9,679.699,0.00147,0.0,0.0
35.922,680.175,0.00147,0.0,0.0
35.945,673.483,0.00148,0.0,0.0
35.967,676.132,0.00148,0.0,0.0
35.989,668.653,0.0015,0.0,0.0
36.012,669.232,0.00149,0.0,0.0
36.034,668.938,0.00149,0.0,0.0
36.056,666.786,0.0015,0.0,0.0
36.079,673.486,0.00148,0.0,0.0
36.101,664.43,0.00151,0.0,0.0
36.123,666.513,0.0015,0.0,0.0
36.145,668.088,0.0015,0.0,0.0
36.168,667.966,0.0015,0.0,0.0
36.19,664.407,0.00151,0.0,0.0
36.212,661.775,0.00151,0.0,0.0
36.235,668.936,0.00149,0.0,0.0
36.257,667.541,0.0015,0.0,0.0
36.279,666.223,0.0015,0.0,0.0
36.302,667.442,0.0015,0.0,0.0
36.324,659.696,0.00152,0.0,0.0
36.346,665.468,0.0015,0.0,0.0
36.368,665.007,0.0015,0.0,0.0
36.391,658.367,0.00152,0.0,0.0
36.413,656.628,0.00152,0.0,0.0
36.435,661.394,0.00151,0.0,0.0
36.458,660.272,0.00151,0.0,0.0
36.48,662.18,0.00151,0.0,0.0
36.502,662.535,0.00151,0.0,0.0
36.525,664.56,0.0015,0.0,0.0
36.547,657.46,0.00152,0.0,0.0
36.569,649.623,0.00154,0.0,0.0
36.591,657.603,0.00152,0.0,0.0
36.614,657.901,0.00152,0.0,0.0
36.636,652.404,0.00153,0.0,0.0
36.658,660.694,0.00151,0.0,0.0
36.681,662.911,0.00151,0.0,0.0
36.703,660.438,0.00151,0.0,0.0
36.725,666.098,0.0015,0.0,0.0
36.748,661.198,0.00151,0.0,0.0
36.77,654.181,0.00153,0.0,0.0
36.792,656.518,0.00152,0.0,0.0
36.814,652.43,0.00153,0.0,0.0
36.837,655.958,0.00152,0.0,0.0
36.859,658.963,0.00152,0.0,0.0
36.881,663.404,0.00151,0.0,0.0
36.904,655.282,0.00153,0.0,0.0
36.926,655.05,0.00153,0.0,0.0
36.948,648.452,0.00154,0.0,0.0
36.971,652.595,0.00153,0.0,0.0
36.993,652.856,0.00153,0.0,0.0
37.015,651.948,0.00153,0.0,0.0
37.037,654.369,0.00153,0.0,0.0
37.06,652.215,0.00153,0.0,0.0
37.082,646.058,0.00155,0.0,0.0
37.104,646.71,0.00155,0.0,0.0
37.127,657.07,0.00152,0.0,0.0
37.149,645.408,0.00155,0.0,0.0
37.171,659.729,0.00152,0.0,0.0
37.194,653.49,0.00153,0.0,0.0
37.216,661.983,0.00151,0.0,0.0
37.238,652.925,0.00153,0.0,0.0
37.261,654.447,0.00153,0.0,0.0
37.283,655.06,0.00153,0.0,0.0
37.305,654.805,0.00153,0.0,0.0
37.327,649.169,0.00154,0.0,0.0
37.35,657.309,0.00152,0.0,0.0
37.372,652.993,0.00153,0.0,0.0
37.394,660.282,0.00151,0.0,0.0
37.417,648.515,0.00154,0.0,0.0
37.439,658.052,0.00152,0.0,0.0
37.461,653.27,0.00153,0.0,0.0
37.483,653.719,0.00153,0.0,0.0
37.506,657.061,0.00152,0.0,0.0
37.528,651.704,0.00153,0.0,0.0
37.55,654.177,0.00153,0.0,0.0
37.573,657.897,0.00152,0.0,0.0
37.595,656.529,0.00152,0.0,0.0
37.617,656.478,0.00152,0.0,0.0
37.64,652.1,0.00153,0.0,0.0
37.662,657.526,0.00152,0.0,0.0
37.684,657.077,0.00152,0.0,0.0
37.706,657.016,0.00152,0.0,0.0
37.729,653.49,0.00153,0.0,0.0
37.751,658.483,0.00152,0.0,0.0
37.773,654.694,0.00153,0.0,0.0
37.796,653.631,0.00153,0.0,0.0
37.818,655.853,0.00152,0.0,0.0
37.84,650.675,0.00154,0.0,0.0
37.863,656.503,0.00152,0.0,0.0
37.885,654.426,0.00153,0.0,0.0
37.907,656.998,0.00152,0.0,0.0
37.929,661.521,0.00151,0.0,0.0
37.952,665.399,0.0015,0.0,0.0
37.974,654.474,0.00153,0.0,0.0
37.996,659.679,0.00152,0.0,0.0
38.019,653.375,0.00153,0.0,0.0
38.041,657.899,0.00152,0.0,0.0
38.063,660.235,0.00151,0.0,0.0
38.086,651.195,0.00154,0.0,0.0
38.108,656.401,0.00152,0.0,0.0
38.13,662.3,0.00151,0.0,0.0
38.152,659.369,0.00152,0.0,0.0
38.175,660.874,0.00151,0.0,0.0
38.197,661.256,0.00151,0.0,0.0
38.219,660.971,0.00151,0.0,0.0
38.242,658.659,0.00152,0.0,0.0
38.264,659.766,0.00152,0.0,0.0
38.286,659.558,0.00152,0.0,0.0
38.309,661.389,0.00151,0.0,0.0
38.331,662.004,0.00151,0.0,0.0
38.353,653.958,0.00153,0.0,0.0
38.375,660.391,0.00151,0.0,0.0
38.398,663.111,0.00151,0.0,0.0
38.42,656.023,0.00152,0.0,0.0
38.442,659.87,0.00152,0.0,0.0
38.465,656.059,0.00152,0.0,0.0
38.487,665.757,0.0015,0.0,0.0
38.509,653.895,0.00153,0.0,0.0
38.532,660.149,0.00151,0.0,0.0
38.554,659.421,0.00152,0.0,0.0
38.576,659.942,0.00152,0.0,0.0
38.598,659.204,0.00152,0.0,0.0
38.621,655.925,0.00152,0.0,0.0
38.643,654.937,0.00153,0.0,0.0
38.665,657.869,0.00152,0.0,0.0
38.688,658.239,0.00152,0.0,0.0
38.71,652.666,0.00153,0.0,0.0
38.732,658.794,0.00152,0.0,0.0
38.755,657.574,0.00152,0.0,0.0
38.777,655.857,0.00152,0.0,0.0
38.799,654.665,0.00153,0.0,0.0
38.822,654.942,0.00153,0.0,0.0
38.844,652.214,0.00153,0.0,0.0
38.866,662.342,0.00151,0.0,0.0
38.888,658.993,0.00152,0.0,0.0
38.911,661.649,0.00151,0.0,0.0
38.933,653.154,0.00153,0.0,0.0
38.955,655.448,0.00153,0.0,0.0
38.978,656.177,0.00152,0.0,0.0
39.0,661.882,0.00151,0.0,0.0
39.022,655.203,0.00153,0.0,0.0
39.044,654.186,0.00153,0.0,0.0
39.067,656.145,0.00152,0.0,0.0
39.089,659.15,0.00152,0.0,0.0
39.111,657.501,0.00152,0.0,0.0
39.134,660.283,0.00151,0.0,0.0
39.156,652.612,0.00153,0.0,0.0
39.178,661.938,0.00151,0.0,0.0
39.201,655.512,0.00153,0.0,0.0
39.223,659.287,0.00152,0.0,0.0
39.245,653.656,0.00153,0.0,0.0
39.267,652.739,0.00153,0.0,0.0
39.29,655.299,0.00153,0.0,0.0
39.312,667.445,0.0015,0.0,0.0
39.334,658.795,0.00152,0.0,0.0
39.357,653.427,0.00153,0.0,0.0
39.379,649.86,0.00154,0.0,0.0
39.401,657.889,0.00152,0.0,0.0
39.424,651.729,0.00153,0.0,0.0
39.446,656.552,0.00152,0.0,0.0
39.468,650.156,0.00154,0.0,0.0
39.49,658.137,0.00152,0.0,0.0
39.513,666.327,0.0015,0.0,0.0
39.535,657.031,0.00152,0.0,0.0
39.557,656.186,0.00152,0.0,0.0
39.58,658.135,0.00152,0.0,0.0
39.602,660.461,0.00151,0.0,0.0
39.624,657.792,0.00152,0.0,0.0
39.647,657.782,0.00152,0.0,0.0
39.669,653.905,0.00153,0.0,0.0
39.691,656.669,0.00152,0.0,0.0
39.713,657.501,0.00152,0.0,0.0
39.736,644.038,0.00155,0.0,0.0
39.758,654.745,0.00153,0.0,0.0
39.78,660.25,0.00151,0.0,0.0
39.803,653.768,0.00153,0.0,0.0
39.825,654.889,0.00153,0.0,0.0
39.847,661.518,0.00151,0.0,0.0
39.87,654.653,0.00153,0.0,0.0
39.892,666.218,0.0015,0.0,0.0
39.914,661.247,0.00151,0.0,0.0
39.936,656.193,0.00152,0.0,0.0
39.959,657.669,0.00152,0.0,0.0
39.981,654.702,0.00153,0.0,0.0
40.003,666.351,0.0015,0.0,0.0
40.026,650.734,0.00154,0.0,0.0
40.048,658.253,0.00152,0.0,0.0
40.07,655.711,0.00153,0.0,0.0
40.093,658.352,0.00152,0.0,0.0
40.115,652.074,0.00153,0.0,0.0
40.137,655.779,0.00152,0.0,0.0
40.16,661.931,0.00151,0.0,0.0
40.182,655.63,0.00153,0.0,0.0
40.204,657.736,0.00152,0.0,0.0
40.226,657.312,0.00152,0.0,0.0
40.249,655.593,0.00153,0.0,0.0
40.271,667.01,0.0015,0.0,0.0
40.293,664.45,0.00151,0.0,0.0
40.316,663.236,0.00151,0.0,0.0
40.338,656.239,0.00152,0.0,0.0
40.36,659.864,0.00152,0.0,0.0
40.383,654.169,0.00153,0.0,0.0
40.405,659.343,0.00152,0.0,0.0
40.427,652.881,0.00153,0.0,0.0
40.449,658.238,0.00152,0.0,0.0
40.472,659.433,0.00152,0.0,0.0
40.494,664.223,0.00151,0.0,0.0
40.516,664.947,0.0015,0.0,0.0
40.539,661.976,0.00151,0.0,0.0
40.561,665.274,0.0015,0.0,0.0
40.583,655.375,0.00153,0.0,0.0
40.605,656.404,0.00152,0.0,0.0
40.628,662.814,0.00151,0.0,0.0
40.65,663.173,0.00151,0.0,0.0
40.672,655.192,0.00153,0.0,0.0
40.695,662.007,0.00151,0.0,0.0
40.717,655.969,0.00152,0.0,0.0
40.739,664.345,0.00151,0.0,0.0
40.762,665.456,0.0015,0.0,0.0
40.784,667.047,0.0015,0.0,0.0
40.806,655.768,0.00152,0.0,0.0
40.828,663.942,0.00151,0.0,0.0
40.851,660.755,0.00151,0.0,0.0
40.873,664.113,0.00151,0.0,0.0
40.895,670.584,0.00149,0.0,0.0
40.918,663.027,0.00151,0.0,0.0
40.94,662.933,0.00151,0.0,0.0
40.962,658.666,0.00152,0.0,0.0
40.985,662.667,0.00151,0.0,0.0
41.007,663.936,0.00151,0.0,0.0
41.029,658.405,0.00152,0.0,0.0
41.051,667.613,0.0015,0.0,0.0
41.074,671.656,0.00149,0.0,0.0
41.096,659.006,0.00152,0.0,0.0
41.118,664.992,0.0015,0.0,0.0
41.141,658.827,0.00152,0.0,0.0
41.163,660.99,0.00151,0.0,0.0
41.185,665.158,0.0015,0.0,0.0
41.208,664.226,0.00151,0.0,0.0
41.23,668.728,0.0015,0.0,0.0
41.252,666.003,0.0015,0.0,0.0
41.274,667.203,0.0015,0.0,0.0
41.297,664.724,0.0015,0.0,0.0
41.319,666.363,0.0015,0.0,0.0
41.341,666.576,0.0015,0.0,0.0
41.364,671.696,0.00149,0.0,0.0
41.386,670.274,0.00149,0.0,0.0
41.408,661.818,0.00151,0.0,0.0
41.431,668.006,0.0015,0.0,0.0
41.453,670.796,0.00149,0.0,0.0
41.475,665.556,0.0015,0.0,0.0
41.497,665.921,0.0015,0.0,0.0
41.52,664.84,0.0015,0.0,0.0
41.542,668.765,0.0015,0.0,0.0
41.564,662.833,0.00151,0.0,0.0
41.587,668.207,0.0015,0.0,0.0
41.609,672.453,0.00149,0.0,0.0
41.631,670.015,0.00149,0.0,0.0
41.654,672.43,0.00149,0.0,0.0
41.676,670.366,0.00149,0.0,0.0
41.698,666.538,0.0015,0.0,0.0
41.721,674.224,0.00148,0.0,0.0
41.743,674.431,0.00148,0.0,0.0
41.765,670.559,0.00149,0.0,0.0
41.787,676.975,0.00148,0.0,0.0
41.81,673.221,0.00149,0.0,0.0
41.832,663.77,0.00151,0.0,0.0
41.854,668.756,0.0015,0.0,0.0
41.877,673.962,0.00148,0.0,0.0
41.899,670.938,0.00149,0.0,0.0
41.921,670.579,0.00149,0.0,0.0
41.944,678.33,0.00147,0.0,0.0
41.966,675.574,0.00148,0.0,0.0
41.988,669.247,0.00149,0.0,0.0
42.01,671.237,0.00149,0.0,0.0
42.033,672.148,0.00149,0.0,0.0
42.055,665.406,0.0015,0.0,0.0
42.077,680.892,0.00147,0.0,0.0
42.1,680.811,0.00147,0.0,0.0
42.122,673.735,0.00148,0.0,0.0
42.144,668.545,0.0015,0.0,0.0
42.166,675.925,0.00148,0.0,0.0
42.189,674.177,0.00148,0.0,0.0
42.211,667.46,0.0015,0.0,0.0
42.233,672.04,0.00149,0.0,0.0
42.256,676.562,0.00148,0.0,0.0
42.278,683.601,0.00146,0.0,0.0
42.3,674.308,0.00148,0.0,0.0
42.323,676.833,0.00148,0.0,0.0
42.345,674.4,0.00148,0.0,0.0
42.367,677.541,0.00148,0.0,0.0
42.389,672.362,0.00149,0.0,0.0
42.412,682.413,0.00147,0.0,0.0
42.434,676.403,0.00148,0.0,0.0
42.456,675.618,0.00148,0.0,0.0
42.479,676.515,0.00148,0.0,0.0
42.501,679.893,0.00147,0.0,0.0
42.523,678.198,0.00147,0.0,0.0
42.546,680.298,0.00147,0.0,0.0
42.568,674.234,0.00148,0.0,0.0
42.59,675.695,0.00148,0.0,0.0
42.612,684.461,0.00146,0.0,0.0
42.635,673.983,0.00148,0.0,0.0
42.657,669.976,0.00149,0.0,0.0
42.679,686.031,0.00146,0.0,0.0
42.702,674.074,0.00148,0.0,0.0
42.724,675.674,0.00148,0.0,0.0
42.746,678.898,0.00147,0.0,0.0
42.769,677.004,0.00148,0.0,0.0
42.791,683.262,0.00146,0.0,0.0
42.813,677.222,0.00148,0.0,0.0
42.835,679.009,0.00147,0.0,0.0
42.858,671.247,0.00149,0.0,0.0
42.88,677.889,0.00148,0.0,0.0
42.902,680.918,0.00147,0.0,0.0
42.925,681.971,0.00147,0.0,0.0
42.947,679.369,0.00147,0.0,0.0
42.969,674.778,0.00148,0.0,0.0
42.992,677.243,0.00148,0.0,0.0
43.014,685.641,0.00146,0.0,0.0
43.036,682.738,0.00146,0.0,0.0
43.058,678.138,0.00147,0.0,0.0
43.081,678.698,0.00147,0.0,0.0
43.103,684.325,0.00146,0.0,0.0
43.125,683.738,0.00146,0.0,0.0
43.148,677.767,0.00148,0.0,0.0
43.17,675.792,0.00148,0.0,0.0
43.192,676.145,0.00148,0.0,0.0
43.215,681.897,0.00147,0.0,0.0
43.237,681.977,0.00147,0.0,0.0
43.259,680.459,0.00147,0.0,0.0
43.282,676.163,0.00148,0.0,0.0
43.304,680.613,0.00147,0.0,0.0
43.326,684.226,0.00146,0.0,0.0
43.348,682.796,0.00146,0.0,0.0
43.371,685.189,0.00146,0.0,0.0
43.393,684.382,0.00146,0.0,0.0
43.415,679.855,0.00147,0.0,0.0
43.438,681.316,0.00147,0.0,0.0
43.46,679.914,0.00147,0.0,0.0
43.482,681.813,0.00147,0.0,0.0
43.505,684.715,0.00146,0.0,0.0
43.527,679.494,0.00147,0.0,0.0
43.549,674.317,0.00148,0.0,0.0
43.571,679.355,0.00147,0.0,0.0
43.594,686.84,0.00146,0.0,0.0
43.616,689.772,0.00145,0.0,0.0
43.638,686.283,0.00146,0.0,0.0
43.661,684.506,0.00146,0.0,0.0
43.683,680.459,0.00147,0.0,0.0
43.705,681.901,0.00147,0.0,0.0
43.727,686.373,0.00146,0.0,0.0
43.75,686.859,0.00146,0.0,0.0
43.772,689.441,0.00145,0.0,0.0
43.794,687.07,0.00146,0.0,0.0
43.817,690.56,0.00145,0.0,0.0
43.839,683.922,0.00146,0.0,0.0
43.861,687.167,0.00146,0.0,0.0
43.884,691.765,0.00145,0.0,0.0
43.906,692.425,0.00144,0.0,0.0
43.928,686.386,0.00146,0.0,0.0
43.95,698.721,0.00143,0.0,0.0
43.973,689.812,0.00145,0.0,0.0
43.995,680.273,0.00147,0.0,0.0
44.017,695.551,0.00144,0.0,0.0
44.04,694.037,0.00144,0.0,0.0
44.062,694.562,0.00144,0.0,0.0
44.084,692.959,0.00144,0.0,0.0
44.107,691.651,0.00145,0.0,0.0
44.129,688.262,0.00145,0.0,0.0
44.151,682.894,0.00146,0.0,0.0
44.173,688.939,0.00145,0.0,0.0
44.196,688.227,0.00145,0.0,0.0
44.218,686.827,0.00146,0.0,0.0
44.24,691.837,0.00145,0.0,0.0
44.263,689.896,0.00145,0.0,0.0
44.285,691.116,0.00145,0.0,0.0
44.307,695.923,0.00144,0.0,0.0
44.33,692.028,0.00145,0.0,0.0
44.352,697.24,0.00143,0.0,0.0
44.374,682.705,0.00146,0.0,0.0
44.396,688.507,0.00145,0.0,0.0
44.419,697.382,0.00143,0.0,0.0
44.441,690.079,0.00145,0.0,0.0
44.463,689.818,0.00145,0.0,0.0
44.486,692.832,0.00144,0.0,0.0
44.508,696.755,0.00144,0.0,0.0
44.53,696.011,0.00144,0.0,0.0
44.553,700.382,0.00143,0.0,0.0
44.575,684.937,0.00146,0.0,0.0
44.597,695.68,0.00144,0.0,0.0
44.619,702.945,0.00142,0.0,0.0
44.642,703.898,0.00142,0.0,0.0
44.664,694.69,0.00144,0.0,0.0
44.686,697.657,0.00143,0.0,0.0
44.709,699.865,0.00143,0.0,0.0
44.731,697.378,0.00143,0.0,0.0
44.753,703.251,0.00142,0.0,0.0
44.776,700.501,0.00143,0.0,0.0
44.798,703.939,0.00142,0.0,0.0
44.82,703.664,0.00142,0.0,0.0
44.843,696.401,0.00144,0.0,0.0
44.865,697.729,0.00143,0.0,0.0
44.887,698.658,0.00143,0.0,0.0
44.909,697.598,0.00143,0.0,0.0
44.932,700.426,0.00143,0.0,0.0
44.954,705.001,0.00142,0.0,0.0
44.976,697.794,0.00143,0.0,0.0
44.999,705.931,0.00142,0.0,0.0
45.021,704.713,0.00142,0.0,0.0
45.043,700.403,0.00143,0.0,0.0
45.066,708.306,0.00141,0.0,0.0
45.088,705.377,0.00142,0.0,0.0
45.11,704.021,0.00142,0.0,0.0
45.132,702.737,0.00142,0.0,0.0
45.155,703.983,0.00142,0.0,0.0
45.177,703.192,0.00142,0.0,0.0
45.199,702.538,0.00142,0.0,0.0
45.222,691.959,0.00145,0.0,0.0
45.244,693.123,0.00144,0.0,0.0
45.266,701.173,0.00143,0.0,0.0
45.288,708.94,0.00141,0.0,0.0
45.311,701.007,0.00143,0.0,0.0
45.333,694.501,0.00144,0.0,0.0
45.355,704.646,0.00142,0.0,0.0
45.378,692.838,0.00144,0.0,0.0
