x,y_obs
0.205616721074979,355.832
0.213841397066823,410.349
0.224122243243134,416.577
0.232346921172812,476.838
0.242627769873768,396.017
0.250852449905044,470.882
0.259077130922929,343.919
0.269357983631985,413.719
0.277582666988015,388.398
0.287863522722104,474.232
0.296088208580042,403.469
0.304312895602505,364.155
0.314593756067479,462.863
0.3228184458284,565.049
0.333099309818799,439.97
0.341324002481942,458.828
0.349548696487528,509.545
0.359829565931604,559.799
0.368054263075965,518.582
0.378335136545862,510.452
0.386559836992763,612.918
0.394784538960027,566.709
0.405065418606401,525.265
0.413290124112759,466.533
0.423571008285356,578.455
0.431795717494579,516.493
0.440020428402086,416.507
0.450301319473966,467.878
0.458526034320894,519.219
0.468806930419406,453.881
0.477031649369525,483.993
0.485256370195853,523.722
0.495537273916466,406.817
0.503761999082545,564.541
0.514042908330205,574.734
0.522267637999809,505.892
0.530492369723549,384.216
0.540773287316136,488.504
0.548998023779964,495.036
0.559278947400022,507.974
0.567503688767714,536.036
0.575728432367472,460.801
0.586009365055296,490.54
0.594234113795485,566.081
0.60451505301121,531.464
0.61273980705561,533.047
0.620964563510007,565.411
0.63124551251635,500.326
0.63947027451153,531.166
0.649751230546214,502.646
0.657975998245957,529.625
0.666200768533635,477.141
0.6764817350818,461.473
0.684706511310618,469.538
0.694987485387574,540.186
0.703212267721317,536.234
0.711437052820933,484.029
0.72171803813425,459.805
0.729942829575372,452.741
0.74022382291794,505.34
0.748448620864356,510.58
0.75667342175459,585.15
0.766954427056413,506.587
0.775179234688527,498.939
0.785460248520071,489.299
0.793685063057858,504.538
0.801909880717409,454.705
0.812190907231119,517.596
0.820415732032935,466.449
0.830696767576848,557.685
0.838921599684725,549.035
0.847146435092318,558.902
0.857427484041324,509.915
0.865652326991575,446.999
0.87593338547128,522.458
0.88415823612799,551.352
0.892383090262372,530.072
0.902664162870116,452.902
0.91088902494756,525.973
0.92117010758651,525.124
0.929394977770822,441.706
0.937619851610765,585.506
0.947900949100721,522.626
0.956125831284142,514.92
0.966406939305825,567.292
0.974631829996533,481.323
0.982856724520838,525.558
0.993137848116512,565.352
1.00136275138472,550.914
1.01164388601266,432.667
1.01986879818859,535.357
1.02809371437608,549.524
1.03837486530102,446.244
1.04659979063286,603.395
1.05688095309061,528.246
1.06510588773061,512.216
1.07333082656015,478.719
1.08361200603793,490.424
1.09183695441226,523.099
1.10211814592342,508.637
1.11034310400638,596.703
1.11856806645686,536.837
1.1288492757111,503.994
1.13707424810683,571.501
1.14735546989504,492.024
1.15558045239986,536.962
1.1638054394502,553.204
1.17408667970456,485.369
1.18231167710063,558.06
1.19259293038956,504.338
1.2008179382952,494.366
1.20904295092435,594.822
1.21932422340254,515.881
1.22754924677791,529.412
1.23783053279128,524.591
1.24605556707672,600.327
1.25428060626368,567.716
1.26456191218943,550.552
1.27278696252312,576.613
1.28306828248469,570.736
1.29129334412895,642.974
1.29951841085274,608.892
1.30979975144985,619.878
1.31802482972089,586.333
1.32830618485447,602.667
1.33653127483662,551.809
1.3447563700763,606.314
1.35503774656861,644.646
1.36326285375608,626.142
1.37354424528554,572.615
1.38176936458466,575.489
1.38999448931933,566.655
1.40027590293073,609.505
1.40850104001375,609.173
1.41878246916299,692.693
1.42700761875822,598.622
1.43523277396703,619.571
1.44551422592146,702.159
1.45373939387918,672.067
1.46402086187217,633.095
1.47224604274269,640.213
1.48047122940482,671.722
1.49075272092627,614.012
1.4989779207379,605.76
1.50925942879865,625.738
1.51748464192367,643.032
1.52570986101835,634.969
1.53599139333086,644.485
1.54421662597565,645.692
1.55449817532823,644.398
1.56272342168702,646.348
1.57094867419352,656.691
1.5812302485212,709.793
1.58945551497843,665.009
1.59973710684696,668.469
1.60796238741882,700.005
1.61618767431647,675.305
1.62646929188347,647.777
1.63469459313248,657.329
1.64497622874114,727.74
1.65320154450544,763.82
1.66142686677359,741.703
1.67170852880413,737.585
1.67993386582432,741.391
1.69021554639735,756.818
1.69844089833349,673.498
1.70666625695155,731.133
1.71694796466991,741.11
1.7251733384407,813.816
1.73545506520241,746.029
1.74368045428984,784.718
1.75190585023728,814.885
1.7621876048678,664.854
1.77041301636867,735.84
1.78069479054343,804.254
1.78892021776165,756.241
1.79714565201798,800.714
1.80742745478507,857.217
1.81565290499555,820.359
1.82593472780779,942.361
1.83416019413636,842.694
1.84238566768115,862.381
1.85266751980928,824.946
1.86089300970897,830.744
1.87117488238318,944.568
1.87940038880171,912.277
1.88762590261458,937.402
1.89790780532828,918.014
1.90613333589681,864.925
1.91641525965757,849.109
1.92464080714573,887.125
1.93286636220634,924.46
1.94314831673023,1002.832
1.9513738889473,969.255
1.96165586501924,1030.446
1.96988145455674,955.863
1.97810705184484,947.088
1.98838905940359,1071.477
1.99661467424896,1094.319
2.00689670385678,1000.032
2.0151223364234,1147.231
2.02334797691877,1175.315
2.03363003873713,1132.828
2.04185569719061,1100.205
2.0521377815591,1114.553
2.06036345813469,1107.077
2.06858914281717,1171.863
2.07887126011997,1080.658
2.08709696316143,1321.023
2.09737910351544,1207.177
2.10560482507988,1163.458
2.1138305549294,1288.348
2.12411272894153,1193.885
2.13233847755091,1241.366
2.14262067511537,1228.007
2.15084644264863,1184.371
2.15907221864513,1291.945
2.16935445059158,1164.738
2.17758024574887,1321.313
2.1878625017488,1346.309
2.19608831623089,1184.395
2.20431413935443,1364.384
2.21459643046024,1393.698
2.2228222731455,1428.896
2.23310458880599,1310.256
2.241330451217,1446.221
2.24955632244766,1275.359
2.25983867393799,1416.264
2.26806456513134,1350.789
2.27834694167755,1446.248
2.28657285299764,1396.905
2.29479877331559,1382.963
2.30508118641565,1460.332
2.31330712709728,1518.941
2.32358956575448,1495.28
2.33181552696385,1555.686
2.34004149734932,1408.634
2.35032397328441,1494.636
2.35854996443459,1506.318
2.3688324664281,1566.603
2.37705847850705,1533.808
2.38528449994034,1524.931
2.39556703993586,1558.86
2.4037930825349,1682.891
2.41407564909017,1581.82
2.42230171301904,1719.514
2.43052778648051,1732.594
2.44081039176194,1513.746
2.44903648679025,1676.028
2.45931911913278,1654.151
2.46754523589201,1600.316
2.47577136236211,1680.426
2.48605403415501,1608.629
2.49428018259305,1657.03
2.50456288194844,1656.769
2.51278905251853,1733.922
2.52101523297777,1744.125
2.53129797250779,1682.213
2.53952417533612,1676.727
2.54980694293007,1776.886
2.55803316829159,1575.946
2.56625940372055,1884.369
2.57654221221346,1712.244
2.58476847041267,1802.484
2.59505130747098,1940.47
2.60327758860457,1830.208
2.61150387998391,1855.976
2.62178675866555,1753.646
2.63001307321634,1919.261
2.64029598096489,1846.99
2.64852231885128,1797.579
2.65674866716174,1867.362
2.66703161725805,1782.612
2.6752579891412,1848.477
2.68554096880596,1937.829
2.69376736442595,1909.398
2.70199377064834,1913.388
2.71227679338536,1998.84
2.72050322358171,1914.507
2.73078627638877,1903.92
2.73901273072324,2033.327
2.74723919583847,2004.301
2.75752229244233,2033.407
2.7657487819328,2055.366
2.77603190910834,1917.133
2.78425842313826,2082.053
2.79248494812728,2020.458
2.80276811982423,1996.296
2.81099466958984,2163.009
2.82127787236014,2053.161
2.82950444706653,2031.825
2.83773103291042,2042.987
2.84801428092679,1967.233
2.85624089194863,2157.304
2.86652417154008,2107.97
2.87475080790407,2073.618
2.88297745558396,2144.196
2.89326078114621,2125.075
2.90148745440545,2094.153
2.91177081204453,2227.818
2.91999751104734,2133.751
2.92822422154445,2217.377
2.93850762587913,2210.405
2.94673436235703,2126.58
2.95701779927033,2252.614
2.96524456189326,2127.236
2.97347133618891,2180.307
2.98375482052267,2228.295
2.99198162120058,2108.129
3.00226513861481,2192.384
3.01049196583923,2208.382
3.01871880491481,2198.225
3.02900237047443,2181.101
3.03722923633378,2234.747
3.04751283547577,2277.224
3.05573972828314,2217.363
3.06396663312015,2158.524
3.0742502811325,2301.744
3.08247721315481,2364.742
3.09276089525148,2298.428
3.10098785462337,2295.623
3.10921482620337,2337.669
3.11949855789546,2302.313
3.12772555706235,2251.686
3.13800932334073,2307.326
3.1462363502588,2417.886
3.15446338956346,2378.445
3.16474720616239,2241.041
3.17297427345556,2338.833
3.18325812514281,2189.784
3.19148522058879,2224.419
3.19971232859989,2398.356
3.20999623133287,2302.484
3.21822336773413,2383.112
3.22850730605752,2303.291
3.23673447101326,2354.821
3.24496164871263,2287.481
3.25524563880702,2198.714
3.26347284529825,2174.402
3.27375687148517,2295.003
3.2819841069326,2201.603
3.29021135530219,2348.181
3.30049543398546,2337.054
3.30872271154864,2386.85
3.31900682682662,2338.098
3.32723413374775,2264.581
3.33546145376963,2420.26
3.34574562226934,2341.512
3.35397297188657,2184.881
3.36425717748322,2256.509
3.3724845568602,2236.35
3.38071194951649,2329.83
3.39099620906036,2281.148
3.39922363171383,2123.76
3.40950792885692,2236.501
3.41773538167196,2281.862
3.42596284794491,2278.73
3.43624719976077,2386.773
3.44447469643276,2314.348
3.45475908635016,2240.651
3.46298661358559,2308.158
3.47121415445755,2200.756
3.48149859977335,2247.194
3.48972617144624,2246.975
3.50001065536597,2244.447
3.50823825800423,2182.171
3.51646587445764,2121.378
3.52675041450146,2195.243
3.53497806215775,2112.783
3.54526264130794,2141.67
3.55349032033155,2196.897
3.56171801334897,2199.591
3.57200264934903,2123.416
3.58023037397131,2124.222
3.59051504958023,2115.656
3.59874280597182,2155.023
3.60697057653589,2173.145
3.61725530972055,2106.969
3.62548311229151,2288.493
3.63576788558756,2312.837
3.64399572032987,2238.18
3.65222356942337,2409.476
3.66250840102109,2463.361
3.67073628252354,2558.283
3.68102115473525,2659.837
3.68924906881115,2672.675
3.69747699741694,2947.093
3.70776192865633,3171.824
3.71598989007318,3246.301
3.72627486242923,3589.582
3.73450285682166,3692.823
3.74273086592271,3981.939
3.75301589803254,4195.728
3.76124394034681,4378.965
3.771529014076,4736.872
3.77975708976803,5041.734
3.78798518034743,5169.135
3.79827031455658,5542.987
3.80649843875141,5720.489
3.81678361508268,5962.372
3.82501177305749,6191.012
3.83323994609845,6271.891
3.84352518363593,6463.865
3.85175339069457,6540.404
3.86203867085701,6580.01
3.87026691209789,6717.283
3.87849516858371,6593.31
3.88878051067871,6540.023
3.89700880158451,6378.755
3.90729418680734,6160.207
3.91552251229771,6053.631
3.92375085321182,5805.351
3.93403630109364,5506.187
3.94226467683007,5278.132
3.95255016834267,5016.715
3.96077857906603,4724.508
3.96900700539198,4452.226
3.97929256029009,4126.491
3.98752102184074,3891.08
3.99780662087263,3685.341
4.00603511781263,3341.61
4.01426363053406,3200.865
4.02454929367806,3004.695
4.03277784202664,2772.239
4.04306354980748,2677.029
4.05129213394787,2489.691
4.05952073404857,2542.202
4.0698065066682,2404.892
4.07803514279855,2287.939
4.08832096055815,2361.852
4.0965496328828,2255.884
4.10477832134667,2223.831
4.11506420467184,2269.211
4.12329292956789,2174.396
4.13357885853621,2254.537
4.14180762002913,2239.71
4.15003639784019,2163.094
4.16032239310095,2243.606
4.16855120774677,2229.224
4.17883724915394,2183.215
4.18706610079923,2251.89
4.19529496894161,2152.692
4.20558107736818,2203.853
4.21380998274796,2174.477
4.22409613782424,2194.837
4.23232508060616,2288.798
4.24055404006412,2223.519
4.25084026288685,2255.718
4.25906925998491,2271.705
4.26935552996073,2140.957
4.27758456486363,2297.322
4.28581361662158,2263.164
4.29609995507099,2270.363
4.30432904487177,2326.63
4.3146154309777,2255.252
4.32284455898609,2375.599
4.33107370402853,2220.983
4.3413601593353,2229.655
4.34958934282336,2449.785
4.35987584629016,2310.246
4.36810506838865,2262.174
4.37633430770022,2324.263
4.38662088109519,2263.277
4.39485015925524,2280.031
4.4051367813138,2359.242
4.41336609848714,2182.774
4.42159543305262,2381.5
4.43188212576678,2379.661
4.44011149958364,2217.38
4.45039824146504,2351.757
4.45862765469811,2303.777
4.4668570855024,2229.519
4.47714389876692,2300.237
4.48537336922554,2289.182
4.495660232161,2294.848
4.50388974243881,2348.322
4.51211927046695,2299.97
4.52240620551316,2282.468
4.53063577359864,2283.636
4.54092275881956,2275.076
4.54915236712725,2261.914
4.55738199336441,2167.369
4.56766905142379,2301.636
4.57589871812134,2216.566
4.58618582685929,2108.146
4.59441553418214,2299.033
4.60264525961362,2150.444
4.61293244191785,2202.73
4.62116220821284,2184.738
4.63144944169954,2131.541
4.63967924902297,2259.534
4.64790907463421,2166.393
4.65819638241511,2189.096
4.66642624929304,2229.604
4.67671360876039,2153.017
4.68494351706995,2148.676
4.69317344384652,2111.55
4.70346087833611,2105.202
4.7116908467826,2180.682
4.72197833346269,2207.444
4.73020834374407,2081.897
4.73843837267169,2177.692
4.74872593510214,2176.948
4.75695600610297,2090.694
4.76724362122805,2146.74
4.77547373446707,2099.067
4.7837038665316,2210.536
4.79399155813527,2180.766
4.80222173267634,2130.118
4.81250947747884,2231.182
4.82073969466148,2146.774
4.82896993084891,2100.326
4.83925775285833,2134.62
4.84748803192571,2079.547
4.85777590763822,2239.459
4.8660062297506,2177.267
4.87423657104706,2137.37
4.88452452469494,2263.125
4.89275490927483,2173.335
4.90304291713014,2166.824
4.91127334515851,2213.097
4.9195037925503,2055.667
4.92979187906953,2246.846
4.93802237014826,2151.288
4.94831051137934,2030.105
4.9565410463101,2269.698
4.96477160078365,2111.875
4.97505982140731,2095.384
4.98329041997137,2137.528
4.99357869581137,2062.946
5.00180933863107,2191.876
5.01004000117294,2115.328
5.02032835713429,2029.613
5.02855906417032,2210.703
5.03884747585257,2137.882
5.04707822754791,2236.297
5.05530899914484,2137.518
5.06559749167731,2070.516
5.0738283081721,2137.302
5.08411685693012,2153.991
5.09234771848794,2135.688
5.1005786001268,2179.759
5.11086723046403,2099.889
5.11909815740451,2107.366
5.12938684447201,2103.799
5.13761781687932,2053.907
5.14584880954712,2176.268
5.15613757892293,2123.013
5.16436861729619,2036.031
5.17465744390707,2118.492
5.182888528151,2116.146
5.19111963283494,2120.38
5.20140854248333,2121.331
5.20963969327661,2034.748
5.21992866066496,2115.88
5.22815985773283,2071.846
5.23639107542022,2014.068
5.24668012657541,2084.337
5.2549113907761,2039.554
5.2652005001762,2124.439
5.27343181105546,2126.298
5.2816631427338,1952.686
5.29195233663018,2129.827
5.30018371522583,2030.688
5.31047296787216,2033.697
5.31870439355042,2128.575
5.32693584020735,2001.92
5.33722517807951,2070.585
5.34545667205783,2069.872
5.35574606918506,1947.298
5.3639776106501,2128.642
5.37220917327342,2046.979
5.38249865635615,2051.635
5.39073026670501,2101.764
5.401019809548,2026.068
5.40925146778775,2077.721
5.41748314736542,2056.96
5.42777277689371,2038.96
5.43600450460113,2103.291
5.44629419439497,2037.351
5.45452597039752,1936.351
5.46275776791765,2058.404
5.47304754512671,2003.231
5.48127939118087,2019.251
5.49156922916083,2036.788
5.49980112391443,1910.146
5.50803304036531,2054.907
5.51832296649051,2007.995
5.52655493187977,2017.195
5.53684491928133,2014.532
5.54507693377439,2013.426
5.55330897014447,1991.387
5.56359904642142,1985.011
5.57183113213428,1936.582
5.58212127019312,2013.374
5.59035340541423,1972.954
5.59858556269212,1942.011
5.60887579035662,2026.656
5.61710799738177,1957.688
5.62739828733377,1943.766
5.63563054427168,2009.818
5.64386282344614,1962.997
5.65415320373421,2019.861
5.66238553306049,2053.454
5.67267597614176,2026.445
5.68090835578537,2118.695
5.68914075784536,2028.852
5.69943129199321,2081.449
5.70766374460963,2158.963
5.71795434205648,2066.662
5.72618684539487,2195.137
5.73441937132951,2163.813
5.74471006057358,2105.051
5.75294263746933,2207.103
5.76323339051827,2182.038
5.7714660185407,2172.461
5.77969866933925,2202.262
5.78998951491619,2151.915
5.79822221708062,2239.533
5.80851312696839,2209.926
5.81674588066428,2169.858
5.82497865731621,2263.66
5.83526966046288,2202.777
5.8435024888855,2234.166
5.85379355684906,2250.552
5.86202643720801,2248.226
5.87025934070293,2315.048
5.88055050265641,2298.674
5.88878345832693,2332.181
5.89907468560344,2403.984
5.90730769361521,2371.899
5.91554072494294,2306.185
5.92583204694053,2271.382
5.93406513084882,2197.52
5.94435651867566,2223.063
5.9525896553302,2193.152
5.96082281548071,2152.324
5.97111429875992,2204.139
5.97934751189603,2199.782
5.98963906151081,2193.882
5.99787232779825,2175.09
6.00610561776169,2181.744
6.01639726356025,2231.31
6.02463060691441,2238.372
6.03492231955497,2156.405
6.0431557164656,2291.095
6.0513891372323,2212.308
6.06168094678819,2264.366
6.0699144213508,2319.66
6.08020629825518,2248.513
6.08843982677948,2300.287
6.09667337933997,2309.655
6.10696535389136,2249.816
6.11519896065301,2293.911
6.12549100305949,2211.336
6.13372466418812,2197.914
6.14195834953308,2226.352
6.1522504903184,2092.106
6.16048423026986,2105.394
6.17077643941695,2031.937
6.17901023414076,1960.176
6.18724405326106,1985.794
6.19753636151894,1941.836
6.20577023565116,1928.532
6.21606261277759,1905.053
6.2242965420876,1803.407
6.23253049597432,1899.131
6.24282297294363,1842.328
6.25105698224774,1798.96
6.26134952859249,1801.764
6.26958359347992,1774.609
6.27781768312429,1754.785
6.28811033004413,1832.083
6.29634447551147,1725.327
6.30663719231373,1794.482
6.31487139376996,1747.98
6.32310562016342,1739.398
6.33339843827314,1745.022
6.3416327208952,1745.831
6.35192560939441,1733.684
6.36015994841104,1806.815
6.36839431254521,1713.437
6.37868730308438,1792.055
6.38692172385286,1800.74
6.39721478528869,1699.902
6.40544926285749,1732.18
6.41368376572417,1772.262
6.42397692993261,1739.623
6.43221148983941,1766.72
6.44250472545176,1677.671
6.4507393425647,1738.811
6.45897398515589,1742.394
6.46926732427364,1710.157
6.47750202431083,1734.517
6.48779543533986,1698.674
6.4960301929891,1695.075
6.504264976297,1697.563
6.51455849156435,1626.966
6.5227933327242,1759.88
6.53308692041029,1714.563
6.54132181958817,1663.358
6.54955674460517,1730.089
6.55985043726266,1667.007
6.56808542053764,1680.518
6.57837918612143,1683.548
6.58661422782051,1645.695
6.59484929553918,1722.745
6.60514316682758,1666.119
6.61337829321035,1649.332
6.62367223793271,1670.688
6.63190742314572,1605.629
6.64014263455886,1647.22
6.65043668571919,1667.676
6.65867195620261,1674.313
6.66896608130467,1651.593
6.67720141102456,1659.588
6.68543676712512,1636.2
6.69573099939866,1641.993
6.70396641497579,1674.556
6.71426072169892,1607.215
6.72249619691882,1692.3
6.73073169869999,1627.565
6.74102611332826,1654.349
6.74926167499235,1681.905
6.75955616457817,1597.676
6.76779178629143,1676.29
6.77602743474658,1691.854
6.78632203297135,1658.446
6.79455774171586,1696.899
6.80485241540625,1708.638
6.8130881846064,1706.233
6.82132398072911,1767.685
6.8316187637924,1692.305
6.83985462061099,1791.793
6.85014947964807,1752.287
6.85838539732887,1721.642
6.86662134211292,1793.549
6.87691631125701,1748.151
6.88515231714354,1772.807
6.89544736276971,1789.836
6.90368342992508,1767.72
6.91191952436447,1845.265
6.92221468083189,1843.343
6.93045083678044,1822.563
6.94074607023832,1871.972
6.94898228786244,1862.806
6.95721853295134,1929.775
6.96751387798489,1925.293
6.97575018498974,1917.48
6.98604560752224,1989.769
6.99428197660946,2018.82
7.00251837334228,2037.82
7.01281390818501,2085.876
7.02105036724064,2105.354
7.03134598009091,2152.735
7.03958250163581,2237.709
7.04781905100716,2197.327
7.05811477690238,2294.738
7.06635138900348,2311.7
7.07664719341495,2310.202
7.0848838684123,2399.211
7.09312057141699,2416.243
7.10341648960829,2443.775
7.11165325574977,2452.494
7.12194925296613,2441.262
7.13018608241092,2503.967
7.13842294004399,2545.336
7.1487190517752,2500.737
7.15695597295217,2509.395
7.16725216421737,2496.965
7.17548914910482,2459.052
7.18372616236151,2461.866
7.19402246887674,2373.905
7.20225954608454,2334.75
7.21255593264279,2286.879
7.22079307396831,2220.683
7.22903024384407,2231.354
7.23932674638771,2168.375
7.24756398062188,2090.328
7.25786056371768,2060.471
7.2660978624769,1929.259
7.27433518996742,1964.986
7.28463188978411,1862.927
7.29286928204041,1798.586
7.30316606291851,1777.146
7.31140352010729,1729.464
7.31964100620845,1716.097
7.32993790454311,1688.171
7.33817545581753,1620.082
7.34847243572297,1652.678
7.35671005233737,1602.4
7.36494769804529,1553.906
7.37524479614311,1568.729
7.38348250743185,1545.432
7.39377968760993,1534.308
7.40201746464625,1546.267
7.41025527095725,1514.834
7.42055257006371,1543.722
7.42879044236319,1509.971
7.43908782405948,1450.608
7.44732576251424,1491.615
7.45556373042487,1501.475
7.46586123178571,1449.888
7.47409926609257,1478.483
7.48439685055295,1420.995
7.49263495142287,1463.527
7.50087308192992,1461.206
7.51117078679116,1428.326
7.51940898410227,1476.232
7.52970677257288,1431.467
7.53794503685491,1392.049
7.54618333095537,1449.723
7.55648124056333,1418.378
7.56471960187578,1472.598
7.57501759560303,1435.258
7.58325602429437,1395.88
7.59149448298547,1420.951
7.60179259858672,1413.004
7.61003112489783,1435.938
7.62032932512844,1383.458
7.62856791922649,1404.986
7.63680654350568,1403.579
7.64710486634711,1408.075
7.65534355865441,1409.671
7.66564196663536,1417.108
7.67388072713778,1401.393
7.68211951800273,1424.812
7.69241804933149,1399.58
7.70065690863278,1409.441
7.71095552561135,1381.512
7.71919445351598,1395.799
7.72743341196461,1359.199
7.73773215302816,1409.749
7.74597118032143,1439.583
7.75627000754518,1391.157
7.76450910385014,1415.833
7.77274823088059,1414.989
7.78304718292666,1400.754
7.79128637921014,1456.689
7.80158541792693,1435.036
7.80982468363055,1444.545
7.81806398024119,1469.369
7.82836314451781,1405.543
7.83660251078998,1482.44
7.84690176224796,1487.388
7.8551411983488,1448.809
7.86338066553825,1517.186
7.87368004329374,1441.301
7.8819195805533,1517.396
7.89221904600091,1502.655
7.90045865349777,1514.233
7.90869829226487,1547.35
7.91899788474784,1535.815
7.92723759399374,1532.802
7.93753727467972,1571.165
7.94577705457164,1570.499
7.95401686591548,1629.133
7.96431667437484,1591.811
7.97255655660626,1639.058
7.98285645377964,1654.942
7.9910964070659,1685.721
7.99933639198578,1699.407
8.00963641767076,1740.891
8.0178764738871,1726.719
8.02817658879722,1814.149
8.03641671647733,1850.241
8.04465687597282,1899.568
8.05495712013292,1951.843
8.06319735133386,1988.702
8.07349768523035,1990.079
8.08173798830407,2079.779
8.08997832337497,2059.26
8.10027878726,2125.818
8.10851919444543,2177.557
8.11881974857822,2136.744
8.12706022804556,2224.038
8.13530073969192,2205.295
8.14560142455199,2211.686
8.15384200872206,2219.449
8.1641427843414,2196.211
8.17238344120259,2233.537
8.18062413042469,2245.17
8.19092503751024,2207.088
8.19916579966532,2229.346
8.20946679802176,2215.955
8.21770763327729,2183.189
8.22594850107567,2155.263
8.23624963163742,2120.447
8.24449057277816,2130.842
8.25479179512255,2105.61
8.26303280977316,2036.977
8.27127385714859,2065.792
8.28157521243758,2015.907
8.28981633356486,1980.362
8.30011778114837,1972.547
8.30835897619504,1921.372
8.31660020414856,1945.832
8.32690178541614,1917.076
8.33514308753108,1849.128
8.34544476160519,1850.542
8.35368613804915,1824.85
8.36192754758203,1811.034
8.37222935607986,1810.532
8.38047084018386,1752.064
8.39077274200034,1731.882
8.39901430084309,1747.333
8.40725589295686,1669.035
8.41755792993691,1679.309
8.42579959703159,1677.997
8.43610172784257,1618.038
8.44434347008582,1626.348
8.45258524578227,1598.955
8.46288751249685,1589.795
8.47112936358409,1565.84
8.48143172464198,1500.675
8.48967365128773,1509.842
8.49791561156889,1463.135
8.50821810927059,1445.928
8.51646014535254,1487.353
8.52676273791009,1415.335
8.53500484996059,1420.351
8.54324699582875,1389.484
8.55354972577051,1351.139
8.56179194784957,1382.587
8.57209477315982,1331.055
8.58033707161757,1328.765
8.58857940407528,1306.632
8.59888236751035,1276.009
8.60712477658917,1294.722
8.61742783590552,1281.401
8.62567032177328,1260.829
8.63391284182334,1251.589
8.6442160400053,1244.382
8.65245863708678,1236.969
8.66276193166294,1244.013
8.67100460594372,1259.638
8.67924731458921,1236.758
8.68955074877195,1254.676
8.69779353485927,1208.123
8.70809706594927,1192.887
8.71633992964636,1214.403
8.72458282789059,1181.836
8.73488649932834,1214.425
8.74312947542494,1211.636
8.75343324428313,1214.3
8.76167629840008,1234.178
8.76991938724665,1181.824
8.78022329719396,1196.807
8.78846646430354,1225.744
8.79877047218461,1163.056
8.80701371772521,1243.362
8.81525699817798,1197.078
8.82556114788974,1199.052
8.83380450701625,1189.59
8.84410875517524,1200.281
8.85235219314356,1195.14
8.86059566620664,1210.699
8.87090005693807,1189.041
8.87914360908574,1196.833
8.88944809877799,1219.503
8.89769173017837,1204.793
8.90593539685615,1228.077
8.9162400298628,1241.081
8.92448377603613,1232.795
8.93478850851733,1249.417
8.94303233435438,1245.445
8.95127619565151,1249.452
8.96158107218926,1244.072
8.96982501339302,1213.906
8.98012998991918,1286.198
8.98837401119778,1264.81
8.99661806811918,1265.446
9.00692318944426,1311.502
9.01516732668349,1293.521
9.02547254851099,1335.009
9.03371676623627,1337.87
9.04196101978715,1321.738
9.05226638715612,1378.365
9.06051072143611,1388.601
9.07081618982165,1407.999
9.07906060499904,1457.492
9.08730505618485,1439.244
9.09761067085462,1509.826
9.10585520318096,1528.967
9.11616091938158,1532.57
9.12440553301677,1617.245
9.13265018284326,1625.752
9.14295604607107,1665.852
9.15120077744961,1697.33
9.1615067427227,1742.813
9.16975155582166,1807.31
9.17799640529485,1849.41
9.1883025183383,1823.219
9.19654744977516,1889.754
9.20685366537846,1918.383
9.21509867894743,1967.852
9.22334372907361,2015.143
9.23365009319064,2004.486
9.24189522569224,2055.481
9.25220169288383,2058.558
9.26044690792932,2083.197
9.26869215971507,2102.443
9.27899877616395,2121.077
9.28724411073698,2131.196
9.29755083077528,2152.842
9.3057962483041,2147.167
9.31404170275627,2131.889
9.32434857279565,2145.455
9.33259411044707,2110.347
9.34290108459087,2113.963
9.35114670561011,2095.28
9.35939236373583,2053.399
9.36969948862469,2053.334
9.37794523036175,2023.673
9.38825245987018,1970.224
9.39649828538719,1941.92
9.40474414819388,1884.598
9.41505152919157,1873.328
9.42329747602181,1797.886
9.43360496215435,1732.762
9.44185099317679,1703.764
9.45009706167214,1641.209
9.46040470003836,1650.161
9.46865085296959,1562.168
9.47895859698609,1524.29
9.48720483452189,1499.564
9.49545110971389,1464.306
9.5057590067087,1439.835
9.51400536674901,1408.996
9.52431336990968,1380.388
9.53255981496706,1342.531
9.54080629786398,1353.726
9.55111445474778,1300.316
9.55936102290558,1298.093
9.56966928647097,1311.328
9.57791594005844,1270.753
9.58616263166885,1227.211
9.59647104970242,1254.216
9.60471782698638,1204.602
9.61502635221741,1246.647
9.62327321534377,1183.991
9.63152011667652,1203.166
9.641828797121,1199.065
9.65007578454008,1149.972
9.66038457269806,1179.887
9.66863164637239,1133.559
9.67687875843661,1129.956
9.6871877025535,1149.541
9.69543490111698,1124.929
9.70574395346354,1128.218
9.71399123869523,1119.105
9.72223856250037,1114.719
9.73254777155154,1124.532
9.74079518226897,1127.637
9.75110450006613,1137.27
9.75935199786485,1157.991
9.76759953442062,1140.599
9.77790900966831,1138.603
9.78615663354953,1157.376
9.79646621805969,1138.303
9.80471392943541,1166.342
9.81296167975185,1157.676
9.82327142245867,1156.781
9.83151926051383,1173.936
9.84182911299974,1152.556
9.85007703896273,1146.553
9.85832500405016,1171.464
9.86863501547908,1170.831
9.87688306871863,1183.856
9.88719319044342,1168.974
9.89544133200425,1156.956
9.90368951287329,1194.57
9.91399979428765,1171.359
9.92224806372234,1154.659
9.93255845594951,1166.014
9.94080681411905,1149.422
9.94905521178061,1164.113
9.95936576444416,1161.424
9.96761425108502,1150.818
9.97792491507846,1187.99
9.98617349086786,1165.792
9.99442210633317,1174.963
10.00473293151,1184.909
10.0129816363684,1129.325
10.0232925733924,1167.6
10.0315413678131,1148.706
10.0397902020937,1169.267
10.0501013010483,1166.591
10.0583502251358,1178.305
10.068661436455,1154.534
10.0769104505188,1154.838
10.0851595046265,1154.08
10.0954708786238,1151.119
10.1037200229524,1151.265
10.1140315098317,1145.354
10.1222807445508,1165.644
10.1305300194977,1153.103
10.1408416698028,1143.176
10.1490910353849,1140.722
10.1594027990898,1125.829
10.1676522554764,1137.995
10.175901752275,1151.67
10.1862136801537,1140.312
10.1944632680017,1142.187
10.204775309798,1121.437
10.2130249888649,1101.311
10.2212747085279,1097.013
10.2315869152461,1101.116
10.2398367263729,1100.478
10.2501490475267,1102.189
10.2583989502869,1058.844
10.2666488938275,1107.683
10.2769613806516,1074.976
10.2852114160704,1060.771
10.2955240178484,1095.447
10.3037741453151,1061.173
10.3120243137465,1040.596
10.3223370819434,1058.761
10.3305873426677,1033.269
10.3409002263368,1032.401
10.3491505795238,1044.168
10.3574009738597,1031.68
10.3677140246965,1021.636
10.3759645117402,1026.537
10.3862776785677,1002.029
10.3945282584888,1011.039
10.4027788797433,992.534
10.4130922144876,1008.741
10.4213429288647,1021.332
10.4316563801184,987.981
10.439907187788,993.117
10.4481580369753,975.28
10.4584716568951,976.841
10.4667225996201,990.378
10.4770363365681,951.35
10.4852873730007,969.076
10.4935384511356,954.606
10.5038523574991,920.556
10.5121035295869,970.686
10.5224175534977,923.667
10.5306688197082,936.1
10.5389201278055,934.012
10.5492343218817,926.367
10.5574857243472,922.929
10.5678000364898,935.079
10.5760515334934,958.15
10.5843030725685,928.725
10.5946175556265,919.827
10.6028691894851,915.782
10.6131837911289,936.821
10.6214355199411,913.887
10.6296872910095,916.204
10.6400020643189,918.532
10.6482539305864,937.538
10.658568823001,939.219
10.6668207846378,940.866
10.6750727887154,942.075
10.6853878535462,947.373
10.6936399532387,944.583
10.7039551376943,945.532
10.7122073331717,971.426
10.7204595712748,966.686
10.7307749288973,984.783
10.7390272630311,993.035
10.7493427407983,1003.786
10.757595171133,1006.934
10.7658476442782,1033.258
10.7761632959632,1036.026
10.784415865555,1067.515
10.7947316379047,1063.788
10.8029843041134,1079.899
10.8112370133176,1123.761
10.8215529603364,1109.503
10.8298057664033,1151.875
10.8401218346069,1147.776
10.8483747377068,1163.717
10.8566276839871,1172.401
10.8669439276113,1185.312
10.8751969711706,1183.043
10.8855133364999,1209.71
10.8937664775085,1194.704
10.9020196618826,1224.432
10.9123362033842,1223.241
10.9205894854536,1212.607
10.9309061491808,1220.965
10.939159529116,1197.416
10.9474129526017,1196.881
10.9577297932531,1210.763
10.9659833148507,1146.05
10.9763002782484,1164.247
10.9845538981283,1147.775
10.9928075617439,1140.629
11.003124702818,1120.872
11.0113784649621,1093.565
11.0216957293034,1084.321
11.0299495901464,1045.441
11.0382034949104,1023.694
11.0485209376806,1032.026
11.0567749413899,1024.986
11.0670925079482,983.556
11.0753466107733,970.65
11.0836007577046,974.436
11.0939185034444,952.65
11.1021727497379,953.459
11.1124906197872,917.878
11.1207449656135,931.614
11.1289993557313,916.79
11.139317405715,904.541
11.1475718956121,916.464
11.1578900704266,895.121
11.1661446602736,874.677
11.1743992945976,863.366
11.1847176500997,877.942
11.1929723846201,865.014
11.2032908654745,875.874
11.2115457003621,850.151
11.2198005799121,869.172
11.2301192422076,850.689
11.2383742223714,839.777
11.2486930105408,850.289
11.2569480914892,828.746
11.2652032172855,838.034
11.2755221876498,856.351
11.2837774144774,851.229
11.2940965112375,834.052
11.3023518392672,826.916
11.3106072123304,844.84
11.3209264920393,839.747
11.3291819665515,846.42
11.3395013731783,841.587
11.3477569493101,843.516
11.3560125706612,831.913
11.366332160991,827.898
11.3745878842088,847.687
11.3849076019787,825.844
11.393163427234,826.931
11.4014192978943,855.622
11.4117392001217,822.395
11.4199951730665,856.019
11.4303152032564,832.557
11.4385712786568,824.678
11.4468273996478,847.326
11.45714761505,828.092
11.4654038387436,850.073
11.4757241826309,834.221
11.4839805091982,851.258
11.492236881542,848.537
11.5025574113965,854.436
11.5108138868611,871.406
11.5211345457236,887.609
11.5293911244801,883.907
11.537647749199,879.806
11.5479685947839,898.171
11.5562253230419,906.752
11.5665462981577,915.722
11.5748031301261,943.908
11.5830600082428,933.901
11.5933811708365,971.279
11.6016381529109,969.029
11.6119594455586,969.273
11.6202165317618,982.777
11.6284736642995,983.18
11.6387951451809,998.704
11.6470523820948,1013.762
11.6573739935536,1024.339
11.665631335015,1026.517
11.673888722997,1028.334
11.6842105234455,1015.694
11.6924680162224,1031.73
11.7027899477718,1017.928
11.7110475455151,1037.378
11.7193051899651,1009.955
11.7296273112605,1013.473
11.7378850609245,1012.029
11.7482073138444,983.515
11.7564651688937,999.842
11.7647230708359,990.154
11.7750455142584,980.09
11.7833035218336,953.306
11.7936260974046,958.707
11.8018842107842,942.32
11.8101423712431,928.068
11.8204651380735,907.868
11.8287234045845,923.045
11.8390463040874,902.759
11.8473046768222,878.982
11.8555630968226,867.616
11.865886188342,880.079
11.8741447148139,826.925
11.88446793953,844.141
11.8927265726451,846.756
11.9009852532123,840.83
11.9113086707023,836.583
11.9195674581605,828.032
11.9298910093716,800.367
11.9381499038925,820.851
11.946408846052,792.205
11.9567325907947,798.679
11.9649916402649,793.371
11.9753155192533,794.403
11.9835746762059,805.676
11.9918338809836,784.297
12.0021579542615,782.966
12.0104172667698,758.612
12.0207414748182,751.989
12.0290008952287,762.17
12.037260363651,757.846
12.0475847667471,759.459
12.0558443433199,765.979
12.0661688817115,760.351
12.0744285666066,765.49
12.0826882997002,746.044
12.0930130338979,756.787
12.101272875562,727.396
12.1115977455805,735.414
12.1198576959871,738.987
12.128117694779,741.208
12.1384427613623,736.707
12.146702869145,737.877
12.1570280720743,739.919
12.1652882890199,744.214
12.1735485545375,732.204
12.1838739547907,738.574
12.1921343297196,711.82
12.2024598668444,739.076
12.2107203513566,734.144
12.2189808846278,737.72
12.2293066198357,739.102
12.2375672629387,714.886
12.2478931355441,733.245
12.2561538886511,744.369
12.2644146907039,730.35
12.274740762152,742.573
12.2830016744574,726.363
12.2933278838288,734.553
12.301588906559,721.376
12.3098499784222,735.517
12.3201763873961,718.612
12.3284375699327,718.342
12.3387641173561,722.994
12.3470254107384,704.856
12.3552867534407,723.318
12.3656135012268,706.131
12.3738749550237,706.031
12.3842018417856,706.684
12.3924634068492,700.94
12.4007250214201,709.622
12.411052109305,699.615
12.4193138353916,709.453
12.4296410627789,706.179
12.4379029005535,718.196
12.4461647880226,708.127
12.4564922172936,735.602
12.4647542166998,684.555
12.4750817859999,688.148
12.4833438975155,697.273
12.4916060589129,692.864
12.5019338308577,708.698
12.5101961046136,691.029
12.5205240171145,696.818
12.5287864034015,716.146
12.5370488397576,689.155
12.5473769556644,701.446
12.5556395048008,708.12
12.5659677617907,686.728
12.5742304238798,680.183
12.5824931362256,703.352
12.5928215973831,699.95
12.6010844229308,689.914
12.6114130256987,681.785
12.6196759646212,707.031
12.6279389539877,689.715
12.638267761685,700.348
12.6465308646756,706.341
12.6568598145108,699.162
12.6651230312981,700.187
12.6733862987172,705.265
12.6837154542439,717.924
12.6919788357091,707.772
12.7023081339014,703.735
12.7105716295856,709.966
12.7188351760891,712.763
12.7291646807353,713.944
12.7374283417074,699.49
12.7477579895472,709.614
12.7560217651605,728.355
12.7642855917809,737.455
12.7746154468373,697.862
12.7828793883487,705.594
12.7932093871268,703.871
12.801473443702,723.841
12.8097375514721,719.2
12.8200677582298,725.04
12.8283319813135,727.074
12.8386623323212,725.217
12.8469266708914,724.867
12.8551910608445,736.44
12.865521620595,735.662
12.8737861262844,732.631
12.8841168308135,730.761
12.8923814524122,743.311
12.9006461255818,748.344
12.9109770396173,745.513
12.9192418289462,745.971
12.9295728882889,751.51
12.9378377939502,774.104
12.9461027513703,765.824
12.9564340209833,767.549
12.9646990949858,764.696
12.9750305104351,781.589
12.9832957011931,767.617
12.9915609438981,762.585
13.0018925703818,770.834
13.0101579300925,747.855
13.0204897029416,799.738
13.0287551798312,785.748
13.0370207088558,777.481
13.0473526935038,788.299
13.0556183399577,780.15
13.0659504715004,789.283
13.0742162355566,787.635
13.0824820519362,773.382
13.0928143960425,807.376
13.1010803302749,793.401
13.1114128218055,795.673
13.1196788740639,790.955
13.127944978834,779.555
13.1382776836934,797.71
13.14654390674,782.994
13.1568767595534,790.538
13.1651431010499,783.372
13.1734094952465,794.648
13.183742562154,797.041
13.1920090750511,805.64
13.2023422904425,789.03
13.2106089222135,799.548
13.2188756068731,794.717
13.2292090371243,773.739
13.2374758409085,794.494
13.2478094201738,783.272
13.2560763432561,785.551
13.2643433194154,789.153
13.2746771143065,761.802
13.2829442100147,770.695
13.2932781544504,760.349
13.301545369881,750.88
13.3098126385774,741.725
13.320146799405,763.039
13.3284141880747,760.248
13.3387484989775,771.391
13.3470160077941,743.479
13.3552835700652,764.14
13.3656180981265,760.141
13.3738857807955,743.966
13.3842204594628,759.949
13.3924882627034,743.866
13.4007561195872,744.387
13.41109101618,743.246
13.4193589938865,740.659
13.4296940416162,749.102
13.4379621403192,752.723
13.4462302928543,742.052
13.4565655592767,737.346
13.4648338330593,742.523
13.47516925115,736.927
13.4834376463542,735.931
13.4917060955793,731.652
13.5020417331301,736.4
13.510310304028,729.851
13.5206460937785,721.514
13.5289147865231,729.722
13.5371835334777,733.451
13.5475195434561,718.463
13.5557884125088,741.129
13.5661245752185,746.12
13.5743935665433,730.399
13.5826626122671,742.34
13.5929989959729,739.172
13.6012681642203,742.715
13.6116047011893,730.417
13.6198739921343,732.258
13.6281433376674,738.883
13.6384800964009,747.057
13.6467495648833,755.603
13.6570864774121,738.847
13.6653560690178,749.819
13.673625715401,740.009
13.683962850463,744.712
13.6922326202212,743.202
13.7025699096109,752.571
13.7108398029182,759.141
13.7191097511923,745.221
13.7294472638843,740.471
13.7377173359594,766.276
13.7480550035116,740.437
13.756325199562,754.05
13.7645954507685,758.256
13.7749333423923,745.89
13.783203717826,773.234
13.7935417648427,757.191
13.8018122646779,767.539
13.8100828198587,776.008
13.8204210917168,759.945
13.8286917715511,754.489
13.8390301993351,766.477
13.8473010039974,764.475
13.8555718641947,757.268
13.8659105175901,759.079
13.8741815028674,763.939
13.8845203127219,801.444
13.8927914232538,746.446
13.9010625895105,762.899
13.9114016257467,755.202
13.91967291751,756.187
13.9300121107387,759.183
13.9382835281834,760.589
13.9465550015425,757.998
13.9568944219235,758.569
13.9651660212162,750.251
13.9755055991234,755.777
13.9837773245243,765.237
13.9920491060295,754.603
14.00238891186,749.796
14.0106608197258,762.198
14.0210007836163,746.323
14.0292728180175,742.788
14.0375449087127,762.261
14.0478851012979,750.588
14.056157318781,769.46
14.0664976699602,773.436
14.074770014406,781.305
14.0830424153358,746.169
14.0933829959812,762.268
14.1016555241263,765.584
14.1119962639002,779.963
14.1202689194354,765.485
14.1285416316447,776.929
14.1388826016567,769
14.1471554415088,765.096
14.1574965711838,781.309
14.1657695388538,782.632
14.1740425633878,785.962
14.1843839240732,780.477
14.192657076678,771.774
14.2029985975611,797.624
14.2112718784115,773.975
14.2195452163162,785.01
14.2298869689823,790.08
14.2381604353856,798.212
14.2485023487844,904.924
14.2567759438614,799.278
14.2650495961829,803.123
14.2753917421377,803.725
14.283665523386,799.764
14.2940078306086,790.551
14.3022817409588,813.088
14.3105557087439,780.695
14.3208982492958,792.057
14.3291723464359,790.031
14.3395150487911,782.015
14.3477892754615,786.291
14.3560635597573,789.715
14.3664064962153,782.084
14.3746809102946,796.422
14.3850240090916,794.38
14.3932985531298,790.489
14.4015731549837,786.374
14.4119164886575,781.982
14.4201912207237,785.739
14.4305347172723,775.292
14.4388095797262,786.234
14.4470845001865,794.784
14.4574282323861,800.171
14.4657032834874,757.13
14.4760471790981,861.789
14.484322361016,759.902
14.4925976011311,760.74
14.5029417331673,757.389
14.5112171043524,774.751
14.521561400336,755.596
14.5298369027669,745.701
14.5381124635857,738.556
14.5484569967697,748.704
14.5567326890878,746.773
14.5670773867559,754.585
14.5753532107491,763.455
14.5836290933209,758.393
14.5939740289647,752.816
14.6022500434653,752.723
14.61259514413,746.632
14.6208712907351,736.14
14.6291474961098,750.458
14.6394928355258,740.85
14.647769173259,737.436
14.6581146782329,810.948
14.6663911485003,709.05
14.6746676777282,742.01
14.6850134222294,747.767
14.6932900842456,753.574
14.7036359948419,783.375
14.7119127898223,747.223
14.7201896439542,751.955
14.7305357948541,758.899
14.7388127822043,757.503
14.7491590997369,763.364
14.7574362204813,764.492
14.7657134005685,748.039
14.7760599591812,768.234
14.7843372729169,766.4
14.7946839987002,778.299
14.8029614462602,761.183
14.8112389533543,776.683
14.8215859209947,779.647
14.8298635621676,771.716
14.8402106975166,801.975
14.8484884729444,800.111
14.8567663080975,786.993
14.8671136860809,812.63
14.8753916557434,812.217
14.8857392019735,793.943
14.8940173063216,817.097
14.9022954705865,801.909
14.9126432602287,810.506
14.9209215594337,786.92
14.9312695178611,800.995
14.9395479521825,799.905
14.9478264466122,803.446
14.9581746492296,786.766
14.9664532790304,791.599
14.9768016509719,807.818
14.98508041632,777.25
14.993359241968,798.04
15.0037078588779,784.315
15.0119868203281,789.178
15.022335607101,781.135
15.0306147045298,774.616
15.0388938624502,783.616
15.0492428949701,778.619
15.0575221891241,777.93
15.0678713920462,780.58
15.0761508226102,764.651
15.0844303138575,766.095
15.0947797633057,771.858
15.103059391218,761.268
15.1134090116079,750.239
15.1216887763619,746.189
15.1299686019911,747.142
15.1403184696864,740.97
15.1485984324124,739.869
15.1589484715891,736.115
15.1672285715885,749.522
15.1755087326549,730.177
15.1858590199169,753.011
15.1941393185121,737.524
15.2044897777953,767.76
15.2127702140959,761.245
15.2210507116557,746.041
15.2314014198043,735.685
15.2396820553248,748.989
15.2500329360349,760.274
15.258313709693,758.482
15.2665945448025,752.054
15.2769456751583,756.137
15.2852266486608,766.556
15.2955779521186,758.608
15.3038590641911,765.445
15.3121402379071,783.781
15.3224917917915,760.625
15.3307731043331,771.137
15.34112483186,772.422
15.3494062834042,782.414
15.3576877967841,770.489
15.3680397755188,777.987
15.3763214281571,783.242
15.3866735810753,786.714
15.3949553731489,789.323
15.4032372272506,809.993
15.4135896321581,806.359
15.4218716259511,810.528
15.4322242055833,799.174
15.4405063392446,822.455
15.4487885351265,808.038
15.4591413675298,845.681
15.467423703536,837.496
15.4777767112055,840.743
15.4860591875133,850.858
15.4943417262341,865.144
15.504694987457,861.753
15.5129776667355,843.584
15.5233311037662,865.433
15.5316139237796,864.187
15.5398968063987,873.197
15.5502504977654,873.159
15.5585335213757,890.838
15.5688873890922,871.473
15.5771705538709,893.086
15.5854537814482,883.366
15.5958079042836,878.718
15.6040912732857,860.797
15.6144455730131,871.931
15.6227290836175,871.283
15.6310126572132,876.818
15.6413672128428,872.191
15.6496509282972,875.846
15.6600056613612,862.147
15.6682895188519,860.548
15.6765734395268,882.958
15.6869284292768,887.088
15.6952124922446,856.109
15.7055676599716,880.834
15.7138518654098,879.759
15.7221361342253,885.655
15.7324915594223,854.236
15.7407759709649,851.891
15.751131574682,844.513
15.7594161291294,836.916
15.7677007471472,851.678
15.7780566091187,828.349
15.7863413702981,827.028
15.7966974113328,836.943
15.8049823158517,810.614
15.8132672841341,826.02
15.8236235842081,813.869
15.8319086960869,828.35
15.8422651757675,819.197
15.8505504314205,826.95
15.8588357510303,808.626
15.8691924905354,805.029
15.8774779541765,817.17
15.8878348738318,799.226
15.8961204816822,849.009
15.9044061536827,804.94
15.9147633339481,796.7
15.9230491504151,803.42
15.9334065113747,810.88
15.9416924724861,805.124
15.9499784979412,787.575
15.9603361202968,786.298
15.9686222906535,796.026
15.9789800942476,786.205
15.9872664096843,778.924
15.9955527896582,798.062
16.0059108554345,775.42
16.0141973807456,761.67
16.0245556283049,741.919
16.0328422991316,767.137
16.0411290346891,774.983
16.0514875452172,744.622
16.0597744265478,755.986
16.0701331194037,757.433
16.0784201466856,763.571
16.086707238892,735.728
16.0970661955038,759.335
16.1053534339193,760.766
16.1157125734038,758.264
16.1239999582067,758.197
16.1322874081279,764.875
16.1426468121558,756.883
16.1509344087222,724.133
16.1612939961681,750.019
16.1695817395582,730.524
16.1778695482605,748.075
16.1882294010376,744.858
16.1965173568215,719.024
16.2068773935621,716.906
16.2151654966061,737.391
16.2234536651564,722.44
16.2338139680163,711.266
16.2421022840848,690.565
16.252462771454,721.162
16.2607512352193,698.964
16.269039764685,729.756
16.2794005189621,705.134
16.2876891963828,700.031
16.2980501357153,699.081
16.3063389612696,707.247
16.3146278527186,699.447
16.3249890597479,699.807
16.3332780995888,701.764
16.3436394922198,704.159
16.3519286806315,696.84
16.3602179351322,1218.707
16.3705795962493,715.981
16.3788689995791,691.352
16.3892308468446,686.776
16.3975203991825,706.595
16.4058100178038,696.821
16.4161721343451,704.322
16.4244619022329,697.502
16.4348242054694,663.43
16.4431141228029,707.615
16.4514041066142,715.521
16.4617666799166,708.726
16.4700568134322,705.668
16.4804195739769,717.382
16.4887098573759,712.263
16.4970002074472,731.353
16.5073632388483,709.569
16.5156537390618,732.673
16.5260169582526,721.36
16.5343076087875,741.203
16.5425983261893,727.509
16.5529618170274,687.868
16.5612526850095,715.919
16.5716163641849,717.232
16.5799073829266,702.804
16.5881984687301,720.969
16.5985624203441,713.438
16.6068536571661,729.037
16.6172177976653,705.592
16.6255091856853,701.179
16.6338006409619,715.302
16.6441650546913,714.404
16.652456661425,723.04
16.662821264588,696.312
16.6711130229582,713.861
16.67940484878,710.393
16.6897697259652,715.136
16.6980617036829,688.572
16.70842677085,699.415
16.7167189006431,690.744
16.7250110980828,690.161
16.7353764400646,683.816
16.7436687898391,710.93
16.7540343223517,705.009
16.7623268246406,683.806
16.7706193947713,689.205
16.7809852028914,673.102
16.789277925796,668.918
16.7996439249959,659.036
16.8079368008542,676.286
16.8162297447497,653.432
16.8265960203502,672.185
16.834889117459,660.435
16.8452555846887,677.432
16.8535488351906,685.979
16.861842153925,675.411
16.872208898349,688.702
16.8805023707364,678.636
16.890869307339,671.681
16.8991629335592,660.347
16.9074566282073,658.538
16.9178238427984,677.183
16.9261176915393,667.763
16.9364850988588,659.987
16.9447791018725,662.007
16.9530731735096,656.977
16.963440859612,665.687
16.971735085782,685.764
16.982102965163,664.521
16.9903973460459,679.793
16.9986917957479,660.641
17.0090599547065,685.19
17.0173545593817,690.284
17.0277229121694,679.486
17.0360176719978,689.019
17.0443125008411,687.08
17.0546811340017,691.531
17.0629761182586,680.84
17.0733449457989,692.481
17.0816400856497,681.68
17.0899352947113,700.538
17.1003044034201,658.844
17.108599768336,770.083
17.1189690719755,681.959
17.1272645929261,703.738
17.1355601832834,687.439
17.1459297688874,680.53
17.15422551554,676.49
17.164595296626,664.891
17.1728911997543,684.901
17.1811871724854,672.82
17.1915572363323,666.701
17.1998533657999,666.686
17.2102236256803,663.135
17.2185199120649,644.413
17.2268162682483,671.713
17.2371868116866,658.108
17.2454833250479,659.294
17.2558540650715,671.7
17.2641507357913,632.682
17.2724474765063,657.802
17.282818500885,650.358
17.2911153992194,627.033
17.3014866207355,652.293
17.3097836768702,658.305
17.3180808031964,643.941
17.3284523098652,639.894
17.3367495942528,651.824
17.3471212986114,652.311
17.3554187412411,621.309
17.3637162542587,636.914
17.3740882445683,626.683
17.3823859160893,615.232
17.3927581046412,635.215
17.4010559348467,639.659
17.4093538356367,621.106
17.419726310938,653.692
17.4280243706737,634.781
17.4383970447703,628.864
17.4466952636328,616.074
17.4549935532764,630.134
17.4653665149214,640.884
17.4736649639533,628.652
17.4840381249469,625.957
17.4923367335482,617.546
17.5006354131274,635.951
17.5110088624686,631.769
17.519307701879,631.728
17.5296813511223,619.775
17.5379803505449,606.978
17.5462794211422,612.474
17.5566533595329,635.538
17.5649525904043,588.56
17.575326729251,664.826
17.5836261205778,603.217
17.5919255832763,603.336
17.6023000120705,616.391
17.6105996354863,626.081
17.6209742652905,619.107
17.6292740496051,623.098
17.6375739054884,612.405
17.6479488260407,620.156
17.6562488430849,630.421
17.6666239652016,610.944
17.674924143588,632.503
17.6832243937404,620.557
17.6935998074063,619.46
17.7019002191631,618.724
17.7122758349481,616.817
17.7205764084911,611.716
17.7288770539972,619.866
17.7392529621328,621.994
17.7475537696873,617.712
17.757929880497,602.844
17.7662308502817,627.858
17.7745318922269,624.081
17.784908296189,631.883
17.7932095006269,632.783
17.8035861078183,590.535
17.8118874749306,602.366
17.8201889144009,623.559
17.830565815547,628.079
17.8388674179543,634.831
17.8492445228854,610.753
17.8575462884115,630.807
17.8658481264934,653.291
17.8762255261818,639.143
17.8845275276453,607.358
17.8949051316746,609.763
17.9032072967017,632.453
17.9115095344821,638.759
17.9218874340719,618.62
17.9301898356788,608.002
17.9405679401655,602.068
17.9488705057811,625.054
17.9571731443478,612.066
17.9675515451985,622.506
17.9758543480369,580.965
17.986232954341,606.488
17.9945359216332,609.969
18.0028389620744,593.726
18.0132178655466,605.903
18.0215210707048,604.263
18.0319001801871,621.659
18.0402035502445,604.121
18.048506993649,611.526
18.0588864011038,602.365
18.0671900096709,616.435
18.0775696236929,610.125
18.0858733976049,621.867
18.0941772450621,623.588
18.1045571578614,615.949
18.112861170927,620.88
18.1232412908509,596.543
18.1315454697073,657.711
18.1398497223072,590.226
18.1502301418137,623.708
18.158534560468,618.87
18.1689151876566,610.289
18.177219772548,585.254
18.1855244313812,617.903
18.1959053589581,632.811
18.204210184292,620.134
18.214591320109,617.98
18.2228963121264,638.668
18.2312013782839,591.213
18.2415828152955,609.098
18.2498880484003,618.685
18.2602696942103,594.249
18.2685750944452,606.879
18.2768805690189,615.423
18.2872625168299,596.323
18.2955681587977,597.058
18.3059503159656,621.944
18.3142561255104,579.651
18.3225620095926,603.847
18.3329444695686,581.146
18.3412505214919,590.476
18.3516331913837,589.104
18.3599394113312,618.684
18.3682457060149,617.978
18.3786286795221,604.93
18.3869351424943,589.161
18.3973183264765,660.846
18.4056249579201,601.951
18.4139316642987,602.801
18.4243151527045,599.43
18.4326220278191,618.939
18.4430057272592,603.077
18.451312771293,621.537
18.4596198904607,610.144
18.4700038951326,595.268
18.4783111834841,598.93
18.4886953997503,638.597
18.4970028574688,632.309
18.5053103905203,609.302
18.515694912827,620.745
18.5240026155104,635.192
18.5343873499714,671.388
18.5426952224699,627.218
18.5510031705006,640.568
18.5613882118115,607.64
18.5696963299223,641.079
18.5800815839478,631.502
18.5883898723221,628.45
18.596698236428,647.72
18.607083798113,643.932
18.6153923327474,633.687
18.6257781077079,649.552
18.6340868130544,617.684
18.6423955943319,662.993
18.652781677762,638.983
18.6610906300169,621.425
18.6714769272834,608.583
18.6797860506992,643.762
18.6880952502455,639.13
18.6984818567922,659.642
18.7067912277649,677.499
18.7171780487094,660.158
18.7254875912921,632.648
18.733797210205,639.552
18.7441843412407,638.606
18.7524941320292,642.768
18.7628814780243,637.868
18.7711914408722,636.962
18.77950148025,614.248
18.7898891371478,656.148
18.7981993488508,633.7
18.8085872212699,633.934
18.8168976054819,622.092
18.8252080664237,604.863
18.8355962505575,607.175
18.8439068842741,599.069
18.8542952844915,611.003
18.8626060911671,580.631
18.8709169747724,618.11
18.8813056875168,609.521
18.8896167443469,600.952
18.9000056737376,640.154
18.9083169039768,606.98
18.9166282113458,573.03
18.9270174540763,580.493
18.9353289351205,608.274
18.9457183950601,598.265
18.9540300499637,613.937
18.9623417821972,637.035
18.97273155629,597.509
18.9810434626493,623.336
18.9914334545144,612.751
18.9997455351836,577.029
19.0080576933833,559.889
19.0184480002153,578.463
19.0267603329913,1016.738
19.0371508581592,583.451
19.0454633656961,563.683
19.0537759509638,594.665
19.0641667919129,588.209
19.072479552208,581.58
19.0828706120567,598.073
19.0911835475639,583.931
19.0994965610024,593.546
19.109887937447,676.356
19.1182011263642,557.443
19.1285927222726,573.363
19.1369060868533,552.151
19.1452195295659,615.337
19.1556114428853,521.24
19.1639250615282,575.603
19.1743171948759,582.901
19.1826309896339,571.945
19.1909448627245,598.069
19.2013373142988,575.574
19.2096513637716,545.599
19.2200440359391,565.675
19.2283582619788,567.847
19.2366725665521,554.617
19.2470655577622,569.022
19.2553800391697,566.225
19.2657732515381,570.192
19.2740879099647,583.35
19.2824026471258,563.771
19.2927961793534,570
19.301111093801,606.24
19.3115048477524,568.03
19.3198199396716,603.783
19.3281351105264,534.989
19.338529185154,581.892
19.3468445337479,561.068
19.357238830665,576.248
19.3655543571831,553.218
19.3738699628381,561.231
19.3842645812488,612.858
19.3925803650957,574.116
19.4029752063621,553.054
19.4112911685861,601.692
19.4196072101484,587.336
19.4300023737265,592.319
19.4383185939337,566.207
19.4487139809338,566.324
19.4570303799714,576.802
19.4653468585487,611.956
19.4757425686788,574.161
19.4840592263544,574.543
19.4944551604734,569.699
19.5027719974329,575.725
19.5110889141336,544.755
19.5214851722015,552.654
19.5298022684541,569.671
19.5401987510779,548.241
19.5485160270681,558.93
19.5568333830013,597.854
19.5672301903934,543.664
19.5755477263323,585.481
19.5859447588478,558.742
19.5942624749783,551.531
19.6025802712536,569.417
19.6129776293572,559.13
19.6212956060924,590.986
19.631693189887,612.754
19.640011347268,585.66
19.6483295849957,569.902
19.6587274951989,590.837
19.6670459138409,542.051
19.6774440503032,577.836
19.6857626500456,532.029
19.6940813303367,543.199
19.7044797940282,544.832
19.7127986556883,567.897
19.7231973462074,565.368
19.7315163894226,523.23
19.7398355133888,530.58
19.7502345319584,569.355
19.7585538377485,549.231
19.7689530837144,601.225
19.7772725715146,557.482
19.785592140268,579.279
19.7959917151062,549.361
19.8043114661388,541.119
19.8147112689424,536.79
19.8230312024404,560.105
19.831351217094,544.788
19.8417513495921,579.503
19.8500715469804,557.709
19.8604719080133,555.74
19.8687922883226,518.689
19.8771127499899,508.641
19.8875134415401,597.449
19.8958340863978,592.388
19.9062350070525,618.876
19.9145558352872,571.768
19.9228767450826,515.686
19.9332779970777,593.662
19.9415990905195,564.525
19.9520005721893,563.738
19.960321849464,550.871
19.9686432085023,529.631
19.9790450223362,556.48
19.9873665654772,523.373
19.9977686095561,544.276
20.0060903369865,583.035
20.0144121463832,552.343
20.0248145234505,532.771
20.0331365174064,538.856
20.0435391252895,575.618
20.0518613039915,532.745
20.0601835648628,550.254
20.0705865065589,544.731
20.0789089524463,565.215
20.0893121255293,554.173
20.0976347566197,587.165
20.1059574700826,578.071
20.1163609778038,510.507
20.1246838767398,613.005
20.1350876164193,535.029
20.1434107010155,514.999
20.1517338681874,519.569
20.1621379433308,610.541
20.1704612964332,517.264
20.1808656041066,568.472
20.1891891433268,571.443
20.197512765326,560.619
20.2079174092894,592.255
20.2162412176767,542.745
20.2266460947424,548.075
20.2349700897051,522.83
20.2432941676505,510.26
20.2536993818328,528.033
20.2620236466242,566.345
20.2724290944811,513.664
20.280753546306,533.446
20.289078081317,532.019
20.2994838671178,549.484
20.307808589433,470.717
20.3182146094813,589.161
20.3265395192883,497.287
20.3348645124853,525.359
20.3452708713049,545.347
20.3535960522646,519.696
20.3640026459049,489.408
20.3723280148149,577.98
20.3806534673186,477.189
20.3910604005585,561.547
20.3993860412837,521.537
20.4097932099177,571.683
20.4181190390521,481.472
20.4264449519842,487.062
20.4368524610464,508.277
20.445178562659,486.092
20.4555863076892,528.931
20.4639125981701,509.181
20.4722389726528,525.394
20.4826470589404,564.138
20.4909736225629,531.264
20.5013819453926,520.712
20.5097086983429,567.225
20.5180355354992,503.288
20.5284442004158,456.123
20.5367712271715,511.251
20.5471801292049,532.16
20.555507345748,405.637
20.5638346467015,488.09
20.574243891652,545.253
20.5825713826647,562.797
20.5929808653069,466.858
20.601308546567,407.227
20.6096363124419,451.477
20.6200461388319,459.788
20.6283740952262,470.619
20.638784159883,479.254
