"x","y_obs","weight","y_calc","y_bkg"
0.8,1887.102,0.00053,0.0,0.0
0.806,1885.939,0.00053,0.0,0.0
0.812,1929.002,0.00052,0.0,0.0
0.818,1922.898,0.00052,0.0,0.0
0.824,1954.207,0.00051,0.0,0.0
0.831,1984.601,0.0005,0.0,0.0
0.837,2027.369,0.00049,0.0,0.0
0.843,2038.294,0.00049,0.0,0.0
0.849,2080.779,0.00048,0.0,0.0
0.855,2139.688,0.00047,0.0,0.0
0.861,2127.743,0.00047,0.0,0.0
0.867,2193.102,0.00046,0.0,0.0
0.873,2228.143,0.00045,0.0,0.0
0.88,2232.208,0.00045,0.0,0.0
0.886,2241.555,0.00045,0.0,0.0
0.892,2246.139,0.00045,0.0,0.0
0.898,2273.56,0.00044,0.0,0.0
0.904,2252.399,0.00044,0.0,0.0
0.91,2267.317,0.00044,0.0,0.0
0.916,2244.979,0.00045,0.0,0.0
0.922,2213.787,0.00045,0.0,0.0
0.929,2209.423,0.00045,0.0,0.0
0.935,2200.891,0.00045,0.0,0.0
0.941,2146.487,0.00047,0.0,0.0
0.947,2115.264,0.00047,0.0,0.0
0.953,2096.018,0.00048,0.0,0.0
0.959,2079.03,0.00048,0.0,0.0
0.965,2046.232,0.00049,0.0,0.0
0.971,2038.266,0.00049,0.0,0.0
0.977,2038.382,0.00049,0.0,0.0
0.984,2019.836,0.0005,0.0,0.0
0.99,1969.07,0.00051,0.0,0.0
0.996,2011.217,0.0005,0.0,0.0
1.002,1978.053,0.00051,0.0,0.0
1.008,1972.787,0.00051,0.0,0.0
1.014,1951.596,0.00051,0.0,0.0
1.02,1972.402,0.00051,0.0,0.0
1.026,1962.488,0.00051,0.0,0.0
1.033,1938.696,0.00052,0.0,0.0
1.039,1949.303,0.00051,0.0,0.0
1.045,1960.784,0.00051,0.0,0.0
1.051,1944.427,0.00051,0.0,0.0
1.057,1943.044,0.00051,0.0,0.0
1.063,1944.465,0.00051,0.0,0.0
1.069,1915.449,0.00052,0.0,0.0
1.075,1946.762,0.00051,0.0,0.0
1.082,1927.615,0.00052,0.0,0.0
1.088,1922.263,0.00052,0.0,0.0
1.094,1946.822,0.00051,0.0,0.0
1.1,1923.375,0.00052,0.0,0.0
1.106,1906.754,0.00052,0.0,0.0
1.112,1933.541,0.00052,0.0,0.0
1.118,1888.555,0.00053,0.0,0.0
1.124,1888.437,0.00053,0.0,0.0
1.13,1881.136,0.00053,0.0,0.0
1.137,1851.802,0.00054,0.0,0.0
1.143,1828.275,0.00055,0.0,0.0
1.149,1806.48,0.00055,0.0,0.0
1.155,1791.773,0.00056,0.0,0.0
1.161,1797.761,0.00056,0.0,0.0
1.167,1759.252,0.00057,0.0,0.0
1.173,1777.784,0.00056,0.0,0.0
1.179,1759.389,0.00057,0.0,0.0
1.186,1736.547,0.00058,0.0,0.0
1.192,1726.46,0.00058,0.0,0.0
1.198,1699.069,0.00059,0.0,0.0
1.204,1691.062,0.00059,0.0,0.0
1.21,1681.331,0.00059,0.0,0.0
1.216,1666.654,0.0006,0.0,0.0
1.222,1653.122,0.0006,0.0,0.0
1.228,1660.657,0.0006,0.0,0.0
1.235,1646.225,0.00061,0.0,0.0
1.241,1652.261,0.00061,0.0,0.0
1.247,1643.336,0.00061,0.0,0.0
1.253,1629.303,0.00061,0.0,0.0
1.259,1657.989,0.0006,0.0,0.0
1.265,1627.883,0.00061,0.0,0.0
1.271,1634.591,0.00061,0.0,0.0
1.277,1615.731,0.00062,0.0,0.0
1.283,1632.602,0.00061,0.0,0.0
1.29,1606.337,0.00062,0.0,0.0
1.296,1618.731,0.00062,0.0,0.0
1.302,1614.027,0.00062,0.0,0.0
1.308,1617.291,0.00062,0.0,0.0
1.314,1602.138,0.00062,0.0,0.0
1.32,1598.837,0.00063,0.0,0.0
1.326,1626.257,0.00061,0.0,0.0
1.332,1602.88,0.00062,0.0,0.0
1.339,1611.081,0.00062,0.0,0.0
1.345,1606.023,0.00062,0.0,0.0
1.351,1612.109,0.00062,0.0,0.0
1.357,1587.101,0.00063,0.0,0.0
1.363,1601.834,0.00062,0.0,0.0
1.369,1593.849,0.00063,0.0,0.0
1.375,1616.524,0.00062,0.0,0.0
1.381,1576.433,0.00063,0.0,0.0
1.388,1597.719,0.00063,0.0,0.0
1.394,1600.273,0.00062,0.0,0.0
1.4,1581.009,0.00063,0.0,0.0
1.406,1599.021,0.00063,0.0,0.0
1.412,1597.333,0.00063,0.0,0.0
1.418,1603.183,0.00062,0.0,0.0
1.424,1609.104,0.00062,0.0,0.0
1.43,1603.463,0.00062,0.0,0.0
1.436,1597.313,0.00063,0.0,0.0
1.443,1593.099,0.00063,0.0,0.0
1.449,1594.698,0.00063,0.0,0.0
1.455,1599.871,0.00063,0.0,0.0
1.461,1580.161,0.00063,0.0,0.0
1.467,1597.562,0.00063,0.0,0.0
1.473,1603.112,0.00062,0.0,0.0
1.479,1603.395,0.00062,0.0,0.0
1.485,1604.705,0.00062,0.0,0.0
1.492,1605.765,0.00062,0.0,0.0
1.498,1627.279,0.00061,0.0,0.0
1.504,1606.586,0.00062,0.0,0.0
1.51,1596.981,0.00063,0.0,0.0
1.516,1597.592,0.00063,0.0,0.0
1.522,1617.081,0.00062,0.0,0.0
1.528,1616.514,0.00062,0.0,0.0
1.534,1596.513,0.00063,0.0,0.0
1.541,1603.735,0.00062,0.0,0.0
1.547,1607.217,0.00062,0.0,0.0
1.553,1570.681,0.00064,0.0,0.0
1.559,1589.678,0.00063,0.0,0.0
1.565,1580.549,0.00063,0.0,0.0
1.571,1602.298,0.00062,0.0,0.0
1.577,1589.198,0.00063,0.0,0.0
1.583,1583.418,0.00063,0.0,0.0
1.589,1594.011,0.00063,0.0,0.0
1.596,1589.686,0.00063,0.0,0.0
1.602,1604.388,0.00062,0.0,0.0
1.608,1609.241,0.00062,0.0,0.0
1.614,1601.495,0.00062,0.0,0.0
1.62,1591.073,0.00063,0.0,0.0
1.626,1595.618,0.00063,0.0,0.0
1.632,1586.28,0.00063,0.0,0.0
1.638,1592.828,0.00063,0.0,0.0
1.645,1591.651,0.00063,0.0,0.0
1.651,1577.185,0.00063,0.0,0.0
1.657,1585.136,0.00063,0.0,0.0
1.663,1593.752,0.00063,0.0,0.0
1.669,1582.633,0.00063,0.0,0.0
1.675,1591.419,0.00063,0.0,0.0
1.681,1581.504,0.00063,0.0,0.0
1.687,1599.513,0.00063,0.0,0.0
1.694,1570.826,0.00064,0.0,0.0
1.7,1593.555,0.00063,0.0,0.0
1.706,1577.809,0.00063,0.0,0.0
1.712,1601.696,0.00062,0.0,0.0
1.718,1588.967,0.00063,0.0,0.0
1.724,1587.202,0.00063,0.0,0.0
1.73,1572.968,0.00064,0.0,0.0
1.736,1582.73,0.00063,0.0,0.0
1.742,1579.579,0.00063,0.0,0.0
1.749,1585.222,0.00063,0.0,0.0
1.755,1582.87,0.00063,0.0,0.0
1.761,1592.265,0.00063,0.0,0.0
1.767,1569.18,0.00064,0.0,0.0
1.773,1593.942,0.00063,0.0,0.0
1.779,1590.79,0.00063,0.0,0.0
1.785,1603.905,0.00062,0.0,0.0
1.791,1599.468,0.00063,0.0,0.0
1.798,1589.279,0.00063,0.0,0.0
1.804,1584.305,0.00063,0.0,0.0
1.81,1582.567,0.00063,0.0,0.0
1.816,1575.191,0.00063,0.0,0.0
1.822,1586.042,0.00063,0.0,0.0
1.828,1570.01,0.00064,0.0,0.0
1.834,1575.425,0.00063,0.0,0.0
1.84,1576.896,0.00063,0.0,0.0
1.847,1554.149,0.00064,0.0,0.0
1.853,1569.603,0.00064,0.0,0.0
1.859,1558.991,0.00064,0.0,0.0
1.865,1569.933,0.00064,0.0,0.0
1.871,1552.558,0.00064,0.0,0.0
1.877,1553.003,0.00064,0.0,0.0
1.883,1544.22,0.00065,0.0,0.0
1.889,1534.155,0.00065,0.0,0.0
1.895,1537.57,0.00065,0.0,0.0
1.902,1543.324,0.00065,0.0,0.0
1.908,1541.886,0.00065,0.0,0.0
1.914,1534.818,0.00065,0.0,0.0
1.92,1537.498,0.00065,0.0,0.0
1.926,1523.536,0.00066,0.0,0.0
1.932,1536.22,0.00065,0.0,0.0
1.938,1533.039,0.00065,0.0,0.0
1.944,1538.837,0.00065,0.0,0.0
1.951,1524.314,0.00066,0.0,0.0
1.957,1536.329,0.00065,0.0,0.0
1.963,1506.653,0.00066,0.0,0.0
1.969,1524.436,0.00066,0.0,0.0
1.975,1496.712,0.00067,0.0,0.0
1.981,1520.026,0.00066,0.0,0.0
1.987,1503.423,0.00067,0.0,0.0
1.993,1500.417,0.00067,0.0,0.0
2.0,1518.481,0.00066,0.0,0.0
2.006,1498.986,0.00067,0.0,0.0
2.012,1515.39,0.00066,0.0,0.0
2.018,1500.788,0.00067,0.0,0.0
2.024,1504.134,0.00066,0.0,0.0
2.03,1484.609,0.00067,0.0,0.0
2.036,1505.108,0.00066,0.0,0.0
2.042,1484.206,0.00067,0.0,0.0
2.048,1517.609,0.00066,0.0,0.0
2.055,1502.373,0.00067,0.0,0.0
2.061,1495.392,0.00067,0.0,0.0
2.067,1508.38,0.00066,0.0,0.0
2.073,1494.278,0.00067,0.0,0.0
2.079,1485.874,0.00067,0.0,0.0
2.085,1500.694,0.00067,0.0,0.0
2.091,1495.039,0.00067,0.0,0.0
2.097,1495.465,0.00067,0.0,0.0
2.104,1503.983,0.00066,0.0,0.0
2.11,1505.099,0.00066,0.0,0.0
2.116,1493.911,0.00067,0.0,0.0
2.122,1491.832,0.00067,0.0,0.0
2.128,1492.421,0.00067,0.0,0.0
2.134,1474.066,0.00068,0.0,0.0
2.14,1476.108,0.00068,0.0,0.0
2.146,1458.8,0.00069,0.0,0.0
2.153,1477.596,0.00068,0.0,0.0
2.159,1484.153,0.00067,0.0,0.0
2.165,1491.068,0.00067,0.0,0.0
2.171,1467.985,0.00068,0.0,0.0
2.177,1477.533,0.00068,0.0,0.0
2.183,1488.953,0.00067,0.0,0.0
2.189,1467.855,0.00068,0.0,0.0
2.195,1475.72,0.00068,0.0,0.0
2.201,1472.746,0.00068,0.0,0.0
2.208,1468.715,0.00068,0.0,0.0
2.214,1469.074,0.00068,0.0,0.0
2.22,1463.482,0.00068,0.0,0.0
2.226,1473.418,0.00068,0.0,0.0
2.232,1477.808,0.00068,0.0,0.0
2.238,1460.003,0.00068,0.0,0.0
2.244,1471.086,0.00068,0.0,0.0
2.25,1461.022,0.00068,0.0,0.0
2.257,1466.623,0.00068,0.0,0.0
2.263,1475.405,0.00068,0.0,0.0
2.269,1480.57,0.00068,0.0,0.0
2.275,1452.99,0.00069,0.0,0.0
2.281,1467.537,0.00068,0.0,0.0
2.287,1453.69,0.00069,0.0,0.0
2.293,1468.423,0.00068,0.0,0.0
2.299,1465.565,0.00068,0.0,0.0
2.306,1455.215,0.00069,0.0,0.0
2.312,1462.394,0.00068,0.0,0.0
2.318,1472.274,0.00068,0.0,0.0
2.324,1471.077,0.00068,0.0,0.0
2.33,1476.798,0.00068,0.0,0.0
2.336,1460.817,0.00068,0.0,0.0
2.342,1467.338,0.00068,0.0,0.0
2.348,1482.296,0.00067,0.0,0.0
2.354,1473.508,0.00068,0.0,0.0
2.361,1475.003,0.00068,0.0,0.0
2.367,1459.506,0.00069,0.0,0.0
2.373,1468.072,0.00068,0.0,0.0
2.379,1457.631,0.00069,0.0,0.0
2.385,1475.915,0.00068,0.0,0.0
2.391,1467.671,0.00068,0.0,0.0
2.397,1460.651,0.00068,0.0,0.0
2.403,1468.778,0.00068,0.0,0.0
2.41,1478.614,0.00068,0.0,0.0
2.416,1455.716,0.00069,0.0,0.0
2.422,1466.695,0.00068,0.0,0.0
2.428,1469.559,0.00068,0.0,0.0
2.434,1464.905,0.00068,0.0,0.0
2.44,1474.743,0.00068,0.0,0.0
2.446,1466.302,0.00068,0.0,0.0
2.452,1470.581,0.00068,0.0,0.0
2.459,1479.217,0.00068,0.0,0.0
2.465,1472.446,0.00068,0.0,0.0
2.471,1469.652,0.00068,0.0,0.0
2.477,1476.117,0.00068,0.0,0.0
2.483,1457.034,0.00069,0.0,0.0
2.489,1477.491,0.00068,0.0,0.0
2.495,1476.648,0.00068,0.0,0.0
2.501,1463.182,0.00068,0.0,0.0
2.507,1473.506,0.00068,0.0,0.0
2.514,1478.484,0.00068,0.0,0.0
2.52,1475.963,0.00068,0.0,0.0
2.526,1474.258,0.00068,0.0,0.0
2.532,1465.387,0.00068,0.0,0.0
2.538,1469.505,0.00068,0.0,0.0
2.544,1493.988,0.00067,0.0,0.0
2.55,1463.258,0.00068,0.0,0.0
2.556,1484.651,0.00067,0.0,0.0
2.563,1477.167,0.00068,0.0,0.0
2.569,1468.234,0.00068,0.0,0.0
2.575,1495.783,0.00067,0.0,0.0
2.581,1470.131,0.00068,0.0,0.0
2.587,1472.314,0.00068,0.0,0.0
2.593,1489.854,0.00067,0.0,0.0
2.599,1465.046,0.00068,0.0,0.0
2.605,1469.331,0.00068,0.0,0.0
2.612,1465.128,0.00068,0.0,0.0
2.618,1474.644,0.00068,0.0,0.0
2.624,1481.92,0.00067,0.0,0.0
2.63,1460.518,0.00068,0.0,0.0
2.636,1460.972,0.00068,0.0,0.0
2.642,1480.362,0.00068,0.0,0.0
2.648,1466.773,0.00068,0.0,0.0
2.654,1483.475,0.00067,0.0,0.0
2.66,1477.577,0.00068,0.0,0.0
2.667,1484.916,0.00067,0.0,0.0
2.673,1488.631,0.00067,0.0,0.0
2.679,1467.821,0.00068,0.0,0.0
2.685,1490.143,0.00067,0.0,0.0
2.691,1478.681,0.00068,0.0,0.0
2.697,1479.643,0.00068,0.0,0.0
2.703,1484.987,0.00067,0.0,0.0
2.709,1471.952,0.00068,0.0,0.0
2.716,1475.391,0.00068,0.0,0.0
2.722,1477.11,0.00068,0.0,0.0
2.728,1466.261,0.00068,0.0,0.0
2.734,1465.299,0.00068,0.0,0.0
2.74,1458.732,0.00069,0.0,0.0
2.746,1451.766,0.00069,0.0,0.0
2.752,1468.74,0.00068,0.0,0.0
2.758,1470.296,0.00068,0.0,0.0
2.765,1467.313,0.00068,0.0,0.0
2.771,1464.264,0.00068,0.0,0.0
2.777,1459.861,0.00068,0.0,0.0
2.783,1463.323,0.00068,0.0,0.0
2.789,1466.194,0.00068,0.0,0.0
2.795,1447.878,0.00069,0.0,0.0
2.801,1473.393,0.00068,0.0,0.0
2.807,1457.894,0.00069,0.0,0.0
2.813,1463.854,0.00068,0.0,0.0
2.82,1463.185,0.00068,0.0,0.0
2.826,1457.919,0.00069,0.0,0.0
2.832,1459.28,0.00069,0.0,0.0
2.838,1455.457,0.00069,0.0,0.0
2.844,1441.049,0.00069,0.0,0.0
2.85,1449.17,0.00069,0.0,0.0
2.856,1452.495,0.00069,0.0,0.0
2.862,1446.125,0.00069,0.0,0.0
2.869,1442.668,0.00069,0.0,0.0
2.875,1440.73,0.00069,0.0,0.0
2.881,1451.907,0.00069,0.0,0.0
2.887,1447.885,0.00069,0.0,0.0
2.893,1427.946,0.0007,0.0,0.0
2.899,1431.524,0.0007,0.0,0.0
2.905,1435.24,0.0007,0.0,0.0
2.911,1419.54,0.0007,0.0,0.0
2.918,1439.193,0.00069,0.0,0.0
2.924,1414.962,0.00071,0.0,0.0
2.93,1428.678,0.0007,0.0,0.0
2.936,1428.619,0.0007,0.0,0.0
2.942,1411.338,0.00071,0.0,0.0
2.948,1422.069,0.0007,0.0,0.0
2.954,1410.824,0.00071,0.0,0.0
2.96,1408.588,0.00071,0.0,0.0
2.966,1413.421,0.00071,0.0,0.0
2.973,1408.797,0.00071,0.0,0.0
2.979,1409.849,0.00071,0.0,0.0
2.985,1405.974,0.00071,0.0,0.0
2.991,1387.373,0.00072,0.0,0.0
2.997,1413.918,0.00071,0.0,0.0
3.003,1380.522,0.00072,0.0,0.0
3.009,1395.601,0.00072,0.0,0.0
3.015,1403.03,0.00071,0.0,0.0
3.022,1386.994,0.00072,0.0,0.0
3.028,1380.061,0.00072,0.0,0.0
3.034,1392.905,0.00072,0.0,0.0
3.04,1370.417,0.00073,0.0,0.0
3.046,1382.755,0.00072,0.0,0.0
3.052,1368.809,0.00073,0.0,0.0
3.058,1366.749,0.00073,0.0,0.0
3.064,1381.46,0.00072,0.0,0.0
3.071,1352.246,0.00074,0.0,0.0
3.077,1362.436,0.00073,0.0,0.0
3.083,1367.65,0.00073,0.0,0.0
3.089,1358.042,0.00074,0.0,0.0
3.095,1358.058,0.00074,0.0,0.0
3.101,1363.273,0.00073,0.0,0.0
3.107,1336.524,0.00075,0.0,0.0
3.113,1352.137,0.00074,0.0,0.0
3.119,1337.375,0.00075,0.0,0.0
3.126,1353.603,0.00074,0.0,0.0
3.132,1343.581,0.00074,0.0,0.0
3.138,1336.218,0.00075,0.0,0.0
3.144,1346.937,0.00074,0.0,0.0
3.15,1341.872,0.00075,0.0,0.0
3.156,1327.853,0.00075,0.0,0.0
3.162,1340.486,0.00075,0.0,0.0
3.168,1328.906,0.00075,0.0,0.0
3.175,1335.262,0.00075,0.0,0.0
3.181,1333.245,0.00075,0.0,0.0
3.187,1320.294,0.00076,0.0,0.0
3.193,1333.847,0.00075,0.0,0.0
3.199,1319.177,0.00076,0.0,0.0
3.205,1317.235,0.00076,0.0,0.0
3.211,1330.882,0.00075,0.0,0.0
3.217,1312.452,0.00076,0.0,0.0
3.224,1315.154,0.00076,0.0,0.0
3.23,1324.82,0.00075,0.0,0.0
3.236,1306.006,0.00077,0.0,0.0
3.242,1306.703,0.00077,0.0,0.0
3.248,1295.458,0.00077,0.0,0.0
3.254,1309.67,0.00076,0.0,0.0
3.26,1317.19,0.00076,0.0,0.0
3.266,1285.616,0.00078,0.0,0.0
3.272,1298.015,0.00077,0.0,0.0
3.279,1291.327,0.00077,0.0,0.0
3.285,1272.171,0.00079,0.0,0.0
3.291,1291.7,0.00077,0.0,0.0
3.297,1279.865,0.00078,0.0,0.0
3.303,1267.523,0.00079,0.0,0.0
3.309,1290.017,0.00078,0.0,0.0
3.315,1260.3,0.00079,0.0,0.0
3.321,1271.208,0.00079,0.0,0.0
3.328,1277.214,0.00078,0.0,0.0
3.334,1261.164,0.00079,0.0,0.0
3.34,1257.988,0.00079,0.0,0.0
3.346,1270.837,0.00079,0.0,0.0
3.352,1264.235,0.00079,0.0,0.0
3.358,1260.684,0.00079,0.0,0.0
3.364,1255.604,0.0008,0.0,0.0
3.37,1251.302,0.0008,0.0,0.0
3.377,1257.336,0.0008,0.0,0.0
3.383,1238.833,0.00081,0.0,0.0
3.389,1244.474,0.0008,0.0,0.0
3.395,1237.359,0.00081,0.0,0.0
3.401,1239.11,0.00081,0.0,0.0
3.407,1246.919,0.0008,0.0,0.0
3.413,1241.896,0.00081,0.0,0.0
3.419,1242.071,0.00081,0.0,0.0
3.425,1236.385,0.00081,0.0,0.0
3.432,1221.084,0.00082,0.0,0.0
3.438,1231.841,0.00081,0.0,0.0
3.444,1219.869,0.00082,0.0,0.0
3.45,1226.339,0.00082,0.0,0.0
3.456,1218.69,0.00082,0.0,0.0
3.462,1216.807,0.00082,0.0,0.0
3.468,1213.113,0.00082,0.0,0.0
3.474,1222.03,0.00082,0.0,0.0
3.481,1193.283,0.00084,0.0,0.0
3.487,1213.904,0.00082,0.0,0.0
3.493,1191.731,0.00084,0.0,0.0
3.499,1201.099,0.00083,0.0,0.0
3.505,1214.91,0.00082,0.0,0.0
3.511,1194.618,0.00084,0.0,0.0
3.517,1199.664,0.00083,0.0,0.0
3.523,1210.854,0.00083,0.0,0.0
3.53,1190.204,0.00084,0.0,0.0
3.536,1199.367,0.00083,0.0,0.0
3.542,1189.079,0.00084,0.0,0.0
3.548,1172.279,0.00085,0.0,0.0
3.554,1201.484,0.00083,0.0,0.0
3.56,1170.069,0.00085,0.0,0.0
3.566,1191.47,0.00084,0.0,0.0
3.572,1185.508,0.00084,0.0,0.0
3.578,1169.637,0.00085,0.0,0.0
3.585,1178.411,0.00085,0.0,0.0
3.591,1167.943,0.00086,0.0,0.0
3.597,1163.245,0.00086,0.0,0.0
3.603,1176.177,0.00085,0.0,0.0
3.609,1160.008,0.00086,0.0,0.0
3.615,1168.796,0.00086,0.0,0.0
3.621,1166.359,0.00086,0.0,0.0
3.627,1149.236,0.00087,0.0,0.0
3.634,1150.58,0.00087,0.0,0.0
3.64,1152.975,0.00087,0.0,0.0
3.646,1141.356,0.00088,0.0,0.0
3.652,1152.134,0.00087,0.0,0.0
3.658,1140.109,0.00088,0.0,0.0
3.664,1141.711,0.00088,0.0,0.0
3.67,1142.279,0.00088,0.0,0.0
3.676,1144.192,0.00087,0.0,0.0
3.683,1138.561,0.00088,0.0,0.0
3.689,1137.239,0.00088,0.0,0.0
3.695,1135.025,0.00088,0.0,0.0
3.701,1126.389,0.00089,0.0,0.0
3.707,1121.412,0.00089,0.0,0.0
3.713,1130.853,0.00088,0.0,0.0
3.719,1125.126,0.00089,0.0,0.0
3.725,1116.038,0.0009,0.0,0.0
3.731,1113.302,0.0009,0.0,0.0
3.738,1116.137,0.0009,0.0,0.0
3.744,1115.075,0.0009,0.0,0.0
3.75,1117.296,0.0009,0.0,0.0
3.756,1113.224,0.0009,0.0,0.0
3.762,1112.532,0.0009,0.0,0.0
3.768,1102.723,0.00091,0.0,0.0
3.774,1096.627,0.00091,0.0,0.0
3.78,1100.523,0.00091,0.0,0.0
3.787,1104.07,0.00091,0.0,0.0
3.793,1100.311,0.00091,0.0,0.0
3.799,1116.104,0.0009,0.0,0.0
3.805,1082.158,0.00092,0.0,0.0
3.811,1102.993,0.00091,0.0,0.0
3.817,1098.032,0.00091,0.0,0.0
3.823,1071.066,0.00093,0.0,0.0
3.829,1088.276,0.00092,0.0,0.0
3.836,1083.084,0.00092,0.0,0.0
3.842,1074.669,0.00093,0.0,0.0
3.848,1089.17,0.00092,0.0,0.0
3.854,1060.27,0.00094,0.0,0.0
3.86,1078.677,0.00093,0.0,0.0
3.866,1092.116,0.00092,0.0,0.0
3.872,1059.668,0.00094,0.0,0.0
3.878,1079.722,0.00093,0.0,0.0
3.884,1065.73,0.00094,0.0,0.0
3.891,1064.715,0.00094,0.0,0.0
3.897,1070.212,0.00093,0.0,0.0
3.903,1062.073,0.00094,0.0,0.0
3.909,1057.482,0.00095,0.0,0.0
3.915,1057.04,0.00095,0.0,0.0
3.921,1048.279,0.00095,0.0,0.0
3.927,1048.748,0.00095,0.0,0.0
3.933,1042.733,0.00096,0.0,0.0
3.94,1041.916,0.00096,0.0,0.0
3.946,1055.544,0.00095,0.0,0.0
3.952,1032.481,0.00097,0.0,0.0
3.958,1040.76,0.00096,0.0,0.0
3.964,1034.132,0.00097,0.0,0.0
3.97,1025.452,0.00098,0.0,0.0
3.976,1041.843,0.00096,0.0,0.0
3.982,1034.977,0.00097,0.0,0.0
3.989,1014.509,0.00099,0.0,0.0
3.995,1047.963,0.00095,0.0,0.0
4.001,1018.996,0.00098,0.0,0.0
4.007,1009.704,0.00099,0.0,0.0
4.013,1028.965,0.00097,0.0,0.0
4.019,1011.074,0.00099,0.0,0.0
4.025,1026.761,0.00097,0.0,0.0
4.031,1014.28,0.00099,0.0,0.0
4.037,1011.416,0.00099,0.0,0.0
4.044,1011.46,0.00099,0.0,0.0
4.05,1002.456,0.001,0.0,0.0
4.056,1007.116,0.00099,0.0,0.0
4.062,1010.907,0.00099,0.0,0.0
4.068,998.537,0.001,0.0,0.0
4.074,1021.424,0.00098,0.0,0.0
4.08,1000.983,0.001,0.0,0.0
4.086,998.008,0.001,0.0,0.0
4.093,1018.957,0.00098,0.0,0.0
4.099,1004.995,0.001,0.0,0.0
4.105,1007.048,0.00099,0.0,0.0
4.111,998.387,0.001,0.0,0.0
4.117,992.102,0.00101,0.0,0.0
4.123,995.55,0.001,0.0,0.0
4.129,989.909,0.00101,0.0,0.0
4.135,979.26,0.00102,0.0,0.0
4.142,990.306,0.00101,0.0,0.0
4.148,972.348,0.00103,0.0,0.0
4.154,978.659,0.00102,0.0,0.0
4.16,966.528,0.00103,0.0,0.0
4.166,960.206,0.00104,0.0,0.0
4.172,972.433,0.00103,0.0,0.0
4.178,976.197,0.00102,0.0,0.0
4.184,951.672,0.00105,0.0,0.0
4.19,965.052,0.00104,0.0,0.0
4.197,953.32,0.00105,0.0,0.0
4.203,952.016,0.00105,0.0,0.0
4.209,958.653,0.00104,0.0,0.0
4.215,949.294,0.00105,0.0,0.0
4.221,955.478,0.00105,0.0,0.0
4.227,948.755,0.00105,0.0,0.0
4.233,951.219,0.00105,0.0,0.0
4.239,945.29,0.00106,0.0,0.0
4.246,943.05,0.00106,0.0,0.0
4.252,940.54,0.00106,0.0,0.0
4.258,948.977,0.00105,0.0,0.0
4.264,932.463,0.00107,0.0,0.0
4.27,946.39,0.00106,0.0,0.0
4.276,943.243,0.00106,0.0,0.0
4.282,940.01,0.00106,0.0,0.0
4.288,934.01,0.00107,0.0,0.0
4.295,935.698,0.00107,0.0,0.0
4.301,925.427,0.00108,0.0,0.0
4.307,933.746,0.00107,0.0,0.0
4.313,932.098,0.00107,0.0,0.0
4.319,937.448,0.00107,0.0,0.0
4.325,941.036,0.00106,0.0,0.0
4.331,946.886,0.00106,0.0,0.0
4.337,969.39,0.00103,0.0,0.0
4.343,973.713,0.00103,0.0,0.0
4.35,1024.962,0.00098,0.0,0.0
4.356,1088.567,0.00092,0.0,0.0
4.362,1156.65,0.00086,0.0,0.0
4.368,1423.551,0.0007,0.0,0.0
4.374,1883.981,0.00053,0.0,0.0
4.38,2685.085,0.00037,0.0,0.0
4.386,4103.871,0.00024,0.0,0.0
4.392,5177.499,0.00019,0.0,0.0
4.399,5858.753,0.00017,0.0,0.0
4.405,7703.14,0.00013,0.0,0.0
4.411,7004.789,0.00014,0.0,0.0
4.417,6052.794,0.00017,0.0,0.0
4.423,4169.162,0.00024,0.0,0.0
4.429,3119.828,0.00032,0.0,0.0
4.435,1874.154,0.00053,0.0,0.0
4.441,1428.09,0.0007,0.0,0.0
4.448,1221.675,0.00082,0.0,0.0
4.454,1034.003,0.00097,0.0,0.0
4.46,992.937,0.00101,0.0,0.0
4.466,940.925,0.00106,0.0,0.0
4.472,911.411,0.0011,0.0,0.0
4.478,894.08,0.00112,0.0,0.0
4.484,880.404,0.00114,0.0,0.0
4.49,874.936,0.00114,0.0,0.0
4.496,867.776,0.00115,0.0,0.0
4.503,860.943,0.00116,0.0,0.0
4.509,848.023,0.00118,0.0,0.0
4.515,855.079,0.00117,0.0,0.0
4.521,851.663,0.00117,0.0,0.0
4.527,837.079,0.00119,0.0,0.0
4.533,840.306,0.00119,0.0,0.0
4.539,832.075,0.0012,0.0,0.0
4.545,832.523,0.0012,0.0,0.0
4.552,833.101,0.0012,0.0,0.0
4.558,821.081,0.00122,0.0,0.0
4.564,828.04,0.00121,0.0,0.0
4.57,814.74,0.00123,0.0,0.0
4.576,813.964,0.00123,0.0,0.0
4.582,811.13,0.00123,0.0,0.0
4.588,808.759,0.00124,0.0,0.0
4.594,807.563,0.00124,0.0,0.0
4.601,806.367,0.00124,0.0,0.0
4.607,795.271,0.00126,0.0,0.0
4.613,803.385,0.00124,0.0,0.0
4.619,785.206,0.00127,0.0,0.0
4.625,792.846,0.00126,0.0,0.0
4.631,799.145,0.00125,0.0,0.0
4.637,790.427,0.00127,0.0,0.0
4.643,789.562,0.00127,0.0,0.0
4.649,792.302,0.00126,0.0,0.0
4.656,781.088,0.00128,0.0,0.0
4.662,787.001,0.00127,0.0,0.0
4.668,779.226,0.00128,0.0,0.0
4.674,784.386,0.00127,0.0,0.0
4.68,776.501,0.00129,0.0,0.0
4.686,780.811,0.00128,0.0,0.0
4.692,771.323,0.0013,0.0,0.0
4.698,770.987,0.0013,0.0,0.0
4.705,767.281,0.0013,0.0,0.0
4.711,773.156,0.00129,0.0,0.0
4.717,772.726,0.00129,0.0,0.0
4.723,756.671,0.00132,0.0,0.0
4.729,767.217,0.0013,0.0,0.0
4.735,756.908,0.00132,0.0,0.0
4.741,756.115,0.00132,0.0,0.0
4.747,752.456,0.00133,0.0,0.0
4.754,749.384,0.00133,0.0,0.0
4.76,748.024,0.00134,0.0,0.0
4.766,750.107,0.00133,0.0,0.0
4.772,747.333,0.00134,0.0,0.0
4.778,745.297,0.00134,0.0,0.0
4.784,737.563,0.00136,0.0,0.0
4.79,737.431,0.00136,0.0,0.0
4.796,738.946,0.00135,0.0,0.0
4.802,738.777,0.00135,0.0,0.0
4.809,737.184,0.00136,0.0,0.0
4.815,727.373,0.00137,0.0,0.0
4.821,733.403,0.00136,0.0,0.0
4.827,719.774,0.00139,0.0,0.0
4.833,721.517,0.00139,0.0,0.0
4.839,726.068,0.00138,0.0,0.0
4.845,731.192,0.00137,0.0,0.0
4.851,720.97,0.00139,0.0,0.0
4.858,722.371,0.00138,0.0,0.0
4.864,707.95,0.00141,0.0,0.0
4.87,718.871,0.00139,0.0,0.0
4.876,716.824,0.0014,0.0,0.0
4.882,711.639,0.00141,0.0,0.0
4.888,712.73,0.0014,0.0,0.0
4.894,716.213,0.0014,0.0,0.0
4.9,708.564,0.00141,0.0,0.0
4.907,709.427,0.00141,0.0,0.0
4.913,710.601,0.00141,0.0,0.0
4.919,700.106,0.00143,0.0,0.0
4.925,707.265,0.00141,0.0,0.0
4.931,688.577,0.00145,0.0,0.0
4.937,698.344,0.00143,0.0,0.0
4.943,688.776,0.00145,0.0,0.0
4.949,695.211,0.00144,0.0,0.0
4.955,698.308,0.00143,0.0,0.0
4.962,680.631,0.00147,0.0,0.0
4.968,683.593,0.00146,0.0,0.0
4.974,683.566,0.00146,0.0,0.0
4.98,683.875,0.00146,0.0,0.0
4.986,680.977,0.00147,0.0,0.0
4.992,680.79,0.00147,0.0,0.0
4.998,672.074,0.00149,0.0,0.0
5.004,681.744,0.00147,0.0,0.0
5.011,668.08,0.0015,0.0,0.0
5.017,678.657,0.00147,0.0,0.0
5.023,675.93,0.00148,0.0,0.0
5.029,674.312,0.00148,0.0,0.0
5.035,668.817,0.0015,0.0,0.0
5.041,664.05,0.00151,0.0,0.0
5.047,664.179,0.00151,0.0,0.0
5.053,667.558,0.0015,0.0,0.0
5.06,661.451,0.00151,0.0,0.0
5.066,667.173,0.0015,0.0,0.0
5.072,663.121,0.00151,0.0,0.0
5.078,660.477,0.00151,0.0,0.0
5.084,662.369,0.00151,0.0,0.0
5.09,649.246,0.00154,0.0,0.0
5.096,658.367,0.00152,0.0,0.0
5.102,649.576,0.00154,0.0,0.0
5.108,647.356,0.00154,0.0,0.0
5.115,643.533,0.00155,0.0,0.0
5.121,641.443,0.00156,0.0,0.0
5.127,639.322,0.00156,0.0,0.0
5.133,647.664,0.00154,0.0,0.0
5.139,641.615,0.00156,0.0,0.0
5.145,647.512,0.00154,0.0,0.0
5.151,643.097,0.00155,0.0,0.0
5.157,632.59,0.00158,0.0,0.0
5.164,634.282,0.00158,0.0,0.0
5.17,647.047,0.00155,0.0,0.0
5.176,628.045,0.00159,0.0,0.0
5.182,629.468,0.00159,0.0,0.0
5.188,630.369,0.00159,0.0,0.0
5.194,625.012,0.0016,0.0,0.0
5.2,626.763,0.0016,0.0,0.0
5.206,630.593,0.00159,0.0,0.0
5.213,622.478,0.00161,0.0,0.0
5.219,619.967,0.00161,0.0,0.0
5.225,621.131,0.00161,0.0,0.0
5.231,624.641,0.0016,0.0,0.0
5.237,612.374,0.00163,0.0,0.0
5.243,616.554,0.00162,0.0,0.0
5.249,617.716,0.00162,0.0,0.0
5.255,618.179,0.00162,0.0,0.0
5.261,610.019,0.00164,0.0,0.0
5.268,613.387,0.00163,0.0,0.0
5.274,613.82,0.00163,0.0,0.0
5.28,605.971,0.00165,0.0,0.0
5.286,607.106,0.00165,0.0,0.0
5.292,599.989,0.00167,0.0,0.0
5.298,606.435,0.00165,0.0,0.0
5.304,608.203,0.00164,0.0,0.0
5.31,604.077,0.00166,0.0,0.0
5.317,602.152,0.00166,0.0,0.0
5.323,600.35,0.00167,0.0,0.0
5.329,602.32,0.00166,0.0,0.0
5.335,595.369,0.00168,0.0,0.0
5.341,599.249,0.00167,0.0,0.0
5.347,592.018,0.00169,0.0,0.0
5.353,594.212,0.00168,0.0,0.0
5.359,598.234,0.00167,0.0,0.0
5.366,590.791,0.00169,0.0,0.0
5.372,590.132,0.00169,0.0,0.0
5.378,593.07,0.00169,0.0,0.0
5.384,593.783,0.00168,0.0,0.0
5.39,594.877,0.00168,0.0,0.0
5.396,585.833,0.00171,0.0,0.0
5.402,583.565,0.00171,0.0,0.0
5.408,583.843,0.00171,0.0,0.0
5.414,583.079,0.00172,0.0,0.0
5.421,579.636,0.00173,0.0,0.0
5.427,580.124,0.00172,0.0,0.0
5.433,582.054,0.00172,0.0,0.0
5.439,585.802,0.00171,0.0,0.0
5.445,581.695,0.00172,0.0,0.0
5.451,578.823,0.00173,0.0,0.0
5.457,572.452,0.00175,0.0,0.0
5.463,570.993,0.00175,0.0,0.0
5.47,573.859,0.00174,0.0,0.0
5.476,573.449,0.00174,0.0,0.0
5.482,564.145,0.00177,0.0,0.0
5.488,570.227,0.00175,0.0,0.0
5.494,572.243,0.00175,0.0,0.0
5.5,566.033,0.00177,0.0,0.0
5.506,569.076,0.00176,0.0,0.0
5.512,568.149,0.00176,0.0,0.0
5.519,564.635,0.00177,0.0,0.0
5.525,561.105,0.00178,0.0,0.0
5.531,562.345,0.00178,0.0,0.0
5.537,566.587,0.00176,0.0,0.0
5.543,557.955,0.00179,0.0,0.0
5.549,555.408,0.0018,0.0,0.0
5.555,556.069,0.0018,0.0,0.0
5.561,549.662,0.00182,0.0,0.0
5.567,562.05,0.00178,0.0,0.0
5.574,569.531,0.00176,0.0,0.0
5.58,555.452,0.0018,0.0,0.0
5.586,553.601,0.00181,0.0,0.0
5.592,549.448,0.00182,0.0,0.0
5.598,546.965,0.00183,0.0,0.0
5.604,554.494,0.0018,0.0,0.0
5.61,549.471,0.00182,0.0,0.0
5.616,557.33,0.00179,0.0,0.0
5.623,548.148,0.00182,0.0,0.0
5.629,544.614,0.00184,0.0,0.0
5.635,547.978,0.00182,0.0,0.0
5.641,542.746,0.00184,0.0,0.0
5.647,544.081,0.00184,0.0,0.0
5.653,543.875,0.00184,0.0,0.0
5.659,537.851,0.00186,0.0,0.0
5.665,539.716,0.00185,0.0,0.0
5.672,535.744,0.00187,0.0,0.0
5.678,539.716,0.00185,0.0,0.0
5.684,540.478,0.00185,0.0,0.0
5.69,543.118,0.00184,0.0,0.0
5.696,535.059,0.00187,0.0,0.0
5.702,534.916,0.00187,0.0,0.0
5.708,539.585,0.00185,0.0,0.0
5.714,530.996,0.00188,0.0,0.0
5.72,534.59,0.00187,0.0,0.0
5.727,527.332,0.0019,0.0,0.0
5.733,530.517,0.00188,0.0,0.0
5.739,525.322,0.0019,0.0,0.0
5.745,530.084,0.00189,0.0,0.0
5.751,527.383,0.0019,0.0,0.0
5.757,527.065,0.0019,0.0,0.0
5.763,531.555,0.00188,0.0,0.0
5.769,524.209,0.00191,0.0,0.0
5.776,527.86,0.00189,0.0,0.0
5.782,515.521,0.00194,0.0,0.0
5.788,520.607,0.00192,0.0,0.0
5.794,527.172,0.0019,0.0,0.0
5.8,526.569,0.0019,0.0,0.0
5.806,524.348,0.00191,0.0,0.0
5.812,522.483,0.00191,0.0,0.0
5.818,518.723,0.00193,0.0,0.0
5.825,514.621,0.00194,0.0,0.0
5.831,518.083,0.00193,0.0,0.0
5.837,510.93,0.00196,0.0,0.0
5.843,513.102,0.00195,0.0,0.0
5.849,513.092,0.00195,0.0,0.0
5.855,515.224,0.00194,0.0,0.0
5.861,516.416,0.00194,0.0,0.0
5.867,514.457,0.00194,0.0,0.0
5.873,522.156,0.00192,0.0,0.0
5.88,525.389,0.0019,0.0,0.0
5.886,528.286,0.00189,0.0,0.0
5.892,539.081,0.00186,0.0,0.0
5.898,574.843,0.00174,0.0,0.0
5.904,572.1,0.00175,0.0,0.0
5.91,621.747,0.00161,0.0,0.0
5.916,639.307,0.00156,0.0,0.0
5.922,637.386,0.00157,0.0,0.0
5.929,628.367,0.00159,0.0,0.0
5.935,608.875,0.00164,0.0,0.0
5.941,575.416,0.00174,0.0,0.0
5.947,544.859,0.00184,0.0,0.0
5.953,517.365,0.00193,0.0,0.0
5.959,507.864,0.00197,0.0,0.0
5.965,498.409,0.00201,0.0,0.0
5.971,505.111,0.00198,0.0,0.0
5.978,494.438,0.00202,0.0,0.0
5.984,494.599,0.00202,0.0,0.0
5.99,493.065,0.00203,0.0,0.0
5.996,496.936,0.00201,0.0,0.0
6.002,492.422,0.00203,0.0,0.0
6.008,488.988,0.00205,0.0,0.0
6.014,490.685,0.00204,0.0,0.0
6.02,487.471,0.00205,0.0,0.0
6.026,488.388,0.00205,0.0,0.0
6.033,490.857,0.00204,0.0,0.0
6.039,476.438,0.0021,0.0,0.0
6.045,477.097,0.0021,0.0,0.0
6.051,479.755,0.00208,0.0,0.0
6.057,479.519,0.00209,0.0,0.0
6.063,485.71,0.00206,0.0,0.0
6.069,474.454,0.00211,0.0,0.0
6.075,481.234,0.00208,0.0,0.0
6.082,475.058,0.00211,0.0,0.0
6.088,478.624,0.00209,0.0,0.0
6.094,474.407,0.00211,0.0,0.0
6.1,467.079,0.00214,0.0,0.0
6.106,477.285,0.0021,0.0,0.0
6.112,468.88,0.00213,0.0,0.0
6.118,475.783,0.0021,0.0,0.0
6.124,463.774,0.00216,0.0,0.0
6.131,472.029,0.00212,0.0,0.0
6.137,471.565,0.00212,0.0,0.0
6.143,462.6,0.00216,0.0,0.0
6.149,468.162,0.00214,0.0,0.0
6.155,467.69,0.00214,0.0,0.0
6.161,466.076,0.00215,0.0,0.0
6.167,460.332,0.00217,0.0,0.0
6.173,463.916,0.00216,0.0,0.0
6.179,458.744,0.00218,0.0,0.0
6.186,457.672,0.00218,0.0,0.0
6.192,461.859,0.00217,0.0,0.0
6.198,471.091,0.00212,0.0,0.0
6.204,464.941,0.00215,0.0,0.0
6.21,461.072,0.00217,0.0,0.0
6.216,463.856,0.00216,0.0,0.0
6.222,465.223,0.00215,0.0,0.0
6.228,460.805,0.00217,0.0,0.0
6.235,459.245,0.00218,0.0,0.0
6.241,465.204,0.00215,0.0,0.0
6.247,460.466,0.00217,0.0,0.0
6.253,456.346,0.00219,0.0,0.0
6.259,456.214,0.00219,0.0,0.0
6.265,455.071,0.0022,0.0,0.0
6.271,458.108,0.00218,0.0,0.0
6.277,451.189,0.00222,0.0,0.0
6.284,449.98,0.00222,0.0,0.0
6.29,455.341,0.0022,0.0,0.0
6.296,454.697,0.0022,0.0,0.0
6.302,455.853,0.00219,0.0,0.0
6.308,454.759,0.0022,0.0,0.0
6.314,456.464,0.00219,0.0,0.0
6.32,449.848,0.00222,0.0,0.0
6.326,444.557,0.00225,0.0,0.0
6.332,449.697,0.00222,0.0,0.0
6.339,451.027,0.00222,0.0,0.0
6.345,450.186,0.00222,0.0,0.0
6.351,439.352,0.00228,0.0,0.0
6.357,444.125,0.00225,0.0,0.0
6.363,448.678,0.00223,0.0,0.0
6.369,441.585,0.00226,0.0,0.0
6.375,441.79,0.00226,0.0,0.0
6.381,439.66,0.00227,0.0,0.0
6.388,438.35,0.00228,0.0,0.0
6.394,445.345,0.00225,0.0,0.0
6.4,447.229,0.00224,0.0,0.0
6.406,441.443,0.00227,0.0,0.0
6.412,446.937,0.00224,0.0,0.0
6.418,442.53,0.00226,0.0,0.0
6.424,442.836,0.00226,0.0,0.0
6.43,441.472,0.00227,0.0,0.0
6.437,441.747,0.00226,0.0,0.0
6.443,439.385,0.00228,0.0,0.0
6.449,440.887,0.00227,0.0,0.0
6.455,430.452,0.00232,0.0,0.0
6.461,435.958,0.00229,0.0,0.0
6.467,434.992,0.0023,0.0,0.0
6.473,436.577,0.00229,0.0,0.0
6.479,440.068,0.00227,0.0,0.0
6.485,437.482,0.00229,0.0,0.0
6.492,433.531,0.00231,0.0,0.0
6.498,435.573,0.0023,0.0,0.0
6.504,433.002,0.00231,0.0,0.0
6.51,438.633,0.00228,0.0,0.0
6.516,435.524,0.0023,0.0,0.0
6.522,433.273,0.00231,0.0,0.0
6.528,437.865,0.00228,0.0,0.0
6.534,433.695,0.00231,0.0,0.0
6.541,435.789,0.00229,0.0,0.0
6.547,433.264,0.00231,0.0,0.0
6.553,431.278,0.00232,0.0,0.0
6.559,430.733,0.00232,0.0,0.0
6.565,435.383,0.0023,0.0,0.0
6.571,434.639,0.0023,0.0,0.0
6.577,431.364,0.00232,0.0,0.0
6.583,436.187,0.00229,0.0,0.0
6.59,430.478,0.00232,0.0,0.0
6.596,426.967,0.00234,0.0,0.0
6.602,433.724,0.00231,0.0,0.0
6.608,432.474,0.00231,0.0,0.0
6.614,427.953,0.00234,0.0,0.0
6.62,427.696,0.00234,0.0,0.0
6.626,432.659,0.00231,0.0,0.0
6.632,424.605,0.00236,0.0,0.0
6.638,433.987,0.0023,0.0,0.0
6.645,427.285,0.00234,0.0,0.0
6.651,429.67,0.00233,0.0,0.0
6.657,424.534,0.00236,0.0,0.0
6.663,427.109,0.00234,0.0,0.0
6.669,429.119,0.00233,0.0,0.0
6.675,435.587,0.0023,0.0,0.0
6.681,428.874,0.00233,0.0,0.0
6.687,433.15,0.00231,0.0,0.0
6.694,431.684,0.00232,0.0,0.0
6.7,428.333,0.00233,0.0,0.0
6.706,424.282,0.00236,0.0,0.0
6.712,426.931,0.00234,0.0,0.0
6.718,427.864,0.00234,0.0,0.0
6.724,422.014,0.00237,0.0,0.0
6.73,426.222,0.00235,0.0,0.0
6.736,427.836,0.00234,0.0,0.0
6.743,425.972,0.00235,0.0,0.0
6.749,425.041,0.00235,0.0,0.0
6.755,425.879,0.00235,0.0,0.0
6.761,423.86,0.00236,0.0,0.0
6.767,429.22,0.00233,0.0,0.0
6.773,423.843,0.00236,0.0,0.0
6.779,420.712,0.00238,0.0,0.0
6.785,429.908,0.00233,0.0,0.0
6.791,415.535,0.00241,0.0,0.0
6.798,418.25,0.00239,0.0,0.0
6.804,415.602,0.00241,0.0,0.0
6.81,425.322,0.00235,0.0,0.0
6.816,414.126,0.00241,0.0,0.0
6.822,423.055,0.00236,0.0,0.0
6.828,418.14,0.00239,0.0,0.0
6.834,416.821,0.0024,0.0,0.0
6.84,412.824,0.00242,0.0,0.0
6.847,416.262,0.0024,0.0,0.0
6.853,418.686,0.00239,0.0,0.0
6.859,415.739,0.00241,0.0,0.0
6.865,417.52,0.0024,0.0,0.0
6.871,429.42,0.00233,0.0,0.0
6.877,422.159,0.00237,0.0,0.0
6.883,421.241,0.00237,0.0,0.0
6.889,423.258,0.00236,0.0,0.0
6.896,418.626,0.00239,0.0,0.0
6.902,418.019,0.00239,0.0,0.0
6.908,419.049,0.00239,0.0,0.0
6.914,414.372,0.00241,0.0,0.0
6.92,423.929,0.00236,0.0,0.0
6.926,420.305,0.00238,0.0,0.0
6.932,420.009,0.00238,0.0,0.0
6.938,416.967,0.0024,0.0,0.0
6.944,420.509,0.00238,0.0,0.0
6.951,418.812,0.00239,0.0,0.0
6.957,416.81,0.0024,0.0,0.0
6.963,417.223,0.0024,0.0,0.0
6.969,416.943,0.0024,0.0,0.0
6.975,411.91,0.00243,0.0,0.0
6.981,415.859,0.0024,0.0,0.0
6.987,418.599,0.00239,0.0,0.0
6.993,419.073,0.00239,0.0,0.0
7.0,416.138,0.0024,0.0,0.0
7.006,414.365,0.00241,0.0,0.0
7.012,410.321,0.00244,0.0,0.0
7.018,417.583,0.00239,0.0,0.0
7.024,406.871,0.00246,0.0,0.0
7.03,413.393,0.00242,0.0,0.0
7.036,410.686,0.00243,0.0,0.0
7.042,415.938,0.0024,0.0,0.0
7.049,415.721,0.00241,0.0,0.0
7.055,412.901,0.00242,0.0,0.0
7.061,413.743,0.00242,0.0,0.0
7.067,413.778,0.00242,0.0,0.0
7.073,415.557,0.00241,0.0,0.0
7.079,416.098,0.0024,0.0,0.0
7.085,420.17,0.00238,0.0,0.0
7.091,419.202,0.00239,0.0,0.0
7.097,415.147,0.00241,0.0,0.0
7.104,413.516,0.00242,0.0,0.0
7.11,425.016,0.00235,0.0,0.0
7.116,421.496,0.00237,0.0,0.0
7.122,427.191,0.00234,0.0,0.0
7.128,436.106,0.00229,0.0,0.0
7.134,441.879,0.00226,0.0,0.0
7.14,457.462,0.00219,0.0,0.0
7.146,488.203,0.00205,0.0,0.0
7.153,533.369,0.00187,0.0,0.0
7.159,638.305,0.00157,0.0,0.0
7.165,832.57,0.0012,0.0,0.0
7.171,1154.65,0.00087,0.0,0.0
7.177,1725.277,0.00058,0.0,0.0
7.183,2357.761,0.00042,0.0,0.0
7.189,3324.101,0.0003,0.0,0.0
7.195,4223.304,0.00024,0.0,0.0
7.202,3929.42,0.00025,0.0,0.0
7.208,3615.657,0.00028,0.0,0.0
7.214,2683.986,0.00037,0.0,0.0
7.22,1797.36,0.00056,0.0,0.0
7.226,1240.971,0.00081,0.0,0.0
7.232,792.414,0.00126,0.0,0.0
7.238,666.376,0.0015,0.0,0.0
7.244,538.785,0.00186,0.0,0.0
7.25,484.859,0.00206,0.0,0.0
7.257,455.695,0.00219,0.0,0.0
7.263,434.593,0.0023,0.0,0.0
7.269,423.439,0.00236,0.0,0.0
7.275,416.811,0.0024,0.0,0.0
7.281,404.858,0.00247,0.0,0.0
7.287,405.677,0.00247,0.0,0.0
7.293,403.756,0.00248,0.0,0.0
7.299,395.581,0.00253,0.0,0.0
7.306,405.909,0.00246,0.0,0.0
7.312,399.127,0.00251,0.0,0.0
7.318,394.849,0.00253,0.0,0.0
7.324,388.065,0.00258,0.0,0.0
7.33,384.428,0.0026,0.0,0.0
7.336,386.878,0.00258,0.0,0.0
7.342,391.169,0.00256,0.0,0.0
7.348,385.066,0.0026,0.0,0.0
7.355,389.722,0.00257,0.0,0.0
7.361,383.713,0.00261,0.0,0.0
7.367,386.534,0.00259,0.0,0.0
7.373,384.795,0.0026,0.0,0.0
7.379,379.147,0.00264,0.0,0.0
7.385,382.373,0.00262,0.0,0.0
7.391,382.614,0.00261,0.0,0.0
7.397,383.236,0.00261,0.0,0.0
7.403,384.559,0.0026,0.0,0.0
7.41,378.448,0.00264,0.0,0.0
7.416,370.698,0.0027,0.0,0.0
7.422,376.992,0.00265,0.0,0.0
7.428,378.624,0.00264,0.0,0.0
7.434,376.362,0.00266,0.0,0.0
7.44,376.657,0.00265,0.0,0.0
7.446,375.155,0.00267,0.0,0.0
7.452,372.97,0.00268,0.0,0.0
7.459,373.245,0.00268,0.0,0.0
7.465,377.369,0.00265,0.0,0.0
7.471,364.17,0.00275,0.0,0.0
7.477,373.199,0.00268,0.0,0.0
7.483,367.553,0.00272,0.0,0.0
7.489,369.058,0.00271,0.0,0.0
7.495,375.044,0.00267,0.0,0.0
7.501,374.799,0.00267,0.0,0.0
7.508,376.841,0.00265,0.0,0.0
7.514,369.296,0.00271,0.0,0.0
7.52,370.387,0.0027,0.0,0.0
7.526,378.574,0.00264,0.0,0.0
7.532,365.805,0.00273,0.0,0.0
7.538,365.493,0.00274,0.0,0.0
7.544,368.138,0.00272,0.0,0.0
7.55,365.69,0.00273,0.0,0.0
7.556,364.032,0.00275,0.0,0.0
7.563,363.323,0.00275,0.0,0.0
7.569,362.161,0.00276,0.0,0.0
7.575,359.893,0.00278,0.0,0.0
7.581,358.198,0.00279,0.0,0.0
7.587,360.695,0.00277,0.0,0.0
7.593,363.533,0.00275,0.0,0.0
7.599,363.368,0.00275,0.0,0.0
7.605,359.639,0.00278,0.0,0.0
7.612,359.342,0.00278,0.0,0.0
7.618,357.468,0.0028,0.0,0.0
7.624,352.921,0.00283,0.0,0.0
7.63,361.518,0.00277,0.0,0.0
7.636,353.399,0.00283,0.0,0.0
7.642,359.613,0.00278,0.0,0.0
7.648,361.849,0.00276,0.0,0.0
7.654,358.133,0.00279,0.0,0.0
7.661,355.466,0.00281,0.0,0.0
7.667,355.363,0.00281,0.0,0.0
7.673,361.927,0.00276,0.0,0.0
7.679,357.986,0.00279,0.0,0.0
7.685,357.537,0.0028,0.0,0.0
7.691,347.729,0.00288,0.0,0.0
7.697,353.292,0.00283,0.0,0.0
7.703,355.41,0.00281,0.0,0.0
7.709,350.259,0.00286,0.0,0.0
7.716,344.686,0.0029,0.0,0.0
7.722,351.617,0.00284,0.0,0.0
7.728,351.521,0.00284,0.0,0.0
7.734,348.326,0.00287,0.0,0.0
7.74,346.326,0.00289,0.0,0.0
7.746,356.073,0.00281,0.0,0.0
7.752,349.279,0.00286,0.0,0.0
7.758,353.545,0.00283,0.0,0.0
7.765,349.68,0.00286,0.0,0.0
7.771,351.898,0.00284,0.0,0.0
7.777,346.722,0.00288,0.0,0.0
7.783,350.505,0.00285,0.0,0.0
7.789,347.864,0.00287,0.0,0.0
7.795,345.767,0.00289,0.0,0.0
7.801,348.327,0.00287,0.0,0.0
7.807,344.986,0.0029,0.0,0.0
7.814,348.506,0.00287,0.0,0.0
7.82,346.846,0.00288,0.0,0.0
7.826,347.06,0.00288,0.0,0.0
7.832,347.037,0.00288,0.0,0.0
7.838,348.14,0.00287,0.0,0.0
7.844,345.378,0.0029,0.0,0.0
7.85,346.632,0.00288,0.0,0.0
7.856,347.003,0.00288,0.0,0.0
7.862,341.806,0.00293,0.0,0.0
7.869,339.574,0.00294,0.0,0.0
7.875,343.335,0.00291,0.0,0.0
7.881,336.781,0.00297,0.0,0.0
7.887,344.911,0.0029,0.0,0.0
7.893,341.494,0.00293,0.0,0.0
7.899,341.024,0.00293,0.0,0.0
7.905,342.36,0.00292,0.0,0.0
7.911,341.785,0.00293,0.0,0.0
7.918,343.414,0.00291,0.0,0.0
7.924,344.989,0.0029,0.0,0.0
7.93,339.142,0.00295,0.0,0.0
7.936,345.365,0.0029,0.0,0.0
7.942,342.723,0.00292,0.0,0.0
7.948,342.134,0.00292,0.0,0.0
7.954,342.793,0.00292,0.0,0.0
7.96,340.688,0.00294,0.0,0.0
7.967,336.335,0.00297,0.0,0.0
7.973,341.43,0.00293,0.0,0.0
7.979,340.86,0.00293,0.0,0.0
7.985,335.993,0.00298,0.0,0.0
7.991,339.389,0.00295,0.0,0.0
7.997,339.599,0.00294,0.0,0.0
8.003,345.412,0.0029,0.0,0.0
8.009,342.29,0.00292,0.0,0.0
8.015,341.993,0.00292,0.0,0.0
8.022,333.675,0.003,0.0,0.0
8.028,337.806,0.00296,0.0,0.0
8.034,337.122,0.00297,0.0,0.0
8.04,334.633,0.00299,0.0,0.0
8.046,331.609,0.00302,0.0,0.0
8.052,334.982,0.00299,0.0,0.0
8.058,337.734,0.00296,0.0,0.0
8.064,333.069,0.003,0.0,0.0
8.071,334.555,0.00299,0.0,0.0
8.077,338.163,0.00296,0.0,0.0
8.083,333.956,0.00299,0.0,0.0
8.089,336.254,0.00297,0.0,0.0
8.095,337.432,0.00296,0.0,0.0
8.101,336.134,0.00298,0.0,0.0
8.107,334.776,0.00299,0.0,0.0
8.113,333.003,0.003,0.0,0.0
8.12,330.634,0.00302,0.0,0.0
8.126,331.491,0.00302,0.0,0.0
8.132,332.363,0.00301,0.0,0.0
8.138,337.183,0.00297,0.0,0.0
8.144,332.692,0.00301,0.0,0.0
8.15,333.298,0.003,0.0,0.0
8.156,339.908,0.00294,0.0,0.0
8.162,337.056,0.00297,0.0,0.0
8.168,337.496,0.00296,0.0,0.0
8.175,335.826,0.00298,0.0,0.0
8.181,330.97,0.00302,0.0,0.0
8.187,334.076,0.00299,0.0,0.0
8.193,331.654,0.00302,0.0,0.0
8.199,335.008,0.00299,0.0,0.0
8.205,337.319,0.00296,0.0,0.0
8.211,333.331,0.003,0.0,0.0
8.217,329.404,0.00304,0.0,0.0
8.224,330.436,0.00303,0.0,0.0
8.23,332.111,0.00301,0.0,0.0
8.236,330.925,0.00302,0.0,0.0
8.242,331.2,0.00302,0.0,0.0
8.248,328.907,0.00304,0.0,0.0
8.254,330.266,0.00303,0.0,0.0
8.26,329.031,0.00304,0.0,0.0
8.266,331.982,0.00301,0.0,0.0
8.273,335.714,0.00298,0.0,0.0
8.279,330.154,0.00303,0.0,0.0
8.285,330.43,0.00303,0.0,0.0
8.291,330.668,0.00302,0.0,0.0
8.297,333.858,0.003,0.0,0.0
8.303,332.274,0.00301,0.0,0.0
8.309,328.095,0.00305,0.0,0.0
8.315,328.887,0.00304,0.0,0.0
8.321,325.582,0.00307,0.0,0.0
8.328,330.289,0.00303,0.0,0.0
8.334,335.694,0.00298,0.0,0.0
8.34,333.002,0.003,0.0,0.0
8.346,334.3,0.00299,0.0,0.0
8.352,334.339,0.00299,0.0,0.0
8.358,337.783,0.00296,0.0,0.0
8.364,337.727,0.00296,0.0,0.0
8.37,342.532,0.00292,0.0,0.0
8.377,350.156,0.00286,0.0,0.0
8.383,359.79,0.00278,0.0,0.0
8.389,369.989,0.0027,0.0,0.0
8.395,388.69,0.00257,0.0,0.0
8.401,434.091,0.0023,0.0,0.0
8.407,501.348,0.00199,0.0,0.0
8.413,636.884,0.00157,0.0,0.0
8.419,929.815,0.00108,0.0,0.0
8.426,1249.476,0.0008,0.0,0.0
8.432,1704.286,0.00059,0.0,0.0
8.438,2408.117,0.00042,0.0,0.0
8.444,2315.495,0.00043,0.0,0.0
8.45,2588.004,0.00039,0.0,0.0
8.456,2060.886,0.00049,0.0,0.0
8.462,1454.14,0.00069,0.0,0.0
8.468,1090.907,0.00092,0.0,0.0
8.474,721.385,0.00139,0.0,0.0
8.481,545.889,0.00183,0.0,0.0
8.487,450.508,0.00222,0.0,0.0
8.493,398.59,0.00251,0.0,0.0
8.499,371.772,0.00269,0.0,0.0
8.505,357.902,0.00279,0.0,0.0
8.511,339.975,0.00294,0.0,0.0
8.517,341.443,0.00293,0.0,0.0
8.523,331.443,0.00302,0.0,0.0
8.53,333.792,0.003,0.0,0.0
8.536,333.212,0.003,0.0,0.0
8.542,321.684,0.00311,0.0,0.0
8.548,320.022,0.00312,0.0,0.0
8.554,323.943,0.00309,0.0,0.0
8.56,323.593,0.00309,0.0,0.0
8.566,322.624,0.0031,0.0,0.0
8.572,316.923,0.00316,0.0,0.0
8.579,317.359,0.00315,0.0,0.0
8.585,317.277,0.00315,0.0,0.0
8.591,318.031,0.00314,0.0,0.0
8.597,323.539,0.00309,0.0,0.0
8.603,319.88,0.00313,0.0,0.0
8.609,314.338,0.00318,0.0,0.0
8.615,320.588,0.00312,0.0,0.0
8.621,315.342,0.00317,0.0,0.0
8.627,316.292,0.00316,0.0,0.0
8.634,320.254,0.00312,0.0,0.0
8.64,313.924,0.00319,0.0,0.0
8.646,317.16,0.00315,0.0,0.0
8.652,316.151,0.00316,0.0,0.0
8.658,325.395,0.00307,0.0,0.0
8.664,319.437,0.00313,0.0,0.0
8.67,311.06,0.00321,0.0,0.0
8.676,308.92,0.00324,0.0,0.0
8.683,317.237,0.00315,0.0,0.0
8.689,313.976,0.00318,0.0,0.0
8.695,314.684,0.00318,0.0,0.0
8.701,310.582,0.00322,0.0,0.0
8.707,314.984,0.00317,0.0,0.0
8.713,315.942,0.00317,0.0,0.0
8.719,311.74,0.00321,0.0,0.0
8.725,312.888,0.0032,0.0,0.0
8.732,309.865,0.00323,0.0,0.0
8.738,317.699,0.00315,0.0,0.0
8.744,310.035,0.00323,0.0,0.0
8.75,309.383,0.00323,0.0,0.0
8.756,315.984,0.00316,0.0,0.0
8.762,311.038,0.00322,0.0,0.0
8.768,312.226,0.0032,0.0,0.0
8.774,313.207,0.00319,0.0,0.0
8.78,313.045,0.00319,0.0,0.0
8.787,316.435,0.00316,0.0,0.0
8.793,304.979,0.00328,0.0,0.0
8.799,307.505,0.00325,0.0,0.0
8.805,311.396,0.00321,0.0,0.0
8.811,304.939,0.00328,0.0,0.0
8.817,315.299,0.00317,0.0,0.0
8.823,312.278,0.0032,0.0,0.0
8.829,308.777,0.00324,0.0,0.0
8.836,310.302,0.00322,0.0,0.0
8.842,309.082,0.00324,0.0,0.0
8.848,307.3,0.00325,0.0,0.0
8.854,306.616,0.00326,0.0,0.0
8.86,307.033,0.00326,0.0,0.0
8.866,308.176,0.00324,0.0,0.0
8.872,309.499,0.00323,0.0,0.0
8.878,302.359,0.00331,0.0,0.0
8.885,309.666,0.00323,0.0,0.0
8.891,304.147,0.00329,0.0,0.0
8.897,308.418,0.00324,0.0,0.0
8.903,308.919,0.00324,0.0,0.0
8.909,302.589,0.0033,0.0,0.0
8.915,304.913,0.00328,0.0,0.0
8.921,311.687,0.00321,0.0,0.0
8.927,301.043,0.00332,0.0,0.0
8.933,310.272,0.00322,0.0,0.0
8.94,318.381,0.00314,0.0,0.0
8.946,306.175,0.00327,0.0,0.0
8.952,312.045,0.0032,0.0,0.0
8.958,307.461,0.00325,0.0,0.0
8.964,308.782,0.00324,0.0,0.0
8.97,315.577,0.00317,0.0,0.0
8.976,306.26,0.00327,0.0,0.0
8.982,305.556,0.00327,0.0,0.0
8.989,307.132,0.00326,0.0,0.0
8.995,302.178,0.00331,0.0,0.0
9.001,305.686,0.00327,0.0,0.0
9.007,302.738,0.0033,0.0,0.0
9.013,308.004,0.00325,0.0,0.0
9.019,306.337,0.00326,0.0,0.0
9.025,306.651,0.00326,0.0,0.0
9.031,305.834,0.00327,0.0,0.0
9.038,308.244,0.00324,0.0,0.0
9.044,305.975,0.00327,0.0,0.0
9.05,306.951,0.00326,0.0,0.0
9.056,304.002,0.00329,0.0,0.0
9.062,304.636,0.00328,0.0,0.0
9.068,296.912,0.00337,0.0,0.0
9.074,304.669,0.00328,0.0,0.0
9.08,303.046,0.0033,0.0,0.0
9.086,309.519,0.00323,0.0,0.0
9.093,300.429,0.00333,0.0,0.0
9.099,302.375,0.00331,0.0,0.0
9.105,303.173,0.0033,0.0,0.0
9.111,306.023,0.00327,0.0,0.0
9.117,301.102,0.00332,0.0,0.0
9.123,305.535,0.00327,0.0,0.0
9.129,305.915,0.00327,0.0,0.0
9.135,300.661,0.00333,0.0,0.0
9.142,308.832,0.00324,0.0,0.0
9.148,304.476,0.00328,0.0,0.0
9.154,309.083,0.00324,0.0,0.0
9.16,302.818,0.0033,0.0,0.0
9.166,301.333,0.00332,0.0,0.0
9.172,302.382,0.00331,0.0,0.0
9.178,301.126,0.00332,0.0,0.0
9.184,301.872,0.00331,0.0,0.0
9.191,301.335,0.00332,0.0,0.0
9.197,300.499,0.00333,0.0,0.0
9.203,303.284,0.0033,0.0,0.0
9.209,301.169,0.00332,0.0,0.0
9.215,306.337,0.00326,0.0,0.0
9.221,304.801,0.00328,0.0,0.0
9.227,296.618,0.00337,0.0,0.0
9.233,299.31,0.00334,0.0,0.0
9.239,301.016,0.00332,0.0,0.0
9.246,301.282,0.00332,0.0,0.0
9.252,302.076,0.00331,0.0,0.0
9.258,299.274,0.00334,0.0,0.0
9.264,305.979,0.00327,0.0,0.0
9.27,299.979,0.00333,0.0,0.0
9.276,306.351,0.00326,0.0,0.0
9.282,300.015,0.00333,0.0,0.0
9.288,296.148,0.00338,0.0,0.0
9.295,304.978,0.00328,0.0,0.0
9.301,295.766,0.00338,0.0,0.0
9.307,299.885,0.00333,0.0,0.0
9.313,299.698,0.00334,0.0,0.0
9.319,301.774,0.00331,0.0,0.0
9.325,300.087,0.00333,0.0,0.0
9.331,304.359,0.00329,0.0,0.0
9.337,294.604,0.00339,0.0,0.0
9.344,300.953,0.00332,0.0,0.0
9.35,304.858,0.00328,0.0,0.0
9.356,302.105,0.00331,0.0,0.0
9.362,304.752,0.00328,0.0,0.0
9.368,310.547,0.00322,0.0,0.0
9.374,296.406,0.00337,0.0,0.0
9.38,296.803,0.00337,0.0,0.0
9.386,301.159,0.00332,0.0,0.0
9.392,297.782,0.00336,0.0,0.0
9.399,300.853,0.00332,0.0,0.0
9.405,303.574,0.00329,0.0,0.0
9.411,297.624,0.00336,0.0,0.0
9.417,301.034,0.00332,0.0,0.0
9.423,305.282,0.00328,0.0,0.0
9.429,299.114,0.00334,0.0,0.0
9.435,295.202,0.00339,0.0,0.0
9.441,303.821,0.00329,0.0,0.0
9.448,301.796,0.00331,0.0,0.0
9.454,298.578,0.00335,0.0,0.0
9.46,300.104,0.00333,0.0,0.0
9.466,298.29,0.00335,0.0,0.0
9.472,293.369,0.00341,0.0,0.0
9.478,301.922,0.00331,0.0,0.0
9.484,304.411,0.00329,0.0,0.0
9.49,294.47,0.0034,0.0,0.0
9.497,299.77,0.00334,0.0,0.0
9.503,298.69,0.00335,0.0,0.0
9.509,296.308,0.00337,0.0,0.0
9.515,300.374,0.00333,0.0,0.0
9.521,301.584,0.00332,0.0,0.0
9.527,296.195,0.00338,0.0,0.0
9.533,300.201,0.00333,0.0,0.0
9.539,293.842,0.0034,0.0,0.0
9.545,294.362,0.0034,0.0,0.0
9.552,295.422,0.00338,0.0,0.0
9.558,297.857,0.00336,0.0,0.0
9.564,290.422,0.00344,0.0,0.0
9.57,296.528,0.00337,0.0,0.0
9.576,297.421,0.00336,0.0,0.0
9.582,299.121,0.00334,0.0,0.0
9.588,298.083,0.00335,0.0,0.0
9.594,293.998,0.0034,0.0,0.0
9.601,295.828,0.00338,0.0,0.0
9.607,297.631,0.00336,0.0,0.0
9.613,297.195,0.00336,0.0,0.0
9.619,296.788,0.00337,0.0,0.0
9.625,291.241,0.00343,0.0,0.0
9.631,293.287,0.00341,0.0,0.0
9.637,297.62,0.00336,0.0,0.0
9.643,295.068,0.00339,0.0,0.0
9.65,295.344,0.00339,0.0,0.0
9.656,293.082,0.00341,0.0,0.0
9.662,292.94,0.00341,0.0,0.0
9.668,290.262,0.00345,0.0,0.0
9.674,291.001,0.00344,0.0,0.0
9.68,290.651,0.00344,0.0,0.0
9.686,292.892,0.00341,0.0,0.0
9.692,293.69,0.0034,0.0,0.0
9.698,291.836,0.00343,0.0,0.0
9.705,292.958,0.00341,0.0,0.0
9.711,296.306,0.00337,0.0,0.0
9.717,295.068,0.00339,0.0,0.0
9.723,296.792,0.00337,0.0,0.0
9.729,288.375,0.00347,0.0,0.0
9.735,298.156,0.00335,0.0,0.0
9.741,294.649,0.00339,0.0,0.0
9.747,298.944,0.00335,0.0,0.0
9.754,292.316,0.00342,0.0,0.0
9.76,302.884,0.0033,0.0,0.0
9.766,293.173,0.00341,0.0,0.0
9.772,294.476,0.0034,0.0,0.0
9.778,298.848,0.00335,0.0,0.0
9.784,297.346,0.00336,0.0,0.0
9.79,294.218,0.0034,0.0,0.0
9.796,297.064,0.00337,0.0,0.0
9.803,299.683,0.00334,0.0,0.0
9.809,292.684,0.00342,0.0,0.0
9.815,289.815,0.00345,0.0,0.0
9.821,292.435,0.00342,0.0,0.0
9.827,301.095,0.00332,0.0,0.0
9.833,294.231,0.0034,0.0,0.0
9.839,289.309,0.00346,0.0,0.0
9.845,296.01,0.00338,0.0,0.0
9.851,296.479,0.00337,0.0,0.0
9.858,289.777,0.00345,0.0,0.0
9.864,294.281,0.0034,0.0,0.0
9.87,294.421,0.0034,0.0,0.0
9.876,295.735,0.00338,0.0,0.0
9.882,291.212,0.00343,0.0,0.0
9.888,297.166,0.00337,0.0,0.0
9.894,290.6,0.00344,0.0,0.0
9.9,293.35,0.00341,0.0,0.0
9.907,296.722,0.00337,0.0,0.0
9.913,293.908,0.0034,0.0,0.0
9.919,293.753,0.0034,0.0,0.0
9.925,296.498,0.00337,0.0,0.0
9.931,293.312,0.00341,0.0,0.0
9.937,287.747,0.00348,0.0,0.0
9.943,296.305,0.00337,0.0,0.0
9.949,294.121,0.0034,0.0,0.0
9.956,291.609,0.00343,0.0,0.0
9.962,291.167,0.00343,0.0,0.0
9.968,291.092,0.00344,0.0,0.0
9.974,292.779,0.00342,0.0,0.0
9.98,295.839,0.00338,0.0,0.0
9.986,289.94,0.00345,0.0,0.0
9.992,296.27,0.00338,0.0,0.0
9.998,296.535,0.00337,0.0,0.0
10.004,295.564,0.00338,0.0,0.0
10.011,292.205,0.00342,0.0,0.0
10.017,294.395,0.0034,0.0,0.0
10.023,292.58,0.00342,0.0,0.0
10.029,294.086,0.0034,0.0,0.0
10.035,292.827,0.00341,0.0,0.0
10.041,292.13,0.00342,0.0,0.0
10.047,295.501,0.00338,0.0,0.0
10.053,291.45,0.00343,0.0,0.0
10.06,292.894,0.00341,0.0,0.0
10.066,296.006,0.00338,0.0,0.0
10.072,290.58,0.00344,0.0,0.0
10.078,291.965,0.00343,0.0,0.0
10.084,293.14,0.00341,0.0,0.0
10.09,288.484,0.00347,0.0,0.0
10.096,294.901,0.00339,0.0,0.0
10.102,290.523,0.00344,0.0,0.0
10.109,298.182,0.00335,0.0,0.0
10.115,299.072,0.00334,0.0,0.0
10.121,295.095,0.00339,0.0,0.0
10.127,296.795,0.00337,0.0,0.0
10.133,300.874,0.00332,0.0,0.0
10.139,309.301,0.00323,0.0,0.0
10.145,327.135,0.00306,0.0,0.0
10.151,347.111,0.00288,0.0,0.0
10.157,407.673,0.00245,0.0,0.0
10.164,440.957,0.00227,0.0,0.0
10.17,634.81,0.00158,0.0,0.0
10.176,648.077,0.00154,0.0,0.0
10.182,862.452,0.00116,0.0,0.0
10.188,876.393,0.00114,0.0,0.0
10.194,1022.809,0.00098,0.0,0.0
10.2,804.257,0.00124,0.0,0.0
10.206,713.603,0.0014,0.0,0.0
10.213,508.41,0.00197,0.0,0.0
10.219,458.44,0.00218,0.0,0.0
10.225,357.739,0.0028,0.0,0.0
10.231,341.818,0.00293,0.0,0.0
10.237,319.305,0.00313,0.0,0.0
10.243,308.935,0.00324,0.0,0.0
10.249,304.22,0.00329,0.0,0.0
10.255,317.613,0.00315,0.0,0.0
10.262,318.715,0.00314,0.0,0.0
10.268,316.354,0.00316,0.0,0.0
10.274,307.137,0.00326,0.0,0.0
10.28,312.076,0.0032,0.0,0.0
10.286,315.139,0.00317,0.0,0.0
10.292,295.188,0.00339,0.0,0.0
10.298,294.808,0.00339,0.0,0.0
10.304,288.317,0.00347,0.0,0.0
10.31,290.22,0.00345,0.0,0.0
10.317,294.336,0.0034,0.0,0.0
10.323,291.314,0.00343,0.0,0.0
10.329,292.056,0.00342,0.0,0.0
10.335,290.215,0.00345,0.0,0.0
10.341,289.177,0.00346,0.0,0.0
10.347,288.704,0.00346,0.0,0.0
10.353,288.906,0.00346,0.0,0.0
10.359,291.821,0.00343,0.0,0.0
10.366,290.307,0.00344,0.0,0.0
10.372,291.899,0.00343,0.0,0.0
10.378,298.601,0.00335,0.0,0.0
10.384,286.474,0.00349,0.0,0.0
10.39,286.128,0.00349,0.0,0.0
10.396,283.837,0.00352,0.0,0.0
10.402,290.698,0.00344,0.0,0.0
10.408,289.975,0.00345,0.0,0.0
10.415,289.773,0.00345,0.0,0.0
10.421,288.362,0.00347,0.0,0.0
10.427,288.272,0.00347,0.0,0.0
10.433,283.113,0.00353,0.0,0.0
10.439,284.355,0.00352,0.0,0.0
10.445,282.52,0.00354,0.0,0.0
10.451,284.986,0.00351,0.0,0.0
10.457,285.06,0.00351,0.0,0.0
10.463,286.577,0.00349,0.0,0.0
10.47,289.015,0.00346,0.0,0.0
10.476,283.621,0.00353,0.0,0.0
10.482,290.187,0.00345,0.0,0.0
10.488,282.515,0.00354,0.0,0.0
10.494,284.094,0.00352,0.0,0.0
10.5,290.242,0.00345,0.0,0.0
10.506,285.789,0.0035,0.0,0.0
10.512,282.23,0.00354,0.0,0.0
10.519,287.414,0.00348,0.0,0.0
10.525,287.696,0.00348,0.0,0.0
10.531,285.271,0.00351,0.0,0.0
10.537,290.726,0.00344,0.0,0.0
10.543,288.837,0.00346,0.0,0.0
10.549,288.559,0.00347,0.0,0.0
10.555,288.234,0.00347,0.0,0.0
10.561,284.376,0.00352,0.0,0.0
10.568,284.124,0.00352,0.0,0.0
10.574,283.594,0.00353,0.0,0.0
10.58,280.79,0.00356,0.0,0.0
10.586,285.909,0.0035,0.0,0.0
10.592,285.762,0.0035,0.0,0.0
10.598,284.639,0.00351,0.0,0.0
10.604,284.702,0.00351,0.0,0.0
10.61,280.535,0.00356,0.0,0.0
10.616,290.809,0.00344,0.0,0.0
10.623,284.784,0.00351,0.0,0.0
10.629,280.311,0.00357,0.0,0.0
10.635,285.558,0.0035,0.0,0.0
10.641,286.72,0.00349,0.0,0.0
10.647,283.402,0.00353,0.0,0.0
10.653,284.071,0.00352,0.0,0.0
10.659,278.216,0.00359,0.0,0.0
10.665,282.628,0.00354,0.0,0.0
10.672,285.247,0.00351,0.0,0.0
10.678,289.312,0.00346,0.0,0.0
10.684,286.27,0.00349,0.0,0.0
10.69,284.374,0.00352,0.0,0.0
10.696,286.706,0.00349,0.0,0.0
10.702,282.595,0.00354,0.0,0.0
10.708,284.13,0.00352,0.0,0.0
10.714,283.861,0.00352,0.0,0.0
10.721,295.647,0.00338,0.0,0.0
10.727,284.292,0.00352,0.0,0.0
10.733,284.897,0.00351,0.0,0.0
10.739,285.043,0.00351,0.0,0.0
10.745,284.106,0.00352,0.0,0.0
10.751,281.233,0.00356,0.0,0.0
10.757,287.984,0.00347,0.0,0.0
10.763,289.106,0.00346,0.0,0.0
10.769,285.011,0.00351,0.0,0.0
10.776,281.682,0.00355,0.0,0.0
10.782,282.63,0.00354,0.0,0.0
10.788,286.936,0.00349,0.0,0.0
10.794,287.14,0.00348,0.0,0.0
10.8,283.471,0.00353,0.0,0.0
10.806,287.159,0.00348,0.0,0.0
10.812,285.249,0.00351,0.0,0.0
10.818,288.324,0.00347,0.0,0.0
10.825,288.988,0.00346,0.0,0.0
10.831,283.176,0.00353,0.0,0.0
10.837,285.747,0.0035,0.0,0.0
10.843,284.959,0.00351,0.0,0.0
10.849,291.27,0.00343,0.0,0.0
10.855,283.087,0.00353,0.0,0.0
10.861,285.484,0.0035,0.0,0.0
10.867,284.539,0.00351,0.0,0.0
10.874,283.894,0.00352,0.0,0.0
10.88,285.698,0.0035,0.0,0.0
10.886,280.568,0.00356,0.0,0.0
10.892,285.269,0.00351,0.0,0.0
10.898,286.876,0.00349,0.0,0.0
10.904,286.951,0.00348,0.0,0.0
10.91,280.944,0.00356,0.0,0.0
10.916,287.242,0.00348,0.0,0.0
10.922,287.596,0.00348,0.0,0.0
10.929,286.809,0.00349,0.0,0.0
10.935,281.501,0.00355,0.0,0.0
10.941,281.81,0.00355,0.0,0.0
10.947,282.441,0.00354,0.0,0.0
10.953,282.204,0.00354,0.0,0.0
10.959,286.242,0.00349,0.0,0.0
10.965,280.464,0.00357,0.0,0.0
10.971,283.049,0.00353,0.0,0.0
10.978,283.167,0.00353,0.0,0.0
10.984,284.068,0.00352,0.0,0.0
10.99,281.586,0.00355,0.0,0.0
10.996,282.158,0.00354,0.0,0.0
11.002,284.748,0.00351,0.0,0.0
11.008,288.761,0.00346,0.0,0.0
11.014,285.445,0.0035,0.0,0.0
11.02,285.583,0.0035,0.0,0.0
11.027,287.131,0.00348,0.0,0.0
11.033,292.154,0.00342,0.0,0.0
11.039,298.121,0.00335,0.0,0.0
11.045,297.22,0.00336,0.0,0.0
11.051,303.772,0.00329,0.0,0.0
11.057,307.228,0.00325,0.0,0.0
11.063,328.289,0.00305,0.0,0.0
11.069,362.432,0.00276,0.0,0.0
11.075,425.43,0.00235,0.0,0.0
11.082,525.351,0.0019,0.0,0.0
11.088,662.567,0.00151,0.0,0.0
11.094,900.195,0.00111,0.0,0.0
11.1,1151.733,0.00087,0.0,0.0
11.106,1217.371,0.00082,0.0,0.0
11.112,1229.498,0.00081,0.0,0.0
11.118,1028.908,0.00097,0.0,0.0
11.124,879.896,0.00114,0.0,0.0
11.131,654.346,0.00153,0.0,0.0
11.137,490.793,0.00204,0.0,0.0
11.143,394.836,0.00253,0.0,0.0
11.149,346.051,0.00289,0.0,0.0
11.155,320.482,0.00312,0.0,0.0
11.161,309.502,0.00323,0.0,0.0
11.167,295.163,0.00339,0.0,0.0
11.173,299.837,0.00334,0.0,0.0
11.18,288.751,0.00346,0.0,0.0
11.186,291.04,0.00344,0.0,0.0
11.192,291.425,0.00343,0.0,0.0
11.198,287.659,0.00348,0.0,0.0
11.204,289.402,0.00346,0.0,0.0
11.21,284.032,0.00352,0.0,0.0
11.216,283.725,0.00352,0.0,0.0
11.222,283.728,0.00352,0.0,0.0
11.228,293.876,0.0034,0.0,0.0
11.235,282.673,0.00354,0.0,0.0
11.241,283.389,0.00353,0.0,0.0
11.247,281.857,0.00355,0.0,0.0
11.253,283.896,0.00352,0.0,0.0
11.259,284.969,0.00351,0.0,0.0
11.265,282.9,0.00353,0.0,0.0
11.271,284.841,0.00351,0.0,0.0
11.277,283.024,0.00353,0.0,0.0
11.284,276.049,0.00362,0.0,0.0
11.29,283.602,0.00353,0.0,0.0
11.296,284.847,0.00351,0.0,0.0
11.302,285.021,0.00351,0.0,0.0
11.308,285.293,0.00351,0.0,0.0
11.314,280.933,0.00356,0.0,0.0
11.32,283.544,0.00353,0.0,0.0
11.326,280.118,0.00357,0.0,0.0
11.333,278.011,0.0036,0.0,0.0
11.339,278.965,0.00358,0.0,0.0
11.345,277.446,0.0036,0.0,0.0
11.351,275.916,0.00362,0.0,0.0
11.357,279.899,0.00357,0.0,0.0
11.363,274.851,0.00364,0.0,0.0
11.369,276.679,0.00361,0.0,0.0
11.375,281.184,0.00356,0.0,0.0
11.381,276.567,0.00362,0.0,0.0
11.388,278.446,0.00359,0.0,0.0
11.394,276.909,0.00361,0.0,0.0
11.4,280.265,0.00357,0.0,0.0
11.406,279.456,0.00358,0.0,0.0
11.412,277.346,0.00361,0.0,0.0
11.418,279.301,0.00358,0.0,0.0
11.424,282.653,0.00354,0.0,0.0
11.43,280.323,0.00357,0.0,0.0
11.437,279.825,0.00357,0.0,0.0
11.443,283.825,0.00352,0.0,0.0
11.449,282.229,0.00354,0.0,0.0
11.455,274.801,0.00364,0.0,0.0
11.461,277.409,0.0036,0.0,0.0
11.467,279.916,0.00357,0.0,0.0
11.473,280.101,0.00357,0.0,0.0
11.479,275.436,0.00363,0.0,0.0
11.486,277.038,0.00361,0.0,0.0
11.492,274.451,0.00364,0.0,0.0
11.498,280.15,0.00357,0.0,0.0
11.504,277.251,0.00361,0.0,0.0
11.51,284.416,0.00352,0.0,0.0
11.516,273.984,0.00365,0.0,0.0
11.522,278.137,0.0036,0.0,0.0
11.528,277.681,0.0036,0.0,0.0
11.534,275.386,0.00363,0.0,0.0
11.541,277.158,0.00361,0.0,0.0
11.547,276.735,0.00361,0.0,0.0
11.553,274.791,0.00364,0.0,0.0
11.559,277.125,0.00361,0.0,0.0
11.565,276.468,0.00362,0.0,0.0
11.571,278.604,0.00359,0.0,0.0
11.577,272.302,0.00367,0.0,0.0
11.583,278.502,0.00359,0.0,0.0
11.59,275.678,0.00363,0.0,0.0
11.596,272.044,0.00368,0.0,0.0
11.602,275.582,0.00363,0.0,0.0
11.608,273.149,0.00366,0.0,0.0
11.614,276.214,0.00362,0.0,0.0
11.62,271.475,0.00368,0.0,0.0
11.626,270.122,0.0037,0.0,0.0
11.632,272.265,0.00367,0.0,0.0
11.639,274.579,0.00364,0.0,0.0
11.645,270.387,0.0037,0.0,0.0
11.651,270.81,0.00369,0.0,0.0
11.657,274.254,0.00365,0.0,0.0
11.663,274.345,0.00365,0.0,0.0
11.669,278.888,0.00359,0.0,0.0
11.675,275.206,0.00363,0.0,0.0
11.681,274.984,0.00364,0.0,0.0
11.687,274.038,0.00365,0.0,0.0
11.694,268.334,0.00373,0.0,0.0
11.7,279.731,0.00357,0.0,0.0
11.706,272.342,0.00367,0.0,0.0
11.712,272.973,0.00366,0.0,0.0
11.718,273.643,0.00365,0.0,0.0
11.724,276.643,0.00361,0.0,0.0
11.73,271.68,0.00368,0.0,0.0
11.736,274.678,0.00364,0.0,0.0
11.743,270.758,0.00369,0.0,0.0
11.749,271.837,0.00368,0.0,0.0
11.755,274.184,0.00365,0.0,0.0
11.761,270.919,0.00369,0.0,0.0
11.767,267.538,0.00374,0.0,0.0
11.773,269.708,0.00371,0.0,0.0
11.779,271.931,0.00368,0.0,0.0
11.785,268.833,0.00372,0.0,0.0
11.792,270.101,0.0037,0.0,0.0
11.798,269.173,0.00372,0.0,0.0
11.804,267.428,0.00374,0.0,0.0
11.81,270.496,0.0037,0.0,0.0
11.816,271.625,0.00368,0.0,0.0
11.822,270.702,0.00369,0.0,0.0
11.828,265.942,0.00376,0.0,0.0
11.834,271.176,0.00369,0.0,0.0
11.84,273.034,0.00366,0.0,0.0
11.847,271.605,0.00368,0.0,0.0
11.853,274.45,0.00364,0.0,0.0
11.859,275.961,0.00362,0.0,0.0
11.865,277.531,0.0036,0.0,0.0
11.871,277.484,0.0036,0.0,0.0
11.877,275.992,0.00362,0.0,0.0
11.883,274.412,0.00364,0.0,0.0
11.889,275.016,0.00364,0.0,0.0
11.896,269.264,0.00371,0.0,0.0
11.902,266.922,0.00375,0.0,0.0
11.908,268.731,0.00372,0.0,0.0
11.914,263.386,0.0038,0.0,0.0
11.92,264.628,0.00378,0.0,0.0
11.926,267.746,0.00373,0.0,0.0
11.932,271.182,0.00369,0.0,0.0
11.938,265.488,0.00377,0.0,0.0
11.945,259.706,0.00385,0.0,0.0
11.951,263.379,0.0038,0.0,0.0
11.957,264.841,0.00378,0.0,0.0
11.963,263.253,0.0038,0.0,0.0
11.969,263.777,0.00379,0.0,0.0
11.975,266.102,0.00376,0.0,0.0
11.981,263.24,0.0038,0.0,0.0
11.987,266.157,0.00376,0.0,0.0
11.993,264.477,0.00378,0.0,0.0
12.0,266.432,0.00375,0.0,0.0
12.006,267.367,0.00374,0.0,0.0
12.012,263.088,0.0038,0.0,0.0
12.018,262.417,0.00381,0.0,0.0
12.024,260.8,0.00383,0.0,0.0
12.03,262.364,0.00381,0.0,0.0
12.036,264.433,0.00378,0.0,0.0
12.042,261.207,0.00383,0.0,0.0
12.049,259.424,0.00385,0.0,0.0
12.055,262.033,0.00382,0.0,0.0
12.061,265.407,0.00377,0.0,0.0
12.067,262.928,0.0038,0.0,0.0
12.073,261.245,0.00383,0.0,0.0
12.079,261.993,0.00382,0.0,0.0
12.085,261.355,0.00383,0.0,0.0
12.091,259.71,0.00385,0.0,0.0
12.098,263.806,0.00379,0.0,0.0
12.104,260.778,0.00383,0.0,0.0
12.11,264.271,0.00378,0.0,0.0
12.116,264.992,0.00377,0.0,0.0
12.122,256.85,0.00389,0.0,0.0
12.128,260.559,0.00384,0.0,0.0
12.134,257.58,0.00388,0.0,0.0
12.14,261.026,0.00383,0.0,0.0
12.146,262.306,0.00381,0.0,0.0
12.153,258.909,0.00386,0.0,0.0
12.159,258.803,0.00386,0.0,0.0
12.165,260.002,0.00385,0.0,0.0
12.171,261.675,0.00382,0.0,0.0
12.177,260.551,0.00384,0.0,0.0
12.183,259.148,0.00386,0.0,0.0
12.189,262.844,0.0038,0.0,0.0
12.195,263.205,0.0038,0.0,0.0
12.202,257.451,0.00388,0.0,0.0
12.208,261.626,0.00382,0.0,0.0
12.214,262.747,0.00381,0.0,0.0
12.22,259.93,0.00385,0.0,0.0
12.226,261.376,0.00383,0.0,0.0
12.232,258.318,0.00387,0.0,0.0
12.238,259.598,0.00385,0.0,0.0
12.244,257.502,0.00388,0.0,0.0
12.251,258.285,0.00387,0.0,0.0
12.257,262.578,0.00381,0.0,0.0
12.263,263.037,0.0038,0.0,0.0
12.269,262.106,0.00382,0.0,0.0
12.275,262.539,0.00381,0.0,0.0
12.281,262.169,0.00381,0.0,0.0
12.287,257.506,0.00388,0.0,0.0
12.293,255.684,0.00391,0.0,0.0
12.299,254.29,0.00393,0.0,0.0
12.306,257.444,0.00388,0.0,0.0
12.312,259.888,0.00385,0.0,0.0
12.318,258.132,0.00387,0.0,0.0
12.324,257.549,0.00388,0.0,0.0
12.33,258.534,0.00387,0.0,0.0
12.336,259.106,0.00386,0.0,0.0
12.342,257.86,0.00388,0.0,0.0
12.348,261.76,0.00382,0.0,0.0
12.355,261.224,0.00383,0.0,0.0
12.361,258.005,0.00388,0.0,0.0
12.367,261.317,0.00383,0.0,0.0
12.373,262.26,0.00381,0.0,0.0
12.379,262.967,0.0038,0.0,0.0
12.385,260.143,0.00384,0.0,0.0
12.391,259.549,0.00385,0.0,0.0
12.397,263.165,0.0038,0.0,0.0
12.404,262.377,0.00381,0.0,0.0
12.41,264.101,0.00379,0.0,0.0
12.416,273.559,0.00366,0.0,0.0
12.422,269.135,0.00372,0.0,0.0
12.428,276.423,0.00362,0.0,0.0
12.434,285.006,0.00351,0.0,0.0
12.44,305.676,0.00327,0.0,0.0
12.446,338.258,0.00296,0.0,0.0
12.452,369.165,0.00271,0.0,0.0
12.459,504.031,0.00198,0.0,0.0
12.465,627.49,0.00159,0.0,0.0
12.471,853.339,0.00117,0.0,0.0
12.477,1151.932,0.00087,0.0,0.0
12.483,1381.413,0.00072,0.0,0.0
12.489,1419.961,0.0007,0.0,0.0
12.495,1506.178,0.00066,0.0,0.0
12.501,1153.148,0.00087,0.0,0.0
12.508,808.057,0.00124,0.0,0.0
12.514,599.185,0.00167,0.0,0.0
12.52,456.587,0.00219,0.0,0.0
12.526,367.827,0.00272,0.0,0.0
12.532,316.536,0.00316,0.0,0.0
12.538,295.368,0.00339,0.0,0.0
12.544,276.206,0.00362,0.0,0.0
12.55,275.943,0.00362,0.0,0.0
12.557,270.952,0.00369,0.0,0.0
12.563,266.347,0.00375,0.0,0.0
12.569,261.981,0.00382,0.0,0.0
12.575,265.255,0.00377,0.0,0.0
12.581,259.357,0.00386,0.0,0.0
12.587,262.106,0.00382,0.0,0.0
12.593,259.643,0.00385,0.0,0.0
12.599,258.175,0.00387,0.0,0.0
12.605,257.255,0.00389,0.0,0.0
12.612,254.868,0.00392,0.0,0.0
12.618,253.397,0.00395,0.0,0.0
12.624,252.721,0.00396,0.0,0.0
12.63,259.753,0.00385,0.0,0.0
12.636,254.944,0.00392,0.0,0.0
12.642,257.319,0.00389,0.0,0.0
12.648,252.461,0.00396,0.0,0.0
12.654,251.057,0.00398,0.0,0.0
12.661,252.68,0.00396,0.0,0.0
12.667,251.413,0.00398,0.0,0.0
12.673,254.648,0.00393,0.0,0.0
12.679,252.7,0.00396,0.0,0.0
12.685,251.39,0.00398,0.0,0.0
12.691,253.688,0.00394,0.0,0.0
12.697,255.835,0.00391,0.0,0.0
12.703,256.359,0.0039,0.0,0.0
12.71,250.396,0.00399,0.0,0.0
12.716,250.394,0.00399,0.0,0.0
12.722,252.577,0.00396,0.0,0.0
12.728,256.057,0.00391,0.0,0.0
12.734,248.963,0.00402,0.0,0.0
12.74,249.012,0.00402,0.0,0.0
12.746,254.925,0.00392,0.0,0.0
12.752,249.592,0.00401,0.0,0.0
12.758,249.425,0.00401,0.0,0.0
12.765,255.703,0.00391,0.0,0.0
12.771,250.061,0.004,0.0,0.0
12.777,248.624,0.00402,0.0,0.0
12.783,252.793,0.00396,0.0,0.0
12.789,247.963,0.00403,0.0,0.0
12.795,244.536,0.00409,0.0,0.0
12.801,251.237,0.00398,0.0,0.0
12.807,249.248,0.00401,0.0,0.0
12.814,250.647,0.00399,0.0,0.0
12.82,249.25,0.00401,0.0,0.0
12.826,250.729,0.00399,0.0,0.0
12.832,249.818,0.004,0.0,0.0
12.838,250.62,0.00399,0.0,0.0
12.844,248.901,0.00402,0.0,0.0
12.85,250.576,0.00399,0.0,0.0
12.856,250.669,0.00399,0.0,0.0
12.863,250.273,0.004,0.0,0.0
12.869,252.18,0.00397,0.0,0.0
12.875,245.759,0.00407,0.0,0.0
12.881,247.364,0.00404,0.0,0.0
12.887,254.791,0.00392,0.0,0.0
12.893,247.253,0.00404,0.0,0.0
12.899,246.974,0.00405,0.0,0.0
12.905,248.303,0.00403,0.0,0.0
12.911,248.266,0.00403,0.0,0.0
12.918,245.023,0.00408,0.0,0.0
12.924,244.716,0.00409,0.0,0.0
12.93,246.573,0.00406,0.0,0.0
12.936,251.816,0.00397,0.0,0.0
12.942,249.928,0.004,0.0,0.0
12.948,249.174,0.00401,0.0,0.0
12.954,253.584,0.00394,0.0,0.0
12.96,250.246,0.004,0.0,0.0
12.967,248.564,0.00402,0.0,0.0
12.973,243.068,0.00411,0.0,0.0
12.979,246.21,0.00406,0.0,0.0
12.985,246.425,0.00406,0.0,0.0
12.991,247.307,0.00404,0.0,0.0
12.997,250.232,0.004,0.0,0.0
13.003,242.349,0.00413,0.0,0.0
13.009,242.975,0.00412,0.0,0.0
13.016,244.994,0.00408,0.0,0.0
13.022,243.098,0.00411,0.0,0.0
13.028,246.265,0.00406,0.0,0.0
13.034,243.63,0.0041,0.0,0.0
13.04,243.506,0.00411,0.0,0.0
13.046,248.457,0.00402,0.0,0.0
13.052,246.204,0.00406,0.0,0.0
13.058,243.857,0.0041,0.0,0.0
13.064,247.484,0.00404,0.0,0.0
13.071,244.331,0.00409,0.0,0.0
13.077,244.768,0.00409,0.0,0.0
13.083,245.885,0.00407,0.0,0.0
13.089,246.408,0.00406,0.0,0.0
13.095,244.197,0.0041,0.0,0.0
13.101,244.158,0.0041,0.0,0.0
13.107,247.785,0.00404,0.0,0.0
13.113,247.178,0.00405,0.0,0.0
13.12,248.482,0.00402,0.0,0.0
13.126,246.247,0.00406,0.0,0.0
13.132,246.868,0.00405,0.0,0.0
13.138,246.337,0.00406,0.0,0.0
13.144,246.866,0.00405,0.0,0.0
13.15,245.502,0.00407,0.0,0.0
13.156,248.159,0.00403,0.0,0.0
13.162,252.552,0.00396,0.0,0.0
13.169,249.48,0.00401,0.0,0.0
13.175,248.649,0.00402,0.0,0.0
13.181,252.966,0.00395,0.0,0.0
13.187,253.126,0.00395,0.0,0.0
13.193,258.81,0.00386,0.0,0.0
13.199,264.469,0.00378,0.0,0.0
13.205,280.725,0.00356,0.0,0.0
13.211,313.764,0.00319,0.0,0.0
13.217,346.726,0.00288,0.0,0.0
13.224,462.249,0.00216,0.0,0.0
13.23,562.074,0.00178,0.0,0.0
13.236,746.732,0.00134,0.0,0.0
13.242,895.372,0.00112,0.0,0.0
13.248,909.021,0.0011,0.0,0.0
13.254,916.318,0.00109,0.0,0.0
13.26,846.228,0.00118,0.0,0.0
13.266,648.52,0.00154,0.0,0.0
13.273,530.47,0.00189,0.0,0.0
13.279,411.347,0.00243,0.0,0.0
13.285,328.325,0.00305,0.0,0.0
13.291,297.674,0.00336,0.0,0.0
13.297,271.205,0.00369,0.0,0.0
13.303,262.109,0.00382,0.0,0.0
13.309,256.089,0.0039,0.0,0.0
13.315,248.469,0.00402,0.0,0.0
13.322,246.297,0.00406,0.0,0.0
13.328,242.743,0.00412,0.0,0.0
13.334,247.988,0.00403,0.0,0.0
13.34,241.88,0.00413,0.0,0.0
13.346,244.126,0.0041,0.0,0.0
13.352,244.867,0.00408,0.0,0.0
13.358,243.986,0.0041,0.0,0.0
13.364,243.407,0.00411,0.0,0.0
13.37,241.601,0.00414,0.0,0.0
13.377,244.594,0.00409,0.0,0.0
13.383,239.721,0.00417,0.0,0.0
13.389,244.363,0.00409,0.0,0.0
13.395,247.298,0.00404,0.0,0.0
13.401,243.931,0.0041,0.0,0.0
13.407,241.859,0.00413,0.0,0.0
13.413,244.047,0.0041,0.0,0.0
13.419,241.806,0.00414,0.0,0.0
13.426,238.25,0.0042,0.0,0.0
13.432,239.087,0.00418,0.0,0.0
13.438,239.045,0.00418,0.0,0.0
13.444,239.39,0.00418,0.0,0.0
13.45,238.113,0.0042,0.0,0.0
13.456,239.754,0.00417,0.0,0.0
13.462,240.08,0.00417,0.0,0.0
13.468,242.426,0.00412,0.0,0.0
13.475,243.963,0.0041,0.0,0.0
13.481,238.093,0.0042,0.0,0.0
13.487,236.71,0.00422,0.0,0.0
13.493,241.153,0.00415,0.0,0.0
13.499,239.82,0.00417,0.0,0.0
13.505,240.91,0.00415,0.0,0.0
13.511,235.715,0.00424,0.0,0.0
13.517,240.606,0.00416,0.0,0.0
13.523,238.938,0.00419,0.0,0.0
13.53,240.712,0.00415,0.0,0.0
13.536,235.424,0.00425,0.0,0.0
13.542,234.756,0.00426,0.0,0.0
13.548,239.589,0.00417,0.0,0.0
13.554,232.93,0.00429,0.0,0.0
13.56,238.911,0.00419,0.0,0.0
13.566,239.69,0.00417,0.0,0.0
13.572,235.891,0.00424,0.0,0.0
13.579,242.988,0.00412,0.0,0.0
13.585,243.038,0.00411,0.0,0.0
13.591,240.367,0.00416,0.0,0.0
13.597,237.472,0.00421,0.0,0.0
13.603,237.488,0.00421,0.0,0.0
13.609,242.202,0.00413,0.0,0.0
13.615,237.243,0.00422,0.0,0.0
13.621,238.347,0.0042,0.0,0.0
13.628,240.699,0.00415,0.0,0.0
13.634,239.421,0.00418,0.0,0.0
13.64,228.277,0.00438,0.0,0.0
13.646,234.406,0.00427,0.0,0.0
13.652,236.422,0.00423,0.0,0.0
13.658,234.106,0.00427,0.0,0.0
13.664,239.738,0.00417,0.0,0.0
13.67,236.681,0.00423,0.0,0.0
13.676,239.436,0.00418,0.0,0.0
13.683,235.11,0.00425,0.0,0.0
13.689,236.668,0.00423,0.0,0.0
13.695,237.466,0.00421,0.0,0.0
13.701,234.239,0.00427,0.0,0.0
13.707,235.42,0.00425,0.0,0.0
13.713,233.702,0.00428,0.0,0.0
13.719,237.472,0.00421,0.0,0.0
13.725,235.861,0.00424,0.0,0.0
13.732,230.819,0.00433,0.0,0.0
13.738,234.813,0.00426,0.0,0.0
13.744,233.123,0.00429,0.0,0.0
13.75,231.275,0.00432,0.0,0.0
13.756,235.653,0.00424,0.0,0.0
13.762,233.563,0.00428,0.0,0.0
13.768,234.758,0.00426,0.0,0.0
13.774,235.682,0.00424,0.0,0.0
13.781,237.677,0.00421,0.0,0.0
13.787,235.826,0.00424,0.0,0.0
13.793,239.638,0.00417,0.0,0.0
13.799,235.568,0.00425,0.0,0.0
13.805,235.977,0.00424,0.0,0.0
13.811,234.109,0.00427,0.0,0.0
13.817,234.375,0.00427,0.0,0.0
13.823,235.566,0.00425,0.0,0.0
13.829,233.117,0.00429,0.0,0.0
13.836,231.792,0.00431,0.0,0.0
13.842,233.139,0.00429,0.0,0.0
13.848,234.097,0.00427,0.0,0.0
13.854,234.961,0.00426,0.0,0.0
13.86,235.666,0.00424,0.0,0.0
13.866,235.238,0.00425,0.0,0.0
13.872,232.456,0.0043,0.0,0.0
13.878,231.432,0.00432,0.0,0.0
13.885,237.445,0.00421,0.0,0.0
13.891,237.388,0.00421,0.0,0.0
13.897,236.24,0.00423,0.0,0.0
13.903,231.193,0.00433,0.0,0.0
13.909,233.045,0.00429,0.0,0.0
13.915,239.528,0.00417,0.0,0.0
13.921,235.758,0.00424,0.0,0.0
13.927,235.027,0.00425,0.0,0.0
13.934,234.756,0.00426,0.0,0.0
13.94,233.463,0.00428,0.0,0.0
13.946,232.933,0.00429,0.0,0.0
13.952,230.322,0.00434,0.0,0.0
13.958,232.324,0.0043,0.0,0.0
13.964,234.472,0.00426,0.0,0.0
13.97,233.645,0.00428,0.0,0.0
13.976,233.297,0.00429,0.0,0.0
13.982,237.654,0.00421,0.0,0.0
13.989,237.479,0.00421,0.0,0.0
13.995,235.383,0.00425,0.0,0.0
14.001,236.986,0.00422,0.0,0.0
14.007,232.428,0.0043,0.0,0.0
14.013,235.94,0.00424,0.0,0.0
14.019,230.446,0.00434,0.0,0.0
14.025,228.298,0.00438,0.0,0.0
14.031,234.867,0.00426,0.0,0.0
14.038,233.318,0.00429,0.0,0.0
14.044,233.067,0.00429,0.0,0.0
14.05,231.549,0.00432,0.0,0.0
14.056,235.333,0.00425,0.0,0.0
14.062,232.41,0.0043,0.0,0.0
14.068,233.326,0.00429,0.0,0.0
14.074,232.572,0.0043,0.0,0.0
14.08,231.577,0.00432,0.0,0.0
14.087,233.622,0.00428,0.0,0.0
14.093,230.68,0.00434,0.0,0.0
14.099,226.529,0.00441,0.0,0.0
14.105,235.521,0.00425,0.0,0.0
14.111,233.627,0.00428,0.0,0.0
14.117,233.01,0.00429,0.0,0.0
14.123,231.606,0.00432,0.0,0.0
14.129,230.727,0.00433,0.0,0.0
14.135,231.756,0.00431,0.0,0.0
14.142,231.266,0.00432,0.0,0.0
14.148,231.733,0.00432,0.0,0.0
14.154,231.687,0.00432,0.0,0.0
14.16,230.784,0.00433,0.0,0.0
14.166,232.956,0.00429,0.0,0.0
14.172,231.499,0.00432,0.0,0.0
14.178,232.037,0.00431,0.0,0.0
14.184,231.159,0.00433,0.0,0.0
14.191,229.575,0.00436,0.0,0.0
14.197,234.3,0.00427,0.0,0.0
14.203,231.997,0.00431,0.0,0.0
14.209,229.35,0.00436,0.0,0.0
14.215,230.3,0.00434,0.0,0.0
14.221,234.243,0.00427,0.0,0.0
14.227,234.355,0.00427,0.0,0.0
14.233,227.825,0.00439,0.0,0.0
14.24,229.595,0.00436,0.0,0.0
14.246,232.48,0.0043,0.0,0.0
14.252,229.861,0.00435,0.0,0.0
14.258,232.407,0.0043,0.0,0.0
14.264,228.67,0.00437,0.0,0.0
14.27,233.189,0.00429,0.0,0.0
14.276,227.398,0.0044,0.0,0.0
14.282,232.899,0.00429,0.0,0.0
14.288,232.067,0.00431,0.0,0.0
14.295,229.032,0.00437,0.0,0.0
14.301,233.852,0.00428,0.0,0.0
14.307,229.437,0.00436,0.0,0.0
14.313,232.252,0.00431,0.0,0.0
14.319,231.825,0.00431,0.0,0.0
14.325,235.201,0.00425,0.0,0.0
14.331,236.045,0.00424,0.0,0.0
14.337,233.122,0.00429,0.0,0.0
14.344,231.174,0.00433,0.0,0.0
14.35,235.634,0.00424,0.0,0.0
14.356,232.207,0.00431,0.0,0.0
14.362,238.253,0.0042,0.0,0.0
14.368,232.876,0.00429,0.0,0.0
14.374,240.549,0.00416,0.0,0.0
14.38,242.797,0.00412,0.0,0.0
14.386,255.873,0.00391,0.0,0.0
14.393,265.041,0.00377,0.0,0.0
14.399,299.038,0.00334,0.0,0.0
14.405,333.394,0.003,0.0,0.0
14.411,451.223,0.00222,0.0,0.0
14.417,479.321,0.00209,0.0,0.0
14.423,532.04,0.00188,0.0,0.0
14.429,616.877,0.00162,0.0,0.0
14.435,602.472,0.00166,0.0,0.0
14.441,511.025,0.00196,0.0,0.0
14.448,455.077,0.0022,0.0,0.0
14.454,365.537,0.00274,0.0,0.0
14.46,306.312,0.00326,0.0,0.0
14.466,272.075,0.00368,0.0,0.0
14.472,254.928,0.00392,0.0,0.0
14.478,244.031,0.0041,0.0,0.0
14.484,236.809,0.00422,0.0,0.0
14.49,236.505,0.00423,0.0,0.0
14.497,235.806,0.00424,0.0,0.0
14.503,227.81,0.00439,0.0,0.0
14.509,232.604,0.0043,0.0,0.0
14.515,228.216,0.00438,0.0,0.0
14.521,228.1,0.00438,0.0,0.0
14.527,233.157,0.00429,0.0,0.0
14.533,233.729,0.00428,0.0,0.0
14.539,229.825,0.00435,0.0,0.0
14.546,233.74,0.00428,0.0,0.0
14.552,230.566,0.00434,0.0,0.0
14.558,232.899,0.00429,0.0,0.0
14.564,231.384,0.00432,0.0,0.0
14.57,227.795,0.00439,0.0,0.0
14.576,228.541,0.00438,0.0,0.0
14.582,228.394,0.00438,0.0,0.0
14.588,230.252,0.00434,0.0,0.0
14.594,228.419,0.00438,0.0,0.0
14.601,227.335,0.0044,0.0,0.0
14.607,227.474,0.0044,0.0,0.0
14.613,224.846,0.00445,0.0,0.0
14.619,221.916,0.00451,0.0,0.0
14.625,231.643,0.00432,0.0,0.0
14.631,230.638,0.00434,0.0,0.0
14.637,228.745,0.00437,0.0,0.0
14.643,226.901,0.00441,0.0,0.0
14.65,233.34,0.00429,0.0,0.0
14.656,225.186,0.00444,0.0,0.0
14.662,226.358,0.00442,0.0,0.0
14.668,223.915,0.00447,0.0,0.0
14.674,230.779,0.00433,0.0,0.0
14.68,224.902,0.00445,0.0,0.0
14.686,227.701,0.00439,0.0,0.0
14.692,226.913,0.00441,0.0,0.0
14.699,228.01,0.00439,0.0,0.0
14.705,228.968,0.00437,0.0,0.0
14.711,226.88,0.00441,0.0,0.0
14.717,227.584,0.00439,0.0,0.0
14.723,229.168,0.00436,0.0,0.0
14.729,226.204,0.00442,0.0,0.0
14.735,228.379,0.00438,0.0,0.0
14.741,228.921,0.00437,0.0,0.0
14.747,227.986,0.00439,0.0,0.0
14.754,225.35,0.00444,0.0,0.0
14.76,226.871,0.00441,0.0,0.0
14.766,228.55,0.00438,0.0,0.0
14.772,225.538,0.00443,0.0,0.0
14.778,227.154,0.0044,0.0,0.0
14.784,228.499,0.00438,0.0,0.0
14.79,232.108,0.00431,0.0,0.0
14.796,226.707,0.00441,0.0,0.0
14.803,227.208,0.0044,0.0,0.0
14.809,220.935,0.00453,0.0,0.0
14.815,228.472,0.00438,0.0,0.0
14.821,228.107,0.00438,0.0,0.0
14.827,224.244,0.00446,0.0,0.0
14.833,221.726,0.00451,0.0,0.0
14.839,224.219,0.00446,0.0,0.0
14.845,224.244,0.00446,0.0,0.0
14.852,227.055,0.0044,0.0,0.0
14.858,223.773,0.00447,0.0,0.0
14.864,222.239,0.0045,0.0,0.0
14.87,231.161,0.00433,0.0,0.0
14.876,226.194,0.00442,0.0,0.0
14.882,226.863,0.00441,0.0,0.0
14.888,222.719,0.00449,0.0,0.0
14.894,224.064,0.00446,0.0,0.0
14.9,225.448,0.00444,0.0,0.0
14.907,224.512,0.00445,0.0,0.0
14.913,223.995,0.00446,0.0,0.0
14.919,223.117,0.00448,0.0,0.0
14.925,224.138,0.00446,0.0,0.0
14.931,219.69,0.00455,0.0,0.0
14.937,227.193,0.0044,0.0,0.0
14.943,229.945,0.00435,0.0,0.0
14.949,224.481,0.00445,0.0,0.0
14.956,226.36,0.00442,0.0,0.0
14.962,223.922,0.00447,0.0,0.0
14.968,226.696,0.00441,0.0,0.0
14.974,225.677,0.00443,0.0,0.0
14.98,225.32,0.00444,0.0,0.0
14.986,225.808,0.00443,0.0,0.0
14.992,225.526,0.00443,0.0,0.0
14.998,230.576,0.00434,0.0,0.0
15.005,225.584,0.00443,0.0,0.0
15.011,230.056,0.00435,0.0,0.0
15.017,225.811,0.00443,0.0,0.0
15.023,229.804,0.00435,0.0,0.0
15.029,233.007,0.00429,0.0,0.0
15.035,230.785,0.00433,0.0,0.0
15.041,239.978,0.00417,0.0,0.0
15.047,245.821,0.00407,0.0,0.0
15.053,263.479,0.0038,0.0,0.0
15.06,290.927,0.00344,0.0,0.0
15.066,341.025,0.00293,0.0,0.0
15.072,417.302,0.0024,0.0,0.0
15.078,523.52,0.00191,0.0,0.0
15.084,631.405,0.00158,0.0,0.0
15.09,739.161,0.00135,0.0,0.0
15.096,844.061,0.00118,0.0,0.0
15.102,771.514,0.0013,0.0,0.0
15.109,656.308,0.00152,0.0,0.0
15.115,547.394,0.00183,0.0,0.0
15.121,410.85,0.00243,0.0,0.0
15.127,331.427,0.00302,0.0,0.0
15.133,284.641,0.00351,0.0,0.0
15.139,257.493,0.00388,0.0,0.0
15.145,242.055,0.00413,0.0,0.0
15.151,237.404,0.00421,0.0,0.0
15.158,231.566,0.00432,0.0,0.0
15.164,230.133,0.00435,0.0,0.0
15.17,225.978,0.00443,0.0,0.0
15.176,229.129,0.00436,0.0,0.0
15.182,225.103,0.00444,0.0,0.0
15.188,225.159,0.00444,0.0,0.0
15.194,221.132,0.00452,0.0,0.0
15.2,222.573,0.00449,0.0,0.0
15.206,220.425,0.00454,0.0,0.0
15.213,223.194,0.00448,0.0,0.0
15.219,225.521,0.00443,0.0,0.0
15.225,225.804,0.00443,0.0,0.0
15.231,223.45,0.00448,0.0,0.0
15.237,220.881,0.00453,0.0,0.0
15.243,220.775,0.00453,0.0,0.0
15.249,221.663,0.00451,0.0,0.0
15.255,222.909,0.00449,0.0,0.0
15.262,222.053,0.0045,0.0,0.0
15.268,226.122,0.00442,0.0,0.0
15.274,221.44,0.00452,0.0,0.0
15.28,226.857,0.00441,0.0,0.0
15.286,218.185,0.00458,0.0,0.0
15.292,222.231,0.0045,0.0,0.0
15.298,221.768,0.00451,0.0,0.0
15.304,219.205,0.00456,0.0,0.0
15.311,220.943,0.00453,0.0,0.0
15.317,220.733,0.00453,0.0,0.0
15.323,217.675,0.00459,0.0,0.0
15.329,214.384,0.00466,0.0,0.0
15.335,221.622,0.00451,0.0,0.0
15.341,220.647,0.00453,0.0,0.0
15.347,222.058,0.0045,0.0,0.0
15.353,214.859,0.00465,0.0,0.0
15.359,218.627,0.00457,0.0,0.0
15.366,219.469,0.00456,0.0,0.0
15.372,218.735,0.00457,0.0,0.0
15.378,227.892,0.00439,0.0,0.0
15.384,219.926,0.00455,0.0,0.0
15.39,220.0,0.00455,0.0,0.0
15.396,223.059,0.00448,0.0,0.0
15.402,222.988,0.00448,0.0,0.0
15.408,221.053,0.00452,0.0,0.0
15.415,219.661,0.00455,0.0,0.0
15.421,223.887,0.00447,0.0,0.0
15.427,212.55,0.0047,0.0,0.0
15.433,221.324,0.00452,0.0,0.0
15.439,214.698,0.00466,0.0,0.0
15.445,219.478,0.00456,0.0,0.0
15.451,219.206,0.00456,0.0,0.0
15.457,216.739,0.00461,0.0,0.0
15.464,216.181,0.00463,0.0,0.0
15.47,216.446,0.00462,0.0,0.0
15.476,215.759,0.00463,0.0,0.0
15.482,218.287,0.00458,0.0,0.0
15.488,218.333,0.00458,0.0,0.0
15.494,218.83,0.00457,0.0,0.0
15.5,219.998,0.00455,0.0,0.0
15.506,218.994,0.00457,0.0,0.0
15.512,219.122,0.00456,0.0,0.0
15.519,216.999,0.00461,0.0,0.0
15.525,220.554,0.00453,0.0,0.0
15.531,218.543,0.00458,0.0,0.0
15.537,217.183,0.0046,0.0,0.0
15.543,220.371,0.00454,0.0,0.0
15.549,219.204,0.00456,0.0,0.0
15.555,217.149,0.00461,0.0,0.0
15.561,222.139,0.0045,0.0,0.0
15.568,219.334,0.00456,0.0,0.0
15.574,215.799,0.00463,0.0,0.0
15.58,218.635,0.00457,0.0,0.0
15.586,216.18,0.00463,0.0,0.0
15.592,215.761,0.00463,0.0,0.0
15.598,218.795,0.00457,0.0,0.0
15.604,217.338,0.0046,0.0,0.0
15.61,215.086,0.00465,0.0,0.0
15.617,215.763,0.00463,0.0,0.0
15.623,215.756,0.00463,0.0,0.0
15.629,216.704,0.00461,0.0,0.0
15.635,221.546,0.00451,0.0,0.0
15.641,219.737,0.00455,0.0,0.0
15.647,216.452,0.00462,0.0,0.0
15.653,217.864,0.00459,0.0,0.0
15.659,217.413,0.0046,0.0,0.0
15.665,217.054,0.00461,0.0,0.0
15.672,216.437,0.00462,0.0,0.0
15.678,218.636,0.00457,0.0,0.0
15.684,221.791,0.00451,0.0,0.0
15.69,223.363,0.00448,0.0,0.0
15.696,221.546,0.00451,0.0,0.0
15.702,226.219,0.00442,0.0,0.0
15.708,240.205,0.00416,0.0,0.0
15.714,229.837,0.00435,0.0,0.0
15.721,237.316,0.00421,0.0,0.0
15.727,225.279,0.00444,0.0,0.0
15.733,226.147,0.00442,0.0,0.0
15.739,223.539,0.00447,0.0,0.0
15.745,219.786,0.00455,0.0,0.0
15.751,218.324,0.00458,0.0,0.0
15.757,219.415,0.00456,0.0,0.0
15.763,216.349,0.00462,0.0,0.0
15.77,215.065,0.00465,0.0,0.0
15.776,218.01,0.00459,0.0,0.0
15.782,215.364,0.00464,0.0,0.0
15.788,218.931,0.00457,0.0,0.0
15.794,216.569,0.00462,0.0,0.0
15.8,215.444,0.00464,0.0,0.0
15.806,214.97,0.00465,0.0,0.0
15.812,215.022,0.00465,0.0,0.0
15.818,217.075,0.00461,0.0,0.0
15.825,219.756,0.00455,0.0,0.0
15.831,221.839,0.00451,0.0,0.0
15.837,216.296,0.00462,0.0,0.0
15.843,212.211,0.00471,0.0,0.0
15.849,217.326,0.0046,0.0,0.0
15.855,212.669,0.0047,0.0,0.0
15.861,217.339,0.0046,0.0,0.0
15.867,214.98,0.00465,0.0,0.0
15.874,214.7,0.00466,0.0,0.0
15.88,213.708,0.00468,0.0,0.0
15.886,216.881,0.00461,0.0,0.0
15.892,218.149,0.00458,0.0,0.0
15.898,219.236,0.00456,0.0,0.0
15.904,216.692,0.00461,0.0,0.0
15.91,215.936,0.00463,0.0,0.0
15.916,217.893,0.00459,0.0,0.0
15.923,214.02,0.00467,0.0,0.0
15.929,211.473,0.00473,0.0,0.0
15.935,215.774,0.00463,0.0,0.0
15.941,218.023,0.00459,0.0,0.0
15.947,213.702,0.00468,0.0,0.0
15.953,211.632,0.00473,0.0,0.0
15.959,213.155,0.00469,0.0,0.0
15.965,213.898,0.00468,0.0,0.0
15.971,217.133,0.00461,0.0,0.0
15.978,214.356,0.00467,0.0,0.0
15.984,213.522,0.00468,0.0,0.0
15.99,215.144,0.00465,0.0,0.0
15.996,215.848,0.00463,0.0,0.0
16.002,213.241,0.00469,0.0,0.0
16.008,213.161,0.00469,0.0,0.0
16.014,215.98,0.00463,0.0,0.0
16.02,216.05,0.00463,0.0,0.0
16.027,214.708,0.00466,0.0,0.0
16.033,215.527,0.00464,0.0,0.0
16.039,217.448,0.0046,0.0,0.0
16.045,216.954,0.00461,0.0,0.0
16.051,218.248,0.00458,0.0,0.0
16.057,216.797,0.00461,0.0,0.0
16.063,215.978,0.00463,0.0,0.0
16.069,212.978,0.0047,0.0,0.0
16.076,219.3,0.00456,0.0,0.0
16.082,220.108,0.00454,0.0,0.0
16.088,226.285,0.00442,0.0,0.0
16.094,227.475,0.0044,0.0,0.0
