"x","y_obs","weight","y_calc","y_bkg"
0.8,2776.656,0.00036,0.0,0.0
0.806,3217.881,0.00031,0.0,0.0
0.813,3283.542,0.0003,0.0,0.0
0.819,3169.773,0.00032,0.0,0.0
0.825,3861.019,0.00026,0.0,0.0
0.832,3592.579,0.00028,0.0,0.0
0.838,3868.595,0.00026,0.0,0.0
0.844,4170.636,0.00024,0.0,0.0
0.851,4032.676,0.00025,0.0,0.0
0.857,4440.871,0.00023,0.0,0.0
0.863,4824.636,0.00021,0.0,0.0
0.87,4395.401,0.00023,0.0,0.0
0.876,5200.735,0.00019,0.0,0.0
0.882,5065.016,0.0002,0.0,0.0
0.888,5248.544,0.00019,0.0,0.0
0.895,5479.136,0.00018,0.0,0.0
0.901,5487.991,0.00018,0.0,0.0
0.907,5938.34,0.00017,0.0,0.0
0.914,6130.953,0.00016,0.0,0.0
0.92,5812.629,0.00017,0.0,0.0
0.926,6347.06,0.00016,0.0,0.0
0.933,6413.221,0.00016,0.0,0.0
0.939,6232.792,0.00016,0.0,0.0
0.945,6764.069,0.00015,0.0,0.0
0.952,6376.837,0.00016,0.0,0.0
0.958,6738.592,0.00015,0.0,0.0
0.964,6772.621,0.00015,0.0,0.0
0.971,6522.231,0.00015,0.0,0.0
0.977,6946.633,0.00014,0.0,0.0
0.983,6935.616,0.00014,0.0,0.0
0.99,6735.504,0.00015,0.0,0.0
0.996,7067.579,0.00014,0.0,0.0
1.002,6805.75,0.00015,0.0,0.0
1.009,6996.866,0.00014,0.0,0.0
1.015,7066.755,0.00014,0.0,0.0
1.021,6825.643,0.00015,0.0,0.0
1.028,7163.428,0.00014,0.0,0.0
1.034,6956.038,0.00014,0.0,0.0
1.04,6908.118,0.00014,0.0,0.0
1.046,7024.73,0.00014,0.0,0.0
1.053,6978.174,0.00014,0.0,0.0
1.059,6946.304,0.00014,0.0,0.0
1.065,7068.481,0.00014,0.0,0.0
1.072,6860.818,0.00015,0.0,0.0
1.078,6983.986,0.00014,0.0,0.0
1.084,6816.112,0.00015,0.0,0.0
1.091,6854.007,0.00015,0.0,0.0
1.097,6887.644,0.00015,0.0,0.0
1.103,6847.961,0.00015,0.0,0.0
1.11,6827.067,0.00015,0.0,0.0
1.116,6780.519,0.00015,0.0,0.0
1.122,6710.724,0.00015,0.0,0.0
1.129,6674.151,0.00015,0.0,0.0
1.135,6666.366,0.00015,0.0,0.0
1.141,6630.14,0.00015,0.0,0.0
1.148,6585.231,0.00015,0.0,0.0
1.154,6493.476,0.00015,0.0,0.0
1.16,6510.607,0.00015,0.0,0.0
1.167,6428.239,0.00016,0.0,0.0
1.173,6441.08,0.00016,0.0,0.0
1.179,6404.585,0.00016,0.0,0.0
1.186,6323.499,0.00016,0.0,0.0
1.192,6283.863,0.00016,0.0,0.0
1.198,6257.267,0.00016,0.0,0.0
1.204,6195.136,0.00016,0.0,0.0
1.211,6190.752,0.00016,0.0,0.0
1.217,6121.612,0.00016,0.0,0.0
1.223,6101.72,0.00016,0.0,0.0
1.23,6070.651,0.00016,0.0,0.0
1.236,6024.188,0.00017,0.0,0.0
1.242,5961.721,0.00017,0.0,0.0
1.249,5986.911,0.00017,0.0,0.0
1.255,5946.387,0.00017,0.0,0.0
1.261,5891.688,0.00017,0.0,0.0
1.268,5875.08,0.00017,0.0,0.0
1.274,5847.233,0.00017,0.0,0.0
1.28,5854.032,0.00017,0.0,0.0
1.287,5838.42,0.00017,0.0,0.0
1.293,5790.583,0.00017,0.0,0.0
1.299,5780.749,0.00017,0.0,0.0
1.306,5745.19,0.00017,0.0,0.0
1.312,5737.793,0.00017,0.0,0.0
1.318,5722.785,0.00017,0.0,0.0
1.325,5701.807,0.00018,0.0,0.0
1.331,5687.794,0.00018,0.0,0.0
1.337,5674.089,0.00018,0.0,0.0
1.344,5636.007,0.00018,0.0,0.0
1.35,5619.678,0.00018,0.0,0.0
1.356,5594.9,0.00018,0.0,0.0
1.362,5617.156,0.00018,0.0,0.0
1.369,5544.848,0.00018,0.0,0.0
1.375,5553.957,0.00018,0.0,0.0
1.381,5544.246,0.00018,0.0,0.0
1.388,5539.564,0.00018,0.0,0.0
1.394,5480.608,0.00018,0.0,0.0
1.4,5571.492,0.00018,0.0,0.0
1.407,5495.539,0.00018,0.0,0.0
1.413,5541.571,0.00018,0.0,0.0
1.419,5488.022,0.00018,0.0,0.0
1.426,5505.978,0.00018,0.0,0.0
1.432,5485.018,0.00018,0.0,0.0
1.438,5459.672,0.00018,0.0,0.0
1.445,5504.785,0.00018,0.0,0.0
1.451,5466.369,0.00018,0.0,0.0
1.457,5464.051,0.00018,0.0,0.0
1.464,5452.444,0.00018,0.0,0.0
1.47,5488.435,0.00018,0.0,0.0
1.476,5418.286,0.00018,0.0,0.0
1.483,5485.039,0.00018,0.0,0.0
1.489,5443.651,0.00018,0.0,0.0
1.495,5443.635,0.00018,0.0,0.0
1.502,5441.765,0.00018,0.0,0.0
1.508,5465.701,0.00018,0.0,0.0
1.514,5433.333,0.00018,0.0,0.0
1.52,5482.355,0.00018,0.0,0.0
1.527,5447.772,0.00018,0.0,0.0
1.533,5469.354,0.00018,0.0,0.0
1.539,5405.741,0.00018,0.0,0.0
1.546,5474.162,0.00018,0.0,0.0
1.552,5464.66,0.00018,0.0,0.0
1.558,5477.039,0.00018,0.0,0.0
1.565,5504.223,0.00018,0.0,0.0
1.571,5478.792,0.00018,0.0,0.0
1.577,5486.083,0.00018,0.0,0.0
1.584,5493.114,0.00018,0.0,0.0
1.59,5501.863,0.00018,0.0,0.0
1.596,5493.204,0.00018,0.0,0.0
1.603,5546.305,0.00018,0.0,0.0
1.609,5530.988,0.00018,0.0,0.0
1.615,5549.778,0.00018,0.0,0.0
1.622,5526.376,0.00018,0.0,0.0
1.628,5545.479,0.00018,0.0,0.0
1.634,5607.019,0.00018,0.0,0.0
1.641,5632.678,0.00018,0.0,0.0
1.647,5602.75,0.00018,0.0,0.0
1.653,5632.555,0.00018,0.0,0.0
1.66,5618.427,0.00018,0.0,0.0
1.666,5626.541,0.00018,0.0,0.0
1.672,5643.532,0.00018,0.0,0.0
1.678,5679.207,0.00018,0.0,0.0
1.685,5677.817,0.00018,0.0,0.0
1.691,5691.918,0.00018,0.0,0.0
1.697,5715.799,0.00017,0.0,0.0
1.704,5699.808,0.00018,0.0,0.0
1.71,5728.391,0.00017,0.0,0.0
1.716,5739.501,0.00017,0.0,0.0
1.723,5740.559,0.00017,0.0,0.0
1.729,5749.485,0.00017,0.0,0.0
1.735,5774.74,0.00017,0.0,0.0
1.742,5782.731,0.00017,0.0,0.0
1.748,5764.367,0.00017,0.0,0.0
1.754,5805.616,0.00017,0.0,0.0
1.761,5839.89,0.00017,0.0,0.0
1.767,5833.152,0.00017,0.0,0.0
1.773,5805.027,0.00017,0.0,0.0
1.78,5827.434,0.00017,0.0,0.0
1.786,5877.068,0.00017,0.0,0.0
1.792,5838.963,0.00017,0.0,0.0
1.799,5882.008,0.00017,0.0,0.0
1.805,5867.954,0.00017,0.0,0.0
1.811,5843.382,0.00017,0.0,0.0
1.818,5896.91,0.00017,0.0,0.0
1.824,5888.192,0.00017,0.0,0.0
1.83,5905.537,0.00017,0.0,0.0
1.836,5890.015,0.00017,0.0,0.0
1.843,5894.574,0.00017,0.0,0.0
1.849,5887.981,0.00017,0.0,0.0
1.855,5919.035,0.00017,0.0,0.0
1.862,5896.273,0.00017,0.0,0.0
1.868,5909.456,0.00017,0.0,0.0
1.874,5903.992,0.00017,0.0,0.0
1.881,5931.964,0.00017,0.0,0.0
1.887,5880.024,0.00017,0.0,0.0
1.893,5877.682,0.00017,0.0,0.0
1.9,5888.86,0.00017,0.0,0.0
1.906,5882.949,0.00017,0.0,0.0
1.912,5900.877,0.00017,0.0,0.0
1.919,5886.674,0.00017,0.0,0.0
1.925,5918.717,0.00017,0.0,0.0
1.931,5891.568,0.00017,0.0,0.0
1.938,5912.233,0.00017,0.0,0.0
1.944,5859.217,0.00017,0.0,0.0
1.95,5888.317,0.00017,0.0,0.0
1.957,5919.879,0.00017,0.0,0.0
1.963,5929.07,0.00017,0.0,0.0
1.969,5895.255,0.00017,0.0,0.0
1.976,5916.263,0.00017,0.0,0.0
1.982,5895.33,0.00017,0.0,0.0
1.988,5922.755,0.00017,0.0,0.0
1.994,5907.775,0.00017,0.0,0.0
2.001,5891.061,0.00017,0.0,0.0
2.007,5908.97,0.00017,0.0,0.0
2.013,5846.793,0.00017,0.0,0.0
2.02,5886.678,0.00017,0.0,0.0
2.026,5897.062,0.00017,0.0,0.0
2.032,5896.877,0.00017,0.0,0.0
2.039,5894.573,0.00017,0.0,0.0
2.045,5925.643,0.00017,0.0,0.0
2.051,5929.335,0.00017,0.0,0.0
2.058,5922.417,0.00017,0.0,0.0
2.064,5947.667,0.00017,0.0,0.0
2.07,5919.578,0.00017,0.0,0.0
2.077,5928.882,0.00017,0.0,0.0
2.083,5927.793,0.00017,0.0,0.0
2.089,5940.26,0.00017,0.0,0.0
2.096,5944.212,0.00017,0.0,0.0
2.102,5950.961,0.00017,0.0,0.0
2.108,5953.93,0.00017,0.0,0.0
2.115,5930.237,0.00017,0.0,0.0
2.121,5999.038,0.00017,0.0,0.0
2.127,5982.606,0.00017,0.0,0.0
2.134,5972.328,0.00017,0.0,0.0
2.14,5952.33,0.00017,0.0,0.0
2.146,6009.755,0.00017,0.0,0.0
2.152,5985.752,0.00017,0.0,0.0
2.159,5999.18,0.00017,0.0,0.0
2.165,6019.722,0.00017,0.0,0.0
2.171,6007.147,0.00017,0.0,0.0
2.178,6054.196,0.00017,0.0,0.0
2.184,6061.478,0.00016,0.0,0.0
2.19,6056.578,0.00017,0.0,0.0
2.197,6026.288,0.00017,0.0,0.0
2.203,6063.806,0.00016,0.0,0.0
2.209,6092.104,0.00016,0.0,0.0
2.216,6104.61,0.00016,0.0,0.0
2.222,6135.873,0.00016,0.0,0.0
2.228,6218.93,0.00016,0.0,0.0
2.235,6168.214,0.00016,0.0,0.0
2.241,6125.254,0.00016,0.0,0.0
2.247,6191.307,0.00016,0.0,0.0
2.254,6205.701,0.00016,0.0,0.0
2.26,6227.785,0.00016,0.0,0.0
2.266,6201.571,0.00016,0.0,0.0
2.273,6265.128,0.00016,0.0,0.0
2.279,6241.614,0.00016,0.0,0.0
2.285,6237.082,0.00016,0.0,0.0
2.292,6273.888,0.00016,0.0,0.0
2.298,6288.73,0.00016,0.0,0.0
2.304,6295.195,0.00016,0.0,0.0
2.31,6322.385,0.00016,0.0,0.0
2.317,6328.047,0.00016,0.0,0.0
2.323,6340.757,0.00016,0.0,0.0
2.329,6386.396,0.00016,0.0,0.0
2.336,6415.042,0.00016,0.0,0.0
2.342,6413.658,0.00016,0.0,0.0
2.348,6421.454,0.00016,0.0,0.0
2.355,6450.232,0.00016,0.0,0.0
2.361,6476.781,0.00015,0.0,0.0
2.367,6500.231,0.00015,0.0,0.0
2.374,6522.422,0.00015,0.0,0.0
2.38,6550.487,0.00015,0.0,0.0
2.386,6609.448,0.00015,0.0,0.0
2.393,6626.131,0.00015,0.0,0.0
2.399,6699.216,0.00015,0.0,0.0
2.405,6784.286,0.00015,0.0,0.0
2.412,6884.721,0.00015,0.0,0.0
2.418,7003.945,0.00014,0.0,0.0
2.424,7066.923,0.00014,0.0,0.0
2.431,7147.603,0.00014,0.0,0.0
2.437,7081.082,0.00014,0.0,0.0
2.443,7058.494,0.00014,0.0,0.0
2.45,6962.946,0.00014,0.0,0.0
2.456,6937.495,0.00014,0.0,0.0
2.462,6897.335,0.00014,0.0,0.0
2.468,6862.913,0.00015,0.0,0.0
2.475,6891.321,0.00015,0.0,0.0
2.481,6901.743,0.00014,0.0,0.0
2.487,6956.94,0.00014,0.0,0.0
2.494,6927.755,0.00014,0.0,0.0
2.5,6961.737,0.00014,0.0,0.0
2.506,6989.367,0.00014,0.0,0.0
2.513,7020.229,0.00014,0.0,0.0
2.519,7041.634,0.00014,0.0,0.0
2.525,7062.893,0.00014,0.0,0.0
2.532,7122.392,0.00014,0.0,0.0
2.538,7102.029,0.00014,0.0,0.0
2.544,7111.373,0.00014,0.0,0.0
2.551,7144.198,0.00014,0.0,0.0
2.557,7167.417,0.00014,0.0,0.0
2.563,7197.87,0.00014,0.0,0.0
2.57,7210.53,0.00014,0.0,0.0
2.576,7233.632,0.00014,0.0,0.0
2.582,7280.317,0.00014,0.0,0.0
2.589,7290.358,0.00014,0.0,0.0
2.595,7313.943,0.00014,0.0,0.0
2.601,7328.442,0.00014,0.0,0.0
2.608,7370.607,0.00014,0.0,0.0
2.614,7414.258,0.00013,0.0,0.0
2.62,7427.081,0.00013,0.0,0.0
2.626,7424.15,0.00013,0.0,0.0
2.633,7451.036,0.00013,0.0,0.0
2.639,7463.123,0.00013,0.0,0.0
2.645,7511.122,0.00013,0.0,0.0
2.652,7518.613,0.00013,0.0,0.0
2.658,7572.413,0.00013,0.0,0.0
2.664,7574.62,0.00013,0.0,0.0
2.671,7567.435,0.00013,0.0,0.0
2.677,7591.903,0.00013,0.0,0.0
2.683,7636.392,0.00013,0.0,0.0
2.69,7640.788,0.00013,0.0,0.0
2.696,7666.968,0.00013,0.0,0.0
2.702,7736.034,0.00013,0.0,0.0
2.709,7747.436,0.00013,0.0,0.0
2.715,7765.343,0.00013,0.0,0.0
2.721,7810.02,0.00013,0.0,0.0
2.728,7828.792,0.00013,0.0,0.0
2.734,7853.423,0.00013,0.0,0.0
2.74,7880.522,0.00013,0.0,0.0
2.747,7907.159,0.00013,0.0,0.0
2.753,7917.319,0.00013,0.0,0.0
2.759,7934.634,0.00013,0.0,0.0
2.766,7964.675,0.00013,0.0,0.0
2.772,7980.061,0.00013,0.0,0.0
2.778,8047.941,0.00012,0.0,0.0
2.784,8068.453,0.00012,0.0,0.0
2.791,8099.639,0.00012,0.0,0.0
2.797,8126.689,0.00012,0.0,0.0
2.803,8138.819,0.00012,0.0,0.0
2.81,8167.669,0.00012,0.0,0.0
2.816,8200.697,0.00012,0.0,0.0
2.822,8222.411,0.00012,0.0,0.0
2.829,8259.34,0.00012,0.0,0.0
2.835,8280.987,0.00012,0.0,0.0
2.841,8295.139,0.00012,0.0,0.0
2.848,8345.357,0.00012,0.0,0.0
2.854,8340.88,0.00012,0.0,0.0
2.86,8369.917,0.00012,0.0,0.0
2.867,8418.981,0.00012,0.0,0.0
2.873,8382.592,0.00012,0.0,0.0
2.879,8450.623,0.00012,0.0,0.0
2.886,8454.097,0.00012,0.0,0.0
2.892,8510.675,0.00012,0.0,0.0
2.898,8537.536,0.00012,0.0,0.0
2.905,8545.928,0.00012,0.0,0.0
2.911,8563.539,0.00012,0.0,0.0
2.917,8597.112,0.00012,0.0,0.0
2.924,8594.648,0.00012,0.0,0.0
2.93,8620.334,0.00012,0.0,0.0
2.936,8650.786,0.00012,0.0,0.0
2.942,8630.732,0.00012,0.0,0.0
2.949,8692.857,0.00012,0.0,0.0
2.955,8707.225,0.00011,0.0,0.0
2.961,8744.22,0.00011,0.0,0.0
2.968,8742.576,0.00011,0.0,0.0
2.974,8773.773,0.00011,0.0,0.0
2.98,8769.425,0.00011,0.0,0.0
2.987,8776.4,0.00011,0.0,0.0
2.993,8768.983,0.00011,0.0,0.0
2.999,8829.205,0.00011,0.0,0.0
3.006,8845.228,0.00011,0.0,0.0
3.012,8833.899,0.00011,0.0,0.0
3.018,8851.168,0.00011,0.0,0.0
3.025,8874.411,0.00011,0.0,0.0
3.031,8874.227,0.00011,0.0,0.0
3.037,8891.325,0.00011,0.0,0.0
3.044,8891.0,0.00011,0.0,0.0
3.05,8932.164,0.00011,0.0,0.0
3.056,8880.806,0.00011,0.0,0.0
3.063,8931.634,0.00011,0.0,0.0
3.069,8923.608,0.00011,0.0,0.0
3.075,8915.425,0.00011,0.0,0.0
3.082,8908.397,0.00011,0.0,0.0
3.088,8934.563,0.00011,0.0,0.0
3.094,8917.836,0.00011,0.0,0.0
3.1,8952.965,0.00011,0.0,0.0
3.107,8933.396,0.00011,0.0,0.0
3.113,8919.8,0.00011,0.0,0.0
3.119,8918.858,0.00011,0.0,0.0
3.126,8941.149,0.00011,0.0,0.0
3.132,8934.382,0.00011,0.0,0.0
3.138,8904.181,0.00011,0.0,0.0
3.145,8908.384,0.00011,0.0,0.0
3.151,8919.01,0.00011,0.0,0.0
3.157,8896.955,0.00011,0.0,0.0
3.164,8881.888,0.00011,0.0,0.0
3.17,8910.403,0.00011,0.0,0.0
3.176,8858.842,0.00011,0.0,0.0
3.183,8856.884,0.00011,0.0,0.0
3.189,8882.662,0.00011,0.0,0.0
3.195,8850.772,0.00011,0.0,0.0
3.202,8813.544,0.00011,0.0,0.0
3.208,8811.488,0.00011,0.0,0.0
3.214,8834.581,0.00011,0.0,0.0
3.221,8794.735,0.00011,0.0,0.0
3.227,8812.897,0.00011,0.0,0.0
3.233,8788.565,0.00011,0.0,0.0
3.24,8770.398,0.00011,0.0,0.0
3.246,8762.978,0.00011,0.0,0.0
3.252,8772.066,0.00011,0.0,0.0
3.258,8738.688,0.00011,0.0,0.0
3.265,8716.289,0.00011,0.0,0.0
3.271,8711.742,0.00011,0.0,0.0
3.277,8683.039,0.00012,0.0,0.0
3.284,8692.036,0.00012,0.0,0.0
3.29,8651.399,0.00012,0.0,0.0
3.296,8616.45,0.00012,0.0,0.0
3.303,8630.024,0.00012,0.0,0.0
3.309,8596.607,0.00012,0.0,0.0
3.315,8598.322,0.00012,0.0,0.0
3.322,8568.978,0.00012,0.0,0.0
3.328,8561.472,0.00012,0.0,0.0
3.334,8571.692,0.00012,0.0,0.0
3.341,8549.568,0.00012,0.0,0.0
3.347,8530.754,0.00012,0.0,0.0
3.353,8511.014,0.00012,0.0,0.0
3.36,8477.542,0.00012,0.0,0.0
3.366,8495.834,0.00012,0.0,0.0
3.372,8458.208,0.00012,0.0,0.0
3.379,8435.916,0.00012,0.0,0.0
3.385,8433.817,0.00012,0.0,0.0
3.391,8420.805,0.00012,0.0,0.0
3.398,8428.764,0.00012,0.0,0.0
3.404,8428.259,0.00012,0.0,0.0
3.41,8374.743,0.00012,0.0,0.0
3.416,8379.862,0.00012,0.0,0.0
3.423,8423.717,0.00012,0.0,0.0
3.429,8373.404,0.00012,0.0,0.0
3.435,8375.962,0.00012,0.0,0.0
3.442,8365.15,0.00012,0.0,0.0
3.448,8329.416,0.00012,0.0,0.0
3.454,8328.053,0.00012,0.0,0.0
3.461,8279.06,0.00012,0.0,0.0
3.467,8271.173,0.00012,0.0,0.0
3.473,8272.511,0.00012,0.0,0.0
3.48,8260.776,0.00012,0.0,0.0
3.486,8249.684,0.00012,0.0,0.0
3.492,8228.469,0.00012,0.0,0.0
3.499,8229.013,0.00012,0.0,0.0
3.505,8219.364,0.00012,0.0,0.0
3.511,8207.997,0.00012,0.0,0.0
3.518,8190.308,0.00012,0.0,0.0
3.524,8194.904,0.00012,0.0,0.0
3.53,8166.932,0.00012,0.0,0.0
3.537,8158.588,0.00012,0.0,0.0
3.543,8167.707,0.00012,0.0,0.0
3.549,8174.359,0.00012,0.0,0.0
3.556,8151.984,0.00012,0.0,0.0
3.562,8167.254,0.00012,0.0,0.0
3.568,8134.927,0.00012,0.0,0.0
3.574,8135.595,0.00012,0.0,0.0
3.581,8126.396,0.00012,0.0,0.0
3.587,8139.573,0.00012,0.0,0.0
3.593,8146.046,0.00012,0.0,0.0
3.6,8140.987,0.00012,0.0,0.0
3.606,8121.575,0.00012,0.0,0.0
3.612,8127.444,0.00012,0.0,0.0
3.619,8122.392,0.00012,0.0,0.0
3.625,8123.341,0.00012,0.0,0.0
3.631,8142.053,0.00012,0.0,0.0
3.638,8156.426,0.00012,0.0,0.0
3.644,8163.07,0.00012,0.0,0.0
3.65,8161.574,0.00012,0.0,0.0
3.657,8163.72,0.00012,0.0,0.0
3.663,8194.371,0.00012,0.0,0.0
3.669,8192.824,0.00012,0.0,0.0
3.676,8229.79,0.00012,0.0,0.0
3.682,8254.186,0.00012,0.0,0.0
3.688,8272.036,0.00012,0.0,0.0
3.695,8254.255,0.00012,0.0,0.0
3.701,8306.534,0.00012,0.0,0.0
3.707,8288.614,0.00012,0.0,0.0
3.714,8353.264,0.00012,0.0,0.0
3.72,8326.618,0.00012,0.0,0.0
3.726,8400.641,0.00012,0.0,0.0
3.732,8401.049,0.00012,0.0,0.0
3.739,8429.945,0.00012,0.0,0.0
3.745,8446.65,0.00012,0.0,0.0
3.751,8439.399,0.00012,0.0,0.0
3.758,8476.669,0.00012,0.0,0.0
3.764,8512.254,0.00012,0.0,0.0
3.77,8515.155,0.00012,0.0,0.0
3.777,8573.114,0.00012,0.0,0.0
3.783,8579.261,0.00012,0.0,0.0
3.789,8589.504,0.00012,0.0,0.0
3.796,8640.318,0.00012,0.0,0.0
3.802,8611.022,0.00012,0.0,0.0
3.808,8674.221,0.00012,0.0,0.0
3.815,8666.972,0.00012,0.0,0.0
3.821,8694.116,0.00012,0.0,0.0
3.827,8708.516,0.00011,0.0,0.0
3.834,8656.409,0.00012,0.0,0.0
3.84,8704.983,0.00011,0.0,0.0
3.846,8709.634,0.00011,0.0,0.0
3.853,8699.533,0.00011,0.0,0.0
3.859,8715.214,0.00011,0.0,0.0
3.865,8700.002,0.00011,0.0,0.0
3.872,8701.026,0.00011,0.0,0.0
3.878,8704.211,0.00011,0.0,0.0
3.884,8663.138,0.00012,0.0,0.0
3.89,8645.586,0.00012,0.0,0.0
3.897,8654.611,0.00012,0.0,0.0
3.903,8623.3,0.00012,0.0,0.0
3.909,8613.141,0.00012,0.0,0.0
3.916,8612.014,0.00012,0.0,0.0
3.922,8600.325,0.00012,0.0,0.0
3.928,8558.905,0.00012,0.0,0.0
3.935,8570.984,0.00012,0.0,0.0
3.941,8516.796,0.00012,0.0,0.0
3.947,8547.225,0.00012,0.0,0.0
3.954,8517.624,0.00012,0.0,0.0
3.96,8540.228,0.00012,0.0,0.0
3.966,8519.024,0.00012,0.0,0.0
3.973,8472.098,0.00012,0.0,0.0
3.979,8447.693,0.00012,0.0,0.0
3.985,8441.037,0.00012,0.0,0.0
3.992,8402.971,0.00012,0.0,0.0
3.998,8377.932,0.00012,0.0,0.0
4.004,8363.053,0.00012,0.0,0.0
4.011,8378.48,0.00012,0.0,0.0
4.017,8343.294,0.00012,0.0,0.0
4.023,8347.99,0.00012,0.0,0.0
4.03,8337.357,0.00012,0.0,0.0
4.036,8295.272,0.00012,0.0,0.0
4.042,8330.551,0.00012,0.0,0.0
4.048,8300.227,0.00012,0.0,0.0
4.055,8278.16,0.00012,0.0,0.0
4.061,8287.594,0.00012,0.0,0.0
4.067,8276.188,0.00012,0.0,0.0
4.074,8287.858,0.00012,0.0,0.0
4.08,8295.475,0.00012,0.0,0.0
4.086,8296.536,0.00012,0.0,0.0
4.093,8299.324,0.00012,0.0,0.0
4.099,8279.867,0.00012,0.0,0.0
4.105,8301.189,0.00012,0.0,0.0
4.112,8325.422,0.00012,0.0,0.0
4.118,8270.202,0.00012,0.0,0.0
4.124,8305.375,0.00012,0.0,0.0
4.131,8321.678,0.00012,0.0,0.0
4.137,8327.783,0.00012,0.0,0.0
4.143,8375.697,0.00012,0.0,0.0
4.15,8345.818,0.00012,0.0,0.0
4.156,8359.297,0.00012,0.0,0.0
4.162,8385.766,0.00012,0.0,0.0
4.169,8362.296,0.00012,0.0,0.0
4.175,8417.398,0.00012,0.0,0.0
4.181,8442.415,0.00012,0.0,0.0
4.188,8414.221,0.00012,0.0,0.0
4.194,8485.24,0.00012,0.0,0.0
4.2,8469.389,0.00012,0.0,0.0
4.206,8496.192,0.00012,0.0,0.0
4.213,8536.058,0.00012,0.0,0.0
4.219,8534.641,0.00012,0.0,0.0
4.225,8563.722,0.00012,0.0,0.0
4.232,8597.009,0.00012,0.0,0.0
4.238,8595.986,0.00012,0.0,0.0
4.244,8647.388,0.00012,0.0,0.0
4.251,8624.06,0.00012,0.0,0.0
4.257,8658.686,0.00012,0.0,0.0
4.263,8766.609,0.00011,0.0,0.0
4.27,8706.205,0.00011,0.0,0.0
4.276,8831.855,0.00011,0.0,0.0
4.282,8834.575,0.00011,0.0,0.0
4.289,8799.612,0.00011,0.0,0.0
4.295,8952.727,0.00011,0.0,0.0
4.301,8909.779,0.00011,0.0,0.0
4.308,8964.368,0.00011,0.0,0.0
4.314,9007.798,0.00011,0.0,0.0
4.32,9030.875,0.00011,0.0,0.0
4.327,9091.271,0.00011,0.0,0.0
4.333,9110.747,0.00011,0.0,0.0
4.339,9139.88,0.00011,0.0,0.0
4.346,9300.322,0.00011,0.0,0.0
4.352,9203.808,0.00011,0.0,0.0
4.358,9378.504,0.00011,0.0,0.0
4.364,9416.039,0.00011,0.0,0.0
4.371,9308.416,0.00011,0.0,0.0
4.377,9700.156,0.0001,0.0,0.0
4.383,9563.228,0.0001,0.0,0.0
4.39,9721.814,0.0001,0.0,0.0
4.396,9817.346,0.0001,0.0,0.0
4.402,9759.949,0.0001,0.0,0.0
4.409,9884.138,0.0001,0.0,0.0
4.415,10033.44,0.0001,0.0,0.0
4.421,10042.863,0.0001,0.0,0.0
4.428,10401.048,0.0001,0.0,0.0
4.434,10319.27,0.0001,0.0,0.0
4.44,10378.609,0.0001,0.0,0.0
4.447,10735.353,0.00009,0.0,0.0
4.453,10569.645,0.00009,0.0,0.0
4.459,11165.908,0.00009,0.0,0.0
4.466,11231.721,0.00009,0.0,0.0
4.472,11227.259,0.00009,0.0,0.0
4.478,12001.183,0.00008,0.0,0.0
4.485,11775.982,0.00008,0.0,0.0
4.491,12435.816,0.00008,0.0,0.0
4.497,13792.563,0.00007,0.0,0.0
4.504,13412.289,0.00007,0.0,0.0
4.51,16468.196,0.00006,0.0,0.0
4.516,17755.44,0.00006,0.0,0.0
4.522,19961.444,0.00005,0.0,0.0
4.529,33950.781,0.00003,0.0,0.0
4.535,42790.678,0.00002,0.0,0.0
4.541,53509.458,0.00002,0.0,0.0
4.548,91174.777,0.00001,0.0,0.0
4.554,69614.069,0.00001,0.0,0.0
4.56,98075.065,0.00001,0.0,0.0
4.567,85102.2,0.00001,0.0,0.0
4.573,82259.212,0.00001,0.0,0.0
4.579,78374.373,0.00001,0.0,0.0
4.586,48487.777,0.00002,0.0,0.0
4.592,50611.699,0.00002,0.0,0.0
4.598,27162.84,0.00004,0.0,0.0
4.605,25200.05,0.00004,0.0,0.0
4.611,18079.198,0.00006,0.0,0.0
4.617,16381.09,0.00006,0.0,0.0
4.624,13717.728,0.00007,0.0,0.0
4.63,13911.151,0.00007,0.0,0.0
4.636,12289.022,0.00008,0.0,0.0
4.643,12299.548,0.00008,0.0,0.0
4.649,11813.627,0.00008,0.0,0.0
4.655,11349.435,0.00009,0.0,0.0
4.662,11576.415,0.00009,0.0,0.0
4.668,10995.832,0.00009,0.0,0.0
4.674,10712.243,0.00009,0.0,0.0
4.68,10949.302,0.00009,0.0,0.0
4.687,10401.195,0.0001,0.0,0.0
4.693,10493.029,0.0001,0.0,0.0
4.699,10392.001,0.0001,0.0,0.0
4.706,10065.364,0.0001,0.0,0.0
4.712,10262.241,0.0001,0.0,0.0
4.718,9963.181,0.0001,0.0,0.0
4.725,9723.459,0.0001,0.0,0.0
4.731,10006.552,0.0001,0.0,0.0
4.737,9595.203,0.0001,0.0,0.0
4.744,9657.18,0.0001,0.0,0.0
4.75,9554.75,0.0001,0.0,0.0
4.756,9429.123,0.00011,0.0,0.0
4.763,9405.581,0.00011,0.0,0.0
4.769,9263.004,0.00011,0.0,0.0
4.775,9234.623,0.00011,0.0,0.0
4.782,9232.589,0.00011,0.0,0.0
4.788,9086.221,0.00011,0.0,0.0
4.794,8986.574,0.00011,0.0,0.0
4.801,9030.393,0.00011,0.0,0.0
4.807,8818.665,0.00011,0.0,0.0
4.813,8884.767,0.00011,0.0,0.0
4.82,8804.762,0.00011,0.0,0.0
4.826,8782.631,0.00011,0.0,0.0
4.832,8828.621,0.00011,0.0,0.0
4.838,8797.201,0.00011,0.0,0.0
4.845,8851.369,0.00011,0.0,0.0
4.851,8956.001,0.00011,0.0,0.0
4.857,8946.448,0.00011,0.0,0.0
4.864,8954.361,0.00011,0.0,0.0
4.87,8860.253,0.00011,0.0,0.0
4.876,8650.122,0.00012,0.0,0.0
4.883,8609.7,0.00012,0.0,0.0
4.889,8389.637,0.00012,0.0,0.0
4.895,8311.044,0.00012,0.0,0.0
4.902,8236.868,0.00012,0.0,0.0
4.908,8137.126,0.00012,0.0,0.0
4.914,8112.148,0.00012,0.0,0.0
4.921,8041.234,0.00012,0.0,0.0
4.927,7973.755,0.00013,0.0,0.0
4.933,7977.231,0.00013,0.0,0.0
4.94,7901.342,0.00013,0.0,0.0
4.946,7880.425,0.00013,0.0,0.0
4.952,7878.317,0.00013,0.0,0.0
4.959,7795.459,0.00013,0.0,0.0
4.965,7797.042,0.00013,0.0,0.0
4.971,7718.732,0.00013,0.0,0.0
4.978,7705.422,0.00013,0.0,0.0
4.984,7695.513,0.00013,0.0,0.0
4.99,7615.838,0.00013,0.0,0.0
4.996,7597.354,0.00013,0.0,0.0
5.003,7563.289,0.00013,0.0,0.0
5.009,7493.872,0.00013,0.0,0.0
5.015,7555.052,0.00013,0.0,0.0
5.022,7457.296,0.00013,0.0,0.0
5.028,7447.105,0.00013,0.0,0.0
5.034,7449.426,0.00013,0.0,0.0
5.041,7373.731,0.00014,0.0,0.0
5.047,7367.981,0.00014,0.0,0.0
5.053,7371.507,0.00014,0.0,0.0
5.06,7324.011,0.00014,0.0,0.0
5.066,7312.044,0.00014,0.0,0.0
5.072,7271.529,0.00014,0.0,0.0
5.079,7224.029,0.00014,0.0,0.0
5.085,7246.3,0.00014,0.0,0.0
5.091,7156.1,0.00014,0.0,0.0
5.098,7187.825,0.00014,0.0,0.0
5.104,7125.971,0.00014,0.0,0.0
5.11,7113.19,0.00014,0.0,0.0
5.117,7118.982,0.00014,0.0,0.0
5.123,7077.595,0.00014,0.0,0.0
5.129,7043.155,0.00014,0.0,0.0
5.136,7052.916,0.00014,0.0,0.0
5.142,7010.752,0.00014,0.0,0.0
5.148,6995.209,0.00014,0.0,0.0
5.154,6981.708,0.00014,0.0,0.0
5.161,6942.552,0.00014,0.0,0.0
5.167,6970.999,0.00014,0.0,0.0
5.173,6901.513,0.00014,0.0,0.0
5.18,6901.029,0.00014,0.0,0.0
5.186,6890.192,0.00015,0.0,0.0
5.192,6852.955,0.00015,0.0,0.0
5.199,6841.298,0.00015,0.0,0.0
5.205,6827.757,0.00015,0.0,0.0
5.211,6814.274,0.00015,0.0,0.0
5.218,6812.629,0.00015,0.0,0.0
5.224,6783.077,0.00015,0.0,0.0
5.23,6763.069,0.00015,0.0,0.0
5.237,6770.774,0.00015,0.0,0.0
5.243,6720.301,0.00015,0.0,0.0
5.249,6720.901,0.00015,0.0,0.0
5.256,6701.931,0.00015,0.0,0.0
5.262,6677.246,0.00015,0.0,0.0
5.268,6678.199,0.00015,0.0,0.0
5.275,6630.436,0.00015,0.0,0.0
5.281,6616.219,0.00015,0.0,0.0
5.287,6639.433,0.00015,0.0,0.0
5.294,6588.328,0.00015,0.0,0.0
5.3,6622.624,0.00015,0.0,0.0
5.306,6579.453,0.00015,0.0,0.0
5.312,6565.06,0.00015,0.0,0.0
5.319,6569.658,0.00015,0.0,0.0
5.325,6540.116,0.00015,0.0,0.0
5.331,6534.435,0.00015,0.0,0.0
5.338,6519.891,0.00015,0.0,0.0
5.344,6519.93,0.00015,0.0,0.0
5.35,6512.378,0.00015,0.0,0.0
5.357,6493.487,0.00015,0.0,0.0
5.363,6471.348,0.00015,0.0,0.0
5.369,6513.465,0.00015,0.0,0.0
5.376,6449.8,0.00016,0.0,0.0
5.382,6435.429,0.00016,0.0,0.0
5.388,6439.241,0.00016,0.0,0.0
5.395,6418.344,0.00016,0.0,0.0
5.401,6427.902,0.00016,0.0,0.0
5.407,6424.284,0.00016,0.0,0.0
5.414,6393.652,0.00016,0.0,0.0
5.42,6417.526,0.00016,0.0,0.0
5.426,6394.405,0.00016,0.0,0.0
5.433,6375.024,0.00016,0.0,0.0
5.439,6377.024,0.00016,0.0,0.0
5.445,6341.869,0.00016,0.0,0.0
5.452,6368.944,0.00016,0.0,0.0
5.458,6315.844,0.00016,0.0,0.0
5.464,6343.831,0.00016,0.0,0.0
5.47,6355.789,0.00016,0.0,0.0
5.477,6325.946,0.00016,0.0,0.0
5.483,6341.629,0.00016,0.0,0.0
5.489,6308.871,0.00016,0.0,0.0
5.496,6310.343,0.00016,0.0,0.0
5.502,6314.659,0.00016,0.0,0.0
5.508,6272.521,0.00016,0.0,0.0
5.515,6288.909,0.00016,0.0,0.0
5.521,6277.639,0.00016,0.0,0.0
5.527,6267.92,0.00016,0.0,0.0
5.534,6284.703,0.00016,0.0,0.0
5.54,6263.915,0.00016,0.0,0.0
5.546,6273.044,0.00016,0.0,0.0
5.553,6281.368,0.00016,0.0,0.0
5.559,6260.588,0.00016,0.0,0.0
5.565,6236.089,0.00016,0.0,0.0
5.572,6257.931,0.00016,0.0,0.0
5.578,6235.645,0.00016,0.0,0.0
5.584,6284.048,0.00016,0.0,0.0
5.591,6241.235,0.00016,0.0,0.0
5.597,6255.338,0.00016,0.0,0.0
5.603,6238.466,0.00016,0.0,0.0
5.61,6237.597,0.00016,0.0,0.0
5.616,6249.838,0.00016,0.0,0.0
5.622,6239.413,0.00016,0.0,0.0
5.628,6226.996,0.00016,0.0,0.0
5.635,6247.374,0.00016,0.0,0.0
5.641,6238.783,0.00016,0.0,0.0
5.647,6232.744,0.00016,0.0,0.0
5.654,6266.673,0.00016,0.0,0.0
5.66,6217.5,0.00016,0.0,0.0
5.666,6222.92,0.00016,0.0,0.0
5.673,6234.023,0.00016,0.0,0.0
5.679,6200.216,0.00016,0.0,0.0
5.685,6223.863,0.00016,0.0,0.0
5.692,6209.655,0.00016,0.0,0.0
5.698,6200.05,0.00016,0.0,0.0
5.704,6236.072,0.00016,0.0,0.0
5.711,6203.545,0.00016,0.0,0.0
5.717,6217.551,0.00016,0.0,0.0
5.723,6225.69,0.00016,0.0,0.0
5.73,6205.066,0.00016,0.0,0.0
5.736,6245.338,0.00016,0.0,0.0
5.742,6222.363,0.00016,0.0,0.0
5.749,6231.399,0.00016,0.0,0.0
5.755,6243.966,0.00016,0.0,0.0
5.761,6230.348,0.00016,0.0,0.0
5.768,6239.882,0.00016,0.0,0.0
5.774,6254.556,0.00016,0.0,0.0
5.78,6255.16,0.00016,0.0,0.0
5.786,6268.878,0.00016,0.0,0.0
5.793,6291.375,0.00016,0.0,0.0
5.799,6271.458,0.00016,0.0,0.0
5.805,6311.112,0.00016,0.0,0.0
5.812,6300.819,0.00016,0.0,0.0
5.818,6336.363,0.00016,0.0,0.0
5.824,6358.279,0.00016,0.0,0.0
5.831,6389.621,0.00016,0.0,0.0
5.837,6435.032,0.00016,0.0,0.0
5.843,6491.782,0.00015,0.0,0.0
5.85,6642.786,0.00015,0.0,0.0
5.856,6797.728,0.00015,0.0,0.0
5.862,7084.906,0.00014,0.0,0.0
5.869,7398.676,0.00014,0.0,0.0
5.875,7719.026,0.00013,0.0,0.0
5.881,7924.8,0.00013,0.0,0.0
5.888,7951.523,0.00013,0.0,0.0
5.894,7723.492,0.00013,0.0,0.0
5.9,7450.819,0.00013,0.0,0.0
5.907,7098.106,0.00014,0.0,0.0
5.913,6787.539,0.00015,0.0,0.0
5.919,6602.255,0.00015,0.0,0.0
5.926,6460.676,0.00015,0.0,0.0
5.932,6361.645,0.00016,0.0,0.0
5.938,6395.17,0.00016,0.0,0.0
5.944,6334.017,0.00016,0.0,0.0
5.951,6332.702,0.00016,0.0,0.0
5.957,6449.054,0.00016,0.0,0.0
5.963,6673.442,0.00015,0.0,0.0
5.97,6315.297,0.00016,0.0,0.0
5.976,6272.685,0.00016,0.0,0.0
5.982,6198.604,0.00016,0.0,0.0
5.989,6166.19,0.00016,0.0,0.0
5.995,6133.971,0.00016,0.0,0.0
6.001,6101.805,0.00016,0.0,0.0
6.008,6130.921,0.00016,0.0,0.0
6.014,6101.544,0.00016,0.0,0.0
6.02,6122.338,0.00016,0.0,0.0
6.027,6073.925,0.00016,0.0,0.0
6.033,6099.303,0.00016,0.0,0.0
6.039,6086.309,0.00016,0.0,0.0
6.046,6064.764,0.00016,0.0,0.0
6.052,6114.873,0.00016,0.0,0.0
6.058,6055.948,0.00017,0.0,0.0
6.065,6049.209,0.00017,0.0,0.0
6.071,6050.366,0.00017,0.0,0.0
6.077,6071.85,0.00016,0.0,0.0
6.084,6016.302,0.00017,0.0,0.0
6.09,6044.644,0.00017,0.0,0.0
6.096,5998.477,0.00017,0.0,0.0
6.102,6067.531,0.00016,0.0,0.0
6.109,6051.693,0.00017,0.0,0.0
6.115,6030.129,0.00017,0.0,0.0
6.121,6014.739,0.00017,0.0,0.0
6.128,6014.919,0.00017,0.0,0.0
6.134,6038.914,0.00017,0.0,0.0
6.14,6015.687,0.00017,0.0,0.0
6.147,6048.746,0.00017,0.0,0.0
6.153,6014.287,0.00017,0.0,0.0
6.159,6031.689,0.00017,0.0,0.0
6.166,6012.026,0.00017,0.0,0.0
6.172,6019.836,0.00017,0.0,0.0
6.178,6023.088,0.00017,0.0,0.0
6.185,6005.537,0.00017,0.0,0.0
6.191,6023.169,0.00017,0.0,0.0
6.197,6051.714,0.00017,0.0,0.0
6.204,6017.143,0.00017,0.0,0.0
6.21,6058.448,0.00017,0.0,0.0
6.216,6038.067,0.00017,0.0,0.0
6.223,6069.293,0.00016,0.0,0.0
6.229,6071.722,0.00016,0.0,0.0
6.235,6072.344,0.00016,0.0,0.0
6.242,6069.069,0.00016,0.0,0.0
6.248,6094.165,0.00016,0.0,0.0
6.254,6055.497,0.00017,0.0,0.0
6.26,6073.632,0.00016,0.0,0.0
6.267,6093.768,0.00016,0.0,0.0
6.273,6073.649,0.00016,0.0,0.0
6.279,6110.097,0.00016,0.0,0.0
6.286,6074.468,0.00016,0.0,0.0
6.292,6121.188,0.00016,0.0,0.0
6.298,6113.079,0.00016,0.0,0.0
6.305,6139.578,0.00016,0.0,0.0
6.311,6156.431,0.00016,0.0,0.0
6.317,6120.12,0.00016,0.0,0.0
6.324,6203.686,0.00016,0.0,0.0
6.33,6179.273,0.00016,0.0,0.0
6.336,6204.271,0.00016,0.0,0.0
6.343,6222.16,0.00016,0.0,0.0
6.349,6270.185,0.00016,0.0,0.0
6.355,6233.309,0.00016,0.0,0.0
6.362,6296.357,0.00016,0.0,0.0
6.368,6317.586,0.00016,0.0,0.0
6.374,6342.125,0.00016,0.0,0.0
6.381,6372.811,0.00016,0.0,0.0
6.387,6474.97,0.00015,0.0,0.0
6.393,6471.405,0.00015,0.0,0.0
6.4,6640.785,0.00015,0.0,0.0
6.406,6776.404,0.00015,0.0,0.0
6.412,7112.601,0.00014,0.0,0.0
6.418,7569.928,0.00013,0.0,0.0
6.425,8731.466,0.00011,0.0,0.0
6.431,11501.575,0.00009,0.0,0.0
6.437,14040.912,0.00007,0.0,0.0
6.444,14898.994,0.00007,0.0,0.0
6.45,21601.972,0.00005,0.0,0.0
6.456,17365.04,0.00006,0.0,0.0
6.463,20161.317,0.00005,0.0,0.0
6.469,20628.158,0.00005,0.0,0.0
6.475,12106.698,0.00008,0.0,0.0
6.482,11133.226,0.00009,0.0,0.0
6.488,8669.283,0.00012,0.0,0.0
6.494,7448.775,0.00013,0.0,0.0
6.501,7421.727,0.00013,0.0,0.0
6.507,6961.481,0.00014,0.0,0.0
6.513,6827.937,0.00015,0.0,0.0
6.52,6810.487,0.00015,0.0,0.0
6.526,6790.445,0.00015,0.0,0.0
6.532,6810.308,0.00015,0.0,0.0
6.539,6948.782,0.00014,0.0,0.0
6.545,7072.02,0.00014,0.0,0.0
6.551,7271.489,0.00014,0.0,0.0
6.558,7758.062,0.00013,0.0,0.0
6.564,8341.296,0.00012,0.0,0.0
6.57,9349.427,0.00011,0.0,0.0
6.576,11741.37,0.00009,0.0,0.0
6.583,14636.646,0.00007,0.0,0.0
6.589,22649.608,0.00004,0.0,0.0
6.595,37020.465,0.00003,0.0,0.0
6.602,54453.038,0.00002,0.0,0.0
6.608,85559.834,0.00001,0.0,0.0
6.614,100434.415,0.00001,0.0,0.0
6.621,116876.739,0.00001,0.0,0.0
6.627,94391.141,0.00001,0.0,0.0
6.633,74353.556,0.00001,0.0,0.0
6.64,50232.355,0.00002,0.0,0.0
6.646,31585.53,0.00003,0.0,0.0
6.652,19817.969,0.00005,0.0,0.0
6.659,14574.147,0.00007,0.0,0.0
6.665,10722.046,0.00009,0.0,0.0
6.671,9168.851,0.00011,0.0,0.0
6.678,8073.455,0.00012,0.0,0.0
6.684,7406.442,0.00014,0.0,0.0
6.69,7073.297,0.00014,0.0,0.0
6.697,6799.218,0.00015,0.0,0.0
6.703,6597.371,0.00015,0.0,0.0
6.709,6484.936,0.00015,0.0,0.0
6.716,6401.053,0.00016,0.0,0.0
6.722,6326.902,0.00016,0.0,0.0
6.728,6275.015,0.00016,0.0,0.0
6.734,6210.416,0.00016,0.0,0.0
6.741,6224.119,0.00016,0.0,0.0
6.747,6156.393,0.00016,0.0,0.0
6.753,6144.034,0.00016,0.0,0.0
6.76,6117.204,0.00016,0.0,0.0
6.766,6112.717,0.00016,0.0,0.0
6.772,6112.611,0.00016,0.0,0.0
6.779,6116.097,0.00016,0.0,0.0
6.785,6107.415,0.00016,0.0,0.0
6.791,6079.336,0.00016,0.0,0.0
6.798,6115.501,0.00016,0.0,0.0
6.804,6113.854,0.00016,0.0,0.0
6.81,6134.591,0.00016,0.0,0.0
6.817,6116.696,0.00016,0.0,0.0
6.823,6112.596,0.00016,0.0,0.0
6.829,6076.284,0.00016,0.0,0.0
6.836,6079.339,0.00016,0.0,0.0
6.842,6031.619,0.00017,0.0,0.0
6.848,6032.167,0.00017,0.0,0.0
6.855,5998.027,0.00017,0.0,0.0
6.861,6010.321,0.00017,0.0,0.0
6.867,5992.519,0.00017,0.0,0.0
6.874,5973.831,0.00017,0.0,0.0
6.88,5996.486,0.00017,0.0,0.0
6.886,5978.13,0.00017,0.0,0.0
6.892,5955.574,0.00017,0.0,0.0
6.899,5970.928,0.00017,0.0,0.0
6.905,5955.375,0.00017,0.0,0.0
6.911,5957.442,0.00017,0.0,0.0
6.918,5950.213,0.00017,0.0,0.0
6.924,5924.883,0.00017,0.0,0.0
6.93,5935.498,0.00017,0.0,0.0
6.937,5941.826,0.00017,0.0,0.0
6.943,5943.452,0.00017,0.0,0.0
6.949,5943.459,0.00017,0.0,0.0
6.956,5922.163,0.00017,0.0,0.0
6.962,5941.683,0.00017,0.0,0.0
6.968,5935.197,0.00017,0.0,0.0
6.975,5957.951,0.00017,0.0,0.0
6.981,5956.312,0.00017,0.0,0.0
6.987,5958.979,0.00017,0.0,0.0
6.994,5946.044,0.00017,0.0,0.0
7.0,5950.144,0.00017,0.0,0.0
7.006,5938.953,0.00017,0.0,0.0
7.013,5926.762,0.00017,0.0,0.0
7.019,5936.438,0.00017,0.0,0.0
7.025,5932.607,0.00017,0.0,0.0
7.032,5914.745,0.00017,0.0,0.0
7.038,5927.795,0.00017,0.0,0.0
7.044,5915.136,0.00017,0.0,0.0
7.05,5897.22,0.00017,0.0,0.0
7.057,5930.338,0.00017,0.0,0.0
7.063,5915.156,0.00017,0.0,0.0
7.069,5906.268,0.00017,0.0,0.0
7.076,5895.525,0.00017,0.0,0.0
7.082,5898.704,0.00017,0.0,0.0
7.088,5895.265,0.00017,0.0,0.0
7.095,5887.896,0.00017,0.0,0.0
7.101,5898.148,0.00017,0.0,0.0
7.107,5873.013,0.00017,0.0,0.0
7.114,5883.883,0.00017,0.0,0.0
7.12,5867.163,0.00017,0.0,0.0
7.126,5873.964,0.00017,0.0,0.0
7.133,5850.335,0.00017,0.0,0.0
7.139,5855.318,0.00017,0.0,0.0
7.145,5857.001,0.00017,0.0,0.0
7.152,5851.104,0.00017,0.0,0.0
7.158,5833.924,0.00017,0.0,0.0
7.164,5822.528,0.00017,0.0,0.0
7.171,5832.14,0.00017,0.0,0.0
7.177,5819.401,0.00017,0.0,0.0
7.183,5820.153,0.00017,0.0,0.0
7.19,5809.093,0.00017,0.0,0.0
7.196,5802.751,0.00017,0.0,0.0
7.202,5800.215,0.00017,0.0,0.0
7.208,5784.298,0.00017,0.0,0.0
7.215,5770.212,0.00017,0.0,0.0
7.221,5771.442,0.00017,0.0,0.0
7.227,5759.992,0.00017,0.0,0.0
7.234,5751.253,0.00017,0.0,0.0
7.24,5747.365,0.00017,0.0,0.0
7.246,5767.436,0.00017,0.0,0.0
7.253,5736.262,0.00017,0.0,0.0
7.259,5738.169,0.00017,0.0,0.0
7.265,5737.368,0.00017,0.0,0.0
7.272,5736.268,0.00017,0.0,0.0
7.278,5782.071,0.00017,0.0,0.0
7.284,5792.082,0.00017,0.0,0.0
7.291,5785.506,0.00017,0.0,0.0
7.297,5801.94,0.00017,0.0,0.0
7.303,5787.884,0.00017,0.0,0.0
7.31,5794.162,0.00017,0.0,0.0
7.316,5755.637,0.00017,0.0,0.0
7.322,5730.516,0.00017,0.0,0.0
7.329,5721.252,0.00017,0.0,0.0
7.335,5696.994,0.00018,0.0,0.0
7.341,5688.22,0.00018,0.0,0.0
7.348,5676.614,0.00018,0.0,0.0
7.354,5665.97,0.00018,0.0,0.0
7.36,5673.566,0.00018,0.0,0.0
7.366,5659.387,0.00018,0.0,0.0
7.373,5652.054,0.00018,0.0,0.0
7.379,5676.684,0.00018,0.0,0.0
7.385,5656.636,0.00018,0.0,0.0
7.392,5643.698,0.00018,0.0,0.0
7.398,5656.037,0.00018,0.0,0.0
7.404,5655.148,0.00018,0.0,0.0
7.411,5661.034,0.00018,0.0,0.0
7.417,5678.418,0.00018,0.0,0.0
7.423,5676.262,0.00018,0.0,0.0
7.43,5675.515,0.00018,0.0,0.0
7.436,5690.328,0.00018,0.0,0.0
7.442,5677.334,0.00018,0.0,0.0
7.449,5694.081,0.00018,0.0,0.0
7.455,5689.321,0.00018,0.0,0.0
7.461,5709.273,0.00018,0.0,0.0
7.468,5724.561,0.00017,0.0,0.0
7.474,5719.987,0.00017,0.0,0.0
7.48,5728.615,0.00017,0.0,0.0
7.487,5744.123,0.00017,0.0,0.0
7.493,5743.351,0.00017,0.0,0.0
7.499,5766.497,0.00017,0.0,0.0
7.506,5757.394,0.00017,0.0,0.0
7.512,5783.414,0.00017,0.0,0.0
7.518,5811.993,0.00017,0.0,0.0
7.524,5832.524,0.00017,0.0,0.0
7.531,5842.058,0.00017,0.0,0.0
7.537,5875.333,0.00017,0.0,0.0
7.543,5912.979,0.00017,0.0,0.0
7.55,5955.314,0.00017,0.0,0.0
7.556,5999.379,0.00017,0.0,0.0
7.562,6112.914,0.00016,0.0,0.0
7.569,6208.964,0.00016,0.0,0.0
7.575,6360.822,0.00016,0.0,0.0
7.581,6590.711,0.00015,0.0,0.0
7.588,6933.006,0.00014,0.0,0.0
7.594,7486.052,0.00013,0.0,0.0
7.6,8640.666,0.00012,0.0,0.0
7.607,10260.35,0.0001,0.0,0.0
7.613,13727.93,0.00007,0.0,0.0
7.619,18834.944,0.00005,0.0,0.0
7.626,28195.384,0.00004,0.0,0.0
7.632,38276.339,0.00003,0.0,0.0
7.638,46752.053,0.00002,0.0,0.0
7.645,52877.03,0.00002,0.0,0.0
7.651,48747.68,0.00002,0.0,0.0
7.657,43670.906,0.00002,0.0,0.0
7.664,31255.089,0.00003,0.0,0.0
7.67,22393.161,0.00004,0.0,0.0
7.676,14971.051,0.00007,0.0,0.0
7.682,11547.375,0.00009,0.0,0.0
7.689,9105.961,0.00011,0.0,0.0
7.695,8019.716,0.00012,0.0,0.0
7.701,7311.061,0.00014,0.0,0.0
7.708,6849.822,0.00015,0.0,0.0
7.714,6638.888,0.00015,0.0,0.0
7.72,6470.074,0.00015,0.0,0.0
7.727,6430.916,0.00016,0.0,0.0
7.733,6346.879,0.00016,0.0,0.0
7.739,6278.541,0.00016,0.0,0.0
7.746,6286.391,0.00016,0.0,0.0
7.752,6274.91,0.00016,0.0,0.0
7.758,6254.47,0.00016,0.0,0.0
7.765,6295.812,0.00016,0.0,0.0
7.771,6309.944,0.00016,0.0,0.0
7.777,6314.853,0.00016,0.0,0.0
7.784,6323.371,0.00016,0.0,0.0
7.79,6320.786,0.00016,0.0,0.0
7.796,6347.464,0.00016,0.0,0.0
7.803,6375.878,0.00016,0.0,0.0
7.809,6392.675,0.00016,0.0,0.0
7.815,6462.216,0.00015,0.0,0.0
7.822,6459.337,0.00015,0.0,0.0
7.828,6549.843,0.00015,0.0,0.0
7.834,6564.048,0.00015,0.0,0.0
7.84,6606.475,0.00015,0.0,0.0
7.847,6716.897,0.00015,0.0,0.0
7.853,6775.892,0.00015,0.0,0.0
7.859,6910.962,0.00014,0.0,0.0
7.866,7087.876,0.00014,0.0,0.0
7.872,7470.761,0.00013,0.0,0.0
7.878,8066.394,0.00012,0.0,0.0
7.885,9323.508,0.00011,0.0,0.0
7.891,10988.013,0.00009,0.0,0.0
7.897,14799.694,0.00007,0.0,0.0
7.904,16521.943,0.00006,0.0,0.0
7.91,16832.688,0.00006,0.0,0.0
7.916,18214.43,0.00005,0.0,0.0
7.923,14794.307,0.00007,0.0,0.0
7.929,11738.477,0.00009,0.0,0.0
7.935,9367.489,0.00011,0.0,0.0
7.942,8588.291,0.00012,0.0,0.0
7.948,7732.341,0.00013,0.0,0.0
7.954,7332.518,0.00014,0.0,0.0
7.961,7161.268,0.00014,0.0,0.0
7.967,6994.793,0.00014,0.0,0.0
7.973,6872.092,0.00015,0.0,0.0
7.98,6863.575,0.00015,0.0,0.0
7.986,6748.862,0.00015,0.0,0.0
7.992,6727.667,0.00015,0.0,0.0
7.998,6715.955,0.00015,0.0,0.0
8.005,6662.7,0.00015,0.0,0.0
8.011,6619.925,0.00015,0.0,0.0
8.017,6650.539,0.00015,0.0,0.0
8.024,6610.073,0.00015,0.0,0.0
8.03,6629.425,0.00015,0.0,0.0
8.036,6629.067,0.00015,0.0,0.0
8.043,6586.901,0.00015,0.0,0.0
8.049,6594.053,0.00015,0.0,0.0
8.055,6554.471,0.00015,0.0,0.0
8.062,6595.329,0.00015,0.0,0.0
8.068,6571.081,0.00015,0.0,0.0
8.074,6582.187,0.00015,0.0,0.0
8.081,6590.548,0.00015,0.0,0.0
8.087,6578.111,0.00015,0.0,0.0
8.093,6577.023,0.00015,0.0,0.0
8.1,6577.807,0.00015,0.0,0.0
8.106,6578.56,0.00015,0.0,0.0
8.112,6612.596,0.00015,0.0,0.0
8.119,6652.141,0.00015,0.0,0.0
8.125,6701.568,0.00015,0.0,0.0
8.131,6750.852,0.00015,0.0,0.0
8.138,6781.589,0.00015,0.0,0.0
8.144,6827.47,0.00015,0.0,0.0
8.15,6850.904,0.00015,0.0,0.0
8.156,6796.774,0.00015,0.0,0.0
8.163,6747.95,0.00015,0.0,0.0
8.169,6651.368,0.00015,0.0,0.0
8.175,6605.027,0.00015,0.0,0.0
8.182,6551.927,0.00015,0.0,0.0
8.188,6514.414,0.00015,0.0,0.0
8.194,6479.283,0.00015,0.0,0.0
8.201,6458.729,0.00015,0.0,0.0
8.207,6436.451,0.00016,0.0,0.0
8.213,6452.739,0.00015,0.0,0.0
8.22,6402.584,0.00016,0.0,0.0
8.226,6412.707,0.00016,0.0,0.0
8.232,6403.156,0.00016,0.0,0.0
8.239,6389.84,0.00016,0.0,0.0
8.245,6391.56,0.00016,0.0,0.0
8.251,6359.512,0.00016,0.0,0.0
8.258,6371.306,0.00016,0.0,0.0
8.264,6335.023,0.00016,0.0,0.0
8.27,6331.461,0.00016,0.0,0.0
8.277,6343.258,0.00016,0.0,0.0
8.283,6341.489,0.00016,0.0,0.0
8.289,6311.662,0.00016,0.0,0.0
8.296,6308.8,0.00016,0.0,0.0
8.302,6293.484,0.00016,0.0,0.0
8.308,6295.274,0.00016,0.0,0.0
8.314,6285.077,0.00016,0.0,0.0
8.321,6289.58,0.00016,0.0,0.0
8.327,6268.274,0.00016,0.0,0.0
8.333,6306.222,0.00016,0.0,0.0
8.34,6307.398,0.00016,0.0,0.0
8.346,6309.738,0.00016,0.0,0.0
8.352,6351.855,0.00016,0.0,0.0
8.359,6381.917,0.00016,0.0,0.0
8.365,6443.217,0.00016,0.0,0.0
8.371,6469.565,0.00015,0.0,0.0
8.378,6490.668,0.00015,0.0,0.0
8.384,6493.177,0.00015,0.0,0.0
8.39,6455.33,0.00015,0.0,0.0
8.397,6419.429,0.00016,0.0,0.0
8.403,6339.351,0.00016,0.0,0.0
8.409,6319.363,0.00016,0.0,0.0
8.416,6277.387,0.00016,0.0,0.0
8.422,6237.238,0.00016,0.0,0.0
8.428,6188.215,0.00016,0.0,0.0
8.435,6176.681,0.00016,0.0,0.0
8.441,6166.635,0.00016,0.0,0.0
8.447,6156.933,0.00016,0.0,0.0
8.454,6146.383,0.00016,0.0,0.0
8.46,6140.412,0.00016,0.0,0.0
8.466,6138.875,0.00016,0.0,0.0
8.472,6136.976,0.00016,0.0,0.0
8.479,6121.597,0.00016,0.0,0.0
8.485,6136.052,0.00016,0.0,0.0
8.491,6141.169,0.00016,0.0,0.0
8.498,6159.703,0.00016,0.0,0.0
8.504,6141.034,0.00016,0.0,0.0
8.51,6147.972,0.00016,0.0,0.0
8.517,6115.573,0.00016,0.0,0.0
8.523,6126.499,0.00016,0.0,0.0
8.529,6111.346,0.00016,0.0,0.0
8.536,6102.728,0.00016,0.0,0.0
8.542,6103.369,0.00016,0.0,0.0
8.548,6099.541,0.00016,0.0,0.0
8.555,6079.306,0.00016,0.0,0.0
8.561,6070.857,0.00016,0.0,0.0
8.567,6069.361,0.00016,0.0,0.0
8.574,6058.986,0.00017,0.0,0.0
8.58,6063.15,0.00016,0.0,0.0
8.586,6074.055,0.00016,0.0,0.0
8.593,6056.002,0.00017,0.0,0.0
8.599,6054.982,0.00017,0.0,0.0
8.605,6059.181,0.00017,0.0,0.0
8.612,6059.507,0.00017,0.0,0.0
8.618,6045.587,0.00017,0.0,0.0
8.624,6045.196,0.00017,0.0,0.0
8.63,6049.348,0.00017,0.0,0.0
8.637,6038.139,0.00017,0.0,0.0
8.643,6054.33,0.00017,0.0,0.0
8.649,6038.7,0.00017,0.0,0.0
8.656,6030.064,0.00017,0.0,0.0
8.662,6042.971,0.00017,0.0,0.0
8.668,6056.269,0.00017,0.0,0.0
8.675,6036.95,0.00017,0.0,0.0
8.681,6031.897,0.00017,0.0,0.0
8.687,6030.806,0.00017,0.0,0.0
8.694,6054.197,0.00017,0.0,0.0
8.7,6021.844,0.00017,0.0,0.0
8.706,6028.489,0.00017,0.0,0.0
8.713,6016.326,0.00017,0.0,0.0
8.719,6024.765,0.00017,0.0,0.0
8.725,6040.76,0.00017,0.0,0.0
8.732,6041.309,0.00017,0.0,0.0
8.738,6021.125,0.00017,0.0,0.0
8.744,6032.823,0.00017,0.0,0.0
8.751,6029.982,0.00017,0.0,0.0
8.757,6038.586,0.00017,0.0,0.0
8.763,6028.772,0.00017,0.0,0.0
8.77,6029.614,0.00017,0.0,0.0
8.776,6033.436,0.00017,0.0,0.0
8.782,6036.61,0.00017,0.0,0.0
8.788,6027.64,0.00017,0.0,0.0
8.795,6024.005,0.00017,0.0,0.0
8.801,6024.224,0.00017,0.0,0.0
8.807,6051.78,0.00017,0.0,0.0
8.814,6033.759,0.00017,0.0,0.0
8.82,6013.506,0.00017,0.0,0.0
8.826,6041.126,0.00017,0.0,0.0
8.833,6028.983,0.00017,0.0,0.0
8.839,6030.625,0.00017,0.0,0.0
8.845,6032.663,0.00017,0.0,0.0
8.852,6038.692,0.00017,0.0,0.0
8.858,6034.909,0.00017,0.0,0.0
8.864,6045.296,0.00017,0.0,0.0
8.871,6060.417,0.00017,0.0,0.0
8.877,6051.833,0.00017,0.0,0.0
8.883,6052.197,0.00017,0.0,0.0
8.89,6066.89,0.00016,0.0,0.0
8.896,6064.094,0.00016,0.0,0.0
8.902,6062.305,0.00016,0.0,0.0
8.909,6064.983,0.00016,0.0,0.0
8.915,6064.767,0.00016,0.0,0.0
8.921,6080.863,0.00016,0.0,0.0
8.928,6066.897,0.00016,0.0,0.0
8.934,6065.729,0.00016,0.0,0.0
8.94,6093.582,0.00016,0.0,0.0
8.946,6074.574,0.00016,0.0,0.0
8.953,6101.309,0.00016,0.0,0.0
8.959,6099.772,0.00016,0.0,0.0
8.965,6096.478,0.00016,0.0,0.0
8.972,6116.653,0.00016,0.0,0.0
8.978,6117.262,0.00016,0.0,0.0
8.984,6099.145,0.00016,0.0,0.0
8.991,6131.579,0.00016,0.0,0.0
8.997,6138.323,0.00016,0.0,0.0
9.003,6139.175,0.00016,0.0,0.0
9.01,6136.427,0.00016,0.0,0.0
9.016,6150.213,0.00016,0.0,0.0
9.022,6210.834,0.00016,0.0,0.0
9.029,6172.889,0.00016,0.0,0.0
9.035,6206.469,0.00016,0.0,0.0
9.041,6223.34,0.00016,0.0,0.0
9.048,6197.403,0.00016,0.0,0.0
9.054,6257.879,0.00016,0.0,0.0
9.06,6233.596,0.00016,0.0,0.0
9.067,6241.875,0.00016,0.0,0.0
9.073,6335.646,0.00016,0.0,0.0
9.079,6298.628,0.00016,0.0,0.0
9.086,6369.39,0.00016,0.0,0.0
9.092,6475.939,0.00015,0.0,0.0
9.098,6461.409,0.00015,0.0,0.0
9.104,6808.671,0.00015,0.0,0.0
9.111,6897.426,0.00014,0.0,0.0
9.117,7990.626,0.00013,0.0,0.0
9.123,7990.63,0.00013,0.0,0.0
9.13,10124.503,0.0001,0.0,0.0
9.136,10032.183,0.0001,0.0,0.0
9.142,10969.026,0.00009,0.0,0.0
9.149,13346.788,0.00007,0.0,0.0
9.155,9287.12,0.00011,0.0,0.0
9.161,7814.859,0.00013,0.0,0.0
9.168,9443.618,0.00011,0.0,0.0
9.174,6760.16,0.00015,0.0,0.0
9.18,6711.836,0.00015,0.0,0.0
9.187,6649.775,0.00015,0.0,0.0
9.193,6344.86,0.00016,0.0,0.0
9.199,6374.226,0.00016,0.0,0.0
9.206,6311.796,0.00016,0.0,0.0
9.212,6233.911,0.00016,0.0,0.0
9.218,6274.349,0.00016,0.0,0.0
9.225,6203.56,0.00016,0.0,0.0
9.231,6176.878,0.00016,0.0,0.0
9.237,6199.784,0.00016,0.0,0.0
9.244,6157.692,0.00016,0.0,0.0
9.25,6143.495,0.00016,0.0,0.0
9.256,6120.753,0.00016,0.0,0.0
9.262,6073.944,0.00016,0.0,0.0
9.269,6114.731,0.00016,0.0,0.0
9.275,6052.749,0.00017,0.0,0.0
9.281,6048.065,0.00017,0.0,0.0
9.288,6061.448,0.00016,0.0,0.0
9.294,6022.028,0.00017,0.0,0.0
9.3,6010.961,0.00017,0.0,0.0
9.307,6008.125,0.00017,0.0,0.0
9.313,5966.701,0.00017,0.0,0.0
9.319,5972.669,0.00017,0.0,0.0
9.326,5938.827,0.00017,0.0,0.0
9.332,5925.182,0.00017,0.0,0.0
9.338,5923.265,0.00017,0.0,0.0
9.345,5892.468,0.00017,0.0,0.0
9.351,5905.062,0.00017,0.0,0.0
9.357,5874.159,0.00017,0.0,0.0
9.364,5857.083,0.00017,0.0,0.0
9.37,5838.669,0.00017,0.0,0.0
9.376,5829.234,0.00017,0.0,0.0
9.383,5818.656,0.00017,0.0,0.0
9.389,5790.498,0.00017,0.0,0.0
9.395,5784.817,0.00017,0.0,0.0
9.402,5780.263,0.00017,0.0,0.0
9.408,5785.56,0.00017,0.0,0.0
9.414,5760.741,0.00017,0.0,0.0
9.42,5757.802,0.00017,0.0,0.0
9.427,5743.301,0.00017,0.0,0.0
9.433,5738.072,0.00017,0.0,0.0
9.439,5726.563,0.00017,0.0,0.0
9.446,5710.049,0.00018,0.0,0.0
9.452,5706.669,0.00018,0.0,0.0
9.458,5721.105,0.00017,0.0,0.0
9.465,5722.269,0.00017,0.0,0.0
9.471,5715.297,0.00017,0.0,0.0
9.477,5732.995,0.00017,0.0,0.0
9.484,5741.171,0.00017,0.0,0.0
9.49,5733.59,0.00017,0.0,0.0
9.496,5737.581,0.00017,0.0,0.0
9.503,5736.442,0.00017,0.0,0.0
9.509,5695.084,0.00018,0.0,0.0
9.515,5677.177,0.00018,0.0,0.0
9.522,5671.263,0.00018,0.0,0.0
9.528,5614.873,0.00018,0.0,0.0
9.534,5607.802,0.00018,0.0,0.0
9.541,5591.099,0.00018,0.0,0.0
9.547,5573.383,0.00018,0.0,0.0
9.553,5551.735,0.00018,0.0,0.0
9.56,5537.926,0.00018,0.0,0.0
9.566,5535.171,0.00018,0.0,0.0
9.572,5535.77,0.00018,0.0,0.0
9.578,5526.71,0.00018,0.0,0.0
9.585,5507.139,0.00018,0.0,0.0
9.591,5496.467,0.00018,0.0,0.0
9.597,5494.963,0.00018,0.0,0.0
9.604,5494.024,0.00018,0.0,0.0
9.61,5488.861,0.00018,0.0,0.0
9.616,5481.163,0.00018,0.0,0.0
9.623,5485.406,0.00018,0.0,0.0
9.629,5466.541,0.00018,0.0,0.0
9.635,5463.915,0.00018,0.0,0.0
9.642,5454.119,0.00018,0.0,0.0
9.648,5452.063,0.00018,0.0,0.0
9.654,5474.973,0.00018,0.0,0.0
9.661,5439.562,0.00018,0.0,0.0
9.667,5452.376,0.00018,0.0,0.0
9.673,5439.127,0.00018,0.0,0.0
9.68,5434.221,0.00018,0.0,0.0
9.686,5436.892,0.00018,0.0,0.0
9.692,5412.961,0.00018,0.0,0.0
9.699,5421.448,0.00018,0.0,0.0
9.705,5439.975,0.00018,0.0,0.0
9.711,5423.03,0.00018,0.0,0.0
9.718,5423.877,0.00018,0.0,0.0
9.724,5420.178,0.00018,0.0,0.0
9.73,5417.532,0.00018,0.0,0.0
9.736,5407.575,0.00018,0.0,0.0
9.743,5424.035,0.00018,0.0,0.0
9.749,5400.071,0.00019,0.0,0.0
9.755,5406.498,0.00018,0.0,0.0
9.762,5412.106,0.00018,0.0,0.0
9.768,5423.207,0.00018,0.0,0.0
9.774,5408.97,0.00018,0.0,0.0
9.781,5401.388,0.00019,0.0,0.0
9.787,5420.337,0.00018,0.0,0.0
9.793,5411.412,0.00018,0.0,0.0
9.8,5412.113,0.00018,0.0,0.0
9.806,5414.599,0.00018,0.0,0.0
9.812,5394.447,0.00019,0.0,0.0
9.819,5399.639,0.00019,0.0,0.0
9.825,5397.133,0.00019,0.0,0.0
9.831,5414.28,0.00018,0.0,0.0
9.838,5398.97,0.00019,0.0,0.0
9.844,5389.245,0.00019,0.0,0.0
9.85,5404.598,0.00019,0.0,0.0
9.857,5391.897,0.00019,0.0,0.0
9.863,5393.184,0.00019,0.0,0.0
9.869,5416.748,0.00018,0.0,0.0
9.876,5380.884,0.00019,0.0,0.0
9.882,5419.004,0.00018,0.0,0.0
9.888,5386.124,0.00019,0.0,0.0
9.894,5383.85,0.00019,0.0,0.0
9.901,5411.227,0.00018,0.0,0.0
9.907,5389.704,0.00019,0.0,0.0
9.913,5391.353,0.00019,0.0,0.0
9.92,5387.414,0.00019,0.0,0.0
9.926,5375.637,0.00019,0.0,0.0
9.932,5413.946,0.00018,0.0,0.0
9.939,5374.434,0.00019,0.0,0.0
9.945,5396.102,0.00019,0.0,0.0
9.951,5421.235,0.00018,0.0,0.0
9.958,5402.236,0.00019,0.0,0.0
9.964,5412.434,0.00018,0.0,0.0
9.97,5413.161,0.00018,0.0,0.0
9.977,5396.496,0.00019,0.0,0.0
9.983,5430.175,0.00018,0.0,0.0
9.989,5408.963,0.00018,0.0,0.0
9.996,5423.042,0.00018,0.0,0.0
10.002,5443.506,0.00018,0.0,0.0
10.008,5399.118,0.00019,0.0,0.0
10.015,5459.738,0.00018,0.0,0.0
10.021,5443.769,0.00018,0.0,0.0
10.027,5433.354,0.00018,0.0,0.0
10.034,5478.219,0.00018,0.0,0.0
10.04,5453.034,0.00018,0.0,0.0
10.046,5487.205,0.00018,0.0,0.0
10.052,5479.99,0.00018,0.0,0.0
10.059,5465.276,0.00018,0.0,0.0
10.065,5502.767,0.00018,0.0,0.0
10.071,5504.476,0.00018,0.0,0.0
10.078,5509.493,0.00018,0.0,0.0
10.084,5540.427,0.00018,0.0,0.0
10.09,5501.519,0.00018,0.0,0.0
10.097,5567.673,0.00018,0.0,0.0
10.103,5520.949,0.00018,0.0,0.0
10.109,5573.98,0.00018,0.0,0.0
10.116,5605.672,0.00018,0.0,0.0
10.122,5596.83,0.00018,0.0,0.0
10.128,5637.517,0.00018,0.0,0.0
10.135,5640.324,0.00018,0.0,0.0
10.141,5661.877,0.00018,0.0,0.0
10.147,5712.223,0.00018,0.0,0.0
10.154,5737.158,0.00017,0.0,0.0
10.16,5831.447,0.00017,0.0,0.0
10.166,6126.257,0.00016,0.0,0.0
10.173,6189.631,0.00016,0.0,0.0
10.179,6875.012,0.00015,0.0,0.0
10.185,8596.087,0.00012,0.0,0.0
10.192,9067.616,0.00011,0.0,0.0
10.198,10282.949,0.0001,0.0,0.0
10.204,14217.276,0.00007,0.0,0.0
10.21,14519.826,0.00007,0.0,0.0
10.217,19899.547,0.00005,0.0,0.0
10.223,14541.907,0.00007,0.0,0.0
10.229,12419.587,0.00008,0.0,0.0
10.236,16226.301,0.00006,0.0,0.0
10.242,8442.943,0.00012,0.0,0.0
10.248,9122.15,0.00011,0.0,0.0
10.255,7055.546,0.00014,0.0,0.0
10.261,6297.702,0.00016,0.0,0.0
10.267,6273.616,0.00016,0.0,0.0
10.274,5749.682,0.00017,0.0,0.0
10.28,5796.333,0.00017,0.0,0.0
10.286,5620.391,0.00018,0.0,0.0
10.293,5614.516,0.00018,0.0,0.0
10.299,5568.515,0.00018,0.0,0.0
10.305,5520.506,0.00018,0.0,0.0
10.312,5535.837,0.00018,0.0,0.0
10.318,5495.765,0.00018,0.0,0.0
10.324,5491.952,0.00018,0.0,0.0
10.331,5436.727,0.00018,0.0,0.0
10.337,5404.085,0.00019,0.0,0.0
10.343,5451.421,0.00018,0.0,0.0
10.35,5405.799,0.00018,0.0,0.0
10.356,5403.11,0.00019,0.0,0.0
10.362,5368.845,0.00019,0.0,0.0
10.368,5329.036,0.00019,0.0,0.0
10.375,5396.554,0.00019,0.0,0.0
10.381,5298.62,0.00019,0.0,0.0
10.387,5314.516,0.00019,0.0,0.0
10.394,5325.899,0.00019,0.0,0.0
10.4,5288.027,0.00019,0.0,0.0
10.406,5316.97,0.00019,0.0,0.0
10.413,5273.75,0.00019,0.0,0.0
10.419,5260.683,0.00019,0.0,0.0
10.425,5285.118,0.00019,0.0,0.0
10.432,5258.82,0.00019,0.0,0.0
10.438,5244.57,0.00019,0.0,0.0
10.444,5266.81,0.00019,0.0,0.0
10.451,5220.343,0.00019,0.0,0.0
10.457,5263.317,0.00019,0.0,0.0
10.463,5222.092,0.00019,0.0,0.0
10.47,5202.886,0.00019,0.0,0.0
10.476,5202.178,0.00019,0.0,0.0
10.482,5185.078,0.00019,0.0,0.0
10.489,5224.919,0.00019,0.0,0.0
10.495,5169.563,0.00019,0.0,0.0
10.501,5184.962,0.00019,0.0,0.0
10.508,5198.238,0.00019,0.0,0.0
10.514,5169.493,0.00019,0.0,0.0
10.52,5167.29,0.00019,0.0,0.0
10.526,5155.515,0.00019,0.0,0.0
10.533,5140.968,0.00019,0.0,0.0
10.539,5176.667,0.00019,0.0,0.0
10.545,5139.495,0.00019,0.0,0.0
10.552,5137.269,0.00019,0.0,0.0
10.558,5150.214,0.00019,0.0,0.0
10.564,5119.446,0.0002,0.0,0.0
10.571,5165.835,0.00019,0.0,0.0
10.577,5130.844,0.00019,0.0,0.0
10.583,5134.844,0.00019,0.0,0.0
10.59,5151.567,0.00019,0.0,0.0
10.596,5135.422,0.00019,0.0,0.0
10.602,5144.187,0.00019,0.0,0.0
10.609,5123.573,0.0002,0.0,0.0
10.615,5111.195,0.0002,0.0,0.0
10.621,5138.172,0.00019,0.0,0.0
10.628,5117.501,0.0002,0.0,0.0
10.634,5138.677,0.00019,0.0,0.0
10.64,5128.548,0.00019,0.0,0.0
10.647,5109.31,0.0002,0.0,0.0
10.653,5149.4,0.00019,0.0,0.0
10.659,5124.07,0.0002,0.0,0.0
10.666,5112.6,0.0002,0.0,0.0
10.672,5137.803,0.00019,0.0,0.0
10.678,5117.207,0.0002,0.0,0.0
10.684,5160.081,0.00019,0.0,0.0
10.691,5140.601,0.00019,0.0,0.0
10.697,5139.609,0.00019,0.0,0.0
10.703,5176.866,0.00019,0.0,0.0
10.71,5154.712,0.00019,0.0,0.0
10.716,5186.32,0.00019,0.0,0.0
10.722,5204.605,0.00019,0.0,0.0
10.729,5207.516,0.00019,0.0,0.0
10.735,5251.344,0.00019,0.0,0.0
10.741,5303.395,0.00019,0.0,0.0
10.748,5353.121,0.00019,0.0,0.0
10.754,5434.458,0.00018,0.0,0.0
10.76,5543.321,0.00018,0.0,0.0
10.767,5788.155,0.00017,0.0,0.0
10.773,6051.852,0.00017,0.0,0.0
10.779,6761.375,0.00015,0.0,0.0
10.786,7841.411,0.00013,0.0,0.0
10.792,9761.661,0.0001,0.0,0.0
10.798,14320.569,0.00007,0.0,0.0
10.805,16803.501,0.00006,0.0,0.0
10.811,25565.323,0.00004,0.0,0.0
10.817,29934.52,0.00003,0.0,0.0
10.824,32452.661,0.00003,0.0,0.0
10.83,31347.34,0.00003,0.0,0.0
10.836,26497.444,0.00004,0.0,0.0
10.842,18652.574,0.00005,0.0,0.0
10.849,14340.528,0.00007,0.0,0.0
10.855,9630.432,0.0001,0.0,0.0
10.861,8009.449,0.00012,0.0,0.0
10.868,6834.257,0.00015,0.0,0.0
10.874,6099.368,0.00016,0.0,0.0
10.88,5785.157,0.00017,0.0,0.0
10.887,5521.608,0.00018,0.0,0.0
10.893,5410.218,0.00018,0.0,0.0
10.899,5309.206,0.00019,0.0,0.0
10.906,5233.216,0.00019,0.0,0.0
10.912,5198.36,0.00019,0.0,0.0
10.918,5158.932,0.00019,0.0,0.0
10.925,5138.712,0.00019,0.0,0.0
10.931,5128.796,0.00019,0.0,0.0
10.937,5115.02,0.0002,0.0,0.0
10.944,5116.155,0.0002,0.0,0.0
10.95,5091.605,0.0002,0.0,0.0
10.956,5078.139,0.0002,0.0,0.0
10.963,5070.103,0.0002,0.0,0.0
10.969,5048.797,0.0002,0.0,0.0
10.975,5024.193,0.0002,0.0,0.0
10.982,5005.953,0.0002,0.0,0.0
10.988,4989.832,0.0002,0.0,0.0
10.994,4994.097,0.0002,0.0,0.0
11.0,4959.296,0.0002,0.0,0.0
11.007,4956.145,0.0002,0.0,0.0
11.013,4947.679,0.0002,0.0,0.0
11.019,4933.529,0.0002,0.0,0.0
11.026,4940.229,0.0002,0.0,0.0
11.032,4932.745,0.0002,0.0,0.0
11.038,4909.903,0.0002,0.0,0.0
11.045,4917.589,0.0002,0.0,0.0
11.051,4911.808,0.0002,0.0,0.0
11.057,4895.784,0.0002,0.0,0.0
11.064,4899.42,0.0002,0.0,0.0
11.07,4878.42,0.0002,0.0,0.0
11.076,4888.36,0.0002,0.0,0.0
11.083,4882.043,0.0002,0.0,0.0
11.089,4866.221,0.00021,0.0,0.0
11.095,4865.151,0.00021,0.0,0.0
11.102,4853.777,0.00021,0.0,0.0
11.108,4868.549,0.00021,0.0,0.0
11.114,4859.002,0.00021,0.0,0.0
11.121,4845.532,0.00021,0.0,0.0
11.127,4845.376,0.00021,0.0,0.0
11.133,4851.195,0.00021,0.0,0.0
11.14,4838.267,0.00021,0.0,0.0
11.146,4829.836,0.00021,0.0,0.0
11.152,4832.801,0.00021,0.0,0.0
11.158,4830.54,0.00021,0.0,0.0
11.165,4832.167,0.00021,0.0,0.0
11.171,4848.645,0.00021,0.0,0.0
11.177,4834.292,0.00021,0.0,0.0
11.184,4849.944,0.00021,0.0,0.0
11.19,4852.137,0.00021,0.0,0.0
11.196,4845.246,0.00021,0.0,0.0
11.203,4853.859,0.00021,0.0,0.0
11.209,4869.324,0.00021,0.0,0.0
11.215,4827.235,0.00021,0.0,0.0
11.222,4885.563,0.0002,0.0,0.0
11.228,4808.757,0.00021,0.0,0.0
11.234,4850.474,0.00021,0.0,0.0
11.241,4810.291,0.00021,0.0,0.0
11.247,4791.472,0.00021,0.0,0.0
11.253,4778.239,0.00021,0.0,0.0
11.26,4777.354,0.00021,0.0,0.0
11.266,4784.481,0.00021,0.0,0.0
11.272,4764.983,0.00021,0.0,0.0
11.279,4770.266,0.00021,0.0,0.0
11.285,4768.322,0.00021,0.0,0.0
11.291,4760.169,0.00021,0.0,0.0
11.298,4762.941,0.00021,0.0,0.0
11.304,4760.527,0.00021,0.0,0.0
11.31,4759.304,0.00021,0.0,0.0
11.316,4756.744,0.00021,0.0,0.0
11.323,4748.81,0.00021,0.0,0.0
11.329,4745.09,0.00021,0.0,0.0
11.335,4732.749,0.00021,0.0,0.0
11.342,4747.261,0.00021,0.0,0.0
11.348,4734.753,0.00021,0.0,0.0
11.354,4735.013,0.00021,0.0,0.0
11.361,4747.362,0.00021,0.0,0.0
11.367,4729.869,0.00021,0.0,0.0
11.373,4735.477,0.00021,0.0,0.0
11.38,4734.311,0.00021,0.0,0.0
11.386,4735.102,0.00021,0.0,0.0
11.392,4730.588,0.00021,0.0,0.0
11.399,4729.986,0.00021,0.0,0.0
11.405,4713.942,0.00021,0.0,0.0
11.411,4728.966,0.00021,0.0,0.0
11.418,4717.98,0.00021,0.0,0.0
11.424,4718.407,0.00021,0.0,0.0
11.43,4715.843,0.00021,0.0,0.0
11.437,4723.872,0.00021,0.0,0.0
11.443,4720.176,0.00021,0.0,0.0
11.449,4716.96,0.00021,0.0,0.0
11.456,4712.16,0.00021,0.0,0.0
11.462,4727.758,0.00021,0.0,0.0
11.468,4728.243,0.00021,0.0,0.0
11.474,4702.208,0.00021,0.0,0.0
11.481,4720.067,0.00021,0.0,0.0
11.487,4731.423,0.00021,0.0,0.0
11.493,4723.344,0.00021,0.0,0.0
11.5,4739.868,0.00021,0.0,0.0
11.506,4741.625,0.00021,0.0,0.0
11.512,4765.174,0.00021,0.0,0.0
11.519,4767.787,0.00021,0.0,0.0
11.525,4782.34,0.00021,0.0,0.0
11.531,4768.692,0.00021,0.0,0.0
11.538,4787.94,0.00021,0.0,0.0
11.544,4776.339,0.00021,0.0,0.0
11.55,4748.512,0.00021,0.0,0.0
11.557,4744.945,0.00021,0.0,0.0
11.563,4727.777,0.00021,0.0,0.0
11.569,4729.897,0.00021,0.0,0.0
11.576,4711.598,0.00021,0.0,0.0
11.582,4713.104,0.00021,0.0,0.0
11.588,4708.108,0.00021,0.0,0.0
11.595,4712.686,0.00021,0.0,0.0
11.601,4708.29,0.00021,0.0,0.0
11.607,4694.318,0.00021,0.0,0.0
11.614,4704.612,0.00021,0.0,0.0
11.62,4698.496,0.00021,0.0,0.0
11.626,4691.119,0.00021,0.0,0.0
11.632,4690.332,0.00021,0.0,0.0
11.639,4688.461,0.00021,0.0,0.0
11.645,4676.813,0.00021,0.0,0.0
11.651,4694.68,0.00021,0.0,0.0
11.658,4681.308,0.00021,0.0,0.0
11.664,4685.387,0.00021,0.0,0.0
11.67,4695.077,0.00021,0.0,0.0
11.677,4687.235,0.00021,0.0,0.0
11.683,4698.408,0.00021,0.0,0.0
11.689,4699.614,0.00021,0.0,0.0
11.696,4687.382,0.00021,0.0,0.0
11.702,4692.74,0.00021,0.0,0.0
11.708,4695.853,0.00021,0.0,0.0
11.715,4687.63,0.00021,0.0,0.0
11.721,4692.159,0.00021,0.0,0.0
11.727,4688.254,0.00021,0.0,0.0
11.734,4688.626,0.00021,0.0,0.0
11.74,4675.266,0.00021,0.0,0.0
11.746,4690.316,0.00021,0.0,0.0
11.753,4676.172,0.00021,0.0,0.0
11.759,4681.523,0.00021,0.0,0.0
11.765,4690.116,0.00021,0.0,0.0
11.772,4697.771,0.00021,0.0,0.0
11.778,4691.763,0.00021,0.0,0.0
11.784,4690.918,0.00021,0.0,0.0
11.79,4692.025,0.00021,0.0,0.0
11.797,4688.175,0.00021,0.0,0.0
11.803,4684.244,0.00021,0.0,0.0
11.809,4669.086,0.00021,0.0,0.0
11.816,4679.92,0.00021,0.0,0.0
11.822,4673.949,0.00021,0.0,0.0
11.828,4678.615,0.00021,0.0,0.0
11.835,4673.603,0.00021,0.0,0.0
11.841,4666.124,0.00021,0.0,0.0
11.847,4659.997,0.00021,0.0,0.0
11.854,4663.325,0.00021,0.0,0.0
11.86,4668.944,0.00021,0.0,0.0
11.866,4670.447,0.00021,0.0,0.0
11.873,4661.907,0.00021,0.0,0.0
11.879,4678.331,0.00021,0.0,0.0
11.885,4659.684,0.00021,0.0,0.0
11.892,4672.24,0.00021,0.0,0.0
11.898,4661.491,0.00021,0.0,0.0
11.904,4660.553,0.00021,0.0,0.0
11.911,4670.537,0.00021,0.0,0.0
11.917,4653.498,0.00021,0.0,0.0
11.923,4683.634,0.00021,0.0,0.0
11.93,4669.092,0.00021,0.0,0.0
11.936,4674.826,0.00021,0.0,0.0
11.942,4668.251,0.00021,0.0,0.0
11.948,4671.679,0.00021,0.0,0.0
11.955,4666.265,0.00021,0.0,0.0
11.961,4658.326,0.00021,0.0,0.0
11.967,4660.553,0.00021,0.0,0.0
11.974,4667.321,0.00021,0.0,0.0
11.98,4665.558,0.00021,0.0,0.0
11.986,4669.812,0.00021,0.0,0.0
11.993,4673.796,0.00021,0.0,0.0
11.999,4675.477,0.00021,0.0,0.0
12.005,4684.192,0.00021,0.0,0.0
12.012,4684.706,0.00021,0.0,0.0
12.018,4706.427,0.00021,0.0,0.0
12.024,4700.694,0.00021,0.0,0.0
12.031,4687.838,0.00021,0.0,0.0
12.037,4772.552,0.00021,0.0,0.0
12.043,4719.415,0.00021,0.0,0.0
12.05,4923.702,0.0002,0.0,0.0
12.056,4804.719,0.00021,0.0,0.0
12.062,4856.129,0.00021,0.0,0.0
12.069,5747.263,0.00017,0.0,0.0
12.075,5125.973,0.0002,0.0,0.0
12.081,8550.928,0.00012,0.0,0.0
12.088,6128.733,0.00016,0.0,0.0
12.094,6911.566,0.00014,0.0,0.0
12.1,10810.22,0.00009,0.0,0.0
12.106,6488.937,0.00015,0.0,0.0
12.113,7765.715,0.00013,0.0,0.0
12.119,5573.774,0.00018,0.0,0.0
12.125,5266.793,0.00019,0.0,0.0
12.132,5280.041,0.00019,0.0,0.0
12.138,4861.809,0.00021,0.0,0.0
12.144,4812.082,0.00021,0.0,0.0
12.151,4804.992,0.00021,0.0,0.0
12.157,4713.109,0.00021,0.0,0.0
12.163,4720.674,0.00021,0.0,0.0
12.17,4670.148,0.00021,0.0,0.0
12.176,4657.283,0.00021,0.0,0.0
12.182,4657.545,0.00021,0.0,0.0
12.189,4635.702,0.00022,0.0,0.0
12.195,4631.166,0.00022,0.0,0.0
12.201,4611.524,0.00022,0.0,0.0
12.208,4603.287,0.00022,0.0,0.0
12.214,4598.151,0.00022,0.0,0.0
12.22,4592.68,0.00022,0.0,0.0
12.227,4578.637,0.00022,0.0,0.0
12.233,4569.069,0.00022,0.0,0.0
12.239,4569.963,0.00022,0.0,0.0
12.246,4558.143,0.00022,0.0,0.0
12.252,4554.803,0.00022,0.0,0.0
12.258,4535.712,0.00022,0.0,0.0
12.264,4541.755,0.00022,0.0,0.0
12.271,4535.763,0.00022,0.0,0.0
12.277,4534.656,0.00022,0.0,0.0
12.283,4542.746,0.00022,0.0,0.0
12.29,4519.159,0.00022,0.0,0.0
12.296,4520.753,0.00022,0.0,0.0
12.302,4526.104,0.00022,0.0,0.0
12.309,4495.94,0.00022,0.0,0.0
12.315,4509.863,0.00022,0.0,0.0
12.321,4508.537,0.00022,0.0,0.0
12.328,4494.738,0.00022,0.0,0.0
12.334,4490.343,0.00022,0.0,0.0
12.34,4488.048,0.00022,0.0,0.0
12.347,4490.084,0.00022,0.0,0.0
12.353,4474.257,0.00022,0.0,0.0
12.359,4472.973,0.00022,0.0,0.0
12.366,4474.454,0.00022,0.0,0.0
12.372,4463.578,0.00022,0.0,0.0
12.378,4469.668,0.00022,0.0,0.0
12.385,4467.263,0.00022,0.0,0.0
12.391,4472.324,0.00022,0.0,0.0
12.397,4477.853,0.00022,0.0,0.0
12.404,4465.827,0.00022,0.0,0.0
12.41,4449.254,0.00022,0.0,0.0
12.416,4460.044,0.00022,0.0,0.0
12.422,4455.415,0.00022,0.0,0.0
12.429,4449.566,0.00022,0.0,0.0
12.435,4441.585,0.00023,0.0,0.0
12.441,4444.018,0.00023,0.0,0.0
12.448,4468.427,0.00022,0.0,0.0
12.454,4444.185,0.00023,0.0,0.0
12.46,4448.388,0.00022,0.0,0.0
12.467,4436.561,0.00023,0.0,0.0
12.473,4451.014,0.00022,0.0,0.0
12.479,4447.97,0.00022,0.0,0.0
12.486,4449.974,0.00022,0.0,0.0
12.492,4449.281,0.00022,0.0,0.0
12.498,4454.605,0.00022,0.0,0.0
12.505,4464.968,0.00022,0.0,0.0
12.511,4459.485,0.00022,0.0,0.0
12.517,4480.134,0.00022,0.0,0.0
12.524,4487.648,0.00022,0.0,0.0
12.53,4476.242,0.00022,0.0,0.0
12.536,4489.576,0.00022,0.0,0.0
12.543,4483.5,0.00022,0.0,0.0
12.549,4472.54,0.00022,0.0,0.0
12.555,4487.288,0.00022,0.0,0.0
12.562,4468.177,0.00022,0.0,0.0
12.568,4479.304,0.00022,0.0,0.0
12.574,4481.639,0.00022,0.0,0.0
12.58,4489.96,0.00022,0.0,0.0
12.587,4501.391,0.00022,0.0,0.0
12.593,4517.703,0.00022,0.0,0.0
12.599,4540.823,0.00022,0.0,0.0
12.606,4551.878,0.00022,0.0,0.0
12.612,4600.142,0.00022,0.0,0.0
12.618,4661.648,0.00021,0.0,0.0
12.625,4732.05,0.00021,0.0,0.0
12.631,4843.856,0.00021,0.0,0.0
12.637,5009.045,0.0002,0.0,0.0
12.644,5265.922,0.00019,0.0,0.0
12.65,5734.857,0.00017,0.0,0.0
12.656,6507.795,0.00015,0.0,0.0
12.663,7939.884,0.00013,0.0,0.0
12.669,10506.201,0.0001,0.0,0.0
12.675,14448.952,0.00007,0.0,0.0
12.682,19945.358,0.00005,0.0,0.0
12.688,27835.445,0.00004,0.0,0.0
12.694,31719.092,0.00003,0.0,0.0
12.701,33547.144,0.00003,0.0,0.0
12.707,31288.321,0.00003,0.0,0.0
12.713,25080.847,0.00004,0.0,0.0
12.72,18238.694,0.00005,0.0,0.0
12.726,13073.363,0.00008,0.0,0.0
12.732,9201.001,0.00011,0.0,0.0
12.738,7184.241,0.00014,0.0,0.0
12.745,6160.804,0.00016,0.0,0.0
12.751,5473.622,0.00018,0.0,0.0
12.757,5090.618,0.0002,0.0,0.0
12.764,4861.892,0.00021,0.0,0.0
12.77,4725.636,0.00021,0.0,0.0
12.776,4634.814,0.00022,0.0,0.0
12.783,4567.276,0.00022,0.0,0.0
12.789,4519.429,0.00022,0.0,0.0
12.795,4479.476,0.00022,0.0,0.0
12.802,4452.072,0.00022,0.0,0.0
12.808,4423.065,0.00023,0.0,0.0
12.814,4413.021,0.00023,0.0,0.0
12.821,4390.138,0.00023,0.0,0.0
12.827,4392.528,0.00023,0.0,0.0
12.833,4368.72,0.00023,0.0,0.0
12.84,4356.014,0.00023,0.0,0.0
12.846,4348.196,0.00023,0.0,0.0
12.852,4349.712,0.00023,0.0,0.0
12.859,4345.597,0.00023,0.0,0.0
12.865,4327.094,0.00023,0.0,0.0
12.871,4335.235,0.00023,0.0,0.0
12.878,4327.085,0.00023,0.0,0.0
12.884,4326.815,0.00023,0.0,0.0
12.89,4319.489,0.00023,0.0,0.0
12.896,4332.112,0.00023,0.0,0.0
12.903,4316.777,0.00023,0.0,0.0
12.909,4344.342,0.00023,0.0,0.0
12.915,4396.456,0.00023,0.0,0.0
12.922,4385.299,0.00023,0.0,0.0
12.928,4529.128,0.00022,0.0,0.0
12.934,4676.593,0.00021,0.0,0.0
12.941,4576.023,0.00022,0.0,0.0
12.947,4737.317,0.00021,0.0,0.0
12.953,4542.848,0.00022,0.0,0.0
12.96,4502.128,0.00022,0.0,0.0
12.966,4441.244,0.00023,0.0,0.0
12.972,4348.005,0.00023,0.0,0.0
12.979,4328.68,0.00023,0.0,0.0
12.985,4315.742,0.00023,0.0,0.0
12.991,4284.894,0.00023,0.0,0.0
12.998,4264.842,0.00023,0.0,0.0
13.004,4248.001,0.00024,0.0,0.0
13.01,4234.725,0.00024,0.0,0.0
13.017,4242.664,0.00024,0.0,0.0
13.023,4230.599,0.00024,0.0,0.0
13.029,4228.382,0.00024,0.0,0.0
13.036,4228.563,0.00024,0.0,0.0
13.042,4219.503,0.00024,0.0,0.0
13.048,4218.522,0.00024,0.0,0.0
13.054,4215.066,0.00024,0.0,0.0
13.061,4213.111,0.00024,0.0,0.0
13.067,4207.762,0.00024,0.0,0.0
13.073,4199.097,0.00024,0.0,0.0
13.08,4207.184,0.00024,0.0,0.0
13.086,4201.414,0.00024,0.0,0.0
13.092,4201.632,0.00024,0.0,0.0
13.099,4203.512,0.00024,0.0,0.0
13.105,4187.477,0.00024,0.0,0.0
13.111,4183.299,0.00024,0.0,0.0
13.118,4181.659,0.00024,0.0,0.0
13.124,4180.448,0.00024,0.0,0.0
13.13,4184.172,0.00024,0.0,0.0
13.137,4175.2,0.00024,0.0,0.0
13.143,4176.726,0.00024,0.0,0.0
13.149,4170.557,0.00024,0.0,0.0
13.156,4180.802,0.00024,0.0,0.0
13.162,4186.485,0.00024,0.0,0.0
13.168,4186.472,0.00024,0.0,0.0
13.175,4181.759,0.00024,0.0,0.0
13.181,4189.259,0.00024,0.0,0.0
13.187,4208.996,0.00024,0.0,0.0
13.194,4222.921,0.00024,0.0,0.0
13.2,4250.132,0.00024,0.0,0.0
13.206,4301.441,0.00023,0.0,0.0
13.212,4364.577,0.00023,0.0,0.0
13.219,4493.933,0.00022,0.0,0.0
13.225,4681.868,0.00021,0.0,0.0
13.231,5096.641,0.0002,0.0,0.0
13.238,5815.008,0.00017,0.0,0.0
13.244,7039.509,0.00014,0.0,0.0
13.25,8686.51,0.00012,0.0,0.0
13.257,10457.022,0.0001,0.0,0.0
13.263,12148.069,0.00008,0.0,0.0
13.269,12563.341,0.00008,0.0,0.0
13.276,11224.718,0.00009,0.0,0.0
13.282,10159.221,0.0001,0.0,0.0
13.288,7841.121,0.00013,0.0,0.0
13.295,6368.139,0.00016,0.0,0.0
13.301,5450.489,0.00018,0.0,0.0
13.307,4842.465,0.00021,0.0,0.0
13.314,4548.89,0.00022,0.0,0.0
13.32,4353.095,0.00023,0.0,0.0
13.326,4250.243,0.00024,0.0,0.0
13.333,4191.78,0.00024,0.0,0.0
13.339,4156.429,0.00024,0.0,0.0
13.345,4128.674,0.00024,0.0,0.0
13.352,4110.729,0.00024,0.0,0.0
13.358,4094.367,0.00024,0.0,0.0
13.364,4080.4,0.00025,0.0,0.0
13.37,4079.077,0.00025,0.0,0.0
13.377,4081.489,0.00025,0.0,0.0
13.383,4060.408,0.00025,0.0,0.0
13.389,4051.126,0.00025,0.0,0.0
13.396,4057.766,0.00025,0.0,0.0
13.402,4048.607,0.00025,0.0,0.0
13.408,4051.333,0.00025,0.0,0.0
13.415,4033.85,0.00025,0.0,0.0
13.421,4026.391,0.00025,0.0,0.0
13.427,4037.914,0.00025,0.0,0.0
13.434,4027.413,0.00025,0.0,0.0
13.44,4018.437,0.00025,0.0,0.0
13.446,4012.187,0.00025,0.0,0.0
13.453,4023.881,0.00025,0.0,0.0
13.459,4005.669,0.00025,0.0,0.0
13.465,3997.536,0.00025,0.0,0.0
13.472,3984.793,0.00025,0.0,0.0
13.478,3991.046,0.00025,0.0,0.0
13.484,3986.674,0.00025,0.0,0.0
13.491,3987.314,0.00025,0.0,0.0
13.497,3994.807,0.00025,0.0,0.0
13.503,3975.633,0.00025,0.0,0.0
13.51,3983.868,0.00025,0.0,0.0
13.516,3978.899,0.00025,0.0,0.0
13.522,3980.945,0.00025,0.0,0.0
13.528,3978.657,0.00025,0.0,0.0
13.535,3972.15,0.00025,0.0,0.0
13.541,3971.291,0.00025,0.0,0.0
13.547,3978.494,0.00025,0.0,0.0
13.554,3957.372,0.00025,0.0,0.0
13.56,3965.275,0.00025,0.0,0.0
13.566,3956.263,0.00025,0.0,0.0
13.573,3956.013,0.00025,0.0,0.0
13.579,3954.478,0.00025,0.0,0.0
13.585,3952.403,0.00025,0.0,0.0
13.592,3958.534,0.00025,0.0,0.0
13.598,3947.16,0.00025,0.0,0.0
13.604,3952.269,0.00025,0.0,0.0
13.611,3958.403,0.00025,0.0,0.0
13.617,3954.267,0.00025,0.0,0.0
13.623,3945.407,0.00025,0.0,0.0
13.63,3955.44,0.00025,0.0,0.0
13.636,3954.858,0.00025,0.0,0.0
13.642,3954.386,0.00025,0.0,0.0
13.649,3954.827,0.00025,0.0,0.0
13.655,3962.737,0.00025,0.0,0.0
13.661,3960.797,0.00025,0.0,0.0
13.668,3964.473,0.00025,0.0,0.0
13.674,3971.069,0.00025,0.0,0.0
13.68,3977.483,0.00025,0.0,0.0
13.686,3979.777,0.00025,0.0,0.0
13.693,3988.969,0.00025,0.0,0.0
13.699,4049.135,0.00025,0.0,0.0
13.705,4124.301,0.00024,0.0,0.0
13.712,4286.959,0.00023,0.0,0.0
13.718,4328.599,0.00023,0.0,0.0
13.724,4669.572,0.00021,0.0,0.0
13.731,4328.062,0.00023,0.0,0.0
13.737,4454.255,0.00022,0.0,0.0
13.743,4532.66,0.00022,0.0,0.0
13.75,4162.083,0.00024,0.0,0.0
13.756,4090.496,0.00024,0.0,0.0
13.762,3998.907,0.00025,0.0,0.0
13.769,3956.565,0.00025,0.0,0.0
13.775,3921.003,0.00026,0.0,0.0
13.781,3903.217,0.00026,0.0,0.0
13.788,3891.388,0.00026,0.0,0.0
13.794,3888.273,0.00026,0.0,0.0
13.8,3884.668,0.00026,0.0,0.0
13.807,3883.127,0.00026,0.0,0.0
13.813,3866.827,0.00026,0.0,0.0
13.819,3870.352,0.00026,0.0,0.0
13.826,3861.714,0.00026,0.0,0.0
13.832,3860.302,0.00026,0.0,0.0
13.838,3848.95,0.00026,0.0,0.0
13.844,3862.319,0.00026,0.0,0.0
13.851,3837.66,0.00026,0.0,0.0
13.857,3849.445,0.00026,0.0,0.0
13.863,3843.591,0.00026,0.0,0.0
13.87,3844.644,0.00026,0.0,0.0
13.876,3833.004,0.00026,0.0,0.0
13.882,3816.296,0.00026,0.0,0.0
13.889,3824.204,0.00026,0.0,0.0
13.895,3810.745,0.00026,0.0,0.0
13.901,3816.332,0.00026,0.0,0.0
13.908,3820.871,0.00026,0.0,0.0
13.914,3800.718,0.00026,0.0,0.0
13.92,3806.552,0.00026,0.0,0.0
13.927,3806.645,0.00026,0.0,0.0
13.933,3787.844,0.00026,0.0,0.0
13.939,3797.612,0.00026,0.0,0.0
13.946,3784.42,0.00026,0.0,0.0
13.952,3789.046,0.00026,0.0,0.0
13.958,3784.657,0.00026,0.0,0.0
13.965,3782.878,0.00026,0.0,0.0
13.971,3783.894,0.00026,0.0,0.0
13.977,3777.268,0.00026,0.0,0.0
13.984,3787.424,0.00026,0.0,0.0
13.99,3778.876,0.00026,0.0,0.0
13.996,3774.107,0.00026,0.0,0.0
14.002,3771.456,0.00027,0.0,0.0
14.009,3763.207,0.00027,0.0,0.0
14.015,3742.543,0.00027,0.0,0.0
14.021,3771.223,0.00027,0.0,0.0
14.028,3760.928,0.00027,0.0,0.0
14.034,3751.562,0.00027,0.0,0.0
14.04,3747.21,0.00027,0.0,0.0
14.047,3747.225,0.00027,0.0,0.0
14.053,3740.414,0.00027,0.0,0.0
14.059,3743.215,0.00027,0.0,0.0
14.066,3736.821,0.00027,0.0,0.0
14.072,3733.355,0.00027,0.0,0.0
14.078,3725.792,0.00027,0.0,0.0
14.085,3732.964,0.00027,0.0,0.0
14.091,3724.338,0.00027,0.0,0.0
14.097,3711.948,0.00027,0.0,0.0
14.104,3719.139,0.00027,0.0,0.0
14.11,3715.804,0.00027,0.0,0.0
14.116,3721.584,0.00027,0.0,0.0
14.123,3713.764,0.00027,0.0,0.0
14.129,3709.616,0.00027,0.0,0.0
14.135,3712.633,0.00027,0.0,0.0
14.142,3706.152,0.00027,0.0,0.0
14.148,3700.377,0.00027,0.0,0.0
14.154,3702.284,0.00027,0.0,0.0
14.16,3693.471,0.00027,0.0,0.0
14.167,3690.864,0.00027,0.0,0.0
14.173,3686.802,0.00027,0.0,0.0
14.179,3690.426,0.00027,0.0,0.0
14.186,3682.674,0.00027,0.0,0.0
14.192,3690.803,0.00027,0.0,0.0
14.198,3690.499,0.00027,0.0,0.0
14.205,3684.659,0.00027,0.0,0.0
14.211,3686.641,0.00027,0.0,0.0
14.217,3682.315,0.00027,0.0,0.0
14.224,3685.751,0.00027,0.0,0.0
14.23,3673.34,0.00027,0.0,0.0
14.236,3680.072,0.00027,0.0,0.0
14.243,3690.315,0.00027,0.0,0.0
14.249,3691.833,0.00027,0.0,0.0
14.255,3704.587,0.00027,0.0,0.0
14.262,3698.461,0.00027,0.0,0.0
14.268,3709.498,0.00027,0.0,0.0
14.274,3708.956,0.00027,0.0,0.0
14.281,3696.345,0.00027,0.0,0.0
14.287,3692.527,0.00027,0.0,0.0
14.293,3703.789,0.00027,0.0,0.0
14.3,3676.901,0.00027,0.0,0.0
14.306,3668.526,0.00027,0.0,0.0
14.312,3662.677,0.00027,0.0,0.0
14.318,3656.291,0.00027,0.0,0.0
14.325,3659.455,0.00027,0.0,0.0
14.331,3644.26,0.00027,0.0,0.0
14.337,3643.382,0.00027,0.0,0.0
14.344,3640.991,0.00027,0.0,0.0
14.35,3649.278,0.00027,0.0,0.0
14.356,3643.803,0.00027,0.0,0.0
14.363,3633.234,0.00028,0.0,0.0
14.369,3643.197,0.00027,0.0,0.0
14.375,3628.768,0.00028,0.0,0.0
14.382,3629.193,0.00028,0.0,0.0
14.388,3634.732,0.00028,0.0,0.0
14.394,3624.437,0.00028,0.0,0.0
14.401,3628.619,0.00028,0.0,0.0
14.407,3613.157,0.00028,0.0,0.0
14.413,3611.844,0.00028,0.0,0.0
14.42,3612.051,0.00028,0.0,0.0
14.426,3623.512,0.00028,0.0,0.0
14.432,3622.077,0.00028,0.0,0.0
14.439,3627.836,0.00028,0.0,0.0
14.445,3653.892,0.00027,0.0,0.0
14.451,3651.98,0.00027,0.0,0.0
14.458,3681.97,0.00027,0.0,0.0
14.464,3686.816,0.00027,0.0,0.0
14.47,3713.39,0.00027,0.0,0.0
14.476,3689.331,0.00027,0.0,0.0
14.483,3670.321,0.00027,0.0,0.0
14.489,3642.39,0.00027,0.0,0.0
14.495,3641.543,0.00027,0.0,0.0
14.502,3604.619,0.00028,0.0,0.0
14.508,3601.17,0.00028,0.0,0.0
14.514,3583.869,0.00028,0.0,0.0
14.521,3578.946,0.00028,0.0,0.0
14.527,3561.72,0.00028,0.0,0.0
14.533,3573.148,0.00028,0.0,0.0
14.54,3561.479,0.00028,0.0,0.0
14.546,3559.776,0.00028,0.0,0.0
14.552,3567.393,0.00028,0.0,0.0
14.559,3563.563,0.00028,0.0,0.0
14.565,3555.892,0.00028,0.0,0.0
14.571,3560.251,0.00028,0.0,0.0
14.578,3561.012,0.00028,0.0,0.0
14.584,3548.692,0.00028,0.0,0.0
14.59,3560.938,0.00028,0.0,0.0
14.597,3546.443,0.00028,0.0,0.0
14.603,3561.22,0.00028,0.0,0.0
14.609,3552.609,0.00028,0.0,0.0
14.616,3552.812,0.00028,0.0,0.0
14.622,3545.792,0.00028,0.0,0.0
14.628,3555.015,0.00028,0.0,0.0
14.634,3537.808,0.00028,0.0,0.0
14.641,3541.768,0.00028,0.0,0.0
14.647,3533.157,0.00028,0.0,0.0
14.653,3541.723,0.00028,0.0,0.0
14.66,3528.637,0.00028,0.0,0.0
14.666,3528.175,0.00028,0.0,0.0
14.672,3535.58,0.00028,0.0,0.0
14.679,3528.343,0.00028,0.0,0.0
14.685,3532.251,0.00028,0.0,0.0
14.691,3523.898,0.00028,0.0,0.0
14.698,3524.353,0.00028,0.0,0.0
14.704,3519.734,0.00028,0.0,0.0
14.71,3507.777,0.00029,0.0,0.0
14.717,3514.075,0.00028,0.0,0.0
14.723,3507.457,0.00029,0.0,0.0
14.729,3505.942,0.00029,0.0,0.0
14.736,3499.793,0.00029,0.0,0.0
14.742,3486.598,0.00029,0.0,0.0
14.748,3496.932,0.00029,0.0,0.0
14.755,3495.561,0.00029,0.0,0.0
14.761,3491.672,0.00029,0.0,0.0
14.767,3478.197,0.00029,0.0,0.0
14.774,3490.149,0.00029,0.0,0.0
14.78,3481.858,0.00029,0.0,0.0
14.786,3478.174,0.00029,0.0,0.0
14.792,3484.229,0.00029,0.0,0.0
14.799,3478.566,0.00029,0.0,0.0
14.805,3480.671,0.00029,0.0,0.0
14.811,3485.413,0.00029,0.0,0.0
14.818,3473.603,0.00029,0.0,0.0
14.824,3483.215,0.00029,0.0,0.0
14.83,3471.648,0.00029,0.0,0.0
14.837,3476.86,0.00029,0.0,0.0
14.843,3468.071,0.00029,0.0,0.0
14.849,3470.684,0.00029,0.0,0.0
14.856,3477.477,0.00029,0.0,0.0
14.862,3461.56,0.00029,0.0,0.0
14.868,3475.574,0.00029,0.0,0.0
14.875,3461.293,0.00029,0.0,0.0
14.881,3468.471,0.00029,0.0,0.0
14.887,3459.258,0.00029,0.0,0.0
14.894,3455.259,0.00029,0.0,0.0
14.9,3461.691,0.00029,0.0,0.0
14.906,3450.86,0.00029,0.0,0.0
14.913,3450.515,0.00029,0.0,0.0
14.919,3453.593,0.00029,0.0,0.0
14.925,3452.732,0.00029,0.0,0.0
14.932,3432.42,0.00029,0.0,0.0
14.938,3440.634,0.00029,0.0,0.0
14.944,3443.496,0.00029,0.0,0.0
14.95,3433.472,0.00029,0.0,0.0
14.957,3449.786,0.00029,0.0,0.0
14.963,3438.944,0.00029,0.0,0.0
14.969,3436.596,0.00029,0.0,0.0
14.976,3425.439,0.00029,0.0,0.0
14.982,3435.607,0.00029,0.0,0.0
14.988,3426.699,0.00029,0.0,0.0
14.995,3424.936,0.00029,0.0,0.0
15.001,3429.937,0.00029,0.0,0.0
15.007,3419.046,0.00029,0.0,0.0
15.014,3425.866,0.00029,0.0,0.0
15.02,3424.046,0.00029,0.0,0.0
15.026,3414.049,0.00029,0.0,0.0
15.033,3425.942,0.00029,0.0,0.0
15.039,3422.566,0.00029,0.0,0.0
15.045,3418.496,0.00029,0.0,0.0
15.052,3411.373,0.00029,0.0,0.0
15.058,3412.915,0.00029,0.0,0.0
15.064,3418.726,0.00029,0.0,0.0
15.071,3409.959,0.00029,0.0,0.0
15.077,3407.224,0.00029,0.0,0.0
15.083,3418.895,0.00029,0.0,0.0
15.09,3396.221,0.00029,0.0,0.0
15.096,3396.667,0.00029,0.0,0.0
15.102,3402.152,0.00029,0.0,0.0
15.108,3400.394,0.00029,0.0,0.0
15.115,3390.672,0.00029,0.0,0.0
15.121,3404.758,0.00029,0.0,0.0
15.127,3396.438,0.00029,0.0,0.0
15.134,3394.085,0.00029,0.0,0.0
15.14,3398.72,0.00029,0.0,0.0
15.146,3398.508,0.00029,0.0,0.0
15.153,3399.763,0.00029,0.0,0.0
15.159,3399.639,0.00029,0.0,0.0
15.165,3413.279,0.00029,0.0,0.0
15.172,3408.869,0.00029,0.0,0.0
15.178,3402.052,0.00029,0.0,0.0
15.184,3426.125,0.00029,0.0,0.0
15.191,3411.814,0.00029,0.0,0.0
15.197,3405.914,0.00029,0.0,0.0
15.203,3407.099,0.00029,0.0,0.0
15.21,3405.399,0.00029,0.0,0.0
15.216,3397.149,0.00029,0.0,0.0
15.222,3398.036,0.00029,0.0,0.0
15.229,3389.562,0.0003,0.0,0.0
15.235,3397.089,0.00029,0.0,0.0
15.241,3393.851,0.00029,0.0,0.0
15.248,3394.893,0.00029,0.0,0.0
15.254,3418.515,0.00029,0.0,0.0
15.26,3434.629,0.00029,0.0,0.0
15.266,3456.464,0.00029,0.0,0.0
15.273,3491.86,0.00029,0.0,0.0
15.279,3543.197,0.00028,0.0,0.0
15.285,3652.173,0.00027,0.0,0.0
15.292,3813.761,0.00026,0.0,0.0
15.298,4113.816,0.00024,0.0,0.0
15.304,4460.509,0.00022,0.0,0.0
15.311,5091.717,0.0002,0.0,0.0
15.317,5712.493,0.00018,0.0,0.0
15.323,6237.755,0.00016,0.0,0.0
15.33,6041.881,0.00017,0.0,0.0
15.336,6057.593,0.00017,0.0,0.0
15.342,5600.317,0.00018,0.0,0.0
15.349,4824.602,0.00021,0.0,0.0
15.355,4449.049,0.00022,0.0,0.0
15.361,3991.297,0.00025,0.0,0.0
15.368,3749.976,0.00027,0.0,0.0
15.374,3600.657,0.00028,0.0,0.0
15.38,3509.7,0.00028,0.0,0.0
15.387,3457.031,0.00029,0.0,0.0
15.393,3419.223,0.00029,0.0,0.0
15.399,3392.381,0.00029,0.0,0.0
15.406,3397.348,0.00029,0.0,0.0
15.412,3377.429,0.0003,0.0,0.0
15.418,3366.889,0.0003,0.0,0.0
15.424,3355.991,0.0003,0.0,0.0
15.431,3357.86,0.0003,0.0,0.0
15.437,3353.849,0.0003,0.0,0.0
15.443,3348.256,0.0003,0.0,0.0
15.45,3348.299,0.0003,0.0,0.0
15.456,3347.73,0.0003,0.0,0.0
15.462,3349.083,0.0003,0.0,0.0
15.469,3346.737,0.0003,0.0,0.0
15.475,3339.859,0.0003,0.0,0.0
15.481,3334.021,0.0003,0.0,0.0
15.488,3330.949,0.0003,0.0,0.0
15.494,3326.693,0.0003,0.0,0.0
15.5,3336.114,0.0003,0.0,0.0
15.507,3338.048,0.0003,0.0,0.0
15.513,3333.027,0.0003,0.0,0.0
15.519,3333.437,0.0003,0.0,0.0
15.526,3325.475,0.0003,0.0,0.0
15.532,3322.297,0.0003,0.0,0.0
15.538,3326.703,0.0003,0.0,0.0
15.545,3325.523,0.0003,0.0,0.0
15.551,3320.705,0.0003,0.0,0.0
15.557,3307.424,0.0003,0.0,0.0
15.564,3316.635,0.0003,0.0,0.0
15.57,3302.19,0.0003,0.0,0.0
15.576,3303.837,0.0003,0.0,0.0
15.582,3302.102,0.0003,0.0,0.0
15.589,3293.844,0.0003,0.0,0.0
15.595,3290.375,0.0003,0.0,0.0
15.601,3296.617,0.0003,0.0,0.0
15.608,3298.386,0.0003,0.0,0.0
15.614,3293.456,0.0003,0.0,0.0
15.62,3290.065,0.0003,0.0,0.0
15.627,3269.41,0.00031,0.0,0.0
15.633,3279.535,0.0003,0.0,0.0
15.639,3273.407,0.00031,0.0,0.0
15.646,3270.463,0.00031,0.0,0.0
15.652,3276.343,0.00031,0.0,0.0
15.658,3276.3,0.00031,0.0,0.0
15.665,3275.42,0.00031,0.0,0.0
15.671,3269.96,0.00031,0.0,0.0
15.677,3251.452,0.00031,0.0,0.0
15.684,3271.783,0.00031,0.0,0.0
15.69,3265.16,0.00031,0.0,0.0
15.696,3255.207,0.00031,0.0,0.0
15.703,3259.202,0.00031,0.0,0.0
15.709,3260.181,0.00031,0.0,0.0
15.715,3256.515,0.00031,0.0,0.0
15.722,3248.43,0.00031,0.0,0.0
15.728,3238.222,0.00031,0.0,0.0
15.734,3246.744,0.00031,0.0,0.0
15.74,3247.088,0.00031,0.0,0.0
15.747,3256.029,0.00031,0.0,0.0
15.753,3236.555,0.00031,0.0,0.0
15.759,3234.372,0.00031,0.0,0.0
15.766,3250.49,0.00031,0.0,0.0
15.772,3236.052,0.00031,0.0,0.0
15.778,3239.407,0.00031,0.0,0.0
15.785,3226.128,0.00031,0.0,0.0
15.791,3230.873,0.00031,0.0,0.0
15.797,3234.728,0.00031,0.0,0.0
15.804,3230.993,0.00031,0.0,0.0
15.81,3219.383,0.00031,0.0,0.0
15.816,3209.579,0.00031,0.0,0.0
15.823,3227.643,0.00031,0.0,0.0
15.829,3225.621,0.00031,0.0,0.0
15.835,3212.436,0.00031,0.0,0.0
15.842,3224.458,0.00031,0.0,0.0
15.848,3244.492,0.00031,0.0,0.0
15.854,3233.796,0.00031,0.0,0.0
15.861,3239.906,0.00031,0.0,0.0
15.867,3231.681,0.00031,0.0,0.0
15.873,3226.806,0.00031,0.0,0.0
15.88,3229.334,0.00031,0.0,0.0
15.886,3222.233,0.00031,0.0,0.0
15.892,3207.816,0.00031,0.0,0.0
15.898,3206.203,0.00031,0.0,0.0
15.905,3214.627,0.00031,0.0,0.0
15.911,3203.667,0.00031,0.0,0.0
15.917,3200.904,0.00031,0.0,0.0
15.924,3204.15,0.00031,0.0,0.0
15.93,3191.832,0.00031,0.0,0.0
15.936,3198.956,0.00031,0.0,0.0
15.943,3198.996,0.00031,0.0,0.0
15.949,3194.58,0.00031,0.0,0.0
15.955,3200.133,0.00031,0.0,0.0
15.962,3199.505,0.00031,0.0,0.0
15.968,3198.543,0.00031,0.0,0.0
15.974,3196.469,0.00031,0.0,0.0
15.981,3191.348,0.00031,0.0,0.0
15.987,3187.332,0.00031,0.0,0.0
15.993,3187.753,0.00031,0.0,0.0
16.0,3191.15,0.00031,0.0,0.0
16.006,3191.524,0.00031,0.0,0.0
16.012,3189.241,0.00031,0.0,0.0
16.019,3177.736,0.00031,0.0,0.0
16.025,3185.573,0.00031,0.0,0.0
16.031,3188.593,0.00031,0.0,0.0
16.038,3177.244,0.00031,0.0,0.0
16.044,3174.131,0.00032,0.0,0.0
16.05,3180.226,0.00031,0.0,0.0
16.056,3175.387,0.00031,0.0,0.0
16.063,3173.009,0.00032,0.0,0.0
16.069,3176.493,0.00031,0.0,0.0
16.075,3168.836,0.00032,0.0,0.0
16.082,3175.597,0.00031,0.0,0.0
16.088,3170.383,0.00032,0.0,0.0
16.094,3170.049,0.00032,0.0,0.0
16.101,3169.494,0.00032,0.0,0.0
16.107,3166.59,0.00032,0.0,0.0
16.113,3174.198,0.00032,0.0,0.0
16.12,3174.325,0.00032,0.0,0.0
16.126,3167.424,0.00032,0.0,0.0
16.132,3176.034,0.00031,0.0,0.0
16.139,3174.998,0.00031,0.0,0.0
16.145,3161.248,0.00032,0.0,0.0
16.151,3163.837,0.00032,0.0,0.0
16.158,3172.539,0.00032,0.0,0.0
16.164,3165.529,0.00032,0.0,0.0
16.17,3165.778,0.00032,0.0,0.0
16.177,3163.803,0.00032,0.0,0.0
16.183,3169.789,0.00032,0.0,0.0
16.189,3170.647,0.00032,0.0,0.0
16.196,3157.088,0.00032,0.0,0.0
16.202,3153.237,0.00032,0.0,0.0
16.208,3154.724,0.00032,0.0,0.0
16.214,3159.114,0.00032,0.0,0.0
16.221,3171.162,0.00032,0.0,0.0
16.227,3155.902,0.00032,0.0,0.0
16.233,3148.224,0.00032,0.0,0.0
16.24,3153.727,0.00032,0.0,0.0
16.246,3163.715,0.00032,0.0,0.0
16.252,3157.646,0.00032,0.0,0.0
16.259,3168.107,0.00032,0.0,0.0
16.265,3144.081,0.00032,0.0,0.0
16.271,3164.602,0.00032,0.0,0.0
16.278,3151.166,0.00032,0.0,0.0
16.284,3154.511,0.00032,0.0,0.0
16.29,3152.078,0.00032,0.0,0.0
16.297,3155.422,0.00032,0.0,0.0
16.303,3158.185,0.00032,0.0,0.0
16.309,3164.784,0.00032,0.0,0.0
16.316,3167.069,0.00032,0.0,0.0
16.322,3152.4,0.00032,0.0,0.0
16.328,3157.92,0.00032,0.0,0.0
16.335,3163.357,0.00032,0.0,0.0
16.341,3153.843,0.00032,0.0,0.0
16.347,3160.002,0.00032,0.0,0.0
16.354,3163.332,0.00032,0.0,0.0
16.36,3160.338,0.00032,0.0,0.0
16.366,3157.492,0.00032,0.0,0.0
16.372,3154.478,0.00032,0.0,0.0
16.379,3149.29,0.00032,0.0,0.0
16.385,3142.385,0.00032,0.0,0.0
16.391,3149.65,0.00032,0.0,0.0
16.398,3152.354,0.00032,0.0,0.0
16.404,3151.664,0.00032,0.0,0.0
16.41,3146.889,0.00032,0.0,0.0
16.417,3149.289,0.00032,0.0,0.0
16.423,3159.109,0.00032,0.0,0.0
16.429,3153.668,0.00032,0.0,0.0
16.436,3155.542,0.00032,0.0,0.0
16.442,3163.438,0.00032,0.0,0.0
16.448,3161.357,0.00032,0.0,0.0
16.455,3157.446,0.00032,0.0,0.0
16.461,3168.159,0.00032,0.0,0.0
16.467,3163.336,0.00032,0.0,0.0
16.474,3176.91,0.00031,0.0,0.0
16.48,3179.68,0.00031,0.0,0.0
16.486,3186.257,0.00031,0.0,0.0
16.493,3190.276,0.00031,0.0,0.0
16.499,3217.637,0.00031,0.0,0.0
16.505,3252.331,0.00031,0.0,0.0
16.512,3230.004,0.00031,0.0,0.0
16.518,3254.487,0.00031,0.0,0.0
16.524,3252.818,0.00031,0.0,0.0
16.53,3220.127,0.00031,0.0,0.0
16.537,3237.65,0.00031,0.0,0.0
16.543,3209.405,0.00031,0.0,0.0
16.549,3191.094,0.00031,0.0,0.0
16.556,3187.887,0.00031,0.0,0.0
16.562,3173.142,0.00032,0.0,0.0
16.568,3180.111,0.00031,0.0,0.0
16.575,3182.329,0.00031,0.0,0.0
16.581,3173.744,0.00032,0.0,0.0
16.587,3184.678,0.00031,0.0,0.0
16.594,3184.177,0.00031,0.0,0.0
