"x","y_obs","weight","y_calc","y_bkg"
0.8,2839.884,0.00035,0.0,0.0
0.806,3304.493,0.0003,0.0,0.0
0.813,3356.114,0.0003,0.0,0.0
0.819,3254.348,0.00031,0.0,0.0
0.825,3946.956,0.00025,0.0,0.0
0.832,3701.443,0.00027,0.0,0.0
0.838,3953.386,0.00025,0.0,0.0
0.844,4264.737,0.00023,0.0,0.0
0.851,4140.259,0.00024,0.0,0.0
0.857,4547.8,0.00022,0.0,0.0
0.863,4906.626,0.0002,0.0,0.0
0.87,4501.989,0.00022,0.0,0.0
0.876,5313.631,0.00019,0.0,0.0
0.882,5153.6,0.00019,0.0,0.0
0.888,5422.362,0.00018,0.0,0.0
0.895,5637.734,0.00018,0.0,0.0
0.901,5605.034,0.00018,0.0,0.0
0.907,6100.067,0.00016,0.0,0.0
0.914,6217.421,0.00016,0.0,0.0
0.92,5888.44,0.00017,0.0,0.0
0.926,6517.937,0.00015,0.0,0.0
0.933,6486.919,0.00015,0.0,0.0
0.939,6267.702,0.00016,0.0,0.0
0.945,6877.213,0.00015,0.0,0.0
0.952,6459.877,0.00015,0.0,0.0
0.958,6881.75,0.00015,0.0,0.0
0.964,6874.377,0.00015,0.0,0.0
0.971,6659.132,0.00015,0.0,0.0
0.977,7066.843,0.00014,0.0,0.0
0.983,7066.614,0.00014,0.0,0.0
0.99,6911.277,0.00014,0.0,0.0
0.996,7230.857,0.00014,0.0,0.0
1.002,6991.188,0.00014,0.0,0.0
1.009,7129.663,0.00014,0.0,0.0
1.015,7255.027,0.00014,0.0,0.0
1.021,6987.811,0.00014,0.0,0.0
1.028,7226.034,0.00014,0.0,0.0
1.034,7102.081,0.00014,0.0,0.0
1.04,7055.866,0.00014,0.0,0.0
1.046,7141.258,0.00014,0.0,0.0
1.053,7136.629,0.00014,0.0,0.0
1.059,7083.161,0.00014,0.0,0.0
1.065,7148.637,0.00014,0.0,0.0
1.072,6985.837,0.00014,0.0,0.0
1.078,7097.621,0.00014,0.0,0.0
1.084,6999.724,0.00014,0.0,0.0
1.091,7020.37,0.00014,0.0,0.0
1.097,7009.349,0.00014,0.0,0.0
1.103,6968.082,0.00014,0.0,0.0
1.11,6945.669,0.00014,0.0,0.0
1.116,6877.834,0.00015,0.0,0.0
1.122,6799.818,0.00015,0.0,0.0
1.129,6870.176,0.00015,0.0,0.0
1.135,6758.34,0.00015,0.0,0.0
1.141,6731.956,0.00015,0.0,0.0
1.148,6748.991,0.00015,0.0,0.0
1.154,6636.672,0.00015,0.0,0.0
1.16,6593.745,0.00015,0.0,0.0
1.167,6613.415,0.00015,0.0,0.0
1.173,6535.469,0.00015,0.0,0.0
1.179,6539.829,0.00015,0.0,0.0
1.186,6398.638,0.00016,0.0,0.0
1.192,6426.684,0.00016,0.0,0.0
1.198,6385.4,0.00016,0.0,0.0
1.204,6293.93,0.00016,0.0,0.0
1.211,6280.128,0.00016,0.0,0.0
1.217,6251.065,0.00016,0.0,0.0
1.223,6157.554,0.00016,0.0,0.0
1.23,6155.234,0.00016,0.0,0.0
1.236,6133.744,0.00016,0.0,0.0
1.242,6134.186,0.00016,0.0,0.0
1.249,6126.781,0.00016,0.0,0.0
1.255,6056.809,0.00017,0.0,0.0
1.261,6034.263,0.00017,0.0,0.0
1.268,6052.465,0.00017,0.0,0.0
1.274,5941.948,0.00017,0.0,0.0
1.28,5977.307,0.00017,0.0,0.0
1.287,5909.975,0.00017,0.0,0.0
1.293,5921.32,0.00017,0.0,0.0
1.299,5867.092,0.00017,0.0,0.0
1.306,5882.219,0.00017,0.0,0.0
1.312,5822.158,0.00017,0.0,0.0
1.318,5817.109,0.00017,0.0,0.0
1.325,5762.124,0.00017,0.0,0.0
1.331,5831.588,0.00017,0.0,0.0
1.337,5762.492,0.00017,0.0,0.0
1.344,5713.421,0.00018,0.0,0.0
1.35,5735.463,0.00017,0.0,0.0
1.356,5696.828,0.00018,0.0,0.0
1.362,5719.329,0.00017,0.0,0.0
1.369,5713.046,0.00018,0.0,0.0
1.375,5690.664,0.00018,0.0,0.0
1.381,5651.796,0.00018,0.0,0.0
1.388,5674.733,0.00018,0.0,0.0
1.394,5598.719,0.00018,0.0,0.0
1.4,5627.637,0.00018,0.0,0.0
1.407,5610.56,0.00018,0.0,0.0
1.413,5643.992,0.00018,0.0,0.0
1.419,5560.48,0.00018,0.0,0.0
1.426,5602.327,0.00018,0.0,0.0
1.432,5546.644,0.00018,0.0,0.0
1.438,5554.476,0.00018,0.0,0.0
1.445,5541.401,0.00018,0.0,0.0
1.451,5591.526,0.00018,0.0,0.0
1.457,5566.64,0.00018,0.0,0.0
1.464,5558.235,0.00018,0.0,0.0
1.47,5582.852,0.00018,0.0,0.0
1.476,5533.139,0.00018,0.0,0.0
1.483,5589.044,0.00018,0.0,0.0
1.489,5549.433,0.00018,0.0,0.0
1.495,5547.002,0.00018,0.0,0.0
1.502,5539.139,0.00018,0.0,0.0
1.508,5541.691,0.00018,0.0,0.0
1.514,5544.345,0.00018,0.0,0.0
1.52,5562.091,0.00018,0.0,0.0
1.527,5571.899,0.00018,0.0,0.0
1.533,5568.496,0.00018,0.0,0.0
1.539,5585.787,0.00018,0.0,0.0
1.546,5527.016,0.00018,0.0,0.0
1.552,5596.914,0.00018,0.0,0.0
1.558,5567.283,0.00018,0.0,0.0
1.565,5587.751,0.00018,0.0,0.0
1.571,5579.703,0.00018,0.0,0.0
1.577,5577.851,0.00018,0.0,0.0
1.584,5608.617,0.00018,0.0,0.0
1.59,5609.563,0.00018,0.0,0.0
1.596,5588.915,0.00018,0.0,0.0
1.603,5661.802,0.00018,0.0,0.0
1.609,5614.42,0.00018,0.0,0.0
1.615,5645.836,0.00018,0.0,0.0
1.622,5668.071,0.00018,0.0,0.0
1.628,5673.585,0.00018,0.0,0.0
1.634,5691.31,0.00018,0.0,0.0
1.641,5695.76,0.00018,0.0,0.0
1.647,5712.641,0.00018,0.0,0.0
1.653,5757.384,0.00017,0.0,0.0
1.66,5718.114,0.00017,0.0,0.0
1.666,5706.454,0.00018,0.0,0.0
1.672,5744.475,0.00017,0.0,0.0
1.678,5778.702,0.00017,0.0,0.0
1.685,5742.076,0.00017,0.0,0.0
1.691,5785.932,0.00017,0.0,0.0
1.697,5815.235,0.00017,0.0,0.0
1.704,5820.476,0.00017,0.0,0.0
1.71,5846.699,0.00017,0.0,0.0
1.716,5876.597,0.00017,0.0,0.0
1.723,5872.995,0.00017,0.0,0.0
1.729,5874.621,0.00017,0.0,0.0
1.735,5820.606,0.00017,0.0,0.0
1.742,5897.437,0.00017,0.0,0.0
1.748,5886.03,0.00017,0.0,0.0
1.754,5904.435,0.00017,0.0,0.0
1.761,5917.263,0.00017,0.0,0.0
1.767,5912.607,0.00017,0.0,0.0
1.773,5936.328,0.00017,0.0,0.0
1.78,5946.55,0.00017,0.0,0.0
1.786,5936.021,0.00017,0.0,0.0
1.792,5924.03,0.00017,0.0,0.0
1.799,5944.409,0.00017,0.0,0.0
1.805,5961.368,0.00017,0.0,0.0
1.811,5937.081,0.00017,0.0,0.0
1.818,5951.013,0.00017,0.0,0.0
1.824,5973.71,0.00017,0.0,0.0
1.83,5988.584,0.00017,0.0,0.0
1.836,5947.842,0.00017,0.0,0.0
1.843,5984.132,0.00017,0.0,0.0
1.849,5948.592,0.00017,0.0,0.0
1.855,5977.46,0.00017,0.0,0.0
1.862,5972.821,0.00017,0.0,0.0
1.868,5984.574,0.00017,0.0,0.0
1.874,5994.859,0.00017,0.0,0.0
1.881,6003.752,0.00017,0.0,0.0
1.887,5982.09,0.00017,0.0,0.0
1.893,5987.718,0.00017,0.0,0.0
1.9,5943.471,0.00017,0.0,0.0
1.906,5972.531,0.00017,0.0,0.0
1.912,5965.042,0.00017,0.0,0.0
1.919,5985.927,0.00017,0.0,0.0
1.925,5998.306,0.00017,0.0,0.0
1.931,5980.379,0.00017,0.0,0.0
1.938,5992.323,0.00017,0.0,0.0
1.944,5948.719,0.00017,0.0,0.0
1.95,5968.238,0.00017,0.0,0.0
1.957,5980.707,0.00017,0.0,0.0
1.963,5987.122,0.00017,0.0,0.0
1.969,5955.484,0.00017,0.0,0.0
1.976,6001.207,0.00017,0.0,0.0
1.982,6002.949,0.00017,0.0,0.0
1.988,5964.141,0.00017,0.0,0.0
1.994,5975.283,0.00017,0.0,0.0
2.001,5976.8,0.00017,0.0,0.0
2.007,5978.585,0.00017,0.0,0.0
2.013,5950.538,0.00017,0.0,0.0
2.02,5960.183,0.00017,0.0,0.0
2.026,6021.277,0.00017,0.0,0.0
2.032,5961.376,0.00017,0.0,0.0
2.039,5995.898,0.00017,0.0,0.0
2.045,5956.981,0.00017,0.0,0.0
2.051,5988.028,0.00017,0.0,0.0
2.058,5998.331,0.00017,0.0,0.0
2.064,5977.381,0.00017,0.0,0.0
2.07,5997.904,0.00017,0.0,0.0
2.077,6025.213,0.00017,0.0,0.0
2.083,6007.594,0.00017,0.0,0.0
2.089,5998.692,0.00017,0.0,0.0
2.096,5999.256,0.00017,0.0,0.0
2.102,6013.646,0.00017,0.0,0.0
2.108,6037.887,0.00017,0.0,0.0
2.115,6049.398,0.00017,0.0,0.0
2.121,6048.434,0.00017,0.0,0.0
2.127,6072.034,0.00016,0.0,0.0
2.134,6070.237,0.00016,0.0,0.0
2.14,6084.602,0.00016,0.0,0.0
2.146,6084.256,0.00016,0.0,0.0
2.152,6083.824,0.00016,0.0,0.0
2.159,6111.371,0.00016,0.0,0.0
2.165,6138.392,0.00016,0.0,0.0
2.171,6098.599,0.00016,0.0,0.0
2.178,6129.197,0.00016,0.0,0.0
2.184,6133.767,0.00016,0.0,0.0
2.19,6130.491,0.00016,0.0,0.0
2.197,6141.007,0.00016,0.0,0.0
2.203,6190.919,0.00016,0.0,0.0
2.209,6158.027,0.00016,0.0,0.0
2.216,6186.505,0.00016,0.0,0.0
2.222,6170.209,0.00016,0.0,0.0
2.228,6187.827,0.00016,0.0,0.0
2.235,6202.98,0.00016,0.0,0.0
2.241,6197.887,0.00016,0.0,0.0
2.247,6206.104,0.00016,0.0,0.0
2.254,6277.978,0.00016,0.0,0.0
2.26,6249.142,0.00016,0.0,0.0
2.266,6287.238,0.00016,0.0,0.0
2.273,6303.803,0.00016,0.0,0.0
2.279,6339.013,0.00016,0.0,0.0
2.285,6340.669,0.00016,0.0,0.0
2.292,6350.16,0.00016,0.0,0.0
2.298,6367.057,0.00016,0.0,0.0
2.304,6402.167,0.00016,0.0,0.0
2.31,6396.087,0.00016,0.0,0.0
2.317,6426.463,0.00016,0.0,0.0
2.323,6439.503,0.00016,0.0,0.0
2.329,6484.301,0.00015,0.0,0.0
2.336,6477.776,0.00015,0.0,0.0
2.342,6515.668,0.00015,0.0,0.0
2.348,6525.642,0.00015,0.0,0.0
2.355,6547.502,0.00015,0.0,0.0
2.361,6535.122,0.00015,0.0,0.0
2.367,6585.842,0.00015,0.0,0.0
2.374,6599.156,0.00015,0.0,0.0
2.38,6635.666,0.00015,0.0,0.0
2.386,6680.686,0.00015,0.0,0.0
2.393,6717.283,0.00015,0.0,0.0
2.399,6765.757,0.00015,0.0,0.0
2.405,6861.937,0.00015,0.0,0.0
2.412,6984.207,0.00014,0.0,0.0
2.418,7110.396,0.00014,0.0,0.0
2.424,7157.986,0.00014,0.0,0.0
2.431,7233.244,0.00014,0.0,0.0
2.437,7201.412,0.00014,0.0,0.0
2.443,7124.63,0.00014,0.0,0.0
2.45,7075.149,0.00014,0.0,0.0
2.456,7003.267,0.00014,0.0,0.0
2.462,7013.29,0.00014,0.0,0.0
2.468,6944.889,0.00014,0.0,0.0
2.475,6966.692,0.00014,0.0,0.0
2.481,6983.94,0.00014,0.0,0.0
2.487,6963.469,0.00014,0.0,0.0
2.494,7046.773,0.00014,0.0,0.0
2.5,7051.0,0.00014,0.0,0.0
2.506,7084.265,0.00014,0.0,0.0
2.513,7099.434,0.00014,0.0,0.0
2.519,7094.251,0.00014,0.0,0.0
2.525,7137.715,0.00014,0.0,0.0
2.532,7160.286,0.00014,0.0,0.0
2.538,7188.414,0.00014,0.0,0.0
2.544,7226.083,0.00014,0.0,0.0
2.551,7258.787,0.00014,0.0,0.0
2.557,7275.083,0.00014,0.0,0.0
2.563,7296.263,0.00014,0.0,0.0
2.57,7310.641,0.00014,0.0,0.0
2.576,7333.67,0.00014,0.0,0.0
2.582,7369.277,0.00014,0.0,0.0
2.589,7386.722,0.00014,0.0,0.0
2.595,7440.088,0.00013,0.0,0.0
2.601,7442.853,0.00013,0.0,0.0
2.608,7456.292,0.00013,0.0,0.0
2.614,7455.995,0.00013,0.0,0.0
2.62,7513.125,0.00013,0.0,0.0
2.626,7506.042,0.00013,0.0,0.0
2.633,7523.143,0.00013,0.0,0.0
2.639,7569.236,0.00013,0.0,0.0
2.645,7626.802,0.00013,0.0,0.0
2.652,7646.033,0.00013,0.0,0.0
2.658,7680.798,0.00013,0.0,0.0
2.664,7686.968,0.00013,0.0,0.0
2.671,7686.808,0.00013,0.0,0.0
2.677,7709.556,0.00013,0.0,0.0
2.683,7729.778,0.00013,0.0,0.0
2.69,7789.294,0.00013,0.0,0.0
2.696,7764.901,0.00013,0.0,0.0
2.702,7844.942,0.00013,0.0,0.0
2.709,7848.471,0.00013,0.0,0.0
2.715,7883.054,0.00013,0.0,0.0
2.721,7899.134,0.00013,0.0,0.0
2.728,7935.549,0.00013,0.0,0.0
2.734,7932.4,0.00013,0.0,0.0
2.74,7966.044,0.00013,0.0,0.0
2.747,7996.174,0.00013,0.0,0.0
2.753,8052.832,0.00012,0.0,0.0
2.759,8093.788,0.00012,0.0,0.0
2.766,8100.365,0.00012,0.0,0.0
2.772,8130.986,0.00012,0.0,0.0
2.778,8137.498,0.00012,0.0,0.0
2.784,8148.124,0.00012,0.0,0.0
2.791,8180.818,0.00012,0.0,0.0
2.797,8192.269,0.00012,0.0,0.0
2.803,8216.844,0.00012,0.0,0.0
2.81,8234.063,0.00012,0.0,0.0
2.816,8276.011,0.00012,0.0,0.0
2.822,8307.527,0.00012,0.0,0.0
2.829,8314.97,0.00012,0.0,0.0
2.835,8367.615,0.00012,0.0,0.0
2.841,8388.417,0.00012,0.0,0.0
2.848,8427.279,0.00012,0.0,0.0
2.854,8421.624,0.00012,0.0,0.0
2.86,8463.146,0.00012,0.0,0.0
2.867,8479.994,0.00012,0.0,0.0
2.873,8512.184,0.00012,0.0,0.0
2.879,8565.659,0.00012,0.0,0.0
2.886,8555.293,0.00012,0.0,0.0
2.892,8579.04,0.00012,0.0,0.0
2.898,8617.509,0.00012,0.0,0.0
2.905,8621.231,0.00012,0.0,0.0
2.911,8661.327,0.00012,0.0,0.0
2.917,8686.865,0.00012,0.0,0.0
2.924,8697.961,0.00011,0.0,0.0
2.93,8727.175,0.00011,0.0,0.0
2.936,8734.893,0.00011,0.0,0.0
2.942,8758.355,0.00011,0.0,0.0
2.949,8772.007,0.00011,0.0,0.0
2.955,8790.634,0.00011,0.0,0.0
2.961,8788.993,0.00011,0.0,0.0
2.968,8843.624,0.00011,0.0,0.0
2.974,8855.135,0.00011,0.0,0.0
2.98,8868.116,0.00011,0.0,0.0
2.987,8898.551,0.00011,0.0,0.0
2.993,8888.673,0.00011,0.0,0.0
2.999,8949.555,0.00011,0.0,0.0
3.006,8904.283,0.00011,0.0,0.0
3.012,8952.556,0.00011,0.0,0.0
3.018,8953.806,0.00011,0.0,0.0
3.025,8945.899,0.00011,0.0,0.0
3.031,8968.242,0.00011,0.0,0.0
3.037,8954.897,0.00011,0.0,0.0
3.044,8981.162,0.00011,0.0,0.0
3.05,9003.422,0.00011,0.0,0.0
3.056,8997.6,0.00011,0.0,0.0
3.063,9025.251,0.00011,0.0,0.0
3.069,9012.57,0.00011,0.0,0.0
3.075,9003.268,0.00011,0.0,0.0
3.082,9025.345,0.00011,0.0,0.0
3.088,9016.445,0.00011,0.0,0.0
3.094,9033.105,0.00011,0.0,0.0
3.1,9021.333,0.00011,0.0,0.0
3.107,9025.838,0.00011,0.0,0.0
3.113,9017.276,0.00011,0.0,0.0
3.119,9026.314,0.00011,0.0,0.0
3.126,9026.481,0.00011,0.0,0.0
3.132,9017.641,0.00011,0.0,0.0
3.138,9020.469,0.00011,0.0,0.0
3.145,9000.313,0.00011,0.0,0.0
3.151,9021.136,0.00011,0.0,0.0
3.157,8982.325,0.00011,0.0,0.0
3.164,9009.187,0.00011,0.0,0.0
3.17,8970.55,0.00011,0.0,0.0
3.176,9001.823,0.00011,0.0,0.0
3.183,9020.334,0.00011,0.0,0.0
3.189,8983.979,0.00011,0.0,0.0
3.195,8967.669,0.00011,0.0,0.0
3.202,8974.246,0.00011,0.0,0.0
3.208,8950.53,0.00011,0.0,0.0
3.214,8928.807,0.00011,0.0,0.0
3.221,8937.734,0.00011,0.0,0.0
3.227,8924.337,0.00011,0.0,0.0
3.233,8900.145,0.00011,0.0,0.0
3.24,8876.891,0.00011,0.0,0.0
3.246,8854.553,0.00011,0.0,0.0
3.252,8844.451,0.00011,0.0,0.0
3.258,8850.476,0.00011,0.0,0.0
3.265,8829.031,0.00011,0.0,0.0
3.271,8816.284,0.00011,0.0,0.0
3.277,8806.897,0.00011,0.0,0.0
3.284,8804.675,0.00011,0.0,0.0
3.29,8776.65,0.00011,0.0,0.0
3.296,8733.359,0.00011,0.0,0.0
3.303,8772.23,0.00011,0.0,0.0
3.309,8738.273,0.00011,0.0,0.0
3.315,8733.221,0.00011,0.0,0.0
3.322,8707.056,0.00011,0.0,0.0
3.328,8666.038,0.00012,0.0,0.0
3.334,8691.965,0.00012,0.0,0.0
3.341,8625.008,0.00012,0.0,0.0
3.347,8656.132,0.00012,0.0,0.0
3.353,8620.362,0.00012,0.0,0.0
3.36,8599.019,0.00012,0.0,0.0
3.366,8614.112,0.00012,0.0,0.0
3.372,8578.208,0.00012,0.0,0.0
3.379,8568.0,0.00012,0.0,0.0
3.385,8545.569,0.00012,0.0,0.0
3.391,8537.279,0.00012,0.0,0.0
3.398,8555.201,0.00012,0.0,0.0
3.404,8523.512,0.00012,0.0,0.0
3.41,8508.294,0.00012,0.0,0.0
3.416,8485.783,0.00012,0.0,0.0
3.423,8481.389,0.00012,0.0,0.0
3.429,8496.49,0.00012,0.0,0.0
3.435,8468.328,0.00012,0.0,0.0
3.442,8486.804,0.00012,0.0,0.0
3.448,8451.284,0.00012,0.0,0.0
3.454,8417.82,0.00012,0.0,0.0
3.461,8419.506,0.00012,0.0,0.0
3.467,8400.227,0.00012,0.0,0.0
3.473,8412.8,0.00012,0.0,0.0
3.48,8377.334,0.00012,0.0,0.0
3.486,8342.565,0.00012,0.0,0.0
3.492,8370.002,0.00012,0.0,0.0
3.499,8344.912,0.00012,0.0,0.0
3.505,8374.951,0.00012,0.0,0.0
3.511,8349.834,0.00012,0.0,0.0
3.518,8351.609,0.00012,0.0,0.0
3.524,8335.59,0.00012,0.0,0.0
3.53,8295.556,0.00012,0.0,0.0
3.537,8308.649,0.00012,0.0,0.0
3.543,8298.853,0.00012,0.0,0.0
3.549,8292.005,0.00012,0.0,0.0
3.556,8296.104,0.00012,0.0,0.0
3.562,8279.824,0.00012,0.0,0.0
3.568,8294.66,0.00012,0.0,0.0
3.574,8283.653,0.00012,0.0,0.0
3.581,8277.483,0.00012,0.0,0.0
3.587,8289.582,0.00012,0.0,0.0
3.593,8269.966,0.00012,0.0,0.0
3.6,8289.912,0.00012,0.0,0.0
3.606,8295.311,0.00012,0.0,0.0
3.612,8283.672,0.00012,0.0,0.0
3.619,8307.067,0.00012,0.0,0.0
3.625,8311.744,0.00012,0.0,0.0
3.631,8296.433,0.00012,0.0,0.0
3.638,8297.617,0.00012,0.0,0.0
3.644,8300.974,0.00012,0.0,0.0
3.65,8303.498,0.00012,0.0,0.0
3.657,8314.865,0.00012,0.0,0.0
3.663,8305.77,0.00012,0.0,0.0
3.669,8310.659,0.00012,0.0,0.0
3.676,8358.306,0.00012,0.0,0.0
3.682,8328.18,0.00012,0.0,0.0
3.688,8336.042,0.00012,0.0,0.0
3.695,8374.915,0.00012,0.0,0.0
3.701,8361.575,0.00012,0.0,0.0
3.707,8366.316,0.00012,0.0,0.0
3.714,8385.734,0.00012,0.0,0.0
3.72,8361.853,0.00012,0.0,0.0
3.726,8366.202,0.00012,0.0,0.0
3.732,8385.135,0.00012,0.0,0.0
3.739,8398.374,0.00012,0.0,0.0
3.745,8371.907,0.00012,0.0,0.0
3.751,8394.728,0.00012,0.0,0.0
3.758,8415.597,0.00012,0.0,0.0
3.764,8404.347,0.00012,0.0,0.0
3.77,8408.562,0.00012,0.0,0.0
3.777,8416.037,0.00012,0.0,0.0
3.783,8426.369,0.00012,0.0,0.0
3.789,8431.121,0.00012,0.0,0.0
3.796,8431.692,0.00012,0.0,0.0
3.802,8420.93,0.00012,0.0,0.0
3.808,8465.622,0.00012,0.0,0.0
3.815,8447.963,0.00012,0.0,0.0
3.821,8449.936,0.00012,0.0,0.0
3.827,8450.315,0.00012,0.0,0.0
3.834,8459.197,0.00012,0.0,0.0
3.84,8446.651,0.00012,0.0,0.0
3.846,8442.18,0.00012,0.0,0.0
3.853,8436.99,0.00012,0.0,0.0
3.859,8432.757,0.00012,0.0,0.0
3.865,8409.732,0.00012,0.0,0.0
3.872,8426.774,0.00012,0.0,0.0
3.878,8420.556,0.00012,0.0,0.0
3.884,8394.742,0.00012,0.0,0.0
3.89,8395.272,0.00012,0.0,0.0
3.897,8368.383,0.00012,0.0,0.0
3.903,8365.877,0.00012,0.0,0.0
3.909,8355.632,0.00012,0.0,0.0
3.916,8362.738,0.00012,0.0,0.0
3.922,8363.451,0.00012,0.0,0.0
3.928,8339.637,0.00012,0.0,0.0
3.935,8369.46,0.00012,0.0,0.0
3.941,8369.851,0.00012,0.0,0.0
3.947,8454.074,0.00012,0.0,0.0
3.954,8416.011,0.00012,0.0,0.0
3.96,8430.827,0.00012,0.0,0.0
3.966,9496.628,0.00011,0.0,0.0
3.973,8475.053,0.00012,0.0,0.0
3.979,8659.152,0.00012,0.0,0.0
3.985,8701.414,0.00011,0.0,0.0
3.992,8367.227,0.00012,0.0,0.0
3.998,8366.806,0.00012,0.0,0.0
4.004,8332.049,0.00012,0.0,0.0
4.011,8299.394,0.00012,0.0,0.0
4.017,8266.281,0.00012,0.0,0.0
4.023,8288.486,0.00012,0.0,0.0
4.03,8267.892,0.00012,0.0,0.0
4.036,8249.804,0.00012,0.0,0.0
4.042,8278.958,0.00012,0.0,0.0
4.048,8263.432,0.00012,0.0,0.0
4.055,8253.295,0.00012,0.0,0.0
4.061,8261.785,0.00012,0.0,0.0
4.067,8266.461,0.00012,0.0,0.0
4.074,8277.651,0.00012,0.0,0.0
4.08,8308.674,0.00012,0.0,0.0
4.086,8258.737,0.00012,0.0,0.0
4.093,8316.388,0.00012,0.0,0.0
4.099,8307.745,0.00012,0.0,0.0
4.105,8302.849,0.00012,0.0,0.0
4.112,8326.889,0.00012,0.0,0.0
4.118,8334.55,0.00012,0.0,0.0
4.124,8337.586,0.00012,0.0,0.0
4.131,8365.75,0.00012,0.0,0.0
4.137,8351.044,0.00012,0.0,0.0
4.143,8381.783,0.00012,0.0,0.0
4.15,8400.168,0.00012,0.0,0.0
4.156,8412.16,0.00012,0.0,0.0
4.162,8444.01,0.00012,0.0,0.0
4.169,8431.895,0.00012,0.0,0.0
4.175,8469.441,0.00012,0.0,0.0
4.181,8475.54,0.00012,0.0,0.0
4.188,8484.923,0.00012,0.0,0.0
4.194,8556.541,0.00012,0.0,0.0
4.2,8556.689,0.00012,0.0,0.0
4.206,8557.187,0.00012,0.0,0.0
4.213,8656.447,0.00012,0.0,0.0
4.219,8603.191,0.00012,0.0,0.0
4.225,8660.892,0.00012,0.0,0.0
4.232,8680.625,0.00012,0.0,0.0
4.238,8634.187,0.00012,0.0,0.0
4.244,8733.263,0.00011,0.0,0.0
4.251,8717.978,0.00011,0.0,0.0
4.257,8740.953,0.00011,0.0,0.0
4.263,8815.892,0.00011,0.0,0.0
4.27,8765.93,0.00011,0.0,0.0
4.276,8921.771,0.00011,0.0,0.0
4.282,8897.865,0.00011,0.0,0.0
4.289,8893.793,0.00011,0.0,0.0
4.295,9012.402,0.00011,0.0,0.0
4.301,8976.035,0.00011,0.0,0.0
4.308,9063.15,0.00011,0.0,0.0
4.314,9094.291,0.00011,0.0,0.0
4.32,9097.28,0.00011,0.0,0.0
4.327,9184.699,0.00011,0.0,0.0
4.333,9182.192,0.00011,0.0,0.0
4.339,9226.355,0.00011,0.0,0.0
4.346,9385.823,0.00011,0.0,0.0
4.352,9294.09,0.00011,0.0,0.0
4.358,9471.516,0.00011,0.0,0.0
4.364,9501.253,0.00011,0.0,0.0
4.371,9436.232,0.00011,0.0,0.0
4.377,9800.781,0.0001,0.0,0.0
4.383,9670.872,0.0001,0.0,0.0
4.39,9809.399,0.0001,0.0,0.0
4.396,9942.924,0.0001,0.0,0.0
4.402,9886.153,0.0001,0.0,0.0
4.409,9996.686,0.0001,0.0,0.0
4.415,10196.472,0.0001,0.0,0.0
4.421,10158.946,0.0001,0.0,0.0
4.428,10485.058,0.0001,0.0,0.0
4.434,10425.791,0.0001,0.0,0.0
4.44,10483.636,0.0001,0.0,0.0
4.447,10774.528,0.00009,0.0,0.0
4.453,10698.183,0.00009,0.0,0.0
4.459,11267.103,0.00009,0.0,0.0
4.466,11340.582,0.00009,0.0,0.0
4.472,11330.257,0.00009,0.0,0.0
4.478,12071.774,0.00008,0.0,0.0
4.485,11909.596,0.00008,0.0,0.0
4.491,12471.401,0.00008,0.0,0.0
4.497,13863.758,0.00007,0.0,0.0
4.504,13340.106,0.00007,0.0,0.0
4.51,16653.535,0.00006,0.0,0.0
4.516,17431.819,0.00006,0.0,0.0
4.522,19415.716,0.00005,0.0,0.0
4.529,32810.693,0.00003,0.0,0.0
4.535,39051.865,0.00003,0.0,0.0
4.541,53601.487,0.00002,0.0,0.0
4.548,87771.516,0.00001,0.0,0.0
4.554,71741.152,0.00001,0.0,0.0
4.56,97018.872,0.00001,0.0,0.0
4.567,85296.52,0.00001,0.0,0.0
4.573,79853.334,0.00001,0.0,0.0
4.579,74777.972,0.00001,0.0,0.0
4.586,48322.42,0.00002,0.0,0.0
4.592,49277.271,0.00002,0.0,0.0
4.598,27556.606,0.00004,0.0,0.0
4.605,26234.184,0.00004,0.0,0.0
4.611,18134.753,0.00006,0.0,0.0
4.617,16545.056,0.00006,0.0,0.0
4.624,14102.841,0.00007,0.0,0.0
4.63,14156.545,0.00007,0.0,0.0
4.636,12506.941,0.00008,0.0,0.0
4.643,12459.703,0.00008,0.0,0.0
4.649,11939.572,0.00008,0.0,0.0
4.655,11521.642,0.00009,0.0,0.0
4.662,11702.638,0.00009,0.0,0.0
4.668,11131.057,0.00009,0.0,0.0
4.674,10854.046,0.00009,0.0,0.0
4.68,11098.204,0.00009,0.0,0.0
4.687,10504.262,0.0001,0.0,0.0
4.693,10615.343,0.00009,0.0,0.0
4.699,10491.502,0.0001,0.0,0.0
4.706,10165.182,0.0001,0.0,0.0
4.712,10387.682,0.0001,0.0,0.0
4.718,10061.89,0.0001,0.0,0.0
4.725,9846.828,0.0001,0.0,0.0
4.731,10102.639,0.0001,0.0,0.0
4.737,9701.487,0.0001,0.0,0.0
4.744,9779.985,0.0001,0.0,0.0
4.75,9689.977,0.0001,0.0,0.0
4.756,9521.012,0.00011,0.0,0.0
4.763,9541.466,0.0001,0.0,0.0
4.769,9371.534,0.00011,0.0,0.0
4.775,9335.866,0.00011,0.0,0.0
4.782,9369.382,0.00011,0.0,0.0
4.788,9195.692,0.00011,0.0,0.0
4.794,9126.726,0.00011,0.0,0.0
4.801,9129.576,0.00011,0.0,0.0
4.807,8927.882,0.00011,0.0,0.0
4.813,9048.19,0.00011,0.0,0.0
4.82,8906.891,0.00011,0.0,0.0
4.826,8925.387,0.00011,0.0,0.0
4.832,8941.275,0.00011,0.0,0.0
4.838,8883.074,0.00011,0.0,0.0
4.845,8928.623,0.00011,0.0,0.0
4.851,9074.27,0.00011,0.0,0.0
4.857,9041.155,0.00011,0.0,0.0
4.864,9052.605,0.00011,0.0,0.0
4.87,8977.96,0.00011,0.0,0.0
4.876,8779.422,0.00011,0.0,0.0
4.883,8740.097,0.00011,0.0,0.0
4.889,8473.793,0.00012,0.0,0.0
4.895,8428.805,0.00012,0.0,0.0
4.902,8330.89,0.00012,0.0,0.0
4.908,8261.076,0.00012,0.0,0.0
4.914,8246.295,0.00012,0.0,0.0
4.921,8164.639,0.00012,0.0,0.0
4.927,8126.973,0.00012,0.0,0.0
4.933,8115.349,0.00012,0.0,0.0
4.94,8029.064,0.00012,0.0,0.0
4.946,7958.532,0.00013,0.0,0.0
4.952,7993.466,0.00013,0.0,0.0
4.959,7913.846,0.00013,0.0,0.0
4.965,7899.807,0.00013,0.0,0.0
4.971,7846.911,0.00013,0.0,0.0
4.978,7821.218,0.00013,0.0,0.0
4.984,7813.12,0.00013,0.0,0.0
4.99,7746.91,0.00013,0.0,0.0
4.996,7701.512,0.00013,0.0,0.0
5.003,7710.891,0.00013,0.0,0.0
5.009,7634.649,0.00013,0.0,0.0
5.015,7660.04,0.00013,0.0,0.0
5.022,7589.871,0.00013,0.0,0.0
5.028,7562.903,0.00013,0.0,0.0
5.034,7572.471,0.00013,0.0,0.0
5.041,7484.513,0.00013,0.0,0.0
5.047,7519.896,0.00013,0.0,0.0
5.053,7482.815,0.00013,0.0,0.0
5.06,7449.999,0.00013,0.0,0.0
5.066,7438.059,0.00013,0.0,0.0
5.072,7406.247,0.00014,0.0,0.0
5.079,7335.52,0.00014,0.0,0.0
5.085,7357.889,0.00014,0.0,0.0
5.091,7282.736,0.00014,0.0,0.0
5.098,7300.923,0.00014,0.0,0.0
5.104,7237.793,0.00014,0.0,0.0
5.11,7247.966,0.00014,0.0,0.0
5.117,7222.302,0.00014,0.0,0.0
5.123,7194.304,0.00014,0.0,0.0
5.129,7175.237,0.00014,0.0,0.0
5.136,7182.35,0.00014,0.0,0.0
5.142,7128.247,0.00014,0.0,0.0
5.148,7125.298,0.00014,0.0,0.0
5.154,7130.456,0.00014,0.0,0.0
5.161,7068.929,0.00014,0.0,0.0
5.167,7079.063,0.00014,0.0,0.0
5.173,7033.281,0.00014,0.0,0.0
5.18,7032.93,0.00014,0.0,0.0
5.186,7029.727,0.00014,0.0,0.0
5.192,6970.034,0.00014,0.0,0.0
5.199,6973.219,0.00014,0.0,0.0
5.205,6970.62,0.00014,0.0,0.0
5.211,6932.052,0.00014,0.0,0.0
5.218,6940.43,0.00014,0.0,0.0
5.224,6917.322,0.00014,0.0,0.0
5.23,6884.188,0.00015,0.0,0.0
5.237,6889.0,0.00015,0.0,0.0
5.243,6844.738,0.00015,0.0,0.0
5.249,6854.764,0.00015,0.0,0.0
5.256,6814.62,0.00015,0.0,0.0
5.262,6799.214,0.00015,0.0,0.0
5.268,6812.826,0.00015,0.0,0.0
5.275,6776.394,0.00015,0.0,0.0
5.281,6770.268,0.00015,0.0,0.0
5.287,6777.096,0.00015,0.0,0.0
5.294,6739.611,0.00015,0.0,0.0
5.3,6738.77,0.00015,0.0,0.0
5.306,6711.099,0.00015,0.0,0.0
5.312,6692.33,0.00015,0.0,0.0
5.319,6697.171,0.00015,0.0,0.0
5.325,6640.525,0.00015,0.0,0.0
5.331,6654.126,0.00015,0.0,0.0
5.338,6669.885,0.00015,0.0,0.0
5.344,6641.851,0.00015,0.0,0.0
5.35,6617.176,0.00015,0.0,0.0
5.357,6627.534,0.00015,0.0,0.0
5.363,6594.026,0.00015,0.0,0.0
5.369,6614.853,0.00015,0.0,0.0
5.376,6573.647,0.00015,0.0,0.0
5.382,6569.991,0.00015,0.0,0.0
5.388,6575.195,0.00015,0.0,0.0
5.395,6533.767,0.00015,0.0,0.0
5.401,6549.308,0.00015,0.0,0.0
5.407,6538.646,0.00015,0.0,0.0
5.414,6505.285,0.00015,0.0,0.0
5.42,6566.804,0.00015,0.0,0.0
5.426,6531.714,0.00015,0.0,0.0
5.433,6520.614,0.00015,0.0,0.0
5.439,6499.005,0.00015,0.0,0.0
5.445,6492.493,0.00015,0.0,0.0
5.452,6517.641,0.00015,0.0,0.0
5.458,6489.741,0.00015,0.0,0.0
5.464,6503.42,0.00015,0.0,0.0
5.47,6499.601,0.00015,0.0,0.0
5.477,6482.902,0.00015,0.0,0.0
5.483,6463.785,0.00015,0.0,0.0
5.489,6472.817,0.00015,0.0,0.0
5.496,6456.382,0.00015,0.0,0.0
5.502,6458.144,0.00015,0.0,0.0
5.508,6450.369,0.00016,0.0,0.0
5.515,6447.104,0.00016,0.0,0.0
5.521,6440.071,0.00016,0.0,0.0
5.527,6418.481,0.00016,0.0,0.0
5.534,6437.909,0.00016,0.0,0.0
5.54,6410.64,0.00016,0.0,0.0
5.546,6414.019,0.00016,0.0,0.0
5.553,6408.88,0.00016,0.0,0.0
5.559,6396.49,0.00016,0.0,0.0
5.565,6386.51,0.00016,0.0,0.0
5.572,6397.252,0.00016,0.0,0.0
5.578,6372.796,0.00016,0.0,0.0
5.584,6402.554,0.00016,0.0,0.0
5.591,6371.908,0.00016,0.0,0.0
5.597,6360.454,0.00016,0.0,0.0
5.603,6376.028,0.00016,0.0,0.0
5.61,6353.739,0.00016,0.0,0.0
5.616,6370.734,0.00016,0.0,0.0
5.622,6356.969,0.00016,0.0,0.0
5.628,6335.106,0.00016,0.0,0.0
5.635,6342.933,0.00016,0.0,0.0
5.641,6317.428,0.00016,0.0,0.0
5.647,6308.651,0.00016,0.0,0.0
5.654,6314.995,0.00016,0.0,0.0
5.66,6288.821,0.00016,0.0,0.0
5.666,6297.594,0.00016,0.0,0.0
5.673,6295.268,0.00016,0.0,0.0
5.679,6258.984,0.00016,0.0,0.0
5.685,6267.389,0.00016,0.0,0.0
5.692,6270.79,0.00016,0.0,0.0
5.698,6258.768,0.00016,0.0,0.0
5.704,6271.635,0.00016,0.0,0.0
5.711,6248.153,0.00016,0.0,0.0
5.717,6245.775,0.00016,0.0,0.0
5.723,6270.727,0.00016,0.0,0.0
5.73,6245.784,0.00016,0.0,0.0
5.736,6262.466,0.00016,0.0,0.0
5.742,6241.905,0.00016,0.0,0.0
5.749,6241.604,0.00016,0.0,0.0
5.755,6269.586,0.00016,0.0,0.0
5.761,6239.683,0.00016,0.0,0.0
5.768,6259.294,0.00016,0.0,0.0
5.774,6263.372,0.00016,0.0,0.0
5.78,6256.46,0.00016,0.0,0.0
5.786,6249.981,0.00016,0.0,0.0
5.793,6278.621,0.00016,0.0,0.0
5.799,6241.934,0.00016,0.0,0.0
5.805,6290.046,0.00016,0.0,0.0
5.812,6269.318,0.00016,0.0,0.0
5.818,6328.019,0.00016,0.0,0.0
5.824,6326.185,0.00016,0.0,0.0
5.831,6356.595,0.00016,0.0,0.0
5.837,6388.689,0.00016,0.0,0.0
5.843,6477.982,0.00015,0.0,0.0
5.85,6613.877,0.00015,0.0,0.0
5.856,6792.036,0.00015,0.0,0.0
5.862,7052.652,0.00014,0.0,0.0
5.869,7387.06,0.00014,0.0,0.0
5.875,7728.666,0.00013,0.0,0.0
5.881,7957.775,0.00013,0.0,0.0
5.888,7991.525,0.00013,0.0,0.0
5.894,7754.529,0.00013,0.0,0.0
5.9,7477.933,0.00013,0.0,0.0
5.907,7137.644,0.00014,0.0,0.0
5.913,6848.387,0.00015,0.0,0.0
5.919,6649.733,0.00015,0.0,0.0
5.926,6498.767,0.00015,0.0,0.0
5.932,6401.414,0.00016,0.0,0.0
5.938,6397.28,0.00016,0.0,0.0
5.944,6310.151,0.00016,0.0,0.0
5.951,6346.834,0.00016,0.0,0.0
5.957,6296.617,0.00016,0.0,0.0
5.963,6285.095,0.00016,0.0,0.0
5.97,6311.143,0.00016,0.0,0.0
5.976,6275.485,0.00016,0.0,0.0
5.982,6303.742,0.00016,0.0,0.0
5.989,6279.204,0.00016,0.0,0.0
5.995,6279.896,0.00016,0.0,0.0
6.001,6294.374,0.00016,0.0,0.0
6.008,6279.59,0.00016,0.0,0.0
6.014,6259.956,0.00016,0.0,0.0
6.02,6286.928,0.00016,0.0,0.0
6.027,6274.848,0.00016,0.0,0.0
6.033,6282.152,0.00016,0.0,0.0
6.039,6297.932,0.00016,0.0,0.0
6.046,6262.574,0.00016,0.0,0.0
6.052,6284.77,0.00016,0.0,0.0
6.058,6245.321,0.00016,0.0,0.0
6.065,6239.015,0.00016,0.0,0.0
6.071,6246.31,0.00016,0.0,0.0
6.077,6257.264,0.00016,0.0,0.0
6.084,6230.44,0.00016,0.0,0.0
6.09,6243.495,0.00016,0.0,0.0
6.096,6187.456,0.00016,0.0,0.0
6.102,6229.345,0.00016,0.0,0.0
6.109,6209.832,0.00016,0.0,0.0
6.115,6236.778,0.00016,0.0,0.0
6.121,6216.737,0.00016,0.0,0.0
6.128,6184.905,0.00016,0.0,0.0
6.134,6206.613,0.00016,0.0,0.0
6.14,6195.858,0.00016,0.0,0.0
6.147,6215.233,0.00016,0.0,0.0
6.153,6173.362,0.00016,0.0,0.0
6.159,6204.548,0.00016,0.0,0.0
6.166,6164.594,0.00016,0.0,0.0
6.172,6181.508,0.00016,0.0,0.0
6.178,6216.599,0.00016,0.0,0.0
6.185,6173.525,0.00016,0.0,0.0
6.191,6185.947,0.00016,0.0,0.0
6.197,6204.306,0.00016,0.0,0.0
6.204,6181.648,0.00016,0.0,0.0
6.21,6218.855,0.00016,0.0,0.0
6.216,6175.184,0.00016,0.0,0.0
6.223,6225.364,0.00016,0.0,0.0
6.229,6198.481,0.00016,0.0,0.0
6.235,6228.832,0.00016,0.0,0.0
6.242,6233.466,0.00016,0.0,0.0
6.248,6222.829,0.00016,0.0,0.0
6.254,6226.73,0.00016,0.0,0.0
6.26,6236.777,0.00016,0.0,0.0
6.267,6271.333,0.00016,0.0,0.0
6.273,6237.923,0.00016,0.0,0.0
6.279,6270.966,0.00016,0.0,0.0
6.286,6261.618,0.00016,0.0,0.0
6.292,6277.96,0.00016,0.0,0.0
6.298,6266.149,0.00016,0.0,0.0
6.305,6303.951,0.00016,0.0,0.0
6.311,6337.738,0.00016,0.0,0.0
6.317,6303.307,0.00016,0.0,0.0
6.324,6361.091,0.00016,0.0,0.0
6.33,6349.687,0.00016,0.0,0.0
6.336,6348.14,0.00016,0.0,0.0
6.343,6375.727,0.00016,0.0,0.0
6.349,6438.062,0.00016,0.0,0.0
6.355,6426.623,0.00016,0.0,0.0
6.362,6463.425,0.00015,0.0,0.0
6.368,6494.452,0.00015,0.0,0.0
6.374,6528.658,0.00015,0.0,0.0
6.381,6551.912,0.00015,0.0,0.0
6.387,6674.934,0.00015,0.0,0.0
6.393,6655.495,0.00015,0.0,0.0
6.4,6917.509,0.00014,0.0,0.0
6.406,6992.315,0.00014,0.0,0.0
6.412,7403.352,0.00014,0.0,0.0
6.418,8043.0,0.00012,0.0,0.0
6.425,8984.476,0.00011,0.0,0.0
6.431,12562.643,0.00008,0.0,0.0
6.437,14313.992,0.00007,0.0,0.0
6.444,16742.192,0.00006,0.0,0.0
6.45,24362.24,0.00004,0.0,0.0
6.456,19027.214,0.00005,0.0,0.0
6.463,19056.361,0.00005,0.0,0.0
6.469,23335.5,0.00004,0.0,0.0
6.475,11482.172,0.00009,0.0,0.0
6.482,14477.341,0.00007,0.0,0.0
6.488,9272.599,0.00011,0.0,0.0
6.494,7673.053,0.00013,0.0,0.0
6.501,8070.393,0.00012,0.0,0.0
6.507,7227.214,0.00014,0.0,0.0
6.513,7105.157,0.00014,0.0,0.0
6.52,7114.527,0.00014,0.0,0.0
6.526,7052.996,0.00014,0.0,0.0
6.532,7096.786,0.00014,0.0,0.0
6.539,7197.023,0.00014,0.0,0.0
6.545,7337.788,0.00014,0.0,0.0
6.551,7562.17,0.00013,0.0,0.0
6.558,8006.171,0.00012,0.0,0.0
6.564,8642.0,0.00012,0.0,0.0
6.57,9660.241,0.0001,0.0,0.0
6.576,11876.067,0.00008,0.0,0.0
6.583,15069.776,0.00007,0.0,0.0
6.589,23318.334,0.00004,0.0,0.0
6.595,36327.581,0.00003,0.0,0.0
6.602,55726.544,0.00002,0.0,0.0
6.608,86089.269,0.00001,0.0,0.0
6.614,99391.242,0.00001,0.0,0.0
6.621,112863.839,0.00001,0.0,0.0
6.627,98837.15,0.00001,0.0,0.0
6.633,77633.078,0.00001,0.0,0.0
6.64,49919.621,0.00002,0.0,0.0
6.646,33733.234,0.00003,0.0,0.0
6.652,19989.775,0.00005,0.0,0.0
6.659,14929.002,0.00007,0.0,0.0
6.665,11033.981,0.00009,0.0,0.0
6.671,9376.315,0.00011,0.0,0.0
6.678,8353.896,0.00012,0.0,0.0
6.684,7656.067,0.00013,0.0,0.0
6.69,7288.261,0.00014,0.0,0.0
6.697,7019.422,0.00014,0.0,0.0
6.703,6826.276,0.00015,0.0,0.0
6.709,6693.464,0.00015,0.0,0.0
6.716,6617.994,0.00015,0.0,0.0
6.722,6525.803,0.00015,0.0,0.0
6.728,6497.906,0.00015,0.0,0.0
6.734,6423.675,0.00016,0.0,0.0
6.741,6418.178,0.00016,0.0,0.0
6.747,6362.657,0.00016,0.0,0.0
6.753,6334.399,0.00016,0.0,0.0
6.76,6317.365,0.00016,0.0,0.0
6.766,6301.004,0.00016,0.0,0.0
6.772,6268.041,0.00016,0.0,0.0
6.779,6287.758,0.00016,0.0,0.0
6.785,6257.478,0.00016,0.0,0.0
6.791,6239.141,0.00016,0.0,0.0
6.798,6281.654,0.00016,0.0,0.0
6.804,6269.384,0.00016,0.0,0.0
6.81,6276.427,0.00016,0.0,0.0
6.817,6259.905,0.00016,0.0,0.0
6.823,6260.005,0.00016,0.0,0.0
6.829,6218.561,0.00016,0.0,0.0
6.836,6236.758,0.00016,0.0,0.0
6.842,6163.511,0.00016,0.0,0.0
6.848,6187.602,0.00016,0.0,0.0
6.855,6122.758,0.00016,0.0,0.0
6.861,6111.704,0.00016,0.0,0.0
6.867,6104.328,0.00016,0.0,0.0
6.874,6064.908,0.00016,0.0,0.0
6.88,6080.593,0.00016,0.0,0.0
6.886,6041.103,0.00017,0.0,0.0
6.892,6038.366,0.00017,0.0,0.0
6.899,6048.945,0.00017,0.0,0.0
6.905,6038.066,0.00017,0.0,0.0
6.911,5992.322,0.00017,0.0,0.0
6.918,6031.836,0.00017,0.0,0.0
6.924,5982.813,0.00017,0.0,0.0
6.93,6013.58,0.00017,0.0,0.0
6.937,6006.815,0.00017,0.0,0.0
6.943,5979.583,0.00017,0.0,0.0
6.949,5987.886,0.00017,0.0,0.0
6.956,5964.409,0.00017,0.0,0.0
6.962,5966.534,0.00017,0.0,0.0
6.968,5986.993,0.00017,0.0,0.0
6.975,5966.789,0.00017,0.0,0.0
6.981,5958.551,0.00017,0.0,0.0
6.987,5957.432,0.00017,0.0,0.0
6.994,5942.337,0.00017,0.0,0.0
7.0,5952.746,0.00017,0.0,0.0
7.006,5949.031,0.00017,0.0,0.0
7.013,5933.93,0.00017,0.0,0.0
7.019,5923.637,0.00017,0.0,0.0
7.025,5922.243,0.00017,0.0,0.0
7.032,5920.343,0.00017,0.0,0.0
7.038,5891.926,0.00017,0.0,0.0
7.044,5898.021,0.00017,0.0,0.0
7.05,5894.461,0.00017,0.0,0.0
7.057,5887.093,0.00017,0.0,0.0
7.063,5890.946,0.00017,0.0,0.0
7.069,5884.277,0.00017,0.0,0.0
7.076,5858.512,0.00017,0.0,0.0
7.082,5870.846,0.00017,0.0,0.0
7.088,5870.395,0.00017,0.0,0.0
7.095,5855.202,0.00017,0.0,0.0
7.101,5855.875,0.00017,0.0,0.0
7.107,5822.635,0.00017,0.0,0.0
7.114,5833.249,0.00017,0.0,0.0
7.12,5854.504,0.00017,0.0,0.0
7.126,5820.077,0.00017,0.0,0.0
7.133,5823.272,0.00017,0.0,0.0
7.139,5817.387,0.00017,0.0,0.0
7.145,5819.893,0.00017,0.0,0.0
7.152,5819.799,0.00017,0.0,0.0
7.158,5781.512,0.00017,0.0,0.0
7.164,5787.115,0.00017,0.0,0.0
7.171,5771.37,0.00017,0.0,0.0
7.177,5793.328,0.00017,0.0,0.0
7.183,5774.9,0.00017,0.0,0.0
7.19,5783.227,0.00017,0.0,0.0
7.196,5781.103,0.00017,0.0,0.0
7.202,5783.561,0.00017,0.0,0.0
7.208,5746.526,0.00017,0.0,0.0
7.215,5758.56,0.00017,0.0,0.0
7.221,5735.289,0.00017,0.0,0.0
7.227,5755.287,0.00017,0.0,0.0
7.234,5757.192,0.00017,0.0,0.0
7.24,5743.449,0.00017,0.0,0.0
7.246,5768.023,0.00017,0.0,0.0
7.253,5736.899,0.00017,0.0,0.0
7.259,5753.132,0.00017,0.0,0.0
7.265,5737.832,0.00017,0.0,0.0
7.272,5761.88,0.00017,0.0,0.0
7.278,5790.815,0.00017,0.0,0.0
7.284,5775.083,0.00017,0.0,0.0
7.291,5822.406,0.00017,0.0,0.0
7.297,5835.585,0.00017,0.0,0.0
7.303,5815.246,0.00017,0.0,0.0
7.31,5829.257,0.00017,0.0,0.0
7.316,5755.819,0.00017,0.0,0.0
7.322,5750.834,0.00017,0.0,0.0
7.329,5743.686,0.00017,0.0,0.0
7.335,5722.906,0.00017,0.0,0.0
7.341,5708.729,0.00018,0.0,0.0
7.348,5725.763,0.00017,0.0,0.0
7.354,5703.388,0.00018,0.0,0.0
7.36,5701.845,0.00018,0.0,0.0
7.366,5727.393,0.00017,0.0,0.0
7.373,5707.88,0.00018,0.0,0.0
7.379,5720.891,0.00017,0.0,0.0
7.385,5716.85,0.00017,0.0,0.0
7.392,5721.931,0.00017,0.0,0.0
7.398,5723.747,0.00017,0.0,0.0
7.404,5721.54,0.00017,0.0,0.0
7.411,5733.156,0.00017,0.0,0.0
7.417,5736.021,0.00017,0.0,0.0
7.423,5725.504,0.00017,0.0,0.0
7.43,5735.602,0.00017,0.0,0.0
7.436,5738.989,0.00017,0.0,0.0
7.442,5739.497,0.00017,0.0,0.0
7.449,5768.634,0.00017,0.0,0.0
7.455,5756.914,0.00017,0.0,0.0
7.461,5784.938,0.00017,0.0,0.0
7.468,5786.994,0.00017,0.0,0.0
7.474,5775.348,0.00017,0.0,0.0
7.48,5795.314,0.00017,0.0,0.0
7.487,5792.84,0.00017,0.0,0.0
7.493,5817.338,0.00017,0.0,0.0
7.499,5850.498,0.00017,0.0,0.0
7.506,5845.633,0.00017,0.0,0.0
7.512,5876.162,0.00017,0.0,0.0
7.518,5864.405,0.00017,0.0,0.0
7.524,5899.175,0.00017,0.0,0.0
7.531,5911.903,0.00017,0.0,0.0
7.537,5960.932,0.00017,0.0,0.0
7.543,5981.472,0.00017,0.0,0.0
7.55,6051.668,0.00017,0.0,0.0
7.556,6071.459,0.00016,0.0,0.0
7.562,6202.677,0.00016,0.0,0.0
7.569,6305.667,0.00016,0.0,0.0
7.575,6514.214,0.00015,0.0,0.0
7.581,6745.361,0.00015,0.0,0.0
7.588,7112.903,0.00014,0.0,0.0
7.594,7779.72,0.00013,0.0,0.0
7.6,8986.238,0.00011,0.0,0.0
7.607,10846.132,0.00009,0.0,0.0
7.613,15189.281,0.00007,0.0,0.0
7.619,20091.663,0.00005,0.0,0.0
7.626,31827.853,0.00003,0.0,0.0
7.632,39061.943,0.00003,0.0,0.0
7.638,46479.733,0.00002,0.0,0.0
7.645,52470.34,0.00002,0.0,0.0
7.651,45339.827,0.00002,0.0,0.0
7.657,40163.089,0.00002,0.0,0.0
7.664,27589.117,0.00004,0.0,0.0
7.67,19949.257,0.00005,0.0,0.0
7.676,14021.592,0.00007,0.0,0.0
7.682,10900.583,0.00009,0.0,0.0
7.689,8871.306,0.00011,0.0,0.0
7.695,7828.443,0.00013,0.0,0.0
7.701,7295.832,0.00014,0.0,0.0
7.708,6883.513,0.00015,0.0,0.0
7.714,6669.72,0.00015,0.0,0.0
7.72,6520.46,0.00015,0.0,0.0
7.727,6463.668,0.00015,0.0,0.0
7.733,6415.81,0.00016,0.0,0.0
7.739,6336.348,0.00016,0.0,0.0
7.746,6356.223,0.00016,0.0,0.0
7.752,6339.328,0.00016,0.0,0.0
7.758,6330.366,0.00016,0.0,0.0
7.765,6349.516,0.00016,0.0,0.0
7.771,6355.308,0.00016,0.0,0.0
7.777,6373.571,0.00016,0.0,0.0
7.784,6395.114,0.00016,0.0,0.0
7.79,6392.938,0.00016,0.0,0.0
7.796,6391.539,0.00016,0.0,0.0
7.803,6440.541,0.00016,0.0,0.0
7.809,6454.526,0.00015,0.0,0.0
7.815,6516.154,0.00015,0.0,0.0
7.822,6527.667,0.00015,0.0,0.0
7.828,6616.462,0.00015,0.0,0.0
7.834,6610.983,0.00015,0.0,0.0
7.84,6666.247,0.00015,0.0,0.0
7.847,6765.028,0.00015,0.0,0.0
7.853,6825.357,0.00015,0.0,0.0
7.859,6959.316,0.00014,0.0,0.0
7.866,7091.207,0.00014,0.0,0.0
7.872,7607.024,0.00013,0.0,0.0
7.878,7824.854,0.00013,0.0,0.0
7.885,9988.406,0.0001,0.0,0.0
7.891,9788.154,0.0001,0.0,0.0
7.897,13608.05,0.00007,0.0,0.0
7.904,13269.171,0.00008,0.0,0.0
7.91,16875.894,0.00006,0.0,0.0
7.916,15806.063,0.00006,0.0,0.0
7.923,13705.074,0.00007,0.0,0.0
7.929,11153.716,0.00009,0.0,0.0
7.935,9300.66,0.00011,0.0,0.0
7.942,8365.074,0.00012,0.0,0.0
7.948,7674.656,0.00013,0.0,0.0
7.954,7300.344,0.00014,0.0,0.0
7.961,7115.553,0.00014,0.0,0.0
7.967,6979.813,0.00014,0.0,0.0
7.973,6871.935,0.00015,0.0,0.0
7.98,6852.16,0.00015,0.0,0.0
7.986,6765.026,0.00015,0.0,0.0
7.992,6744.815,0.00015,0.0,0.0
7.998,6729.543,0.00015,0.0,0.0
8.005,6662.205,0.00015,0.0,0.0
8.011,6630.845,0.00015,0.0,0.0
8.017,6635.988,0.00015,0.0,0.0
8.024,6614.531,0.00015,0.0,0.0
8.03,6607.28,0.00015,0.0,0.0
8.036,6595.196,0.00015,0.0,0.0
8.043,6570.641,0.00015,0.0,0.0
8.049,6556.111,0.00015,0.0,0.0
8.055,6527.095,0.00015,0.0,0.0
8.062,6583.949,0.00015,0.0,0.0
8.068,6526.53,0.00015,0.0,0.0
8.074,6549.006,0.00015,0.0,0.0
8.081,6542.209,0.00015,0.0,0.0
8.087,6520.662,0.00015,0.0,0.0
8.093,6519.273,0.00015,0.0,0.0
8.1,6527.283,0.00015,0.0,0.0
8.106,6530.09,0.00015,0.0,0.0
8.112,6555.35,0.00015,0.0,0.0
8.119,6587.693,0.00015,0.0,0.0
8.125,6636.92,0.00015,0.0,0.0
8.131,6708.863,0.00015,0.0,0.0
8.138,6739.643,0.00015,0.0,0.0
8.144,6809.956,0.00015,0.0,0.0
8.15,6789.538,0.00015,0.0,0.0
8.156,6765.313,0.00015,0.0,0.0
8.163,6704.24,0.00015,0.0,0.0
8.169,6638.924,0.00015,0.0,0.0
8.175,6560.247,0.00015,0.0,0.0
8.182,6516.025,0.00015,0.0,0.0
8.188,6469.801,0.00015,0.0,0.0
8.194,6440.272,0.00016,0.0,0.0
8.201,6424.267,0.00016,0.0,0.0
8.207,6409.138,0.00016,0.0,0.0
8.213,6422.273,0.00016,0.0,0.0
8.22,6399.427,0.00016,0.0,0.0
8.226,6399.287,0.00016,0.0,0.0
8.232,6395.048,0.00016,0.0,0.0
8.239,6371.521,0.00016,0.0,0.0
8.245,6388.479,0.00016,0.0,0.0
8.251,6368.765,0.00016,0.0,0.0
8.258,6382.298,0.00016,0.0,0.0
8.264,6335.757,0.00016,0.0,0.0
8.27,6352.025,0.00016,0.0,0.0
8.277,6359.817,0.00016,0.0,0.0
8.283,6347.392,0.00016,0.0,0.0
8.289,6333.503,0.00016,0.0,0.0
8.296,6338.722,0.00016,0.0,0.0
8.302,6350.263,0.00016,0.0,0.0
8.308,6340.669,0.00016,0.0,0.0
8.314,6323.371,0.00016,0.0,0.0
8.321,6328.04,0.00016,0.0,0.0
8.327,6336.482,0.00016,0.0,0.0
8.333,6351.699,0.00016,0.0,0.0
8.34,6367.247,0.00016,0.0,0.0
8.346,6376.947,0.00016,0.0,0.0
8.352,6409.715,0.00016,0.0,0.0
8.359,6452.901,0.00015,0.0,0.0
8.365,6507.164,0.00015,0.0,0.0
8.371,6531.757,0.00015,0.0,0.0
8.378,6562.259,0.00015,0.0,0.0
8.384,6535.571,0.00015,0.0,0.0
8.39,6529.102,0.00015,0.0,0.0
8.397,6493.804,0.00015,0.0,0.0
8.403,6423.527,0.00016,0.0,0.0
8.409,6389.776,0.00016,0.0,0.0
8.416,6336.662,0.00016,0.0,0.0
8.422,6305.532,0.00016,0.0,0.0
8.428,6293.639,0.00016,0.0,0.0
8.435,6256.63,0.00016,0.0,0.0
8.441,6239.025,0.00016,0.0,0.0
8.447,6234.401,0.00016,0.0,0.0
8.454,6234.285,0.00016,0.0,0.0
8.46,6230.033,0.00016,0.0,0.0
8.466,6220.294,0.00016,0.0,0.0
8.472,6228.685,0.00016,0.0,0.0
8.479,6209.647,0.00016,0.0,0.0
8.485,6235.34,0.00016,0.0,0.0
8.491,6240.118,0.00016,0.0,0.0
8.498,6228.807,0.00016,0.0,0.0
8.504,6236.926,0.00016,0.0,0.0
8.51,6244.541,0.00016,0.0,0.0
8.517,6227.346,0.00016,0.0,0.0
8.523,6214.362,0.00016,0.0,0.0
8.529,6215.753,0.00016,0.0,0.0
8.536,6190.643,0.00016,0.0,0.0
8.542,6189.309,0.00016,0.0,0.0
8.548,6186.306,0.00016,0.0,0.0
8.555,6170.88,0.00016,0.0,0.0
8.561,6170.2,0.00016,0.0,0.0
8.567,6158.591,0.00016,0.0,0.0
8.574,6172.416,0.00016,0.0,0.0
8.58,6175.082,0.00016,0.0,0.0
8.586,6170.171,0.00016,0.0,0.0
8.593,6149.755,0.00016,0.0,0.0
8.599,6143.955,0.00016,0.0,0.0
8.605,6146.277,0.00016,0.0,0.0
8.612,6157.053,0.00016,0.0,0.0
8.618,6152.453,0.00016,0.0,0.0
8.624,6146.171,0.00016,0.0,0.0
8.63,6149.384,0.00016,0.0,0.0
8.637,6155.537,0.00016,0.0,0.0
8.643,6145.239,0.00016,0.0,0.0
8.649,6150.633,0.00016,0.0,0.0
8.656,6146.386,0.00016,0.0,0.0
8.662,6151.11,0.00016,0.0,0.0
8.668,6127.812,0.00016,0.0,0.0
8.675,6151.144,0.00016,0.0,0.0
8.681,6149.968,0.00016,0.0,0.0
8.687,6158.1,0.00016,0.0,0.0
8.694,6141.85,0.00016,0.0,0.0
8.7,6153.16,0.00016,0.0,0.0
8.706,6150.045,0.00016,0.0,0.0
8.713,6171.83,0.00016,0.0,0.0
8.719,6168.51,0.00016,0.0,0.0
8.725,6175.503,0.00016,0.0,0.0
8.732,6160.958,0.00016,0.0,0.0
8.738,6132.583,0.00016,0.0,0.0
8.744,6151.815,0.00016,0.0,0.0
8.751,6149.639,0.00016,0.0,0.0
8.757,6145.962,0.00016,0.0,0.0
8.763,6144.042,0.00016,0.0,0.0
8.77,6164.751,0.00016,0.0,0.0
8.776,6153.984,0.00016,0.0,0.0
8.782,6150.697,0.00016,0.0,0.0
8.788,6162.534,0.00016,0.0,0.0
8.795,6164.718,0.00016,0.0,0.0
8.801,6138.332,0.00016,0.0,0.0
8.807,6176.148,0.00016,0.0,0.0
8.814,6180.782,0.00016,0.0,0.0
8.82,6166.131,0.00016,0.0,0.0
8.826,6181.222,0.00016,0.0,0.0
8.833,6173.534,0.00016,0.0,0.0
8.839,6181.817,0.00016,0.0,0.0
8.845,6177.801,0.00016,0.0,0.0
8.852,6178.224,0.00016,0.0,0.0
8.858,6183.871,0.00016,0.0,0.0
8.864,6172.617,0.00016,0.0,0.0
8.871,6200.392,0.00016,0.0,0.0
8.877,6195.253,0.00016,0.0,0.0
8.883,6183.384,0.00016,0.0,0.0
8.89,6212.51,0.00016,0.0,0.0
8.896,6210.751,0.00016,0.0,0.0
8.902,6228.994,0.00016,0.0,0.0
8.909,6234.987,0.00016,0.0,0.0
8.915,6216.946,0.00016,0.0,0.0
8.921,6216.205,0.00016,0.0,0.0
8.928,6236.067,0.00016,0.0,0.0
8.934,6221.738,0.00016,0.0,0.0
8.94,6265.465,0.00016,0.0,0.0
8.946,6231.907,0.00016,0.0,0.0
8.953,6239.692,0.00016,0.0,0.0
8.959,6265.58,0.00016,0.0,0.0
8.965,6248.004,0.00016,0.0,0.0
8.972,6269.531,0.00016,0.0,0.0
8.978,6262.324,0.00016,0.0,0.0
8.984,6268.011,0.00016,0.0,0.0
8.991,6298.615,0.00016,0.0,0.0
8.997,6281.694,0.00016,0.0,0.0
9.003,6293.398,0.00016,0.0,0.0
9.01,6298.865,0.00016,0.0,0.0
9.016,6285.193,0.00016,0.0,0.0
9.022,6344.486,0.00016,0.0,0.0
9.029,6297.247,0.00016,0.0,0.0
9.035,6326.963,0.00016,0.0,0.0
9.041,6349.269,0.00016,0.0,0.0
9.048,6323.66,0.00016,0.0,0.0
9.054,6390.52,0.00016,0.0,0.0
9.06,6349.056,0.00016,0.0,0.0
9.067,6344.002,0.00016,0.0,0.0
9.073,6443.142,0.00016,0.0,0.0
9.079,6415.416,0.00016,0.0,0.0
9.086,6482.311,0.00015,0.0,0.0
9.092,6534.674,0.00015,0.0,0.0
9.098,6589.926,0.00015,0.0,0.0
9.104,6828.221,0.00015,0.0,0.0
9.111,6985.401,0.00014,0.0,0.0
9.117,7956.959,0.00013,0.0,0.0
9.123,7935.78,0.00013,0.0,0.0
9.13,9662.139,0.0001,0.0,0.0
9.136,9795.99,0.0001,0.0,0.0
9.142,10034.355,0.0001,0.0,0.0
9.149,12744.333,0.00008,0.0,0.0
9.155,8652.697,0.00012,0.0,0.0
9.161,7449.008,0.00013,0.0,0.0
9.168,9410.091,0.00011,0.0,0.0
9.174,6655.461,0.00015,0.0,0.0
9.18,6763.658,0.00015,0.0,0.0
9.187,6662.269,0.00015,0.0,0.0
9.193,6399.766,0.00016,0.0,0.0
9.199,6438.59,0.00016,0.0,0.0
9.206,6350.669,0.00016,0.0,0.0
9.212,6293.404,0.00016,0.0,0.0
9.218,6316.475,0.00016,0.0,0.0
9.225,6234.968,0.00016,0.0,0.0
9.231,6207.846,0.00016,0.0,0.0
9.237,6252.002,0.00016,0.0,0.0
9.244,6193.121,0.00016,0.0,0.0
9.25,6180.792,0.00016,0.0,0.0
9.256,6166.501,0.00016,0.0,0.0
9.262,6124.214,0.00016,0.0,0.0
9.269,6158.99,0.00016,0.0,0.0
9.275,6109.317,0.00016,0.0,0.0
9.281,6112.766,0.00016,0.0,0.0
9.288,6110.155,0.00016,0.0,0.0
9.294,6065.808,0.00016,0.0,0.0
9.3,6071.979,0.00016,0.0,0.0
9.307,6046.946,0.00017,0.0,0.0
9.313,6007.006,0.00017,0.0,0.0
9.319,6026.478,0.00017,0.0,0.0
9.326,5993.551,0.00017,0.0,0.0
9.332,6010.722,0.00017,0.0,0.0
9.338,5994.959,0.00017,0.0,0.0
9.345,5959.819,0.00017,0.0,0.0
9.351,5957.669,0.00017,0.0,0.0
9.357,5931.422,0.00017,0.0,0.0
9.364,5922.182,0.00017,0.0,0.0
9.37,5905.688,0.00017,0.0,0.0
9.376,5903.234,0.00017,0.0,0.0
9.383,5903.061,0.00017,0.0,0.0
9.389,5881.711,0.00017,0.0,0.0
9.395,5850.745,0.00017,0.0,0.0
9.402,5851.617,0.00017,0.0,0.0
9.408,5847.221,0.00017,0.0,0.0
9.414,5834.16,0.00017,0.0,0.0
9.42,5816.721,0.00017,0.0,0.0
9.427,5809.382,0.00017,0.0,0.0
9.433,5824.906,0.00017,0.0,0.0
9.439,5817.244,0.00017,0.0,0.0
9.446,5800.022,0.00017,0.0,0.0
9.452,5792.784,0.00017,0.0,0.0
9.458,5794.509,0.00017,0.0,0.0
9.465,5795.385,0.00017,0.0,0.0
9.471,5820.519,0.00017,0.0,0.0
9.477,5812.343,0.00017,0.0,0.0
9.484,5820.682,0.00017,0.0,0.0
9.49,5844.286,0.00017,0.0,0.0
9.496,5831.257,0.00017,0.0,0.0
9.503,5808.872,0.00017,0.0,0.0
9.509,5785.095,0.00017,0.0,0.0
9.515,5778.816,0.00017,0.0,0.0
9.522,5755.074,0.00017,0.0,0.0
9.528,5718.088,0.00017,0.0,0.0
9.534,5693.668,0.00018,0.0,0.0
9.541,5673.842,0.00018,0.0,0.0
9.547,5659.977,0.00018,0.0,0.0
9.553,5642.283,0.00018,0.0,0.0
9.56,5634.339,0.00018,0.0,0.0
9.566,5622.765,0.00018,0.0,0.0
9.572,5618.706,0.00018,0.0,0.0
9.578,5615.423,0.00018,0.0,0.0
9.585,5594.658,0.00018,0.0,0.0
9.591,5589.026,0.00018,0.0,0.0
9.597,5583.801,0.00018,0.0,0.0
9.604,5577.125,0.00018,0.0,0.0
9.61,5569.994,0.00018,0.0,0.0
9.616,5569.37,0.00018,0.0,0.0
9.623,5570.502,0.00018,0.0,0.0
9.629,5569.182,0.00018,0.0,0.0
9.635,5542.62,0.00018,0.0,0.0
9.642,5536.055,0.00018,0.0,0.0
9.648,5528.478,0.00018,0.0,0.0
9.654,5544.529,0.00018,0.0,0.0
9.661,5534.023,0.00018,0.0,0.0
9.667,5528.218,0.00018,0.0,0.0
9.673,5524.378,0.00018,0.0,0.0
9.68,5518.598,0.00018,0.0,0.0
9.686,5521.27,0.00018,0.0,0.0
9.692,5500.972,0.00018,0.0,0.0
9.699,5497.163,0.00018,0.0,0.0
9.705,5500.71,0.00018,0.0,0.0
9.711,5501.795,0.00018,0.0,0.0
9.718,5508.391,0.00018,0.0,0.0
9.724,5497.451,0.00018,0.0,0.0
9.73,5481.368,0.00018,0.0,0.0
9.736,5494.242,0.00018,0.0,0.0
9.743,5489.02,0.00018,0.0,0.0
9.749,5508.059,0.00018,0.0,0.0
9.755,5504.439,0.00018,0.0,0.0
9.762,5478.609,0.00018,0.0,0.0
9.768,5491.277,0.00018,0.0,0.0
9.774,5476.884,0.00018,0.0,0.0
9.781,5455.494,0.00018,0.0,0.0
9.787,5481.426,0.00018,0.0,0.0
9.793,5457.527,0.00018,0.0,0.0
9.8,5474.316,0.00018,0.0,0.0
9.806,5454.098,0.00018,0.0,0.0
9.812,5458.767,0.00018,0.0,0.0
9.819,5471.432,0.00018,0.0,0.0
9.825,5448.528,0.00018,0.0,0.0
9.831,5467.195,0.00018,0.0,0.0
9.838,5476.042,0.00018,0.0,0.0
9.844,5453.188,0.00018,0.0,0.0
9.85,5450.847,0.00018,0.0,0.0
9.857,5433.8,0.00018,0.0,0.0
9.863,5432.774,0.00018,0.0,0.0
9.869,5461.218,0.00018,0.0,0.0
9.876,5415.593,0.00018,0.0,0.0
9.882,5466.057,0.00018,0.0,0.0
9.888,5455.004,0.00018,0.0,0.0
9.894,5434.875,0.00018,0.0,0.0
9.901,5473.141,0.00018,0.0,0.0
9.907,5446.281,0.00018,0.0,0.0
9.913,5441.346,0.00018,0.0,0.0
9.92,5434.34,0.00018,0.0,0.0
9.926,5438.683,0.00018,0.0,0.0
9.932,5453.782,0.00018,0.0,0.0
9.939,5434.661,0.00018,0.0,0.0
9.945,5438.113,0.00018,0.0,0.0
9.951,5473.001,0.00018,0.0,0.0
9.958,5439.447,0.00018,0.0,0.0
9.964,5446.607,0.00018,0.0,0.0
9.97,5454.815,0.00018,0.0,0.0
9.977,5459.765,0.00018,0.0,0.0
9.983,5492.786,0.00018,0.0,0.0
9.989,5459.126,0.00018,0.0,0.0
9.996,5493.884,0.00018,0.0,0.0
10.002,5484.875,0.00018,0.0,0.0
10.008,5453.351,0.00018,0.0,0.0
10.015,5504.58,0.00018,0.0,0.0
10.021,5482.159,0.00018,0.0,0.0
10.027,5507.347,0.00018,0.0,0.0
10.034,5516.786,0.00018,0.0,0.0
10.04,5506.773,0.00018,0.0,0.0
10.046,5527.63,0.00018,0.0,0.0
10.052,5497.389,0.00018,0.0,0.0
10.059,5504.673,0.00018,0.0,0.0
10.065,5539.825,0.00018,0.0,0.0
10.071,5565.284,0.00018,0.0,0.0
10.078,5549.291,0.00018,0.0,0.0
10.084,5584.14,0.00018,0.0,0.0
10.09,5547.996,0.00018,0.0,0.0
10.097,5599.702,0.00018,0.0,0.0
10.103,5549.206,0.00018,0.0,0.0
10.109,5611.639,0.00018,0.0,0.0
10.116,5640.613,0.00018,0.0,0.0
10.122,5627.68,0.00018,0.0,0.0
10.128,5692.384,0.00018,0.0,0.0
10.135,5687.308,0.00018,0.0,0.0
10.141,5728.492,0.00017,0.0,0.0
10.147,5744.321,0.00017,0.0,0.0
10.154,5789.593,0.00017,0.0,0.0
10.16,5877.498,0.00017,0.0,0.0
10.166,6155.382,0.00016,0.0,0.0
10.173,6278.365,0.00016,0.0,0.0
10.179,6983.04,0.00014,0.0,0.0
10.185,8655.769,0.00012,0.0,0.0
10.192,9229.749,0.00011,0.0,0.0
10.198,10069.347,0.0001,0.0,0.0
10.204,13799.711,0.00007,0.0,0.0
10.21,14841.547,0.00007,0.0,0.0
10.217,19074.369,0.00005,0.0,0.0
10.223,16430.92,0.00006,0.0,0.0
10.229,12417.101,0.00008,0.0,0.0
10.236,16667.615,0.00006,0.0,0.0
10.242,8560.07,0.00012,0.0,0.0
10.248,9231.054,0.00011,0.0,0.0
10.255,7144.402,0.00014,0.0,0.0
10.261,6335.6,0.00016,0.0,0.0
10.267,6292.614,0.00016,0.0,0.0
10.274,5823.99,0.00017,0.0,0.0
10.28,5864.634,0.00017,0.0,0.0
10.286,5663.462,0.00018,0.0,0.0
10.293,5682.439,0.00018,0.0,0.0
10.299,5624.369,0.00018,0.0,0.0
10.305,5593.943,0.00018,0.0,0.0
10.312,5595.345,0.00018,0.0,0.0
10.318,5566.349,0.00018,0.0,0.0
10.324,5551.788,0.00018,0.0,0.0
10.331,5480.805,0.00018,0.0,0.0
10.337,5468.317,0.00018,0.0,0.0
10.343,5503.451,0.00018,0.0,0.0
10.35,5464.52,0.00018,0.0,0.0
10.356,5464.254,0.00018,0.0,0.0
10.362,5454.439,0.00018,0.0,0.0
10.368,5397.092,0.00019,0.0,0.0
10.375,5465.374,0.00018,0.0,0.0
10.381,5373.86,0.00019,0.0,0.0
10.387,5387.991,0.00019,0.0,0.0
10.394,5411.03,0.00018,0.0,0.0
10.4,5363.654,0.00019,0.0,0.0
10.406,5394.545,0.00019,0.0,0.0
10.413,5336.504,0.00019,0.0,0.0
10.419,5328.848,0.00019,0.0,0.0
10.425,5332.454,0.00019,0.0,0.0
10.432,5313.093,0.00019,0.0,0.0
10.438,5320.881,0.00019,0.0,0.0
10.444,5326.34,0.00019,0.0,0.0
10.451,5284.381,0.00019,0.0,0.0
10.457,5319.781,0.00019,0.0,0.0
10.463,5275.513,0.00019,0.0,0.0
10.47,5290.085,0.00019,0.0,0.0
10.476,5274.799,0.00019,0.0,0.0
10.482,5252.686,0.00019,0.0,0.0
10.489,5285.953,0.00019,0.0,0.0
10.495,5258.47,0.00019,0.0,0.0
10.501,5249.949,0.00019,0.0,0.0
10.508,5275.099,0.00019,0.0,0.0
10.514,5236.441,0.00019,0.0,0.0
10.52,5246.972,0.00019,0.0,0.0
10.526,5239.158,0.00019,0.0,0.0
10.533,5222.881,0.00019,0.0,0.0
10.539,5257.272,0.00019,0.0,0.0
10.545,5225.18,0.00019,0.0,0.0
10.552,5227.188,0.00019,0.0,0.0
10.558,5222.82,0.00019,0.0,0.0
10.564,5194.462,0.00019,0.0,0.0
10.571,5224.926,0.00019,0.0,0.0
10.577,5201.829,0.00019,0.0,0.0
10.583,5200.623,0.00019,0.0,0.0
10.59,5218.626,0.00019,0.0,0.0
10.596,5193.353,0.00019,0.0,0.0
10.602,5227.053,0.00019,0.0,0.0
10.609,5203.785,0.00019,0.0,0.0
10.615,5195.481,0.00019,0.0,0.0
10.621,5209.336,0.00019,0.0,0.0
10.628,5180.194,0.00019,0.0,0.0
10.634,5201.701,0.00019,0.0,0.0
10.64,5200.314,0.00019,0.0,0.0
10.647,5199.583,0.00019,0.0,0.0
10.653,5202.102,0.00019,0.0,0.0
10.659,5182.608,0.00019,0.0,0.0
10.666,5191.006,0.00019,0.0,0.0
10.672,5204.442,0.00019,0.0,0.0
10.678,5188.47,0.00019,0.0,0.0
10.684,5231.039,0.00019,0.0,0.0
10.691,5197.073,0.00019,0.0,0.0
10.697,5200.22,0.00019,0.0,0.0
10.703,5238.498,0.00019,0.0,0.0
10.71,5223.25,0.00019,0.0,0.0
10.716,5251.327,0.00019,0.0,0.0
10.722,5244.238,0.00019,0.0,0.0
10.729,5282.095,0.00019,0.0,0.0
10.735,5318.26,0.00019,0.0,0.0
10.741,5350.633,0.00019,0.0,0.0
10.748,5436.705,0.00018,0.0,0.0
10.754,5527.909,0.00018,0.0,0.0
10.76,5651.13,0.00018,0.0,0.0
10.767,5950.011,0.00017,0.0,0.0
10.773,6315.349,0.00016,0.0,0.0
10.779,7190.371,0.00014,0.0,0.0
10.786,8734.067,0.00011,0.0,0.0
10.792,11121.924,0.00009,0.0,0.0
10.798,17283.576,0.00006,0.0,0.0
10.805,19353.254,0.00005,0.0,0.0
10.811,28317.828,0.00004,0.0,0.0
10.817,31689.833,0.00003,0.0,0.0
10.824,32178.102,0.00003,0.0,0.0
10.83,28984.347,0.00003,0.0,0.0
10.836,23216.533,0.00004,0.0,0.0
10.842,17317.907,0.00006,0.0,0.0
10.849,13062.86,0.00008,0.0,0.0
10.855,9376.937,0.00011,0.0,0.0
10.861,7677.556,0.00013,0.0,0.0
10.868,6673.503,0.00015,0.0,0.0
10.874,6031.147,0.00017,0.0,0.0
10.88,5760.921,0.00017,0.0,0.0
10.887,5507.29,0.00018,0.0,0.0
10.893,5388.474,0.00019,0.0,0.0
10.899,5320.604,0.00019,0.0,0.0
10.906,5266.651,0.00019,0.0,0.0
10.912,5224.563,0.00019,0.0,0.0
10.918,5200.604,0.00019,0.0,0.0
10.925,5162.204,0.00019,0.0,0.0
10.931,5164.557,0.00019,0.0,0.0
10.937,5165.81,0.00019,0.0,0.0
10.944,5158.068,0.00019,0.0,0.0
10.95,5130.047,0.00019,0.0,0.0
10.956,5127.851,0.0002,0.0,0.0
10.963,5119.811,0.0002,0.0,0.0
10.969,5099.361,0.0002,0.0,0.0
10.975,5072.751,0.0002,0.0,0.0
10.982,5067.829,0.0002,0.0,0.0
10.988,5050.008,0.0002,0.0,0.0
10.994,5043.507,0.0002,0.0,0.0
11.0,5009.851,0.0002,0.0,0.0
11.007,5006.224,0.0002,0.0,0.0
11.013,5005.799,0.0002,0.0,0.0
11.019,4993.442,0.0002,0.0,0.0
11.026,5006.121,0.0002,0.0,0.0
11.032,4985.126,0.0002,0.0,0.0
11.038,4985.861,0.0002,0.0,0.0
11.045,4989.255,0.0002,0.0,0.0
11.051,4974.527,0.0002,0.0,0.0
11.057,4964.397,0.0002,0.0,0.0
11.064,4964.475,0.0002,0.0,0.0
11.07,4964.868,0.0002,0.0,0.0
11.076,4963.228,0.0002,0.0,0.0
11.083,4949.689,0.0002,0.0,0.0
11.089,4943.596,0.0002,0.0,0.0
11.095,4941.109,0.0002,0.0,0.0
11.102,4937.031,0.0002,0.0,0.0
11.108,4944.301,0.0002,0.0,0.0
11.114,4924.528,0.0002,0.0,0.0
11.121,4924.647,0.0002,0.0,0.0
11.127,4919.105,0.0002,0.0,0.0
11.133,4914.425,0.0002,0.0,0.0
11.14,4923.625,0.0002,0.0,0.0
11.146,4920.012,0.0002,0.0,0.0
11.152,4899.999,0.0002,0.0,0.0
11.158,4907.817,0.0002,0.0,0.0
11.165,4898.046,0.0002,0.0,0.0
11.171,4912.75,0.0002,0.0,0.0
11.177,4912.556,0.0002,0.0,0.0
11.184,4927.204,0.0002,0.0,0.0
11.19,4932.13,0.0002,0.0,0.0
11.196,4944.163,0.0002,0.0,0.0
11.203,4922.533,0.0002,0.0,0.0
11.209,4970.977,0.0002,0.0,0.0
11.215,4906.682,0.0002,0.0,0.0
11.222,5002.018,0.0002,0.0,0.0
11.228,4892.438,0.0002,0.0,0.0
11.234,4924.572,0.0002,0.0,0.0
11.241,4868.6,0.00021,0.0,0.0
11.247,4876.933,0.00021,0.0,0.0
11.253,4857.106,0.00021,0.0,0.0
11.26,4853.684,0.00021,0.0,0.0
11.266,4843.508,0.00021,0.0,0.0
11.272,4850.115,0.00021,0.0,0.0
11.279,4839.357,0.00021,0.0,0.0
11.285,4837.316,0.00021,0.0,0.0
11.291,4836.419,0.00021,0.0,0.0
11.298,4837.471,0.00021,0.0,0.0
11.304,4819.08,0.00021,0.0,0.0
11.31,4833.6,0.00021,0.0,0.0
11.316,4819.648,0.00021,0.0,0.0
11.323,4812.968,0.00021,0.0,0.0
11.329,4826.87,0.00021,0.0,0.0
11.335,4807.408,0.00021,0.0,0.0
11.342,4813.834,0.00021,0.0,0.0
11.348,4807.192,0.00021,0.0,0.0
11.354,4810.503,0.00021,0.0,0.0
11.361,4793.465,0.00021,0.0,0.0
11.367,4797.108,0.00021,0.0,0.0
11.373,4800.242,0.00021,0.0,0.0
11.38,4781.968,0.00021,0.0,0.0
11.386,4791.579,0.00021,0.0,0.0
11.392,4790.352,0.00021,0.0,0.0
11.399,4800.994,0.00021,0.0,0.0
11.405,4790.655,0.00021,0.0,0.0
11.411,4796.83,0.00021,0.0,0.0
11.418,4779.145,0.00021,0.0,0.0
11.424,4794.177,0.00021,0.0,0.0
11.43,4784.271,0.00021,0.0,0.0
11.437,4788.016,0.00021,0.0,0.0
11.443,4778.189,0.00021,0.0,0.0
11.449,4771.15,0.00021,0.0,0.0
11.456,4781.737,0.00021,0.0,0.0
11.462,4767.363,0.00021,0.0,0.0
11.468,4782.794,0.00021,0.0,0.0
11.474,4759.925,0.00021,0.0,0.0
11.481,4766.755,0.00021,0.0,0.0
11.487,4776.211,0.00021,0.0,0.0
11.493,4765.908,0.00021,0.0,0.0
11.5,4784.422,0.00021,0.0,0.0
11.506,4783.824,0.00021,0.0,0.0
11.512,4795.288,0.00021,0.0,0.0
11.519,4808.612,0.00021,0.0,0.0
11.525,4829.735,0.00021,0.0,0.0
11.531,4828.304,0.00021,0.0,0.0
11.538,4827.128,0.00021,0.0,0.0
11.544,4818.257,0.00021,0.0,0.0
11.55,4804.696,0.00021,0.0,0.0
11.557,4798.308,0.00021,0.0,0.0
11.563,4776.968,0.00021,0.0,0.0
11.569,4774.196,0.00021,0.0,0.0
11.576,4762.827,0.00021,0.0,0.0
11.582,4744.749,0.00021,0.0,0.0
11.588,4756.053,0.00021,0.0,0.0
11.595,4749.868,0.00021,0.0,0.0
11.601,4734.381,0.00021,0.0,0.0
11.607,4745.855,0.00021,0.0,0.0
11.614,4744.58,0.00021,0.0,0.0
11.62,4721.533,0.00021,0.0,0.0
11.626,4739.382,0.00021,0.0,0.0
11.632,4737.899,0.00021,0.0,0.0
11.639,4736.0,0.00021,0.0,0.0
11.645,4733.082,0.00021,0.0,0.0
11.651,4731.79,0.00021,0.0,0.0
11.658,4728.824,0.00021,0.0,0.0
11.664,4730.188,0.00021,0.0,0.0
11.67,4722.514,0.00021,0.0,0.0
11.677,4728.823,0.00021,0.0,0.0
11.683,4749.774,0.00021,0.0,0.0
11.689,4718.014,0.00021,0.0,0.0
11.696,4720.479,0.00021,0.0,0.0
11.702,4719.879,0.00021,0.0,0.0
11.708,4731.07,0.00021,0.0,0.0
11.715,4714.337,0.00021,0.0,0.0
11.721,4726.604,0.00021,0.0,0.0
11.727,4708.328,0.00021,0.0,0.0
11.734,4728.055,0.00021,0.0,0.0
11.74,4715.792,0.00021,0.0,0.0
11.746,4716.328,0.00021,0.0,0.0
11.753,4714.006,0.00021,0.0,0.0
11.759,4721.366,0.00021,0.0,0.0
11.765,4722.072,0.00021,0.0,0.0
11.772,4724.743,0.00021,0.0,0.0
11.778,4723.601,0.00021,0.0,0.0
11.784,4720.935,0.00021,0.0,0.0
11.79,4706.94,0.00021,0.0,0.0
11.797,4723.232,0.00021,0.0,0.0
11.803,4712.68,0.00021,0.0,0.0
11.809,4715.339,0.00021,0.0,0.0
11.816,4706.64,0.00021,0.0,0.0
11.822,4707.088,0.00021,0.0,0.0
11.828,4704.225,0.00021,0.0,0.0
11.835,4686.557,0.00021,0.0,0.0
11.841,4713.998,0.00021,0.0,0.0
11.847,4700.619,0.00021,0.0,0.0
11.854,4707.044,0.00021,0.0,0.0
11.86,4700.145,0.00021,0.0,0.0
11.866,4723.014,0.00021,0.0,0.0
11.873,4703.673,0.00021,0.0,0.0
11.879,4687.728,0.00021,0.0,0.0
11.885,4703.88,0.00021,0.0,0.0
11.892,4704.726,0.00021,0.0,0.0
11.898,4711.372,0.00021,0.0,0.0
11.904,4705.91,0.00021,0.0,0.0
11.911,4717.026,0.00021,0.0,0.0
11.917,4691.18,0.00021,0.0,0.0
11.923,4716.804,0.00021,0.0,0.0
11.93,4705.962,0.00021,0.0,0.0
11.936,4708.836,0.00021,0.0,0.0
11.942,4703.967,0.00021,0.0,0.0
11.948,4719.792,0.00021,0.0,0.0
11.955,4714.721,0.00021,0.0,0.0
11.961,4712.804,0.00021,0.0,0.0
11.967,4709.029,0.00021,0.0,0.0
11.974,4718.095,0.00021,0.0,0.0
11.98,4719.391,0.00021,0.0,0.0
11.986,4716.45,0.00021,0.0,0.0
11.993,4729.323,0.00021,0.0,0.0
11.999,4730.393,0.00021,0.0,0.0
12.005,4736.15,0.00021,0.0,0.0
12.012,4739.866,0.00021,0.0,0.0
12.018,4754.94,0.00021,0.0,0.0
12.024,4752.875,0.00021,0.0,0.0
12.031,4758.628,0.00021,0.0,0.0
12.037,4818.767,0.00021,0.0,0.0
12.043,4790.414,0.00021,0.0,0.0
12.05,4944.366,0.0002,0.0,0.0
12.056,4866.817,0.00021,0.0,0.0
12.062,4922.334,0.0002,0.0,0.0
12.069,5668.332,0.00018,0.0,0.0
12.075,5195.172,0.00019,0.0,0.0
12.081,8337.442,0.00012,0.0,0.0
12.088,6415.885,0.00016,0.0,0.0
12.094,6631.518,0.00015,0.0,0.0
12.1,10152.388,0.0001,0.0,0.0
12.106,6406.596,0.00016,0.0,0.0
12.113,7040.893,0.00014,0.0,0.0
12.119,5535.691,0.00018,0.0,0.0
12.125,5317.251,0.00019,0.0,0.0
12.132,5155.583,0.00019,0.0,0.0
12.138,4915.249,0.0002,0.0,0.0
12.144,4845.481,0.00021,0.0,0.0
12.151,4825.644,0.00021,0.0,0.0
12.157,4762.916,0.00021,0.0,0.0
12.163,4754.231,0.00021,0.0,0.0
12.17,4719.932,0.00021,0.0,0.0
12.176,4712.447,0.00021,0.0,0.0
12.182,4708.407,0.00021,0.0,0.0
12.189,4695.306,0.00021,0.0,0.0
12.195,4686.678,0.00021,0.0,0.0
12.201,4668.002,0.00021,0.0,0.0
12.208,4664.314,0.00021,0.0,0.0
12.214,4648.326,0.00022,0.0,0.0
12.22,4641.86,0.00022,0.0,0.0
12.227,4625.16,0.00022,0.0,0.0
12.233,4620.379,0.00022,0.0,0.0
12.239,4613.674,0.00022,0.0,0.0
12.246,4609.524,0.00022,0.0,0.0
12.252,4622.146,0.00022,0.0,0.0
12.258,4595.424,0.00022,0.0,0.0
12.264,4611.846,0.00022,0.0,0.0
12.271,4588.046,0.00022,0.0,0.0
12.277,4587.746,0.00022,0.0,0.0
12.283,4584.553,0.00022,0.0,0.0
12.29,4576.773,0.00022,0.0,0.0
12.296,4588.79,0.00022,0.0,0.0
12.302,4572.93,0.00022,0.0,0.0
12.309,4548.405,0.00022,0.0,0.0
12.315,4559.651,0.00022,0.0,0.0
12.321,4563.18,0.00022,0.0,0.0
12.328,4550.084,0.00022,0.0,0.0
12.334,4545.607,0.00022,0.0,0.0
12.34,4548.012,0.00022,0.0,0.0
12.347,4546.798,0.00022,0.0,0.0
12.353,4545.249,0.00022,0.0,0.0
12.359,4534.909,0.00022,0.0,0.0
12.366,4538.972,0.00022,0.0,0.0
12.372,4524.484,0.00022,0.0,0.0
12.378,4527.017,0.00022,0.0,0.0
12.385,4539.071,0.00022,0.0,0.0
12.391,4534.998,0.00022,0.0,0.0
12.397,4538.791,0.00022,0.0,0.0
12.404,4525.186,0.00022,0.0,0.0
12.41,4529.05,0.00022,0.0,0.0
12.416,4522.461,0.00022,0.0,0.0
12.422,4530.114,0.00022,0.0,0.0
12.429,4519.737,0.00022,0.0,0.0
12.435,4512.668,0.00022,0.0,0.0
12.441,4521.642,0.00022,0.0,0.0
12.448,4518.869,0.00022,0.0,0.0
12.454,4511.153,0.00022,0.0,0.0
12.46,4510.26,0.00022,0.0,0.0
12.467,4492.979,0.00022,0.0,0.0
12.473,4527.514,0.00022,0.0,0.0
12.479,4508.719,0.00022,0.0,0.0
12.486,4519.452,0.00022,0.0,0.0
12.492,4522.094,0.00022,0.0,0.0
12.498,4516.226,0.00022,0.0,0.0
12.505,4533.027,0.00022,0.0,0.0
12.511,4531.854,0.00022,0.0,0.0
12.517,4547.544,0.00022,0.0,0.0
12.524,4552.12,0.00022,0.0,0.0
12.53,4551.293,0.00022,0.0,0.0
12.536,4546.769,0.00022,0.0,0.0
12.543,4545.989,0.00022,0.0,0.0
12.549,4542.411,0.00022,0.0,0.0
12.555,4541.975,0.00022,0.0,0.0
12.562,4551.063,0.00022,0.0,0.0
12.568,4541.334,0.00022,0.0,0.0
12.574,4550.736,0.00022,0.0,0.0
12.58,4556.962,0.00022,0.0,0.0
12.587,4574.892,0.00022,0.0,0.0
12.593,4586.005,0.00022,0.0,0.0
12.599,4597.786,0.00022,0.0,0.0
12.606,4644.431,0.00022,0.0,0.0
12.612,4691.823,0.00021,0.0,0.0
12.618,4744.755,0.00021,0.0,0.0
12.625,4825.431,0.00021,0.0,0.0
12.631,4962.894,0.0002,0.0,0.0
12.637,5181.791,0.00019,0.0,0.0
12.644,5510.692,0.00018,0.0,0.0
12.65,6082.014,0.00016,0.0,0.0
12.656,7124.931,0.00014,0.0,0.0
12.663,8884.464,0.00011,0.0,0.0
12.669,12220.191,0.00008,0.0,0.0
12.675,17198.966,0.00006,0.0,0.0
12.682,22302.941,0.00004,0.0,0.0
12.688,29956.734,0.00003,0.0,0.0
12.694,32712.444,0.00003,0.0,0.0
12.701,32410.666,0.00003,0.0,0.0
12.707,29708.83,0.00003,0.0,0.0
12.713,22063.363,0.00005,0.0,0.0
12.72,16884.342,0.00006,0.0,0.0
12.726,11703.089,0.00009,0.0,0.0
12.732,8782.609,0.00011,0.0,0.0
12.738,6980.363,0.00014,0.0,0.0
12.745,6007.689,0.00017,0.0,0.0
12.751,5456.123,0.00018,0.0,0.0
12.757,5057.068,0.0002,0.0,0.0
12.764,4890.376,0.0002,0.0,0.0
12.77,4751.031,0.00021,0.0,0.0
12.776,4643.072,0.00022,0.0,0.0
12.783,4603.818,0.00022,0.0,0.0
12.789,4555.671,0.00022,0.0,0.0
12.795,4527.581,0.00022,0.0,0.0
12.802,4502.786,0.00022,0.0,0.0
12.808,4478.572,0.00022,0.0,0.0
12.814,4482.551,0.00022,0.0,0.0
12.821,4442.153,0.00023,0.0,0.0
12.827,4427.846,0.00023,0.0,0.0
12.833,4431.235,0.00023,0.0,0.0
12.84,4417.133,0.00023,0.0,0.0
12.846,4414.918,0.00023,0.0,0.0
12.852,4401.576,0.00023,0.0,0.0
12.859,4396.47,0.00023,0.0,0.0
12.865,4400.126,0.00023,0.0,0.0
12.871,4380.995,0.00023,0.0,0.0
12.878,4374.425,0.00023,0.0,0.0
12.884,4362.91,0.00023,0.0,0.0
12.89,4373.22,0.00023,0.0,0.0
12.896,4384.831,0.00023,0.0,0.0
12.903,4381.523,0.00023,0.0,0.0
12.909,4385.239,0.00023,0.0,0.0
12.915,4441.6,0.00023,0.0,0.0
12.922,4428.732,0.00023,0.0,0.0
12.928,4581.794,0.00022,0.0,0.0
12.934,4674.277,0.00021,0.0,0.0
12.941,4624.159,0.00022,0.0,0.0
12.947,4774.678,0.00021,0.0,0.0
12.953,4557.058,0.00022,0.0,0.0
12.96,4551.126,0.00022,0.0,0.0
12.966,4477.495,0.00022,0.0,0.0
12.972,4417.637,0.00023,0.0,0.0
12.979,4382.795,0.00023,0.0,0.0
12.985,4347.044,0.00023,0.0,0.0
12.991,4315.488,0.00023,0.0,0.0
12.998,4309.635,0.00023,0.0,0.0
13.004,4296.804,0.00023,0.0,0.0
13.01,4286.016,0.00023,0.0,0.0
13.017,4288.414,0.00023,0.0,0.0
13.023,4285.516,0.00023,0.0,0.0
13.029,4281.38,0.00023,0.0,0.0
13.036,4271.244,0.00023,0.0,0.0
13.042,4260.289,0.00023,0.0,0.0
13.048,4255.635,0.00023,0.0,0.0
13.054,4254.948,0.00024,0.0,0.0
13.061,4241.726,0.00024,0.0,0.0
13.067,4249.537,0.00024,0.0,0.0
13.073,4248.545,0.00024,0.0,0.0
13.08,4247.819,0.00024,0.0,0.0
13.086,4256.203,0.00023,0.0,0.0
13.092,4236.089,0.00024,0.0,0.0
13.099,4238.568,0.00024,0.0,0.0
13.105,4226.336,0.00024,0.0,0.0
13.111,4247.78,0.00024,0.0,0.0
13.118,4230.028,0.00024,0.0,0.0
13.124,4224.259,0.00024,0.0,0.0
13.13,4245.798,0.00024,0.0,0.0
13.137,4230.802,0.00024,0.0,0.0
13.143,4227.967,0.00024,0.0,0.0
13.149,4220.179,0.00024,0.0,0.0
13.156,4241.392,0.00024,0.0,0.0
13.162,4233.845,0.00024,0.0,0.0
13.168,4224.343,0.00024,0.0,0.0
13.175,4237.187,0.00024,0.0,0.0
13.181,4248.731,0.00024,0.0,0.0
13.187,4261.714,0.00023,0.0,0.0
13.194,4283.774,0.00023,0.0,0.0
13.2,4307.497,0.00023,0.0,0.0
13.206,4354.96,0.00023,0.0,0.0
13.212,4426.871,0.00023,0.0,0.0
13.219,4602.815,0.00022,0.0,0.0
13.225,4834.62,0.00021,0.0,0.0
13.231,5286.764,0.00019,0.0,0.0
13.238,6176.499,0.00016,0.0,0.0
13.244,7483.69,0.00013,0.0,0.0
13.25,9459.542,0.00011,0.0,0.0
13.257,10940.282,0.00009,0.0,0.0
13.263,12634.215,0.00008,0.0,0.0
13.269,13182.424,0.00008,0.0,0.0
13.276,10987.256,0.00009,0.0,0.0
13.282,9996.192,0.0001,0.0,0.0
13.288,7531.474,0.00013,0.0,0.0
13.295,6371.527,0.00016,0.0,0.0
13.301,5388.642,0.00019,0.0,0.0
13.307,4837.583,0.00021,0.0,0.0
13.314,4578.202,0.00022,0.0,0.0
13.32,4386.843,0.00023,0.0,0.0
13.326,4307.642,0.00023,0.0,0.0
13.333,4243.527,0.00024,0.0,0.0
13.339,4202.727,0.00024,0.0,0.0
13.345,4178.646,0.00024,0.0,0.0
13.352,4170.808,0.00024,0.0,0.0
13.358,4152.478,0.00024,0.0,0.0
13.364,4136.295,0.00024,0.0,0.0
13.37,4131.539,0.00024,0.0,0.0
13.377,4124.566,0.00024,0.0,0.0
13.383,4115.65,0.00024,0.0,0.0
13.389,4124.461,0.00024,0.0,0.0
13.396,4103.631,0.00024,0.0,0.0
13.402,4110.966,0.00024,0.0,0.0
13.408,4102.232,0.00024,0.0,0.0
13.415,4091.342,0.00024,0.0,0.0
13.421,4076.781,0.00025,0.0,0.0
13.427,4083.959,0.00024,0.0,0.0
13.434,4076.924,0.00025,0.0,0.0
13.44,4082.862,0.00024,0.0,0.0
13.446,4071.761,0.00025,0.0,0.0
13.453,4063.564,0.00025,0.0,0.0
13.459,4051.532,0.00025,0.0,0.0
13.465,4065.218,0.00025,0.0,0.0
13.472,4056.81,0.00025,0.0,0.0
13.478,4042.37,0.00025,0.0,0.0
13.484,4050.016,0.00025,0.0,0.0
13.491,4042.038,0.00025,0.0,0.0
13.497,4047.079,0.00025,0.0,0.0
13.503,4040.971,0.00025,0.0,0.0
13.51,4036.022,0.00025,0.0,0.0
13.516,4030.136,0.00025,0.0,0.0
13.522,4026.317,0.00025,0.0,0.0
13.528,4031.771,0.00025,0.0,0.0
13.535,4028.045,0.00025,0.0,0.0
13.541,4024.065,0.00025,0.0,0.0
13.547,4013.218,0.00025,0.0,0.0
13.554,4016.589,0.00025,0.0,0.0
13.56,4015.171,0.00025,0.0,0.0
13.566,4011.201,0.00025,0.0,0.0
13.573,4019.076,0.00025,0.0,0.0
13.579,4009.066,0.00025,0.0,0.0
13.585,4020.615,0.00025,0.0,0.0
13.592,4004.977,0.00025,0.0,0.0
13.598,4010.733,0.00025,0.0,0.0
13.604,3996.878,0.00025,0.0,0.0
13.611,4010.043,0.00025,0.0,0.0
13.617,3997.259,0.00025,0.0,0.0
13.623,3997.074,0.00025,0.0,0.0
13.63,3997.784,0.00025,0.0,0.0
13.636,3999.198,0.00025,0.0,0.0
13.642,4013.079,0.00025,0.0,0.0
13.649,3996.918,0.00025,0.0,0.0
13.655,4006.204,0.00025,0.0,0.0
13.661,4010.308,0.00025,0.0,0.0
13.668,4010.992,0.00025,0.0,0.0
13.674,4004.897,0.00025,0.0,0.0
13.68,4014.622,0.00025,0.0,0.0
13.686,4026.955,0.00025,0.0,0.0
13.693,4037.278,0.00025,0.0,0.0
13.699,4082.604,0.00024,0.0,0.0
13.705,4156.854,0.00024,0.0,0.0
13.712,4317.874,0.00023,0.0,0.0
13.718,4280.499,0.00023,0.0,0.0
13.724,4396.088,0.00023,0.0,0.0
13.731,4367.199,0.00023,0.0,0.0
13.737,4283.097,0.00023,0.0,0.0
13.743,4269.403,0.00023,0.0,0.0
13.75,4215.815,0.00024,0.0,0.0
13.756,4068.493,0.00025,0.0,0.0
13.762,4013.899,0.00025,0.0,0.0
13.769,3996.429,0.00025,0.0,0.0
13.775,3957.904,0.00025,0.0,0.0
13.781,3960.673,0.00025,0.0,0.0
13.788,3940.027,0.00025,0.0,0.0
13.794,3931.611,0.00025,0.0,0.0
13.8,3927.181,0.00025,0.0,0.0
13.807,3924.364,0.00025,0.0,0.0
13.813,3920.182,0.00026,0.0,0.0
13.819,3904.156,0.00026,0.0,0.0
13.826,3912.048,0.00026,0.0,0.0
13.832,3914.167,0.00026,0.0,0.0
13.838,3907.992,0.00026,0.0,0.0
13.844,3900.725,0.00026,0.0,0.0
13.851,3903.644,0.00026,0.0,0.0
13.857,3888.766,0.00026,0.0,0.0
13.863,3890.023,0.00026,0.0,0.0
13.87,3891.77,0.00026,0.0,0.0
13.876,3880.745,0.00026,0.0,0.0
13.882,3875.028,0.00026,0.0,0.0
13.889,3881.806,0.00026,0.0,0.0
13.895,3871.911,0.00026,0.0,0.0
13.901,3874.393,0.00026,0.0,0.0
13.908,3871.876,0.00026,0.0,0.0
13.914,3865.318,0.00026,0.0,0.0
13.92,3869.781,0.00026,0.0,0.0
13.927,3852.971,0.00026,0.0,0.0
13.933,3847.202,0.00026,0.0,0.0
13.939,3854.479,0.00026,0.0,0.0
13.946,3850.943,0.00026,0.0,0.0
13.952,3838.106,0.00026,0.0,0.0
13.958,3851.35,0.00026,0.0,0.0
13.965,3836.446,0.00026,0.0,0.0
13.971,3844.445,0.00026,0.0,0.0
13.977,3836.835,0.00026,0.0,0.0
13.984,3833.649,0.00026,0.0,0.0
13.99,3829.483,0.00026,0.0,0.0
13.996,3827.051,0.00026,0.0,0.0
14.002,3827.945,0.00026,0.0,0.0
14.009,3812.688,0.00026,0.0,0.0
14.015,3819.214,0.00026,0.0,0.0
14.021,3802.321,0.00026,0.0,0.0
14.028,3806.598,0.00026,0.0,0.0
14.034,3811.316,0.00026,0.0,0.0
14.04,3797.134,0.00026,0.0,0.0
14.047,3796.245,0.00026,0.0,0.0
14.053,3803.628,0.00026,0.0,0.0
14.059,3794.64,0.00026,0.0,0.0
14.066,3796.332,0.00026,0.0,0.0
14.072,3794.146,0.00026,0.0,0.0
14.078,3787.131,0.00026,0.0,0.0
14.085,3780.039,0.00026,0.0,0.0
14.091,3775.165,0.00026,0.0,0.0
14.097,3776.851,0.00026,0.0,0.0
14.104,3773.83,0.00026,0.0,0.0
14.11,3762.184,0.00027,0.0,0.0
14.116,3762.191,0.00027,0.0,0.0
14.123,3764.393,0.00027,0.0,0.0
14.129,3761.1,0.00027,0.0,0.0
14.135,3763.109,0.00027,0.0,0.0
14.142,3754.46,0.00027,0.0,0.0
14.148,3749.336,0.00027,0.0,0.0
14.154,3745.877,0.00027,0.0,0.0
14.16,3754.127,0.00027,0.0,0.0
14.167,3746.357,0.00027,0.0,0.0
14.173,3746.896,0.00027,0.0,0.0
14.179,3735.547,0.00027,0.0,0.0
14.186,3730.01,0.00027,0.0,0.0
14.192,3739.022,0.00027,0.0,0.0
14.198,3731.019,0.00027,0.0,0.0
14.205,3740.078,0.00027,0.0,0.0
14.211,3736.22,0.00027,0.0,0.0
14.217,3730.309,0.00027,0.0,0.0
14.224,3726.669,0.00027,0.0,0.0
14.23,3729.041,0.00027,0.0,0.0
14.236,3742.226,0.00027,0.0,0.0
14.243,3739.644,0.00027,0.0,0.0
14.249,3726.413,0.00027,0.0,0.0
14.255,3747.292,0.00027,0.0,0.0
14.262,3750.397,0.00027,0.0,0.0
14.268,3749.283,0.00027,0.0,0.0
14.274,3736.799,0.00027,0.0,0.0
14.281,3754.86,0.00027,0.0,0.0
14.287,3737.525,0.00027,0.0,0.0
14.293,3739.533,0.00027,0.0,0.0
14.3,3719.085,0.00027,0.0,0.0
14.306,3719.046,0.00027,0.0,0.0
14.312,3719.177,0.00027,0.0,0.0
14.318,3695.873,0.00027,0.0,0.0
14.325,3713.955,0.00027,0.0,0.0
14.331,3688.756,0.00027,0.0,0.0
14.337,3686.553,0.00027,0.0,0.0
14.344,3690.464,0.00027,0.0,0.0
14.35,3689.978,0.00027,0.0,0.0
14.356,3682.963,0.00027,0.0,0.0
14.363,3673.031,0.00027,0.0,0.0
14.369,3670.561,0.00027,0.0,0.0
14.375,3672.414,0.00027,0.0,0.0
14.382,3676.198,0.00027,0.0,0.0
14.388,3668.706,0.00027,0.0,0.0
14.394,3663.701,0.00027,0.0,0.0
14.401,3667.62,0.00027,0.0,0.0
14.407,3659.649,0.00027,0.0,0.0
14.413,3669.007,0.00027,0.0,0.0
14.42,3669.712,0.00027,0.0,0.0
14.426,3659.736,0.00027,0.0,0.0
14.432,3666.818,0.00027,0.0,0.0
14.439,3683.354,0.00027,0.0,0.0
14.445,3694.774,0.00027,0.0,0.0
14.451,3717.566,0.00027,0.0,0.0
14.458,3724.756,0.00027,0.0,0.0
14.464,3828.267,0.00026,0.0,0.0
14.47,3832.541,0.00026,0.0,0.0
14.476,3803.472,0.00026,0.0,0.0
14.483,3814.65,0.00026,0.0,0.0
14.489,3713.803,0.00027,0.0,0.0
14.495,3706.574,0.00027,0.0,0.0
14.502,3659.445,0.00027,0.0,0.0
14.508,3650.671,0.00027,0.0,0.0
14.514,3651.309,0.00027,0.0,0.0
14.521,3627.193,0.00028,0.0,0.0
14.527,3627.296,0.00028,0.0,0.0
14.533,3622.483,0.00028,0.0,0.0
14.54,3616.333,0.00028,0.0,0.0
14.546,3613.135,0.00028,0.0,0.0
14.552,3613.594,0.00028,0.0,0.0
14.559,3611.793,0.00028,0.0,0.0
14.565,3599.617,0.00028,0.0,0.0
14.571,3608.938,0.00028,0.0,0.0
14.578,3588.677,0.00028,0.0,0.0
14.584,3607.5,0.00028,0.0,0.0
14.59,3599.269,0.00028,0.0,0.0
14.597,3597.592,0.00028,0.0,0.0
14.603,3594.389,0.00028,0.0,0.0
14.609,3590.931,0.00028,0.0,0.0
14.616,3589.157,0.00028,0.0,0.0
14.622,3590.951,0.00028,0.0,0.0
14.628,3583.03,0.00028,0.0,0.0
14.634,3591.286,0.00028,0.0,0.0
14.641,3577.522,0.00028,0.0,0.0
14.647,3571.84,0.00028,0.0,0.0
14.653,3572.11,0.00028,0.0,0.0
14.66,3572.013,0.00028,0.0,0.0
14.666,3580.03,0.00028,0.0,0.0
14.672,3579.807,0.00028,0.0,0.0
14.679,3579.457,0.00028,0.0,0.0
14.685,3572.293,0.00028,0.0,0.0
14.691,3577.95,0.00028,0.0,0.0
14.698,3559.857,0.00028,0.0,0.0
14.704,3572.427,0.00028,0.0,0.0
14.71,3559.71,0.00028,0.0,0.0
14.717,3544.473,0.00028,0.0,0.0
14.723,3546.807,0.00028,0.0,0.0
14.729,3549.935,0.00028,0.0,0.0
14.736,3544.052,0.00028,0.0,0.0
14.742,3549.451,0.00028,0.0,0.0
14.748,3539.95,0.00028,0.0,0.0
14.755,3536.782,0.00028,0.0,0.0
14.761,3537.525,0.00028,0.0,0.0
14.767,3538.633,0.00028,0.0,0.0
14.774,3524.999,0.00028,0.0,0.0
14.78,3530.287,0.00028,0.0,0.0
14.786,3521.696,0.00028,0.0,0.0
14.792,3528.804,0.00028,0.0,0.0
14.799,3521.609,0.00028,0.0,0.0
14.805,3531.689,0.00028,0.0,0.0
14.811,3518.184,0.00028,0.0,0.0
14.818,3524.123,0.00028,0.0,0.0
14.824,3520.211,0.00028,0.0,0.0
14.83,3518.387,0.00028,0.0,0.0
14.837,3523.578,0.00028,0.0,0.0
14.843,3503.051,0.00029,0.0,0.0
14.849,3502.725,0.00029,0.0,0.0
14.856,3511.851,0.00028,0.0,0.0
14.862,3502.732,0.00029,0.0,0.0
14.868,3491.867,0.00029,0.0,0.0
14.875,3501.369,0.00029,0.0,0.0
14.881,3506.737,0.00029,0.0,0.0
14.887,3503.043,0.00029,0.0,0.0
14.894,3498.106,0.00029,0.0,0.0
14.9,3503.668,0.00029,0.0,0.0
14.906,3494.176,0.00029,0.0,0.0
14.913,3490.803,0.00029,0.0,0.0
14.919,3485.491,0.00029,0.0,0.0
14.925,3496.454,0.00029,0.0,0.0
14.932,3472.249,0.00029,0.0,0.0
14.938,3476.268,0.00029,0.0,0.0
14.944,3472.16,0.00029,0.0,0.0
14.95,3487.157,0.00029,0.0,0.0
14.957,3475.724,0.00029,0.0,0.0
14.963,3477.087,0.00029,0.0,0.0
14.969,3472.508,0.00029,0.0,0.0
14.976,3465.055,0.00029,0.0,0.0
14.982,3470.104,0.00029,0.0,0.0
14.988,3463.466,0.00029,0.0,0.0
14.995,3470.564,0.00029,0.0,0.0
15.001,3466.196,0.00029,0.0,0.0
15.007,3469.841,0.00029,0.0,0.0
15.014,3461.926,0.00029,0.0,0.0
15.02,3456.265,0.00029,0.0,0.0
15.026,3461.555,0.00029,0.0,0.0
15.033,3458.745,0.00029,0.0,0.0
15.039,3440.9,0.00029,0.0,0.0
15.045,3470.63,0.00029,0.0,0.0
15.052,3446.901,0.00029,0.0,0.0
15.058,3453.497,0.00029,0.0,0.0
15.064,3448.357,0.00029,0.0,0.0
15.071,3442.929,0.00029,0.0,0.0
15.077,3443.225,0.00029,0.0,0.0
15.083,3445.945,0.00029,0.0,0.0
15.09,3446.931,0.00029,0.0,0.0
15.096,3440.213,0.00029,0.0,0.0
15.102,3449.122,0.00029,0.0,0.0
15.108,3443.893,0.00029,0.0,0.0
15.115,3437.914,0.00029,0.0,0.0
15.121,3436.421,0.00029,0.0,0.0
15.127,3438.858,0.00029,0.0,0.0
15.134,3432.315,0.00029,0.0,0.0
15.14,3441.911,0.00029,0.0,0.0
15.146,3436.479,0.00029,0.0,0.0
15.153,3434.678,0.00029,0.0,0.0
15.159,3435.228,0.00029,0.0,0.0
15.165,3448.702,0.00029,0.0,0.0
15.172,3448.197,0.00029,0.0,0.0
15.178,3461.19,0.00029,0.0,0.0
15.184,3459.714,0.00029,0.0,0.0
15.191,3454.402,0.00029,0.0,0.0
15.197,3457.861,0.00029,0.0,0.0
15.203,3438.891,0.00029,0.0,0.0
15.21,3439.526,0.00029,0.0,0.0
15.216,3433.155,0.00029,0.0,0.0
15.222,3445.119,0.00029,0.0,0.0
15.229,3439.562,0.00029,0.0,0.0
15.235,3434.835,0.00029,0.0,0.0
15.241,3441.79,0.00029,0.0,0.0
15.248,3447.166,0.00029,0.0,0.0
15.254,3459.745,0.00029,0.0,0.0
15.26,3464.036,0.00029,0.0,0.0
15.266,3501.788,0.00029,0.0,0.0
15.273,3541.415,0.00028,0.0,0.0
15.279,3613.769,0.00028,0.0,0.0
15.285,3713.204,0.00027,0.0,0.0
15.292,3926.347,0.00025,0.0,0.0
15.298,4200.693,0.00024,0.0,0.0
15.304,4609.644,0.00022,0.0,0.0
15.311,5143.163,0.00019,0.0,0.0
15.317,5565.972,0.00018,0.0,0.0
15.323,6013.048,0.00017,0.0,0.0
15.33,5942.59,0.00017,0.0,0.0
15.336,5504.351,0.00018,0.0,0.0
15.342,5363.93,0.00019,0.0,0.0
15.349,4603.572,0.00022,0.0,0.0
15.355,4282.636,0.00023,0.0,0.0
15.361,3930.565,0.00025,0.0,0.0
15.368,3711.178,0.00027,0.0,0.0
15.374,3595.999,0.00028,0.0,0.0
15.38,3509.921,0.00028,0.0,0.0
15.387,3461.707,0.00029,0.0,0.0
15.393,3433.615,0.00029,0.0,0.0
15.399,3429.111,0.00029,0.0,0.0
15.406,3407.537,0.00029,0.0,0.0
15.412,3395.503,0.00029,0.0,0.0
15.418,3397.844,0.00029,0.0,0.0
15.424,3387.02,0.0003,0.0,0.0
15.431,3382.148,0.0003,0.0,0.0
15.437,3385.071,0.0003,0.0,0.0
15.443,3368.805,0.0003,0.0,0.0
15.45,3384.338,0.0003,0.0,0.0
15.456,3365.191,0.0003,0.0,0.0
15.462,3372.754,0.0003,0.0,0.0
15.469,3373.106,0.0003,0.0,0.0
15.475,3363.887,0.0003,0.0,0.0
15.481,3363.158,0.0003,0.0,0.0
15.488,3363.77,0.0003,0.0,0.0
15.494,3362.289,0.0003,0.0,0.0
15.5,3367.384,0.0003,0.0,0.0
15.507,3339.811,0.0003,0.0,0.0
15.513,3356.894,0.0003,0.0,0.0
15.519,3352.433,0.0003,0.0,0.0
15.526,3343.63,0.0003,0.0,0.0
15.532,3346.643,0.0003,0.0,0.0
15.538,3333.817,0.0003,0.0,0.0
15.545,3327.825,0.0003,0.0,0.0
15.551,3339.2,0.0003,0.0,0.0
15.557,3327.938,0.0003,0.0,0.0
15.564,3330.213,0.0003,0.0,0.0
15.57,3327.394,0.0003,0.0,0.0
15.576,3325.07,0.0003,0.0,0.0
15.582,3324.43,0.0003,0.0,0.0
15.589,3318.068,0.0003,0.0,0.0
15.595,3309.606,0.0003,0.0,0.0
15.601,3320.262,0.0003,0.0,0.0
15.608,3320.389,0.0003,0.0,0.0
15.614,3317.131,0.0003,0.0,0.0
15.62,3313.209,0.0003,0.0,0.0
15.627,3301.632,0.0003,0.0,0.0
15.633,3305.393,0.0003,0.0,0.0
15.639,3308.813,0.0003,0.0,0.0
15.646,3299.37,0.0003,0.0,0.0
15.652,3297.945,0.0003,0.0,0.0
15.658,3289.127,0.0003,0.0,0.0
15.665,3316.219,0.0003,0.0,0.0
15.671,3310.572,0.0003,0.0,0.0
15.677,3297.234,0.0003,0.0,0.0
15.684,3287.808,0.0003,0.0,0.0
15.69,3291.727,0.0003,0.0,0.0
15.696,3287.729,0.0003,0.0,0.0
15.703,3293.558,0.0003,0.0,0.0
15.709,3295.872,0.0003,0.0,0.0
15.715,3285.767,0.0003,0.0,0.0
15.722,3275.998,0.00031,0.0,0.0
15.728,3278.19,0.00031,0.0,0.0
15.734,3279.157,0.0003,0.0,0.0
15.74,3275.835,0.00031,0.0,0.0
15.747,3280.747,0.0003,0.0,0.0
15.753,3282.635,0.0003,0.0,0.0
15.759,3276.587,0.00031,0.0,0.0
15.766,3277.59,0.00031,0.0,0.0
15.772,3281.37,0.0003,0.0,0.0
15.778,3273.54,0.00031,0.0,0.0
15.785,3269.512,0.00031,0.0,0.0
15.791,3261.846,0.00031,0.0,0.0
15.797,3266.71,0.00031,0.0,0.0
15.804,3266.71,0.00031,0.0,0.0
15.81,3265.766,0.00031,0.0,0.0
15.816,3271.489,0.00031,0.0,0.0
15.823,3259.373,0.00031,0.0,0.0
15.829,3252.725,0.00031,0.0,0.0
15.835,3266.979,0.00031,0.0,0.0
15.842,3270.06,0.00031,0.0,0.0
15.848,3263.087,0.00031,0.0,0.0
15.854,3273.091,0.00031,0.0,0.0
15.861,3269.551,0.00031,0.0,0.0
15.867,3278.313,0.00031,0.0,0.0
15.873,3273.923,0.00031,0.0,0.0
15.88,3275.093,0.00031,0.0,0.0
15.886,3268.32,0.00031,0.0,0.0
15.892,3258.518,0.00031,0.0,0.0
15.898,3257.503,0.00031,0.0,0.0
15.905,3244.326,0.00031,0.0,0.0
15.911,3252.194,0.00031,0.0,0.0
15.917,3246.579,0.00031,0.0,0.0
15.924,3248.193,0.00031,0.0,0.0
15.93,3239.959,0.00031,0.0,0.0
15.936,3247.583,0.00031,0.0,0.0
15.943,3237.411,0.00031,0.0,0.0
15.949,3238.063,0.00031,0.0,0.0
15.955,3241.852,0.00031,0.0,0.0
15.962,3236.321,0.00031,0.0,0.0
15.968,3234.899,0.00031,0.0,0.0
15.974,3226.299,0.00031,0.0,0.0
15.981,3230.31,0.00031,0.0,0.0
15.987,3228.662,0.00031,0.0,0.0
15.993,3237.61,0.00031,0.0,0.0
16.0,3234.958,0.00031,0.0,0.0
16.006,3223.985,0.00031,0.0,0.0
16.012,3234.634,0.00031,0.0,0.0
16.019,3231.656,0.00031,0.0,0.0
16.025,3222.647,0.00031,0.0,0.0
16.031,3217.946,0.00031,0.0,0.0
16.038,3219.186,0.00031,0.0,0.0
16.044,3223.483,0.00031,0.0,0.0
16.05,3215.509,0.00031,0.0,0.0
16.056,3207.56,0.00031,0.0,0.0
16.063,3214.354,0.00031,0.0,0.0
16.069,3223.449,0.00031,0.0,0.0
16.075,3223.129,0.00031,0.0,0.0
16.082,3203.894,0.00031,0.0,0.0
16.088,3214.723,0.00031,0.0,0.0
16.094,3221.277,0.00031,0.0,0.0
16.101,3202.833,0.00031,0.0,0.0
16.107,3217.204,0.00031,0.0,0.0
16.113,3201.435,0.00031,0.0,0.0
16.12,3207.263,0.00031,0.0,0.0
16.126,3214.541,0.00031,0.0,0.0
16.132,3203.072,0.00031,0.0,0.0
16.139,3204.279,0.00031,0.0,0.0
16.145,3206.389,0.00031,0.0,0.0
16.151,3210.212,0.00031,0.0,0.0
16.158,3206.952,0.00031,0.0,0.0
16.164,3206.085,0.00031,0.0,0.0
16.17,3206.632,0.00031,0.0,0.0
16.177,3209.725,0.00031,0.0,0.0
16.183,3206.249,0.00031,0.0,0.0
16.189,3199.348,0.00031,0.0,0.0
16.196,3194.237,0.00031,0.0,0.0
16.202,3196.867,0.00031,0.0,0.0
16.208,3201.008,0.00031,0.0,0.0
16.214,3190.691,0.00031,0.0,0.0
16.221,3195.057,0.00031,0.0,0.0
16.227,3194.248,0.00031,0.0,0.0
16.233,3196.414,0.00031,0.0,0.0
16.24,3203.722,0.00031,0.0,0.0
16.246,3198.333,0.00031,0.0,0.0
16.252,3184.307,0.00031,0.0,0.0
16.259,3198.868,0.00031,0.0,0.0
16.265,3185.822,0.00031,0.0,0.0
16.271,3194.401,0.00031,0.0,0.0
16.278,3192.127,0.00031,0.0,0.0
16.284,3197.032,0.00031,0.0,0.0
16.29,3183.824,0.00031,0.0,0.0
16.297,3198.09,0.00031,0.0,0.0
16.303,3190.318,0.00031,0.0,0.0
16.309,3199.712,0.00031,0.0,0.0
16.316,3204.392,0.00031,0.0,0.0
16.322,3189.86,0.00031,0.0,0.0
16.328,3202.44,0.00031,0.0,0.0
16.335,3194.681,0.00031,0.0,0.0
16.341,3200.632,0.00031,0.0,0.0
16.347,3191.651,0.00031,0.0,0.0
16.354,3197.617,0.00031,0.0,0.0
16.36,3194.566,0.00031,0.0,0.0
16.366,3193.885,0.00031,0.0,0.0
16.372,3188.094,0.00031,0.0,0.0
16.379,3199.719,0.00031,0.0,0.0
16.385,3177.095,0.00031,0.0,0.0
16.391,3185.593,0.00031,0.0,0.0
16.398,3185.544,0.00031,0.0,0.0
16.404,3185.404,0.00031,0.0,0.0
16.41,3197.893,0.00031,0.0,0.0
16.417,3184.725,0.00031,0.0,0.0
16.423,3189.827,0.00031,0.0,0.0
16.429,3192.209,0.00031,0.0,0.0
16.436,3184.966,0.00031,0.0,0.0
16.442,3199.581,0.00031,0.0,0.0
16.448,3191.533,0.00031,0.0,0.0
16.455,3191.984,0.00031,0.0,0.0
16.461,3201.2,0.00031,0.0,0.0
16.467,3203.666,0.00031,0.0,0.0
16.474,3191.469,0.00031,0.0,0.0
16.48,3223.469,0.00031,0.0,0.0
16.486,3220.652,0.00031,0.0,0.0
16.493,3236.085,0.00031,0.0,0.0
16.499,3244.237,0.00031,0.0,0.0
16.505,3285.491,0.0003,0.0,0.0
16.512,3267.273,0.00031,0.0,0.0
16.518,3308.272,0.0003,0.0,0.0
16.524,3304.781,0.0003,0.0,0.0
16.53,3252.41,0.00031,0.0,0.0
16.537,3269.48,0.00031,0.0,0.0
16.543,3230.467,0.00031,0.0,0.0
16.549,3225.775,0.00031,0.0,0.0
16.556,3217.775,0.00031,0.0,0.0
16.562,3211.767,0.00031,0.0,0.0
16.568,3219.667,0.00031,0.0,0.0
16.575,3212.422,0.00031,0.0,0.0
16.581,3207.805,0.00031,0.0,0.0
16.587,3215.868,0.00031,0.0,0.0
16.594,3224.908,0.00031,0.0,0.0
