"x","y_obs","weight","y_calc","y_bkg"
0.8,2662.066,0.00038,0.0,0.0
0.806,3005.862,0.00033,0.0,0.0
0.813,3069.795,0.00033,0.0,0.0
0.819,2947.97,0.00034,0.0,0.0
0.825,3519.277,0.00028,0.0,0.0
0.832,3320.969,0.0003,0.0,0.0
0.838,3548.869,0.00028,0.0,0.0
0.844,3859.208,0.00026,0.0,0.0
0.851,3714.082,0.00027,0.0,0.0
0.857,4113.538,0.00024,0.0,0.0
0.863,4395.339,0.00023,0.0,0.0
0.87,4059.886,0.00025,0.0,0.0
0.876,4764.337,0.00021,0.0,0.0
0.882,4672.2,0.00021,0.0,0.0
0.888,4887.398,0.0002,0.0,0.0
0.895,5137.113,0.00019,0.0,0.0
0.901,5100.744,0.0002,0.0,0.0
0.907,5488.892,0.00018,0.0,0.0
0.914,5648.414,0.00018,0.0,0.0
0.92,5313.723,0.00019,0.0,0.0
0.926,5917.364,0.00017,0.0,0.0
0.933,5937.821,0.00017,0.0,0.0
0.939,5750.721,0.00017,0.0,0.0
0.945,6250.906,0.00016,0.0,0.0
0.952,5922.613,0.00017,0.0,0.0
0.958,6216.861,0.00016,0.0,0.0
0.964,6229.589,0.00016,0.0,0.0
0.971,6051.279,0.00017,0.0,0.0
0.977,6465.643,0.00015,0.0,0.0
0.983,6394.001,0.00016,0.0,0.0
0.99,6316.88,0.00016,0.0,0.0
0.996,6515.971,0.00015,0.0,0.0
1.002,6298.296,0.00016,0.0,0.0
1.009,6467.498,0.00015,0.0,0.0
1.015,6554.949,0.00015,0.0,0.0
1.021,6378.288,0.00016,0.0,0.0
1.028,6591.579,0.00015,0.0,0.0
1.034,6439.372,0.00016,0.0,0.0
1.04,6487.756,0.00015,0.0,0.0
1.046,6509.56,0.00015,0.0,0.0
1.053,6521.562,0.00015,0.0,0.0
1.059,6459.839,0.00015,0.0,0.0
1.065,6568.851,0.00015,0.0,0.0
1.072,6377.154,0.00016,0.0,0.0
1.078,6496.938,0.00015,0.0,0.0
1.084,6396.99,0.00016,0.0,0.0
1.091,6385.915,0.00016,0.0,0.0
1.097,6401.275,0.00016,0.0,0.0
1.103,6356.443,0.00016,0.0,0.0
1.11,6305.384,0.00016,0.0,0.0
1.116,6284.569,0.00016,0.0,0.0
1.122,6229.425,0.00016,0.0,0.0
1.129,6288.088,0.00016,0.0,0.0
1.135,6176.878,0.00016,0.0,0.0
1.141,6207.717,0.00016,0.0,0.0
1.148,6153.567,0.00016,0.0,0.0
1.154,6087.6,0.00016,0.0,0.0
1.16,6058.785,0.00017,0.0,0.0
1.167,6043.339,0.00017,0.0,0.0
1.173,6009.874,0.00017,0.0,0.0
1.179,5981.296,0.00017,0.0,0.0
1.186,5885.592,0.00017,0.0,0.0
1.192,5887.642,0.00017,0.0,0.0
1.198,5866.548,0.00017,0.0,0.0
1.204,5807.136,0.00017,0.0,0.0
1.211,5796.927,0.00017,0.0,0.0
1.217,5782.794,0.00017,0.0,0.0
1.223,5710.983,0.00018,0.0,0.0
1.23,5689.771,0.00018,0.0,0.0
1.236,5677.243,0.00018,0.0,0.0
1.242,5633.604,0.00018,0.0,0.0
1.249,5624.417,0.00018,0.0,0.0
1.255,5567.928,0.00018,0.0,0.0
1.261,5536.968,0.00018,0.0,0.0
1.268,5517.357,0.00018,0.0,0.0
1.274,5508.678,0.00018,0.0,0.0
1.28,5481.089,0.00018,0.0,0.0
1.287,5417.545,0.00018,0.0,0.0
1.293,5461.802,0.00018,0.0,0.0
1.299,5410.123,0.00018,0.0,0.0
1.306,5401.527,0.00019,0.0,0.0
1.312,5408.151,0.00018,0.0,0.0
1.318,5360.604,0.00019,0.0,0.0
1.325,5302.255,0.00019,0.0,0.0
1.331,5395.247,0.00019,0.0,0.0
1.337,5283.769,0.00019,0.0,0.0
1.344,5280.42,0.00019,0.0,0.0
1.35,5273.572,0.00019,0.0,0.0
1.356,5307.713,0.00019,0.0,0.0
1.362,5253.285,0.00019,0.0,0.0
1.369,5253.814,0.00019,0.0,0.0
1.375,5232.14,0.00019,0.0,0.0
1.381,5233.373,0.00019,0.0,0.0
1.388,5271.151,0.00019,0.0,0.0
1.394,5191.455,0.00019,0.0,0.0
1.4,5202.098,0.00019,0.0,0.0
1.407,5212.108,0.00019,0.0,0.0
1.413,5217.978,0.00019,0.0,0.0
1.419,5175.893,0.00019,0.0,0.0
1.426,5191.484,0.00019,0.0,0.0
1.432,5176.391,0.00019,0.0,0.0
1.438,5178.991,0.00019,0.0,0.0
1.445,5179.569,0.00019,0.0,0.0
1.451,5170.241,0.00019,0.0,0.0
1.457,5152.384,0.00019,0.0,0.0
1.464,5166.003,0.00019,0.0,0.0
1.47,5219.258,0.00019,0.0,0.0
1.476,5163.986,0.00019,0.0,0.0
1.483,5193.062,0.00019,0.0,0.0
1.489,5185.555,0.00019,0.0,0.0
1.495,5154.711,0.00019,0.0,0.0
1.502,5161.518,0.00019,0.0,0.0
1.508,5120.22,0.0002,0.0,0.0
1.514,5166.974,0.00019,0.0,0.0
1.52,5191.785,0.00019,0.0,0.0
1.527,5190.082,0.00019,0.0,0.0
1.533,5184.497,0.00019,0.0,0.0
1.539,5186.396,0.00019,0.0,0.0
1.546,5160.151,0.00019,0.0,0.0
1.552,5211.101,0.00019,0.0,0.0
1.558,5189.949,0.00019,0.0,0.0
1.565,5203.036,0.00019,0.0,0.0
1.571,5222.662,0.00019,0.0,0.0
1.577,5174.813,0.00019,0.0,0.0
1.584,5231.735,0.00019,0.0,0.0
1.59,5204.661,0.00019,0.0,0.0
1.596,5212.369,0.00019,0.0,0.0
1.603,5288.908,0.00019,0.0,0.0
1.609,5247.394,0.00019,0.0,0.0
1.615,5252.717,0.00019,0.0,0.0
1.622,5278.227,0.00019,0.0,0.0
1.628,5258.169,0.00019,0.0,0.0
1.634,5298.356,0.00019,0.0,0.0
1.641,5302.68,0.00019,0.0,0.0
1.647,5324.542,0.00019,0.0,0.0
1.653,5345.009,0.00019,0.0,0.0
1.66,5358.455,0.00019,0.0,0.0
1.666,5367.328,0.00019,0.0,0.0
1.672,5390.44,0.00019,0.0,0.0
1.678,5400.081,0.00019,0.0,0.0
1.685,5380.667,0.00019,0.0,0.0
1.691,5420.832,0.00018,0.0,0.0
1.697,5426.876,0.00018,0.0,0.0
1.704,5393.735,0.00019,0.0,0.0
1.71,5433.821,0.00018,0.0,0.0
1.716,5476.311,0.00018,0.0,0.0
1.723,5451.976,0.00018,0.0,0.0
1.729,5478.926,0.00018,0.0,0.0
1.735,5476.146,0.00018,0.0,0.0
1.742,5486.558,0.00018,0.0,0.0
1.748,5495.082,0.00018,0.0,0.0
1.754,5496.616,0.00018,0.0,0.0
1.761,5524.52,0.00018,0.0,0.0
1.767,5544.379,0.00018,0.0,0.0
1.773,5547.782,0.00018,0.0,0.0
1.78,5535.298,0.00018,0.0,0.0
1.786,5584.551,0.00018,0.0,0.0
1.792,5586.878,0.00018,0.0,0.0
1.799,5586.779,0.00018,0.0,0.0
1.805,5592.426,0.00018,0.0,0.0
1.811,5568.166,0.00018,0.0,0.0
1.818,5572.269,0.00018,0.0,0.0
1.824,5569.674,0.00018,0.0,0.0
1.83,5609.124,0.00018,0.0,0.0
1.836,5558.695,0.00018,0.0,0.0
1.843,5600.99,0.00018,0.0,0.0
1.849,5585.094,0.00018,0.0,0.0
1.855,5632.585,0.00018,0.0,0.0
1.862,5572.692,0.00018,0.0,0.0
1.868,5599.845,0.00018,0.0,0.0
1.874,5598.548,0.00018,0.0,0.0
1.881,5623.336,0.00018,0.0,0.0
1.887,5615.388,0.00018,0.0,0.0
1.893,5572.382,0.00018,0.0,0.0
1.9,5612.927,0.00018,0.0,0.0
1.906,5618.11,0.00018,0.0,0.0
1.912,5598.527,0.00018,0.0,0.0
1.919,5602.816,0.00018,0.0,0.0
1.925,5627.932,0.00018,0.0,0.0
1.931,5633.917,0.00018,0.0,0.0
1.938,5598.912,0.00018,0.0,0.0
1.944,5594.6,0.00018,0.0,0.0
1.95,5622.784,0.00018,0.0,0.0
1.957,5601.018,0.00018,0.0,0.0
1.963,5586.624,0.00018,0.0,0.0
1.969,5646.555,0.00018,0.0,0.0
1.976,5603.908,0.00018,0.0,0.0
1.982,5624.479,0.00018,0.0,0.0
1.988,5631.306,0.00018,0.0,0.0
1.994,5612.641,0.00018,0.0,0.0
2.001,5628.875,0.00018,0.0,0.0
2.007,5610.977,0.00018,0.0,0.0
2.013,5617.663,0.00018,0.0,0.0
2.02,5619.229,0.00018,0.0,0.0
2.026,5635.587,0.00018,0.0,0.0
2.032,5635.247,0.00018,0.0,0.0
2.039,5641.191,0.00018,0.0,0.0
2.045,5605.897,0.00018,0.0,0.0
2.051,5641.193,0.00018,0.0,0.0
2.058,5627.883,0.00018,0.0,0.0
2.064,5647.348,0.00018,0.0,0.0
2.07,5649.038,0.00018,0.0,0.0
2.077,5665.094,0.00018,0.0,0.0
2.083,5623.392,0.00018,0.0,0.0
2.089,5648.318,0.00018,0.0,0.0
2.096,5641.202,0.00018,0.0,0.0
2.102,5650.448,0.00018,0.0,0.0
2.108,5672.078,0.00018,0.0,0.0
2.115,5709.098,0.00018,0.0,0.0
2.121,5699.813,0.00018,0.0,0.0
2.127,5681.532,0.00018,0.0,0.0
2.134,5692.118,0.00018,0.0,0.0
2.14,5730.705,0.00017,0.0,0.0
2.146,5721.256,0.00017,0.0,0.0
2.152,5703.277,0.00018,0.0,0.0
2.159,5729.738,0.00017,0.0,0.0
2.165,5746.431,0.00017,0.0,0.0
2.171,5738.542,0.00017,0.0,0.0
2.178,5730.488,0.00017,0.0,0.0
2.184,5786.572,0.00017,0.0,0.0
2.19,5775.296,0.00017,0.0,0.0
2.197,5801.867,0.00017,0.0,0.0
2.203,5796.311,0.00017,0.0,0.0
2.209,5794.861,0.00017,0.0,0.0
2.216,5842.143,0.00017,0.0,0.0
2.222,5831.062,0.00017,0.0,0.0
2.228,5835.795,0.00017,0.0,0.0
2.235,5857.412,0.00017,0.0,0.0
2.241,5889.997,0.00017,0.0,0.0
2.247,5879.913,0.00017,0.0,0.0
2.254,5905.814,0.00017,0.0,0.0
2.26,5924.81,0.00017,0.0,0.0
2.266,5920.844,0.00017,0.0,0.0
2.273,5941.466,0.00017,0.0,0.0
2.279,5949.253,0.00017,0.0,0.0
2.285,5976.039,0.00017,0.0,0.0
2.292,5954.782,0.00017,0.0,0.0
2.298,6008.219,0.00017,0.0,0.0
2.304,5991.235,0.00017,0.0,0.0
2.31,5998.675,0.00017,0.0,0.0
2.317,6046.609,0.00017,0.0,0.0
2.323,6062.925,0.00016,0.0,0.0
2.329,6100.002,0.00016,0.0,0.0
2.336,6102.239,0.00016,0.0,0.0
2.342,6144.505,0.00016,0.0,0.0
2.348,6169.755,0.00016,0.0,0.0
2.355,6155.765,0.00016,0.0,0.0
2.361,6199.748,0.00016,0.0,0.0
2.367,6215.363,0.00016,0.0,0.0
2.374,6216.063,0.00016,0.0,0.0
2.38,6270.355,0.00016,0.0,0.0
2.386,6282.639,0.00016,0.0,0.0
2.393,6331.569,0.00016,0.0,0.0
2.399,6398.545,0.00016,0.0,0.0
2.405,6477.399,0.00015,0.0,0.0
2.412,6606.275,0.00015,0.0,0.0
2.418,6669.263,0.00015,0.0,0.0
2.424,6752.283,0.00015,0.0,0.0
2.431,6825.273,0.00015,0.0,0.0
2.437,6787.222,0.00015,0.0,0.0
2.443,6706.482,0.00015,0.0,0.0
2.45,6670.986,0.00015,0.0,0.0
2.456,6622.472,0.00015,0.0,0.0
2.462,6576.346,0.00015,0.0,0.0
2.468,6576.052,0.00015,0.0,0.0
2.475,6567.76,0.00015,0.0,0.0
2.481,6595.652,0.00015,0.0,0.0
2.487,6621.85,0.00015,0.0,0.0
2.494,6617.546,0.00015,0.0,0.0
2.5,6655.345,0.00015,0.0,0.0
2.506,6679.806,0.00015,0.0,0.0
2.513,6668.001,0.00015,0.0,0.0
2.519,6711.04,0.00015,0.0,0.0
2.525,6705.365,0.00015,0.0,0.0
2.532,6743.338,0.00015,0.0,0.0
2.538,6774.438,0.00015,0.0,0.0
2.544,6820.787,0.00015,0.0,0.0
2.551,6851.76,0.00015,0.0,0.0
2.557,6866.499,0.00015,0.0,0.0
2.563,6884.001,0.00015,0.0,0.0
2.57,6907.921,0.00014,0.0,0.0
2.576,6941.014,0.00014,0.0,0.0
2.582,6977.116,0.00014,0.0,0.0
2.589,6963.447,0.00014,0.0,0.0
2.595,7017.917,0.00014,0.0,0.0
2.601,7027.65,0.00014,0.0,0.0
2.608,7038.749,0.00014,0.0,0.0
2.614,7059.168,0.00014,0.0,0.0
2.62,7069.255,0.00014,0.0,0.0
2.626,7130.658,0.00014,0.0,0.0
2.633,7129.404,0.00014,0.0,0.0
2.639,7168.771,0.00014,0.0,0.0
2.645,7205.43,0.00014,0.0,0.0
2.652,7191.525,0.00014,0.0,0.0
2.658,7240.322,0.00014,0.0,0.0
2.664,7253.145,0.00014,0.0,0.0
2.671,7255.979,0.00014,0.0,0.0
2.677,7303.067,0.00014,0.0,0.0
2.683,7346.74,0.00014,0.0,0.0
2.69,7360.784,0.00014,0.0,0.0
2.696,7377.402,0.00014,0.0,0.0
2.702,7391.687,0.00014,0.0,0.0
2.709,7413.913,0.00013,0.0,0.0
2.715,7447.559,0.00013,0.0,0.0
2.721,7473.533,0.00013,0.0,0.0
2.728,7525.198,0.00013,0.0,0.0
2.734,7522.675,0.00013,0.0,0.0
2.74,7538.44,0.00013,0.0,0.0
2.747,7566.085,0.00013,0.0,0.0
2.753,7615.469,0.00013,0.0,0.0
2.759,7635.237,0.00013,0.0,0.0
2.766,7655.304,0.00013,0.0,0.0
2.772,7669.691,0.00013,0.0,0.0
2.778,7699.094,0.00013,0.0,0.0
2.784,7714.698,0.00013,0.0,0.0
2.791,7760.864,0.00013,0.0,0.0
2.797,7787.303,0.00013,0.0,0.0
2.803,7795.163,0.00013,0.0,0.0
2.81,7853.88,0.00013,0.0,0.0
2.816,7836.039,0.00013,0.0,0.0
2.822,7883.112,0.00013,0.0,0.0
2.829,7878.889,0.00013,0.0,0.0
2.835,7943.016,0.00013,0.0,0.0
2.841,7959.246,0.00013,0.0,0.0
2.848,7978.15,0.00013,0.0,0.0
2.854,8020.629,0.00012,0.0,0.0
2.86,8023.173,0.00012,0.0,0.0
2.867,8050.216,0.00012,0.0,0.0
2.873,8076.993,0.00012,0.0,0.0
2.879,8120.552,0.00012,0.0,0.0
2.886,8104.463,0.00012,0.0,0.0
2.892,8149.211,0.00012,0.0,0.0
2.898,8161.413,0.00012,0.0,0.0
2.905,8158.806,0.00012,0.0,0.0
2.911,8222.045,0.00012,0.0,0.0
2.917,8234.845,0.00012,0.0,0.0
2.924,8203.315,0.00012,0.0,0.0
2.93,8251.532,0.00012,0.0,0.0
2.936,8268.824,0.00012,0.0,0.0
2.942,8283.436,0.00012,0.0,0.0
2.949,8312.003,0.00012,0.0,0.0
2.955,8319.084,0.00012,0.0,0.0
2.961,8359.068,0.00012,0.0,0.0
2.968,8346.652,0.00012,0.0,0.0
2.974,8392.161,0.00012,0.0,0.0
2.98,8384.716,0.00012,0.0,0.0
2.987,8388.223,0.00012,0.0,0.0
2.993,8441.38,0.00012,0.0,0.0
2.999,8437.962,0.00012,0.0,0.0
3.006,8451.085,0.00012,0.0,0.0
3.012,8476.5,0.00012,0.0,0.0
3.018,8444.069,0.00012,0.0,0.0
3.025,8489.68,0.00012,0.0,0.0
3.031,8506.763,0.00012,0.0,0.0
3.037,8528.643,0.00012,0.0,0.0
3.044,8514.6,0.00012,0.0,0.0
3.05,8559.511,0.00012,0.0,0.0
3.056,8512.266,0.00012,0.0,0.0
3.063,8532.428,0.00012,0.0,0.0
3.069,8545.509,0.00012,0.0,0.0
3.075,8556.11,0.00012,0.0,0.0
3.082,8531.995,0.00012,0.0,0.0
3.088,8564.637,0.00012,0.0,0.0
3.094,8559.114,0.00012,0.0,0.0
3.1,8548.237,0.00012,0.0,0.0
3.107,8551.46,0.00012,0.0,0.0
3.113,8552.783,0.00012,0.0,0.0
3.119,8559.745,0.00012,0.0,0.0
3.126,8522.999,0.00012,0.0,0.0
3.132,8547.542,0.00012,0.0,0.0
3.138,8552.443,0.00012,0.0,0.0
3.145,8548.363,0.00012,0.0,0.0
3.151,8552.882,0.00012,0.0,0.0
3.157,8533.121,0.00012,0.0,0.0
3.164,8552.677,0.00012,0.0,0.0
3.17,8512.211,0.00012,0.0,0.0
3.176,8500.175,0.00012,0.0,0.0
3.183,8511.433,0.00012,0.0,0.0
3.189,8442.191,0.00012,0.0,0.0
3.195,8464.743,0.00012,0.0,0.0
3.202,8445.222,0.00012,0.0,0.0
3.208,8421.715,0.00012,0.0,0.0
3.214,8423.827,0.00012,0.0,0.0
3.221,8431.491,0.00012,0.0,0.0
3.227,8402.609,0.00012,0.0,0.0
3.233,8412.398,0.00012,0.0,0.0
3.24,8380.226,0.00012,0.0,0.0
3.246,8382.918,0.00012,0.0,0.0
3.252,8353.418,0.00012,0.0,0.0
3.258,8315.804,0.00012,0.0,0.0
3.265,8331.737,0.00012,0.0,0.0
3.271,8329.309,0.00012,0.0,0.0
3.277,8303.386,0.00012,0.0,0.0
3.284,8296.482,0.00012,0.0,0.0
3.29,8272.89,0.00012,0.0,0.0
3.296,8246.387,0.00012,0.0,0.0
3.303,8248.685,0.00012,0.0,0.0
3.309,8208.235,0.00012,0.0,0.0
3.315,8209.325,0.00012,0.0,0.0
3.322,8173.781,0.00012,0.0,0.0
3.328,8197.394,0.00012,0.0,0.0
3.334,8141.078,0.00012,0.0,0.0
3.341,8137.902,0.00012,0.0,0.0
3.347,8134.868,0.00012,0.0,0.0
3.353,8121.556,0.00012,0.0,0.0
3.36,8100.689,0.00012,0.0,0.0
3.366,8092.976,0.00012,0.0,0.0
3.372,8056.72,0.00012,0.0,0.0
3.379,8045.231,0.00012,0.0,0.0
3.385,8033.314,0.00012,0.0,0.0
3.391,8046.561,0.00012,0.0,0.0
3.398,8040.738,0.00012,0.0,0.0
3.404,8021.463,0.00012,0.0,0.0
3.41,7988.08,0.00013,0.0,0.0
3.416,7980.387,0.00013,0.0,0.0
3.423,7989.674,0.00013,0.0,0.0
3.429,7953.175,0.00013,0.0,0.0
3.435,7962.522,0.00013,0.0,0.0
3.442,7936.882,0.00013,0.0,0.0
3.448,7932.419,0.00013,0.0,0.0
3.454,7910.348,0.00013,0.0,0.0
3.461,7876.438,0.00013,0.0,0.0
3.467,7900.32,0.00013,0.0,0.0
3.473,7866.743,0.00013,0.0,0.0
3.48,7841.561,0.00013,0.0,0.0
3.486,7857.172,0.00013,0.0,0.0
3.492,7820.669,0.00013,0.0,0.0
3.499,7805.235,0.00013,0.0,0.0
3.505,7778.722,0.00013,0.0,0.0
3.511,7783.625,0.00013,0.0,0.0
3.518,7768.892,0.00013,0.0,0.0
3.524,7790.319,0.00013,0.0,0.0
3.53,7766.505,0.00013,0.0,0.0
3.537,7744.241,0.00013,0.0,0.0
3.543,7737.747,0.00013,0.0,0.0
3.549,7734.756,0.00013,0.0,0.0
3.556,7736.993,0.00013,0.0,0.0
3.562,7729.989,0.00013,0.0,0.0
3.568,7715.944,0.00013,0.0,0.0
3.574,7703.079,0.00013,0.0,0.0
3.581,7694.02,0.00013,0.0,0.0
3.587,7705.114,0.00013,0.0,0.0
3.593,7718.276,0.00013,0.0,0.0
3.6,7698.329,0.00013,0.0,0.0
3.606,7687.003,0.00013,0.0,0.0
3.612,7689.138,0.00013,0.0,0.0
3.619,7664.811,0.00013,0.0,0.0
3.625,7665.833,0.00013,0.0,0.0
3.631,7659.154,0.00013,0.0,0.0
3.638,7671.747,0.00013,0.0,0.0
3.644,7679.276,0.00013,0.0,0.0
3.65,7665.761,0.00013,0.0,0.0
3.657,7684.199,0.00013,0.0,0.0
3.663,7703.827,0.00013,0.0,0.0
3.669,7682.505,0.00013,0.0,0.0
3.676,7732.879,0.00013,0.0,0.0
3.682,7702.416,0.00013,0.0,0.0
3.688,7717.236,0.00013,0.0,0.0
3.695,7734.857,0.00013,0.0,0.0
3.701,7738.248,0.00013,0.0,0.0
3.707,7784.524,0.00013,0.0,0.0
3.714,7771.988,0.00013,0.0,0.0
3.72,7774.745,0.00013,0.0,0.0
3.726,7812.544,0.00013,0.0,0.0
3.732,7829.889,0.00013,0.0,0.0
3.739,7856.669,0.00013,0.0,0.0
3.745,7882.294,0.00013,0.0,0.0
3.751,7902.996,0.00013,0.0,0.0
3.758,7942.474,0.00013,0.0,0.0
3.764,7961.998,0.00013,0.0,0.0
3.77,7984.91,0.00013,0.0,0.0
3.777,8079.867,0.00012,0.0,0.0
3.783,8097.754,0.00012,0.0,0.0
3.789,8144.407,0.00012,0.0,0.0
3.796,8226.433,0.00012,0.0,0.0
3.802,8249.625,0.00012,0.0,0.0
3.808,8310.885,0.00012,0.0,0.0
3.815,8368.779,0.00012,0.0,0.0
3.821,8425.601,0.00012,0.0,0.0
3.827,8487.223,0.00012,0.0,0.0
3.834,8539.388,0.00012,0.0,0.0
3.84,8570.773,0.00012,0.0,0.0
3.846,8673.994,0.00012,0.0,0.0
3.853,8702.882,0.00011,0.0,0.0
3.859,8780.005,0.00011,0.0,0.0
3.865,8834.492,0.00011,0.0,0.0
3.872,8875.554,0.00011,0.0,0.0
3.878,8930.972,0.00011,0.0,0.0
3.884,8955.535,0.00011,0.0,0.0
3.89,8998.519,0.00011,0.0,0.0
3.897,9055.73,0.00011,0.0,0.0
3.903,9057.6,0.00011,0.0,0.0
3.909,9096.216,0.00011,0.0,0.0
3.916,9119.259,0.00011,0.0,0.0
3.922,9131.6,0.00011,0.0,0.0
3.928,9137.583,0.00011,0.0,0.0
3.935,9122.747,0.00011,0.0,0.0
3.941,9108.927,0.00011,0.0,0.0
3.947,9110.285,0.00011,0.0,0.0
3.954,9109.935,0.00011,0.0,0.0
3.96,9078.538,0.00011,0.0,0.0
3.966,9037.856,0.00011,0.0,0.0
3.973,9024.662,0.00011,0.0,0.0
3.979,8950.843,0.00011,0.0,0.0
3.985,8884.944,0.00011,0.0,0.0
3.992,8857.681,0.00011,0.0,0.0
3.998,8815.528,0.00011,0.0,0.0
4.004,8719.09,0.00011,0.0,0.0
4.011,8680.268,0.00012,0.0,0.0
4.017,8634.903,0.00012,0.0,0.0
4.023,8581.593,0.00012,0.0,0.0
4.03,8535.198,0.00012,0.0,0.0
4.036,8470.828,0.00012,0.0,0.0
4.042,8440.592,0.00012,0.0,0.0
4.048,8414.445,0.00012,0.0,0.0
4.055,8352.477,0.00012,0.0,0.0
4.061,8320.441,0.00012,0.0,0.0
4.067,8335.869,0.00012,0.0,0.0
4.074,8242.331,0.00012,0.0,0.0
4.08,8227.657,0.00012,0.0,0.0
4.086,8200.461,0.00012,0.0,0.0
4.093,8185.932,0.00012,0.0,0.0
4.099,8187.635,0.00012,0.0,0.0
4.105,8152.997,0.00012,0.0,0.0
4.112,8146.074,0.00012,0.0,0.0
4.118,8118.184,0.00012,0.0,0.0
4.124,8130.318,0.00012,0.0,0.0
4.131,8113.432,0.00012,0.0,0.0
4.137,8092.899,0.00012,0.0,0.0
4.143,8117.504,0.00012,0.0,0.0
4.15,8072.322,0.00012,0.0,0.0
4.156,8079.747,0.00012,0.0,0.0
4.162,8130.603,0.00012,0.0,0.0
4.169,8082.033,0.00012,0.0,0.0
4.175,8100.779,0.00012,0.0,0.0
4.181,8107.647,0.00012,0.0,0.0
4.188,8120.118,0.00012,0.0,0.0
4.194,8139.389,0.00012,0.0,0.0
4.2,8161.368,0.00012,0.0,0.0
4.206,8158.746,0.00012,0.0,0.0
4.213,8191.704,0.00012,0.0,0.0
4.219,8179.38,0.00012,0.0,0.0
4.225,8215.124,0.00012,0.0,0.0
4.232,8243.609,0.00012,0.0,0.0
4.238,8210.25,0.00012,0.0,0.0
4.244,8250.615,0.00012,0.0,0.0
4.251,8269.211,0.00012,0.0,0.0
4.257,8281.197,0.00012,0.0,0.0
4.263,8375.036,0.00012,0.0,0.0
4.27,8328.132,0.00012,0.0,0.0
4.276,8414.234,0.00012,0.0,0.0
4.282,8417.737,0.00012,0.0,0.0
4.289,8407.77,0.00012,0.0,0.0
4.295,8519.313,0.00012,0.0,0.0
4.301,8483.288,0.00012,0.0,0.0
4.308,8530.137,0.00012,0.0,0.0
4.314,8564.057,0.00012,0.0,0.0
4.32,8572.578,0.00012,0.0,0.0
4.327,8631.123,0.00012,0.0,0.0
4.333,8658.849,0.00012,0.0,0.0
4.339,8684.031,0.00012,0.0,0.0
4.346,8819.688,0.00011,0.0,0.0
4.352,8770.916,0.00011,0.0,0.0
4.358,8892.458,0.00011,0.0,0.0
4.364,8953.502,0.00011,0.0,0.0
4.371,8873.621,0.00011,0.0,0.0
4.377,9190.162,0.00011,0.0,0.0
4.383,9070.723,0.00011,0.0,0.0
4.39,9220.06,0.00011,0.0,0.0
4.396,9317.409,0.00011,0.0,0.0
4.402,9257.597,0.00011,0.0,0.0
4.409,9412.106,0.00011,0.0,0.0
4.415,9518.571,0.00011,0.0,0.0
4.421,9554.827,0.0001,0.0,0.0
4.428,9802.837,0.0001,0.0,0.0
4.434,9828.638,0.0001,0.0,0.0
4.44,9817.504,0.0001,0.0,0.0
4.447,10110.821,0.0001,0.0,0.0
4.453,10024.94,0.0001,0.0,0.0
4.459,10574.657,0.00009,0.0,0.0
4.466,10639.982,0.00009,0.0,0.0
4.472,10725.553,0.00009,0.0,0.0
4.478,11334.81,0.00009,0.0,0.0
4.485,11139.377,0.00009,0.0,0.0
4.491,11872.838,0.00008,0.0,0.0
4.497,12764.52,0.00008,0.0,0.0
4.504,13129.532,0.00008,0.0,0.0
4.51,15193.697,0.00007,0.0,0.0
4.516,17552.546,0.00006,0.0,0.0
4.522,18746.191,0.00005,0.0,0.0
4.529,27019.967,0.00004,0.0,0.0
4.535,43329.225,0.00002,0.0,0.0
4.541,55111.874,0.00002,0.0,0.0
4.548,71472.74,0.00001,0.0,0.0
4.554,66250.761,0.00002,0.0,0.0
4.56,86935.27,0.00001,0.0,0.0
4.567,84470.22,0.00001,0.0,0.0
4.573,88296.637,0.00001,0.0,0.0
4.579,74488.665,0.00001,0.0,0.0
4.586,49067.439,0.00002,0.0,0.0
4.592,42704.542,0.00002,0.0,0.0
4.598,30108.581,0.00003,0.0,0.0
4.605,23650.738,0.00004,0.0,0.0
4.611,17931.823,0.00006,0.0,0.0
4.617,15098.501,0.00007,0.0,0.0
4.624,13417.739,0.00007,0.0,0.0
4.63,13208.184,0.00008,0.0,0.0
4.636,11984.723,0.00008,0.0,0.0
4.643,11770.632,0.00008,0.0,0.0
4.649,11194.417,0.00009,0.0,0.0
4.655,10795.97,0.00009,0.0,0.0
4.662,10973.072,0.00009,0.0,0.0
4.668,10473.408,0.0001,0.0,0.0
4.674,10254.363,0.0001,0.0,0.0
4.68,10352.214,0.0001,0.0,0.0
4.687,9873.412,0.0001,0.0,0.0
4.693,10079.823,0.0001,0.0,0.0
4.699,9868.123,0.0001,0.0,0.0
4.706,9584.238,0.0001,0.0,0.0
4.712,9726.458,0.0001,0.0,0.0
4.718,9429.284,0.00011,0.0,0.0
4.725,9226.193,0.00011,0.0,0.0
4.731,9462.195,0.00011,0.0,0.0
4.737,9103.473,0.00011,0.0,0.0
4.744,9171.965,0.00011,0.0,0.0
4.75,9038.692,0.00011,0.0,0.0
4.756,8937.731,0.00011,0.0,0.0
4.763,8923.434,0.00011,0.0,0.0
4.769,8807.49,0.00011,0.0,0.0
4.775,8718.495,0.00011,0.0,0.0
4.782,8710.737,0.00011,0.0,0.0
4.788,8588.719,0.00012,0.0,0.0
4.794,8497.379,0.00012,0.0,0.0
4.801,8515.579,0.00012,0.0,0.0
4.807,8357.3,0.00012,0.0,0.0
4.813,8427.028,0.00012,0.0,0.0
4.82,8309.373,0.00012,0.0,0.0
4.826,8316.848,0.00012,0.0,0.0
4.832,8304.828,0.00012,0.0,0.0
4.838,8273.309,0.00012,0.0,0.0
4.845,8306.043,0.00012,0.0,0.0
4.851,8416.751,0.00012,0.0,0.0
4.857,8422.533,0.00012,0.0,0.0
4.864,8442.022,0.00012,0.0,0.0
4.87,8330.293,0.00012,0.0,0.0
4.876,8138.032,0.00012,0.0,0.0
4.883,8079.484,0.00012,0.0,0.0
4.889,7876.99,0.00013,0.0,0.0
4.895,7799.673,0.00013,0.0,0.0
4.902,7741.532,0.00013,0.0,0.0
4.908,7642.178,0.00013,0.0,0.0
4.914,7612.786,0.00013,0.0,0.0
4.921,7570.242,0.00013,0.0,0.0
4.927,7507.861,0.00013,0.0,0.0
4.933,7520.582,0.00013,0.0,0.0
4.94,7436.418,0.00013,0.0,0.0
4.946,7392.109,0.00014,0.0,0.0
4.952,7391.431,0.00014,0.0,0.0
4.959,7316.482,0.00014,0.0,0.0
4.965,7319.016,0.00014,0.0,0.0
4.971,7253.173,0.00014,0.0,0.0
4.978,7222.512,0.00014,0.0,0.0
4.984,7236.945,0.00014,0.0,0.0
4.99,7141.938,0.00014,0.0,0.0
4.996,7109.232,0.00014,0.0,0.0
5.003,7107.299,0.00014,0.0,0.0
5.009,7044.795,0.00014,0.0,0.0
5.015,7070.292,0.00014,0.0,0.0
5.022,7006.028,0.00014,0.0,0.0
5.028,6990.483,0.00014,0.0,0.0
5.034,6991.323,0.00014,0.0,0.0
5.041,6923.708,0.00014,0.0,0.0
5.047,6910.67,0.00014,0.0,0.0
5.053,6910.988,0.00014,0.0,0.0
5.06,6844.261,0.00015,0.0,0.0
5.066,6869.887,0.00015,0.0,0.0
5.072,6814.99,0.00015,0.0,0.0
5.079,6765.549,0.00015,0.0,0.0
5.085,6791.979,0.00015,0.0,0.0
5.091,6705.206,0.00015,0.0,0.0
5.098,6728.049,0.00015,0.0,0.0
5.104,6699.962,0.00015,0.0,0.0
5.11,6673.6,0.00015,0.0,0.0
5.117,6662.914,0.00015,0.0,0.0
5.123,6609.277,0.00015,0.0,0.0
5.129,6583.501,0.00015,0.0,0.0
5.136,6576.439,0.00015,0.0,0.0
5.142,6544.449,0.00015,0.0,0.0
5.148,6537.364,0.00015,0.0,0.0
5.154,6547.486,0.00015,0.0,0.0
5.161,6490.423,0.00015,0.0,0.0
5.167,6500.648,0.00015,0.0,0.0
5.173,6470.031,0.00015,0.0,0.0
5.18,6445.532,0.00016,0.0,0.0
5.186,6433.869,0.00016,0.0,0.0
5.192,6405.534,0.00016,0.0,0.0
5.199,6392.403,0.00016,0.0,0.0
5.205,6405.662,0.00016,0.0,0.0
5.211,6350.119,0.00016,0.0,0.0
5.218,6355.08,0.00016,0.0,0.0
5.224,6334.621,0.00016,0.0,0.0
5.23,6310.488,0.00016,0.0,0.0
5.237,6315.317,0.00016,0.0,0.0
5.243,6272.91,0.00016,0.0,0.0
5.249,6282.938,0.00016,0.0,0.0
5.256,6257.098,0.00016,0.0,0.0
5.262,6226.877,0.00016,0.0,0.0
5.268,6214.382,0.00016,0.0,0.0
5.275,6196.621,0.00016,0.0,0.0
5.281,6164.497,0.00016,0.0,0.0
5.287,6160.081,0.00016,0.0,0.0
5.294,6154.205,0.00016,0.0,0.0
5.3,6145.636,0.00016,0.0,0.0
5.306,6116.149,0.00016,0.0,0.0
5.312,6098.918,0.00016,0.0,0.0
5.319,6126.759,0.00016,0.0,0.0
5.325,6083.073,0.00016,0.0,0.0
5.331,6081.376,0.00016,0.0,0.0
5.338,6086.554,0.00016,0.0,0.0
5.344,6054.69,0.00017,0.0,0.0
5.35,6055.084,0.00017,0.0,0.0
5.357,6050.884,0.00017,0.0,0.0
5.363,6030.895,0.00017,0.0,0.0
5.369,6021.37,0.00017,0.0,0.0
5.376,5998.907,0.00017,0.0,0.0
5.382,5996.248,0.00017,0.0,0.0
5.388,5998.691,0.00017,0.0,0.0
5.395,5968.537,0.00017,0.0,0.0
5.401,5971.793,0.00017,0.0,0.0
5.407,5949.198,0.00017,0.0,0.0
5.414,5930.916,0.00017,0.0,0.0
5.42,5960.91,0.00017,0.0,0.0
5.426,5916.363,0.00017,0.0,0.0
5.433,5915.37,0.00017,0.0,0.0
5.439,5921.734,0.00017,0.0,0.0
5.445,5883.538,0.00017,0.0,0.0
5.452,5923.871,0.00017,0.0,0.0
5.458,5871.515,0.00017,0.0,0.0
5.464,5883.288,0.00017,0.0,0.0
5.47,5888.315,0.00017,0.0,0.0
5.477,5859.522,0.00017,0.0,0.0
5.483,5847.335,0.00017,0.0,0.0
5.489,5845.565,0.00017,0.0,0.0
5.496,5837.974,0.00017,0.0,0.0
5.502,5857.115,0.00017,0.0,0.0
5.508,5826.001,0.00017,0.0,0.0
5.515,5847.713,0.00017,0.0,0.0
5.521,5846.778,0.00017,0.0,0.0
5.527,5818.354,0.00017,0.0,0.0
5.534,5828.65,0.00017,0.0,0.0
5.54,5826.741,0.00017,0.0,0.0
5.546,5830.568,0.00017,0.0,0.0
5.553,5827.157,0.00017,0.0,0.0
5.559,5807.53,0.00017,0.0,0.0
5.565,5809.227,0.00017,0.0,0.0
5.572,5830.592,0.00017,0.0,0.0
5.578,5785.556,0.00017,0.0,0.0
5.584,5824.89,0.00017,0.0,0.0
5.591,5812.951,0.00017,0.0,0.0
5.597,5805.185,0.00017,0.0,0.0
5.603,5824.359,0.00017,0.0,0.0
5.61,5812.269,0.00017,0.0,0.0
5.616,5824.982,0.00017,0.0,0.0
5.622,5861.433,0.00017,0.0,0.0
5.628,5819.055,0.00017,0.0,0.0
5.635,5839.981,0.00017,0.0,0.0
5.641,5817.135,0.00017,0.0,0.0
5.647,5795.299,0.00017,0.0,0.0
5.654,5833.231,0.00017,0.0,0.0
5.66,5824.939,0.00017,0.0,0.0
5.666,5844.388,0.00017,0.0,0.0
5.673,5836.21,0.00017,0.0,0.0
5.679,5810.54,0.00017,0.0,0.0
5.685,5859.709,0.00017,0.0,0.0
5.692,5866.535,0.00017,0.0,0.0
5.698,5849.811,0.00017,0.0,0.0
5.704,5865.974,0.00017,0.0,0.0
5.711,5845.709,0.00017,0.0,0.0
5.717,5855.0,0.00017,0.0,0.0
5.723,5912.646,0.00017,0.0,0.0
5.73,5895.033,0.00017,0.0,0.0
5.736,5916.7,0.00017,0.0,0.0
5.742,5916.639,0.00017,0.0,0.0
5.749,5927.815,0.00017,0.0,0.0
5.755,5975.101,0.00017,0.0,0.0
5.761,5974.476,0.00017,0.0,0.0
5.768,5970.094,0.00017,0.0,0.0
5.774,6002.68,0.00017,0.0,0.0
5.78,6020.22,0.00017,0.0,0.0
5.786,6054.712,0.00017,0.0,0.0
5.793,6069.819,0.00016,0.0,0.0
5.799,6062.62,0.00016,0.0,0.0
5.805,6091.861,0.00016,0.0,0.0
5.812,6108.226,0.00016,0.0,0.0
5.818,6118.929,0.00016,0.0,0.0
5.824,6134.09,0.00016,0.0,0.0
5.831,6139.522,0.00016,0.0,0.0
5.837,6172.693,0.00016,0.0,0.0
5.843,6189.055,0.00016,0.0,0.0
5.85,6283.416,0.00016,0.0,0.0
5.856,6387.82,0.00016,0.0,0.0
5.862,6606.733,0.00015,0.0,0.0
5.869,6856.635,0.00015,0.0,0.0
5.875,7085.794,0.00014,0.0,0.0
5.881,7258.905,0.00014,0.0,0.0
5.888,7269.037,0.00014,0.0,0.0
5.894,7049.939,0.00014,0.0,0.0
5.9,6828.573,0.00015,0.0,0.0
5.907,6521.469,0.00015,0.0,0.0
5.913,6280.94,0.00016,0.0,0.0
5.919,6081.659,0.00016,0.0,0.0
5.926,5926.16,0.00017,0.0,0.0
5.932,5871.354,0.00017,0.0,0.0
5.938,5825.698,0.00017,0.0,0.0
5.944,5737.91,0.00017,0.0,0.0
5.951,5757.56,0.00017,0.0,0.0
5.957,5721.849,0.00017,0.0,0.0
5.963,5688.489,0.00018,0.0,0.0
5.97,5683.676,0.00018,0.0,0.0
5.976,5661.644,0.00018,0.0,0.0
5.982,5668.266,0.00018,0.0,0.0
5.989,5626.902,0.00018,0.0,0.0
5.995,5644.599,0.00018,0.0,0.0
6.001,5608.387,0.00018,0.0,0.0
6.008,5603.156,0.00018,0.0,0.0
6.014,5590.435,0.00018,0.0,0.0
6.02,5623.286,0.00018,0.0,0.0
6.027,5570.16,0.00018,0.0,0.0
6.033,5613.389,0.00018,0.0,0.0
6.039,5592.578,0.00018,0.0,0.0
6.046,5577.133,0.00018,0.0,0.0
6.052,5590.117,0.00018,0.0,0.0
6.058,5559.917,0.00018,0.0,0.0
6.065,5583.707,0.00018,0.0,0.0
6.071,5589.947,0.00018,0.0,0.0
6.077,5578.701,0.00018,0.0,0.0
6.084,5565.494,0.00018,0.0,0.0
6.09,5587.834,0.00018,0.0,0.0
6.096,5542.28,0.00018,0.0,0.0
6.102,5596.638,0.00018,0.0,0.0
6.109,5553.844,0.00018,0.0,0.0
6.115,5558.083,0.00018,0.0,0.0
6.121,5571.536,0.00018,0.0,0.0
6.128,5548.542,0.00018,0.0,0.0
6.134,5569.643,0.00018,0.0,0.0
6.14,5544.828,0.00018,0.0,0.0
6.147,5576.995,0.00018,0.0,0.0
6.153,5547.622,0.00018,0.0,0.0
6.159,5559.69,0.00018,0.0,0.0
6.166,5529.673,0.00018,0.0,0.0
6.172,5570.771,0.00018,0.0,0.0
6.178,5578.45,0.00018,0.0,0.0
6.185,5560.012,0.00018,0.0,0.0
6.191,5574.428,0.00018,0.0,0.0
6.197,5595.266,0.00018,0.0,0.0
6.204,5557.402,0.00018,0.0,0.0
6.21,5585.234,0.00018,0.0,0.0
6.216,5584.392,0.00018,0.0,0.0
6.223,5612.276,0.00018,0.0,0.0
6.229,5603.803,0.00018,0.0,0.0
6.235,5637.527,0.00018,0.0,0.0
6.242,5622.213,0.00018,0.0,0.0
6.248,5599.673,0.00018,0.0,0.0
6.254,5611.69,0.00018,0.0,0.0
6.26,5621.837,0.00018,0.0,0.0
6.267,5636.8,0.00018,0.0,0.0
6.273,5647.231,0.00018,0.0,0.0
6.279,5634.489,0.00018,0.0,0.0
6.286,5642.532,0.00018,0.0,0.0
6.292,5672.032,0.00018,0.0,0.0
6.298,5673.516,0.00018,0.0,0.0
6.305,5700.252,0.00018,0.0,0.0
6.311,5705.271,0.00018,0.0,0.0
6.317,5681.851,0.00018,0.0,0.0
6.324,5738.524,0.00017,0.0,0.0
6.33,5736.686,0.00017,0.0,0.0
6.336,5722.68,0.00017,0.0,0.0
6.343,5750.519,0.00017,0.0,0.0
6.349,5806.679,0.00017,0.0,0.0
6.355,5787.195,0.00017,0.0,0.0
6.362,5836.441,0.00017,0.0,0.0
6.368,5862.378,0.00017,0.0,0.0
6.374,5873.493,0.00017,0.0,0.0
6.381,5923.701,0.00017,0.0,0.0
6.387,5986.213,0.00017,0.0,0.0
6.393,5996.93,0.00017,0.0,0.0
6.4,6118.151,0.00016,0.0,0.0
6.406,6272.219,0.00016,0.0,0.0
6.412,6529.482,0.00015,0.0,0.0
6.418,6774.176,0.00015,0.0,0.0
6.425,7702.986,0.00013,0.0,0.0
6.431,9445.369,0.00011,0.0,0.0
6.437,10346.251,0.0001,0.0,0.0
6.444,13787.954,0.00007,0.0,0.0
6.45,17968.536,0.00006,0.0,0.0
6.456,13762.136,0.00007,0.0,0.0
6.463,15542.68,0.00006,0.0,0.0
6.469,18080.261,0.00006,0.0,0.0
6.475,10367.277,0.0001,0.0,0.0
6.482,13413.383,0.00007,0.0,0.0
6.488,8886.222,0.00011,0.0,0.0
6.494,7419.786,0.00013,0.0,0.0
6.501,7533.014,0.00013,0.0,0.0
6.507,6565.713,0.00015,0.0,0.0
6.513,6507.177,0.00015,0.0,0.0
6.52,6411.226,0.00016,0.0,0.0
6.526,6336.098,0.00016,0.0,0.0
6.532,6384.44,0.00016,0.0,0.0
6.539,6451.283,0.00016,0.0,0.0
6.545,6563.522,0.00015,0.0,0.0
6.551,6756.75,0.00015,0.0,0.0
6.558,7140.599,0.00014,0.0,0.0
6.564,7673.167,0.00013,0.0,0.0
6.57,8516.186,0.00012,0.0,0.0
6.576,10193.276,0.0001,0.0,0.0
6.583,12867.555,0.00008,0.0,0.0
6.589,19565.439,0.00005,0.0,0.0
6.595,31233.086,0.00003,0.0,0.0
6.602,47087.517,0.00002,0.0,0.0
6.608,73729.508,0.00001,0.0,0.0
6.614,95931.337,0.00001,0.0,0.0
6.621,100978.096,0.00001,0.0,0.0
6.627,105179.445,0.00001,0.0,0.0
6.633,77176.794,0.00001,0.0,0.0
6.64,54480.769,0.00002,0.0,0.0
6.646,37044.393,0.00003,0.0,0.0
6.652,21364.906,0.00005,0.0,0.0
6.659,15275.604,0.00007,0.0,0.0
6.665,10876.885,0.00009,0.0,0.0
6.671,8965.938,0.00011,0.0,0.0
6.678,7839.491,0.00013,0.0,0.0
6.684,7095.177,0.00014,0.0,0.0
6.69,6643.635,0.00015,0.0,0.0
6.697,6391.917,0.00016,0.0,0.0
6.703,6157.057,0.00016,0.0,0.0
6.709,6038.498,0.00017,0.0,0.0
6.716,5929.455,0.00017,0.0,0.0
6.722,5845.164,0.00017,0.0,0.0
6.728,5790.843,0.00017,0.0,0.0
6.734,5718.996,0.00017,0.0,0.0
6.741,5703.139,0.00018,0.0,0.0
6.747,5643.552,0.00018,0.0,0.0
6.753,5629.763,0.00018,0.0,0.0
6.76,5612.44,0.00018,0.0,0.0
6.766,5594.979,0.00018,0.0,0.0
6.772,5583.1,0.00018,0.0,0.0
6.779,5585.865,0.00018,0.0,0.0
6.785,5577.267,0.00018,0.0,0.0
6.791,5541.417,0.00018,0.0,0.0
6.798,5567.397,0.00018,0.0,0.0
6.804,5551.364,0.00018,0.0,0.0
6.81,5568.879,0.00018,0.0,0.0
6.817,5570.906,0.00018,0.0,0.0
6.823,5553.444,0.00018,0.0,0.0
6.829,5546.841,0.00018,0.0,0.0
6.836,5533.194,0.00018,0.0,0.0
6.842,5480.188,0.00018,0.0,0.0
6.848,5465.524,0.00018,0.0,0.0
6.855,5447.714,0.00018,0.0,0.0
6.861,5424.068,0.00018,0.0,0.0
6.867,5430.023,0.00018,0.0,0.0
6.874,5399.675,0.00019,0.0,0.0
6.88,5421.858,0.00018,0.0,0.0
6.886,5411.287,0.00018,0.0,0.0
6.892,5390.675,0.00019,0.0,0.0
6.899,5411.987,0.00018,0.0,0.0
6.905,5382.152,0.00019,0.0,0.0
6.911,5368.403,0.00019,0.0,0.0
6.918,5377.027,0.00019,0.0,0.0
6.924,5333.779,0.00019,0.0,0.0
6.93,5369.253,0.00019,0.0,0.0
6.937,5364.259,0.00019,0.0,0.0
6.943,5348.421,0.00019,0.0,0.0
6.949,5360.145,0.00019,0.0,0.0
6.956,5323.643,0.00019,0.0,0.0
6.962,5344.683,0.00019,0.0,0.0
6.968,5350.134,0.00019,0.0,0.0
6.975,5333.388,0.00019,0.0,0.0
6.981,5346.485,0.00019,0.0,0.0
6.987,5354.35,0.00019,0.0,0.0
6.994,5348.421,0.00019,0.0,0.0
7.0,5365.056,0.00019,0.0,0.0
7.006,5331.277,0.00019,0.0,0.0
7.013,5348.572,0.00019,0.0,0.0
7.019,5345.742,0.00019,0.0,0.0
7.025,5354.882,0.00019,0.0,0.0
7.032,5342.173,0.00019,0.0,0.0
7.038,5339.04,0.00019,0.0,0.0
7.044,5344.765,0.00019,0.0,0.0
7.05,5347.498,0.00019,0.0,0.0
7.057,5344.853,0.00019,0.0,0.0
7.063,5349.365,0.00019,0.0,0.0
7.069,5370.888,0.00019,0.0,0.0
7.076,5369.189,0.00019,0.0,0.0
7.082,5365.519,0.00019,0.0,0.0
7.088,5375.861,0.00019,0.0,0.0
7.095,5370.62,0.00019,0.0,0.0
7.101,5376.95,0.00019,0.0,0.0
7.107,5389.708,0.00019,0.0,0.0
7.114,5410.933,0.00018,0.0,0.0
7.12,5412.226,0.00018,0.0,0.0
7.126,5434.527,0.00018,0.0,0.0
7.133,5442.396,0.00018,0.0,0.0
7.139,5454.4,0.00018,0.0,0.0
7.145,5476.465,0.00018,0.0,0.0
7.152,5485.093,0.00018,0.0,0.0
7.158,5493.556,0.00018,0.0,0.0
7.164,5518.395,0.00018,0.0,0.0
7.171,5534.469,0.00018,0.0,0.0
7.177,5539.078,0.00018,0.0,0.0
7.183,5572.198,0.00018,0.0,0.0
7.19,5581.061,0.00018,0.0,0.0
7.196,5623.054,0.00018,0.0,0.0
7.202,5620.251,0.00018,0.0,0.0
7.208,5635.999,0.00018,0.0,0.0
7.215,5645.198,0.00018,0.0,0.0
7.221,5664.643,0.00018,0.0,0.0
7.227,5681.166,0.00018,0.0,0.0
7.234,5716.832,0.00017,0.0,0.0
7.24,5714.161,0.00018,0.0,0.0
7.246,5741.37,0.00017,0.0,0.0
7.253,5742.157,0.00017,0.0,0.0
7.259,5743.967,0.00017,0.0,0.0
7.265,5753.276,0.00017,0.0,0.0
7.272,5767.484,0.00017,0.0,0.0
7.278,5790.478,0.00017,0.0,0.0
7.284,5789.865,0.00017,0.0,0.0
7.291,5815.569,0.00017,0.0,0.0
7.297,5822.894,0.00017,0.0,0.0
7.303,5781.343,0.00017,0.0,0.0
7.31,5809.36,0.00017,0.0,0.0
7.316,5763.661,0.00017,0.0,0.0
7.322,5733.476,0.00017,0.0,0.0
7.329,5716.886,0.00017,0.0,0.0
7.335,5686.445,0.00018,0.0,0.0
7.341,5654.333,0.00018,0.0,0.0
7.348,5632.607,0.00018,0.0,0.0
7.354,5609.782,0.00018,0.0,0.0
7.36,5593.551,0.00018,0.0,0.0
7.366,5588.22,0.00018,0.0,0.0
7.373,5554.865,0.00018,0.0,0.0
7.379,5559.761,0.00018,0.0,0.0
7.385,5545.361,0.00018,0.0,0.0
7.392,5508.296,0.00018,0.0,0.0
7.398,5525.634,0.00018,0.0,0.0
7.404,5502.267,0.00018,0.0,0.0
7.411,5492.814,0.00018,0.0,0.0
7.417,5490.698,0.00018,0.0,0.0
7.423,5466.779,0.00018,0.0,0.0
7.43,5472.519,0.00018,0.0,0.0
7.436,5471.878,0.00018,0.0,0.0
7.442,5461.256,0.00018,0.0,0.0
7.449,5470.14,0.00018,0.0,0.0
7.455,5446.909,0.00018,0.0,0.0
7.461,5471.769,0.00018,0.0,0.0
7.468,5458.406,0.00018,0.0,0.0
7.474,5450.021,0.00018,0.0,0.0
7.48,5467.366,0.00018,0.0,0.0
7.487,5469.043,0.00018,0.0,0.0
7.493,5465.652,0.00018,0.0,0.0
7.499,5466.858,0.00018,0.0,0.0
7.506,5488.134,0.00018,0.0,0.0
7.512,5490.102,0.00018,0.0,0.0
7.518,5506.209,0.00018,0.0,0.0
7.524,5515.841,0.00018,0.0,0.0
7.531,5536.393,0.00018,0.0,0.0
7.537,5557.17,0.00018,0.0,0.0
7.543,5574.207,0.00018,0.0,0.0
7.55,5635.098,0.00018,0.0,0.0
7.556,5654.873,0.00018,0.0,0.0
7.562,5751.88,0.00017,0.0,0.0
7.569,5827.372,0.00017,0.0,0.0
7.575,5936.643,0.00017,0.0,0.0
7.581,6142.153,0.00016,0.0,0.0
7.588,6373.593,0.00016,0.0,0.0
7.594,6827.798,0.00015,0.0,0.0
7.6,7564.132,0.00013,0.0,0.0
7.607,8841.737,0.00011,0.0,0.0
7.613,11283.78,0.00009,0.0,0.0
7.619,14943.979,0.00007,0.0,0.0
7.626,22230.04,0.00004,0.0,0.0
7.632,31803.919,0.00003,0.0,0.0
7.638,39250.758,0.00003,0.0,0.0
7.645,47125.646,0.00002,0.0,0.0
7.651,51127.184,0.00002,0.0,0.0
7.657,40188.647,0.00002,0.0,0.0
7.664,32275.858,0.00003,0.0,0.0
7.67,22284.588,0.00004,0.0,0.0
7.676,14993.953,0.00007,0.0,0.0
7.682,11018.566,0.00009,0.0,0.0
7.689,9051.01,0.00011,0.0,0.0
7.695,7601.835,0.00013,0.0,0.0
7.701,6954.454,0.00014,0.0,0.0
7.708,6538.881,0.00015,0.0,0.0
7.714,6286.194,0.00016,0.0,0.0
7.72,6141.155,0.00016,0.0,0.0
7.727,6054.435,0.00017,0.0,0.0
7.733,6004.554,0.00017,0.0,0.0
7.739,5931.041,0.00017,0.0,0.0
7.746,5922.163,0.00017,0.0,0.0
7.752,5892.222,0.00017,0.0,0.0
7.758,5901.652,0.00017,0.0,0.0
7.765,5909.69,0.00017,0.0,0.0
7.771,5911.2,0.00017,0.0,0.0
7.777,5923.94,0.00017,0.0,0.0
7.784,5925.335,0.00017,0.0,0.0
7.79,5926.374,0.00017,0.0,0.0
7.796,5960.472,0.00017,0.0,0.0
7.803,5980.649,0.00017,0.0,0.0
7.809,5999.658,0.00017,0.0,0.0
7.815,6068.602,0.00016,0.0,0.0
7.822,6078.407,0.00016,0.0,0.0
7.828,6155.891,0.00016,0.0,0.0
7.834,6159.999,0.00016,0.0,0.0
7.84,6208.344,0.00016,0.0,0.0
7.847,6311.546,0.00016,0.0,0.0
7.853,6377.442,0.00016,0.0,0.0
7.859,6570.878,0.00015,0.0,0.0
7.866,6678.911,0.00015,0.0,0.0
7.872,7063.074,0.00014,0.0,0.0
7.878,7757.404,0.00013,0.0,0.0
7.885,8739.837,0.00011,0.0,0.0
7.891,11447.71,0.00009,0.0,0.0
7.897,13344.682,0.00007,0.0,0.0
7.904,17332.031,0.00006,0.0,0.0
7.91,24245.913,0.00004,0.0,0.0
7.916,17497.616,0.00006,0.0,0.0
7.923,20405.409,0.00005,0.0,0.0
7.929,16564.592,0.00006,0.0,0.0
7.935,9912.75,0.0001,0.0,0.0
7.942,9372.206,0.00011,0.0,0.0
7.948,7955.089,0.00013,0.0,0.0
7.954,7120.123,0.00014,0.0,0.0
7.961,6952.395,0.00014,0.0,0.0
7.967,6632.459,0.00015,0.0,0.0
7.973,6519.24,0.00015,0.0,0.0
7.98,6462.756,0.00015,0.0,0.0
7.986,6329.465,0.00016,0.0,0.0
7.992,6329.395,0.00016,0.0,0.0
7.998,6325.468,0.00016,0.0,0.0
8.005,6272.743,0.00016,0.0,0.0
8.011,6236.346,0.00016,0.0,0.0
8.017,6267.783,0.00016,0.0,0.0
8.024,6231.61,0.00016,0.0,0.0
8.03,6237.731,0.00016,0.0,0.0
8.036,6234.273,0.00016,0.0,0.0
8.043,6225.065,0.00016,0.0,0.0
8.049,6231.763,0.00016,0.0,0.0
8.055,6209.68,0.00016,0.0,0.0
8.062,6276.529,0.00016,0.0,0.0
8.068,6253.89,0.00016,0.0,0.0
8.074,6245.046,0.00016,0.0,0.0
8.081,6258.812,0.00016,0.0,0.0
8.087,6283.546,0.00016,0.0,0.0
8.093,6297.931,0.00016,0.0,0.0
8.1,6313.745,0.00016,0.0,0.0
8.106,6307.779,0.00016,0.0,0.0
8.112,6362.387,0.00016,0.0,0.0
8.119,6400.145,0.00016,0.0,0.0
8.125,6448.083,0.00016,0.0,0.0
8.131,6520.69,0.00015,0.0,0.0
8.138,6535.382,0.00015,0.0,0.0
8.144,6597.026,0.00015,0.0,0.0
8.15,6612.972,0.00015,0.0,0.0
8.156,6590.034,0.00015,0.0,0.0
8.163,6554.012,0.00015,0.0,0.0
8.169,6508.771,0.00015,0.0,0.0
8.175,6444.141,0.00016,0.0,0.0
8.182,6390.507,0.00016,0.0,0.0
8.188,6366.555,0.00016,0.0,0.0
8.194,6360.601,0.00016,0.0,0.0
8.201,6353.23,0.00016,0.0,0.0
8.207,6323.165,0.00016,0.0,0.0
8.213,6321.661,0.00016,0.0,0.0
8.22,6281.514,0.00016,0.0,0.0
8.226,6299.502,0.00016,0.0,0.0
8.232,6271.9,0.00016,0.0,0.0
8.239,6267.449,0.00016,0.0,0.0
8.245,6267.964,0.00016,0.0,0.0
8.251,6238.172,0.00016,0.0,0.0
8.258,6239.668,0.00016,0.0,0.0
8.264,6187.528,0.00016,0.0,0.0
8.27,6209.001,0.00016,0.0,0.0
8.277,6191.928,0.00016,0.0,0.0
8.283,6181.564,0.00016,0.0,0.0
8.289,6158.731,0.00016,0.0,0.0
8.296,6142.014,0.00016,0.0,0.0
8.302,6141.952,0.00016,0.0,0.0
8.308,6129.077,0.00016,0.0,0.0
8.314,6113.437,0.00016,0.0,0.0
8.321,6100.137,0.00016,0.0,0.0
8.327,6102.848,0.00016,0.0,0.0
8.333,6100.292,0.00016,0.0,0.0
8.34,6113.15,0.00016,0.0,0.0
8.346,6098.329,0.00016,0.0,0.0
8.352,6094.516,0.00016,0.0,0.0
8.359,6138.419,0.00016,0.0,0.0
8.365,6165.245,0.00016,0.0,0.0
8.371,6174.047,0.00016,0.0,0.0
8.378,6200.129,0.00016,0.0,0.0
8.384,6170.764,0.00016,0.0,0.0
8.39,6174.55,0.00016,0.0,0.0
8.397,6120.148,0.00016,0.0,0.0
8.403,6040.066,0.00017,0.0,0.0
8.409,6010.335,0.00017,0.0,0.0
8.416,5972.413,0.00017,0.0,0.0
8.422,5922.327,0.00017,0.0,0.0
8.428,5918.559,0.00017,0.0,0.0
8.435,5866.02,0.00017,0.0,0.0
8.441,5871.03,0.00017,0.0,0.0
8.447,5854.526,0.00017,0.0,0.0
8.454,5826.834,0.00017,0.0,0.0
8.46,5827.709,0.00017,0.0,0.0
8.466,5805.174,0.00017,0.0,0.0
8.472,5829.202,0.00017,0.0,0.0
8.479,5800.287,0.00017,0.0,0.0
8.485,5794.259,0.00017,0.0,0.0
8.491,5805.879,0.00017,0.0,0.0
8.498,5803.36,0.00017,0.0,0.0
8.504,5793.542,0.00017,0.0,0.0
8.51,5797.59,0.00017,0.0,0.0
8.517,5785.962,0.00017,0.0,0.0
8.523,5759.669,0.00017,0.0,0.0
8.529,5763.378,0.00017,0.0,0.0
8.536,5750.086,0.00017,0.0,0.0
8.542,5746.96,0.00017,0.0,0.0
8.548,5737.521,0.00017,0.0,0.0
8.555,5758.012,0.00017,0.0,0.0
8.561,5711.563,0.00018,0.0,0.0
8.567,5727.087,0.00017,0.0,0.0
8.574,5742.165,0.00017,0.0,0.0
8.58,5696.614,0.00018,0.0,0.0
8.586,5699.469,0.00018,0.0,0.0
8.593,5708.072,0.00018,0.0,0.0
8.599,5694.095,0.00018,0.0,0.0
8.605,5687.892,0.00018,0.0,0.0
8.612,5693.938,0.00018,0.0,0.0
8.618,5688.415,0.00018,0.0,0.0
8.624,5667.05,0.00018,0.0,0.0
8.63,5676.957,0.00018,0.0,0.0
8.637,5677.534,0.00018,0.0,0.0
8.643,5663.642,0.00018,0.0,0.0
8.649,5666.045,0.00018,0.0,0.0
8.656,5660.115,0.00018,0.0,0.0
8.662,5663.666,0.00018,0.0,0.0
8.668,5668.578,0.00018,0.0,0.0
8.675,5672.081,0.00018,0.0,0.0
8.681,5661.182,0.00018,0.0,0.0
8.687,5651.37,0.00018,0.0,0.0
8.694,5654.481,0.00018,0.0,0.0
8.7,5644.515,0.00018,0.0,0.0
8.706,5636.884,0.00018,0.0,0.0
8.713,5650.356,0.00018,0.0,0.0
8.719,5657.721,0.00018,0.0,0.0
8.725,5641.237,0.00018,0.0,0.0
8.732,5646.493,0.00018,0.0,0.0
8.738,5625.781,0.00018,0.0,0.0
8.744,5647.424,0.00018,0.0,0.0
8.751,5622.396,0.00018,0.0,0.0
8.757,5649.37,0.00018,0.0,0.0
8.763,5633.877,0.00018,0.0,0.0
8.77,5632.66,0.00018,0.0,0.0
8.776,5626.131,0.00018,0.0,0.0
8.782,5636.578,0.00018,0.0,0.0
8.788,5625.512,0.00018,0.0,0.0
8.795,5632.661,0.00018,0.0,0.0
8.801,5630.586,0.00018,0.0,0.0
8.807,5629.601,0.00018,0.0,0.0
8.814,5613.098,0.00018,0.0,0.0
8.82,5625.442,0.00018,0.0,0.0
8.826,5621.563,0.00018,0.0,0.0
8.833,5624.4,0.00018,0.0,0.0
8.839,5647.528,0.00018,0.0,0.0
8.845,5626.651,0.00018,0.0,0.0
8.852,5617.745,0.00018,0.0,0.0
8.858,5646.315,0.00018,0.0,0.0
8.864,5630.13,0.00018,0.0,0.0
8.871,5638.294,0.00018,0.0,0.0
8.877,5633.231,0.00018,0.0,0.0
8.883,5626.588,0.00018,0.0,0.0
8.89,5636.917,0.00018,0.0,0.0
8.896,5641.646,0.00018,0.0,0.0
8.902,5659.681,0.00018,0.0,0.0
8.909,5660.992,0.00018,0.0,0.0
8.915,5637.892,0.00018,0.0,0.0
8.921,5652.869,0.00018,0.0,0.0
8.928,5653.555,0.00018,0.0,0.0
8.934,5643.171,0.00018,0.0,0.0
8.94,5676.392,0.00018,0.0,0.0
8.946,5658.257,0.00018,0.0,0.0
8.953,5656.829,0.00018,0.0,0.0
8.959,5675.538,0.00018,0.0,0.0
8.965,5647.904,0.00018,0.0,0.0
8.972,5676.473,0.00018,0.0,0.0
8.978,5683.077,0.00018,0.0,0.0
8.984,5672.797,0.00018,0.0,0.0
8.991,5678.346,0.00018,0.0,0.0
8.997,5678.895,0.00018,0.0,0.0
9.003,5688.686,0.00018,0.0,0.0
9.01,5687.321,0.00018,0.0,0.0
9.016,5678.78,0.00018,0.0,0.0
9.022,5741.394,0.00017,0.0,0.0
9.029,5705.27,0.00018,0.0,0.0
9.035,5722.538,0.00017,0.0,0.0
9.041,5725.822,0.00017,0.0,0.0
9.048,5725.056,0.00017,0.0,0.0
9.054,5756.849,0.00017,0.0,0.0
9.06,5761.081,0.00017,0.0,0.0
9.067,5736.199,0.00017,0.0,0.0
9.073,5840.586,0.00017,0.0,0.0
9.079,5812.633,0.00017,0.0,0.0
9.086,5847.903,0.00017,0.0,0.0
9.092,5900.706,0.00017,0.0,0.0
9.098,5922.217,0.00017,0.0,0.0
9.104,6108.066,0.00016,0.0,0.0
9.111,6240.581,0.00016,0.0,0.0
9.117,6694.613,0.00015,0.0,0.0
9.123,6966.388,0.00014,0.0,0.0
9.13,7858.953,0.00013,0.0,0.0
9.136,7981.219,0.00013,0.0,0.0
9.142,8275.141,0.00012,0.0,0.0
9.149,10758.827,0.00009,0.0,0.0
9.155,6973.073,0.00014,0.0,0.0
9.161,6855.979,0.00015,0.0,0.0
9.168,7908.092,0.00013,0.0,0.0
9.174,6033.79,0.00017,0.0,0.0
9.18,6161.441,0.00016,0.0,0.0
9.187,6039.066,0.00017,0.0,0.0
9.193,5876.734,0.00017,0.0,0.0
9.199,5902.622,0.00017,0.0,0.0
9.206,5873.988,0.00017,0.0,0.0
9.212,5821.666,0.00017,0.0,0.0
9.218,5855.981,0.00017,0.0,0.0
9.225,5821.663,0.00017,0.0,0.0
9.231,5802.097,0.00017,0.0,0.0
9.237,5815.323,0.00017,0.0,0.0
9.244,5796.71,0.00017,0.0,0.0
9.25,5794.385,0.00017,0.0,0.0
9.256,5820.812,0.00017,0.0,0.0
9.262,5762.797,0.00017,0.0,0.0
9.269,5817.404,0.00017,0.0,0.0
9.275,5758.68,0.00017,0.0,0.0
9.281,5773.375,0.00017,0.0,0.0
9.288,5784.998,0.00017,0.0,0.0
9.294,5749.574,0.00017,0.0,0.0
9.3,5762.486,0.00017,0.0,0.0
9.307,5755.091,0.00017,0.0,0.0
9.313,5739.272,0.00017,0.0,0.0
9.319,5749.084,0.00017,0.0,0.0
9.326,5733.365,0.00017,0.0,0.0
9.332,5729.648,0.00017,0.0,0.0
9.338,5719.856,0.00017,0.0,0.0
9.345,5684.407,0.00018,0.0,0.0
9.351,5696.254,0.00018,0.0,0.0
9.357,5672.712,0.00018,0.0,0.0
9.364,5645.473,0.00018,0.0,0.0
9.37,5647.918,0.00018,0.0,0.0
9.376,5611.39,0.00018,0.0,0.0
9.383,5622.859,0.00018,0.0,0.0
9.389,5590.258,0.00018,0.0,0.0
9.395,5583.8,0.00018,0.0,0.0
9.402,5559.944,0.00018,0.0,0.0
9.408,5565.136,0.00018,0.0,0.0
9.414,5533.867,0.00018,0.0,0.0
9.42,5514.875,0.00018,0.0,0.0
9.427,5497.954,0.00018,0.0,0.0
9.433,5473.926,0.00018,0.0,0.0
9.439,5476.529,0.00018,0.0,0.0
9.446,5464.466,0.00018,0.0,0.0
9.452,5457.765,0.00018,0.0,0.0
9.458,5455.733,0.00018,0.0,0.0
9.465,5441.357,0.00018,0.0,0.0
9.471,5436.904,0.00018,0.0,0.0
9.477,5428.774,0.00018,0.0,0.0
9.484,5449.835,0.00018,0.0,0.0
9.49,5435.065,0.00018,0.0,0.0
9.496,5428.152,0.00018,0.0,0.0
9.503,5430.807,0.00018,0.0,0.0
9.509,5389.644,0.00019,0.0,0.0
9.515,5374.416,0.00019,0.0,0.0
9.522,5352.776,0.00019,0.0,0.0
9.528,5309.709,0.00019,0.0,0.0
9.534,5293.072,0.00019,0.0,0.0
9.541,5269.969,0.00019,0.0,0.0
9.547,5265.141,0.00019,0.0,0.0
9.553,5253.799,0.00019,0.0,0.0
9.56,5233.769,0.00019,0.0,0.0
9.566,5230.827,0.00019,0.0,0.0
9.572,5226.584,0.00019,0.0,0.0
9.578,5226.908,0.00019,0.0,0.0
9.585,5203.884,0.00019,0.0,0.0
9.591,5200.988,0.00019,0.0,0.0
9.597,5193.376,0.00019,0.0,0.0
9.604,5185.447,0.00019,0.0,0.0
9.61,5175.51,0.00019,0.0,0.0
9.616,5161.293,0.00019,0.0,0.0
9.623,5154.278,0.00019,0.0,0.0
9.629,5153.658,0.00019,0.0,0.0
9.635,5142.854,0.00019,0.0,0.0
9.642,5131.301,0.00019,0.0,0.0
9.648,5113.871,0.0002,0.0,0.0
9.654,5130.663,0.00019,0.0,0.0
9.661,5101.51,0.0002,0.0,0.0
9.667,5091.657,0.0002,0.0,0.0
9.673,5091.301,0.0002,0.0,0.0
9.68,5069.503,0.0002,0.0,0.0
9.686,5098.49,0.0002,0.0,0.0
9.692,5077.489,0.0002,0.0,0.0
9.699,5068.165,0.0002,0.0,0.0
9.705,5092.037,0.0002,0.0,0.0
9.711,5070.364,0.0002,0.0,0.0
9.718,5074.844,0.0002,0.0,0.0
9.724,5050.472,0.0002,0.0,0.0
9.73,5068.254,0.0002,0.0,0.0
9.736,5050.199,0.0002,0.0,0.0
9.743,5050.437,0.0002,0.0,0.0
9.749,5056.061,0.0002,0.0,0.0
9.755,5043.309,0.0002,0.0,0.0
9.762,5047.592,0.0002,0.0,0.0
9.768,5043.43,0.0002,0.0,0.0
9.774,5046.483,0.0002,0.0,0.0
9.781,5037.023,0.0002,0.0,0.0
9.787,5034.332,0.0002,0.0,0.0
9.793,5035.56,0.0002,0.0,0.0
9.8,5056.265,0.0002,0.0,0.0
9.806,5030.636,0.0002,0.0,0.0
9.812,5020.152,0.0002,0.0,0.0
9.819,5026.367,0.0002,0.0,0.0
9.825,5029.286,0.0002,0.0,0.0
9.831,5035.956,0.0002,0.0,0.0
9.838,5039.591,0.0002,0.0,0.0
9.844,5019.367,0.0002,0.0,0.0
9.85,5026.195,0.0002,0.0,0.0
9.857,5025.946,0.0002,0.0,0.0
9.863,5016.064,0.0002,0.0,0.0
9.869,5042.097,0.0002,0.0,0.0
9.876,5014.894,0.0002,0.0,0.0
9.882,5041.264,0.0002,0.0,0.0
9.888,5034.893,0.0002,0.0,0.0
9.894,5003.356,0.0002,0.0,0.0
9.901,5036.803,0.0002,0.0,0.0
9.907,5024.611,0.0002,0.0,0.0
9.913,5028.792,0.0002,0.0,0.0
9.92,5040.269,0.0002,0.0,0.0
9.926,5036.501,0.0002,0.0,0.0
9.932,5059.872,0.0002,0.0,0.0
9.939,5025.534,0.0002,0.0,0.0
9.945,5034.441,0.0002,0.0,0.0
9.951,5071.88,0.0002,0.0,0.0
9.958,5031.086,0.0002,0.0,0.0
9.964,5049.849,0.0002,0.0,0.0
9.97,5051.225,0.0002,0.0,0.0
9.977,5055.198,0.0002,0.0,0.0
9.983,5100.121,0.0002,0.0,0.0
9.989,5081.175,0.0002,0.0,0.0
9.996,5098.2,0.0002,0.0,0.0
10.002,5104.961,0.0002,0.0,0.0
10.008,5073.125,0.0002,0.0,0.0
10.015,5129.105,0.00019,0.0,0.0
10.021,5109.374,0.0002,0.0,0.0
10.027,5133.066,0.00019,0.0,0.0
10.034,5145.446,0.00019,0.0,0.0
10.04,5155.534,0.00019,0.0,0.0
10.046,5155.238,0.00019,0.0,0.0
10.052,5159.415,0.00019,0.0,0.0
10.059,5149.914,0.00019,0.0,0.0
10.065,5213.126,0.00019,0.0,0.0
10.071,5212.746,0.00019,0.0,0.0
10.078,5210.278,0.00019,0.0,0.0
10.084,5246.426,0.00019,0.0,0.0
10.09,5221.976,0.00019,0.0,0.0
10.097,5286.733,0.00019,0.0,0.0
10.103,5244.701,0.00019,0.0,0.0
10.109,5306.875,0.00019,0.0,0.0
10.116,5328.483,0.00019,0.0,0.0
10.122,5325.554,0.00019,0.0,0.0
10.128,5376.654,0.00019,0.0,0.0
10.135,5356.258,0.00019,0.0,0.0
10.141,5419.361,0.00018,0.0,0.0
10.147,5429.077,0.00018,0.0,0.0
10.154,5483.446,0.00018,0.0,0.0
10.16,5540.92,0.00018,0.0,0.0
10.166,5694.853,0.00018,0.0,0.0
10.173,5751.922,0.00017,0.0,0.0
10.179,6050.622,0.00017,0.0,0.0
10.185,6754.209,0.00015,0.0,0.0
10.192,7311.385,0.00014,0.0,0.0
10.198,9150.941,0.00011,0.0,0.0
10.204,12413.946,0.00008,0.0,0.0
10.21,13439.791,0.00007,0.0,0.0
10.217,16358.048,0.00006,0.0,0.0
10.223,17307.254,0.00006,0.0,0.0
10.229,10180.122,0.0001,0.0,0.0
10.236,13613.36,0.00007,0.0,0.0
10.242,8989.481,0.00011,0.0,0.0
10.248,7558.473,0.00013,0.0,0.0
10.255,6654.803,0.00015,0.0,0.0
10.261,6081.383,0.00016,0.0,0.0
10.267,5808.51,0.00017,0.0,0.0
10.274,5559.938,0.00018,0.0,0.0
10.28,5519.497,0.00018,0.0,0.0
10.286,5374.86,0.00019,0.0,0.0
10.293,5383.464,0.00019,0.0,0.0
10.299,5342.073,0.00019,0.0,0.0
10.305,5301.93,0.00019,0.0,0.0
10.312,5310.807,0.00019,0.0,0.0
10.318,5264.852,0.00019,0.0,0.0
10.324,5257.342,0.00019,0.0,0.0
10.331,5202.472,0.00019,0.0,0.0
10.337,5189.053,0.00019,0.0,0.0
10.343,5193.735,0.00019,0.0,0.0
10.35,5180.029,0.00019,0.0,0.0
10.356,5154.739,0.00019,0.0,0.0
10.362,5136.871,0.00019,0.0,0.0
10.368,5077.11,0.0002,0.0,0.0
10.375,5136.717,0.00019,0.0,0.0
10.381,5063.475,0.0002,0.0,0.0
10.387,5066.886,0.0002,0.0,0.0
10.394,5072.507,0.0002,0.0,0.0
10.4,5027.795,0.0002,0.0,0.0
10.406,5066.527,0.0002,0.0,0.0
10.413,5019.497,0.0002,0.0,0.0
10.419,4992.697,0.0002,0.0,0.0
10.425,5018.523,0.0002,0.0,0.0
10.432,4999.295,0.0002,0.0,0.0
10.438,4981.693,0.0002,0.0,0.0
10.444,4970.408,0.0002,0.0,0.0
10.451,4927.552,0.0002,0.0,0.0
10.457,4978.368,0.0002,0.0,0.0
10.463,4938.345,0.0002,0.0,0.0
10.47,4921.315,0.0002,0.0,0.0
10.476,4929.247,0.0002,0.0,0.0
10.482,4885.866,0.0002,0.0,0.0
10.489,4925.899,0.0002,0.0,0.0
10.495,4887.572,0.0002,0.0,0.0
10.501,4894.929,0.0002,0.0,0.0
10.508,4884.524,0.0002,0.0,0.0
10.514,4865.607,0.00021,0.0,0.0
10.52,4881.868,0.0002,0.0,0.0
10.526,4865.603,0.00021,0.0,0.0
10.533,4855.582,0.00021,0.0,0.0
10.539,4881.267,0.0002,0.0,0.0
10.545,4855.291,0.00021,0.0,0.0
10.552,4858.577,0.00021,0.0,0.0
10.558,4848.142,0.00021,0.0,0.0
10.564,4825.91,0.00021,0.0,0.0
10.571,4859.239,0.00021,0.0,0.0
10.577,4819.846,0.00021,0.0,0.0
10.583,4828.884,0.00021,0.0,0.0
10.59,4833.407,0.00021,0.0,0.0
10.596,4823.062,0.00021,0.0,0.0
10.602,4834.718,0.00021,0.0,0.0
10.609,4809.262,0.00021,0.0,0.0
10.615,4803.463,0.00021,0.0,0.0
10.621,4811.876,0.00021,0.0,0.0
10.628,4805.462,0.00021,0.0,0.0
10.634,4819.56,0.00021,0.0,0.0
10.64,4812.037,0.00021,0.0,0.0
10.647,4788.277,0.00021,0.0,0.0
10.653,4837.677,0.00021,0.0,0.0
10.659,4796.935,0.00021,0.0,0.0
10.666,4814.494,0.00021,0.0,0.0
10.672,4816.096,0.00021,0.0,0.0
10.678,4798.497,0.00021,0.0,0.0
10.684,4829.076,0.00021,0.0,0.0
10.691,4810.79,0.00021,0.0,0.0
10.697,4818.383,0.00021,0.0,0.0
10.703,4822.012,0.00021,0.0,0.0
10.71,4838.429,0.00021,0.0,0.0
10.716,4859.329,0.00021,0.0,0.0
10.722,4863.233,0.00021,0.0,0.0
10.729,4870.544,0.00021,0.0,0.0
10.735,4908.749,0.0002,0.0,0.0
10.741,4940.905,0.0002,0.0,0.0
10.748,4998.248,0.0002,0.0,0.0
10.754,5058.706,0.0002,0.0,0.0
10.76,5143.708,0.00019,0.0,0.0
10.767,5320.072,0.00019,0.0,0.0
10.773,5511.94,0.00018,0.0,0.0
10.779,5999.801,0.00017,0.0,0.0
10.786,6650.281,0.00015,0.0,0.0
10.792,8110.093,0.00012,0.0,0.0
10.798,10850.54,0.00009,0.0,0.0
10.805,13712.972,0.00007,0.0,0.0
10.811,20658.625,0.00005,0.0,0.0
10.817,24370.438,0.00004,0.0,0.0
10.824,30176.224,0.00003,0.0,0.0
10.83,28558.183,0.00004,0.0,0.0
10.836,24929.907,0.00004,0.0,0.0
10.842,18772.435,0.00005,0.0,0.0
10.849,14633.34,0.00007,0.0,0.0
10.855,10233.413,0.0001,0.0,0.0
10.861,8035.081,0.00012,0.0,0.0
10.868,6827.037,0.00015,0.0,0.0
10.874,5910.205,0.00017,0.0,0.0
10.88,5656.108,0.00018,0.0,0.0
10.887,5331.113,0.00019,0.0,0.0
10.893,5223.882,0.00019,0.0,0.0
10.899,5099.901,0.0002,0.0,0.0
10.906,5072.52,0.0002,0.0,0.0
10.912,5018.168,0.0002,0.0,0.0
10.918,4984.297,0.0002,0.0,0.0
10.925,4959.241,0.0002,0.0,0.0
10.931,4953.592,0.0002,0.0,0.0
10.937,4940.838,0.0002,0.0,0.0
10.944,4928.844,0.0002,0.0,0.0
10.95,4925.869,0.0002,0.0,0.0
10.956,4899.422,0.0002,0.0,0.0
10.963,4898.202,0.0002,0.0,0.0
10.969,4888.867,0.0002,0.0,0.0
10.975,4852.017,0.00021,0.0,0.0
10.982,4834.379,0.00021,0.0,0.0
10.988,4816.09,0.00021,0.0,0.0
10.994,4810.357,0.00021,0.0,0.0
11.0,4785.948,0.00021,0.0,0.0
11.007,4762.344,0.00021,0.0,0.0
11.013,4766.013,0.00021,0.0,0.0
11.019,4758.321,0.00021,0.0,0.0
11.026,4741.118,0.00021,0.0,0.0
11.032,4733.458,0.00021,0.0,0.0
11.038,4728.584,0.00021,0.0,0.0
11.045,4711.474,0.00021,0.0,0.0
11.051,4693.864,0.00021,0.0,0.0
11.057,4708.858,0.00021,0.0,0.0
11.064,4684.724,0.00021,0.0,0.0
11.07,4671.855,0.00021,0.0,0.0
11.076,4671.492,0.00021,0.0,0.0
11.083,4663.935,0.00021,0.0,0.0
11.089,4641.805,0.00022,0.0,0.0
11.095,4636.742,0.00022,0.0,0.0
11.102,4625.526,0.00022,0.0,0.0
11.108,4627.554,0.00022,0.0,0.0
11.114,4610.617,0.00022,0.0,0.0
11.121,4612.154,0.00022,0.0,0.0
11.127,4607.021,0.00022,0.0,0.0
11.133,4592.859,0.00022,0.0,0.0
11.14,4584.689,0.00022,0.0,0.0
11.146,4572.347,0.00022,0.0,0.0
11.152,4584.366,0.00022,0.0,0.0
11.158,4571.996,0.00022,0.0,0.0
11.165,4571.258,0.00022,0.0,0.0
11.171,4569.143,0.00022,0.0,0.0
11.177,4568.888,0.00022,0.0,0.0
11.184,4573.887,0.00022,0.0,0.0
11.19,4597.015,0.00022,0.0,0.0
11.196,4594.117,0.00022,0.0,0.0
11.203,4592.547,0.00022,0.0,0.0
11.209,4680.914,0.00021,0.0,0.0
11.215,4568.743,0.00022,0.0,0.0
11.222,4714.702,0.00021,0.0,0.0
11.228,4537.415,0.00022,0.0,0.0
11.234,4576.811,0.00022,0.0,0.0
11.241,4524.447,0.00022,0.0,0.0
11.247,4517.278,0.00022,0.0,0.0
11.253,4509.503,0.00022,0.0,0.0
11.26,4497.201,0.00022,0.0,0.0
11.266,4490.925,0.00022,0.0,0.0
11.272,4489.24,0.00022,0.0,0.0
11.279,4502.165,0.00022,0.0,0.0
11.285,4478.496,0.00022,0.0,0.0
11.291,4496.647,0.00022,0.0,0.0
11.298,4482.358,0.00022,0.0,0.0
11.304,4489.589,0.00022,0.0,0.0
11.31,4478.072,0.00022,0.0,0.0
11.316,4484.211,0.00022,0.0,0.0
11.323,4477.697,0.00022,0.0,0.0
11.329,4470.521,0.00022,0.0,0.0
11.335,4459.757,0.00022,0.0,0.0
11.342,4455.36,0.00022,0.0,0.0
11.348,4456.584,0.00022,0.0,0.0
11.354,4457.692,0.00022,0.0,0.0
11.361,4445.377,0.00022,0.0,0.0
11.367,4459.987,0.00022,0.0,0.0
11.373,4451.616,0.00022,0.0,0.0
11.38,4456.427,0.00022,0.0,0.0
11.386,4438.551,0.00023,0.0,0.0
11.392,4445.703,0.00022,0.0,0.0
11.399,4439.946,0.00023,0.0,0.0
11.405,4440.022,0.00023,0.0,0.0
11.411,4429.33,0.00023,0.0,0.0
11.418,4440.063,0.00023,0.0,0.0
11.424,4433.058,0.00023,0.0,0.0
11.43,4432.538,0.00023,0.0,0.0
11.437,4437.678,0.00023,0.0,0.0
11.443,4438.682,0.00023,0.0,0.0
11.449,4429.52,0.00023,0.0,0.0
11.456,4444.928,0.00022,0.0,0.0
11.462,4428.541,0.00023,0.0,0.0
11.468,4428.616,0.00023,0.0,0.0
11.474,4436.488,0.00023,0.0,0.0
11.481,4427.973,0.00023,0.0,0.0
11.487,4436.907,0.00023,0.0,0.0
11.493,4422.981,0.00023,0.0,0.0
11.5,4435.669,0.00023,0.0,0.0
11.506,4435.36,0.00023,0.0,0.0
11.512,4438.724,0.00023,0.0,0.0
11.519,4462.163,0.00022,0.0,0.0
11.525,4467.197,0.00022,0.0,0.0
11.531,4482.768,0.00022,0.0,0.0
11.538,4473.084,0.00022,0.0,0.0
11.544,4465.439,0.00022,0.0,0.0
11.55,4458.014,0.00022,0.0,0.0
11.557,4444.185,0.00023,0.0,0.0
11.563,4439.838,0.00023,0.0,0.0
11.569,4430.058,0.00023,0.0,0.0
11.576,4420.179,0.00023,0.0,0.0
11.582,4426.813,0.00023,0.0,0.0
11.588,4414.974,0.00023,0.0,0.0
11.595,4408.68,0.00023,0.0,0.0
11.601,4423.084,0.00023,0.0,0.0
11.607,4406.882,0.00023,0.0,0.0
11.614,4416.631,0.00023,0.0,0.0
11.62,4414.51,0.00023,0.0,0.0
11.626,4410.771,0.00023,0.0,0.0
11.632,4422.405,0.00023,0.0,0.0
11.639,4413.911,0.00023,0.0,0.0
11.645,4414.583,0.00023,0.0,0.0
11.651,4410.601,0.00023,0.0,0.0
11.658,4431.75,0.00023,0.0,0.0
11.664,4416.203,0.00023,0.0,0.0
11.67,4425.183,0.00023,0.0,0.0
11.677,4416.263,0.00023,0.0,0.0
11.683,4434.173,0.00023,0.0,0.0
11.689,4426.321,0.00023,0.0,0.0
11.696,4434.337,0.00023,0.0,0.0
11.702,4436.415,0.00023,0.0,0.0
11.708,4439.091,0.00023,0.0,0.0
11.715,4446.56,0.00022,0.0,0.0
11.721,4432.725,0.00023,0.0,0.0
11.727,4459.94,0.00022,0.0,0.0
11.734,4453.882,0.00022,0.0,0.0
11.74,4455.795,0.00022,0.0,0.0
11.746,4462.132,0.00022,0.0,0.0
11.753,4468.007,0.00022,0.0,0.0
11.759,4471.075,0.00022,0.0,0.0
11.765,4491.9,0.00022,0.0,0.0
11.772,4478.167,0.00022,0.0,0.0
11.778,4489.756,0.00022,0.0,0.0
11.784,4492.692,0.00022,0.0,0.0
11.79,4483.936,0.00022,0.0,0.0
11.797,4497.457,0.00022,0.0,0.0
11.803,4492.261,0.00022,0.0,0.0
11.809,4498.641,0.00022,0.0,0.0
11.816,4487.676,0.00022,0.0,0.0
11.822,4483.808,0.00022,0.0,0.0
11.828,4494.907,0.00022,0.0,0.0
11.835,4498.0,0.00022,0.0,0.0
11.841,4502.573,0.00022,0.0,0.0
11.847,4502.107,0.00022,0.0,0.0
11.854,4497.993,0.00022,0.0,0.0
11.86,4492.104,0.00022,0.0,0.0
11.866,4497.768,0.00022,0.0,0.0
11.873,4489.512,0.00022,0.0,0.0
11.879,4490.166,0.00022,0.0,0.0
11.885,4485.419,0.00022,0.0,0.0
11.892,4485.765,0.00022,0.0,0.0
11.898,4487.546,0.00022,0.0,0.0
11.904,4472.732,0.00022,0.0,0.0
11.911,4478.533,0.00022,0.0,0.0
11.917,4467.616,0.00022,0.0,0.0
11.923,4489.756,0.00022,0.0,0.0
11.93,4468.578,0.00022,0.0,0.0
11.936,4461.119,0.00022,0.0,0.0
11.942,4464.412,0.00022,0.0,0.0
11.948,4467.849,0.00022,0.0,0.0
11.955,4466.214,0.00022,0.0,0.0
11.961,4456.843,0.00022,0.0,0.0
11.967,4451.338,0.00022,0.0,0.0
11.974,4449.186,0.00022,0.0,0.0
11.98,4457.96,0.00022,0.0,0.0
11.986,4443.11,0.00023,0.0,0.0
11.993,4443.479,0.00023,0.0,0.0
11.999,4461.658,0.00022,0.0,0.0
12.005,4466.495,0.00022,0.0,0.0
12.012,4460.733,0.00022,0.0,0.0
12.018,4474.852,0.00022,0.0,0.0
12.024,4461.99,0.00022,0.0,0.0
12.031,4463.522,0.00022,0.0,0.0
12.037,4553.916,0.00022,0.0,0.0
12.043,4485.895,0.00022,0.0,0.0
12.05,4722.384,0.00021,0.0,0.0
12.056,4555.34,0.00022,0.0,0.0
12.062,4598.337,0.00022,0.0,0.0
12.069,5732.097,0.00017,0.0,0.0
12.075,4934.455,0.0002,0.0,0.0
12.081,8552.981,0.00012,0.0,0.0
12.088,5790.372,0.00017,0.0,0.0
12.094,6452.935,0.00015,0.0,0.0
12.1,10138.039,0.0001,0.0,0.0
12.106,6225.188,0.00016,0.0,0.0
12.113,7827.276,0.00013,0.0,0.0
12.119,5290.178,0.00019,0.0,0.0
12.125,4908.778,0.0002,0.0,0.0
12.132,5065.059,0.0002,0.0,0.0
12.138,4585.324,0.00022,0.0,0.0
12.144,4570.503,0.00022,0.0,0.0
12.151,4527.163,0.00022,0.0,0.0
12.157,4443.295,0.00023,0.0,0.0
12.163,4458.657,0.00022,0.0,0.0
12.17,4397.985,0.00023,0.0,0.0
12.176,4378.805,0.00023,0.0,0.0
12.182,4409.302,0.00023,0.0,0.0
12.189,4384.761,0.00023,0.0,0.0
12.195,4372.758,0.00023,0.0,0.0
12.201,4357.454,0.00023,0.0,0.0
12.208,4350.259,0.00023,0.0,0.0
12.214,4337.194,0.00023,0.0,0.0
12.22,4327.336,0.00023,0.0,0.0
12.227,4314.212,0.00023,0.0,0.0
12.233,4302.636,0.00023,0.0,0.0
12.239,4307.578,0.00023,0.0,0.0
12.246,4294.57,0.00023,0.0,0.0
12.252,4304.683,0.00023,0.0,0.0
12.258,4278.164,0.00023,0.0,0.0
12.264,4277.877,0.00023,0.0,0.0
12.271,4265.635,0.00023,0.0,0.0
12.277,4274.867,0.00023,0.0,0.0
12.283,4276.733,0.00023,0.0,0.0
12.29,4269.21,0.00023,0.0,0.0
12.296,4257.728,0.00023,0.0,0.0
12.302,4255.567,0.00023,0.0,0.0
12.309,4241.241,0.00024,0.0,0.0
12.315,4237.925,0.00024,0.0,0.0
12.321,4249.157,0.00024,0.0,0.0
12.328,4247.056,0.00024,0.0,0.0
12.334,4237.45,0.00024,0.0,0.0
12.34,4232.56,0.00024,0.0,0.0
12.347,4236.735,0.00024,0.0,0.0
12.353,4230.898,0.00024,0.0,0.0
12.359,4223.982,0.00024,0.0,0.0
12.366,4238.696,0.00024,0.0,0.0
12.372,4232.354,0.00024,0.0,0.0
12.378,4226.802,0.00024,0.0,0.0
12.385,4223.355,0.00024,0.0,0.0
12.391,4223.388,0.00024,0.0,0.0
12.397,4209.153,0.00024,0.0,0.0
12.404,4205.407,0.00024,0.0,0.0
12.41,4206.88,0.00024,0.0,0.0
12.416,4194.745,0.00024,0.0,0.0
12.422,4189.026,0.00024,0.0,0.0
12.429,4185.71,0.00024,0.0,0.0
12.435,4196.475,0.00024,0.0,0.0
12.441,4190.671,0.00024,0.0,0.0
12.448,4177.996,0.00024,0.0,0.0
12.454,4185.828,0.00024,0.0,0.0
12.46,4195.844,0.00024,0.0,0.0
12.467,4176.488,0.00024,0.0,0.0
12.473,4192.56,0.00024,0.0,0.0
12.479,4180.135,0.00024,0.0,0.0
12.486,4179.952,0.00024,0.0,0.0
12.492,4188.801,0.00024,0.0,0.0
12.498,4190.529,0.00024,0.0,0.0
12.505,4205.371,0.00024,0.0,0.0
12.511,4200.715,0.00024,0.0,0.0
12.517,4194.621,0.00024,0.0,0.0
12.524,4217.033,0.00024,0.0,0.0
12.53,4209.311,0.00024,0.0,0.0
12.536,4210.015,0.00024,0.0,0.0
12.543,4211.648,0.00024,0.0,0.0
12.549,4202.611,0.00024,0.0,0.0
12.555,4204.787,0.00024,0.0,0.0
12.562,4215.213,0.00024,0.0,0.0
12.568,4203.059,0.00024,0.0,0.0
12.574,4218.928,0.00024,0.0,0.0
12.58,4216.46,0.00024,0.0,0.0
12.587,4235.832,0.00024,0.0,0.0
12.593,4246.018,0.00024,0.0,0.0
12.599,4266.693,0.00023,0.0,0.0
12.606,4284.072,0.00023,0.0,0.0
12.612,4296.04,0.00023,0.0,0.0
12.618,4363.973,0.00023,0.0,0.0
12.625,4413.377,0.00023,0.0,0.0
12.631,4495.68,0.00022,0.0,0.0
12.637,4631.323,0.00022,0.0,0.0
12.644,4847.553,0.00021,0.0,0.0
12.65,5146.337,0.00019,0.0,0.0
12.656,5773.068,0.00017,0.0,0.0
12.663,6758.329,0.00015,0.0,0.0
12.669,8630.927,0.00012,0.0,0.0
12.675,11856.078,0.00008,0.0,0.0
12.682,16767.978,0.00006,0.0,0.0
12.688,23516.185,0.00004,0.0,0.0
12.694,28986.567,0.00003,0.0,0.0
12.701,34027.519,0.00003,0.0,0.0
12.707,32715.275,0.00003,0.0,0.0
12.713,25907.113,0.00004,0.0,0.0
12.72,21259.755,0.00005,0.0,0.0
12.726,14333.107,0.00007,0.0,0.0
12.732,10394.037,0.0001,0.0,0.0
12.738,7707.003,0.00013,0.0,0.0
12.745,6267.394,0.00016,0.0,0.0
12.751,5430.384,0.00018,0.0,0.0
12.757,4975.208,0.0002,0.0,0.0
12.764,4664.653,0.00021,0.0,0.0
12.77,4522.341,0.00022,0.0,0.0
12.776,4390.378,0.00023,0.0,0.0
12.783,4333.711,0.00023,0.0,0.0
12.789,4271.953,0.00023,0.0,0.0
12.795,4229.473,0.00024,0.0,0.0
12.802,4203.372,0.00024,0.0,0.0
12.808,4165.454,0.00024,0.0,0.0
12.814,4158.131,0.00024,0.0,0.0
12.821,4128.868,0.00024,0.0,0.0
12.827,4129.089,0.00024,0.0,0.0
12.833,4105.811,0.00024,0.0,0.0
12.84,4107.374,0.00024,0.0,0.0
12.846,4093.764,0.00024,0.0,0.0
12.852,4084.488,0.00024,0.0,0.0
12.859,4084.625,0.00024,0.0,0.0
12.865,4073.319,0.00025,0.0,0.0
12.871,4068.807,0.00025,0.0,0.0
12.878,4066.517,0.00025,0.0,0.0
12.884,4069.489,0.00025,0.0,0.0
12.89,4060.988,0.00025,0.0,0.0
12.896,4109.844,0.00024,0.0,0.0
12.903,4078.041,0.00025,0.0,0.0
12.909,4260.82,0.00023,0.0,0.0
12.915,4323.92,0.00023,0.0,0.0
12.922,4178.86,0.00024,0.0,0.0
12.928,5037.066,0.0002,0.0,0.0
12.934,4401.754,0.00023,0.0,0.0
12.941,4336.059,0.00023,0.0,0.0
12.947,4418.259,0.00023,0.0,0.0
12.953,4291.466,0.00023,0.0,0.0
12.96,4198.301,0.00024,0.0,0.0
12.966,4157.557,0.00024,0.0,0.0
12.972,4110.072,0.00024,0.0,0.0
12.979,4071.495,0.00025,0.0,0.0
12.985,4054.224,0.00025,0.0,0.0
12.991,4030.159,0.00025,0.0,0.0
12.998,4014.328,0.00025,0.0,0.0
13.004,4001.475,0.00025,0.0,0.0
13.01,3996.456,0.00025,0.0,0.0
13.017,3979.365,0.00025,0.0,0.0
13.023,3981.034,0.00025,0.0,0.0
13.029,3979.548,0.00025,0.0,0.0
13.036,3988.018,0.00025,0.0,0.0
13.042,3989.862,0.00025,0.0,0.0
13.048,3977.171,0.00025,0.0,0.0
13.054,3978.806,0.00025,0.0,0.0
13.061,3982.745,0.00025,0.0,0.0
13.067,3985.56,0.00025,0.0,0.0
13.073,3967.037,0.00025,0.0,0.0
13.08,3975.325,0.00025,0.0,0.0
13.086,3983.555,0.00025,0.0,0.0
13.092,3972.524,0.00025,0.0,0.0
13.099,3983.599,0.00025,0.0,0.0
13.105,3976.339,0.00025,0.0,0.0
13.111,3980.392,0.00025,0.0,0.0
13.118,3978.865,0.00025,0.0,0.0
13.124,3971.816,0.00025,0.0,0.0
13.13,3971.501,0.00025,0.0,0.0
13.137,3967.588,0.00025,0.0,0.0
13.143,3984.948,0.00025,0.0,0.0
13.149,3976.674,0.00025,0.0,0.0
13.156,3985.57,0.00025,0.0,0.0
13.162,3973.727,0.00025,0.0,0.0
13.168,3976.945,0.00025,0.0,0.0
13.175,3992.333,0.00025,0.0,0.0
13.181,3997.189,0.00025,0.0,0.0
13.187,4009.04,0.00025,0.0,0.0
13.194,4025.415,0.00025,0.0,0.0
13.2,4036.027,0.00025,0.0,0.0
13.206,4070.204,0.00025,0.0,0.0
13.212,4129.872,0.00024,0.0,0.0
13.219,4212.906,0.00024,0.0,0.0
13.225,4418.206,0.00023,0.0,0.0
13.231,4640.424,0.00022,0.0,0.0
13.238,5250.381,0.00019,0.0,0.0
13.244,6175.656,0.00016,0.0,0.0
13.25,7226.403,0.00014,0.0,0.0
13.257,9617.555,0.0001,0.0,0.0
13.263,10825.492,0.00009,0.0,0.0
13.269,11652.16,0.00009,0.0,0.0
13.276,11579.861,0.00009,0.0,0.0
13.282,10207.819,0.0001,0.0,0.0
13.288,8093.62,0.00012,0.0,0.0
13.295,6942.066,0.00014,0.0,0.0
13.301,5324.631,0.00019,0.0,0.0
13.307,4802.697,0.00021,0.0,0.0
13.314,4410.019,0.00023,0.0,0.0
13.32,4174.173,0.00024,0.0,0.0
13.326,4085.314,0.00024,0.0,0.0
13.333,3993.41,0.00025,0.0,0.0
13.339,3976.105,0.00025,0.0,0.0
13.345,3935.043,0.00025,0.0,0.0
13.352,3918.171,0.00026,0.0,0.0
13.358,3894.565,0.00026,0.0,0.0
13.364,3883.962,0.00026,0.0,0.0
13.37,3865.169,0.00026,0.0,0.0
13.377,3866.192,0.00026,0.0,0.0
13.383,3853.881,0.00026,0.0,0.0
13.389,3865.636,0.00026,0.0,0.0
13.396,3848.473,0.00026,0.0,0.0
13.402,3851.356,0.00026,0.0,0.0
13.408,3828.488,0.00026,0.0,0.0
13.415,3833.947,0.00026,0.0,0.0
13.421,3826.964,0.00026,0.0,0.0
13.427,3818.063,0.00026,0.0,0.0
13.434,3819.389,0.00026,0.0,0.0
13.44,3814.363,0.00026,0.0,0.0
13.446,3802.675,0.00026,0.0,0.0
13.453,3804.978,0.00026,0.0,0.0
13.459,3790.479,0.00026,0.0,0.0
13.465,3778.799,0.00026,0.0,0.0
13.472,3792.821,0.00026,0.0,0.0
13.478,3782.573,0.00026,0.0,0.0
13.484,3773.121,0.00027,0.0,0.0
13.491,3779.17,0.00026,0.0,0.0
13.497,3783.771,0.00026,0.0,0.0
13.503,3771.167,0.00027,0.0,0.0
13.51,3758.084,0.00027,0.0,0.0
13.516,3766.566,0.00027,0.0,0.0
13.522,3768.301,0.00027,0.0,0.0
13.528,3768.286,0.00027,0.0,0.0
13.535,3752.218,0.00027,0.0,0.0
13.541,3750.316,0.00027,0.0,0.0
13.547,3758.803,0.00027,0.0,0.0
13.554,3750.799,0.00027,0.0,0.0
13.56,3757.926,0.00027,0.0,0.0
13.566,3755.471,0.00027,0.0,0.0
13.573,3758.416,0.00027,0.0,0.0
13.579,3752.771,0.00027,0.0,0.0
13.585,3749.082,0.00027,0.0,0.0
13.592,3746.985,0.00027,0.0,0.0
13.598,3736.049,0.00027,0.0,0.0
13.604,3748.363,0.00027,0.0,0.0
13.611,3751.979,0.00027,0.0,0.0
13.617,3739.225,0.00027,0.0,0.0
13.623,3759.508,0.00027,0.0,0.0
13.63,3748.537,0.00027,0.0,0.0
13.636,3744.41,0.00027,0.0,0.0
13.642,3750.614,0.00027,0.0,0.0
13.649,3753.185,0.00027,0.0,0.0
13.655,3762.553,0.00027,0.0,0.0
13.661,3753.716,0.00027,0.0,0.0
13.668,3768.918,0.00027,0.0,0.0
13.674,3773.329,0.00027,0.0,0.0
13.68,3792.52,0.00026,0.0,0.0
13.686,3825.526,0.00026,0.0,0.0
13.693,3849.194,0.00026,0.0,0.0
13.699,4239.507,0.00024,0.0,0.0
13.705,3977.005,0.00025,0.0,0.0
13.712,5127.698,0.0002,0.0,0.0
13.718,4333.413,0.00023,0.0,0.0
13.724,5120.268,0.0002,0.0,0.0
13.731,4552.698,0.00022,0.0,0.0
13.737,4194.905,0.00024,0.0,0.0
13.743,4113.65,0.00024,0.0,0.0
13.75,3886.653,0.00026,0.0,0.0
13.756,3832.398,0.00026,0.0,0.0
13.762,3749.806,0.00027,0.0,0.0
13.769,3733.439,0.00027,0.0,0.0
13.775,3703.955,0.00027,0.0,0.0
13.781,3702.75,0.00027,0.0,0.0
13.788,3696.569,0.00027,0.0,0.0
13.794,3671.962,0.00027,0.0,0.0
13.8,3672.37,0.00027,0.0,0.0
13.807,3668.305,0.00027,0.0,0.0
13.813,3654.517,0.00027,0.0,0.0
13.819,3675.408,0.00027,0.0,0.0
13.826,3655.358,0.00027,0.0,0.0
13.832,3647.6,0.00027,0.0,0.0
13.838,3641.227,0.00027,0.0,0.0
13.844,3627.434,0.00028,0.0,0.0
13.851,3633.698,0.00028,0.0,0.0
13.857,3624.238,0.00028,0.0,0.0
13.863,3620.81,0.00028,0.0,0.0
13.87,3606.947,0.00028,0.0,0.0
13.876,3604.993,0.00028,0.0,0.0
13.882,3611.274,0.00028,0.0,0.0
13.889,3599.492,0.00028,0.0,0.0
13.895,3596.804,0.00028,0.0,0.0
13.901,3591.123,0.00028,0.0,0.0
13.908,3597.005,0.00028,0.0,0.0
13.914,3591.213,0.00028,0.0,0.0
13.92,3584.399,0.00028,0.0,0.0
13.927,3573.907,0.00028,0.0,0.0
13.933,3575.138,0.00028,0.0,0.0
13.939,3576.87,0.00028,0.0,0.0
13.946,3568.456,0.00028,0.0,0.0
13.952,3566.731,0.00028,0.0,0.0
13.958,3566.303,0.00028,0.0,0.0
13.965,3554.493,0.00028,0.0,0.0
13.971,3550.832,0.00028,0.0,0.0
13.977,3559.169,0.00028,0.0,0.0
13.984,3545.007,0.00028,0.0,0.0
13.99,3541.782,0.00028,0.0,0.0
13.996,3547.613,0.00028,0.0,0.0
14.002,3542.601,0.00028,0.0,0.0
14.009,3533.937,0.00028,0.0,0.0
14.015,3533.658,0.00028,0.0,0.0
14.021,3525.819,0.00028,0.0,0.0
14.028,3527.936,0.00028,0.0,0.0
14.034,3528.873,0.00028,0.0,0.0
14.04,3513.295,0.00028,0.0,0.0
14.047,3520.937,0.00028,0.0,0.0
14.053,3528.586,0.00028,0.0,0.0
14.059,3510.518,0.00028,0.0,0.0
14.066,3508.488,0.00029,0.0,0.0
14.072,3510.193,0.00028,0.0,0.0
14.078,3497.031,0.00029,0.0,0.0
14.085,3496.423,0.00029,0.0,0.0
14.091,3496.64,0.00029,0.0,0.0
14.097,3489.609,0.00029,0.0,0.0
14.104,3490.321,0.00029,0.0,0.0
14.11,3475.11,0.00029,0.0,0.0
14.116,3485.941,0.00029,0.0,0.0
14.123,3481.61,0.00029,0.0,0.0
14.129,3482.55,0.00029,0.0,0.0
14.135,3474.199,0.00029,0.0,0.0
14.142,3471.999,0.00029,0.0,0.0
14.148,3471.616,0.00029,0.0,0.0
14.154,3480.341,0.00029,0.0,0.0
14.16,3473.177,0.00029,0.0,0.0
14.167,3467.764,0.00029,0.0,0.0
14.173,3458.721,0.00029,0.0,0.0
14.179,3449.266,0.00029,0.0,0.0
14.186,3455.989,0.00029,0.0,0.0
14.192,3464.265,0.00029,0.0,0.0
14.198,3459.131,0.00029,0.0,0.0
14.205,3458.183,0.00029,0.0,0.0
14.211,3456.908,0.00029,0.0,0.0
14.217,3450.596,0.00029,0.0,0.0
14.224,3451.537,0.00029,0.0,0.0
14.23,3453.856,0.00029,0.0,0.0
14.236,3452.967,0.00029,0.0,0.0
14.243,3473.802,0.00029,0.0,0.0
14.249,3460.961,0.00029,0.0,0.0
14.255,3464.906,0.00029,0.0,0.0
14.262,3466.008,0.00029,0.0,0.0
14.268,3469.852,0.00029,0.0,0.0
14.274,3475.082,0.00029,0.0,0.0
14.281,3463.51,0.00029,0.0,0.0
14.287,3461.327,0.00029,0.0,0.0
14.293,3450.875,0.00029,0.0,0.0
14.3,3454.323,0.00029,0.0,0.0
14.306,3446.667,0.00029,0.0,0.0
14.312,3442.746,0.00029,0.0,0.0
14.318,3430.292,0.00029,0.0,0.0
14.325,3440.22,0.00029,0.0,0.0
14.331,3427.954,0.00029,0.0,0.0
14.337,3443.771,0.00029,0.0,0.0
14.344,3432.216,0.00029,0.0,0.0
14.35,3421.774,0.00029,0.0,0.0
14.356,3418.865,0.00029,0.0,0.0
14.363,3416.478,0.00029,0.0,0.0
14.369,3429.014,0.00029,0.0,0.0
14.375,3431.635,0.00029,0.0,0.0
14.382,3420.307,0.00029,0.0,0.0
14.388,3421.876,0.00029,0.0,0.0
14.394,3409.801,0.00029,0.0,0.0
14.401,3421.113,0.00029,0.0,0.0
14.407,3426.833,0.00029,0.0,0.0
14.413,3431.26,0.00029,0.0,0.0
14.42,3415.745,0.00029,0.0,0.0
14.426,3437.324,0.00029,0.0,0.0
14.432,3439.432,0.00029,0.0,0.0
14.439,3445.984,0.00029,0.0,0.0
14.445,3556.063,0.00028,0.0,0.0
14.451,3483.001,0.00029,0.0,0.0
14.458,3596.676,0.00028,0.0,0.0
14.464,3722.57,0.00027,0.0,0.0
14.47,3539.88,0.00028,0.0,0.0
14.476,3586.4,0.00028,0.0,0.0
14.483,3503.785,0.00029,0.0,0.0
14.489,3468.716,0.00029,0.0,0.0
14.495,3463.652,0.00029,0.0,0.0
14.502,3422.591,0.00029,0.0,0.0
14.508,3433.466,0.00029,0.0,0.0
14.514,3415.927,0.00029,0.0,0.0
14.521,3402.356,0.00029,0.0,0.0
14.527,3393.461,0.00029,0.0,0.0
14.533,3396.242,0.00029,0.0,0.0
14.54,3395.243,0.00029,0.0,0.0
14.546,3383.278,0.0003,0.0,0.0
14.552,3389.789,0.0003,0.0,0.0
14.559,3379.053,0.0003,0.0,0.0
14.565,3372.026,0.0003,0.0,0.0
14.571,3379.71,0.0003,0.0,0.0
14.578,3377.641,0.0003,0.0,0.0
14.584,3363.99,0.0003,0.0,0.0
14.59,3358.203,0.0003,0.0,0.0
14.597,3356.248,0.0003,0.0,0.0
14.603,3355.427,0.0003,0.0,0.0
14.609,3360.527,0.0003,0.0,0.0
14.616,3348.142,0.0003,0.0,0.0
14.622,3350.81,0.0003,0.0,0.0
14.628,3346.081,0.0003,0.0,0.0
14.634,3350.397,0.0003,0.0,0.0
14.641,3351.548,0.0003,0.0,0.0
14.647,3337.363,0.0003,0.0,0.0
14.653,3343.884,0.0003,0.0,0.0
14.66,3335.864,0.0003,0.0,0.0
14.666,3331.085,0.0003,0.0,0.0
14.672,3329.391,0.0003,0.0,0.0
14.679,3328.936,0.0003,0.0,0.0
14.685,3324.469,0.0003,0.0,0.0
14.691,3319.393,0.0003,0.0,0.0
14.698,3313.991,0.0003,0.0,0.0
14.704,3316.823,0.0003,0.0,0.0
14.71,3289.89,0.0003,0.0,0.0
14.717,3302.083,0.0003,0.0,0.0
14.723,3298.24,0.0003,0.0,0.0
14.729,3287.997,0.0003,0.0,0.0
14.736,3286.55,0.0003,0.0,0.0
14.742,3291.711,0.0003,0.0,0.0
14.748,3292.49,0.0003,0.0,0.0
14.755,3283.829,0.0003,0.0,0.0
14.761,3282.352,0.0003,0.0,0.0
14.767,3284.839,0.0003,0.0,0.0
14.774,3273.48,0.00031,0.0,0.0
14.78,3276.516,0.00031,0.0,0.0
14.786,3283.037,0.0003,0.0,0.0
14.792,3278.222,0.00031,0.0,0.0
14.799,3271.071,0.00031,0.0,0.0
14.805,3271.83,0.00031,0.0,0.0
14.811,3268.171,0.00031,0.0,0.0
14.818,3268.399,0.00031,0.0,0.0
14.824,3263.581,0.00031,0.0,0.0
14.83,3267.473,0.00031,0.0,0.0
14.837,3260.178,0.00031,0.0,0.0
14.843,3262.794,0.00031,0.0,0.0
14.849,3253.194,0.00031,0.0,0.0
14.856,3254.779,0.00031,0.0,0.0
14.862,3257.018,0.00031,0.0,0.0
14.868,3244.242,0.00031,0.0,0.0
14.875,3269.272,0.00031,0.0,0.0
14.881,3248.49,0.00031,0.0,0.0
14.887,3257.367,0.00031,0.0,0.0
14.894,3257.021,0.00031,0.0,0.0
14.9,3261.54,0.00031,0.0,0.0
14.906,3259.69,0.00031,0.0,0.0
14.913,3247.058,0.00031,0.0,0.0
14.919,3248.782,0.00031,0.0,0.0
14.925,3261.695,0.00031,0.0,0.0
14.932,3253.065,0.00031,0.0,0.0
14.938,3253.855,0.00031,0.0,0.0
14.944,3249.84,0.00031,0.0,0.0
14.95,3254.212,0.00031,0.0,0.0
14.957,3260.603,0.00031,0.0,0.0
14.963,3251.611,0.00031,0.0,0.0
14.969,3237.898,0.00031,0.0,0.0
14.976,3245.095,0.00031,0.0,0.0
14.982,3240.31,0.00031,0.0,0.0
14.988,3260.812,0.00031,0.0,0.0
14.995,3244.385,0.00031,0.0,0.0
15.001,3251.824,0.00031,0.0,0.0
15.007,3256.57,0.00031,0.0,0.0
15.014,3250.705,0.00031,0.0,0.0
15.02,3241.016,0.00031,0.0,0.0
15.026,3256.661,0.00031,0.0,0.0
15.033,3248.556,0.00031,0.0,0.0
15.039,3246.778,0.00031,0.0,0.0
15.045,3255.05,0.00031,0.0,0.0
15.052,3245.365,0.00031,0.0,0.0
15.058,3258.067,0.00031,0.0,0.0
15.064,3253.613,0.00031,0.0,0.0
15.071,3250.223,0.00031,0.0,0.0
15.077,3249.258,0.00031,0.0,0.0
15.083,3246.986,0.00031,0.0,0.0
15.09,3247.94,0.00031,0.0,0.0
15.096,3247.18,0.00031,0.0,0.0
15.102,3234.385,0.00031,0.0,0.0
15.108,3239.569,0.00031,0.0,0.0
15.115,3232.73,0.00031,0.0,0.0
15.121,3239.918,0.00031,0.0,0.0
15.127,3229.567,0.00031,0.0,0.0
15.134,3238.262,0.00031,0.0,0.0
15.14,3233.657,0.00031,0.0,0.0
15.146,3239.524,0.00031,0.0,0.0
15.153,3237.815,0.00031,0.0,0.0
15.159,3234.752,0.00031,0.0,0.0
15.165,3231.397,0.00031,0.0,0.0
15.172,3231.991,0.00031,0.0,0.0
15.178,3246.864,0.00031,0.0,0.0
15.184,3230.378,0.00031,0.0,0.0
15.191,3237.833,0.00031,0.0,0.0
15.197,3216.947,0.00031,0.0,0.0
15.203,3232.13,0.00031,0.0,0.0
15.21,3217.596,0.00031,0.0,0.0
15.216,3215.312,0.00031,0.0,0.0
15.222,3206.564,0.00031,0.0,0.0
15.229,3214.294,0.00031,0.0,0.0
15.235,3217.839,0.00031,0.0,0.0
15.241,3213.426,0.00031,0.0,0.0
15.248,3225.008,0.00031,0.0,0.0
15.254,3226.949,0.00031,0.0,0.0
15.26,3227.847,0.00031,0.0,0.0
15.266,3244.835,0.00031,0.0,0.0
15.273,3268.163,0.00031,0.0,0.0
15.279,3305.698,0.0003,0.0,0.0
15.285,3350.922,0.0003,0.0,0.0
15.292,3444.241,0.00029,0.0,0.0
15.298,3609.602,0.00028,0.0,0.0
15.304,3890.949,0.00026,0.0,0.0
15.311,4278.488,0.00023,0.0,0.0
15.317,4804.277,0.00021,0.0,0.0
15.323,5426.398,0.00018,0.0,0.0
15.33,5713.037,0.00018,0.0,0.0
15.336,5889.532,0.00017,0.0,0.0
15.342,5565.788,0.00018,0.0,0.0
15.349,5062.944,0.0002,0.0,0.0
15.355,4581.605,0.00022,0.0,0.0
15.361,3985.422,0.00025,0.0,0.0
15.368,3723.825,0.00027,0.0,0.0
15.374,3498.631,0.00029,0.0,0.0
15.38,3374.162,0.0003,0.0,0.0
15.387,3311.514,0.0003,0.0,0.0
15.393,3275.891,0.00031,0.0,0.0
15.399,3238.244,0.00031,0.0,0.0
15.406,3230.71,0.00031,0.0,0.0
15.412,3220.288,0.00031,0.0,0.0
15.418,3209.89,0.00031,0.0,0.0
15.424,3203.131,0.00031,0.0,0.0
15.431,3201.33,0.00031,0.0,0.0
15.437,3203.18,0.00031,0.0,0.0
15.443,3207.466,0.00031,0.0,0.0
15.45,3206.167,0.00031,0.0,0.0
15.456,3184.844,0.00031,0.0,0.0
15.462,3192.355,0.00031,0.0,0.0
15.469,3186.566,0.00031,0.0,0.0
15.475,3194.85,0.00031,0.0,0.0
15.481,3183.206,0.00031,0.0,0.0
15.488,3188.149,0.00031,0.0,0.0
15.494,3180.536,0.00031,0.0,0.0
15.5,3178.849,0.00031,0.0,0.0
15.507,3183.754,0.00031,0.0,0.0
15.513,3181.36,0.00031,0.0,0.0
15.519,3171.744,0.00032,0.0,0.0
15.526,3167.559,0.00032,0.0,0.0
15.532,3169.699,0.00032,0.0,0.0
15.538,3159.342,0.00032,0.0,0.0
15.545,3171.452,0.00032,0.0,0.0
15.551,3157.184,0.00032,0.0,0.0
15.557,3157.233,0.00032,0.0,0.0
15.564,3141.993,0.00032,0.0,0.0
15.57,3154.77,0.00032,0.0,0.0
15.576,3161.204,0.00032,0.0,0.0
15.582,3145.162,0.00032,0.0,0.0
15.589,3142.552,0.00032,0.0,0.0
15.595,3143.784,0.00032,0.0,0.0
15.601,3138.219,0.00032,0.0,0.0
15.608,3145.072,0.00032,0.0,0.0
15.614,3131.402,0.00032,0.0,0.0
15.62,3130.985,0.00032,0.0,0.0
15.627,3129.133,0.00032,0.0,0.0
15.633,3125.062,0.00032,0.0,0.0
15.639,3122.41,0.00032,0.0,0.0
15.646,3122.087,0.00032,0.0,0.0
15.652,3129.578,0.00032,0.0,0.0
15.658,3121.906,0.00032,0.0,0.0
15.665,3114.15,0.00032,0.0,0.0
15.671,3127.466,0.00032,0.0,0.0
15.677,3112.926,0.00032,0.0,0.0
15.684,3119.472,0.00032,0.0,0.0
15.69,3102.278,0.00032,0.0,0.0
15.696,3111.149,0.00032,0.0,0.0
15.703,3109.746,0.00032,0.0,0.0
15.709,3109.738,0.00032,0.0,0.0
15.715,3110.929,0.00032,0.0,0.0
15.722,3100.543,0.00032,0.0,0.0
15.728,3099.536,0.00032,0.0,0.0
15.734,3097.607,0.00032,0.0,0.0
15.74,3094.397,0.00032,0.0,0.0
15.747,3093.792,0.00032,0.0,0.0
15.753,3087.146,0.00032,0.0,0.0
15.759,3097.198,0.00032,0.0,0.0
15.766,3086.778,0.00032,0.0,0.0
15.772,3088.645,0.00032,0.0,0.0
15.778,3082.989,0.00032,0.0,0.0
15.785,3084.93,0.00032,0.0,0.0
15.791,3070.094,0.00033,0.0,0.0
15.797,3070.962,0.00033,0.0,0.0
15.804,3064.499,0.00033,0.0,0.0
15.81,3063.398,0.00033,0.0,0.0
15.816,3057.981,0.00033,0.0,0.0
15.823,3062.686,0.00033,0.0,0.0
15.829,3065.023,0.00033,0.0,0.0
15.835,3069.055,0.00033,0.0,0.0
15.842,3074.8,0.00033,0.0,0.0
15.848,3082.176,0.00032,0.0,0.0
15.854,3063.73,0.00033,0.0,0.0
15.861,3088.001,0.00032,0.0,0.0
15.867,3064.633,0.00033,0.0,0.0
15.873,3065.99,0.00033,0.0,0.0
15.88,3043.715,0.00033,0.0,0.0
15.886,3044.422,0.00033,0.0,0.0
15.892,3043.563,0.00033,0.0,0.0
15.898,3039.396,0.00033,0.0,0.0
15.905,3036.249,0.00033,0.0,0.0
15.911,3030.828,0.00033,0.0,0.0
15.917,3025.046,0.00033,0.0,0.0
15.924,3035.835,0.00033,0.0,0.0
15.93,3025.036,0.00033,0.0,0.0
15.936,3029.18,0.00033,0.0,0.0
15.943,3024.495,0.00033,0.0,0.0
15.949,3029.22,0.00033,0.0,0.0
15.955,3014.577,0.00033,0.0,0.0
15.962,3021.246,0.00033,0.0,0.0
15.968,3015.13,0.00033,0.0,0.0
15.974,3010.861,0.00033,0.0,0.0
15.981,3018.942,0.00033,0.0,0.0
15.987,3008.076,0.00033,0.0,0.0
15.993,3007.096,0.00033,0.0,0.0
16.0,3006.838,0.00033,0.0,0.0
16.006,3009.166,0.00033,0.0,0.0
16.012,3007.704,0.00033,0.0,0.0
16.019,3000.607,0.00033,0.0,0.0
16.025,3008.871,0.00033,0.0,0.0
16.031,2995.928,0.00033,0.0,0.0
16.038,2997.536,0.00033,0.0,0.0
16.044,3000.908,0.00033,0.0,0.0
16.05,2996.832,0.00033,0.0,0.0
16.056,3001.723,0.00033,0.0,0.0
16.063,2994.379,0.00033,0.0,0.0
16.069,2996.367,0.00033,0.0,0.0
16.075,2997.35,0.00033,0.0,0.0
16.082,2988.474,0.00033,0.0,0.0
16.088,2984.903,0.00034,0.0,0.0
16.094,2989.4,0.00033,0.0,0.0
16.101,2988.462,0.00033,0.0,0.0
16.107,2992.395,0.00033,0.0,0.0
16.113,2996.507,0.00033,0.0,0.0
16.12,2986.717,0.00033,0.0,0.0
16.126,2992.737,0.00033,0.0,0.0
16.132,2991.542,0.00033,0.0,0.0
16.139,2994.305,0.00033,0.0,0.0
16.145,2986.237,0.00033,0.0,0.0
16.151,2986.609,0.00033,0.0,0.0
16.158,3003.148,0.00033,0.0,0.0
16.164,2992.506,0.00033,0.0,0.0
16.17,2985.275,0.00033,0.0,0.0
16.177,2984.903,0.00034,0.0,0.0
16.183,2980.016,0.00034,0.0,0.0
16.189,2990.568,0.00033,0.0,0.0
16.196,2998.248,0.00033,0.0,0.0
16.202,2986.428,0.00033,0.0,0.0
16.208,2984.828,0.00034,0.0,0.0
16.214,2986.573,0.00033,0.0,0.0
16.221,2990.961,0.00033,0.0,0.0
16.227,2984.24,0.00034,0.0,0.0
16.233,2987.908,0.00033,0.0,0.0
16.24,2990.436,0.00033,0.0,0.0
16.246,2988.905,0.00033,0.0,0.0
16.252,2991.616,0.00033,0.0,0.0
16.259,2987.558,0.00033,0.0,0.0
16.265,2988.941,0.00033,0.0,0.0
16.271,2995.815,0.00033,0.0,0.0
16.278,2985.696,0.00033,0.0,0.0
16.284,2997.122,0.00033,0.0,0.0
16.29,2982.133,0.00034,0.0,0.0
16.297,2989.165,0.00033,0.0,0.0
16.303,2993.887,0.00033,0.0,0.0
16.309,3006.493,0.00033,0.0,0.0
16.316,3001.602,0.00033,0.0,0.0
16.322,2995.527,0.00033,0.0,0.0
16.328,3000.896,0.00033,0.0,0.0
16.335,3005.137,0.00033,0.0,0.0
16.341,3003.98,0.00033,0.0,0.0
16.347,3012.397,0.00033,0.0,0.0
16.354,2992.702,0.00033,0.0,0.0
16.36,2992.475,0.00033,0.0,0.0
16.366,2998.821,0.00033,0.0,0.0
16.372,2981.488,0.00034,0.0,0.0
16.379,2994.267,0.00033,0.0,0.0
16.385,2991.385,0.00033,0.0,0.0
16.391,2986.898,0.00033,0.0,0.0
16.398,3002.592,0.00033,0.0,0.0
16.404,2990.803,0.00033,0.0,0.0
16.41,2988.272,0.00033,0.0,0.0
16.417,2995.563,0.00033,0.0,0.0
16.423,2999.29,0.00033,0.0,0.0
16.429,2993.688,0.00033,0.0,0.0
16.436,2980.143,0.00034,0.0,0.0
16.442,3000.342,0.00033,0.0,0.0
16.448,2992.689,0.00033,0.0,0.0
16.455,2989.709,0.00033,0.0,0.0
16.461,2989.509,0.00033,0.0,0.0
16.467,2989.774,0.00033,0.0,0.0
16.474,3005.701,0.00033,0.0,0.0
16.48,3006.84,0.00033,0.0,0.0
16.486,2999.381,0.00033,0.0,0.0
16.493,3027.185,0.00033,0.0,0.0
16.499,3041.569,0.00033,0.0,0.0
16.505,3056.277,0.00033,0.0,0.0
16.512,3087.978,0.00032,0.0,0.0
16.518,3115.346,0.00032,0.0,0.0
16.524,3107.261,0.00032,0.0,0.0
16.53,3087.066,0.00032,0.0,0.0
16.537,3052.021,0.00033,0.0,0.0
16.543,3043.766,0.00033,0.0,0.0
16.549,3007.361,0.00033,0.0,0.0
16.556,3002.883,0.00033,0.0,0.0
16.562,2999.861,0.00033,0.0,0.0
16.568,3004.174,0.00033,0.0,0.0
16.575,2999.89,0.00033,0.0,0.0
16.581,3007.33,0.00033,0.0,0.0
16.587,3000.154,0.00033,0.0,0.0
16.594,3000.6,0.00033,0.0,0.0
