"x","y_obs","weight","y_calc","y_bkg"
0.8,2780.734,0.00036,0.0,0.0
0.806,3160.374,0.00032,0.0,0.0
0.813,3262.033,0.00031,0.0,0.0
0.819,3176.317,0.00031,0.0,0.0
0.825,3781.829,0.00026,0.0,0.0
0.832,3511.134,0.00028,0.0,0.0
0.838,3868.769,0.00026,0.0,0.0
0.844,4096.909,0.00024,0.0,0.0
0.851,3970.826,0.00025,0.0,0.0
0.857,4398.989,0.00023,0.0,0.0
0.863,4671.021,0.00021,0.0,0.0
0.87,4321.547,0.00023,0.0,0.0
0.876,5130.182,0.00019,0.0,0.0
0.882,4951.216,0.0002,0.0,0.0
0.888,5208.892,0.00019,0.0,0.0
0.895,5426.622,0.00018,0.0,0.0
0.901,5428.742,0.00018,0.0,0.0
0.907,5855.662,0.00017,0.0,0.0
0.914,5999.759,0.00017,0.0,0.0
0.92,5682.668,0.00018,0.0,0.0
0.926,6242.154,0.00016,0.0,0.0
0.933,6311.527,0.00016,0.0,0.0
0.939,6118.913,0.00016,0.0,0.0
0.945,6674.978,0.00015,0.0,0.0
0.952,6315.328,0.00016,0.0,0.0
0.958,6568.854,0.00015,0.0,0.0
0.964,6682.978,0.00015,0.0,0.0
0.971,6457.175,0.00015,0.0,0.0
0.977,6863.875,0.00015,0.0,0.0
0.983,6809.33,0.00015,0.0,0.0
0.99,6647.186,0.00015,0.0,0.0
0.996,6966.948,0.00014,0.0,0.0
1.002,6706.769,0.00015,0.0,0.0
1.009,6882.199,0.00015,0.0,0.0
1.015,6991.942,0.00014,0.0,0.0
1.021,6729.211,0.00015,0.0,0.0
1.028,6970.638,0.00014,0.0,0.0
1.034,6863.658,0.00015,0.0,0.0
1.04,6854.771,0.00015,0.0,0.0
1.046,6888.023,0.00015,0.0,0.0
1.053,6904.979,0.00014,0.0,0.0
1.059,6873.155,0.00015,0.0,0.0
1.065,6932.96,0.00014,0.0,0.0
1.072,6735.491,0.00015,0.0,0.0
1.078,6856.927,0.00015,0.0,0.0
1.084,6690.327,0.00015,0.0,0.0
1.091,6786.506,0.00015,0.0,0.0
1.097,6769.938,0.00015,0.0,0.0
1.103,6724.38,0.00015,0.0,0.0
1.11,6714.896,0.00015,0.0,0.0
1.116,6619.318,0.00015,0.0,0.0
1.122,6612.274,0.00015,0.0,0.0
1.129,6650.573,0.00015,0.0,0.0
1.135,6521.231,0.00015,0.0,0.0
1.141,6514.398,0.00015,0.0,0.0
1.148,6524.105,0.00015,0.0,0.0
1.154,6386.382,0.00016,0.0,0.0
1.16,6382.037,0.00016,0.0,0.0
1.167,6364.192,0.00016,0.0,0.0
1.173,6357.691,0.00016,0.0,0.0
1.179,6336.114,0.00016,0.0,0.0
1.186,6242.389,0.00016,0.0,0.0
1.192,6182.168,0.00016,0.0,0.0
1.198,6173.814,0.00016,0.0,0.0
1.204,6116.13,0.00016,0.0,0.0
1.211,6138.153,0.00016,0.0,0.0
1.217,6042.929,0.00017,0.0,0.0
1.223,6004.008,0.00017,0.0,0.0
1.23,5991.121,0.00017,0.0,0.0
1.236,5928.38,0.00017,0.0,0.0
1.242,5886.059,0.00017,0.0,0.0
1.249,5915.902,0.00017,0.0,0.0
1.255,5851.688,0.00017,0.0,0.0
1.261,5810.957,0.00017,0.0,0.0
1.268,5824.011,0.00017,0.0,0.0
1.274,5755.819,0.00017,0.0,0.0
1.28,5744.707,0.00017,0.0,0.0
1.287,5765.461,0.00017,0.0,0.0
1.293,5720.167,0.00017,0.0,0.0
1.299,5733.286,0.00017,0.0,0.0
1.306,5659.472,0.00018,0.0,0.0
1.312,5635.35,0.00018,0.0,0.0
1.318,5619.868,0.00018,0.0,0.0
1.325,5560.612,0.00018,0.0,0.0
1.331,5647.765,0.00018,0.0,0.0
1.337,5562.146,0.00018,0.0,0.0
1.344,5556.592,0.00018,0.0,0.0
1.35,5580.01,0.00018,0.0,0.0
1.356,5525.143,0.00018,0.0,0.0
1.362,5549.553,0.00018,0.0,0.0
1.369,5493.046,0.00018,0.0,0.0
1.375,5495.363,0.00018,0.0,0.0
1.381,5473.642,0.00018,0.0,0.0
1.388,5499.499,0.00018,0.0,0.0
1.394,5452.184,0.00018,0.0,0.0
1.4,5446.45,0.00018,0.0,0.0
1.407,5409.187,0.00018,0.0,0.0
1.413,5433.752,0.00018,0.0,0.0
1.419,5424.883,0.00018,0.0,0.0
1.426,5437.175,0.00018,0.0,0.0
1.432,5424.44,0.00018,0.0,0.0
1.438,5458.126,0.00018,0.0,0.0
1.445,5409.502,0.00018,0.0,0.0
1.451,5429.408,0.00018,0.0,0.0
1.457,5429.87,0.00018,0.0,0.0
1.464,5451.152,0.00018,0.0,0.0
1.47,5411.356,0.00018,0.0,0.0
1.476,5383.012,0.00019,0.0,0.0
1.483,5414.962,0.00018,0.0,0.0
1.489,5380.99,0.00019,0.0,0.0
1.495,5379.153,0.00019,0.0,0.0
1.502,5399.285,0.00019,0.0,0.0
1.508,5388.782,0.00019,0.0,0.0
1.514,5396.86,0.00019,0.0,0.0
1.52,5425.324,0.00018,0.0,0.0
1.527,5403.678,0.00019,0.0,0.0
1.533,5403.382,0.00019,0.0,0.0
1.539,5401.972,0.00019,0.0,0.0
1.546,5425.028,0.00018,0.0,0.0
1.552,5430.533,0.00018,0.0,0.0
1.558,5416.143,0.00018,0.0,0.0
1.565,5469.024,0.00018,0.0,0.0
1.571,5407.906,0.00018,0.0,0.0
1.577,5449.97,0.00018,0.0,0.0
1.584,5447.408,0.00018,0.0,0.0
1.59,5476.113,0.00018,0.0,0.0
1.596,5461.752,0.00018,0.0,0.0
1.603,5548.366,0.00018,0.0,0.0
1.609,5521.02,0.00018,0.0,0.0
1.615,5484.625,0.00018,0.0,0.0
1.622,5516.195,0.00018,0.0,0.0
1.628,5539.311,0.00018,0.0,0.0
1.634,5502.416,0.00018,0.0,0.0
1.641,5523.739,0.00018,0.0,0.0
1.647,5555.665,0.00018,0.0,0.0
1.653,5584.727,0.00018,0.0,0.0
1.66,5597.145,0.00018,0.0,0.0
1.666,5614.967,0.00018,0.0,0.0
1.672,5602.24,0.00018,0.0,0.0
1.678,5602.089,0.00018,0.0,0.0
1.685,5672.543,0.00018,0.0,0.0
1.691,5647.776,0.00018,0.0,0.0
1.697,5645.31,0.00018,0.0,0.0
1.704,5653.961,0.00018,0.0,0.0
1.71,5652.03,0.00018,0.0,0.0
1.716,5714.715,0.00017,0.0,0.0
1.723,5718.665,0.00017,0.0,0.0
1.729,5730.307,0.00017,0.0,0.0
1.735,5736.171,0.00017,0.0,0.0
1.742,5729.244,0.00017,0.0,0.0
1.748,5752.59,0.00017,0.0,0.0
1.754,5735.146,0.00017,0.0,0.0
1.761,5778.534,0.00017,0.0,0.0
1.767,5767.991,0.00017,0.0,0.0
1.773,5775.915,0.00017,0.0,0.0
1.78,5772.627,0.00017,0.0,0.0
1.786,5827.866,0.00017,0.0,0.0
1.792,5812.417,0.00017,0.0,0.0
1.799,5815.348,0.00017,0.0,0.0
1.805,5815.824,0.00017,0.0,0.0
1.811,5816.699,0.00017,0.0,0.0
1.818,5789.654,0.00017,0.0,0.0
1.824,5814.097,0.00017,0.0,0.0
1.83,5846.433,0.00017,0.0,0.0
1.836,5815.405,0.00017,0.0,0.0
1.843,5850.886,0.00017,0.0,0.0
1.849,5809.299,0.00017,0.0,0.0
1.855,5852.481,0.00017,0.0,0.0
1.862,5828.209,0.00017,0.0,0.0
1.868,5856.697,0.00017,0.0,0.0
1.874,5829.12,0.00017,0.0,0.0
1.881,5872.956,0.00017,0.0,0.0
1.887,5836.676,0.00017,0.0,0.0
1.893,5828.578,0.00017,0.0,0.0
1.9,5857.333,0.00017,0.0,0.0
1.906,5847.418,0.00017,0.0,0.0
1.912,5871.692,0.00017,0.0,0.0
1.919,5836.852,0.00017,0.0,0.0
1.925,5842.393,0.00017,0.0,0.0
1.931,5859.753,0.00017,0.0,0.0
1.938,5849.662,0.00017,0.0,0.0
1.944,5840.231,0.00017,0.0,0.0
1.95,5803.386,0.00017,0.0,0.0
1.957,5846.355,0.00017,0.0,0.0
1.963,5793.03,0.00017,0.0,0.0
1.969,5812.199,0.00017,0.0,0.0
1.976,5819.226,0.00017,0.0,0.0
1.982,5802.9,0.00017,0.0,0.0
1.988,5834.882,0.00017,0.0,0.0
1.994,5835.757,0.00017,0.0,0.0
2.001,5815.859,0.00017,0.0,0.0
2.007,5853.08,0.00017,0.0,0.0
2.013,5829.344,0.00017,0.0,0.0
2.02,5862.325,0.00017,0.0,0.0
2.026,5842.294,0.00017,0.0,0.0
2.032,5842.259,0.00017,0.0,0.0
2.039,5825.125,0.00017,0.0,0.0
2.045,5849.097,0.00017,0.0,0.0
2.051,5839.824,0.00017,0.0,0.0
2.058,5887.849,0.00017,0.0,0.0
2.064,5859.774,0.00017,0.0,0.0
2.07,5896.47,0.00017,0.0,0.0
2.077,5887.329,0.00017,0.0,0.0
2.083,5900.244,0.00017,0.0,0.0
2.089,5884.412,0.00017,0.0,0.0
2.096,5879.423,0.00017,0.0,0.0
2.102,5903.772,0.00017,0.0,0.0
2.108,5892.847,0.00017,0.0,0.0
2.115,5903.462,0.00017,0.0,0.0
2.121,5888.034,0.00017,0.0,0.0
2.127,5923.465,0.00017,0.0,0.0
2.134,5969.003,0.00017,0.0,0.0
2.14,5956.896,0.00017,0.0,0.0
2.146,5952.492,0.00017,0.0,0.0
2.152,5952.539,0.00017,0.0,0.0
2.159,5957.196,0.00017,0.0,0.0
2.165,5984.716,0.00017,0.0,0.0
2.171,5971.122,0.00017,0.0,0.0
2.178,5985.804,0.00017,0.0,0.0
2.184,5978.201,0.00017,0.0,0.0
2.19,6017.029,0.00017,0.0,0.0
2.197,5998.296,0.00017,0.0,0.0
2.203,6046.409,0.00017,0.0,0.0
2.209,6029.331,0.00017,0.0,0.0
2.216,6067.987,0.00016,0.0,0.0
2.222,6070.427,0.00016,0.0,0.0
2.228,6100.936,0.00016,0.0,0.0
2.235,6109.463,0.00016,0.0,0.0
2.241,6101.715,0.00016,0.0,0.0
2.247,6104.399,0.00016,0.0,0.0
2.254,6150.118,0.00016,0.0,0.0
2.26,6149.115,0.00016,0.0,0.0
2.266,6159.41,0.00016,0.0,0.0
2.273,6186.665,0.00016,0.0,0.0
2.279,6216.72,0.00016,0.0,0.0
2.285,6213.624,0.00016,0.0,0.0
2.292,6252.323,0.00016,0.0,0.0
2.298,6275.722,0.00016,0.0,0.0
2.304,6225.658,0.00016,0.0,0.0
2.31,6279.843,0.00016,0.0,0.0
2.317,6290.974,0.00016,0.0,0.0
2.323,6324.888,0.00016,0.0,0.0
2.329,6351.304,0.00016,0.0,0.0
2.336,6345.766,0.00016,0.0,0.0
2.342,6377.181,0.00016,0.0,0.0
2.348,6391.974,0.00016,0.0,0.0
2.355,6390.189,0.00016,0.0,0.0
2.361,6423.75,0.00016,0.0,0.0
2.367,6462.258,0.00015,0.0,0.0
2.374,6473.718,0.00015,0.0,0.0
2.38,6486.119,0.00015,0.0,0.0
2.386,6549.143,0.00015,0.0,0.0
2.393,6564.173,0.00015,0.0,0.0
2.399,6638.421,0.00015,0.0,0.0
2.405,6734.211,0.00015,0.0,0.0
2.412,6868.664,0.00015,0.0,0.0
2.418,6954.224,0.00014,0.0,0.0
2.424,7050.81,0.00014,0.0,0.0
2.431,7106.825,0.00014,0.0,0.0
2.437,7076.36,0.00014,0.0,0.0
2.443,6998.857,0.00014,0.0,0.0
2.45,6975.597,0.00014,0.0,0.0
2.456,6895.559,0.00015,0.0,0.0
2.462,6859.2,0.00015,0.0,0.0
2.468,6850.404,0.00015,0.0,0.0
2.475,6833.216,0.00015,0.0,0.0
2.481,6869.961,0.00015,0.0,0.0
2.487,6873.9,0.00015,0.0,0.0
2.494,6886.634,0.00015,0.0,0.0
2.5,6896.47,0.00015,0.0,0.0
2.506,6928.709,0.00014,0.0,0.0
2.513,6973.537,0.00014,0.0,0.0
2.519,6976.466,0.00014,0.0,0.0
2.525,7007.42,0.00014,0.0,0.0
2.532,7022.436,0.00014,0.0,0.0
2.538,7041.984,0.00014,0.0,0.0
2.544,7126.347,0.00014,0.0,0.0
2.551,7106.484,0.00014,0.0,0.0
2.557,7112.456,0.00014,0.0,0.0
2.563,7143.993,0.00014,0.0,0.0
2.57,7174.395,0.00014,0.0,0.0
2.576,7185.5,0.00014,0.0,0.0
2.582,7227.008,0.00014,0.0,0.0
2.589,7221.633,0.00014,0.0,0.0
2.595,7301.173,0.00014,0.0,0.0
2.601,7279.402,0.00014,0.0,0.0
2.608,7337.152,0.00014,0.0,0.0
2.614,7327.968,0.00014,0.0,0.0
2.62,7375.443,0.00014,0.0,0.0
2.626,7398.048,0.00014,0.0,0.0
2.633,7391.152,0.00014,0.0,0.0
2.639,7417.854,0.00013,0.0,0.0
2.645,7462.805,0.00013,0.0,0.0
2.652,7462.291,0.00013,0.0,0.0
2.658,7502.663,0.00013,0.0,0.0
2.664,7519.066,0.00013,0.0,0.0
2.671,7536.43,0.00013,0.0,0.0
2.677,7582.835,0.00013,0.0,0.0
2.683,7611.642,0.00013,0.0,0.0
2.69,7616.039,0.00013,0.0,0.0
2.696,7639.292,0.00013,0.0,0.0
2.702,7678.499,0.00013,0.0,0.0
2.709,7714.021,0.00013,0.0,0.0
2.715,7748.35,0.00013,0.0,0.0
2.721,7744.396,0.00013,0.0,0.0
2.728,7789.189,0.00013,0.0,0.0
2.734,7776.062,0.00013,0.0,0.0
2.74,7811.178,0.00013,0.0,0.0
2.747,7862.053,0.00013,0.0,0.0
2.753,7871.27,0.00013,0.0,0.0
2.759,7929.627,0.00013,0.0,0.0
2.766,7927.688,0.00013,0.0,0.0
2.772,7965.478,0.00013,0.0,0.0
2.778,7987.526,0.00013,0.0,0.0
2.784,7968.306,0.00013,0.0,0.0
2.791,8010.339,0.00012,0.0,0.0
2.797,8060.425,0.00012,0.0,0.0
2.803,8087.474,0.00012,0.0,0.0
2.81,8111.643,0.00012,0.0,0.0
2.816,8151.49,0.00012,0.0,0.0
2.822,8160.157,0.00012,0.0,0.0
2.829,8175.098,0.00012,0.0,0.0
2.835,8210.159,0.00012,0.0,0.0
2.841,8242.01,0.00012,0.0,0.0
2.848,8276.51,0.00012,0.0,0.0
2.854,8314.103,0.00012,0.0,0.0
2.86,8302.379,0.00012,0.0,0.0
2.867,8344.002,0.00012,0.0,0.0
2.873,8351.446,0.00012,0.0,0.0
2.879,8376.407,0.00012,0.0,0.0
2.886,8408.212,0.00012,0.0,0.0
2.892,8442.218,0.00012,0.0,0.0
2.898,8461.117,0.00012,0.0,0.0
2.905,8494.547,0.00012,0.0,0.0
2.911,8520.628,0.00012,0.0,0.0
2.917,8538.059,0.00012,0.0,0.0
2.924,8528.248,0.00012,0.0,0.0
2.93,8564.196,0.00012,0.0,0.0
2.936,8613.994,0.00012,0.0,0.0
2.942,8605.885,0.00012,0.0,0.0
2.949,8643.106,0.00012,0.0,0.0
2.955,8661.582,0.00012,0.0,0.0
2.961,8661.578,0.00012,0.0,0.0
2.968,8659.668,0.00012,0.0,0.0
2.974,8690.236,0.00012,0.0,0.0
2.98,8711.802,0.00011,0.0,0.0
2.987,8713.923,0.00011,0.0,0.0
2.993,8731.042,0.00011,0.0,0.0
2.999,8775.317,0.00011,0.0,0.0
3.006,8779.634,0.00011,0.0,0.0
3.012,8802.192,0.00011,0.0,0.0
3.018,8774.768,0.00011,0.0,0.0
3.025,8812.1,0.00011,0.0,0.0
3.031,8807.869,0.00011,0.0,0.0
3.037,8830.71,0.00011,0.0,0.0
3.044,8854.977,0.00011,0.0,0.0
3.05,8836.915,0.00011,0.0,0.0
3.056,8860.139,0.00011,0.0,0.0
3.063,8852.296,0.00011,0.0,0.0
3.069,8862.743,0.00011,0.0,0.0
3.075,8864.657,0.00011,0.0,0.0
3.082,8862.265,0.00011,0.0,0.0
3.088,8853.564,0.00011,0.0,0.0
3.094,8892.336,0.00011,0.0,0.0
3.1,8896.745,0.00011,0.0,0.0
3.107,8885.756,0.00011,0.0,0.0
3.113,8866.644,0.00011,0.0,0.0
3.119,8843.164,0.00011,0.0,0.0
3.126,8868.897,0.00011,0.0,0.0
3.132,8862.376,0.00011,0.0,0.0
3.138,8863.354,0.00011,0.0,0.0
3.145,8861.189,0.00011,0.0,0.0
3.151,8846.263,0.00011,0.0,0.0
3.157,8829.634,0.00011,0.0,0.0
3.164,8839.803,0.00011,0.0,0.0
3.17,8803.144,0.00011,0.0,0.0
3.176,8782.048,0.00011,0.0,0.0
3.183,8806.103,0.00011,0.0,0.0
3.189,8792.715,0.00011,0.0,0.0
3.195,8779.864,0.00011,0.0,0.0
3.202,8797.85,0.00011,0.0,0.0
3.208,8770.904,0.00011,0.0,0.0
3.214,8766.419,0.00011,0.0,0.0
3.221,8755.454,0.00011,0.0,0.0
3.227,8760.036,0.00011,0.0,0.0
3.233,8748.378,0.00011,0.0,0.0
3.24,8715.152,0.00011,0.0,0.0
3.246,8692.669,0.00012,0.0,0.0
3.252,8667.769,0.00012,0.0,0.0
3.258,8663.232,0.00012,0.0,0.0
3.265,8665.802,0.00012,0.0,0.0
3.271,8672.171,0.00012,0.0,0.0
3.277,8626.95,0.00012,0.0,0.0
3.284,8595.559,0.00012,0.0,0.0
3.29,8596.761,0.00012,0.0,0.0
3.296,8574.864,0.00012,0.0,0.0
3.303,8560.165,0.00012,0.0,0.0
3.309,8569.077,0.00012,0.0,0.0
3.315,8555.595,0.00012,0.0,0.0
3.322,8516.743,0.00012,0.0,0.0
3.328,8494.827,0.00012,0.0,0.0
3.334,8498.797,0.00012,0.0,0.0
3.341,8470.286,0.00012,0.0,0.0
3.347,8453.0,0.00012,0.0,0.0
3.353,8426.661,0.00012,0.0,0.0
3.36,8437.032,0.00012,0.0,0.0
3.366,8422.485,0.00012,0.0,0.0
3.372,8410.333,0.00012,0.0,0.0
3.379,8408.032,0.00012,0.0,0.0
3.385,8386.921,0.00012,0.0,0.0
3.391,8368.556,0.00012,0.0,0.0
3.398,8359.06,0.00012,0.0,0.0
3.404,8345.172,0.00012,0.0,0.0
3.41,8345.337,0.00012,0.0,0.0
3.416,8315.041,0.00012,0.0,0.0
3.423,8334.891,0.00012,0.0,0.0
3.429,8302.046,0.00012,0.0,0.0
3.435,8269.952,0.00012,0.0,0.0
3.442,8277.321,0.00012,0.0,0.0
3.448,8210.025,0.00012,0.0,0.0
3.454,8242.718,0.00012,0.0,0.0
3.461,8208.016,0.00012,0.0,0.0
3.467,8232.276,0.00012,0.0,0.0
3.473,8216.587,0.00012,0.0,0.0
3.48,8198.946,0.00012,0.0,0.0
3.486,8184.569,0.00012,0.0,0.0
3.492,8166.797,0.00012,0.0,0.0
3.499,8140.608,0.00012,0.0,0.0
3.505,8122.232,0.00012,0.0,0.0
3.511,8110.127,0.00012,0.0,0.0
3.518,8129.689,0.00012,0.0,0.0
3.524,8163.923,0.00012,0.0,0.0
3.53,8100.575,0.00012,0.0,0.0
3.537,8085.371,0.00012,0.0,0.0
3.543,8102.886,0.00012,0.0,0.0
3.549,8071.772,0.00012,0.0,0.0
3.556,8080.327,0.00012,0.0,0.0
3.562,8062.583,0.00012,0.0,0.0
3.568,8059.628,0.00012,0.0,0.0
3.574,8043.467,0.00012,0.0,0.0
3.581,8025.416,0.00012,0.0,0.0
3.587,8033.104,0.00012,0.0,0.0
3.593,8044.363,0.00012,0.0,0.0
3.6,8034.053,0.00012,0.0,0.0
3.606,8040.539,0.00012,0.0,0.0
3.612,8032.874,0.00012,0.0,0.0
3.619,8026.21,0.00012,0.0,0.0
3.625,8037.198,0.00012,0.0,0.0
3.631,8043.164,0.00012,0.0,0.0
3.638,8021.259,0.00012,0.0,0.0
3.644,8073.767,0.00012,0.0,0.0
3.65,8066.312,0.00012,0.0,0.0
3.657,8076.983,0.00012,0.0,0.0
3.663,8083.834,0.00012,0.0,0.0
3.669,8108.445,0.00012,0.0,0.0
3.676,8099.747,0.00012,0.0,0.0
3.682,8116.147,0.00012,0.0,0.0
3.688,8120.379,0.00012,0.0,0.0
3.695,8177.423,0.00012,0.0,0.0
3.701,8152.321,0.00012,0.0,0.0
3.707,8191.577,0.00012,0.0,0.0
3.714,8211.179,0.00012,0.0,0.0
3.72,8257.665,0.00012,0.0,0.0
3.726,8256.017,0.00012,0.0,0.0
3.732,8300.634,0.00012,0.0,0.0
3.739,8321.387,0.00012,0.0,0.0
3.745,8360.574,0.00012,0.0,0.0
3.751,8404.411,0.00012,0.0,0.0
3.758,8437.11,0.00012,0.0,0.0
3.764,8475.307,0.00012,0.0,0.0
3.77,8507.862,0.00012,0.0,0.0
3.777,8553.443,0.00012,0.0,0.0
3.783,8591.724,0.00012,0.0,0.0
3.789,8628.078,0.00012,0.0,0.0
3.796,8665.334,0.00012,0.0,0.0
3.802,8703.063,0.00011,0.0,0.0
3.808,8755.953,0.00011,0.0,0.0
3.815,8801.834,0.00011,0.0,0.0
3.821,8823.486,0.00011,0.0,0.0
3.827,8888.023,0.00011,0.0,0.0
3.834,8875.962,0.00011,0.0,0.0
3.84,8912.94,0.00011,0.0,0.0
3.846,8941.999,0.00011,0.0,0.0
3.853,8967.667,0.00011,0.0,0.0
3.859,8956.362,0.00011,0.0,0.0
3.865,8990.447,0.00011,0.0,0.0
3.872,8985.307,0.00011,0.0,0.0
3.878,8982.577,0.00011,0.0,0.0
3.884,8961.09,0.00011,0.0,0.0
3.89,8979.389,0.00011,0.0,0.0
3.897,8941.346,0.00011,0.0,0.0
3.903,8917.492,0.00011,0.0,0.0
3.909,8898.124,0.00011,0.0,0.0
3.916,8889.753,0.00011,0.0,0.0
3.922,8902.468,0.00011,0.0,0.0
3.928,8847.079,0.00011,0.0,0.0
3.935,8841.21,0.00011,0.0,0.0
3.941,8783.971,0.00011,0.0,0.0
3.947,8847.865,0.00011,0.0,0.0
3.954,8740.242,0.00011,0.0,0.0
3.96,8750.28,0.00011,0.0,0.0
3.966,8784.586,0.00011,0.0,0.0
3.973,8710.376,0.00011,0.0,0.0
3.979,8636.639,0.00012,0.0,0.0
3.985,8618.332,0.00012,0.0,0.0
3.992,8581.129,0.00012,0.0,0.0
3.998,8562.017,0.00012,0.0,0.0
4.004,8498.986,0.00012,0.0,0.0
4.011,8511.765,0.00012,0.0,0.0
4.017,8457.91,0.00012,0.0,0.0
4.023,8472.331,0.00012,0.0,0.0
4.03,8465.167,0.00012,0.0,0.0
4.036,8411.999,0.00012,0.0,0.0
4.042,8433.736,0.00012,0.0,0.0
4.048,8392.069,0.00012,0.0,0.0
4.055,8366.307,0.00012,0.0,0.0
4.061,8379.031,0.00012,0.0,0.0
4.067,8377.318,0.00012,0.0,0.0
4.074,8362.266,0.00012,0.0,0.0
4.08,8380.97,0.00012,0.0,0.0
4.086,8339.895,0.00012,0.0,0.0
4.093,8372.133,0.00012,0.0,0.0
4.099,8362.138,0.00012,0.0,0.0
4.105,8324.716,0.00012,0.0,0.0
4.112,8356.655,0.00012,0.0,0.0
4.118,8339.431,0.00012,0.0,0.0
4.124,8354.039,0.00012,0.0,0.0
4.131,8352.579,0.00012,0.0,0.0
4.137,8373.061,0.00012,0.0,0.0
4.143,8398.381,0.00012,0.0,0.0
4.15,8389.651,0.00012,0.0,0.0
4.156,8400.757,0.00012,0.0,0.0
4.162,8446.51,0.00012,0.0,0.0
4.169,8388.811,0.00012,0.0,0.0
4.175,8451.499,0.00012,0.0,0.0
4.181,8447.591,0.00012,0.0,0.0
4.188,8449.665,0.00012,0.0,0.0
4.194,8498.962,0.00012,0.0,0.0
4.2,8506.851,0.00012,0.0,0.0
4.206,8528.525,0.00012,0.0,0.0
4.213,8571.838,0.00012,0.0,0.0
4.219,8563.715,0.00012,0.0,0.0
4.225,8603.09,0.00012,0.0,0.0
4.232,8626.38,0.00012,0.0,0.0
4.238,8620.71,0.00012,0.0,0.0
4.244,8677.624,0.00012,0.0,0.0
4.251,8664.726,0.00012,0.0,0.0
4.257,8673.866,0.00012,0.0,0.0
4.263,8805.13,0.00011,0.0,0.0
4.27,8752.594,0.00011,0.0,0.0
4.276,8872.035,0.00011,0.0,0.0
4.282,8850.644,0.00011,0.0,0.0
4.289,8860.062,0.00011,0.0,0.0
4.295,8973.171,0.00011,0.0,0.0
4.301,8929.548,0.00011,0.0,0.0
4.308,9011.445,0.00011,0.0,0.0
4.314,9071.09,0.00011,0.0,0.0
4.32,9042.674,0.00011,0.0,0.0
4.327,9189.465,0.00011,0.0,0.0
4.333,9151.569,0.00011,0.0,0.0
4.339,9234.3,0.00011,0.0,0.0
4.346,9366.926,0.00011,0.0,0.0
4.352,9307.944,0.00011,0.0,0.0
4.358,9472.707,0.00011,0.0,0.0
4.364,9528.583,0.0001,0.0,0.0
4.371,9394.745,0.00011,0.0,0.0
4.377,9815.617,0.0001,0.0,0.0
4.383,9642.526,0.0001,0.0,0.0
4.39,9847.419,0.0001,0.0,0.0
4.396,9927.111,0.0001,0.0,0.0
4.402,9877.489,0.0001,0.0,0.0
4.409,10015.81,0.0001,0.0,0.0
4.415,10140.88,0.0001,0.0,0.0
4.421,10166.095,0.0001,0.0,0.0
4.428,10532.616,0.00009,0.0,0.0
4.434,10471.041,0.0001,0.0,0.0
4.44,10523.638,0.0001,0.0,0.0
4.447,10923.784,0.00009,0.0,0.0
4.453,10743.806,0.00009,0.0,0.0
4.459,11431.667,0.00009,0.0,0.0
4.466,11556.439,0.00009,0.0,0.0
4.472,11507.487,0.00009,0.0,0.0
4.478,12556.717,0.00008,0.0,0.0
4.485,12255.63,0.00008,0.0,0.0
4.491,13226.595,0.00008,0.0,0.0
4.497,14918.534,0.00007,0.0,0.0
4.504,14771.091,0.00007,0.0,0.0
4.51,19316.415,0.00005,0.0,0.0
4.516,20990.065,0.00005,0.0,0.0
4.522,27197.649,0.00004,0.0,0.0
4.529,45797.44,0.00002,0.0,0.0
4.535,48306.475,0.00002,0.0,0.0
4.541,61843.563,0.00002,0.0,0.0
4.548,98165.223,0.00001,0.0,0.0
4.554,69246.241,0.00001,0.0,0.0
4.56,111390.739,0.00001,0.0,0.0
4.567,86969.494,0.00001,0.0,0.0
4.573,84986.072,0.00001,0.0,0.0
4.579,84128.172,0.00001,0.0,0.0
4.586,55932.86,0.00002,0.0,0.0
4.592,51684.15,0.00002,0.0,0.0
4.598,33553.586,0.00003,0.0,0.0
4.605,26605.543,0.00004,0.0,0.0
4.611,20720.934,0.00005,0.0,0.0
4.617,18144.849,0.00006,0.0,0.0
4.624,14266.63,0.00007,0.0,0.0
4.63,15046.329,0.00007,0.0,0.0
4.636,12742.081,0.00008,0.0,0.0
4.643,12833.701,0.00008,0.0,0.0
4.649,12183.036,0.00008,0.0,0.0
4.655,11555.916,0.00009,0.0,0.0
4.662,11830.835,0.00008,0.0,0.0
4.668,11190.232,0.00009,0.0,0.0
4.674,10837.539,0.00009,0.0,0.0
4.68,11107.104,0.00009,0.0,0.0
4.687,10491.15,0.0001,0.0,0.0
4.693,10576.97,0.00009,0.0,0.0
4.699,10525.159,0.0001,0.0,0.0
4.706,10124.434,0.0001,0.0,0.0
4.712,10363.497,0.0001,0.0,0.0
4.718,10004.402,0.0001,0.0,0.0
4.725,9767.929,0.0001,0.0,0.0
4.731,10094.109,0.0001,0.0,0.0
4.737,9612.065,0.0001,0.0,0.0
4.744,9726.592,0.0001,0.0,0.0
4.75,9597.04,0.0001,0.0,0.0
4.756,9470.895,0.00011,0.0,0.0
4.763,9450.939,0.00011,0.0,0.0
4.769,9308.147,0.00011,0.0,0.0
4.775,9250.997,0.00011,0.0,0.0
4.782,9259.921,0.00011,0.0,0.0
4.788,9094.801,0.00011,0.0,0.0
4.794,9014.306,0.00011,0.0,0.0
4.801,9034.904,0.00011,0.0,0.0
4.807,8807.611,0.00011,0.0,0.0
4.813,8924.95,0.00011,0.0,0.0
4.82,8795.672,0.00011,0.0,0.0
4.826,8795.75,0.00011,0.0,0.0
4.832,8805.618,0.00011,0.0,0.0
4.838,8784.615,0.00011,0.0,0.0
4.845,8809.961,0.00011,0.0,0.0
4.851,8907.827,0.00011,0.0,0.0
4.857,8921.021,0.00011,0.0,0.0
4.864,8922.108,0.00011,0.0,0.0
4.87,8828.755,0.00011,0.0,0.0
4.876,8620.234,0.00012,0.0,0.0
4.883,8596.396,0.00012,0.0,0.0
4.889,8321.062,0.00012,0.0,0.0
4.895,8288.975,0.00012,0.0,0.0
4.902,8200.511,0.00012,0.0,0.0
4.908,8118.843,0.00012,0.0,0.0
4.914,8103.337,0.00012,0.0,0.0
4.921,8013.06,0.00012,0.0,0.0
4.927,7963.641,0.00013,0.0,0.0
4.933,7956.029,0.00013,0.0,0.0
4.94,7854.581,0.00013,0.0,0.0
4.946,7859.576,0.00013,0.0,0.0
4.952,7848.349,0.00013,0.0,0.0
4.959,7742.407,0.00013,0.0,0.0
4.965,7791.48,0.00013,0.0,0.0
4.971,7659.67,0.00013,0.0,0.0
4.978,7663.699,0.00013,0.0,0.0
4.984,7668.683,0.00013,0.0,0.0
4.99,7565.444,0.00013,0.0,0.0
4.996,7562.285,0.00013,0.0,0.0
5.003,7533.155,0.00013,0.0,0.0
5.009,7468.016,0.00013,0.0,0.0
5.015,7520.85,0.00013,0.0,0.0
5.022,7429.665,0.00013,0.0,0.0
5.028,7414.039,0.00013,0.0,0.0
5.034,7406.364,0.00014,0.0,0.0
5.041,7336.718,0.00014,0.0,0.0
5.047,7306.008,0.00014,0.0,0.0
5.053,7322.544,0.00014,0.0,0.0
5.06,7268.659,0.00014,0.0,0.0
5.066,7277.603,0.00014,0.0,0.0
5.072,7212.751,0.00014,0.0,0.0
5.079,7163.766,0.00014,0.0,0.0
5.085,7188.391,0.00014,0.0,0.0
5.091,7109.1,0.00014,0.0,0.0
5.098,7119.601,0.00014,0.0,0.0
5.104,7074.322,0.00014,0.0,0.0
5.11,7076.745,0.00014,0.0,0.0
5.117,7063.66,0.00014,0.0,0.0
5.123,7005.215,0.00014,0.0,0.0
5.129,6991.825,0.00014,0.0,0.0
5.136,6990.738,0.00014,0.0,0.0
5.142,6943.558,0.00014,0.0,0.0
5.148,6930.901,0.00014,0.0,0.0
5.154,6937.832,0.00014,0.0,0.0
5.161,6869.992,0.00015,0.0,0.0
5.167,6894.643,0.00015,0.0,0.0
5.173,6851.251,0.00015,0.0,0.0
5.18,6839.885,0.00015,0.0,0.0
5.186,6830.826,0.00015,0.0,0.0
5.192,6797.446,0.00015,0.0,0.0
5.199,6793.773,0.00015,0.0,0.0
5.205,6758.136,0.00015,0.0,0.0
5.211,6739.2,0.00015,0.0,0.0
5.218,6742.962,0.00015,0.0,0.0
5.224,6719.644,0.00015,0.0,0.0
5.23,6703.266,0.00015,0.0,0.0
5.237,6701.705,0.00015,0.0,0.0
5.243,6655.357,0.00015,0.0,0.0
5.249,6643.347,0.00015,0.0,0.0
5.256,6628.972,0.00015,0.0,0.0
5.262,6629.397,0.00015,0.0,0.0
5.268,6604.68,0.00015,0.0,0.0
5.275,6557.662,0.00015,0.0,0.0
5.281,6565.101,0.00015,0.0,0.0
5.287,6557.147,0.00015,0.0,0.0
5.294,6544.689,0.00015,0.0,0.0
5.3,6545.602,0.00015,0.0,0.0
5.306,6514.735,0.00015,0.0,0.0
5.312,6493.905,0.00015,0.0,0.0
5.319,6480.656,0.00015,0.0,0.0
5.325,6445.572,0.00016,0.0,0.0
5.331,6457.812,0.00015,0.0,0.0
5.338,6454.073,0.00015,0.0,0.0
5.344,6415.839,0.00016,0.0,0.0
5.35,6430.565,0.00016,0.0,0.0
5.357,6426.745,0.00016,0.0,0.0
5.363,6378.604,0.00016,0.0,0.0
5.369,6427.532,0.00016,0.0,0.0
5.376,6358.427,0.00016,0.0,0.0
5.382,6388.04,0.00016,0.0,0.0
5.388,6374.012,0.00016,0.0,0.0
5.395,6344.117,0.00016,0.0,0.0
5.401,6357.922,0.00016,0.0,0.0
5.407,6338.662,0.00016,0.0,0.0
5.414,6307.482,0.00016,0.0,0.0
5.42,6338.016,0.00016,0.0,0.0
5.426,6296.522,0.00016,0.0,0.0
5.433,6277.157,0.00016,0.0,0.0
5.439,6306.888,0.00016,0.0,0.0
5.445,6277.933,0.00016,0.0,0.0
5.452,6299.213,0.00016,0.0,0.0
5.458,6252.108,0.00016,0.0,0.0
5.464,6261.908,0.00016,0.0,0.0
5.47,6274.176,0.00016,0.0,0.0
5.477,6257.143,0.00016,0.0,0.0
5.483,6230.605,0.00016,0.0,0.0
5.489,6220.903,0.00016,0.0,0.0
5.496,6237.007,0.00016,0.0,0.0
5.502,6224.758,0.00016,0.0,0.0
5.508,6201.004,0.00016,0.0,0.0
5.515,6194.543,0.00016,0.0,0.0
5.521,6197.855,0.00016,0.0,0.0
5.527,6190.279,0.00016,0.0,0.0
5.534,6212.502,0.00016,0.0,0.0
5.54,6174.488,0.00016,0.0,0.0
5.546,6192.327,0.00016,0.0,0.0
5.553,6199.954,0.00016,0.0,0.0
5.559,6188.733,0.00016,0.0,0.0
5.565,6189.617,0.00016,0.0,0.0
5.572,6191.596,0.00016,0.0,0.0
5.578,6161.444,0.00016,0.0,0.0
5.584,6181.494,0.00016,0.0,0.0
5.591,6154.908,0.00016,0.0,0.0
5.597,6169.919,0.00016,0.0,0.0
5.603,6161.882,0.00016,0.0,0.0
5.61,6152.74,0.00016,0.0,0.0
5.616,6170.107,0.00016,0.0,0.0
5.622,6174.285,0.00016,0.0,0.0
5.628,6174.951,0.00016,0.0,0.0
5.635,6179.17,0.00016,0.0,0.0
5.641,6147.697,0.00016,0.0,0.0
5.647,6142.625,0.00016,0.0,0.0
5.654,6170.29,0.00016,0.0,0.0
5.66,6133.106,0.00016,0.0,0.0
5.666,6176.72,0.00016,0.0,0.0
5.673,6167.907,0.00016,0.0,0.0
5.679,6147.011,0.00016,0.0,0.0
5.685,6183.46,0.00016,0.0,0.0
5.692,6172.312,0.00016,0.0,0.0
5.698,6177.775,0.00016,0.0,0.0
5.704,6190.999,0.00016,0.0,0.0
5.711,6165.589,0.00016,0.0,0.0
5.717,6178.492,0.00016,0.0,0.0
5.723,6192.553,0.00016,0.0,0.0
5.73,6179.63,0.00016,0.0,0.0
5.736,6209.819,0.00016,0.0,0.0
5.742,6211.301,0.00016,0.0,0.0
5.749,6221.596,0.00016,0.0,0.0
5.755,6241.861,0.00016,0.0,0.0
5.761,6250.154,0.00016,0.0,0.0
5.768,6258.682,0.00016,0.0,0.0
5.774,6247.998,0.00016,0.0,0.0
5.78,6306.048,0.00016,0.0,0.0
5.786,6296.354,0.00016,0.0,0.0
5.793,6329.411,0.00016,0.0,0.0
5.799,6322.384,0.00016,0.0,0.0
5.805,6345.932,0.00016,0.0,0.0
5.812,6329.266,0.00016,0.0,0.0
5.818,6383.522,0.00016,0.0,0.0
5.824,6390.623,0.00016,0.0,0.0
5.831,6445.926,0.00016,0.0,0.0
5.837,6454.079,0.00015,0.0,0.0
5.843,6531.884,0.00015,0.0,0.0
5.85,6656.535,0.00015,0.0,0.0
5.856,6816.93,0.00015,0.0,0.0
5.862,7079.463,0.00014,0.0,0.0
5.869,7383.855,0.00014,0.0,0.0
5.875,7668.875,0.00013,0.0,0.0
5.881,7880.499,0.00013,0.0,0.0
5.888,7879.256,0.00013,0.0,0.0
5.894,7645.222,0.00013,0.0,0.0
5.9,7380.78,0.00014,0.0,0.0
5.907,7008.915,0.00014,0.0,0.0
5.913,6724.055,0.00015,0.0,0.0
5.919,6504.986,0.00015,0.0,0.0
5.926,6344.823,0.00016,0.0,0.0
5.932,6254.403,0.00016,0.0,0.0
5.938,6204.387,0.00016,0.0,0.0
5.944,6116.613,0.00016,0.0,0.0
5.951,6148.46,0.00016,0.0,0.0
5.957,6109.198,0.00016,0.0,0.0
5.963,6074.641,0.00016,0.0,0.0
5.97,6069.187,0.00016,0.0,0.0
5.976,6028.152,0.00017,0.0,0.0
5.982,6063.175,0.00016,0.0,0.0
5.989,6036.666,0.00017,0.0,0.0
5.995,6022.032,0.00017,0.0,0.0
6.001,6009.436,0.00017,0.0,0.0
6.008,6024.032,0.00017,0.0,0.0
6.014,6005.967,0.00017,0.0,0.0
6.02,6015.541,0.00017,0.0,0.0
6.027,5971.738,0.00017,0.0,0.0
6.033,5995.904,0.00017,0.0,0.0
6.039,5963.175,0.00017,0.0,0.0
6.046,5966.044,0.00017,0.0,0.0
6.052,5983.719,0.00017,0.0,0.0
6.058,5954.677,0.00017,0.0,0.0
6.065,5964.907,0.00017,0.0,0.0
6.071,5938.772,0.00017,0.0,0.0
6.077,5951.862,0.00017,0.0,0.0
6.084,5928.685,0.00017,0.0,0.0
6.09,5960.348,0.00017,0.0,0.0
6.096,5919.381,0.00017,0.0,0.0
6.102,5950.924,0.00017,0.0,0.0
6.109,5941.145,0.00017,0.0,0.0
6.115,5939.244,0.00017,0.0,0.0
6.121,5914.818,0.00017,0.0,0.0
6.128,5926.739,0.00017,0.0,0.0
6.134,5917.872,0.00017,0.0,0.0
6.14,5930.195,0.00017,0.0,0.0
6.147,5944.653,0.00017,0.0,0.0
6.153,5888.025,0.00017,0.0,0.0
6.159,5932.327,0.00017,0.0,0.0
6.166,5882.238,0.00017,0.0,0.0
6.172,5910.009,0.00017,0.0,0.0
6.178,5918.983,0.00017,0.0,0.0
6.185,5922.118,0.00017,0.0,0.0
6.191,5919.2,0.00017,0.0,0.0
6.197,5977.049,0.00017,0.0,0.0
6.204,5907.856,0.00017,0.0,0.0
6.21,5952.584,0.00017,0.0,0.0
6.216,5929.911,0.00017,0.0,0.0
6.223,5981.261,0.00017,0.0,0.0
6.229,5959.184,0.00017,0.0,0.0
6.235,5959.49,0.00017,0.0,0.0
6.242,5990.667,0.00017,0.0,0.0
6.248,5981.464,0.00017,0.0,0.0
6.254,5966.882,0.00017,0.0,0.0
6.26,5972.459,0.00017,0.0,0.0
6.267,6015.054,0.00017,0.0,0.0
6.273,5991.514,0.00017,0.0,0.0
6.279,6010.166,0.00017,0.0,0.0
6.286,6012.322,0.00017,0.0,0.0
6.292,6033.628,0.00017,0.0,0.0
6.298,6024.727,0.00017,0.0,0.0
6.305,6065.512,0.00016,0.0,0.0
6.311,6069.259,0.00016,0.0,0.0
6.317,6064.705,0.00016,0.0,0.0
6.324,6111.02,0.00016,0.0,0.0
6.33,6083.423,0.00016,0.0,0.0
6.336,6095.119,0.00016,0.0,0.0
6.343,6113.412,0.00016,0.0,0.0
6.349,6169.84,0.00016,0.0,0.0
6.355,6142.851,0.00016,0.0,0.0
6.362,6192.996,0.00016,0.0,0.0
6.368,6221.246,0.00016,0.0,0.0
6.374,6239.767,0.00016,0.0,0.0
6.381,6274.191,0.00016,0.0,0.0
6.387,6375.177,0.00016,0.0,0.0
6.393,6359.332,0.00016,0.0,0.0
6.4,6517.434,0.00015,0.0,0.0
6.406,6682.069,0.00015,0.0,0.0
6.412,6966.403,0.00014,0.0,0.0
6.418,7365.615,0.00014,0.0,0.0
6.425,8622.844,0.00012,0.0,0.0
6.431,10514.607,0.0001,0.0,0.0
6.437,12919.52,0.00008,0.0,0.0
6.444,14412.473,0.00007,0.0,0.0
6.45,17535.257,0.00006,0.0,0.0
6.456,15429.759,0.00006,0.0,0.0
6.463,18515.557,0.00005,0.0,0.0
6.469,17199.723,0.00006,0.0,0.0
6.475,12615.264,0.00008,0.0,0.0
6.482,10787.138,0.00009,0.0,0.0
6.488,9362.417,0.00011,0.0,0.0
6.494,7351.479,0.00014,0.0,0.0
6.501,7300.373,0.00014,0.0,0.0
6.507,6875.213,0.00015,0.0,0.0
6.513,6749.914,0.00015,0.0,0.0
6.52,6693.29,0.00015,0.0,0.0
6.526,6696.366,0.00015,0.0,0.0
6.532,6720.762,0.00015,0.0,0.0
6.539,6828.659,0.00015,0.0,0.0
6.545,6950.937,0.00014,0.0,0.0
6.551,7162.5,0.00014,0.0,0.0
6.558,7542.166,0.00013,0.0,0.0
6.564,8207.69,0.00012,0.0,0.0
6.57,9042.451,0.00011,0.0,0.0
6.576,11336.698,0.00009,0.0,0.0
6.583,13977.746,0.00007,0.0,0.0
6.589,21972.218,0.00005,0.0,0.0
6.595,36657.188,0.00003,0.0,0.0
6.602,50508.767,0.00002,0.0,0.0
6.608,86419.741,0.00001,0.0,0.0
6.614,96759.602,0.00001,0.0,0.0
6.621,105934.83,0.00001,0.0,0.0
6.627,97144.065,0.00001,0.0,0.0
6.633,78218.163,0.00001,0.0,0.0
6.64,50091.033,0.00002,0.0,0.0
6.646,32954.416,0.00003,0.0,0.0
6.652,20488.564,0.00005,0.0,0.0
6.659,14755.664,0.00007,0.0,0.0
6.665,10725.358,0.00009,0.0,0.0
6.671,9185.515,0.00011,0.0,0.0
6.678,7978.31,0.00013,0.0,0.0
6.684,7367.506,0.00014,0.0,0.0
6.69,6943.857,0.00014,0.0,0.0
6.697,6674.835,0.00015,0.0,0.0
6.703,6474.799,0.00015,0.0,0.0
6.709,6352.047,0.00016,0.0,0.0
6.716,6267.857,0.00016,0.0,0.0
6.722,6192.833,0.00016,0.0,0.0
6.728,6162.649,0.00016,0.0,0.0
6.734,6102.282,0.00016,0.0,0.0
6.741,6062.467,0.00016,0.0,0.0
6.747,6014.953,0.00017,0.0,0.0
6.753,6015.749,0.00017,0.0,0.0
6.76,5982.936,0.00017,0.0,0.0
6.766,5981.759,0.00017,0.0,0.0
6.772,5939.204,0.00017,0.0,0.0
6.779,5956.049,0.00017,0.0,0.0
6.785,5968.777,0.00017,0.0,0.0
6.791,5929.715,0.00017,0.0,0.0
6.798,5985.297,0.00017,0.0,0.0
6.804,5950.778,0.00017,0.0,0.0
6.81,5971.47,0.00017,0.0,0.0
6.817,5963.878,0.00017,0.0,0.0
6.823,5968.0,0.00017,0.0,0.0
6.829,5909.025,0.00017,0.0,0.0
6.836,5948.291,0.00017,0.0,0.0
6.842,5865.253,0.00017,0.0,0.0
6.848,5861.932,0.00017,0.0,0.0
6.855,5850.909,0.00017,0.0,0.0
6.861,5832.974,0.00017,0.0,0.0
6.867,5833.87,0.00017,0.0,0.0
6.874,5796.31,0.00017,0.0,0.0
6.88,5822.799,0.00017,0.0,0.0
6.886,5799.964,0.00017,0.0,0.0
6.892,5788.171,0.00017,0.0,0.0
6.899,5802.319,0.00017,0.0,0.0
6.905,5800.023,0.00017,0.0,0.0
6.911,5768.804,0.00017,0.0,0.0
6.918,5796.071,0.00017,0.0,0.0
6.924,5779.299,0.00017,0.0,0.0
6.93,5809.729,0.00017,0.0,0.0
6.937,5821.446,0.00017,0.0,0.0
6.943,5791.403,0.00017,0.0,0.0
6.949,5819.899,0.00017,0.0,0.0
6.956,5795.204,0.00017,0.0,0.0
6.962,5808.123,0.00017,0.0,0.0
6.968,5829.306,0.00017,0.0,0.0
6.975,5807.862,0.00017,0.0,0.0
6.981,5813.842,0.00017,0.0,0.0
6.987,5840.449,0.00017,0.0,0.0
6.994,5820.641,0.00017,0.0,0.0
7.0,5861.502,0.00017,0.0,0.0
7.006,5840.946,0.00017,0.0,0.0
7.013,5854.852,0.00017,0.0,0.0
7.019,5870.974,0.00017,0.0,0.0
7.025,5861.798,0.00017,0.0,0.0
7.032,5860.325,0.00017,0.0,0.0
7.038,5873.387,0.00017,0.0,0.0
7.044,5874.283,0.00017,0.0,0.0
7.05,5867.996,0.00017,0.0,0.0
7.057,5910.15,0.00017,0.0,0.0
7.063,5903.082,0.00017,0.0,0.0
7.069,5891.544,0.00017,0.0,0.0
7.076,5891.988,0.00017,0.0,0.0
7.082,5905.707,0.00017,0.0,0.0
7.088,5923.89,0.00017,0.0,0.0
7.095,5913.672,0.00017,0.0,0.0
7.101,5913.634,0.00017,0.0,0.0
7.107,5906.033,0.00017,0.0,0.0
7.114,5909.988,0.00017,0.0,0.0
7.12,5921.95,0.00017,0.0,0.0
7.126,5907.992,0.00017,0.0,0.0
7.133,5895.732,0.00017,0.0,0.0
7.139,5928.88,0.00017,0.0,0.0
7.145,5917.102,0.00017,0.0,0.0
7.152,5894.358,0.00017,0.0,0.0
7.158,5903.158,0.00017,0.0,0.0
7.164,5894.15,0.00017,0.0,0.0
7.171,5900.142,0.00017,0.0,0.0
7.177,5891.412,0.00017,0.0,0.0
7.183,5874.286,0.00017,0.0,0.0
7.19,5878.736,0.00017,0.0,0.0
7.196,5869.171,0.00017,0.0,0.0
7.202,5851.081,0.00017,0.0,0.0
7.208,5860.83,0.00017,0.0,0.0
7.215,5845.529,0.00017,0.0,0.0
7.221,5828.544,0.00017,0.0,0.0
7.227,5856.714,0.00017,0.0,0.0
7.234,5819.523,0.00017,0.0,0.0
7.24,5782.916,0.00017,0.0,0.0
7.246,5791.168,0.00017,0.0,0.0
7.253,5785.351,0.00017,0.0,0.0
7.259,5796.371,0.00017,0.0,0.0
7.265,5780.406,0.00017,0.0,0.0
7.272,5770.593,0.00017,0.0,0.0
7.278,5803.437,0.00017,0.0,0.0
7.284,5791.66,0.00017,0.0,0.0
7.291,5815.092,0.00017,0.0,0.0
7.297,5810.409,0.00017,0.0,0.0
7.303,5814.74,0.00017,0.0,0.0
7.31,5790.804,0.00017,0.0,0.0
7.316,5760.465,0.00017,0.0,0.0
7.322,5742.429,0.00017,0.0,0.0
7.329,5714.589,0.00017,0.0,0.0
7.335,5694.59,0.00018,0.0,0.0
7.341,5671.019,0.00018,0.0,0.0
7.348,5673.084,0.00018,0.0,0.0
7.354,5664.548,0.00018,0.0,0.0
7.36,5640.225,0.00018,0.0,0.0
7.366,5645.517,0.00018,0.0,0.0
7.373,5640.012,0.00018,0.0,0.0
7.379,5653.822,0.00018,0.0,0.0
7.385,5641.47,0.00018,0.0,0.0
7.392,5635.857,0.00018,0.0,0.0
7.398,5622.02,0.00018,0.0,0.0
7.404,5622.887,0.00018,0.0,0.0
7.411,5616.574,0.00018,0.0,0.0
7.417,5633.121,0.00018,0.0,0.0
7.423,5614.404,0.00018,0.0,0.0
7.43,5620.68,0.00018,0.0,0.0
7.436,5653.667,0.00018,0.0,0.0
7.442,5646.32,0.00018,0.0,0.0
7.449,5655.225,0.00018,0.0,0.0
7.455,5656.534,0.00018,0.0,0.0
7.461,5644.1,0.00018,0.0,0.0
7.468,5685.2,0.00018,0.0,0.0
7.474,5658.906,0.00018,0.0,0.0
7.48,5704.597,0.00018,0.0,0.0
7.487,5682.851,0.00018,0.0,0.0
7.493,5693.497,0.00018,0.0,0.0
7.499,5703.825,0.00018,0.0,0.0
7.506,5725.388,0.00017,0.0,0.0
7.512,5736.492,0.00017,0.0,0.0
7.518,5745.259,0.00017,0.0,0.0
7.524,5780.463,0.00017,0.0,0.0
7.531,5792.96,0.00017,0.0,0.0
7.537,5823.421,0.00017,0.0,0.0
7.543,5857.347,0.00017,0.0,0.0
7.55,5913.07,0.00017,0.0,0.0
7.556,5939.758,0.00017,0.0,0.0
7.562,6045.963,0.00017,0.0,0.0
7.569,6160.673,0.00016,0.0,0.0
7.575,6267.053,0.00016,0.0,0.0
7.581,6521.013,0.00015,0.0,0.0
7.588,6816.236,0.00015,0.0,0.0
7.594,7275.752,0.00014,0.0,0.0
7.6,8324.757,0.00012,0.0,0.0
7.607,9656.234,0.0001,0.0,0.0
7.613,12695.974,0.00008,0.0,0.0
7.619,17890.09,0.00006,0.0,0.0
7.626,26020.665,0.00004,0.0,0.0
7.632,37938.444,0.00003,0.0,0.0
7.638,44788.798,0.00002,0.0,0.0
7.645,55524.812,0.00002,0.0,0.0
7.651,51715.063,0.00002,0.0,0.0
7.657,44823.916,0.00002,0.0,0.0
7.664,35761.131,0.00003,0.0,0.0
7.67,23093.159,0.00004,0.0,0.0
7.676,15925.882,0.00006,0.0,0.0
7.682,11900.428,0.00008,0.0,0.0
7.689,9288.281,0.00011,0.0,0.0
7.695,8076.556,0.00012,0.0,0.0
7.701,7334.657,0.00014,0.0,0.0
7.708,6858.801,0.00015,0.0,0.0
7.714,6630.409,0.00015,0.0,0.0
7.72,6463.03,0.00015,0.0,0.0
7.727,6352.329,0.00016,0.0,0.0
7.733,6290.6,0.00016,0.0,0.0
7.739,6224.396,0.00016,0.0,0.0
7.746,6233.23,0.00016,0.0,0.0
7.752,6211.252,0.00016,0.0,0.0
7.758,6204.166,0.00016,0.0,0.0
7.765,6207.48,0.00016,0.0,0.0
7.771,6212.95,0.00016,0.0,0.0
7.777,6237.294,0.00016,0.0,0.0
7.784,6245.086,0.00016,0.0,0.0
7.79,6244.864,0.00016,0.0,0.0
7.796,6276.006,0.00016,0.0,0.0
7.803,6317.506,0.00016,0.0,0.0
7.809,6314.836,0.00016,0.0,0.0
7.815,6398.054,0.00016,0.0,0.0
7.822,6383.523,0.00016,0.0,0.0
7.828,6462.472,0.00015,0.0,0.0
7.834,6473.498,0.00015,0.0,0.0
7.84,6520.821,0.00015,0.0,0.0
7.847,6651.395,0.00015,0.0,0.0
7.853,6716.731,0.00015,0.0,0.0
7.859,6879.204,0.00015,0.0,0.0
7.866,7069.942,0.00014,0.0,0.0
7.872,7383.618,0.00014,0.0,0.0
7.878,8225.92,0.00012,0.0,0.0
7.885,9214.412,0.00011,0.0,0.0
7.891,11643.473,0.00009,0.0,0.0
7.897,15371.964,0.00007,0.0,0.0
7.904,16008.895,0.00006,0.0,0.0
7.91,19263.997,0.00005,0.0,0.0
7.916,18827.795,0.00005,0.0,0.0
7.923,16344.818,0.00006,0.0,0.0
7.929,12220.101,0.00008,0.0,0.0
7.935,9675.972,0.0001,0.0,0.0
7.942,8606.756,0.00012,0.0,0.0
7.948,7794.885,0.00013,0.0,0.0
7.954,7286.288,0.00014,0.0,0.0
7.961,7101.737,0.00014,0.0,0.0
7.967,6963.443,0.00014,0.0,0.0
7.973,6838.566,0.00015,0.0,0.0
7.98,6812.419,0.00015,0.0,0.0
7.986,6711.939,0.00015,0.0,0.0
7.992,6697.768,0.00015,0.0,0.0
7.998,6697.407,0.00015,0.0,0.0
8.005,6638.034,0.00015,0.0,0.0
8.011,6577.122,0.00015,0.0,0.0
8.017,6637.514,0.00015,0.0,0.0
8.024,6605.066,0.00015,0.0,0.0
8.03,6608.115,0.00015,0.0,0.0
8.036,6610.554,0.00015,0.0,0.0
8.043,6580.395,0.00015,0.0,0.0
8.049,6582.953,0.00015,0.0,0.0
8.055,6569.704,0.00015,0.0,0.0
8.062,6615.323,0.00015,0.0,0.0
8.068,6601.525,0.00015,0.0,0.0
8.074,6606.564,0.00015,0.0,0.0
8.081,6610.343,0.00015,0.0,0.0
8.087,6617.089,0.00015,0.0,0.0
8.093,6623.735,0.00015,0.0,0.0
8.1,6624.246,0.00015,0.0,0.0
8.106,6630.717,0.00015,0.0,0.0
8.112,6659.809,0.00015,0.0,0.0
8.119,6701.667,0.00015,0.0,0.0
8.125,6739.366,0.00015,0.0,0.0
8.131,6806.365,0.00015,0.0,0.0
8.138,6828.794,0.00015,0.0,0.0
8.144,6892.676,0.00015,0.0,0.0
8.15,6904.603,0.00014,0.0,0.0
8.156,6878.209,0.00015,0.0,0.0
8.163,6791.061,0.00015,0.0,0.0
8.169,6708.234,0.00015,0.0,0.0
8.175,6656.078,0.00015,0.0,0.0
8.182,6598.016,0.00015,0.0,0.0
8.188,6535.438,0.00015,0.0,0.0
8.194,6530.012,0.00015,0.0,0.0
8.201,6513.016,0.00015,0.0,0.0
8.207,6494.709,0.00015,0.0,0.0
8.213,6487.605,0.00015,0.0,0.0
8.22,6436.44,0.00016,0.0,0.0
8.226,6436.979,0.00016,0.0,0.0
8.232,6433.382,0.00016,0.0,0.0
8.239,6403.537,0.00016,0.0,0.0
8.245,6386.28,0.00016,0.0,0.0
8.251,6383.468,0.00016,0.0,0.0
8.258,6372.448,0.00016,0.0,0.0
8.264,6365.172,0.00016,0.0,0.0
8.27,6344.07,0.00016,0.0,0.0
8.277,6316.543,0.00016,0.0,0.0
8.283,6332.573,0.00016,0.0,0.0
8.289,6309.867,0.00016,0.0,0.0
8.296,6285.747,0.00016,0.0,0.0
8.302,6281.542,0.00016,0.0,0.0
8.308,6274.64,0.00016,0.0,0.0
8.314,6267.64,0.00016,0.0,0.0
8.321,6261.422,0.00016,0.0,0.0
8.327,6263.156,0.00016,0.0,0.0
8.333,6271.954,0.00016,0.0,0.0
8.34,6287.869,0.00016,0.0,0.0
8.346,6292.604,0.00016,0.0,0.0
8.352,6333.045,0.00016,0.0,0.0
8.359,6354.442,0.00016,0.0,0.0
8.365,6396.834,0.00016,0.0,0.0
8.371,6425.787,0.00016,0.0,0.0
8.378,6436.449,0.00016,0.0,0.0
8.384,6415.954,0.00016,0.0,0.0
8.39,6420.947,0.00016,0.0,0.0
8.397,6371.067,0.00016,0.0,0.0
8.403,6299.615,0.00016,0.0,0.0
8.409,6249.457,0.00016,0.0,0.0
8.416,6211.971,0.00016,0.0,0.0
8.422,6166.237,0.00016,0.0,0.0
8.428,6148.118,0.00016,0.0,0.0
8.435,6118.939,0.00016,0.0,0.0
8.441,6108.989,0.00016,0.0,0.0
8.447,6094.629,0.00016,0.0,0.0
8.454,6101.223,0.00016,0.0,0.0
8.46,6089.158,0.00016,0.0,0.0
8.466,6089.558,0.00016,0.0,0.0
8.472,6080.583,0.00016,0.0,0.0
8.479,6089.038,0.00016,0.0,0.0
8.485,6077.453,0.00016,0.0,0.0
8.491,6091.642,0.00016,0.0,0.0
8.498,6096.885,0.00016,0.0,0.0
8.504,6075.795,0.00016,0.0,0.0
8.51,6063.094,0.00016,0.0,0.0
8.517,6074.853,0.00016,0.0,0.0
8.523,6042.897,0.00017,0.0,0.0
8.529,6050.785,0.00017,0.0,0.0
8.536,6026.249,0.00017,0.0,0.0
8.542,6020.089,0.00017,0.0,0.0
8.548,6024.951,0.00017,0.0,0.0
8.555,6030.319,0.00017,0.0,0.0
8.561,6026.192,0.00017,0.0,0.0
8.567,5996.992,0.00017,0.0,0.0
8.574,5999.995,0.00017,0.0,0.0
8.58,5990.486,0.00017,0.0,0.0
8.586,5991.692,0.00017,0.0,0.0
8.593,5996.789,0.00017,0.0,0.0
8.599,5976.215,0.00017,0.0,0.0
8.605,5982.28,0.00017,0.0,0.0
8.612,5963.868,0.00017,0.0,0.0
8.618,5995.191,0.00017,0.0,0.0
8.624,5970.623,0.00017,0.0,0.0
8.63,5972.23,0.00017,0.0,0.0
8.637,5971.516,0.00017,0.0,0.0
8.643,5965.228,0.00017,0.0,0.0
8.649,5965.407,0.00017,0.0,0.0
8.656,5955.433,0.00017,0.0,0.0
8.662,5979.323,0.00017,0.0,0.0
8.668,5977.797,0.00017,0.0,0.0
8.675,5954.33,0.00017,0.0,0.0
8.681,5960.821,0.00017,0.0,0.0
8.687,5947.878,0.00017,0.0,0.0
8.694,5972.338,0.00017,0.0,0.0
8.7,5944.463,0.00017,0.0,0.0
8.706,5961.482,0.00017,0.0,0.0
8.713,5953.603,0.00017,0.0,0.0
8.719,5961.876,0.00017,0.0,0.0
8.725,5961.172,0.00017,0.0,0.0
8.732,5954.095,0.00017,0.0,0.0
8.738,5948.235,0.00017,0.0,0.0
8.744,5956.329,0.00017,0.0,0.0
8.751,5951.835,0.00017,0.0,0.0
8.757,5956.731,0.00017,0.0,0.0
8.763,5958.965,0.00017,0.0,0.0
8.77,5955.224,0.00017,0.0,0.0
8.776,5965.059,0.00017,0.0,0.0
8.782,5955.953,0.00017,0.0,0.0
8.788,5940.373,0.00017,0.0,0.0
8.795,5948.191,0.00017,0.0,0.0
8.801,5946.638,0.00017,0.0,0.0
8.807,5957.948,0.00017,0.0,0.0
8.814,5943.538,0.00017,0.0,0.0
8.82,5961.395,0.00017,0.0,0.0
8.826,5951.467,0.00017,0.0,0.0
8.833,5938.844,0.00017,0.0,0.0
8.839,5953.706,0.00017,0.0,0.0
8.845,5943.298,0.00017,0.0,0.0
8.852,5949.177,0.00017,0.0,0.0
8.858,5951.605,0.00017,0.0,0.0
8.864,5961.308,0.00017,0.0,0.0
8.871,5954.537,0.00017,0.0,0.0
8.877,5954.561,0.00017,0.0,0.0
8.883,5962.573,0.00017,0.0,0.0
8.89,5972.859,0.00017,0.0,0.0
8.896,5966.615,0.00017,0.0,0.0
8.902,5963.202,0.00017,0.0,0.0
8.909,5990.676,0.00017,0.0,0.0
8.915,5965.792,0.00017,0.0,0.0
8.921,5990.613,0.00017,0.0,0.0
8.928,5980.275,0.00017,0.0,0.0
8.934,5988.416,0.00017,0.0,0.0
8.94,6009.09,0.00017,0.0,0.0
8.946,5977.885,0.00017,0.0,0.0
8.953,5997.573,0.00017,0.0,0.0
8.959,6001.866,0.00017,0.0,0.0
8.965,5997.901,0.00017,0.0,0.0
8.972,6016.784,0.00017,0.0,0.0
8.978,6021.002,0.00017,0.0,0.0
8.984,6007.668,0.00017,0.0,0.0
8.991,6041.901,0.00017,0.0,0.0
8.997,6026.069,0.00017,0.0,0.0
9.003,6051.813,0.00017,0.0,0.0
9.01,6035.47,0.00017,0.0,0.0
9.016,6037.051,0.00017,0.0,0.0
9.022,6108.206,0.00016,0.0,0.0
9.029,6047.854,0.00017,0.0,0.0
9.035,6097.094,0.00016,0.0,0.0
9.041,6100.192,0.00016,0.0,0.0
9.048,6108.37,0.00016,0.0,0.0
9.054,6146.859,0.00016,0.0,0.0
9.06,6136.622,0.00016,0.0,0.0
9.067,6118.082,0.00016,0.0,0.0
9.073,6220.969,0.00016,0.0,0.0
9.079,6210.41,0.00016,0.0,0.0
9.086,6249.482,0.00016,0.0,0.0
9.092,6363.642,0.00016,0.0,0.0
9.098,6362.326,0.00016,0.0,0.0
9.104,6691.491,0.00015,0.0,0.0
9.111,6820.203,0.00015,0.0,0.0
9.117,7775.284,0.00013,0.0,0.0
9.123,8066.169,0.00012,0.0,0.0
9.13,9353.116,0.00011,0.0,0.0
9.136,9928.13,0.0001,0.0,0.0
9.142,10424.675,0.0001,0.0,0.0
9.149,12865.438,0.00008,0.0,0.0
9.155,8682.194,0.00012,0.0,0.0
9.161,7462.983,0.00013,0.0,0.0
9.168,9259.863,0.00011,0.0,0.0
9.174,6597.764,0.00015,0.0,0.0
9.18,6676.562,0.00015,0.0,0.0
9.187,6566.45,0.00015,0.0,0.0
9.193,6312.205,0.00016,0.0,0.0
9.199,6343.367,0.00016,0.0,0.0
9.206,6275.84,0.00016,0.0,0.0
9.212,6218.27,0.00016,0.0,0.0
9.218,6255.469,0.00016,0.0,0.0
9.225,6197.874,0.00016,0.0,0.0
9.231,6170.186,0.00016,0.0,0.0
9.237,6193.072,0.00016,0.0,0.0
9.244,6130.245,0.00016,0.0,0.0
9.25,6112.131,0.00016,0.0,0.0
9.256,6107.567,0.00016,0.0,0.0
9.262,6067.982,0.00016,0.0,0.0
9.269,6107.619,0.00016,0.0,0.0
9.275,6065.824,0.00016,0.0,0.0
9.281,6051.947,0.00017,0.0,0.0
9.288,6038.479,0.00017,0.0,0.0
9.294,6005.208,0.00017,0.0,0.0
9.3,6007.072,0.00017,0.0,0.0
9.307,5992.081,0.00017,0.0,0.0
9.313,5954.601,0.00017,0.0,0.0
9.319,5959.402,0.00017,0.0,0.0
9.326,5930.806,0.00017,0.0,0.0
9.332,5919.548,0.00017,0.0,0.0
9.338,5923.875,0.00017,0.0,0.0
9.345,5865.355,0.00017,0.0,0.0
9.351,5885.451,0.00017,0.0,0.0
9.357,5851.649,0.00017,0.0,0.0
9.364,5825.998,0.00017,0.0,0.0
9.37,5823.754,0.00017,0.0,0.0
9.376,5778.606,0.00017,0.0,0.0
9.383,5792.418,0.00017,0.0,0.0
9.389,5764.647,0.00017,0.0,0.0
9.395,5755.093,0.00017,0.0,0.0
9.402,5737.605,0.00017,0.0,0.0
9.408,5743.548,0.00017,0.0,0.0
9.414,5719.46,0.00017,0.0,0.0
9.42,5718.216,0.00017,0.0,0.0
9.427,5692.643,0.00018,0.0,0.0
9.433,5693.566,0.00018,0.0,0.0
9.439,5667.726,0.00018,0.0,0.0
9.446,5653.045,0.00018,0.0,0.0
9.452,5670.833,0.00018,0.0,0.0
9.458,5641.676,0.00018,0.0,0.0
9.465,5646.121,0.00018,0.0,0.0
9.471,5656.086,0.00018,0.0,0.0
9.477,5666.511,0.00018,0.0,0.0
9.484,5683.179,0.00018,0.0,0.0
9.49,5678.024,0.00018,0.0,0.0
9.496,5684.043,0.00018,0.0,0.0
9.503,5669.507,0.00018,0.0,0.0
9.509,5620.758,0.00018,0.0,0.0
9.515,5596.622,0.00018,0.0,0.0
9.522,5585.154,0.00018,0.0,0.0
9.528,5543.413,0.00018,0.0,0.0
9.534,5528.358,0.00018,0.0,0.0
9.541,5509.424,0.00018,0.0,0.0
9.547,5487.991,0.00018,0.0,0.0
9.553,5497.712,0.00018,0.0,0.0
9.56,5469.313,0.00018,0.0,0.0
9.566,5464.868,0.00018,0.0,0.0
9.572,5469.996,0.00018,0.0,0.0
9.578,5457.699,0.00018,0.0,0.0
9.585,5444.157,0.00018,0.0,0.0
9.591,5437.23,0.00018,0.0,0.0
9.597,5424.157,0.00018,0.0,0.0
9.604,5416.29,0.00018,0.0,0.0
9.61,5413.153,0.00018,0.0,0.0
9.616,5396.467,0.00019,0.0,0.0
9.623,5405.95,0.00018,0.0,0.0
9.629,5398.563,0.00019,0.0,0.0
9.635,5402.115,0.00019,0.0,0.0
9.642,5395.42,0.00019,0.0,0.0
9.648,5368.089,0.00019,0.0,0.0
9.654,5388.107,0.00019,0.0,0.0
9.661,5362.911,0.00019,0.0,0.0
9.667,5367.224,0.00019,0.0,0.0
9.673,5364.983,0.00019,0.0,0.0
9.68,5347.078,0.00019,0.0,0.0
9.686,5369.377,0.00019,0.0,0.0
9.692,5347.173,0.00019,0.0,0.0
9.699,5347.77,0.00019,0.0,0.0
9.705,5375.567,0.00019,0.0,0.0
9.711,5356.881,0.00019,0.0,0.0
9.718,5362.294,0.00019,0.0,0.0
9.724,5340.144,0.00019,0.0,0.0
9.73,5351.621,0.00019,0.0,0.0
9.736,5350.974,0.00019,0.0,0.0
9.743,5334.055,0.00019,0.0,0.0
9.749,5345.197,0.00019,0.0,0.0
9.755,5339.906,0.00019,0.0,0.0
9.762,5329.026,0.00019,0.0,0.0
9.768,5343.699,0.00019,0.0,0.0
9.774,5327.898,0.00019,0.0,0.0
9.781,5318.312,0.00019,0.0,0.0
9.787,5335.782,0.00019,0.0,0.0
9.793,5329.426,0.00019,0.0,0.0
9.8,5342.321,0.00019,0.0,0.0
9.806,5333.743,0.00019,0.0,0.0
9.812,5322.013,0.00019,0.0,0.0
9.819,5349.088,0.00019,0.0,0.0
9.825,5326.172,0.00019,0.0,0.0
9.831,5331.758,0.00019,0.0,0.0
9.838,5334.178,0.00019,0.0,0.0
9.844,5330.203,0.00019,0.0,0.0
9.85,5333.753,0.00019,0.0,0.0
9.857,5321.991,0.00019,0.0,0.0
9.863,5322.659,0.00019,0.0,0.0
9.869,5350.644,0.00019,0.0,0.0
9.876,5320.865,0.00019,0.0,0.0
9.882,5339.485,0.00019,0.0,0.0
9.888,5337.307,0.00019,0.0,0.0
9.894,5320.624,0.00019,0.0,0.0
9.901,5341.819,0.00019,0.0,0.0
9.907,5328.049,0.00019,0.0,0.0
9.913,5346.665,0.00019,0.0,0.0
9.92,5330.224,0.00019,0.0,0.0
9.926,5328.766,0.00019,0.0,0.0
9.932,5367.459,0.00019,0.0,0.0
9.939,5348.015,0.00019,0.0,0.0
9.945,5348.182,0.00019,0.0,0.0
9.951,5387.63,0.00019,0.0,0.0
9.958,5351.23,0.00019,0.0,0.0
9.964,5370.343,0.00019,0.0,0.0
9.97,5378.746,0.00019,0.0,0.0
9.977,5365.26,0.00019,0.0,0.0
9.983,5406.524,0.00018,0.0,0.0
9.989,5388.27,0.00019,0.0,0.0
9.996,5389.007,0.00019,0.0,0.0
10.002,5430.008,0.00018,0.0,0.0
10.008,5385.929,0.00019,0.0,0.0
10.015,5435.817,0.00018,0.0,0.0
10.021,5406.445,0.00018,0.0,0.0
10.027,5424.794,0.00018,0.0,0.0
10.034,5446.268,0.00018,0.0,0.0
10.04,5435.722,0.00018,0.0,0.0
10.046,5458.561,0.00018,0.0,0.0
10.052,5467.035,0.00018,0.0,0.0
10.059,5466.013,0.00018,0.0,0.0
10.065,5501.306,0.00018,0.0,0.0
10.071,5520.563,0.00018,0.0,0.0
10.078,5517.971,0.00018,0.0,0.0
10.084,5532.813,0.00018,0.0,0.0
10.09,5504.647,0.00018,0.0,0.0
10.097,5562.565,0.00018,0.0,0.0
10.103,5514.766,0.00018,0.0,0.0
10.109,5595.379,0.00018,0.0,0.0
10.116,5618.934,0.00018,0.0,0.0
10.122,5605.874,0.00018,0.0,0.0
10.128,5678.468,0.00018,0.0,0.0
10.135,5674.077,0.00018,0.0,0.0
10.141,5711.989,0.00018,0.0,0.0
10.147,5793.958,0.00017,0.0,0.0
10.154,5879.685,0.00017,0.0,0.0
10.16,6131.714,0.00016,0.0,0.0
10.166,6405.545,0.00016,0.0,0.0
10.173,7158.952,0.00014,0.0,0.0
10.179,8271.797,0.00012,0.0,0.0
10.185,10173.726,0.0001,0.0,0.0
10.192,12223.627,0.00008,0.0,0.0
10.198,12810.482,0.00008,0.0,0.0
10.204,17808.959,0.00006,0.0,0.0
10.21,17305.781,0.00006,0.0,0.0
10.217,21240.205,0.00005,0.0,0.0
10.223,16411.482,0.00006,0.0,0.0
10.229,13873.716,0.00007,0.0,0.0
10.236,16047.777,0.00006,0.0,0.0
10.242,8360.072,0.00012,0.0,0.0
10.248,9561.88,0.0001,0.0,0.0
10.255,7010.106,0.00014,0.0,0.0
10.261,6290.787,0.00016,0.0,0.0
10.267,6305.566,0.00016,0.0,0.0
10.274,5747.875,0.00017,0.0,0.0
10.28,5802.98,0.00017,0.0,0.0
10.286,5607.311,0.00018,0.0,0.0
10.293,5586.832,0.00018,0.0,0.0
10.299,5549.05,0.00018,0.0,0.0
10.305,5499.717,0.00018,0.0,0.0
10.312,5502.954,0.00018,0.0,0.0
10.318,5473.874,0.00018,0.0,0.0
10.324,5450.884,0.00018,0.0,0.0
10.331,5394.669,0.00019,0.0,0.0
10.337,5364.078,0.00019,0.0,0.0
10.343,5396.812,0.00019,0.0,0.0
10.35,5353.042,0.00019,0.0,0.0
10.356,5340.943,0.00019,0.0,0.0
10.362,5331.064,0.00019,0.0,0.0
10.368,5283.498,0.00019,0.0,0.0
10.375,5354.82,0.00019,0.0,0.0
10.381,5275.817,0.00019,0.0,0.0
10.387,5258.634,0.00019,0.0,0.0
10.394,5280.169,0.00019,0.0,0.0
10.4,5249.344,0.00019,0.0,0.0
10.406,5269.851,0.00019,0.0,0.0
10.413,5216.611,0.00019,0.0,0.0
10.419,5212.015,0.00019,0.0,0.0
10.425,5236.731,0.00019,0.0,0.0
10.432,5205.931,0.00019,0.0,0.0
10.438,5203.553,0.00019,0.0,0.0
10.444,5205.925,0.00019,0.0,0.0
10.451,5150.266,0.00019,0.0,0.0
10.457,5202.734,0.00019,0.0,0.0
10.463,5141.887,0.00019,0.0,0.0
10.47,5154.946,0.00019,0.0,0.0
10.476,5158.969,0.00019,0.0,0.0
10.482,5124.399,0.0002,0.0,0.0
10.489,5172.702,0.00019,0.0,0.0
10.495,5120.71,0.0002,0.0,0.0
10.501,5103.702,0.0002,0.0,0.0
10.508,5140.333,0.00019,0.0,0.0
10.514,5117.022,0.0002,0.0,0.0
10.52,5119.987,0.0002,0.0,0.0
10.526,5114.935,0.0002,0.0,0.0
10.533,5096.021,0.0002,0.0,0.0
10.539,5122.828,0.0002,0.0,0.0
10.545,5096.411,0.0002,0.0,0.0
10.552,5094.259,0.0002,0.0,0.0
10.558,5088.386,0.0002,0.0,0.0
10.564,5061.74,0.0002,0.0,0.0
10.571,5104.836,0.0002,0.0,0.0
10.577,5073.642,0.0002,0.0,0.0
10.583,5081.754,0.0002,0.0,0.0
10.59,5079.378,0.0002,0.0,0.0
10.596,5066.248,0.0002,0.0,0.0
10.602,5085.506,0.0002,0.0,0.0
10.609,5064.429,0.0002,0.0,0.0
10.615,5059.797,0.0002,0.0,0.0
10.621,5076.303,0.0002,0.0,0.0
10.628,5058.81,0.0002,0.0,0.0
10.634,5058.367,0.0002,0.0,0.0
10.64,5064.582,0.0002,0.0,0.0
10.647,5046.393,0.0002,0.0,0.0
10.653,5076.974,0.0002,0.0,0.0
10.659,5071.389,0.0002,0.0,0.0
10.666,5065.577,0.0002,0.0,0.0
10.672,5074.478,0.0002,0.0,0.0
10.678,5067.672,0.0002,0.0,0.0
10.684,5093.745,0.0002,0.0,0.0
10.691,5066.113,0.0002,0.0,0.0
10.697,5094.549,0.0002,0.0,0.0
10.703,5099.824,0.0002,0.0,0.0
10.71,5107.689,0.0002,0.0,0.0
10.716,5131.238,0.00019,0.0,0.0
10.722,5144.969,0.00019,0.0,0.0
10.729,5152.853,0.00019,0.0,0.0
10.735,5201.118,0.00019,0.0,0.0
10.741,5217.193,0.00019,0.0,0.0
10.748,5274.544,0.00019,0.0,0.0
10.754,5360.109,0.00019,0.0,0.0
10.76,5457.615,0.00018,0.0,0.0
10.767,5655.612,0.00018,0.0,0.0
10.773,5883.964,0.00017,0.0,0.0
10.779,6440.54,0.00016,0.0,0.0
10.786,7280.561,0.00014,0.0,0.0
10.792,8776.766,0.00011,0.0,0.0
10.798,12274.528,0.00008,0.0,0.0
10.805,15092.522,0.00007,0.0,0.0
10.811,22586.076,0.00004,0.0,0.0
10.817,26595.547,0.00004,0.0,0.0
10.824,30974.682,0.00003,0.0,0.0
10.83,29972.081,0.00003,0.0,0.0
10.836,27586.22,0.00004,0.0,0.0
10.842,20167.355,0.00005,0.0,0.0
10.849,15760.168,0.00006,0.0,0.0
10.855,10382.218,0.0001,0.0,0.0
10.861,8255.01,0.00012,0.0,0.0
10.868,7115.801,0.00014,0.0,0.0
10.874,6145.026,0.00016,0.0,0.0
10.88,5830.856,0.00017,0.0,0.0
10.887,5562.065,0.00018,0.0,0.0
10.893,5410.966,0.00018,0.0,0.0
10.899,5324.924,0.00019,0.0,0.0
10.906,5248.761,0.00019,0.0,0.0
10.912,5203.563,0.00019,0.0,0.0
10.918,5165.049,0.00019,0.0,0.0
10.925,5134.256,0.00019,0.0,0.0
10.931,5131.718,0.00019,0.0,0.0
10.937,5112.614,0.0002,0.0,0.0
10.944,5103.134,0.0002,0.0,0.0
10.95,5077.109,0.0002,0.0,0.0
10.956,5068.405,0.0002,0.0,0.0
10.963,5046.203,0.0002,0.0,0.0
10.969,5019.329,0.0002,0.0,0.0
10.975,5018.737,0.0002,0.0,0.0
10.982,4991.471,0.0002,0.0,0.0
10.988,4977.939,0.0002,0.0,0.0
10.994,4962.2,0.0002,0.0,0.0
11.0,4947.649,0.0002,0.0,0.0
11.007,4949.649,0.0002,0.0,0.0
11.013,4922.834,0.0002,0.0,0.0
11.019,4908.247,0.0002,0.0,0.0
11.026,4910.871,0.0002,0.0,0.0
11.032,4893.778,0.0002,0.0,0.0
11.038,4888.505,0.0002,0.0,0.0
11.045,4891.42,0.0002,0.0,0.0
11.051,4878.464,0.0002,0.0,0.0
11.057,4865.053,0.00021,0.0,0.0
11.064,4851.15,0.00021,0.0,0.0
11.07,4840.809,0.00021,0.0,0.0
11.076,4840.327,0.00021,0.0,0.0
11.083,4848.249,0.00021,0.0,0.0
11.089,4831.973,0.00021,0.0,0.0
11.095,4835.406,0.00021,0.0,0.0
11.102,4822.736,0.00021,0.0,0.0
11.108,4824.553,0.00021,0.0,0.0
11.114,4823.128,0.00021,0.0,0.0
11.121,4802.269,0.00021,0.0,0.0
11.127,4803.909,0.00021,0.0,0.0
11.133,4813.829,0.00021,0.0,0.0
11.14,4794.345,0.00021,0.0,0.0
11.146,4786.399,0.00021,0.0,0.0
11.152,4773.683,0.00021,0.0,0.0
11.158,4792.334,0.00021,0.0,0.0
11.165,4793.076,0.00021,0.0,0.0
11.171,4792.145,0.00021,0.0,0.0
11.177,4794.523,0.00021,0.0,0.0
11.184,4811.077,0.00021,0.0,0.0
11.19,4820.233,0.00021,0.0,0.0
11.196,4779.475,0.00021,0.0,0.0
11.203,4812.103,0.00021,0.0,0.0
11.209,4799.445,0.00021,0.0,0.0
11.215,4785.724,0.00021,0.0,0.0
11.222,4823.412,0.00021,0.0,0.0
11.228,4758.456,0.00021,0.0,0.0
11.234,4775.121,0.00021,0.0,0.0
11.241,4754.814,0.00021,0.0,0.0
11.247,4729.943,0.00021,0.0,0.0
11.253,4732.272,0.00021,0.0,0.0
11.26,4731.571,0.00021,0.0,0.0
11.266,4722.704,0.00021,0.0,0.0
11.272,4706.608,0.00021,0.0,0.0
11.279,4711.432,0.00021,0.0,0.0
11.285,4699.26,0.00021,0.0,0.0
11.291,4726.339,0.00021,0.0,0.0
11.298,4710.835,0.00021,0.0,0.0
11.304,4692.835,0.00021,0.0,0.0
11.31,4707.365,0.00021,0.0,0.0
11.316,4693.759,0.00021,0.0,0.0
11.323,4698.712,0.00021,0.0,0.0
11.329,4688.91,0.00021,0.0,0.0
11.335,4689.11,0.00021,0.0,0.0
11.342,4693.266,0.00021,0.0,0.0
11.348,4699.102,0.00021,0.0,0.0
11.354,4684.15,0.00021,0.0,0.0
11.361,4709.839,0.00021,0.0,0.0
11.367,4668.625,0.00021,0.0,0.0
11.373,4697.319,0.00021,0.0,0.0
11.38,4667.097,0.00021,0.0,0.0
11.386,4679.143,0.00021,0.0,0.0
11.392,4670.945,0.00021,0.0,0.0
11.399,4670.626,0.00021,0.0,0.0
11.405,4675.229,0.00021,0.0,0.0
11.411,4664.666,0.00021,0.0,0.0
11.418,4671.55,0.00021,0.0,0.0
11.424,4665.808,0.00021,0.0,0.0
11.43,4653.385,0.00021,0.0,0.0
11.437,4664.537,0.00021,0.0,0.0
11.443,4663.285,0.00021,0.0,0.0
11.449,4663.633,0.00021,0.0,0.0
11.456,4665.827,0.00021,0.0,0.0
11.462,4669.504,0.00021,0.0,0.0
11.468,4669.648,0.00021,0.0,0.0
11.474,4668.033,0.00021,0.0,0.0
11.481,4679.425,0.00021,0.0,0.0
11.487,4668.346,0.00021,0.0,0.0
11.493,4675.701,0.00021,0.0,0.0
11.5,4684.381,0.00021,0.0,0.0
11.506,4693.474,0.00021,0.0,0.0
11.512,4707.857,0.00021,0.0,0.0
11.519,4717.189,0.00021,0.0,0.0
11.525,4736.051,0.00021,0.0,0.0
11.531,4728.078,0.00021,0.0,0.0
11.538,4744.106,0.00021,0.0,0.0
11.544,4716.492,0.00021,0.0,0.0
11.55,4709.372,0.00021,0.0,0.0
11.557,4720.144,0.00021,0.0,0.0
11.563,4695.349,0.00021,0.0,0.0
11.569,4696.039,0.00021,0.0,0.0
11.576,4684.313,0.00021,0.0,0.0
11.582,4687.069,0.00021,0.0,0.0
11.588,4669.834,0.00021,0.0,0.0
11.595,4668.681,0.00021,0.0,0.0
11.601,4688.93,0.00021,0.0,0.0
11.607,4680.717,0.00021,0.0,0.0
11.614,4684.506,0.00021,0.0,0.0
11.62,4690.415,0.00021,0.0,0.0
11.626,4659.599,0.00021,0.0,0.0
11.632,4663.421,0.00021,0.0,0.0
11.639,4662.451,0.00021,0.0,0.0
11.645,4669.977,0.00021,0.0,0.0
11.651,4671.016,0.00021,0.0,0.0
11.658,4677.884,0.00021,0.0,0.0
11.664,4677.628,0.00021,0.0,0.0
11.67,4678.082,0.00021,0.0,0.0
11.677,4684.572,0.00021,0.0,0.0
11.683,4684.539,0.00021,0.0,0.0
11.689,4682.894,0.00021,0.0,0.0
11.696,4688.742,0.00021,0.0,0.0
11.702,4666.943,0.00021,0.0,0.0
11.708,4674.684,0.00021,0.0,0.0
11.715,4688.299,0.00021,0.0,0.0
11.721,4677.831,0.00021,0.0,0.0
11.727,4680.983,0.00021,0.0,0.0
11.734,4682.712,0.00021,0.0,0.0
11.74,4684.34,0.00021,0.0,0.0
11.746,4681.438,0.00021,0.0,0.0
11.753,4674.561,0.00021,0.0,0.0
11.759,4673.592,0.00021,0.0,0.0
11.765,4679.991,0.00021,0.0,0.0
11.772,4668.716,0.00021,0.0,0.0
11.778,4675.264,0.00021,0.0,0.0
11.784,4671.246,0.00021,0.0,0.0
11.79,4669.569,0.00021,0.0,0.0
11.797,4671.902,0.00021,0.0,0.0
11.803,4665.197,0.00021,0.0,0.0
11.809,4663.557,0.00021,0.0,0.0
11.816,4667.237,0.00021,0.0,0.0
11.822,4652.988,0.00021,0.0,0.0
11.828,4656.888,0.00021,0.0,0.0
11.835,4658.392,0.00021,0.0,0.0
11.841,4658.721,0.00021,0.0,0.0
11.847,4655.888,0.00021,0.0,0.0
11.854,4647.041,0.00022,0.0,0.0
11.86,4638.711,0.00022,0.0,0.0
11.866,4644.844,0.00022,0.0,0.0
11.873,4649.941,0.00022,0.0,0.0
11.879,4639.898,0.00022,0.0,0.0
11.885,4649.086,0.00022,0.0,0.0
11.892,4649.538,0.00022,0.0,0.0
11.898,4641.483,0.00022,0.0,0.0
11.904,4630.715,0.00022,0.0,0.0
11.911,4632.181,0.00022,0.0,0.0
11.917,4629.098,0.00022,0.0,0.0
11.923,4648.329,0.00022,0.0,0.0
11.93,4633.847,0.00022,0.0,0.0
11.936,4637.006,0.00022,0.0,0.0
11.942,4618.829,0.00022,0.0,0.0
11.948,4628.015,0.00022,0.0,0.0
11.955,4644.138,0.00022,0.0,0.0
11.961,4627.402,0.00022,0.0,0.0
11.967,4626.73,0.00022,0.0,0.0
11.974,4628.914,0.00022,0.0,0.0
11.98,4637.623,0.00022,0.0,0.0
11.986,4645.37,0.00022,0.0,0.0
11.993,4630.475,0.00022,0.0,0.0
11.999,4651.331,0.00021,0.0,0.0
12.005,4653.225,0.00021,0.0,0.0
12.012,4657.222,0.00021,0.0,0.0
12.018,4659.519,0.00021,0.0,0.0
12.024,4669.888,0.00021,0.0,0.0
12.031,4656.48,0.00021,0.0,0.0
12.037,4729.617,0.00021,0.0,0.0
12.043,4682.369,0.00021,0.0,0.0
12.05,4870.951,0.00021,0.0,0.0
12.056,4760.312,0.00021,0.0,0.0
12.062,4777.877,0.00021,0.0,0.0
12.069,5627.791,0.00018,0.0,0.0
12.075,5055.909,0.0002,0.0,0.0
12.081,8311.557,0.00012,0.0,0.0
12.088,5845.33,0.00017,0.0,0.0
12.094,6802.449,0.00015,0.0,0.0
12.1,10775.715,0.00009,0.0,0.0
12.106,6693.709,0.00015,0.0,0.0
12.113,8660.396,0.00012,0.0,0.0
12.119,5556.249,0.00018,0.0,0.0
12.125,5255.111,0.00019,0.0,0.0
12.132,5335.546,0.00019,0.0,0.0
12.138,4853.626,0.00021,0.0,0.0
12.144,4779.209,0.00021,0.0,0.0
12.151,4754.409,0.00021,0.0,0.0
12.157,4669.506,0.00021,0.0,0.0
12.163,4678.953,0.00021,0.0,0.0
12.17,4635.492,0.00022,0.0,0.0
12.176,4598.163,0.00022,0.0,0.0
12.182,4616.82,0.00022,0.0,0.0
12.189,4586.532,0.00022,0.0,0.0
12.195,4574.444,0.00022,0.0,0.0
12.201,4570.797,0.00022,0.0,0.0
12.208,4558.876,0.00022,0.0,0.0
12.214,4553.152,0.00022,0.0,0.0
12.22,4530.331,0.00022,0.0,0.0
12.227,4534.126,0.00022,0.0,0.0
12.233,4521.71,0.00022,0.0,0.0
12.239,4524.741,0.00022,0.0,0.0
12.246,4527.672,0.00022,0.0,0.0
12.252,4513.314,0.00022,0.0,0.0
12.258,4495.557,0.00022,0.0,0.0
12.264,4491.073,0.00022,0.0,0.0
12.271,4473.022,0.00022,0.0,0.0
12.277,4475.883,0.00022,0.0,0.0
12.283,4482.454,0.00022,0.0,0.0
12.29,4462.245,0.00022,0.0,0.0
12.296,4457.255,0.00022,0.0,0.0
12.302,4459.581,0.00022,0.0,0.0
12.309,4463.084,0.00022,0.0,0.0
12.315,4463.321,0.00022,0.0,0.0
12.321,4479.575,0.00022,0.0,0.0
12.328,4448.08,0.00022,0.0,0.0
12.334,4458.892,0.00022,0.0,0.0
12.34,4437.366,0.00023,0.0,0.0
12.347,4448.369,0.00022,0.0,0.0
12.353,4434.567,0.00023,0.0,0.0
12.359,4427.846,0.00023,0.0,0.0
12.366,4431.535,0.00023,0.0,0.0
12.372,4415.279,0.00023,0.0,0.0
12.378,4426.144,0.00023,0.0,0.0
12.385,4418.662,0.00023,0.0,0.0
12.391,4425.822,0.00023,0.0,0.0
12.397,4430.773,0.00023,0.0,0.0
12.404,4412.51,0.00023,0.0,0.0
12.41,4413.457,0.00023,0.0,0.0
12.416,4408.782,0.00023,0.0,0.0
12.422,4405.549,0.00023,0.0,0.0
12.429,4400.701,0.00023,0.0,0.0
12.435,4397.957,0.00023,0.0,0.0
12.441,4395.261,0.00023,0.0,0.0
12.448,4395.461,0.00023,0.0,0.0
12.454,4396.215,0.00023,0.0,0.0
12.46,4396.091,0.00023,0.0,0.0
12.467,4407.7,0.00023,0.0,0.0
12.473,4392.827,0.00023,0.0,0.0
12.479,4402.994,0.00023,0.0,0.0
12.486,4395.987,0.00023,0.0,0.0
12.492,4397.401,0.00023,0.0,0.0
12.498,4408.804,0.00023,0.0,0.0
12.505,4419.076,0.00023,0.0,0.0
12.511,4422.565,0.00023,0.0,0.0
12.517,4431.27,0.00023,0.0,0.0
12.524,4433.704,0.00023,0.0,0.0
12.53,4429.345,0.00023,0.0,0.0
12.536,4426.631,0.00023,0.0,0.0
12.543,4438.022,0.00023,0.0,0.0
12.549,4428.568,0.00023,0.0,0.0
12.555,4428.93,0.00023,0.0,0.0
12.562,4437.788,0.00023,0.0,0.0
12.568,4432.779,0.00023,0.0,0.0
12.574,4440.103,0.00023,0.0,0.0
12.58,4432.475,0.00023,0.0,0.0
12.587,4446.15,0.00022,0.0,0.0
12.593,4469.754,0.00022,0.0,0.0
12.599,4492.858,0.00022,0.0,0.0
12.606,4506.425,0.00022,0.0,0.0
12.612,4549.197,0.00022,0.0,0.0
12.618,4597.116,0.00022,0.0,0.0
12.625,4670.316,0.00021,0.0,0.0
12.631,4734.247,0.00021,0.0,0.0
12.637,4922.136,0.0002,0.0,0.0
12.644,5158.579,0.00019,0.0,0.0
12.65,5547.748,0.00018,0.0,0.0
12.656,6258.836,0.00016,0.0,0.0
12.663,7390.036,0.00014,0.0,0.0
12.669,9828.21,0.0001,0.0,0.0
12.675,13378.078,0.00007,0.0,0.0
12.682,18407.712,0.00005,0.0,0.0
12.688,26653.365,0.00004,0.0,0.0
12.694,29997.632,0.00003,0.0,0.0
12.701,35028.545,0.00003,0.0,0.0
12.707,32244.523,0.00003,0.0,0.0
12.713,25903.629,0.00004,0.0,0.0
12.72,19784.815,0.00005,0.0,0.0
12.726,14046.97,0.00007,0.0,0.0
12.732,9911.784,0.0001,0.0,0.0
12.738,7547.46,0.00013,0.0,0.0
12.745,6267.923,0.00016,0.0,0.0
12.751,5561.964,0.00018,0.0,0.0
12.757,5096.667,0.0002,0.0,0.0
12.764,4854.359,0.00021,0.0,0.0
12.77,4708.11,0.00021,0.0,0.0
12.776,4589.577,0.00022,0.0,0.0
12.783,4532.228,0.00022,0.0,0.0
12.789,4474.125,0.00022,0.0,0.0
12.795,4441.737,0.00023,0.0,0.0
12.802,4409.354,0.00023,0.0,0.0
12.808,4374.981,0.00023,0.0,0.0
12.814,4365.353,0.00023,0.0,0.0
12.821,4342.77,0.00023,0.0,0.0
12.827,4336.985,0.00023,0.0,0.0
12.833,4334.432,0.00023,0.0,0.0
12.84,4308.099,0.00023,0.0,0.0
12.846,4313.401,0.00023,0.0,0.0
12.852,4297.973,0.00023,0.0,0.0
12.859,4290.441,0.00023,0.0,0.0
12.865,4297.125,0.00023,0.0,0.0
12.871,4288.562,0.00023,0.0,0.0
12.878,4280.492,0.00023,0.0,0.0
12.884,4288.354,0.00023,0.0,0.0
12.89,4285.462,0.00023,0.0,0.0
12.896,4292.301,0.00023,0.0,0.0
12.903,4299.585,0.00023,0.0,0.0
12.909,4331.352,0.00023,0.0,0.0
12.915,4360.371,0.00023,0.0,0.0
12.922,4336.305,0.00023,0.0,0.0
12.928,4555.759,0.00022,0.0,0.0
12.934,4492.189,0.00022,0.0,0.0
12.941,4487.805,0.00022,0.0,0.0
12.947,4668.034,0.00021,0.0,0.0
12.953,4454.577,0.00022,0.0,0.0
12.96,4405.702,0.00023,0.0,0.0
12.966,4381.705,0.00023,0.0,0.0
12.972,4320.126,0.00023,0.0,0.0
12.979,4294.132,0.00023,0.0,0.0
12.985,4264.331,0.00023,0.0,0.0
12.991,4241.981,0.00024,0.0,0.0
12.998,4224.878,0.00024,0.0,0.0
13.004,4232.706,0.00024,0.0,0.0
13.01,4216.674,0.00024,0.0,0.0
13.017,4208.831,0.00024,0.0,0.0
13.023,4208.452,0.00024,0.0,0.0
13.029,4183.899,0.00024,0.0,0.0
13.036,4186.551,0.00024,0.0,0.0
13.042,4205.79,0.00024,0.0,0.0
13.048,4187.313,0.00024,0.0,0.0
13.054,4189.376,0.00024,0.0,0.0
13.061,4171.955,0.00024,0.0,0.0
13.067,4184.566,0.00024,0.0,0.0
13.073,4177.011,0.00024,0.0,0.0
13.08,4170.95,0.00024,0.0,0.0
13.086,4164.867,0.00024,0.0,0.0
13.092,4165.864,0.00024,0.0,0.0
13.099,4180.442,0.00024,0.0,0.0
13.105,4159.432,0.00024,0.0,0.0
13.111,4157.89,0.00024,0.0,0.0
13.118,4148.964,0.00024,0.0,0.0
13.124,4155.098,0.00024,0.0,0.0
13.13,4166.918,0.00024,0.0,0.0
13.137,4163.049,0.00024,0.0,0.0
13.143,4159.801,0.00024,0.0,0.0
13.149,4143.356,0.00024,0.0,0.0
13.156,4155.627,0.00024,0.0,0.0
13.162,4153.976,0.00024,0.0,0.0
13.168,4153.084,0.00024,0.0,0.0
13.175,4165.575,0.00024,0.0,0.0
13.181,4156.912,0.00024,0.0,0.0
13.187,4168.07,0.00024,0.0,0.0
13.194,4194.561,0.00024,0.0,0.0
13.2,4200.711,0.00024,0.0,0.0
13.206,4240.282,0.00024,0.0,0.0
13.212,4299.195,0.00023,0.0,0.0
13.219,4387.692,0.00023,0.0,0.0
13.225,4585.412,0.00022,0.0,0.0
13.231,4897.959,0.0002,0.0,0.0
13.238,5535.65,0.00018,0.0,0.0
13.244,6520.999,0.00015,0.0,0.0
13.25,7462.794,0.00013,0.0,0.0
13.257,10177.09,0.0001,0.0,0.0
13.263,10660.794,0.00009,0.0,0.0
13.269,11838.976,0.00008,0.0,0.0
13.276,11378.893,0.00009,0.0,0.0
13.282,9399.521,0.00011,0.0,0.0
13.288,8033.835,0.00012,0.0,0.0
13.295,6370.355,0.00016,0.0,0.0
13.301,5386.922,0.00019,0.0,0.0
13.307,4845.453,0.00021,0.0,0.0
13.314,4505.073,0.00022,0.0,0.0
13.32,4325.427,0.00023,0.0,0.0
13.326,4216.77,0.00024,0.0,0.0
13.333,4163.128,0.00024,0.0,0.0
13.339,4117.791,0.00024,0.0,0.0
13.345,4102.618,0.00024,0.0,0.0
13.352,4072.831,0.00025,0.0,0.0
13.358,4049.725,0.00025,0.0,0.0
13.364,4053.197,0.00025,0.0,0.0
13.37,4033.051,0.00025,0.0,0.0
13.377,4044.245,0.00025,0.0,0.0
13.383,4020.125,0.00025,0.0,0.0
13.389,4015.154,0.00025,0.0,0.0
13.396,4015.007,0.00025,0.0,0.0
13.402,4007.467,0.00025,0.0,0.0
13.408,4005.504,0.00025,0.0,0.0
13.415,4002.305,0.00025,0.0,0.0
13.421,3982.486,0.00025,0.0,0.0
13.427,3983.844,0.00025,0.0,0.0
13.434,3970.003,0.00025,0.0,0.0
13.44,3988.362,0.00025,0.0,0.0
13.446,3975.36,0.00025,0.0,0.0
13.453,3967.865,0.00025,0.0,0.0
13.459,3978.598,0.00025,0.0,0.0
13.465,3964.996,0.00025,0.0,0.0
13.472,3959.775,0.00025,0.0,0.0
13.478,3945.489,0.00025,0.0,0.0
13.484,3953.246,0.00025,0.0,0.0
13.491,3936.212,0.00025,0.0,0.0
13.497,3948.681,0.00025,0.0,0.0
13.503,3945.669,0.00025,0.0,0.0
13.51,3945.399,0.00025,0.0,0.0
13.516,3945.928,0.00025,0.0,0.0
13.522,3939.712,0.00025,0.0,0.0
13.528,3941.359,0.00025,0.0,0.0
13.535,3923.574,0.00025,0.0,0.0
13.541,3937.067,0.00025,0.0,0.0
13.547,3934.369,0.00025,0.0,0.0
13.554,3926.886,0.00025,0.0,0.0
13.56,3933.964,0.00025,0.0,0.0
13.566,3926.209,0.00025,0.0,0.0
13.573,3929.774,0.00025,0.0,0.0
13.579,3919.685,0.00026,0.0,0.0
13.585,3928.013,0.00025,0.0,0.0
13.592,3911.682,0.00026,0.0,0.0
13.598,3928.5,0.00025,0.0,0.0
13.604,3921.332,0.00026,0.0,0.0
13.611,3937.647,0.00025,0.0,0.0
13.617,3932.135,0.00025,0.0,0.0
13.623,3928.496,0.00025,0.0,0.0
13.63,3928.563,0.00025,0.0,0.0
13.636,3926.539,0.00025,0.0,0.0
13.642,3929.405,0.00025,0.0,0.0
13.649,3925.578,0.00025,0.0,0.0
13.655,3937.231,0.00025,0.0,0.0
13.661,3945.723,0.00025,0.0,0.0
13.668,3937.48,0.00025,0.0,0.0
13.674,3961.073,0.00025,0.0,0.0
13.68,3984.283,0.00025,0.0,0.0
13.686,4055.69,0.00025,0.0,0.0
13.693,4152.18,0.00024,0.0,0.0
13.699,4642.101,0.00022,0.0,0.0
13.705,4988.534,0.0002,0.0,0.0
13.712,5034.478,0.0002,0.0,0.0
13.718,5156.005,0.00019,0.0,0.0
13.724,4482.884,0.00022,0.0,0.0
13.731,4354.064,0.00023,0.0,0.0
13.737,4377.126,0.00023,0.0,0.0
13.743,4263.105,0.00023,0.0,0.0
13.75,4122.435,0.00024,0.0,0.0
13.756,3992.285,0.00025,0.0,0.0
13.762,3949.748,0.00025,0.0,0.0
13.769,3920.429,0.00026,0.0,0.0
13.775,3896.33,0.00026,0.0,0.0
13.781,3871.334,0.00026,0.0,0.0
13.788,3876.541,0.00026,0.0,0.0
13.794,3853.194,0.00026,0.0,0.0
13.8,3858.536,0.00026,0.0,0.0
13.807,3837.713,0.00026,0.0,0.0
13.813,3844.243,0.00026,0.0,0.0
13.819,3845.052,0.00026,0.0,0.0
13.826,3832.006,0.00026,0.0,0.0
13.832,3825.992,0.00026,0.0,0.0
13.838,3821.993,0.00026,0.0,0.0
13.844,3817.412,0.00026,0.0,0.0
13.851,3803.35,0.00026,0.0,0.0
13.857,3812.948,0.00026,0.0,0.0
13.863,3806.606,0.00026,0.0,0.0
13.87,3797.239,0.00026,0.0,0.0
13.876,3793.95,0.00026,0.0,0.0
13.882,3786.274,0.00026,0.0,0.0
13.889,3782.232,0.00026,0.0,0.0
13.895,3791.759,0.00026,0.0,0.0
13.901,3768.047,0.00027,0.0,0.0
13.908,3772.782,0.00027,0.0,0.0
13.914,3765.921,0.00027,0.0,0.0
13.92,3763.411,0.00027,0.0,0.0
13.927,3760.103,0.00027,0.0,0.0
13.933,3763.086,0.00027,0.0,0.0
13.939,3762.379,0.00027,0.0,0.0
13.946,3742.816,0.00027,0.0,0.0
13.952,3740.672,0.00027,0.0,0.0
13.958,3755.66,0.00027,0.0,0.0
13.965,3751.297,0.00027,0.0,0.0
13.971,3743.531,0.00027,0.0,0.0
13.977,3735.847,0.00027,0.0,0.0
13.984,3739.644,0.00027,0.0,0.0
13.99,3725.58,0.00027,0.0,0.0
13.996,3724.302,0.00027,0.0,0.0
14.002,3723.475,0.00027,0.0,0.0
14.009,3716.871,0.00027,0.0,0.0
14.015,3715.304,0.00027,0.0,0.0
14.021,3715.235,0.00027,0.0,0.0
14.028,3700.711,0.00027,0.0,0.0
14.034,3704.828,0.00027,0.0,0.0
14.04,3701.81,0.00027,0.0,0.0
14.047,3707.368,0.00027,0.0,0.0
14.053,3707.962,0.00027,0.0,0.0
14.059,3695.755,0.00027,0.0,0.0
14.066,3692.92,0.00027,0.0,0.0
14.072,3679.678,0.00027,0.0,0.0
14.078,3693.676,0.00027,0.0,0.0
14.085,3698.748,0.00027,0.0,0.0
14.091,3681.651,0.00027,0.0,0.0
14.097,3679.473,0.00027,0.0,0.0
14.104,3672.953,0.00027,0.0,0.0
14.11,3676.593,0.00027,0.0,0.0
14.116,3685.159,0.00027,0.0,0.0
14.123,3674.17,0.00027,0.0,0.0
14.129,3681.047,0.00027,0.0,0.0
14.135,3657.394,0.00027,0.0,0.0
14.142,3671.822,0.00027,0.0,0.0
14.148,3667.256,0.00027,0.0,0.0
14.154,3653.768,0.00027,0.0,0.0
14.16,3665.732,0.00027,0.0,0.0
14.167,3651.931,0.00027,0.0,0.0
14.173,3647.864,0.00027,0.0,0.0
14.179,3656.372,0.00027,0.0,0.0
14.186,3639.056,0.00027,0.0,0.0
14.192,3641.381,0.00027,0.0,0.0
14.198,3656.057,0.00027,0.0,0.0
14.205,3649.459,0.00027,0.0,0.0
14.211,3649.799,0.00027,0.0,0.0
14.217,3638.308,0.00027,0.0,0.0
14.224,3648.072,0.00027,0.0,0.0
14.23,3651.162,0.00027,0.0,0.0
14.236,3643.685,0.00027,0.0,0.0
14.243,3654.347,0.00027,0.0,0.0
14.249,3660.565,0.00027,0.0,0.0
14.255,3660.684,0.00027,0.0,0.0
14.262,3671.243,0.00027,0.0,0.0
14.268,3674.686,0.00027,0.0,0.0
14.274,3663.258,0.00027,0.0,0.0
14.281,3672.464,0.00027,0.0,0.0
14.287,3664.536,0.00027,0.0,0.0
14.293,3652.394,0.00027,0.0,0.0
14.3,3656.267,0.00027,0.0,0.0
14.306,3644.691,0.00027,0.0,0.0
14.312,3638.402,0.00027,0.0,0.0
14.318,3624.887,0.00028,0.0,0.0
14.325,3624.811,0.00028,0.0,0.0
14.331,3615.304,0.00028,0.0,0.0
14.337,3623.223,0.00028,0.0,0.0
14.344,3626.067,0.00028,0.0,0.0
14.35,3611.972,0.00028,0.0,0.0
14.356,3607.215,0.00028,0.0,0.0
14.363,3597.399,0.00028,0.0,0.0
14.369,3619.953,0.00028,0.0,0.0
14.375,3601.769,0.00028,0.0,0.0
14.382,3612.688,0.00028,0.0,0.0
14.388,3599.594,0.00028,0.0,0.0
14.394,3592.176,0.00028,0.0,0.0
14.401,3593.843,0.00028,0.0,0.0
14.407,3582.055,0.00028,0.0,0.0
14.413,3601.323,0.00028,0.0,0.0
14.42,3598.227,0.00028,0.0,0.0
14.426,3611.219,0.00028,0.0,0.0
14.432,3612.46,0.00028,0.0,0.0
14.439,3634.785,0.00028,0.0,0.0
14.445,3671.356,0.00027,0.0,0.0
14.451,3756.868,0.00027,0.0,0.0
14.458,3817.558,0.00026,0.0,0.0
14.464,3699.543,0.00027,0.0,0.0
14.47,4280.576,0.00023,0.0,0.0
14.476,3778.445,0.00026,0.0,0.0
14.483,3874.353,0.00026,0.0,0.0
14.489,3667.225,0.00027,0.0,0.0
14.495,3696.065,0.00027,0.0,0.0
14.502,3596.461,0.00028,0.0,0.0
14.508,3572.779,0.00028,0.0,0.0
14.514,3570.106,0.00028,0.0,0.0
14.521,3549.633,0.00028,0.0,0.0
14.527,3546.174,0.00028,0.0,0.0
14.533,3545.084,0.00028,0.0,0.0
14.54,3535.132,0.00028,0.0,0.0
14.546,3537.159,0.00028,0.0,0.0
14.552,3539.93,0.00028,0.0,0.0
14.559,3521.953,0.00028,0.0,0.0
14.565,3528.23,0.00028,0.0,0.0
14.571,3529.491,0.00028,0.0,0.0
14.578,3518.894,0.00028,0.0,0.0
14.584,3515.439,0.00028,0.0,0.0
14.59,3529.071,0.00028,0.0,0.0
14.597,3522.309,0.00028,0.0,0.0
14.603,3525.624,0.00028,0.0,0.0
14.609,3526.74,0.00028,0.0,0.0
14.616,3506.493,0.00029,0.0,0.0
14.622,3518.803,0.00028,0.0,0.0
14.628,3505.976,0.00029,0.0,0.0
14.634,3502.572,0.00029,0.0,0.0
14.641,3503.519,0.00029,0.0,0.0
14.647,3490.991,0.00029,0.0,0.0
14.653,3500.301,0.00029,0.0,0.0
14.66,3495.971,0.00029,0.0,0.0
14.666,3508.709,0.00029,0.0,0.0
14.672,3492.692,0.00029,0.0,0.0
14.679,3488.777,0.00029,0.0,0.0
14.685,3488.422,0.00029,0.0,0.0
14.691,3483.202,0.00029,0.0,0.0
14.698,3491.948,0.00029,0.0,0.0
14.704,3472.055,0.00029,0.0,0.0
14.71,3472.338,0.00029,0.0,0.0
14.717,3474.642,0.00029,0.0,0.0
14.723,3465.772,0.00029,0.0,0.0
14.729,3470.897,0.00029,0.0,0.0
14.736,3464.382,0.00029,0.0,0.0
14.742,3470.362,0.00029,0.0,0.0
14.748,3467.427,0.00029,0.0,0.0
14.755,3464.775,0.00029,0.0,0.0
14.761,3465.912,0.00029,0.0,0.0
14.767,3444.883,0.00029,0.0,0.0
14.774,3459.549,0.00029,0.0,0.0
14.78,3454.059,0.00029,0.0,0.0
14.786,3448.973,0.00029,0.0,0.0
14.792,3456.483,0.00029,0.0,0.0
14.799,3434.402,0.00029,0.0,0.0
14.805,3446.252,0.00029,0.0,0.0
14.811,3449.744,0.00029,0.0,0.0
14.818,3442.13,0.00029,0.0,0.0
14.824,3455.547,0.00029,0.0,0.0
14.83,3430.517,0.00029,0.0,0.0
14.837,3454.082,0.00029,0.0,0.0
14.843,3442.251,0.00029,0.0,0.0
14.849,3448.838,0.00029,0.0,0.0
14.856,3446.866,0.00029,0.0,0.0
14.862,3434.737,0.00029,0.0,0.0
14.868,3444.538,0.00029,0.0,0.0
14.875,3433.329,0.00029,0.0,0.0
14.881,3440.797,0.00029,0.0,0.0
14.887,3438.505,0.00029,0.0,0.0
14.894,3440.464,0.00029,0.0,0.0
14.9,3431.355,0.00029,0.0,0.0
14.906,3430.601,0.00029,0.0,0.0
14.913,3430.268,0.00029,0.0,0.0
14.919,3416.147,0.00029,0.0,0.0
14.925,3418.791,0.00029,0.0,0.0
14.932,3420.421,0.00029,0.0,0.0
14.938,3419.563,0.00029,0.0,0.0
14.944,3406.26,0.00029,0.0,0.0
14.95,3416.013,0.00029,0.0,0.0
14.957,3416.861,0.00029,0.0,0.0
14.963,3421.41,0.00029,0.0,0.0
14.969,3411.781,0.00029,0.0,0.0
14.976,3403.485,0.00029,0.0,0.0
14.982,3420.289,0.00029,0.0,0.0
14.988,3405.533,0.00029,0.0,0.0
14.995,3405.04,0.00029,0.0,0.0
15.001,3400.771,0.00029,0.0,0.0
15.007,3395.854,0.00029,0.0,0.0
15.014,3411.796,0.00029,0.0,0.0
15.02,3386.301,0.0003,0.0,0.0
15.026,3396.711,0.00029,0.0,0.0
15.033,3381.419,0.0003,0.0,0.0
15.039,3389.471,0.0003,0.0,0.0
15.045,3384.07,0.0003,0.0,0.0
15.052,3404.881,0.00029,0.0,0.0
15.058,3387.22,0.0003,0.0,0.0
15.064,3388.69,0.0003,0.0,0.0
15.071,3383.18,0.0003,0.0,0.0
15.077,3371.574,0.0003,0.0,0.0
15.083,3369.24,0.0003,0.0,0.0
15.09,3381.962,0.0003,0.0,0.0
15.096,3376.169,0.0003,0.0,0.0
15.102,3380.42,0.0003,0.0,0.0
15.108,3360.539,0.0003,0.0,0.0
15.115,3368.501,0.0003,0.0,0.0
15.121,3375.075,0.0003,0.0,0.0
15.127,3374.04,0.0003,0.0,0.0
15.134,3370.064,0.0003,0.0,0.0
15.14,3360.777,0.0003,0.0,0.0
15.146,3367.135,0.0003,0.0,0.0
15.153,3370.794,0.0003,0.0,0.0
15.159,3354.775,0.0003,0.0,0.0
15.165,3376.346,0.0003,0.0,0.0
15.172,3371.111,0.0003,0.0,0.0
15.178,3377.671,0.0003,0.0,0.0
15.184,3373.096,0.0003,0.0,0.0
15.191,3379.148,0.0003,0.0,0.0
15.197,3377.263,0.0003,0.0,0.0
15.203,3374.068,0.0003,0.0,0.0
15.21,3364.785,0.0003,0.0,0.0
15.216,3364.074,0.0003,0.0,0.0
15.222,3371.035,0.0003,0.0,0.0
15.229,3360.525,0.0003,0.0,0.0
15.235,3365.493,0.0003,0.0,0.0
15.241,3369.219,0.0003,0.0,0.0
15.248,3371.34,0.0003,0.0,0.0
15.254,3383.49,0.0003,0.0,0.0
15.26,3397.855,0.00029,0.0,0.0
15.266,3417.514,0.00029,0.0,0.0
15.273,3445.756,0.00029,0.0,0.0
15.279,3505.346,0.00029,0.0,0.0
15.285,3584.63,0.00028,0.0,0.0
15.292,3801.954,0.00026,0.0,0.0
15.298,4020.25,0.00025,0.0,0.0
15.304,4397.822,0.00023,0.0,0.0
15.311,4999.241,0.0002,0.0,0.0
15.317,5886.763,0.00017,0.0,0.0
15.323,6062.818,0.00016,0.0,0.0
15.33,6427.184,0.00016,0.0,0.0
15.336,6328.091,0.00016,0.0,0.0
15.342,5664.735,0.00018,0.0,0.0
15.349,5128.928,0.00019,0.0,0.0
15.355,4617.852,0.00022,0.0,0.0
15.361,4097.719,0.00024,0.0,0.0
15.368,3792.705,0.00026,0.0,0.0
15.374,3617.921,0.00028,0.0,0.0
15.38,3518.073,0.00028,0.0,0.0
15.387,3439.024,0.00029,0.0,0.0
15.393,3407.958,0.00029,0.0,0.0
15.399,3394.203,0.00029,0.0,0.0
15.406,3369.773,0.0003,0.0,0.0
15.412,3361.623,0.0003,0.0,0.0
15.418,3353.705,0.0003,0.0,0.0
15.424,3357.167,0.0003,0.0,0.0
15.431,3337.128,0.0003,0.0,0.0
15.437,3340.799,0.0003,0.0,0.0
15.443,3334.127,0.0003,0.0,0.0
15.45,3332.339,0.0003,0.0,0.0
15.456,3333.576,0.0003,0.0,0.0
15.462,3338.348,0.0003,0.0,0.0
15.469,3330.766,0.0003,0.0,0.0
15.475,3334.096,0.0003,0.0,0.0
15.481,3318.602,0.0003,0.0,0.0
15.488,3321.513,0.0003,0.0,0.0
15.494,3320.26,0.0003,0.0,0.0
15.5,3320.429,0.0003,0.0,0.0
15.507,3329.583,0.0003,0.0,0.0
15.513,3318.743,0.0003,0.0,0.0
15.519,3316.493,0.0003,0.0,0.0
15.526,3327.847,0.0003,0.0,0.0
15.532,3313.279,0.0003,0.0,0.0
15.538,3300.371,0.0003,0.0,0.0
15.545,3305.257,0.0003,0.0,0.0
15.551,3302.431,0.0003,0.0,0.0
15.557,3301.707,0.0003,0.0,0.0
15.564,3297.855,0.0003,0.0,0.0
15.57,3295.44,0.0003,0.0,0.0
15.576,3286.052,0.0003,0.0,0.0
15.582,3292.617,0.0003,0.0,0.0
15.589,3281.016,0.0003,0.0,0.0
15.595,3287.129,0.0003,0.0,0.0
15.601,3281.202,0.0003,0.0,0.0
15.608,3281.561,0.0003,0.0,0.0
15.614,3273.029,0.00031,0.0,0.0
15.62,3270.218,0.00031,0.0,0.0
15.627,3283.755,0.0003,0.0,0.0
15.633,3260.819,0.00031,0.0,0.0
15.639,3266.609,0.00031,0.0,0.0
15.646,3262.003,0.00031,0.0,0.0
15.652,3259.045,0.00031,0.0,0.0
15.658,3253.487,0.00031,0.0,0.0
15.665,3243.239,0.00031,0.0,0.0
15.671,3256.008,0.00031,0.0,0.0
15.677,3243.785,0.00031,0.0,0.0
15.684,3235.051,0.00031,0.0,0.0
15.69,3234.965,0.00031,0.0,0.0
15.696,3242.406,0.00031,0.0,0.0
15.703,3226.609,0.00031,0.0,0.0
15.709,3241.344,0.00031,0.0,0.0
15.715,3231.852,0.00031,0.0,0.0
15.722,3229.193,0.00031,0.0,0.0
15.728,3234.35,0.00031,0.0,0.0
15.734,3224.742,0.00031,0.0,0.0
15.74,3222.414,0.00031,0.0,0.0
15.747,3220.087,0.00031,0.0,0.0
15.753,3211.601,0.00031,0.0,0.0
15.759,3223.705,0.00031,0.0,0.0
15.766,3226.643,0.00031,0.0,0.0
15.772,3207.567,0.00031,0.0,0.0
15.778,3218.731,0.00031,0.0,0.0
15.785,3195.362,0.00031,0.0,0.0
15.791,3204.839,0.00031,0.0,0.0
15.797,3195.81,0.00031,0.0,0.0
15.804,3194.719,0.00031,0.0,0.0
15.81,3210.322,0.00031,0.0,0.0
15.816,3202.308,0.00031,0.0,0.0
15.823,3210.006,0.00031,0.0,0.0
15.829,3196.996,0.00031,0.0,0.0
15.835,3195.044,0.00031,0.0,0.0
15.842,3214.824,0.00031,0.0,0.0
15.848,3229.693,0.00031,0.0,0.0
15.854,3208.226,0.00031,0.0,0.0
15.861,3207.126,0.00031,0.0,0.0
15.867,3275.296,0.00031,0.0,0.0
15.873,3202.65,0.00031,0.0,0.0
15.88,3195.919,0.00031,0.0,0.0
15.886,3192.67,0.00031,0.0,0.0
15.892,3189.947,0.00031,0.0,0.0
15.898,3185.405,0.00031,0.0,0.0
15.905,3166.084,0.00032,0.0,0.0
15.911,3192.134,0.00031,0.0,0.0
15.917,3166.828,0.00032,0.0,0.0
15.924,3176.305,0.00031,0.0,0.0
15.93,3172.363,0.00032,0.0,0.0
15.936,3172.549,0.00032,0.0,0.0
15.943,3170.12,0.00032,0.0,0.0
15.949,3166.413,0.00032,0.0,0.0
15.955,3163.127,0.00032,0.0,0.0
15.962,3160.417,0.00032,0.0,0.0
15.968,3175.173,0.00031,0.0,0.0
15.974,3172.264,0.00032,0.0,0.0
15.981,3167.788,0.00032,0.0,0.0
15.987,3167.01,0.00032,0.0,0.0
15.993,3151.675,0.00032,0.0,0.0
16.0,3156.919,0.00032,0.0,0.0
16.006,3150.208,0.00032,0.0,0.0
16.012,3156.91,0.00032,0.0,0.0
16.019,3155.977,0.00032,0.0,0.0
16.025,3157.638,0.00032,0.0,0.0
16.031,3151.113,0.00032,0.0,0.0
16.038,3143.387,0.00032,0.0,0.0
16.044,3152.403,0.00032,0.0,0.0
16.05,3147.894,0.00032,0.0,0.0
16.056,3154.118,0.00032,0.0,0.0
16.063,3154.57,0.00032,0.0,0.0
16.069,3146.302,0.00032,0.0,0.0
16.075,3158.731,0.00032,0.0,0.0
16.082,3148.299,0.00032,0.0,0.0
16.088,3151.851,0.00032,0.0,0.0
16.094,3149.836,0.00032,0.0,0.0
16.101,3151.169,0.00032,0.0,0.0
16.107,3134.767,0.00032,0.0,0.0
16.113,3147.996,0.00032,0.0,0.0
16.12,3146.992,0.00032,0.0,0.0
16.126,3149.911,0.00032,0.0,0.0
16.132,3149.55,0.00032,0.0,0.0
16.139,3153.671,0.00032,0.0,0.0
16.145,3138.635,0.00032,0.0,0.0
16.151,3128.254,0.00032,0.0,0.0
16.158,3135.768,0.00032,0.0,0.0
16.164,3137.358,0.00032,0.0,0.0
16.17,3129.052,0.00032,0.0,0.0
16.177,3134.137,0.00032,0.0,0.0
16.183,3130.927,0.00032,0.0,0.0
16.189,3132.137,0.00032,0.0,0.0
16.196,3130.281,0.00032,0.0,0.0
16.202,3134.749,0.00032,0.0,0.0
16.208,3130.056,0.00032,0.0,0.0
16.214,3128.481,0.00032,0.0,0.0
16.221,3143.118,0.00032,0.0,0.0
16.227,3127.092,0.00032,0.0,0.0
16.233,3140.625,0.00032,0.0,0.0
16.24,3124.606,0.00032,0.0,0.0
16.246,3128.416,0.00032,0.0,0.0
16.252,3129.488,0.00032,0.0,0.0
16.259,3135.011,0.00032,0.0,0.0
16.265,3130.096,0.00032,0.0,0.0
16.271,3124.41,0.00032,0.0,0.0
16.278,3123.076,0.00032,0.0,0.0
16.284,3134.844,0.00032,0.0,0.0
16.29,3122.093,0.00032,0.0,0.0
16.297,3133.033,0.00032,0.0,0.0
16.303,3120.625,0.00032,0.0,0.0
16.309,3131.423,0.00032,0.0,0.0
16.316,3135.74,0.00032,0.0,0.0
16.322,3124.288,0.00032,0.0,0.0
16.328,3134.745,0.00032,0.0,0.0
16.335,3126.295,0.00032,0.0,0.0
16.341,3118.896,0.00032,0.0,0.0
16.347,3131.357,0.00032,0.0,0.0
16.354,3125.732,0.00032,0.0,0.0
16.36,3127.929,0.00032,0.0,0.0
16.366,3133.598,0.00032,0.0,0.0
16.372,3135.446,0.00032,0.0,0.0
16.379,3130.198,0.00032,0.0,0.0
16.385,3115.186,0.00032,0.0,0.0
16.391,3116.324,0.00032,0.0,0.0
16.398,3123.755,0.00032,0.0,0.0
16.404,3128.393,0.00032,0.0,0.0
16.41,3135.215,0.00032,0.0,0.0
16.417,3121.899,0.00032,0.0,0.0
16.423,3135.432,0.00032,0.0,0.0
16.429,3124.223,0.00032,0.0,0.0
16.436,3125.955,0.00032,0.0,0.0
16.442,3136.292,0.00032,0.0,0.0
16.448,3124.118,0.00032,0.0,0.0
16.455,3127.817,0.00032,0.0,0.0
16.461,3144.303,0.00032,0.0,0.0
16.467,3139.409,0.00032,0.0,0.0
16.474,3154.707,0.00032,0.0,0.0
16.48,3136.865,0.00032,0.0,0.0
16.486,3145.472,0.00032,0.0,0.0
16.493,3159.935,0.00032,0.0,0.0
16.499,3167.484,0.00032,0.0,0.0
16.505,3188.497,0.00031,0.0,0.0
16.512,3200.374,0.00031,0.0,0.0
16.518,3208.747,0.00031,0.0,0.0
16.524,3216.488,0.00031,0.0,0.0
16.53,3200.726,0.00031,0.0,0.0
16.537,3184.939,0.00031,0.0,0.0
16.543,3177.704,0.00031,0.0,0.0
16.549,3166.427,0.00032,0.0,0.0
16.556,3144.894,0.00032,0.0,0.0
16.562,3161.18,0.00032,0.0,0.0
16.568,3150.76,0.00032,0.0,0.0
16.575,3153.016,0.00032,0.0,0.0
16.581,3152.946,0.00032,0.0,0.0
16.587,3153.473,0.00032,0.0,0.0
16.594,3148.539,0.00032,0.0,0.0
