"x","y_obs","weight","y_calc","y_bkg"
0.8,2831.218,0.00035,0.0,0.0
0.806,3174.384,0.00032,0.0,0.0
0.813,3313.977,0.0003,0.0,0.0
0.819,3145.558,0.00032,0.0,0.0
0.825,3837.664,0.00026,0.0,0.0
0.832,3604.477,0.00028,0.0,0.0
0.838,3851.221,0.00026,0.0,0.0
0.844,4157.744,0.00024,0.0,0.0
0.851,4027.457,0.00025,0.0,0.0
0.857,4366.923,0.00023,0.0,0.0
0.863,4797.249,0.00021,0.0,0.0
0.87,4396.981,0.00023,0.0,0.0
0.876,5225.091,0.00019,0.0,0.0
0.882,5010.931,0.0002,0.0,0.0
0.888,5293.374,0.00019,0.0,0.0
0.895,5502.093,0.00018,0.0,0.0
0.901,5512.142,0.00018,0.0,0.0
0.907,5886.964,0.00017,0.0,0.0
0.914,6039.152,0.00017,0.0,0.0
0.92,5748.797,0.00017,0.0,0.0
0.926,6334.553,0.00016,0.0,0.0
0.933,6376.294,0.00016,0.0,0.0
0.939,6160.219,0.00016,0.0,0.0
0.945,6727.176,0.00015,0.0,0.0
0.952,6358.827,0.00016,0.0,0.0
0.958,6688.095,0.00015,0.0,0.0
0.964,6770.841,0.00015,0.0,0.0
0.971,6519.783,0.00015,0.0,0.0
0.977,6891.291,0.00015,0.0,0.0
0.983,6908.308,0.00014,0.0,0.0
0.99,6711.135,0.00015,0.0,0.0
0.996,7027.659,0.00014,0.0,0.0
1.002,6795.433,0.00015,0.0,0.0
1.009,6942.385,0.00014,0.0,0.0
1.015,7056.89,0.00014,0.0,0.0
1.021,6872.308,0.00015,0.0,0.0
1.028,7119.546,0.00014,0.0,0.0
1.034,6966.416,0.00014,0.0,0.0
1.04,6907.169,0.00014,0.0,0.0
1.046,7006.994,0.00014,0.0,0.0
1.053,6967.311,0.00014,0.0,0.0
1.059,6909.1,0.00014,0.0,0.0
1.065,7009.027,0.00014,0.0,0.0
1.072,6844.083,0.00015,0.0,0.0
1.078,6918.888,0.00014,0.0,0.0
1.084,6809.201,0.00015,0.0,0.0
1.091,6844.629,0.00015,0.0,0.0
1.097,6830.46,0.00015,0.0,0.0
1.103,6798.789,0.00015,0.0,0.0
1.11,6751.982,0.00015,0.0,0.0
1.116,6720.855,0.00015,0.0,0.0
1.122,6685.248,0.00015,0.0,0.0
1.129,6688.33,0.00015,0.0,0.0
1.135,6584.694,0.00015,0.0,0.0
1.141,6616.707,0.00015,0.0,0.0
1.148,6572.84,0.00015,0.0,0.0
1.154,6453.159,0.00015,0.0,0.0
1.16,6472.629,0.00015,0.0,0.0
1.167,6401.838,0.00016,0.0,0.0
1.173,6368.915,0.00016,0.0,0.0
1.179,6353.0,0.00016,0.0,0.0
1.186,6299.301,0.00016,0.0,0.0
1.192,6223.713,0.00016,0.0,0.0
1.198,6270.364,0.00016,0.0,0.0
1.204,6147.328,0.00016,0.0,0.0
1.211,6150.093,0.00016,0.0,0.0
1.217,6132.224,0.00016,0.0,0.0
1.223,6060.984,0.00016,0.0,0.0
1.23,6025.182,0.00017,0.0,0.0
1.236,5984.581,0.00017,0.0,0.0
1.242,5963.5,0.00017,0.0,0.0
1.249,5971.266,0.00017,0.0,0.0
1.255,5901.104,0.00017,0.0,0.0
1.261,5894.51,0.00017,0.0,0.0
1.268,5876.15,0.00017,0.0,0.0
1.274,5811.253,0.00017,0.0,0.0
1.28,5828.073,0.00017,0.0,0.0
1.287,5767.531,0.00017,0.0,0.0
1.293,5786.993,0.00017,0.0,0.0
1.299,5693.915,0.00018,0.0,0.0
1.306,5721.506,0.00017,0.0,0.0
1.312,5693.873,0.00018,0.0,0.0
1.318,5679.397,0.00018,0.0,0.0
1.325,5648.85,0.00018,0.0,0.0
1.331,5664.006,0.00018,0.0,0.0
1.337,5626.097,0.00018,0.0,0.0
1.344,5639.651,0.00018,0.0,0.0
1.35,5617.104,0.00018,0.0,0.0
1.356,5579.759,0.00018,0.0,0.0
1.362,5564.971,0.00018,0.0,0.0
1.369,5548.725,0.00018,0.0,0.0
1.375,5544.549,0.00018,0.0,0.0
1.381,5565.11,0.00018,0.0,0.0
1.388,5515.548,0.00018,0.0,0.0
1.394,5475.35,0.00018,0.0,0.0
1.4,5517.156,0.00018,0.0,0.0
1.407,5485.609,0.00018,0.0,0.0
1.413,5486.149,0.00018,0.0,0.0
1.419,5446.209,0.00018,0.0,0.0
1.426,5467.213,0.00018,0.0,0.0
1.432,5441.729,0.00018,0.0,0.0
1.438,5444.046,0.00018,0.0,0.0
1.445,5455.887,0.00018,0.0,0.0
1.451,5446.431,0.00018,0.0,0.0
1.457,5441.699,0.00018,0.0,0.0
1.464,5442.613,0.00018,0.0,0.0
1.47,5422.924,0.00018,0.0,0.0
1.476,5412.013,0.00018,0.0,0.0
1.483,5442.255,0.00018,0.0,0.0
1.489,5424.306,0.00018,0.0,0.0
1.495,5434.51,0.00018,0.0,0.0
1.502,5389.37,0.00019,0.0,0.0
1.508,5392.12,0.00019,0.0,0.0
1.514,5440.957,0.00018,0.0,0.0
1.52,5446.993,0.00018,0.0,0.0
1.527,5435.232,0.00018,0.0,0.0
1.533,5454.709,0.00018,0.0,0.0
1.539,5459.485,0.00018,0.0,0.0
1.546,5438.331,0.00018,0.0,0.0
1.552,5456.247,0.00018,0.0,0.0
1.558,5465.008,0.00018,0.0,0.0
1.565,5488.206,0.00018,0.0,0.0
1.571,5477.929,0.00018,0.0,0.0
1.577,5456.05,0.00018,0.0,0.0
1.584,5494.699,0.00018,0.0,0.0
1.59,5508.939,0.00018,0.0,0.0
1.596,5473.227,0.00018,0.0,0.0
1.603,5551.102,0.00018,0.0,0.0
1.609,5531.98,0.00018,0.0,0.0
1.615,5564.647,0.00018,0.0,0.0
1.622,5525.225,0.00018,0.0,0.0
1.628,5582.54,0.00018,0.0,0.0
1.634,5573.811,0.00018,0.0,0.0
1.641,5574.754,0.00018,0.0,0.0
1.647,5592.886,0.00018,0.0,0.0
1.653,5602.852,0.00018,0.0,0.0
1.66,5609.288,0.00018,0.0,0.0
1.666,5665.767,0.00018,0.0,0.0
1.672,5639.834,0.00018,0.0,0.0
1.678,5634.641,0.00018,0.0,0.0
1.685,5663.985,0.00018,0.0,0.0
1.691,5659.13,0.00018,0.0,0.0
1.697,5660.55,0.00018,0.0,0.0
1.704,5694.522,0.00018,0.0,0.0
1.71,5707.159,0.00018,0.0,0.0
1.716,5715.449,0.00017,0.0,0.0
1.723,5696.824,0.00018,0.0,0.0
1.729,5745.539,0.00017,0.0,0.0
1.735,5739.812,0.00017,0.0,0.0
1.742,5775.916,0.00017,0.0,0.0
1.748,5792.495,0.00017,0.0,0.0
1.754,5749.032,0.00017,0.0,0.0
1.761,5790.635,0.00017,0.0,0.0
1.767,5815.382,0.00017,0.0,0.0
1.773,5826.09,0.00017,0.0,0.0
1.78,5818.216,0.00017,0.0,0.0
1.786,5826.96,0.00017,0.0,0.0
1.792,5830.601,0.00017,0.0,0.0
1.799,5835.269,0.00017,0.0,0.0
1.805,5845.229,0.00017,0.0,0.0
1.811,5845.984,0.00017,0.0,0.0
1.818,5845.559,0.00017,0.0,0.0
1.824,5860.313,0.00017,0.0,0.0
1.83,5870.612,0.00017,0.0,0.0
1.836,5848.759,0.00017,0.0,0.0
1.843,5884.266,0.00017,0.0,0.0
1.849,5860.922,0.00017,0.0,0.0
1.855,5878.35,0.00017,0.0,0.0
1.862,5866.726,0.00017,0.0,0.0
1.868,5864.563,0.00017,0.0,0.0
1.874,5866.117,0.00017,0.0,0.0
1.881,5879.904,0.00017,0.0,0.0
1.887,5880.923,0.00017,0.0,0.0
1.893,5876.923,0.00017,0.0,0.0
1.9,5893.584,0.00017,0.0,0.0
1.906,5857.431,0.00017,0.0,0.0
1.912,5864.836,0.00017,0.0,0.0
1.919,5853.303,0.00017,0.0,0.0
1.925,5858.118,0.00017,0.0,0.0
1.931,5867.106,0.00017,0.0,0.0
1.938,5871.333,0.00017,0.0,0.0
1.944,5855.896,0.00017,0.0,0.0
1.95,5872.102,0.00017,0.0,0.0
1.957,5843.248,0.00017,0.0,0.0
1.963,5861.62,0.00017,0.0,0.0
1.969,5854.069,0.00017,0.0,0.0
1.976,5844.053,0.00017,0.0,0.0
1.982,5861.599,0.00017,0.0,0.0
1.988,5853.131,0.00017,0.0,0.0
1.994,5867.9,0.00017,0.0,0.0
2.001,5856.717,0.00017,0.0,0.0
2.007,5900.041,0.00017,0.0,0.0
2.013,5854.869,0.00017,0.0,0.0
2.02,5880.624,0.00017,0.0,0.0
2.026,5853.29,0.00017,0.0,0.0
2.032,5901.771,0.00017,0.0,0.0
2.039,5903.633,0.00017,0.0,0.0
2.045,5899.612,0.00017,0.0,0.0
2.051,5903.353,0.00017,0.0,0.0
2.058,5872.849,0.00017,0.0,0.0
2.064,5906.535,0.00017,0.0,0.0
2.07,5888.879,0.00017,0.0,0.0
2.077,5878.892,0.00017,0.0,0.0
2.083,5913.068,0.00017,0.0,0.0
2.089,5923.308,0.00017,0.0,0.0
2.096,5914.997,0.00017,0.0,0.0
2.102,5933.305,0.00017,0.0,0.0
2.108,5922.437,0.00017,0.0,0.0
2.115,5949.293,0.00017,0.0,0.0
2.121,5940.172,0.00017,0.0,0.0
2.127,5955.105,0.00017,0.0,0.0
2.134,5969.54,0.00017,0.0,0.0
2.14,5966.846,0.00017,0.0,0.0
2.146,5985.277,0.00017,0.0,0.0
2.152,5989.211,0.00017,0.0,0.0
2.159,5977.122,0.00017,0.0,0.0
2.165,6026.471,0.00017,0.0,0.0
2.171,6005.202,0.00017,0.0,0.0
2.178,6028.538,0.00017,0.0,0.0
2.184,6010.496,0.00017,0.0,0.0
2.19,6038.293,0.00017,0.0,0.0
2.197,6001.164,0.00017,0.0,0.0
2.203,6059.946,0.00017,0.0,0.0
2.209,6082.407,0.00016,0.0,0.0
2.216,6067.742,0.00016,0.0,0.0
2.222,6088.83,0.00016,0.0,0.0
2.228,6092.161,0.00016,0.0,0.0
2.235,6098.261,0.00016,0.0,0.0
2.241,6101.182,0.00016,0.0,0.0
2.247,6140.969,0.00016,0.0,0.0
2.254,6132.045,0.00016,0.0,0.0
2.26,6185.033,0.00016,0.0,0.0
2.266,6175.245,0.00016,0.0,0.0
2.273,6200.525,0.00016,0.0,0.0
2.279,6229.225,0.00016,0.0,0.0
2.285,6229.935,0.00016,0.0,0.0
2.292,6207.756,0.00016,0.0,0.0
2.298,6273.137,0.00016,0.0,0.0
2.304,6284.538,0.00016,0.0,0.0
2.31,6303.184,0.00016,0.0,0.0
2.317,6312.482,0.00016,0.0,0.0
2.323,6353.857,0.00016,0.0,0.0
2.329,6357.487,0.00016,0.0,0.0
2.336,6391.761,0.00016,0.0,0.0
2.342,6386.783,0.00016,0.0,0.0
2.348,6401.199,0.00016,0.0,0.0
2.355,6437.869,0.00016,0.0,0.0
2.361,6434.504,0.00016,0.0,0.0
2.367,6472.836,0.00015,0.0,0.0
2.374,6499.603,0.00015,0.0,0.0
2.38,6530.354,0.00015,0.0,0.0
2.386,6573.005,0.00015,0.0,0.0
2.393,6635.078,0.00015,0.0,0.0
2.399,6659.605,0.00015,0.0,0.0
2.405,6755.018,0.00015,0.0,0.0
2.412,6894.701,0.00015,0.0,0.0
2.418,6975.154,0.00014,0.0,0.0
2.424,7040.817,0.00014,0.0,0.0
2.431,7097.136,0.00014,0.0,0.0
2.437,7062.228,0.00014,0.0,0.0
2.443,6995.269,0.00014,0.0,0.0
2.45,6965.257,0.00014,0.0,0.0
2.456,6896.772,0.00014,0.0,0.0
2.462,6873.65,0.00015,0.0,0.0
2.468,6871.297,0.00015,0.0,0.0
2.475,6855.826,0.00015,0.0,0.0
2.481,6885.927,0.00015,0.0,0.0
2.487,6888.247,0.00015,0.0,0.0
2.494,6941.135,0.00014,0.0,0.0
2.5,6958.671,0.00014,0.0,0.0
2.506,6955.518,0.00014,0.0,0.0
2.513,6987.577,0.00014,0.0,0.0
2.519,7010.201,0.00014,0.0,0.0
2.525,7006.872,0.00014,0.0,0.0
2.532,7055.206,0.00014,0.0,0.0
2.538,7062.536,0.00014,0.0,0.0
2.544,7106.886,0.00014,0.0,0.0
2.551,7094.447,0.00014,0.0,0.0
2.557,7138.174,0.00014,0.0,0.0
2.563,7143.244,0.00014,0.0,0.0
2.57,7182.219,0.00014,0.0,0.0
2.576,7201.698,0.00014,0.0,0.0
2.582,7224.889,0.00014,0.0,0.0
2.589,7293.767,0.00014,0.0,0.0
2.595,7297.252,0.00014,0.0,0.0
2.601,7309.603,0.00014,0.0,0.0
2.608,7343.145,0.00014,0.0,0.0
2.614,7354.734,0.00014,0.0,0.0
2.62,7394.237,0.00014,0.0,0.0
2.626,7411.532,0.00013,0.0,0.0
2.633,7428.428,0.00013,0.0,0.0
2.639,7450.935,0.00013,0.0,0.0
2.645,7464.521,0.00013,0.0,0.0
2.652,7504.142,0.00013,0.0,0.0
2.658,7513.325,0.00013,0.0,0.0
2.664,7562.488,0.00013,0.0,0.0
2.671,7566.917,0.00013,0.0,0.0
2.677,7602.805,0.00013,0.0,0.0
2.683,7642.866,0.00013,0.0,0.0
2.69,7660.5,0.00013,0.0,0.0
2.696,7700.69,0.00013,0.0,0.0
2.702,7698.29,0.00013,0.0,0.0
2.709,7717.736,0.00013,0.0,0.0
2.715,7741.913,0.00013,0.0,0.0
2.721,7784.412,0.00013,0.0,0.0
2.728,7803.229,0.00013,0.0,0.0
2.734,7825.997,0.00013,0.0,0.0
2.74,7830.575,0.00013,0.0,0.0
2.747,7869.339,0.00013,0.0,0.0
2.753,7903.887,0.00013,0.0,0.0
2.759,7904.305,0.00013,0.0,0.0
2.766,7937.716,0.00013,0.0,0.0
2.772,7980.705,0.00013,0.0,0.0
2.778,8008.848,0.00012,0.0,0.0
2.784,8037.075,0.00012,0.0,0.0
2.791,8069.549,0.00012,0.0,0.0
2.797,8095.528,0.00012,0.0,0.0
2.803,8104.332,0.00012,0.0,0.0
2.81,8116.071,0.00012,0.0,0.0
2.816,8153.184,0.00012,0.0,0.0
2.822,8212.878,0.00012,0.0,0.0
2.829,8198.292,0.00012,0.0,0.0
2.835,8226.026,0.00012,0.0,0.0
2.841,8224.263,0.00012,0.0,0.0
2.848,8292.608,0.00012,0.0,0.0
2.854,8296.386,0.00012,0.0,0.0
2.86,8323.61,0.00012,0.0,0.0
2.867,8366.256,0.00012,0.0,0.0
2.873,8380.316,0.00012,0.0,0.0
2.879,8392.446,0.00012,0.0,0.0
2.886,8409.952,0.00012,0.0,0.0
2.892,8474.345,0.00012,0.0,0.0
2.898,8495.039,0.00012,0.0,0.0
2.905,8489.448,0.00012,0.0,0.0
2.911,8557.109,0.00012,0.0,0.0
2.917,8560.879,0.00012,0.0,0.0
2.924,8546.315,0.00012,0.0,0.0
2.93,8603.67,0.00012,0.0,0.0
2.936,8588.253,0.00012,0.0,0.0
2.942,8624.039,0.00012,0.0,0.0
2.949,8662.472,0.00012,0.0,0.0
2.955,8650.113,0.00012,0.0,0.0
2.961,8692.656,0.00012,0.0,0.0
2.968,8682.231,0.00012,0.0,0.0
2.974,8697.058,0.00011,0.0,0.0
2.98,8733.919,0.00011,0.0,0.0
2.987,8742.483,0.00011,0.0,0.0
2.993,8760.037,0.00011,0.0,0.0
2.999,8791.391,0.00011,0.0,0.0
3.006,8789.429,0.00011,0.0,0.0
3.012,8802.589,0.00011,0.0,0.0
3.018,8805.293,0.00011,0.0,0.0
3.025,8818.686,0.00011,0.0,0.0
3.031,8812.639,0.00011,0.0,0.0
3.037,8850.053,0.00011,0.0,0.0
3.044,8856.034,0.00011,0.0,0.0
3.05,8864.252,0.00011,0.0,0.0
3.056,8842.451,0.00011,0.0,0.0
3.063,8873.121,0.00011,0.0,0.0
3.069,8861.618,0.00011,0.0,0.0
3.075,8902.048,0.00011,0.0,0.0
3.082,8872.231,0.00011,0.0,0.0
3.088,8885.847,0.00011,0.0,0.0
3.094,8865.491,0.00011,0.0,0.0
3.1,8903.051,0.00011,0.0,0.0
3.107,8898.255,0.00011,0.0,0.0
3.113,8885.143,0.00011,0.0,0.0
3.119,8891.851,0.00011,0.0,0.0
3.126,8895.779,0.00011,0.0,0.0
3.132,8914.393,0.00011,0.0,0.0
3.138,8873.761,0.00011,0.0,0.0
3.145,8858.378,0.00011,0.0,0.0
3.151,8864.312,0.00011,0.0,0.0
3.157,8856.081,0.00011,0.0,0.0
3.164,8839.421,0.00011,0.0,0.0
3.17,8853.46,0.00011,0.0,0.0
3.176,8858.51,0.00011,0.0,0.0
3.183,8817.35,0.00011,0.0,0.0
3.189,8816.778,0.00011,0.0,0.0
3.195,8818.911,0.00011,0.0,0.0
3.202,8799.954,0.00011,0.0,0.0
3.208,8786.414,0.00011,0.0,0.0
3.214,8779.015,0.00011,0.0,0.0
3.221,8764.594,0.00011,0.0,0.0
3.227,8738.981,0.00011,0.0,0.0
3.233,8739.181,0.00011,0.0,0.0
3.24,8771.826,0.00011,0.0,0.0
3.246,8739.582,0.00011,0.0,0.0
3.252,8746.496,0.00011,0.0,0.0
3.258,8705.781,0.00011,0.0,0.0
3.265,8662.183,0.00012,0.0,0.0
3.271,8683.138,0.00012,0.0,0.0
3.277,8638.84,0.00012,0.0,0.0
3.284,8625.634,0.00012,0.0,0.0
3.29,8632.756,0.00012,0.0,0.0
3.296,8609.252,0.00012,0.0,0.0
3.303,8618.095,0.00012,0.0,0.0
3.309,8569.002,0.00012,0.0,0.0
3.315,8577.916,0.00012,0.0,0.0
3.322,8578.857,0.00012,0.0,0.0
3.328,8545.114,0.00012,0.0,0.0
3.334,8520.471,0.00012,0.0,0.0
3.341,8506.118,0.00012,0.0,0.0
3.347,8494.601,0.00012,0.0,0.0
3.353,8475.825,0.00012,0.0,0.0
3.36,8466.377,0.00012,0.0,0.0
3.366,8452.499,0.00012,0.0,0.0
3.372,8436.152,0.00012,0.0,0.0
3.379,8434.355,0.00012,0.0,0.0
3.385,8417.735,0.00012,0.0,0.0
3.391,8395.592,0.00012,0.0,0.0
3.398,8419.298,0.00012,0.0,0.0
3.404,8395.299,0.00012,0.0,0.0
3.41,8365.003,0.00012,0.0,0.0
3.416,8331.974,0.00012,0.0,0.0
3.423,8362.849,0.00012,0.0,0.0
3.429,8352.106,0.00012,0.0,0.0
3.435,8293.589,0.00012,0.0,0.0
3.442,8334.291,0.00012,0.0,0.0
3.448,8268.22,0.00012,0.0,0.0
3.454,8271.411,0.00012,0.0,0.0
3.461,8223.624,0.00012,0.0,0.0
3.467,8258.354,0.00012,0.0,0.0
3.473,8226.888,0.00012,0.0,0.0
3.48,8213.773,0.00012,0.0,0.0
3.486,8211.475,0.00012,0.0,0.0
3.492,8196.733,0.00012,0.0,0.0
3.499,8192.487,0.00012,0.0,0.0
3.505,8194.279,0.00012,0.0,0.0
3.511,8156.229,0.00012,0.0,0.0
3.518,8166.18,0.00012,0.0,0.0
3.524,8134.169,0.00012,0.0,0.0
3.53,8127.603,0.00012,0.0,0.0
3.537,8144.939,0.00012,0.0,0.0
3.543,8112.357,0.00012,0.0,0.0
3.549,8116.788,0.00012,0.0,0.0
3.556,8116.99,0.00012,0.0,0.0
3.562,8118.936,0.00012,0.0,0.0
3.568,8053.163,0.00012,0.0,0.0
3.574,8103.999,0.00012,0.0,0.0
3.581,8071.254,0.00012,0.0,0.0
3.587,8070.508,0.00012,0.0,0.0
3.593,8089.444,0.00012,0.0,0.0
3.6,8110.303,0.00012,0.0,0.0
3.606,8089.606,0.00012,0.0,0.0
3.612,8100.957,0.00012,0.0,0.0
3.619,8106.72,0.00012,0.0,0.0
3.625,8087.52,0.00012,0.0,0.0
3.631,8104.135,0.00012,0.0,0.0
3.638,8110.649,0.00012,0.0,0.0
3.644,8112.947,0.00012,0.0,0.0
3.65,8109.166,0.00012,0.0,0.0
3.657,8148.715,0.00012,0.0,0.0
3.663,8134.482,0.00012,0.0,0.0
3.669,8163.538,0.00012,0.0,0.0
3.676,8189.591,0.00012,0.0,0.0
3.682,8168.451,0.00012,0.0,0.0
3.688,8212.902,0.00012,0.0,0.0
3.695,8225.162,0.00012,0.0,0.0
3.701,8263.358,0.00012,0.0,0.0
3.707,8278.67,0.00012,0.0,0.0
3.714,8312.688,0.00012,0.0,0.0
3.72,8319.444,0.00012,0.0,0.0
3.726,8356.34,0.00012,0.0,0.0
3.732,8346.359,0.00012,0.0,0.0
3.739,8364.766,0.00012,0.0,0.0
3.745,8400.48,0.00012,0.0,0.0
3.751,8404.229,0.00012,0.0,0.0
3.758,8449.6,0.00012,0.0,0.0
3.764,8480.059,0.00012,0.0,0.0
3.77,8467.9,0.00012,0.0,0.0
3.777,8508.167,0.00012,0.0,0.0
3.783,8537.518,0.00012,0.0,0.0
3.789,8556.62,0.00012,0.0,0.0
3.796,8588.335,0.00012,0.0,0.0
3.802,8593.554,0.00012,0.0,0.0
3.808,8637.071,0.00012,0.0,0.0
3.815,8670.307,0.00012,0.0,0.0
3.821,8689.356,0.00012,0.0,0.0
3.827,8677.761,0.00012,0.0,0.0
3.834,8695.302,0.00012,0.0,0.0
3.84,8692.791,0.00012,0.0,0.0
3.846,8708.789,0.00011,0.0,0.0
3.853,8703.92,0.00011,0.0,0.0
3.859,8706.981,0.00011,0.0,0.0
3.865,8710.657,0.00011,0.0,0.0
3.872,8710.575,0.00011,0.0,0.0
3.878,8692.735,0.00012,0.0,0.0
3.884,8668.905,0.00012,0.0,0.0
3.89,8667.114,0.00012,0.0,0.0
3.897,8640.545,0.00012,0.0,0.0
3.903,8631.374,0.00012,0.0,0.0
3.909,8584.777,0.00012,0.0,0.0
3.916,8581.315,0.00012,0.0,0.0
3.922,8578.775,0.00012,0.0,0.0
3.928,8584.087,0.00012,0.0,0.0
3.935,8509.05,0.00012,0.0,0.0
3.941,8543.337,0.00012,0.0,0.0
3.947,8532.869,0.00012,0.0,0.0
3.954,8500.648,0.00012,0.0,0.0
3.96,8502.469,0.00012,0.0,0.0
3.966,8483.335,0.00012,0.0,0.0
3.973,8475.405,0.00012,0.0,0.0
3.979,8421.93,0.00012,0.0,0.0
3.985,8397.485,0.00012,0.0,0.0
3.992,8388.226,0.00012,0.0,0.0
3.998,8372.522,0.00012,0.0,0.0
4.004,8343.117,0.00012,0.0,0.0
4.011,8341.711,0.00012,0.0,0.0
4.017,8326.035,0.00012,0.0,0.0
4.023,8306.26,0.00012,0.0,0.0
4.03,8344.034,0.00012,0.0,0.0
4.036,8283.797,0.00012,0.0,0.0
4.042,8316.83,0.00012,0.0,0.0
4.048,8285.815,0.00012,0.0,0.0
4.055,8244.036,0.00012,0.0,0.0
4.061,8290.407,0.00012,0.0,0.0
4.067,8309.057,0.00012,0.0,0.0
4.074,8259.669,0.00012,0.0,0.0
4.08,8250.753,0.00012,0.0,0.0
4.086,8235.293,0.00012,0.0,0.0
4.093,8261.541,0.00012,0.0,0.0
4.099,8270.187,0.00012,0.0,0.0
4.105,8269.938,0.00012,0.0,0.0
4.112,8324.605,0.00012,0.0,0.0
4.118,8279.11,0.00012,0.0,0.0
4.124,8316.158,0.00012,0.0,0.0
4.131,8307.971,0.00012,0.0,0.0
4.137,8311.046,0.00012,0.0,0.0
4.143,8332.188,0.00012,0.0,0.0
4.15,8311.659,0.00012,0.0,0.0
4.156,8332.491,0.00012,0.0,0.0
4.162,8374.966,0.00012,0.0,0.0
4.169,8340.438,0.00012,0.0,0.0
4.175,8406.375,0.00012,0.0,0.0
4.181,8398.089,0.00012,0.0,0.0
4.188,8391.752,0.00012,0.0,0.0
4.194,8443.745,0.00012,0.0,0.0
4.2,8442.842,0.00012,0.0,0.0
4.206,8460.4,0.00012,0.0,0.0
4.213,8506.029,0.00012,0.0,0.0
4.219,8495.573,0.00012,0.0,0.0
4.225,8556.726,0.00012,0.0,0.0
4.232,8583.689,0.00012,0.0,0.0
4.238,8565.846,0.00012,0.0,0.0
4.244,8622.556,0.00012,0.0,0.0
4.251,8603.944,0.00012,0.0,0.0
4.257,8635.709,0.00012,0.0,0.0
4.263,8733.593,0.00011,0.0,0.0
4.27,8677.139,0.00012,0.0,0.0
4.276,8825.937,0.00011,0.0,0.0
4.282,8812.596,0.00011,0.0,0.0
4.289,8806.157,0.00011,0.0,0.0
4.295,8916.75,0.00011,0.0,0.0
4.301,8884.498,0.00011,0.0,0.0
4.308,8948.603,0.00011,0.0,0.0
4.314,9005.489,0.00011,0.0,0.0
4.32,8987.549,0.00011,0.0,0.0
4.327,9042.739,0.00011,0.0,0.0
4.333,9093.749,0.00011,0.0,0.0
4.339,9129.437,0.00011,0.0,0.0
4.346,9277.55,0.00011,0.0,0.0
4.352,9190.847,0.00011,0.0,0.0
4.358,9372.189,0.00011,0.0,0.0
4.364,9400.573,0.00011,0.0,0.0
4.371,9296.165,0.00011,0.0,0.0
4.377,9692.029,0.0001,0.0,0.0
4.383,9531.793,0.0001,0.0,0.0
4.39,9692.857,0.0001,0.0,0.0
4.396,9800.893,0.0001,0.0,0.0
4.402,9724.221,0.0001,0.0,0.0
4.409,9887.937,0.0001,0.0,0.0
4.415,10016.925,0.0001,0.0,0.0
4.421,10001.024,0.0001,0.0,0.0
4.428,10376.607,0.0001,0.0,0.0
4.434,10280.53,0.0001,0.0,0.0
4.44,10354.861,0.0001,0.0,0.0
4.447,10683.789,0.00009,0.0,0.0
4.453,10558.351,0.00009,0.0,0.0
4.459,11116.436,0.00009,0.0,0.0
4.466,11233.75,0.00009,0.0,0.0
4.472,11186.65,0.00009,0.0,0.0
4.478,12011.965,0.00008,0.0,0.0
4.485,11761.598,0.00009,0.0,0.0
4.491,12483.426,0.00008,0.0,0.0
4.497,13804.364,0.00007,0.0,0.0
4.504,13486.114,0.00007,0.0,0.0
4.51,16588.625,0.00006,0.0,0.0
4.516,17962.98,0.00006,0.0,0.0
4.522,20351.351,0.00005,0.0,0.0
4.529,34801.468,0.00003,0.0,0.0
4.535,43160.307,0.00002,0.0,0.0
4.541,53993.084,0.00002,0.0,0.0
4.548,91354.587,0.00001,0.0,0.0
4.554,69283.508,0.00001,0.0,0.0
4.56,100476.326,0.00001,0.0,0.0
4.567,88952.943,0.00001,0.0,0.0
4.573,83769.86,0.00001,0.0,0.0
4.579,79160.608,0.00001,0.0,0.0
4.586,50764.164,0.00002,0.0,0.0
4.592,50459.269,0.00002,0.0,0.0
4.598,28587.91,0.00003,0.0,0.0
4.605,26152.777,0.00004,0.0,0.0
4.611,19122.937,0.00005,0.0,0.0
4.617,17469.669,0.00006,0.0,0.0
4.624,14113.037,0.00007,0.0,0.0
4.63,14088.928,0.00007,0.0,0.0
4.636,12364.608,0.00008,0.0,0.0
4.643,12451.617,0.00008,0.0,0.0
4.649,11889.112,0.00008,0.0,0.0
4.655,11357.259,0.00009,0.0,0.0
4.662,11603.531,0.00009,0.0,0.0
4.668,10994.775,0.00009,0.0,0.0
4.674,10721.854,0.00009,0.0,0.0
4.68,10943.869,0.00009,0.0,0.0
4.687,10358.439,0.0001,0.0,0.0
4.693,10457.142,0.0001,0.0,0.0
4.699,10340.761,0.0001,0.0,0.0
4.706,10029.59,0.0001,0.0,0.0
4.712,10219.341,0.0001,0.0,0.0
4.718,9905.842,0.0001,0.0,0.0
4.725,9681.851,0.0001,0.0,0.0
4.731,9975.032,0.0001,0.0,0.0
4.737,9536.151,0.0001,0.0,0.0
4.744,9625.913,0.0001,0.0,0.0
4.75,9514.893,0.00011,0.0,0.0
4.756,9375.765,0.00011,0.0,0.0
4.763,9380.96,0.00011,0.0,0.0
4.769,9238.943,0.00011,0.0,0.0
4.775,9163.19,0.00011,0.0,0.0
4.782,9192.341,0.00011,0.0,0.0
4.788,9061.831,0.00011,0.0,0.0
4.794,8960.57,0.00011,0.0,0.0
4.801,8986.508,0.00011,0.0,0.0
4.807,8808.701,0.00011,0.0,0.0
4.813,8882.024,0.00011,0.0,0.0
4.82,8749.551,0.00011,0.0,0.0
4.826,8759.841,0.00011,0.0,0.0
4.832,8792.415,0.00011,0.0,0.0
4.838,8746.006,0.00011,0.0,0.0
4.845,8796.935,0.00011,0.0,0.0
4.851,8906.756,0.00011,0.0,0.0
4.857,8913.725,0.00011,0.0,0.0
4.864,8901.491,0.00011,0.0,0.0
4.87,8795.85,0.00011,0.0,0.0
4.876,8633.962,0.00012,0.0,0.0
4.883,8567.026,0.00012,0.0,0.0
4.889,8327.594,0.00012,0.0,0.0
4.895,8287.739,0.00012,0.0,0.0
4.902,8195.958,0.00012,0.0,0.0
4.908,8122.46,0.00012,0.0,0.0
4.914,8089.62,0.00012,0.0,0.0
4.921,8013.238,0.00012,0.0,0.0
4.927,7951.817,0.00013,0.0,0.0
4.933,7956.81,0.00013,0.0,0.0
4.94,7879.312,0.00013,0.0,0.0
4.946,7846.059,0.00013,0.0,0.0
4.952,7835.147,0.00013,0.0,0.0
4.959,7766.93,0.00013,0.0,0.0
4.965,7765.414,0.00013,0.0,0.0
4.971,7687.116,0.00013,0.0,0.0
4.978,7686.148,0.00013,0.0,0.0
4.984,7682.748,0.00013,0.0,0.0
4.99,7582.41,0.00013,0.0,0.0
4.996,7589.261,0.00013,0.0,0.0
5.003,7554.554,0.00013,0.0,0.0
5.009,7489.345,0.00013,0.0,0.0
5.015,7547.469,0.00013,0.0,0.0
5.022,7431.227,0.00013,0.0,0.0
5.028,7435.769,0.00013,0.0,0.0
5.034,7437.402,0.00013,0.0,0.0
5.041,7365.123,0.00014,0.0,0.0
5.047,7350.516,0.00014,0.0,0.0
5.053,7336.458,0.00014,0.0,0.0
5.06,7303.516,0.00014,0.0,0.0
5.066,7285.338,0.00014,0.0,0.0
5.072,7269.324,0.00014,0.0,0.0
5.079,7197.557,0.00014,0.0,0.0
5.085,7230.935,0.00014,0.0,0.0
5.091,7135.4,0.00014,0.0,0.0
5.098,7171.475,0.00014,0.0,0.0
5.104,7134.512,0.00014,0.0,0.0
5.11,7095.477,0.00014,0.0,0.0
5.117,7110.033,0.00014,0.0,0.0
5.123,7053.392,0.00014,0.0,0.0
5.129,7033.348,0.00014,0.0,0.0
5.136,7023.974,0.00014,0.0,0.0
5.142,6989.945,0.00014,0.0,0.0
5.148,6978.877,0.00014,0.0,0.0
5.154,6966.046,0.00014,0.0,0.0
5.161,6920.458,0.00014,0.0,0.0
5.167,6933.952,0.00014,0.0,0.0
5.173,6876.727,0.00015,0.0,0.0
5.18,6891.682,0.00015,0.0,0.0
5.186,6876.062,0.00015,0.0,0.0
5.192,6839.513,0.00015,0.0,0.0
5.199,6835.481,0.00015,0.0,0.0
5.205,6798.173,0.00015,0.0,0.0
5.211,6784.325,0.00015,0.0,0.0
5.218,6770.542,0.00015,0.0,0.0
5.224,6759.611,0.00015,0.0,0.0
5.23,6735.141,0.00015,0.0,0.0
5.237,6748.268,0.00015,0.0,0.0
5.243,6687.942,0.00015,0.0,0.0
5.249,6707.535,0.00015,0.0,0.0
5.256,6675.674,0.00015,0.0,0.0
5.262,6664.299,0.00015,0.0,0.0
5.268,6678.939,0.00015,0.0,0.0
5.275,6631.23,0.00015,0.0,0.0
5.281,6592.213,0.00015,0.0,0.0
5.287,6620.275,0.00015,0.0,0.0
5.294,6541.925,0.00015,0.0,0.0
5.3,6584.775,0.00015,0.0,0.0
5.306,6562.38,0.00015,0.0,0.0
5.312,6519.608,0.00015,0.0,0.0
5.319,6535.624,0.00015,0.0,0.0
5.325,6505.535,0.00015,0.0,0.0
5.331,6505.657,0.00015,0.0,0.0
5.338,6503.413,0.00015,0.0,0.0
5.344,6489.734,0.00015,0.0,0.0
5.35,6483.491,0.00015,0.0,0.0
5.357,6480.896,0.00015,0.0,0.0
5.363,6414.357,0.00016,0.0,0.0
5.369,6463.384,0.00015,0.0,0.0
5.376,6412.541,0.00016,0.0,0.0
5.382,6411.787,0.00016,0.0,0.0
5.388,6426.451,0.00016,0.0,0.0
5.395,6408.215,0.00016,0.0,0.0
5.401,6404.246,0.00016,0.0,0.0
5.407,6391.23,0.00016,0.0,0.0
5.414,6370.84,0.00016,0.0,0.0
5.42,6396.283,0.00016,0.0,0.0
5.426,6353.472,0.00016,0.0,0.0
5.433,6345.912,0.00016,0.0,0.0
5.439,6350.388,0.00016,0.0,0.0
5.445,6323.471,0.00016,0.0,0.0
5.452,6340.56,0.00016,0.0,0.0
5.458,6320.128,0.00016,0.0,0.0
5.464,6324.027,0.00016,0.0,0.0
5.47,6334.662,0.00016,0.0,0.0
5.477,6287.769,0.00016,0.0,0.0
5.483,6300.852,0.00016,0.0,0.0
5.489,6302.719,0.00016,0.0,0.0
5.496,6276.33,0.00016,0.0,0.0
5.502,6272.672,0.00016,0.0,0.0
5.508,6267.34,0.00016,0.0,0.0
5.515,6273.582,0.00016,0.0,0.0
5.521,6259.187,0.00016,0.0,0.0
5.527,6256.416,0.00016,0.0,0.0
5.534,6260.97,0.00016,0.0,0.0
5.54,6230.181,0.00016,0.0,0.0
5.546,6247.237,0.00016,0.0,0.0
5.553,6249.155,0.00016,0.0,0.0
5.559,6233.702,0.00016,0.0,0.0
5.565,6222.878,0.00016,0.0,0.0
5.572,6243.641,0.00016,0.0,0.0
5.578,6251.155,0.00016,0.0,0.0
5.584,6225.437,0.00016,0.0,0.0
5.591,6225.07,0.00016,0.0,0.0
5.597,6216.668,0.00016,0.0,0.0
5.603,6214.984,0.00016,0.0,0.0
5.61,6212.028,0.00016,0.0,0.0
5.616,6224.02,0.00016,0.0,0.0
5.622,6203.415,0.00016,0.0,0.0
5.628,6239.33,0.00016,0.0,0.0
5.635,6231.561,0.00016,0.0,0.0
5.641,6188.857,0.00016,0.0,0.0
5.647,6189.053,0.00016,0.0,0.0
5.654,6219.967,0.00016,0.0,0.0
5.66,6200.445,0.00016,0.0,0.0
5.666,6191.966,0.00016,0.0,0.0
5.673,6220.371,0.00016,0.0,0.0
5.679,6179.121,0.00016,0.0,0.0
5.685,6202.89,0.00016,0.0,0.0
5.692,6199.412,0.00016,0.0,0.0
5.698,6180.857,0.00016,0.0,0.0
5.704,6197.95,0.00016,0.0,0.0
5.711,6189.188,0.00016,0.0,0.0
5.717,6181.077,0.00016,0.0,0.0
5.723,6205.311,0.00016,0.0,0.0
5.73,6165.392,0.00016,0.0,0.0
5.736,6213.473,0.00016,0.0,0.0
5.742,6219.076,0.00016,0.0,0.0
5.749,6210.158,0.00016,0.0,0.0
5.755,6222.502,0.00016,0.0,0.0
5.761,6226.445,0.00016,0.0,0.0
5.768,6217.898,0.00016,0.0,0.0
5.774,6235.368,0.00016,0.0,0.0
5.78,6247.586,0.00016,0.0,0.0
5.786,6282.15,0.00016,0.0,0.0
5.793,6268.551,0.00016,0.0,0.0
5.799,6259.789,0.00016,0.0,0.0
5.805,6285.373,0.00016,0.0,0.0
5.812,6271.564,0.00016,0.0,0.0
5.818,6317.033,0.00016,0.0,0.0
5.824,6338.262,0.00016,0.0,0.0
5.831,6379.031,0.00016,0.0,0.0
5.837,6425.675,0.00016,0.0,0.0
5.843,6495.789,0.00015,0.0,0.0
5.85,6627.966,0.00015,0.0,0.0
5.856,6778.104,0.00015,0.0,0.0
5.862,7056.189,0.00014,0.0,0.0
5.869,7384.639,0.00014,0.0,0.0
5.875,7687.995,0.00013,0.0,0.0
5.881,7869.925,0.00013,0.0,0.0
5.888,7921.961,0.00013,0.0,0.0
5.894,7680.751,0.00013,0.0,0.0
5.9,7419.141,0.00013,0.0,0.0
5.907,7065.558,0.00014,0.0,0.0
5.913,6794.561,0.00015,0.0,0.0
5.919,6574.438,0.00015,0.0,0.0
5.926,6409.647,0.00016,0.0,0.0
5.932,6325.995,0.00016,0.0,0.0
5.938,6284.184,0.00016,0.0,0.0
5.944,6244.754,0.00016,0.0,0.0
5.951,6231.578,0.00016,0.0,0.0
5.957,6258.019,0.00016,0.0,0.0
5.963,6281.473,0.00016,0.0,0.0
5.97,6189.627,0.00016,0.0,0.0
5.976,6163.546,0.00016,0.0,0.0
5.982,6142.454,0.00016,0.0,0.0
5.989,6097.119,0.00016,0.0,0.0
5.995,6096.66,0.00016,0.0,0.0
6.001,6097.868,0.00016,0.0,0.0
6.008,6059.661,0.00017,0.0,0.0
6.014,6064.244,0.00016,0.0,0.0
6.02,6086.334,0.00016,0.0,0.0
6.027,6055.412,0.00017,0.0,0.0
6.033,6081.301,0.00016,0.0,0.0
6.039,6047.928,0.00017,0.0,0.0
6.046,6047.689,0.00017,0.0,0.0
6.052,6060.682,0.00016,0.0,0.0
6.058,6019.04,0.00017,0.0,0.0
6.065,6020.097,0.00017,0.0,0.0
6.071,6037.942,0.00017,0.0,0.0
6.077,6018.744,0.00017,0.0,0.0
6.084,5993.768,0.00017,0.0,0.0
6.09,6047.587,0.00017,0.0,0.0
6.096,5985.707,0.00017,0.0,0.0
6.102,5998.58,0.00017,0.0,0.0
6.109,6006.349,0.00017,0.0,0.0
6.115,5993.797,0.00017,0.0,0.0
6.121,6007.276,0.00017,0.0,0.0
6.128,5984.972,0.00017,0.0,0.0
6.134,6017.096,0.00017,0.0,0.0
6.14,6000.412,0.00017,0.0,0.0
6.147,6027.327,0.00017,0.0,0.0
6.153,5974.073,0.00017,0.0,0.0
6.159,6007.978,0.00017,0.0,0.0
6.166,5970.341,0.00017,0.0,0.0
6.172,6004.343,0.00017,0.0,0.0
6.178,5995.537,0.00017,0.0,0.0
6.185,5986.951,0.00017,0.0,0.0
6.191,5999.868,0.00017,0.0,0.0
6.197,6021.757,0.00017,0.0,0.0
6.204,5984.25,0.00017,0.0,0.0
6.21,6046.572,0.00017,0.0,0.0
6.216,5997.491,0.00017,0.0,0.0
6.223,6039.624,0.00017,0.0,0.0
6.229,6029.895,0.00017,0.0,0.0
6.235,6026.268,0.00017,0.0,0.0
6.242,6048.642,0.00017,0.0,0.0
6.248,6044.735,0.00017,0.0,0.0
6.254,6004.181,0.00017,0.0,0.0
6.26,6053.903,0.00017,0.0,0.0
6.267,6065.91,0.00016,0.0,0.0
6.273,6033.873,0.00017,0.0,0.0
6.279,6074.026,0.00016,0.0,0.0
6.286,6065.712,0.00016,0.0,0.0
6.292,6105.713,0.00016,0.0,0.0
6.298,6092.092,0.00016,0.0,0.0
6.305,6124.792,0.00016,0.0,0.0
6.311,6134.839,0.00016,0.0,0.0
6.317,6117.357,0.00016,0.0,0.0
6.324,6175.774,0.00016,0.0,0.0
6.33,6164.732,0.00016,0.0,0.0
6.336,6167.004,0.00016,0.0,0.0
6.343,6195.466,0.00016,0.0,0.0
6.349,6231.931,0.00016,0.0,0.0
6.355,6247.993,0.00016,0.0,0.0
6.362,6270.842,0.00016,0.0,0.0
6.368,6306.217,0.00016,0.0,0.0
6.374,6309.476,0.00016,0.0,0.0
6.381,6353.201,0.00016,0.0,0.0
6.387,6447.472,0.00016,0.0,0.0
6.393,6435.912,0.00016,0.0,0.0
6.4,6636.725,0.00015,0.0,0.0
6.406,6724.423,0.00015,0.0,0.0
6.412,7109.457,0.00014,0.0,0.0
6.418,7581.576,0.00013,0.0,0.0
6.425,8732.769,0.00011,0.0,0.0
6.431,11630.211,0.00009,0.0,0.0
6.437,14155.591,0.00007,0.0,0.0
6.444,15290.909,0.00007,0.0,0.0
6.45,20902.627,0.00005,0.0,0.0
6.456,17717.071,0.00006,0.0,0.0
6.463,21033.917,0.00005,0.0,0.0
6.469,19460.929,0.00005,0.0,0.0
6.475,12026.429,0.00008,0.0,0.0
6.482,10963.223,0.00009,0.0,0.0
6.488,8660.391,0.00012,0.0,0.0
6.494,7418.061,0.00013,0.0,0.0
6.501,7364.449,0.00014,0.0,0.0
6.507,6939.804,0.00014,0.0,0.0
6.513,6801.496,0.00015,0.0,0.0
6.52,6767.877,0.00015,0.0,0.0
6.526,6759.645,0.00015,0.0,0.0
6.532,6778.262,0.00015,0.0,0.0
6.539,6923.917,0.00014,0.0,0.0
6.545,7046.749,0.00014,0.0,0.0
6.551,7262.158,0.00014,0.0,0.0
6.558,7711.117,0.00013,0.0,0.0
6.564,8289.298,0.00012,0.0,0.0
6.57,9276.2,0.00011,0.0,0.0
6.576,11669.197,0.00009,0.0,0.0
6.583,14462.173,0.00007,0.0,0.0
6.589,22497.382,0.00004,0.0,0.0
6.595,36735.09,0.00003,0.0,0.0
6.602,53907.952,0.00002,0.0,0.0
6.608,84947.55,0.00001,0.0,0.0
6.614,99515.291,0.00001,0.0,0.0
6.621,115577.387,0.00001,0.0,0.0
6.627,94107.786,0.00001,0.0,0.0
6.633,73156.312,0.00001,0.0,0.0
6.64,50654.182,0.00002,0.0,0.0
6.646,31508.768,0.00003,0.0,0.0
6.652,19783.622,0.00005,0.0,0.0
6.659,14547.587,0.00007,0.0,0.0
6.665,10666.094,0.00009,0.0,0.0
6.671,9133.459,0.00011,0.0,0.0
6.678,8026.088,0.00012,0.0,0.0
6.684,7377.336,0.00014,0.0,0.0
6.69,7033.241,0.00014,0.0,0.0
6.697,6746.658,0.00015,0.0,0.0
6.703,6558.416,0.00015,0.0,0.0
6.709,6457.717,0.00015,0.0,0.0
6.716,6352.014,0.00016,0.0,0.0
6.722,6276.495,0.00016,0.0,0.0
6.728,6239.341,0.00016,0.0,0.0
6.734,6171.568,0.00016,0.0,0.0
6.741,6165.243,0.00016,0.0,0.0
6.747,6124.186,0.00016,0.0,0.0
6.753,6091.782,0.00016,0.0,0.0
6.76,6084.125,0.00016,0.0,0.0
6.766,6083.813,0.00016,0.0,0.0
6.772,6060.748,0.00016,0.0,0.0
6.779,6085.52,0.00016,0.0,0.0
6.785,6078.207,0.00016,0.0,0.0
6.791,6032.512,0.00017,0.0,0.0
6.798,6086.423,0.00016,0.0,0.0
6.804,6054.221,0.00017,0.0,0.0
6.81,6092.287,0.00016,0.0,0.0
6.817,6077.251,0.00016,0.0,0.0
6.823,6076.975,0.00016,0.0,0.0
6.829,6059.039,0.00017,0.0,0.0
6.836,6064.079,0.00016,0.0,0.0
6.842,5993.397,0.00017,0.0,0.0
6.848,6005.98,0.00017,0.0,0.0
6.855,5977.529,0.00017,0.0,0.0
6.861,5985.786,0.00017,0.0,0.0
6.867,5973.525,0.00017,0.0,0.0
6.874,5937.434,0.00017,0.0,0.0
6.88,5946.257,0.00017,0.0,0.0
6.886,5935.616,0.00017,0.0,0.0
6.892,5933.811,0.00017,0.0,0.0
6.899,5931.163,0.00017,0.0,0.0
6.905,5938.963,0.00017,0.0,0.0
6.911,5911.751,0.00017,0.0,0.0
6.918,5935.341,0.00017,0.0,0.0
6.924,5895.84,0.00017,0.0,0.0
6.93,5917.487,0.00017,0.0,0.0
6.937,5910.682,0.00017,0.0,0.0
6.943,5916.549,0.00017,0.0,0.0
6.949,5913.104,0.00017,0.0,0.0
6.956,5903.915,0.00017,0.0,0.0
6.962,5903.931,0.00017,0.0,0.0
6.968,5894.413,0.00017,0.0,0.0
6.975,5896.571,0.00017,0.0,0.0
6.981,5921.383,0.00017,0.0,0.0
6.987,5924.96,0.00017,0.0,0.0
6.994,5914.21,0.00017,0.0,0.0
7.0,5923.917,0.00017,0.0,0.0
7.006,5909.297,0.00017,0.0,0.0
7.013,5906.239,0.00017,0.0,0.0
7.019,5903.171,0.00017,0.0,0.0
7.025,5904.946,0.00017,0.0,0.0
7.032,5906.996,0.00017,0.0,0.0
7.038,5911.308,0.00017,0.0,0.0
7.044,5911.19,0.00017,0.0,0.0
7.05,5894.809,0.00017,0.0,0.0
7.057,5922.516,0.00017,0.0,0.0
7.063,5906.914,0.00017,0.0,0.0
7.069,5902.844,0.00017,0.0,0.0
7.076,5892.512,0.00017,0.0,0.0
7.082,5882.791,0.00017,0.0,0.0
7.088,5894.836,0.00017,0.0,0.0
7.095,5879.291,0.00017,0.0,0.0
7.101,5869.914,0.00017,0.0,0.0
7.107,5855.244,0.00017,0.0,0.0
7.114,5872.586,0.00017,0.0,0.0
7.12,5861.78,0.00017,0.0,0.0
7.126,5863.335,0.00017,0.0,0.0
7.133,5846.351,0.00017,0.0,0.0
7.139,5863.952,0.00017,0.0,0.0
7.145,5833.032,0.00017,0.0,0.0
7.152,5825.277,0.00017,0.0,0.0
7.158,5823.597,0.00017,0.0,0.0
7.164,5812.207,0.00017,0.0,0.0
7.171,5805.35,0.00017,0.0,0.0
7.177,5796.988,0.00017,0.0,0.0
7.183,5796.974,0.00017,0.0,0.0
7.19,5792.412,0.00017,0.0,0.0
7.196,5786.872,0.00017,0.0,0.0
7.202,5765.098,0.00017,0.0,0.0
7.208,5764.914,0.00017,0.0,0.0
7.215,5760.233,0.00017,0.0,0.0
7.221,5753.403,0.00017,0.0,0.0
7.227,5742.318,0.00017,0.0,0.0
7.234,5743.615,0.00017,0.0,0.0
7.24,5732.483,0.00017,0.0,0.0
7.246,5727.557,0.00017,0.0,0.0
7.253,5716.715,0.00017,0.0,0.0
7.259,5734.595,0.00017,0.0,0.0
7.265,5743.416,0.00017,0.0,0.0
7.272,5717.508,0.00017,0.0,0.0
7.278,5741.998,0.00017,0.0,0.0
7.284,5766.007,0.00017,0.0,0.0
7.291,5781.704,0.00017,0.0,0.0
7.297,5766.602,0.00017,0.0,0.0
7.303,5781.022,0.00017,0.0,0.0
7.31,5763.133,0.00017,0.0,0.0
7.316,5742.626,0.00017,0.0,0.0
7.322,5714.336,0.00017,0.0,0.0
7.329,5684.706,0.00018,0.0,0.0
7.335,5689.422,0.00018,0.0,0.0
7.341,5648.417,0.00018,0.0,0.0
7.348,5671.427,0.00018,0.0,0.0
7.354,5640.783,0.00018,0.0,0.0
7.36,5636.696,0.00018,0.0,0.0
7.366,5642.507,0.00018,0.0,0.0
7.373,5622.905,0.00018,0.0,0.0
7.379,5641.698,0.00018,0.0,0.0
7.385,5632.916,0.00018,0.0,0.0
7.392,5628.608,0.00018,0.0,0.0
7.398,5648.327,0.00018,0.0,0.0
7.404,5627.796,0.00018,0.0,0.0
7.411,5640.829,0.00018,0.0,0.0
7.417,5658.968,0.00018,0.0,0.0
7.423,5652.376,0.00018,0.0,0.0
7.43,5653.066,0.00018,0.0,0.0
7.436,5651.401,0.00018,0.0,0.0
7.442,5671.246,0.00018,0.0,0.0
7.449,5677.704,0.00018,0.0,0.0
7.455,5668.162,0.00018,0.0,0.0
7.461,5678.895,0.00018,0.0,0.0
7.468,5709.701,0.00018,0.0,0.0
7.474,5675.805,0.00018,0.0,0.0
7.48,5720.796,0.00017,0.0,0.0
7.487,5709.138,0.00018,0.0,0.0
7.493,5717.005,0.00017,0.0,0.0
7.499,5743.746,0.00017,0.0,0.0
7.506,5732.026,0.00017,0.0,0.0
7.512,5770.585,0.00017,0.0,0.0
7.518,5769.311,0.00017,0.0,0.0
7.524,5803.897,0.00017,0.0,0.0
7.531,5815.667,0.00017,0.0,0.0
7.537,5848.939,0.00017,0.0,0.0
7.543,5901.244,0.00017,0.0,0.0
7.55,5941.753,0.00017,0.0,0.0
7.556,5970.717,0.00017,0.0,0.0
7.562,6084.658,0.00016,0.0,0.0
7.569,6180.903,0.00016,0.0,0.0
7.575,6355.841,0.00016,0.0,0.0
7.581,6559.749,0.00015,0.0,0.0
7.588,6895.539,0.00015,0.0,0.0
7.594,7427.968,0.00013,0.0,0.0
7.6,8586.898,0.00012,0.0,0.0
7.607,10109.104,0.0001,0.0,0.0
7.613,13456.26,0.00007,0.0,0.0
7.619,18539.984,0.00005,0.0,0.0
7.626,27341.087,0.00004,0.0,0.0
7.632,37973.881,0.00003,0.0,0.0
7.638,45949.221,0.00002,0.0,0.0
7.645,52641.009,0.00002,0.0,0.0
7.651,48880.308,0.00002,0.0,0.0
7.657,43215.97,0.00002,0.0,0.0
7.664,31874.272,0.00003,0.0,0.0
7.67,22251.039,0.00004,0.0,0.0
7.676,14951.613,0.00007,0.0,0.0
7.682,11611.323,0.00009,0.0,0.0
7.689,9047.145,0.00011,0.0,0.0
7.695,7990.647,0.00013,0.0,0.0
7.701,7267.492,0.00014,0.0,0.0
7.708,6829.058,0.00015,0.0,0.0
7.714,6620.933,0.00015,0.0,0.0
7.72,6445.303,0.00016,0.0,0.0
7.727,6397.689,0.00016,0.0,0.0
7.733,6335.513,0.00016,0.0,0.0
7.739,6252.321,0.00016,0.0,0.0
7.746,6258.693,0.00016,0.0,0.0
7.752,6243.912,0.00016,0.0,0.0
7.758,6239.214,0.00016,0.0,0.0
7.765,6242.418,0.00016,0.0,0.0
7.771,6272.563,0.00016,0.0,0.0
7.777,6269.833,0.00016,0.0,0.0
7.784,6290.362,0.00016,0.0,0.0
7.79,6277.907,0.00016,0.0,0.0
7.796,6327.519,0.00016,0.0,0.0
7.803,6366.92,0.00016,0.0,0.0
7.809,6366.329,0.00016,0.0,0.0
7.815,6436.818,0.00016,0.0,0.0
7.822,6430.106,0.00016,0.0,0.0
7.828,6515.712,0.00015,0.0,0.0
7.834,6521.518,0.00015,0.0,0.0
7.84,6559.734,0.00015,0.0,0.0
7.847,6684.252,0.00015,0.0,0.0
7.853,6755.37,0.00015,0.0,0.0
7.859,6889.888,0.00015,0.0,0.0
7.866,7067.434,0.00014,0.0,0.0
7.872,7435.885,0.00013,0.0,0.0
7.878,8070.871,0.00012,0.0,0.0
7.885,9290.332,0.00011,0.0,0.0
7.891,11058.703,0.00009,0.0,0.0
7.897,14777.613,0.00007,0.0,0.0
7.904,16444.129,0.00006,0.0,0.0
7.91,16831.372,0.00006,0.0,0.0
7.916,18153.978,0.00006,0.0,0.0
7.923,15008.792,0.00007,0.0,0.0
7.929,11989.076,0.00008,0.0,0.0
7.935,9420.667,0.00011,0.0,0.0
7.942,8808.912,0.00011,0.0,0.0
7.948,7763.143,0.00013,0.0,0.0
7.954,7368.734,0.00014,0.0,0.0
7.961,7162.295,0.00014,0.0,0.0
7.967,6985.768,0.00014,0.0,0.0
7.973,6853.695,0.00015,0.0,0.0
7.98,6812.474,0.00015,0.0,0.0
7.986,6705.385,0.00015,0.0,0.0
7.992,6716.795,0.00015,0.0,0.0
7.998,6712.531,0.00015,0.0,0.0
8.005,6651.636,0.00015,0.0,0.0
8.011,6613.141,0.00015,0.0,0.0
8.017,6658.202,0.00015,0.0,0.0
8.024,6607.351,0.00015,0.0,0.0
8.03,6623.579,0.00015,0.0,0.0
8.036,6597.188,0.00015,0.0,0.0
8.043,6563.886,0.00015,0.0,0.0
8.049,6572.499,0.00015,0.0,0.0
8.055,6530.797,0.00015,0.0,0.0
8.062,6589.474,0.00015,0.0,0.0
8.068,6566.425,0.00015,0.0,0.0
8.074,6556.71,0.00015,0.0,0.0
8.081,6555.539,0.00015,0.0,0.0
8.087,6549.008,0.00015,0.0,0.0
8.093,6554.835,0.00015,0.0,0.0
8.1,6551.191,0.00015,0.0,0.0
8.106,6565.577,0.00015,0.0,0.0
8.112,6605.593,0.00015,0.0,0.0
8.119,6624.708,0.00015,0.0,0.0
8.125,6653.517,0.00015,0.0,0.0
8.131,6749.334,0.00015,0.0,0.0
8.138,6761.31,0.00015,0.0,0.0
8.144,6817.001,0.00015,0.0,0.0
8.15,6817.491,0.00015,0.0,0.0
8.156,6786.867,0.00015,0.0,0.0
8.163,6730.586,0.00015,0.0,0.0
8.169,6646.925,0.00015,0.0,0.0
8.175,6577.52,0.00015,0.0,0.0
8.182,6537.472,0.00015,0.0,0.0
8.188,6494.061,0.00015,0.0,0.0
8.194,6472.564,0.00015,0.0,0.0
8.201,6444.945,0.00016,0.0,0.0
8.207,6414.172,0.00016,0.0,0.0
8.213,6447.389,0.00016,0.0,0.0
8.22,6393.288,0.00016,0.0,0.0
8.226,6391.205,0.00016,0.0,0.0
8.232,6383.967,0.00016,0.0,0.0
8.239,6362.991,0.00016,0.0,0.0
8.245,6378.19,0.00016,0.0,0.0
8.251,6333.961,0.00016,0.0,0.0
8.258,6350.361,0.00016,0.0,0.0
8.264,6319.753,0.00016,0.0,0.0
8.27,6310.561,0.00016,0.0,0.0
8.277,6310.26,0.00016,0.0,0.0
8.283,6300.057,0.00016,0.0,0.0
8.289,6266.839,0.00016,0.0,0.0
8.296,6272.931,0.00016,0.0,0.0
8.302,6292.253,0.00016,0.0,0.0
8.308,6275.483,0.00016,0.0,0.0
8.314,6267.56,0.00016,0.0,0.0
8.321,6268.052,0.00016,0.0,0.0
8.327,6256.594,0.00016,0.0,0.0
8.333,6267.611,0.00016,0.0,0.0
8.34,6281.694,0.00016,0.0,0.0
8.346,6293.126,0.00016,0.0,0.0
8.352,6320.608,0.00016,0.0,0.0
8.359,6367.864,0.00016,0.0,0.0
8.365,6416.826,0.00016,0.0,0.0
8.371,6431.585,0.00016,0.0,0.0
8.378,6446.602,0.00016,0.0,0.0
8.384,6447.261,0.00016,0.0,0.0
8.39,6415.874,0.00016,0.0,0.0
8.397,6378.855,0.00016,0.0,0.0
8.403,6313.473,0.00016,0.0,0.0
8.409,6269.637,0.00016,0.0,0.0
8.416,6233.118,0.00016,0.0,0.0
8.422,6214.046,0.00016,0.0,0.0
8.428,6176.824,0.00016,0.0,0.0
8.435,6151.206,0.00016,0.0,0.0
8.441,6124.942,0.00016,0.0,0.0
8.447,6125.066,0.00016,0.0,0.0
8.454,6124.974,0.00016,0.0,0.0
8.46,6116.905,0.00016,0.0,0.0
8.466,6112.528,0.00016,0.0,0.0
8.472,6121.519,0.00016,0.0,0.0
8.479,6102.203,0.00016,0.0,0.0
8.485,6127.428,0.00016,0.0,0.0
8.491,6123.0,0.00016,0.0,0.0
8.498,6127.606,0.00016,0.0,0.0
8.504,6134.512,0.00016,0.0,0.0
8.51,6114.466,0.00016,0.0,0.0
8.517,6100.751,0.00016,0.0,0.0
8.523,6090.996,0.00016,0.0,0.0
8.529,6081.993,0.00016,0.0,0.0
8.536,6082.802,0.00016,0.0,0.0
8.542,6069.48,0.00016,0.0,0.0
8.548,6059.865,0.00017,0.0,0.0
8.555,6057.408,0.00017,0.0,0.0
8.561,6046.719,0.00017,0.0,0.0
8.567,6058.116,0.00017,0.0,0.0
8.574,6063.452,0.00016,0.0,0.0
8.58,6041.539,0.00017,0.0,0.0
8.586,6032.059,0.00017,0.0,0.0
8.593,6035.388,0.00017,0.0,0.0
8.599,6018.853,0.00017,0.0,0.0
8.605,6028.106,0.00017,0.0,0.0
8.612,6013.141,0.00017,0.0,0.0
8.618,6012.585,0.00017,0.0,0.0
8.624,6021.858,0.00017,0.0,0.0
8.63,6002.445,0.00017,0.0,0.0
8.637,6006.891,0.00017,0.0,0.0
8.643,6015.32,0.00017,0.0,0.0
8.649,5995.046,0.00017,0.0,0.0
8.656,6012.996,0.00017,0.0,0.0
8.662,6024.307,0.00017,0.0,0.0
8.668,6017.113,0.00017,0.0,0.0
8.675,6009.171,0.00017,0.0,0.0
8.681,6020.83,0.00017,0.0,0.0
8.687,5997.202,0.00017,0.0,0.0
8.694,6004.578,0.00017,0.0,0.0
8.7,5995.18,0.00017,0.0,0.0
8.706,5999.781,0.00017,0.0,0.0
8.713,6016.521,0.00017,0.0,0.0
8.719,6008.75,0.00017,0.0,0.0
8.725,6000.468,0.00017,0.0,0.0
8.732,5998.99,0.00017,0.0,0.0
8.738,5999.441,0.00017,0.0,0.0
8.744,5999.588,0.00017,0.0,0.0
8.751,5985.342,0.00017,0.0,0.0
8.757,6001.842,0.00017,0.0,0.0
8.763,6004.909,0.00017,0.0,0.0
8.77,5995.378,0.00017,0.0,0.0
8.776,6017.392,0.00017,0.0,0.0
8.782,6005.513,0.00017,0.0,0.0
8.788,5988.181,0.00017,0.0,0.0
8.795,6015.13,0.00017,0.0,0.0
8.801,6006.238,0.00017,0.0,0.0
8.807,6007.876,0.00017,0.0,0.0
8.814,6014.783,0.00017,0.0,0.0
8.82,6009.245,0.00017,0.0,0.0
8.826,6026.242,0.00017,0.0,0.0
8.833,6015.503,0.00017,0.0,0.0
8.839,6006.594,0.00017,0.0,0.0
8.845,6008.802,0.00017,0.0,0.0
8.852,6002.576,0.00017,0.0,0.0
8.858,5997.806,0.00017,0.0,0.0
8.864,6014.262,0.00017,0.0,0.0
8.871,6033.774,0.00017,0.0,0.0
8.877,6032.398,0.00017,0.0,0.0
8.883,6010.821,0.00017,0.0,0.0
8.89,6049.564,0.00017,0.0,0.0
8.896,6034.069,0.00017,0.0,0.0
8.902,6042.6,0.00017,0.0,0.0
8.909,6037.887,0.00017,0.0,0.0
8.915,6018.147,0.00017,0.0,0.0
8.921,6041.808,0.00017,0.0,0.0
8.928,6044.073,0.00017,0.0,0.0
8.934,6030.652,0.00017,0.0,0.0
8.94,6065.944,0.00016,0.0,0.0
8.946,6053.747,0.00017,0.0,0.0
8.953,6069.647,0.00016,0.0,0.0
8.959,6094.79,0.00016,0.0,0.0
8.965,6068.956,0.00016,0.0,0.0
8.972,6088.439,0.00016,0.0,0.0
8.978,6097.099,0.00016,0.0,0.0
8.984,6087.837,0.00016,0.0,0.0
8.991,6101.0,0.00016,0.0,0.0
8.997,6081.773,0.00016,0.0,0.0
9.003,6107.777,0.00016,0.0,0.0
9.01,6118.638,0.00016,0.0,0.0
9.016,6096.533,0.00016,0.0,0.0
9.022,6177.229,0.00016,0.0,0.0
9.029,6135.426,0.00016,0.0,0.0
9.035,6173.421,0.00016,0.0,0.0
9.041,6186.207,0.00016,0.0,0.0
9.048,6168.31,0.00016,0.0,0.0
9.054,6235.247,0.00016,0.0,0.0
9.06,6221.392,0.00016,0.0,0.0
9.067,6196.04,0.00016,0.0,0.0
9.073,6299.864,0.00016,0.0,0.0
9.079,6283.462,0.00016,0.0,0.0
9.086,6321.012,0.00016,0.0,0.0
9.092,6428.414,0.00016,0.0,0.0
9.098,6419.707,0.00016,0.0,0.0
9.104,6784.824,0.00015,0.0,0.0
9.111,6859.587,0.00015,0.0,0.0
9.117,7962.652,0.00013,0.0,0.0
9.123,7931.568,0.00013,0.0,0.0
9.13,10150.414,0.0001,0.0,0.0
9.136,9896.566,0.0001,0.0,0.0
9.142,10912.816,0.00009,0.0,0.0
9.149,13254.427,0.00008,0.0,0.0
9.155,9242.079,0.00011,0.0,0.0
9.161,7772.136,0.00013,0.0,0.0
9.168,9391.339,0.00011,0.0,0.0
9.174,6706.594,0.00015,0.0,0.0
9.18,6679.624,0.00015,0.0,0.0
9.187,6616.159,0.00015,0.0,0.0
9.193,6314.488,0.00016,0.0,0.0
9.199,6370.661,0.00016,0.0,0.0
9.206,6282.782,0.00016,0.0,0.0
9.212,6206.142,0.00016,0.0,0.0
9.218,6247.285,0.00016,0.0,0.0
9.225,6156.82,0.00016,0.0,0.0
9.231,6145.415,0.00016,0.0,0.0
9.237,6169.876,0.00016,0.0,0.0
9.244,6123.549,0.00016,0.0,0.0
9.25,6111.385,0.00016,0.0,0.0
9.256,6098.295,0.00016,0.0,0.0
9.262,6044.274,0.00017,0.0,0.0
9.269,6090.925,0.00016,0.0,0.0
9.275,6032.048,0.00017,0.0,0.0
9.281,6026.475,0.00017,0.0,0.0
9.288,6026.918,0.00017,0.0,0.0
9.294,5992.655,0.00017,0.0,0.0
9.3,5993.976,0.00017,0.0,0.0
9.307,5975.866,0.00017,0.0,0.0
9.313,5936.812,0.00017,0.0,0.0
9.319,5946.869,0.00017,0.0,0.0
9.326,5928.435,0.00017,0.0,0.0
9.332,5908.979,0.00017,0.0,0.0
9.338,5911.0,0.00017,0.0,0.0
9.345,5872.091,0.00017,0.0,0.0
9.351,5876.036,0.00017,0.0,0.0
9.357,5834.868,0.00017,0.0,0.0
9.364,5815.43,0.00017,0.0,0.0
9.37,5826.032,0.00017,0.0,0.0
9.376,5788.408,0.00017,0.0,0.0
9.383,5788.063,0.00017,0.0,0.0
9.389,5766.433,0.00017,0.0,0.0
9.395,5758.082,0.00017,0.0,0.0
9.402,5755.082,0.00017,0.0,0.0
9.408,5747.58,0.00017,0.0,0.0
9.414,5726.007,0.00017,0.0,0.0
9.42,5722.46,0.00017,0.0,0.0
9.427,5718.539,0.00017,0.0,0.0
9.433,5710.748,0.00018,0.0,0.0
9.439,5700.146,0.00018,0.0,0.0
9.446,5675.632,0.00018,0.0,0.0
9.452,5681.948,0.00018,0.0,0.0
9.458,5688.766,0.00018,0.0,0.0
9.465,5682.794,0.00018,0.0,0.0
9.471,5701.838,0.00018,0.0,0.0
9.477,5687.286,0.00018,0.0,0.0
9.484,5713.145,0.00018,0.0,0.0
9.49,5732.843,0.00017,0.0,0.0
9.496,5706.515,0.00018,0.0,0.0
9.503,5694.358,0.00018,0.0,0.0
9.509,5673.346,0.00018,0.0,0.0
9.515,5650.611,0.00018,0.0,0.0
9.522,5651.42,0.00018,0.0,0.0
9.528,5602.173,0.00018,0.0,0.0
9.534,5583.816,0.00018,0.0,0.0
9.541,5557.217,0.00018,0.0,0.0
9.547,5549.424,0.00018,0.0,0.0
9.553,5529.228,0.00018,0.0,0.0
9.56,5505.202,0.00018,0.0,0.0
9.566,5507.704,0.00018,0.0,0.0
9.572,5513.14,0.00018,0.0,0.0
9.578,5501.9,0.00018,0.0,0.0
9.585,5498.848,0.00018,0.0,0.0
9.591,5477.689,0.00018,0.0,0.0
9.597,5464.766,0.00018,0.0,0.0
9.604,5476.32,0.00018,0.0,0.0
9.61,5461.122,0.00018,0.0,0.0
9.616,5441.56,0.00018,0.0,0.0
9.623,5462.806,0.00018,0.0,0.0
9.629,5456.644,0.00018,0.0,0.0
9.635,5448.121,0.00018,0.0,0.0
9.642,5438.339,0.00018,0.0,0.0
9.648,5420.325,0.00018,0.0,0.0
9.654,5441.906,0.00018,0.0,0.0
9.661,5421.609,0.00018,0.0,0.0
9.667,5435.625,0.00018,0.0,0.0
9.673,5412.159,0.00018,0.0,0.0
9.68,5413.19,0.00018,0.0,0.0
9.686,5421.634,0.00018,0.0,0.0
9.692,5381.006,0.00019,0.0,0.0
9.699,5403.643,0.00019,0.0,0.0
9.705,5412.876,0.00018,0.0,0.0
9.711,5394.426,0.00019,0.0,0.0
9.718,5392.048,0.00019,0.0,0.0
9.724,5383.964,0.00019,0.0,0.0
9.73,5397.572,0.00019,0.0,0.0
9.736,5385.302,0.00019,0.0,0.0
9.743,5398.349,0.00019,0.0,0.0
9.749,5377.913,0.00019,0.0,0.0
9.755,5385.519,0.00019,0.0,0.0
9.762,5365.137,0.00019,0.0,0.0
9.768,5399.168,0.00019,0.0,0.0
9.774,5388.784,0.00019,0.0,0.0
9.781,5372.039,0.00019,0.0,0.0
9.787,5379.822,0.00019,0.0,0.0
9.793,5385.219,0.00019,0.0,0.0
9.8,5405.477,0.00018,0.0,0.0
9.806,5386.947,0.00019,0.0,0.0
9.812,5377.479,0.00019,0.0,0.0
9.819,5384.567,0.00019,0.0,0.0
9.825,5381.392,0.00019,0.0,0.0
9.831,5373.742,0.00019,0.0,0.0
9.838,5380.357,0.00019,0.0,0.0
9.844,5379.405,0.00019,0.0,0.0
9.85,5369.941,0.00019,0.0,0.0
9.857,5380.6,0.00019,0.0,0.0
9.863,5357.845,0.00019,0.0,0.0
9.869,5387.605,0.00019,0.0,0.0
9.876,5362.637,0.00019,0.0,0.0
9.882,5375.161,0.00019,0.0,0.0
9.888,5368.529,0.00019,0.0,0.0
9.894,5343.118,0.00019,0.0,0.0
9.901,5382.674,0.00019,0.0,0.0
9.907,5362.014,0.00019,0.0,0.0
9.913,5364.128,0.00019,0.0,0.0
9.92,5359.535,0.00019,0.0,0.0
9.926,5349.6,0.00019,0.0,0.0
9.932,5395.876,0.00019,0.0,0.0
9.939,5369.047,0.00019,0.0,0.0
9.945,5372.945,0.00019,0.0,0.0
9.951,5403.599,0.00019,0.0,0.0
9.958,5382.351,0.00019,0.0,0.0
9.964,5369.662,0.00019,0.0,0.0
9.97,5381.249,0.00019,0.0,0.0
9.977,5395.45,0.00019,0.0,0.0
9.983,5421.322,0.00018,0.0,0.0
9.989,5394.437,0.00019,0.0,0.0
9.996,5417.823,0.00018,0.0,0.0
10.002,5434.335,0.00018,0.0,0.0
10.008,5395.078,0.00019,0.0,0.0
10.015,5445.01,0.00018,0.0,0.0
10.021,5426.241,0.00018,0.0,0.0
10.027,5433.606,0.00018,0.0,0.0
10.034,5438.269,0.00018,0.0,0.0
10.04,5451.636,0.00018,0.0,0.0
10.046,5451.854,0.00018,0.0,0.0
10.052,5472.622,0.00018,0.0,0.0
10.059,5455.507,0.00018,0.0,0.0
10.065,5504.535,0.00018,0.0,0.0
10.071,5503.231,0.00018,0.0,0.0
10.078,5495.9,0.00018,0.0,0.0
10.084,5531.118,0.00018,0.0,0.0
10.09,5483.49,0.00018,0.0,0.0
10.097,5551.496,0.00018,0.0,0.0
10.103,5493.845,0.00018,0.0,0.0
10.109,5561.797,0.00018,0.0,0.0
10.116,5596.924,0.00018,0.0,0.0
10.122,5575.42,0.00018,0.0,0.0
10.128,5622.14,0.00018,0.0,0.0
10.135,5635.957,0.00018,0.0,0.0
10.141,5662.925,0.00018,0.0,0.0
10.147,5693.703,0.00018,0.0,0.0
10.154,5738.496,0.00017,0.0,0.0
10.16,5817.952,0.00017,0.0,0.0
10.166,6130.045,0.00016,0.0,0.0
10.173,6204.083,0.00016,0.0,0.0
10.179,6878.651,0.00015,0.0,0.0
10.185,8650.059,0.00012,0.0,0.0
10.192,9078.419,0.00011,0.0,0.0
10.198,10386.92,0.0001,0.0,0.0
10.204,14908.869,0.00007,0.0,0.0
10.21,14594.616,0.00007,0.0,0.0
10.217,21992.161,0.00005,0.0,0.0
10.223,15076.755,0.00007,0.0,0.0
10.229,12713.173,0.00008,0.0,0.0
10.236,18152.677,0.00006,0.0,0.0
10.242,8455.414,0.00012,0.0,0.0
10.248,9616.729,0.0001,0.0,0.0
10.255,7556.241,0.00013,0.0,0.0
10.261,6286.981,0.00016,0.0,0.0
10.267,6417.243,0.00016,0.0,0.0
10.274,5742.804,0.00017,0.0,0.0
10.28,5807.548,0.00017,0.0,0.0
10.286,5610.823,0.00018,0.0,0.0
10.293,5597.539,0.00018,0.0,0.0
10.299,5551.99,0.00018,0.0,0.0
10.305,5513.37,0.00018,0.0,0.0
10.312,5509.996,0.00018,0.0,0.0
10.318,5466.57,0.00018,0.0,0.0
10.324,5469.904,0.00018,0.0,0.0
10.331,5413.96,0.00018,0.0,0.0
10.337,5379.264,0.00019,0.0,0.0
10.343,5421.433,0.00018,0.0,0.0
10.35,5377.607,0.00019,0.0,0.0
10.356,5369.787,0.00019,0.0,0.0
10.362,5352.2,0.00019,0.0,0.0
10.368,5290.943,0.00019,0.0,0.0
10.375,5359.187,0.00019,0.0,0.0
10.381,5274.285,0.00019,0.0,0.0
10.387,5286.366,0.00019,0.0,0.0
10.394,5307.171,0.00019,0.0,0.0
10.4,5254.594,0.00019,0.0,0.0
10.406,5307.167,0.00019,0.0,0.0
10.413,5230.56,0.00019,0.0,0.0
10.419,5229.041,0.00019,0.0,0.0
10.425,5255.533,0.00019,0.0,0.0
10.432,5235.403,0.00019,0.0,0.0
10.438,5232.356,0.00019,0.0,0.0
10.444,5233.679,0.00019,0.0,0.0
10.451,5199.281,0.00019,0.0,0.0
10.457,5224.326,0.00019,0.0,0.0
10.463,5182.435,0.00019,0.0,0.0
10.47,5184.075,0.00019,0.0,0.0
10.476,5197.956,0.00019,0.0,0.0
10.482,5157.307,0.00019,0.0,0.0
10.489,5191.91,0.00019,0.0,0.0
10.495,5170.807,0.00019,0.0,0.0
10.501,5148.333,0.00019,0.0,0.0
10.508,5169.35,0.00019,0.0,0.0
10.514,5142.808,0.00019,0.0,0.0
10.52,5162.638,0.00019,0.0,0.0
10.526,5143.76,0.00019,0.0,0.0
10.533,5118.493,0.0002,0.0,0.0
10.539,5160.062,0.00019,0.0,0.0
10.545,5120.721,0.0002,0.0,0.0
10.552,5123.295,0.0002,0.0,0.0
10.558,5133.556,0.00019,0.0,0.0
10.564,5109.04,0.0002,0.0,0.0
10.571,5135.351,0.00019,0.0,0.0
10.577,5097.416,0.0002,0.0,0.0
10.583,5108.03,0.0002,0.0,0.0
10.59,5114.527,0.0002,0.0,0.0
10.596,5106.309,0.0002,0.0,0.0
10.602,5117.475,0.0002,0.0,0.0
10.609,5102.149,0.0002,0.0,0.0
10.615,5096.536,0.0002,0.0,0.0
10.621,5101.866,0.0002,0.0,0.0
10.628,5095.868,0.0002,0.0,0.0
10.634,5125.015,0.0002,0.0,0.0
10.64,5096.509,0.0002,0.0,0.0
10.647,5090.865,0.0002,0.0,0.0
10.653,5129.633,0.00019,0.0,0.0
10.659,5092.021,0.0002,0.0,0.0
10.666,5113.9,0.0002,0.0,0.0
10.672,5103.513,0.0002,0.0,0.0
10.678,5103.69,0.0002,0.0,0.0
10.684,5138.308,0.00019,0.0,0.0
10.691,5116.286,0.0002,0.0,0.0
10.697,5126.133,0.0002,0.0,0.0
10.703,5130.614,0.00019,0.0,0.0
10.71,5137.045,0.00019,0.0,0.0
10.716,5163.783,0.00019,0.0,0.0
10.722,5158.152,0.00019,0.0,0.0
10.729,5185.446,0.00019,0.0,0.0
10.735,5239.839,0.00019,0.0,0.0
10.741,5262.746,0.00019,0.0,0.0
10.748,5322.669,0.00019,0.0,0.0
10.754,5403.864,0.00019,0.0,0.0
10.76,5521.956,0.00018,0.0,0.0
10.767,5763.393,0.00017,0.0,0.0
10.773,6016.55,0.00017,0.0,0.0
10.779,6699.305,0.00015,0.0,0.0
10.786,7765.613,0.00013,0.0,0.0
10.792,9649.582,0.0001,0.0,0.0
10.798,14128.801,0.00007,0.0,0.0
10.805,16657.891,0.00006,0.0,0.0
10.811,25042.961,0.00004,0.0,0.0
10.817,29886.947,0.00003,0.0,0.0
10.824,32468.624,0.00003,0.0,0.0
10.83,31420.282,0.00003,0.0,0.0
10.836,26887.037,0.00004,0.0,0.0
10.842,18858.848,0.00005,0.0,0.0
10.849,14507.426,0.00007,0.0,0.0
10.855,9666.22,0.0001,0.0,0.0
10.861,8023.238,0.00012,0.0,0.0
10.868,6817.508,0.00015,0.0,0.0
10.874,6094.384,0.00016,0.0,0.0
10.88,5769.023,0.00017,0.0,0.0
10.887,5509.56,0.00018,0.0,0.0
10.893,5362.848,0.00019,0.0,0.0
10.899,5302.724,0.00019,0.0,0.0
10.906,5232.989,0.00019,0.0,0.0
10.912,5189.164,0.00019,0.0,0.0
10.918,5143.73,0.00019,0.0,0.0
10.925,5127.441,0.0002,0.0,0.0
10.931,5111.955,0.0002,0.0,0.0
10.937,5094.334,0.0002,0.0,0.0
10.944,5085.551,0.0002,0.0,0.0
10.95,5067.578,0.0002,0.0,0.0
10.956,5051.654,0.0002,0.0,0.0
10.963,5049.677,0.0002,0.0,0.0
10.969,5019.068,0.0002,0.0,0.0
10.975,5010.941,0.0002,0.0,0.0
10.982,4992.985,0.0002,0.0,0.0
10.988,4982.731,0.0002,0.0,0.0
10.994,4968.539,0.0002,0.0,0.0
11.0,4940.208,0.0002,0.0,0.0
11.007,4944.685,0.0002,0.0,0.0
11.013,4942.763,0.0002,0.0,0.0
11.019,4939.064,0.0002,0.0,0.0
11.026,4913.277,0.0002,0.0,0.0
11.032,4907.989,0.0002,0.0,0.0
11.038,4892.702,0.0002,0.0,0.0
11.045,4897.082,0.0002,0.0,0.0
11.051,4883.039,0.0002,0.0,0.0
11.057,4874.764,0.00021,0.0,0.0
11.064,4881.818,0.0002,0.0,0.0
11.07,4864.077,0.00021,0.0,0.0
11.076,4877.678,0.00021,0.0,0.0
11.083,4868.864,0.00021,0.0,0.0
11.089,4852.735,0.00021,0.0,0.0
11.095,4855.741,0.00021,0.0,0.0
11.102,4860.314,0.00021,0.0,0.0
11.108,4841.93,0.00021,0.0,0.0
11.114,4848.29,0.00021,0.0,0.0
11.121,4828.091,0.00021,0.0,0.0
11.127,4826.501,0.00021,0.0,0.0
11.133,4833.476,0.00021,0.0,0.0
11.14,4824.459,0.00021,0.0,0.0
11.146,4808.115,0.00021,0.0,0.0
11.152,4808.32,0.00021,0.0,0.0
11.158,4811.984,0.00021,0.0,0.0
11.165,4814.544,0.00021,0.0,0.0
11.171,4793.101,0.00021,0.0,0.0
11.177,4823.585,0.00021,0.0,0.0
11.184,4833.819,0.00021,0.0,0.0
11.19,4830.145,0.00021,0.0,0.0
11.196,4820.074,0.00021,0.0,0.0
11.203,4838.039,0.00021,0.0,0.0
11.209,4846.918,0.00021,0.0,0.0
11.215,4807.803,0.00021,0.0,0.0
11.222,4880.415,0.0002,0.0,0.0
11.228,4794.872,0.00021,0.0,0.0
11.234,4813.79,0.00021,0.0,0.0
11.241,4776.351,0.00021,0.0,0.0
11.247,4786.52,0.00021,0.0,0.0
11.253,4758.905,0.00021,0.0,0.0
11.26,4764.413,0.00021,0.0,0.0
11.266,4761.226,0.00021,0.0,0.0
11.272,4762.322,0.00021,0.0,0.0
11.279,4756.844,0.00021,0.0,0.0
11.285,4755.312,0.00021,0.0,0.0
11.291,4748.667,0.00021,0.0,0.0
11.298,4747.882,0.00021,0.0,0.0
11.304,4731.131,0.00021,0.0,0.0
11.31,4741.644,0.00021,0.0,0.0
11.316,4732.923,0.00021,0.0,0.0
11.323,4734.779,0.00021,0.0,0.0
11.329,4732.066,0.00021,0.0,0.0
11.335,4724.895,0.00021,0.0,0.0
11.342,4732.218,0.00021,0.0,0.0
11.348,4723.554,0.00021,0.0,0.0
11.354,4722.439,0.00021,0.0,0.0
11.361,4727.558,0.00021,0.0,0.0
11.367,4710.399,0.00021,0.0,0.0
11.373,4728.54,0.00021,0.0,0.0
11.38,4705.051,0.00021,0.0,0.0
11.386,4720.09,0.00021,0.0,0.0
11.392,4703.09,0.00021,0.0,0.0
11.399,4728.962,0.00021,0.0,0.0
11.405,4710.511,0.00021,0.0,0.0
11.411,4712.122,0.00021,0.0,0.0
11.418,4707.18,0.00021,0.0,0.0
11.424,4710.054,0.00021,0.0,0.0
11.43,4703.295,0.00021,0.0,0.0
11.437,4704.37,0.00021,0.0,0.0
11.443,4705.746,0.00021,0.0,0.0
11.449,4690.107,0.00021,0.0,0.0
11.456,4703.595,0.00021,0.0,0.0
11.462,4704.285,0.00021,0.0,0.0
11.468,4698.387,0.00021,0.0,0.0
11.474,4698.525,0.00021,0.0,0.0
11.481,4709.183,0.00021,0.0,0.0
11.487,4712.304,0.00021,0.0,0.0
11.493,4700.607,0.00021,0.0,0.0
11.5,4716.627,0.00021,0.0,0.0
11.506,4720.873,0.00021,0.0,0.0
11.512,4740.813,0.00021,0.0,0.0
11.519,4747.442,0.00021,0.0,0.0
11.525,4746.403,0.00021,0.0,0.0
11.531,4753.96,0.00021,0.0,0.0
11.538,4767.468,0.00021,0.0,0.0
11.544,4752.703,0.00021,0.0,0.0
11.55,4748.576,0.00021,0.0,0.0
11.557,4722.821,0.00021,0.0,0.0
11.563,4717.598,0.00021,0.0,0.0
11.569,4704.637,0.00021,0.0,0.0
11.576,4706.076,0.00021,0.0,0.0
11.582,4681.267,0.00021,0.0,0.0
11.588,4686.016,0.00021,0.0,0.0
11.595,4686.245,0.00021,0.0,0.0
11.601,4689.406,0.00021,0.0,0.0
11.607,4688.239,0.00021,0.0,0.0
11.614,4693.263,0.00021,0.0,0.0
11.62,4678.835,0.00021,0.0,0.0
11.626,4680.856,0.00021,0.0,0.0
11.632,4682.822,0.00021,0.0,0.0
11.639,4682.074,0.00021,0.0,0.0
11.645,4684.513,0.00021,0.0,0.0
11.651,4678.707,0.00021,0.0,0.0
11.658,4669.625,0.00021,0.0,0.0
11.664,4679.93,0.00021,0.0,0.0
11.67,4684.165,0.00021,0.0,0.0
11.677,4682.247,0.00021,0.0,0.0
11.683,4684.504,0.00021,0.0,0.0
11.689,4675.811,0.00021,0.0,0.0
11.696,4684.213,0.00021,0.0,0.0
11.702,4663.743,0.00021,0.0,0.0
11.708,4672.189,0.00021,0.0,0.0
11.715,4675.711,0.00021,0.0,0.0
11.721,4669.058,0.00021,0.0,0.0
11.727,4662.92,0.00021,0.0,0.0
11.734,4676.752,0.00021,0.0,0.0
11.74,4673.108,0.00021,0.0,0.0
11.746,4661.609,0.00021,0.0,0.0
11.753,4670.604,0.00021,0.0,0.0
11.759,4666.717,0.00021,0.0,0.0
11.765,4678.271,0.00021,0.0,0.0
11.772,4675.618,0.00021,0.0,0.0
11.778,4669.536,0.00021,0.0,0.0
11.784,4673.377,0.00021,0.0,0.0
11.79,4665.821,0.00021,0.0,0.0
11.797,4681.003,0.00021,0.0,0.0
11.803,4655.955,0.00021,0.0,0.0
11.809,4685.584,0.00021,0.0,0.0
11.816,4663.809,0.00021,0.0,0.0
11.822,4665.726,0.00021,0.0,0.0
11.828,4666.284,0.00021,0.0,0.0
11.835,4661.579,0.00021,0.0,0.0
11.841,4655.057,0.00021,0.0,0.0
11.847,4645.25,0.00022,0.0,0.0
11.854,4646.08,0.00022,0.0,0.0
11.86,4648.703,0.00022,0.0,0.0
11.866,4653.815,0.00021,0.0,0.0
11.873,4653.205,0.00021,0.0,0.0
11.879,4662.914,0.00021,0.0,0.0
11.885,4639.721,0.00022,0.0,0.0
11.892,4648.166,0.00022,0.0,0.0
11.898,4652.161,0.00021,0.0,0.0
11.904,4643.278,0.00022,0.0,0.0
11.911,4632.005,0.00022,0.0,0.0
11.917,4654.712,0.00021,0.0,0.0
11.923,4653.065,0.00021,0.0,0.0
11.93,4652.988,0.00021,0.0,0.0
11.936,4645.02,0.00022,0.0,0.0
11.942,4638.108,0.00022,0.0,0.0
11.948,4649.628,0.00022,0.0,0.0
11.955,4651.011,0.00022,0.0,0.0
11.961,4641.862,0.00022,0.0,0.0
11.967,4638.77,0.00022,0.0,0.0
11.974,4656.515,0.00021,0.0,0.0
11.98,4647.209,0.00022,0.0,0.0
11.986,4653.595,0.00021,0.0,0.0
11.993,4648.655,0.00022,0.0,0.0
11.999,4659.18,0.00021,0.0,0.0
12.005,4664.384,0.00021,0.0,0.0
12.012,4666.835,0.00021,0.0,0.0
12.018,4679.773,0.00021,0.0,0.0
12.024,4677.313,0.00021,0.0,0.0
12.031,4681.739,0.00021,0.0,0.0
12.037,4760.182,0.00021,0.0,0.0
12.043,4706.65,0.00021,0.0,0.0
12.05,4905.688,0.0002,0.0,0.0
12.056,4791.712,0.00021,0.0,0.0
12.062,4814.554,0.00021,0.0,0.0
12.069,5736.814,0.00017,0.0,0.0
12.075,5116.028,0.0002,0.0,0.0
12.081,8529.149,0.00012,0.0,0.0
12.088,6068.707,0.00016,0.0,0.0
12.094,6916.13,0.00014,0.0,0.0
12.1,10784.007,0.00009,0.0,0.0
12.106,6477.999,0.00015,0.0,0.0
12.113,7739.152,0.00013,0.0,0.0
12.119,5562.791,0.00018,0.0,0.0
12.125,5239.23,0.00019,0.0,0.0
12.132,5295.219,0.00019,0.0,0.0
12.138,4866.837,0.00021,0.0,0.0
12.144,4788.605,0.00021,0.0,0.0
12.151,4774.465,0.00021,0.0,0.0
12.157,4680.625,0.00021,0.0,0.0
12.163,4691.903,0.00021,0.0,0.0
12.17,4640.479,0.00022,0.0,0.0
12.176,4638.855,0.00022,0.0,0.0
12.182,4638.261,0.00022,0.0,0.0
12.189,4607.566,0.00022,0.0,0.0
12.195,4594.937,0.00022,0.0,0.0
12.201,4582.864,0.00022,0.0,0.0
12.208,4575.766,0.00022,0.0,0.0
12.214,4565.285,0.00022,0.0,0.0
12.22,4567.42,0.00022,0.0,0.0
12.227,4555.252,0.00022,0.0,0.0
12.233,4549.459,0.00022,0.0,0.0
12.239,4541.191,0.00022,0.0,0.0
12.246,4529.618,0.00022,0.0,0.0
12.252,4545.589,0.00022,0.0,0.0
12.258,4520.838,0.00022,0.0,0.0
12.264,4520.404,0.00022,0.0,0.0
12.271,4518.46,0.00022,0.0,0.0
12.277,4502.413,0.00022,0.0,0.0
12.283,4505.702,0.00022,0.0,0.0
12.29,4488.287,0.00022,0.0,0.0
12.296,4483.338,0.00022,0.0,0.0
12.302,4477.8,0.00022,0.0,0.0
12.309,4478.063,0.00022,0.0,0.0
12.315,4481.84,0.00022,0.0,0.0
12.321,4476.198,0.00022,0.0,0.0
12.328,4483.509,0.00022,0.0,0.0
12.334,4481.249,0.00022,0.0,0.0
12.34,4459.761,0.00022,0.0,0.0
12.347,4461.116,0.00022,0.0,0.0
12.353,4466.869,0.00022,0.0,0.0
12.359,4465.454,0.00022,0.0,0.0
12.366,4455.82,0.00022,0.0,0.0
12.372,4463.733,0.00022,0.0,0.0
12.378,4466.708,0.00022,0.0,0.0
12.385,4458.35,0.00022,0.0,0.0
12.391,4466.644,0.00022,0.0,0.0
12.397,4449.26,0.00022,0.0,0.0
12.404,4457.324,0.00022,0.0,0.0
12.41,4442.624,0.00023,0.0,0.0
12.416,4449.344,0.00022,0.0,0.0
12.422,4437.075,0.00023,0.0,0.0
12.429,4432.324,0.00023,0.0,0.0
12.435,4434.657,0.00023,0.0,0.0
12.441,4423.056,0.00023,0.0,0.0
12.448,4430.501,0.00023,0.0,0.0
12.454,4432.52,0.00023,0.0,0.0
12.46,4420.071,0.00023,0.0,0.0
12.467,4418.431,0.00023,0.0,0.0
12.473,4427.45,0.00023,0.0,0.0
12.479,4425.302,0.00023,0.0,0.0
12.486,4424.126,0.00023,0.0,0.0
12.492,4437.593,0.00023,0.0,0.0
12.498,4442.336,0.00023,0.0,0.0
12.505,4439.527,0.00023,0.0,0.0
12.511,4444.552,0.00022,0.0,0.0
12.517,4451.372,0.00022,0.0,0.0
12.524,4464.42,0.00022,0.0,0.0
12.53,4468.895,0.00022,0.0,0.0
12.536,4463.516,0.00022,0.0,0.0
12.543,4453.65,0.00022,0.0,0.0
12.549,4457.712,0.00022,0.0,0.0
12.555,4469.624,0.00022,0.0,0.0
12.562,4453.741,0.00022,0.0,0.0
12.568,4461.833,0.00022,0.0,0.0
12.574,4448.628,0.00022,0.0,0.0
12.58,4468.308,0.00022,0.0,0.0
12.587,4476.025,0.00022,0.0,0.0
12.593,4493.262,0.00022,0.0,0.0
12.599,4506.633,0.00022,0.0,0.0
12.606,4532.034,0.00022,0.0,0.0
12.612,4576.791,0.00022,0.0,0.0
12.618,4632.779,0.00022,0.0,0.0
12.625,4704.569,0.00021,0.0,0.0
12.631,4815.931,0.00021,0.0,0.0
12.637,4982.544,0.0002,0.0,0.0
12.644,5222.091,0.00019,0.0,0.0
12.65,5686.374,0.00018,0.0,0.0
12.656,6460.089,0.00015,0.0,0.0
12.663,7809.026,0.00013,0.0,0.0
12.669,10345.935,0.0001,0.0,0.0
12.675,14135.345,0.00007,0.0,0.0
12.682,19536.575,0.00005,0.0,0.0
12.688,27262.669,0.00004,0.0,0.0
12.694,30858.544,0.00003,0.0,0.0
12.701,33438.167,0.00003,0.0,0.0
12.707,30974.15,0.00003,0.0,0.0
12.713,24861.566,0.00004,0.0,0.0
12.72,18198.572,0.00005,0.0,0.0
12.726,13082.323,0.00008,0.0,0.0
12.732,9159.222,0.00011,0.0,0.0
12.738,7153.477,0.00014,0.0,0.0
12.745,6124.939,0.00016,0.0,0.0
12.751,5448.375,0.00018,0.0,0.0
12.757,5067.595,0.0002,0.0,0.0
12.764,4841.539,0.00021,0.0,0.0
12.77,4695.421,0.00021,0.0,0.0
12.776,4602.95,0.00022,0.0,0.0
12.783,4541.196,0.00022,0.0,0.0
12.789,4492.456,0.00022,0.0,0.0
12.795,4459.178,0.00022,0.0,0.0
12.802,4437.843,0.00023,0.0,0.0
12.808,4397.873,0.00023,0.0,0.0
12.814,4394.169,0.00023,0.0,0.0
12.821,4375.237,0.00023,0.0,0.0
12.827,4387.2,0.00023,0.0,0.0
12.833,4339.042,0.00023,0.0,0.0
12.84,4339.293,0.00023,0.0,0.0
12.846,4329.342,0.00023,0.0,0.0
12.852,4330.07,0.00023,0.0,0.0
12.859,4331.813,0.00023,0.0,0.0
12.865,4311.082,0.00023,0.0,0.0
12.871,4306.861,0.00023,0.0,0.0
12.878,4313.129,0.00023,0.0,0.0
12.884,4308.835,0.00023,0.0,0.0
12.89,4304.795,0.00023,0.0,0.0
12.896,4309.749,0.00023,0.0,0.0
12.903,4301.564,0.00023,0.0,0.0
12.909,4346.31,0.00023,0.0,0.0
12.915,4385.456,0.00023,0.0,0.0
12.922,4365.75,0.00023,0.0,0.0
12.928,4546.403,0.00022,0.0,0.0
12.934,4629.339,0.00022,0.0,0.0
12.941,4564.623,0.00022,0.0,0.0
12.947,4710.035,0.00021,0.0,0.0
12.953,4513.956,0.00022,0.0,0.0
12.96,4461.07,0.00022,0.0,0.0
12.966,4406.538,0.00023,0.0,0.0
12.972,4346.168,0.00023,0.0,0.0
12.979,4305.217,0.00023,0.0,0.0
12.985,4284.999,0.00023,0.0,0.0
12.991,4265.251,0.00023,0.0,0.0
12.998,4251.664,0.00024,0.0,0.0
13.004,4241.657,0.00024,0.0,0.0
13.01,4231.207,0.00024,0.0,0.0
13.017,4232.144,0.00024,0.0,0.0
13.023,4221.922,0.00024,0.0,0.0
13.029,4204.272,0.00024,0.0,0.0
13.036,4205.683,0.00024,0.0,0.0
13.042,4200.769,0.00024,0.0,0.0
13.048,4197.975,0.00024,0.0,0.0
13.054,4188.623,0.00024,0.0,0.0
13.061,4173.013,0.00024,0.0,0.0
13.067,4193.603,0.00024,0.0,0.0
13.073,4187.458,0.00024,0.0,0.0
13.08,4181.076,0.00024,0.0,0.0
13.086,4185.668,0.00024,0.0,0.0
13.092,4172.342,0.00024,0.0,0.0
13.099,4182.673,0.00024,0.0,0.0
13.105,4174.789,0.00024,0.0,0.0
13.111,4175.036,0.00024,0.0,0.0
13.118,4165.191,0.00024,0.0,0.0
13.124,4171.521,0.00024,0.0,0.0
13.13,4173.301,0.00024,0.0,0.0
13.137,4171.816,0.00024,0.0,0.0
13.143,4168.675,0.00024,0.0,0.0
13.149,4154.868,0.00024,0.0,0.0
13.156,4160.422,0.00024,0.0,0.0
13.162,4168.099,0.00024,0.0,0.0
13.168,4166.353,0.00024,0.0,0.0
13.175,4177.848,0.00024,0.0,0.0
13.181,4182.398,0.00024,0.0,0.0
13.187,4187.779,0.00024,0.0,0.0
13.194,4202.848,0.00024,0.0,0.0
13.2,4227.0,0.00024,0.0,0.0
13.206,4275.77,0.00023,0.0,0.0
13.212,4346.081,0.00023,0.0,0.0
13.219,4475.568,0.00022,0.0,0.0
13.225,4662.057,0.00021,0.0,0.0
13.231,5067.678,0.0002,0.0,0.0
13.238,5768.863,0.00017,0.0,0.0
13.244,6995.836,0.00014,0.0,0.0
13.25,8584.768,0.00012,0.0,0.0
13.257,10372.759,0.0001,0.0,0.0
13.263,12048.069,0.00008,0.0,0.0
13.269,12487.439,0.00008,0.0,0.0
13.276,11110.833,0.00009,0.0,0.0
13.282,10026.291,0.0001,0.0,0.0
13.288,7774.491,0.00013,0.0,0.0
13.295,6315.571,0.00016,0.0,0.0
13.301,5401.224,0.00019,0.0,0.0
13.307,4816.889,0.00021,0.0,0.0
13.314,4523.817,0.00022,0.0,0.0
13.32,4333.236,0.00023,0.0,0.0
13.326,4241.999,0.00024,0.0,0.0
13.333,4178.589,0.00024,0.0,0.0
13.339,4142.883,0.00024,0.0,0.0
13.345,4114.944,0.00024,0.0,0.0
13.352,4101.674,0.00024,0.0,0.0
13.358,4091.059,0.00024,0.0,0.0
13.364,4071.996,0.00025,0.0,0.0
13.37,4074.785,0.00025,0.0,0.0
13.377,4054.708,0.00025,0.0,0.0
13.383,4045.336,0.00025,0.0,0.0
13.389,4039.591,0.00025,0.0,0.0
13.396,4030.232,0.00025,0.0,0.0
13.402,4030.731,0.00025,0.0,0.0
13.408,4034.988,0.00025,0.0,0.0
13.415,4016.153,0.00025,0.0,0.0
13.421,4018.349,0.00025,0.0,0.0
13.427,4017.502,0.00025,0.0,0.0
13.434,4015.473,0.00025,0.0,0.0
13.44,4005.039,0.00025,0.0,0.0
13.446,3986.861,0.00025,0.0,0.0
13.453,3981.618,0.00025,0.0,0.0
13.459,3996.148,0.00025,0.0,0.0
13.465,3993.717,0.00025,0.0,0.0
13.472,3991.44,0.00025,0.0,0.0
13.478,3977.091,0.00025,0.0,0.0
13.484,3975.133,0.00025,0.0,0.0
13.491,3966.727,0.00025,0.0,0.0
13.497,3976.884,0.00025,0.0,0.0
13.503,3959.818,0.00025,0.0,0.0
13.51,3964.713,0.00025,0.0,0.0
13.516,3955.691,0.00025,0.0,0.0
13.522,3950.218,0.00025,0.0,0.0
13.528,3960.987,0.00025,0.0,0.0
13.535,3955.158,0.00025,0.0,0.0
13.541,3959.0,0.00025,0.0,0.0
13.547,3943.198,0.00025,0.0,0.0
13.554,3955.778,0.00025,0.0,0.0
13.56,3949.75,0.00025,0.0,0.0
13.566,3945.943,0.00025,0.0,0.0
13.573,3939.833,0.00025,0.0,0.0
13.579,3935.087,0.00025,0.0,0.0
13.585,3934.419,0.00025,0.0,0.0
13.592,3928.896,0.00025,0.0,0.0
13.598,3932.89,0.00025,0.0,0.0
13.604,3946.706,0.00025,0.0,0.0
13.611,3953.752,0.00025,0.0,0.0
13.617,3929.643,0.00025,0.0,0.0
13.623,3935.768,0.00025,0.0,0.0
13.63,3937.005,0.00025,0.0,0.0
13.636,3945.552,0.00025,0.0,0.0
13.642,3937.471,0.00025,0.0,0.0
13.649,3942.149,0.00025,0.0,0.0
13.655,3943.48,0.00025,0.0,0.0
13.661,3943.412,0.00025,0.0,0.0
13.668,3951.519,0.00025,0.0,0.0
13.674,3947.053,0.00025,0.0,0.0
13.68,3945.471,0.00025,0.0,0.0
13.686,3960.191,0.00025,0.0,0.0
13.693,3984.687,0.00025,0.0,0.0
13.699,4033.125,0.00025,0.0,0.0
13.705,4108.943,0.00024,0.0,0.0
13.712,4263.104,0.00023,0.0,0.0
13.718,4310.341,0.00023,0.0,0.0
13.724,4585.507,0.00022,0.0,0.0
13.731,4315.64,0.00023,0.0,0.0
13.737,4404.093,0.00023,0.0,0.0
13.743,4438.339,0.00023,0.0,0.0
13.75,4150.266,0.00024,0.0,0.0
13.756,4067.171,0.00025,0.0,0.0
13.762,3976.283,0.00025,0.0,0.0
13.769,3944.816,0.00025,0.0,0.0
13.775,3902.709,0.00026,0.0,0.0
13.781,3880.176,0.00026,0.0,0.0
13.788,3888.069,0.00026,0.0,0.0
13.794,3875.713,0.00026,0.0,0.0
13.8,3878.231,0.00026,0.0,0.0
13.807,3857.666,0.00026,0.0,0.0
13.813,3858.663,0.00026,0.0,0.0
13.819,3853.126,0.00026,0.0,0.0
13.826,3846.932,0.00026,0.0,0.0
13.832,3845.741,0.00026,0.0,0.0
13.838,3836.885,0.00026,0.0,0.0
13.844,3835.564,0.00026,0.0,0.0
13.851,3838.088,0.00026,0.0,0.0
13.857,3826.33,0.00026,0.0,0.0
13.863,3828.651,0.00026,0.0,0.0
13.87,3818.208,0.00026,0.0,0.0
13.876,3813.29,0.00026,0.0,0.0
13.882,3815.541,0.00026,0.0,0.0
13.889,3806.02,0.00026,0.0,0.0
13.895,3810.84,0.00026,0.0,0.0
13.901,3798.137,0.00026,0.0,0.0
13.908,3798.971,0.00026,0.0,0.0
13.914,3803.083,0.00026,0.0,0.0
13.92,3793.973,0.00026,0.0,0.0
13.927,3795.555,0.00026,0.0,0.0
13.933,3779.497,0.00026,0.0,0.0
13.939,3771.24,0.00027,0.0,0.0
13.946,3772.976,0.00027,0.0,0.0
13.952,3768.658,0.00027,0.0,0.0
13.958,3777.501,0.00026,0.0,0.0
13.965,3769.437,0.00027,0.0,0.0
13.971,3770.7,0.00027,0.0,0.0
13.977,3772.771,0.00027,0.0,0.0
13.984,3766.447,0.00027,0.0,0.0
13.99,3758.211,0.00027,0.0,0.0
13.996,3748.492,0.00027,0.0,0.0
14.002,3748.512,0.00027,0.0,0.0
14.009,3752.484,0.00027,0.0,0.0
14.015,3752.513,0.00027,0.0,0.0
14.021,3748.177,0.00027,0.0,0.0
14.028,3741.568,0.00027,0.0,0.0
14.034,3741.999,0.00027,0.0,0.0
14.04,3732.252,0.00027,0.0,0.0
14.047,3736.449,0.00027,0.0,0.0
14.053,3746.623,0.00027,0.0,0.0
14.059,3715.599,0.00027,0.0,0.0
14.066,3710.398,0.00027,0.0,0.0
14.072,3722.712,0.00027,0.0,0.0
14.078,3714.209,0.00027,0.0,0.0
14.085,3705.752,0.00027,0.0,0.0
14.091,3714.963,0.00027,0.0,0.0
14.097,3704.145,0.00027,0.0,0.0
14.104,3702.218,0.00027,0.0,0.0
14.11,3705.041,0.00027,0.0,0.0
14.116,3702.093,0.00027,0.0,0.0
14.123,3692.561,0.00027,0.0,0.0
14.129,3703.686,0.00027,0.0,0.0
14.135,3692.512,0.00027,0.0,0.0
14.142,3697.933,0.00027,0.0,0.0
14.148,3690.888,0.00027,0.0,0.0
14.154,3699.043,0.00027,0.0,0.0
14.16,3679.496,0.00027,0.0,0.0
14.167,3675.436,0.00027,0.0,0.0
14.173,3661.928,0.00027,0.0,0.0
14.179,3682.571,0.00027,0.0,0.0
14.186,3689.069,0.00027,0.0,0.0
14.192,3675.117,0.00027,0.0,0.0
14.198,3674.882,0.00027,0.0,0.0
14.205,3677.031,0.00027,0.0,0.0
14.211,3672.112,0.00027,0.0,0.0
14.217,3670.502,0.00027,0.0,0.0
14.224,3677.707,0.00027,0.0,0.0
14.23,3666.459,0.00027,0.0,0.0
14.236,3675.802,0.00027,0.0,0.0
14.243,3678.588,0.00027,0.0,0.0
14.249,3677.749,0.00027,0.0,0.0
14.255,3678.155,0.00027,0.0,0.0
14.262,3689.962,0.00027,0.0,0.0
14.268,3678.557,0.00027,0.0,0.0
14.274,3699.797,0.00027,0.0,0.0
14.281,3694.238,0.00027,0.0,0.0
14.287,3674.313,0.00027,0.0,0.0
14.293,3664.952,0.00027,0.0,0.0
14.3,3666.228,0.00027,0.0,0.0
14.306,3653.365,0.00027,0.0,0.0
14.312,3659.431,0.00027,0.0,0.0
14.318,3638.015,0.00027,0.0,0.0
14.325,3641.373,0.00027,0.0,0.0
14.331,3627.205,0.00028,0.0,0.0
14.337,3643.631,0.00027,0.0,0.0
14.344,3638.231,0.00027,0.0,0.0
14.35,3628.995,0.00028,0.0,0.0
14.356,3623.391,0.00028,0.0,0.0
14.363,3613.93,0.00028,0.0,0.0
14.369,3618.669,0.00028,0.0,0.0
14.375,3611.76,0.00028,0.0,0.0
14.382,3616.549,0.00028,0.0,0.0
14.388,3620.208,0.00028,0.0,0.0
14.394,3602.045,0.00028,0.0,0.0
14.401,3616.425,0.00028,0.0,0.0
14.407,3602.946,0.00028,0.0,0.0
14.413,3609.177,0.00028,0.0,0.0
14.42,3605.432,0.00028,0.0,0.0
14.426,3603.437,0.00028,0.0,0.0
14.432,3612.112,0.00028,0.0,0.0
14.439,3615.924,0.00028,0.0,0.0
14.445,3622.833,0.00028,0.0,0.0
14.451,3642.691,0.00027,0.0,0.0
14.458,3657.532,0.00027,0.0,0.0
14.464,3669.535,0.00027,0.0,0.0
14.47,3704.123,0.00027,0.0,0.0
14.476,3672.435,0.00027,0.0,0.0
14.483,3647.411,0.00027,0.0,0.0
14.489,3621.412,0.00028,0.0,0.0
14.495,3609.908,0.00028,0.0,0.0
14.502,3577.632,0.00028,0.0,0.0
14.508,3589.137,0.00028,0.0,0.0
14.514,3569.927,0.00028,0.0,0.0
14.521,3566.374,0.00028,0.0,0.0
14.527,3570.453,0.00028,0.0,0.0
14.533,3553.998,0.00028,0.0,0.0
14.54,3557.939,0.00028,0.0,0.0
14.546,3550.874,0.00028,0.0,0.0
14.552,3551.721,0.00028,0.0,0.0
14.559,3555.356,0.00028,0.0,0.0
14.565,3562.514,0.00028,0.0,0.0
14.571,3541.77,0.00028,0.0,0.0
14.578,3531.033,0.00028,0.0,0.0
14.584,3536.591,0.00028,0.0,0.0
14.59,3539.067,0.00028,0.0,0.0
14.597,3529.335,0.00028,0.0,0.0
14.603,3538.64,0.00028,0.0,0.0
14.609,3530.953,0.00028,0.0,0.0
14.616,3528.718,0.00028,0.0,0.0
14.622,3522.961,0.00028,0.0,0.0
14.628,3523.302,0.00028,0.0,0.0
14.634,3514.197,0.00028,0.0,0.0
14.641,3515.896,0.00028,0.0,0.0
14.647,3509.174,0.00028,0.0,0.0
14.653,3500.206,0.00029,0.0,0.0
14.66,3514.637,0.00028,0.0,0.0
14.666,3505.959,0.00029,0.0,0.0
14.672,3500.587,0.00029,0.0,0.0
14.679,3499.362,0.00029,0.0,0.0
14.685,3503.582,0.00029,0.0,0.0
14.691,3499.934,0.00029,0.0,0.0
14.698,3492.819,0.00029,0.0,0.0
14.704,3493.468,0.00029,0.0,0.0
14.71,3496.968,0.00029,0.0,0.0
14.717,3493.852,0.00029,0.0,0.0
14.723,3494.006,0.00029,0.0,0.0
14.729,3482.1,0.00029,0.0,0.0
14.736,3478.154,0.00029,0.0,0.0
14.742,3476.053,0.00029,0.0,0.0
14.748,3483.5,0.00029,0.0,0.0
14.755,3478.499,0.00029,0.0,0.0
14.761,3476.533,0.00029,0.0,0.0
14.767,3468.359,0.00029,0.0,0.0
14.774,3478.783,0.00029,0.0,0.0
14.78,3478.117,0.00029,0.0,0.0
14.786,3467.181,0.00029,0.0,0.0
14.792,3476.6,0.00029,0.0,0.0
14.799,3468.133,0.00029,0.0,0.0
14.805,3463.147,0.00029,0.0,0.0
14.811,3463.406,0.00029,0.0,0.0
14.818,3459.359,0.00029,0.0,0.0
14.824,3472.846,0.00029,0.0,0.0
14.83,3452.844,0.00029,0.0,0.0
14.837,3458.298,0.00029,0.0,0.0
14.843,3454.489,0.00029,0.0,0.0
14.849,3446.207,0.00029,0.0,0.0
14.856,3454.961,0.00029,0.0,0.0
14.862,3452.521,0.00029,0.0,0.0
14.868,3440.879,0.00029,0.0,0.0
14.875,3443.471,0.00029,0.0,0.0
14.881,3449.758,0.00029,0.0,0.0
14.887,3446.574,0.00029,0.0,0.0
14.894,3443.05,0.00029,0.0,0.0
14.9,3432.408,0.00029,0.0,0.0
14.906,3438.602,0.00029,0.0,0.0
14.913,3436.939,0.00029,0.0,0.0
14.919,3436.274,0.00029,0.0,0.0
14.925,3432.444,0.00029,0.0,0.0
14.932,3428.076,0.00029,0.0,0.0
14.938,3432.335,0.00029,0.0,0.0
14.944,3432.778,0.00029,0.0,0.0
14.95,3440.519,0.00029,0.0,0.0
14.957,3426.482,0.00029,0.0,0.0
14.963,3426.305,0.00029,0.0,0.0
14.969,3419.425,0.00029,0.0,0.0
14.976,3417.883,0.00029,0.0,0.0
14.982,3421.409,0.00029,0.0,0.0
14.988,3412.646,0.00029,0.0,0.0
14.995,3416.046,0.00029,0.0,0.0
15.001,3418.313,0.00029,0.0,0.0
15.007,3423.133,0.00029,0.0,0.0
15.014,3411.567,0.00029,0.0,0.0
15.02,3405.508,0.00029,0.0,0.0
15.026,3405.552,0.00029,0.0,0.0
15.033,3407.599,0.00029,0.0,0.0
15.039,3398.244,0.00029,0.0,0.0
15.045,3399.925,0.00029,0.0,0.0
15.052,3400.402,0.00029,0.0,0.0
15.058,3397.544,0.00029,0.0,0.0
15.064,3394.802,0.00029,0.0,0.0
15.071,3396.481,0.00029,0.0,0.0
15.077,3404.092,0.00029,0.0,0.0
15.083,3391.427,0.00029,0.0,0.0
15.09,3396.78,0.00029,0.0,0.0
15.096,3384.248,0.0003,0.0,0.0
15.102,3385.299,0.0003,0.0,0.0
15.108,3397.589,0.00029,0.0,0.0
15.115,3382.58,0.0003,0.0,0.0
15.121,3401.288,0.00029,0.0,0.0
15.127,3380.968,0.0003,0.0,0.0
15.134,3383.31,0.0003,0.0,0.0
15.14,3394.409,0.00029,0.0,0.0
15.146,3384.539,0.0003,0.0,0.0
15.153,3379.908,0.0003,0.0,0.0
15.159,3374.038,0.0003,0.0,0.0
15.165,3388.131,0.0003,0.0,0.0
15.172,3373.48,0.0003,0.0,0.0
15.178,3395.881,0.00029,0.0,0.0
15.184,3404.671,0.00029,0.0,0.0
15.191,3389.894,0.00029,0.0,0.0
15.197,3400.679,0.00029,0.0,0.0
15.203,3384.843,0.0003,0.0,0.0
15.21,3382.566,0.0003,0.0,0.0
15.216,3386.713,0.0003,0.0,0.0
15.222,3376.436,0.0003,0.0,0.0
15.229,3378.078,0.0003,0.0,0.0
15.235,3384.07,0.0003,0.0,0.0
15.241,3380.985,0.0003,0.0,0.0
15.248,3383.714,0.0003,0.0,0.0
15.254,3399.0,0.00029,0.0,0.0
15.26,3401.675,0.00029,0.0,0.0
15.266,3438.953,0.00029,0.0,0.0
15.273,3471.157,0.00029,0.0,0.0
15.279,3523.04,0.00028,0.0,0.0
15.285,3628.6,0.00028,0.0,0.0
15.292,3785.774,0.00026,0.0,0.0
15.298,4090.966,0.00024,0.0,0.0
15.304,4424.884,0.00023,0.0,0.0
15.311,5048.92,0.0002,0.0,0.0
15.317,5658.607,0.00018,0.0,0.0
15.323,6176.056,0.00016,0.0,0.0
15.33,6015.413,0.00017,0.0,0.0
15.336,5996.645,0.00017,0.0,0.0
15.342,5539.778,0.00018,0.0,0.0
15.349,4803.184,0.00021,0.0,0.0
15.355,4414.724,0.00023,0.0,0.0
15.361,3977.367,0.00025,0.0,0.0
15.368,3717.769,0.00027,0.0,0.0
15.374,3578.289,0.00028,0.0,0.0
15.38,3483.439,0.00029,0.0,0.0
15.387,3444.626,0.00029,0.0,0.0
15.393,3403.401,0.00029,0.0,0.0
15.399,3382.14,0.0003,0.0,0.0
15.406,3370.931,0.0003,0.0,0.0
15.412,3369.018,0.0003,0.0,0.0
15.418,3358.766,0.0003,0.0,0.0
15.424,3349.443,0.0003,0.0,0.0
15.431,3345.775,0.0003,0.0,0.0
15.437,3345.044,0.0003,0.0,0.0
15.443,3333.927,0.0003,0.0,0.0
15.45,3333.32,0.0003,0.0,0.0
15.456,3339.652,0.0003,0.0,0.0
15.462,3329.684,0.0003,0.0,0.0
15.469,3327.191,0.0003,0.0,0.0
15.475,3311.455,0.0003,0.0,0.0
15.481,3324.47,0.0003,0.0,0.0
15.488,3321.595,0.0003,0.0,0.0
15.494,3315.591,0.0003,0.0,0.0
15.5,3321.155,0.0003,0.0,0.0
15.507,3316.676,0.0003,0.0,0.0
15.513,3315.753,0.0003,0.0,0.0
15.519,3319.217,0.0003,0.0,0.0
15.526,3319.464,0.0003,0.0,0.0
15.532,3303.431,0.0003,0.0,0.0
15.538,3303.842,0.0003,0.0,0.0
15.545,3302.347,0.0003,0.0,0.0
15.551,3298.885,0.0003,0.0,0.0
15.557,3299.098,0.0003,0.0,0.0
15.564,3297.255,0.0003,0.0,0.0
15.57,3286.937,0.0003,0.0,0.0
15.576,3297.622,0.0003,0.0,0.0
15.582,3293.763,0.0003,0.0,0.0
15.589,3283.089,0.0003,0.0,0.0
15.595,3280.193,0.0003,0.0,0.0
15.601,3286.171,0.0003,0.0,0.0
15.608,3283.055,0.0003,0.0,0.0
15.614,3283.601,0.0003,0.0,0.0
15.62,3271.651,0.00031,0.0,0.0
15.627,3274.522,0.00031,0.0,0.0
15.633,3262.808,0.00031,0.0,0.0
15.639,3263.646,0.00031,0.0,0.0
15.646,3257.188,0.00031,0.0,0.0
15.652,3270.147,0.00031,0.0,0.0
15.658,3267.257,0.00031,0.0,0.0
15.665,3260.372,0.00031,0.0,0.0
15.671,3247.014,0.00031,0.0,0.0
15.677,3245.628,0.00031,0.0,0.0
15.684,3251.565,0.00031,0.0,0.0
15.69,3241.254,0.00031,0.0,0.0
15.696,3245.847,0.00031,0.0,0.0
15.703,3241.959,0.00031,0.0,0.0
15.709,3240.465,0.00031,0.0,0.0
15.715,3245.142,0.00031,0.0,0.0
15.722,3218.287,0.00031,0.0,0.0
15.728,3236.247,0.00031,0.0,0.0
15.734,3245.917,0.00031,0.0,0.0
15.74,3232.861,0.00031,0.0,0.0
15.747,3232.355,0.00031,0.0,0.0
15.753,3234.552,0.00031,0.0,0.0
15.759,3239.566,0.00031,0.0,0.0
15.766,3231.933,0.00031,0.0,0.0
15.772,3229.489,0.00031,0.0,0.0
15.778,3223.219,0.00031,0.0,0.0
15.785,3222.93,0.00031,0.0,0.0
15.791,3216.114,0.00031,0.0,0.0
15.797,3230.035,0.00031,0.0,0.0
15.804,3216.829,0.00031,0.0,0.0
15.81,3216.087,0.00031,0.0,0.0
15.816,3205.787,0.00031,0.0,0.0
15.823,3204.378,0.00031,0.0,0.0
15.829,3220.304,0.00031,0.0,0.0
15.835,3222.58,0.00031,0.0,0.0
15.842,3221.589,0.00031,0.0,0.0
15.848,3221.0,0.00031,0.0,0.0
15.854,3213.251,0.00031,0.0,0.0
15.861,3217.619,0.00031,0.0,0.0
15.867,3223.212,0.00031,0.0,0.0
15.873,3212.483,0.00031,0.0,0.0
15.88,3212.523,0.00031,0.0,0.0
15.886,3211.016,0.00031,0.0,0.0
15.892,3202.256,0.00031,0.0,0.0
15.898,3190.186,0.00031,0.0,0.0
15.905,3195.349,0.00031,0.0,0.0
15.911,3206.095,0.00031,0.0,0.0
15.917,3188.849,0.00031,0.0,0.0
15.924,3191.167,0.00031,0.0,0.0
15.93,3190.135,0.00031,0.0,0.0
15.936,3187.415,0.00031,0.0,0.0
15.943,3193.241,0.00031,0.0,0.0
15.949,3183.739,0.00031,0.0,0.0
15.955,3190.768,0.00031,0.0,0.0
15.962,3181.544,0.00031,0.0,0.0
15.968,3190.836,0.00031,0.0,0.0
15.974,3180.625,0.00031,0.0,0.0
15.981,3184.833,0.00031,0.0,0.0
15.987,3173.257,0.00032,0.0,0.0
15.993,3176.06,0.00031,0.0,0.0
16.0,3185.591,0.00031,0.0,0.0
16.006,3170.61,0.00032,0.0,0.0
16.012,3162.238,0.00032,0.0,0.0
16.019,3164.216,0.00032,0.0,0.0
16.025,3168.968,0.00032,0.0,0.0
16.031,3175.011,0.00031,0.0,0.0
16.038,3166.518,0.00032,0.0,0.0
16.044,3172.02,0.00032,0.0,0.0
16.05,3165.531,0.00032,0.0,0.0
16.056,3163.542,0.00032,0.0,0.0
16.063,3161.167,0.00032,0.0,0.0
16.069,3168.735,0.00032,0.0,0.0
16.075,3171.518,0.00032,0.0,0.0
16.082,3151.596,0.00032,0.0,0.0
16.088,3166.077,0.00032,0.0,0.0
16.094,3153.536,0.00032,0.0,0.0
16.101,3161.637,0.00032,0.0,0.0
16.107,3172.516,0.00032,0.0,0.0
16.113,3157.604,0.00032,0.0,0.0
16.12,3155.852,0.00032,0.0,0.0
16.126,3158.162,0.00032,0.0,0.0
16.132,3156.478,0.00032,0.0,0.0
16.139,3156.756,0.00032,0.0,0.0
16.145,3155.875,0.00032,0.0,0.0
16.151,3153.844,0.00032,0.0,0.0
16.158,3154.472,0.00032,0.0,0.0
16.164,3150.826,0.00032,0.0,0.0
16.17,3143.159,0.00032,0.0,0.0
16.177,3155.852,0.00032,0.0,0.0
16.183,3148.622,0.00032,0.0,0.0
16.189,3141.378,0.00032,0.0,0.0
16.196,3154.892,0.00032,0.0,0.0
16.202,3147.194,0.00032,0.0,0.0
16.208,3146.579,0.00032,0.0,0.0
16.214,3143.372,0.00032,0.0,0.0
16.221,3138.659,0.00032,0.0,0.0
16.227,3138.628,0.00032,0.0,0.0
16.233,3140.746,0.00032,0.0,0.0
16.24,3144.236,0.00032,0.0,0.0
16.246,3144.121,0.00032,0.0,0.0
16.252,3152.523,0.00032,0.0,0.0
16.259,3145.757,0.00032,0.0,0.0
16.265,3146.393,0.00032,0.0,0.0
16.271,3140.24,0.00032,0.0,0.0
16.278,3139.275,0.00032,0.0,0.0
16.284,3142.578,0.00032,0.0,0.0
16.29,3134.62,0.00032,0.0,0.0
16.297,3140.118,0.00032,0.0,0.0
16.303,3139.674,0.00032,0.0,0.0
16.309,3147.536,0.00032,0.0,0.0
16.316,3151.022,0.00032,0.0,0.0
16.322,3144.432,0.00032,0.0,0.0
16.328,3160.66,0.00032,0.0,0.0
16.335,3142.453,0.00032,0.0,0.0
16.341,3148.625,0.00032,0.0,0.0
16.347,3144.507,0.00032,0.0,0.0
16.354,3140.727,0.00032,0.0,0.0
16.36,3140.327,0.00032,0.0,0.0
16.366,3142.098,0.00032,0.0,0.0
16.372,3142.41,0.00032,0.0,0.0
16.379,3141.076,0.00032,0.0,0.0
16.385,3146.979,0.00032,0.0,0.0
16.391,3149.602,0.00032,0.0,0.0
16.398,3137.634,0.00032,0.0,0.0
16.404,3140.491,0.00032,0.0,0.0
16.41,3137.144,0.00032,0.0,0.0
16.417,3137.31,0.00032,0.0,0.0
16.423,3143.464,0.00032,0.0,0.0
16.429,3146.447,0.00032,0.0,0.0
16.436,3131.757,0.00032,0.0,0.0
16.442,3149.841,0.00032,0.0,0.0
16.448,3146.121,0.00032,0.0,0.0
16.455,3150.347,0.00032,0.0,0.0
16.461,3148.51,0.00032,0.0,0.0
16.467,3152.02,0.00032,0.0,0.0
16.474,3150.526,0.00032,0.0,0.0
16.48,3160.097,0.00032,0.0,0.0
16.486,3170.313,0.00032,0.0,0.0
16.493,3176.348,0.00031,0.0,0.0
16.499,3190.975,0.00031,0.0,0.0
16.505,3221.885,0.00031,0.0,0.0
16.512,3219.851,0.00031,0.0,0.0
16.518,3235.364,0.00031,0.0,0.0
16.524,3244.03,0.00031,0.0,0.0
16.53,3219.076,0.00031,0.0,0.0
16.537,3220.748,0.00031,0.0,0.0
16.543,3198.419,0.00031,0.0,0.0
16.549,3185.149,0.00031,0.0,0.0
16.556,3153.549,0.00032,0.0,0.0
16.562,3171.056,0.00032,0.0,0.0
16.568,3166.918,0.00032,0.0,0.0
16.575,3170.593,0.00032,0.0,0.0
16.581,3172.25,0.00032,0.0,0.0
16.587,3167.726,0.00032,0.0,0.0
16.594,3175.079,0.00031,0.0,0.0
