"x","y_obs","weight","y_calc","y_bkg"
0.8,2687.947,0.00037,0.0,0.0
0.806,3046.852,0.00033,0.0,0.0
0.813,3194.006,0.00031,0.0,0.0
0.819,3091.437,0.00032,0.0,0.0
0.825,3634.957,0.00028,0.0,0.0
0.832,3398.975,0.00029,0.0,0.0
0.838,3705.316,0.00027,0.0,0.0
0.844,4017.908,0.00025,0.0,0.0
0.851,3915.81,0.00026,0.0,0.0
0.857,4254.423,0.00024,0.0,0.0
0.863,4601.505,0.00022,0.0,0.0
0.87,4194.371,0.00024,0.0,0.0
0.876,4958.299,0.0002,0.0,0.0
0.882,4820.025,0.00021,0.0,0.0
0.888,5080.768,0.0002,0.0,0.0
0.895,5304.949,0.00019,0.0,0.0
0.901,5285.825,0.00019,0.0,0.0
0.907,5669.896,0.00018,0.0,0.0
0.914,5829.963,0.00017,0.0,0.0
0.92,5527.966,0.00018,0.0,0.0
0.926,6133.208,0.00016,0.0,0.0
0.933,6129.706,0.00016,0.0,0.0
0.939,5956.359,0.00017,0.0,0.0
0.945,6457.53,0.00015,0.0,0.0
0.952,6125.618,0.00016,0.0,0.0
0.958,6445.055,0.00016,0.0,0.0
0.964,6470.176,0.00015,0.0,0.0
0.971,6233.174,0.00016,0.0,0.0
0.977,6646.554,0.00015,0.0,0.0
0.983,6596.461,0.00015,0.0,0.0
0.99,6472.432,0.00015,0.0,0.0
0.996,6756.896,0.00015,0.0,0.0
1.002,6489.673,0.00015,0.0,0.0
1.009,6685.999,0.00015,0.0,0.0
1.015,6770.669,0.00015,0.0,0.0
1.021,6578.329,0.00015,0.0,0.0
1.028,6784.58,0.00015,0.0,0.0
1.034,6649.353,0.00015,0.0,0.0
1.04,6647.896,0.00015,0.0,0.0
1.046,6709.471,0.00015,0.0,0.0
1.053,6703.685,0.00015,0.0,0.0
1.059,6678.996,0.00015,0.0,0.0
1.065,6728.59,0.00015,0.0,0.0
1.072,6548.21,0.00015,0.0,0.0
1.078,6645.463,0.00015,0.0,0.0
1.084,6549.323,0.00015,0.0,0.0
1.091,6590.073,0.00015,0.0,0.0
1.097,6569.921,0.00015,0.0,0.0
1.103,6495.197,0.00015,0.0,0.0
1.11,6532.352,0.00015,0.0,0.0
1.116,6495.694,0.00015,0.0,0.0
1.122,6423.204,0.00016,0.0,0.0
1.129,6395.633,0.00016,0.0,0.0
1.135,6352.564,0.00016,0.0,0.0
1.141,6334.798,0.00016,0.0,0.0
1.148,6365.119,0.00016,0.0,0.0
1.154,6262.027,0.00016,0.0,0.0
1.16,6242.536,0.00016,0.0,0.0
1.167,6196.235,0.00016,0.0,0.0
1.173,6155.527,0.00016,0.0,0.0
1.179,6112.327,0.00016,0.0,0.0
1.186,6122.343,0.00016,0.0,0.0
1.192,6063.39,0.00016,0.0,0.0
1.198,6044.871,0.00017,0.0,0.0
1.204,5954.331,0.00017,0.0,0.0
1.211,5940.747,0.00017,0.0,0.0
1.217,5896.561,0.00017,0.0,0.0
1.223,5852.952,0.00017,0.0,0.0
1.23,5829.006,0.00017,0.0,0.0
1.236,5809.55,0.00017,0.0,0.0
1.242,5789.808,0.00017,0.0,0.0
1.249,5761.006,0.00017,0.0,0.0
1.255,5759.696,0.00017,0.0,0.0
1.261,5685.979,0.00018,0.0,0.0
1.268,5674.473,0.00018,0.0,0.0
1.274,5586.235,0.00018,0.0,0.0
1.28,5635.419,0.00018,0.0,0.0
1.287,5610.905,0.00018,0.0,0.0
1.293,5539.183,0.00018,0.0,0.0
1.299,5534.741,0.00018,0.0,0.0
1.306,5535.614,0.00018,0.0,0.0
1.312,5492.22,0.00018,0.0,0.0
1.318,5505.6,0.00018,0.0,0.0
1.325,5479.839,0.00018,0.0,0.0
1.331,5468.598,0.00018,0.0,0.0
1.337,5427.509,0.00018,0.0,0.0
1.344,5451.399,0.00018,0.0,0.0
1.35,5414.631,0.00018,0.0,0.0
1.356,5418.544,0.00018,0.0,0.0
1.362,5407.143,0.00018,0.0,0.0
1.369,5389.377,0.00019,0.0,0.0
1.375,5383.97,0.00019,0.0,0.0
1.381,5365.842,0.00019,0.0,0.0
1.388,5418.82,0.00018,0.0,0.0
1.394,5328.822,0.00019,0.0,0.0
1.4,5314.058,0.00019,0.0,0.0
1.407,5312.687,0.00019,0.0,0.0
1.413,5333.061,0.00019,0.0,0.0
1.419,5311.541,0.00019,0.0,0.0
1.426,5319.918,0.00019,0.0,0.0
1.432,5312.462,0.00019,0.0,0.0
1.438,5288.461,0.00019,0.0,0.0
1.445,5316.66,0.00019,0.0,0.0
1.451,5325.472,0.00019,0.0,0.0
1.457,5340.132,0.00019,0.0,0.0
1.464,5246.867,0.00019,0.0,0.0
1.47,5304.302,0.00019,0.0,0.0
1.476,5265.279,0.00019,0.0,0.0
1.483,5311.147,0.00019,0.0,0.0
1.489,5251.359,0.00019,0.0,0.0
1.495,5297.724,0.00019,0.0,0.0
1.502,5279.865,0.00019,0.0,0.0
1.508,5313.305,0.00019,0.0,0.0
1.514,5258.354,0.00019,0.0,0.0
1.52,5330.011,0.00019,0.0,0.0
1.527,5312.252,0.00019,0.0,0.0
1.533,5322.982,0.00019,0.0,0.0
1.539,5276.08,0.00019,0.0,0.0
1.546,5294.012,0.00019,0.0,0.0
1.552,5340.157,0.00019,0.0,0.0
1.558,5325.216,0.00019,0.0,0.0
1.565,5376.654,0.00019,0.0,0.0
1.571,5340.829,0.00019,0.0,0.0
1.577,5315.299,0.00019,0.0,0.0
1.584,5369.21,0.00019,0.0,0.0
1.59,5360.002,0.00019,0.0,0.0
1.596,5337.392,0.00019,0.0,0.0
1.603,5357.055,0.00019,0.0,0.0
1.609,5394.811,0.00019,0.0,0.0
1.615,5399.127,0.00019,0.0,0.0
1.622,5381.719,0.00019,0.0,0.0
1.628,5405.891,0.00018,0.0,0.0
1.634,5444.532,0.00018,0.0,0.0
1.641,5416.658,0.00018,0.0,0.0
1.647,5459.428,0.00018,0.0,0.0
1.653,5470.333,0.00018,0.0,0.0
1.66,5470.551,0.00018,0.0,0.0
1.666,5469.313,0.00018,0.0,0.0
1.672,5499.312,0.00018,0.0,0.0
1.678,5508.909,0.00018,0.0,0.0
1.685,5545.6,0.00018,0.0,0.0
1.691,5511.5,0.00018,0.0,0.0
1.697,5535.042,0.00018,0.0,0.0
1.704,5583.927,0.00018,0.0,0.0
1.71,5565.827,0.00018,0.0,0.0
1.716,5563.772,0.00018,0.0,0.0
1.723,5609.005,0.00018,0.0,0.0
1.729,5610.258,0.00018,0.0,0.0
1.735,5662.917,0.00018,0.0,0.0
1.742,5644.428,0.00018,0.0,0.0
1.748,5657.222,0.00018,0.0,0.0
1.754,5670.162,0.00018,0.0,0.0
1.761,5693.383,0.00018,0.0,0.0
1.767,5642.835,0.00018,0.0,0.0
1.773,5741.151,0.00017,0.0,0.0
1.78,5681.094,0.00018,0.0,0.0
1.786,5720.725,0.00017,0.0,0.0
1.792,5689.781,0.00018,0.0,0.0
1.799,5712.704,0.00018,0.0,0.0
1.805,5754.596,0.00017,0.0,0.0
1.811,5728.094,0.00017,0.0,0.0
1.818,5736.913,0.00017,0.0,0.0
1.824,5779.612,0.00017,0.0,0.0
1.83,5755.62,0.00017,0.0,0.0
1.836,5728.706,0.00017,0.0,0.0
1.843,5807.454,0.00017,0.0,0.0
1.849,5715.431,0.00017,0.0,0.0
1.855,5793.351,0.00017,0.0,0.0
1.862,5720.569,0.00017,0.0,0.0
1.868,5733.533,0.00017,0.0,0.0
1.874,5774.247,0.00017,0.0,0.0
1.881,5789.884,0.00017,0.0,0.0
1.887,5742.444,0.00017,0.0,0.0
1.893,5744.436,0.00017,0.0,0.0
1.9,5722.344,0.00017,0.0,0.0
1.906,5745.275,0.00017,0.0,0.0
1.912,5752.334,0.00017,0.0,0.0
1.919,5738.771,0.00017,0.0,0.0
1.925,5752.108,0.00017,0.0,0.0
1.931,5737.276,0.00017,0.0,0.0
1.938,5744.114,0.00017,0.0,0.0
1.944,5744.602,0.00017,0.0,0.0
1.95,5725.583,0.00017,0.0,0.0
1.957,5748.673,0.00017,0.0,0.0
1.963,5744.056,0.00017,0.0,0.0
1.969,5773.026,0.00017,0.0,0.0
1.976,5751.699,0.00017,0.0,0.0
1.982,5771.209,0.00017,0.0,0.0
1.988,5744.724,0.00017,0.0,0.0
1.994,5755.087,0.00017,0.0,0.0
2.001,5747.029,0.00017,0.0,0.0
2.007,5759.057,0.00017,0.0,0.0
2.013,5736.572,0.00017,0.0,0.0
2.02,5735.455,0.00017,0.0,0.0
2.026,5749.961,0.00017,0.0,0.0
2.032,5769.303,0.00017,0.0,0.0
2.039,5774.76,0.00017,0.0,0.0
2.045,5796.828,0.00017,0.0,0.0
2.051,5756.932,0.00017,0.0,0.0
2.058,5761.507,0.00017,0.0,0.0
2.064,5776.802,0.00017,0.0,0.0
2.07,5780.077,0.00017,0.0,0.0
2.077,5803.312,0.00017,0.0,0.0
2.083,5768.146,0.00017,0.0,0.0
2.089,5809.628,0.00017,0.0,0.0
2.096,5807.74,0.00017,0.0,0.0
2.102,5798.021,0.00017,0.0,0.0
2.108,5825.827,0.00017,0.0,0.0
2.115,5796.923,0.00017,0.0,0.0
2.121,5818.659,0.00017,0.0,0.0
2.127,5818.732,0.00017,0.0,0.0
2.134,5843.997,0.00017,0.0,0.0
2.14,5840.0,0.00017,0.0,0.0
2.146,5869.928,0.00017,0.0,0.0
2.152,5872.695,0.00017,0.0,0.0
2.159,5870.262,0.00017,0.0,0.0
2.165,5906.552,0.00017,0.0,0.0
2.171,5920.57,0.00017,0.0,0.0
2.178,5917.015,0.00017,0.0,0.0
2.184,5920.841,0.00017,0.0,0.0
2.19,5941.279,0.00017,0.0,0.0
2.197,5946.692,0.00017,0.0,0.0
2.203,5935.577,0.00017,0.0,0.0
2.209,5978.475,0.00017,0.0,0.0
2.216,5973.258,0.00017,0.0,0.0
2.222,5995.713,0.00017,0.0,0.0
2.228,5994.153,0.00017,0.0,0.0
2.235,6025.75,0.00017,0.0,0.0
2.241,6006.444,0.00017,0.0,0.0
2.247,6013.796,0.00017,0.0,0.0
2.254,6058.17,0.00017,0.0,0.0
2.26,6064.235,0.00016,0.0,0.0
2.266,6057.703,0.00017,0.0,0.0
2.273,6101.353,0.00016,0.0,0.0
2.279,6136.885,0.00016,0.0,0.0
2.285,6153.499,0.00016,0.0,0.0
2.292,6139.063,0.00016,0.0,0.0
2.298,6189.201,0.00016,0.0,0.0
2.304,6154.297,0.00016,0.0,0.0
2.31,6183.534,0.00016,0.0,0.0
2.317,6213.838,0.00016,0.0,0.0
2.323,6221.456,0.00016,0.0,0.0
2.329,6246.418,0.00016,0.0,0.0
2.336,6267.378,0.00016,0.0,0.0
2.342,6287.892,0.00016,0.0,0.0
2.348,6310.484,0.00016,0.0,0.0
2.355,6343.694,0.00016,0.0,0.0
2.361,6346.817,0.00016,0.0,0.0
2.367,6409.867,0.00016,0.0,0.0
2.374,6390.809,0.00016,0.0,0.0
2.38,6426.842,0.00016,0.0,0.0
2.386,6460.305,0.00015,0.0,0.0
2.393,6541.794,0.00015,0.0,0.0
2.399,6584.03,0.00015,0.0,0.0
2.405,6648.948,0.00015,0.0,0.0
2.412,6738.572,0.00015,0.0,0.0
2.418,6848.305,0.00015,0.0,0.0
2.424,6938.345,0.00014,0.0,0.0
2.431,6997.761,0.00014,0.0,0.0
2.437,6989.493,0.00014,0.0,0.0
2.443,6886.97,0.00015,0.0,0.0
2.45,6847.535,0.00015,0.0,0.0
2.456,6796.414,0.00015,0.0,0.0
2.462,6770.809,0.00015,0.0,0.0
2.468,6735.89,0.00015,0.0,0.0
2.475,6758.266,0.00015,0.0,0.0
2.481,6774.77,0.00015,0.0,0.0
2.487,6789.111,0.00015,0.0,0.0
2.494,6801.223,0.00015,0.0,0.0
2.5,6819.464,0.00015,0.0,0.0
2.506,6849.36,0.00015,0.0,0.0
2.513,6879.473,0.00015,0.0,0.0
2.519,6883.398,0.00015,0.0,0.0
2.525,6919.513,0.00014,0.0,0.0
2.532,6920.535,0.00014,0.0,0.0
2.538,6968.276,0.00014,0.0,0.0
2.544,6992.626,0.00014,0.0,0.0
2.551,7039.561,0.00014,0.0,0.0
2.557,7051.513,0.00014,0.0,0.0
2.563,7068.422,0.00014,0.0,0.0
2.57,7071.858,0.00014,0.0,0.0
2.576,7083.762,0.00014,0.0,0.0
2.582,7136.866,0.00014,0.0,0.0
2.589,7145.116,0.00014,0.0,0.0
2.595,7185.001,0.00014,0.0,0.0
2.601,7220.403,0.00014,0.0,0.0
2.608,7261.384,0.00014,0.0,0.0
2.614,7269.47,0.00014,0.0,0.0
2.62,7280.823,0.00014,0.0,0.0
2.626,7273.815,0.00014,0.0,0.0
2.633,7315.899,0.00014,0.0,0.0
2.639,7329.064,0.00014,0.0,0.0
2.645,7358.062,0.00014,0.0,0.0
2.652,7382.024,0.00014,0.0,0.0
2.658,7416.623,0.00013,0.0,0.0
2.664,7438.916,0.00013,0.0,0.0
2.671,7464.385,0.00013,0.0,0.0
2.677,7517.107,0.00013,0.0,0.0
2.683,7508.862,0.00013,0.0,0.0
2.69,7550.821,0.00013,0.0,0.0
2.696,7557.083,0.00013,0.0,0.0
2.702,7623.373,0.00013,0.0,0.0
2.709,7613.406,0.00013,0.0,0.0
2.715,7647.106,0.00013,0.0,0.0
2.721,7681.072,0.00013,0.0,0.0
2.728,7725.548,0.00013,0.0,0.0
2.734,7710.648,0.00013,0.0,0.0
2.74,7735.642,0.00013,0.0,0.0
2.747,7815.581,0.00013,0.0,0.0
2.753,7806.969,0.00013,0.0,0.0
2.759,7824.438,0.00013,0.0,0.0
2.766,7864.016,0.00013,0.0,0.0
2.772,7870.102,0.00013,0.0,0.0
2.778,7901.945,0.00013,0.0,0.0
2.784,7929.418,0.00013,0.0,0.0
2.791,7940.086,0.00013,0.0,0.0
2.797,8003.507,0.00012,0.0,0.0
2.803,8002.612,0.00012,0.0,0.0
2.81,8048.301,0.00012,0.0,0.0
2.816,8063.278,0.00012,0.0,0.0
2.822,8080.551,0.00012,0.0,0.0
2.829,8097.54,0.00012,0.0,0.0
2.835,8152.245,0.00012,0.0,0.0
2.841,8148.627,0.00012,0.0,0.0
2.848,8192.085,0.00012,0.0,0.0
2.854,8188.195,0.00012,0.0,0.0
2.86,8243.606,0.00012,0.0,0.0
2.867,8227.225,0.00012,0.0,0.0
2.873,8258.047,0.00012,0.0,0.0
2.879,8311.153,0.00012,0.0,0.0
2.886,8347.177,0.00012,0.0,0.0
2.892,8354.485,0.00012,0.0,0.0
2.898,8380.781,0.00012,0.0,0.0
2.905,8397.99,0.00012,0.0,0.0
2.911,8424.652,0.00012,0.0,0.0
2.917,8445.024,0.00012,0.0,0.0
2.924,8452.368,0.00012,0.0,0.0
2.93,8484.397,0.00012,0.0,0.0
2.936,8497.557,0.00012,0.0,0.0
2.942,8516.947,0.00012,0.0,0.0
2.949,8534.05,0.00012,0.0,0.0
2.955,8570.677,0.00012,0.0,0.0
2.961,8570.711,0.00012,0.0,0.0
2.968,8601.484,0.00012,0.0,0.0
2.974,8604.844,0.00012,0.0,0.0
2.98,8620.875,0.00012,0.0,0.0
2.987,8619.274,0.00012,0.0,0.0
2.993,8643.853,0.00012,0.0,0.0
2.999,8655.418,0.00012,0.0,0.0
3.006,8681.381,0.00012,0.0,0.0
3.012,8667.851,0.00012,0.0,0.0
3.018,8700.033,0.00011,0.0,0.0
3.025,8688.918,0.00012,0.0,0.0
3.031,8693.734,0.00012,0.0,0.0
3.037,8727.793,0.00011,0.0,0.0
3.044,8727.323,0.00011,0.0,0.0
3.05,8740.609,0.00011,0.0,0.0
3.056,8711.812,0.00011,0.0,0.0
3.063,8737.962,0.00011,0.0,0.0
3.069,8731.2,0.00011,0.0,0.0
3.075,8741.796,0.00011,0.0,0.0
3.082,8735.264,0.00011,0.0,0.0
3.088,8762.505,0.00011,0.0,0.0
3.094,8788.591,0.00011,0.0,0.0
3.1,8775.475,0.00011,0.0,0.0
3.107,8762.377,0.00011,0.0,0.0
3.113,8770.188,0.00011,0.0,0.0
3.119,8778.634,0.00011,0.0,0.0
3.126,8782.62,0.00011,0.0,0.0
3.132,8759.582,0.00011,0.0,0.0
3.138,8741.752,0.00011,0.0,0.0
3.145,8740.972,0.00011,0.0,0.0
3.151,8723.386,0.00011,0.0,0.0
3.157,8750.719,0.00011,0.0,0.0
3.164,8716.323,0.00011,0.0,0.0
3.17,8741.799,0.00011,0.0,0.0
3.176,8688.393,0.00012,0.0,0.0
3.183,8709.331,0.00011,0.0,0.0
3.189,8696.827,0.00011,0.0,0.0
3.195,8659.286,0.00012,0.0,0.0
3.202,8645.866,0.00012,0.0,0.0
3.208,8666.865,0.00012,0.0,0.0
3.214,8655.42,0.00012,0.0,0.0
3.221,8626.899,0.00012,0.0,0.0
3.227,8614.578,0.00012,0.0,0.0
3.233,8614.075,0.00012,0.0,0.0
3.24,8610.514,0.00012,0.0,0.0
3.246,8596.0,0.00012,0.0,0.0
3.252,8585.132,0.00012,0.0,0.0
3.258,8516.403,0.00012,0.0,0.0
3.265,8532.306,0.00012,0.0,0.0
3.271,8547.133,0.00012,0.0,0.0
3.277,8520.04,0.00012,0.0,0.0
3.284,8543.377,0.00012,0.0,0.0
3.29,8477.908,0.00012,0.0,0.0
3.296,8470.689,0.00012,0.0,0.0
3.303,8442.839,0.00012,0.0,0.0
3.309,8441.492,0.00012,0.0,0.0
3.315,8409.817,0.00012,0.0,0.0
3.322,8402.982,0.00012,0.0,0.0
3.328,8389.45,0.00012,0.0,0.0
3.334,8360.952,0.00012,0.0,0.0
3.341,8367.554,0.00012,0.0,0.0
3.347,8337.155,0.00012,0.0,0.0
3.353,8361.53,0.00012,0.0,0.0
3.36,8309.113,0.00012,0.0,0.0
3.366,8293.342,0.00012,0.0,0.0
3.372,8271.441,0.00012,0.0,0.0
3.379,8244.207,0.00012,0.0,0.0
3.385,8262.877,0.00012,0.0,0.0
3.391,8203.49,0.00012,0.0,0.0
3.398,8185.444,0.00012,0.0,0.0
3.404,8225.553,0.00012,0.0,0.0
3.41,8203.317,0.00012,0.0,0.0
3.416,8193.77,0.00012,0.0,0.0
3.423,8230.439,0.00012,0.0,0.0
3.429,8228.994,0.00012,0.0,0.0
3.435,8254.829,0.00012,0.0,0.0
3.442,8207.259,0.00012,0.0,0.0
3.448,8144.911,0.00012,0.0,0.0
3.454,8149.285,0.00012,0.0,0.0
3.461,8097.665,0.00012,0.0,0.0
3.467,8095.046,0.00012,0.0,0.0
3.473,8089.012,0.00012,0.0,0.0
3.48,8059.035,0.00012,0.0,0.0
3.486,8031.076,0.00012,0.0,0.0
3.492,8034.292,0.00012,0.0,0.0
3.499,8001.62,0.00012,0.0,0.0
3.505,8023.722,0.00012,0.0,0.0
3.511,7995.922,0.00013,0.0,0.0
3.518,7997.662,0.00013,0.0,0.0
3.524,7975.034,0.00013,0.0,0.0
3.53,7974.828,0.00013,0.0,0.0
3.537,7964.213,0.00013,0.0,0.0
3.543,7959.599,0.00013,0.0,0.0
3.549,7940.183,0.00013,0.0,0.0
3.556,7960.909,0.00013,0.0,0.0
3.562,7917.896,0.00013,0.0,0.0
3.568,7924.461,0.00013,0.0,0.0
3.574,7908.791,0.00013,0.0,0.0
3.581,7915.149,0.00013,0.0,0.0
3.587,7907.521,0.00013,0.0,0.0
3.593,7915.852,0.00013,0.0,0.0
3.6,7901.571,0.00013,0.0,0.0
3.606,7893.249,0.00013,0.0,0.0
3.612,7885.991,0.00013,0.0,0.0
3.619,7905.441,0.00013,0.0,0.0
3.625,7903.578,0.00013,0.0,0.0
3.631,7876.692,0.00013,0.0,0.0
3.638,7884.284,0.00013,0.0,0.0
3.644,7920.584,0.00013,0.0,0.0
3.65,7892.348,0.00013,0.0,0.0
3.657,7905.285,0.00013,0.0,0.0
3.663,7903.993,0.00013,0.0,0.0
3.669,7915.617,0.00013,0.0,0.0
3.676,7932.367,0.00013,0.0,0.0
3.682,7960.649,0.00013,0.0,0.0
3.688,7950.062,0.00013,0.0,0.0
3.695,7948.731,0.00013,0.0,0.0
3.701,7978.343,0.00013,0.0,0.0
3.707,7994.406,0.00013,0.0,0.0
3.714,8018.233,0.00012,0.0,0.0
3.72,8052.323,0.00012,0.0,0.0
3.726,8077.984,0.00012,0.0,0.0
3.732,8084.706,0.00012,0.0,0.0
3.739,8130.299,0.00012,0.0,0.0
3.745,8152.682,0.00012,0.0,0.0
3.751,8173.291,0.00012,0.0,0.0
3.758,8231.006,0.00012,0.0,0.0
3.764,8298.142,0.00012,0.0,0.0
3.77,8300.436,0.00012,0.0,0.0
3.777,8356.15,0.00012,0.0,0.0
3.783,8416.845,0.00012,0.0,0.0
3.789,8465.051,0.00012,0.0,0.0
3.796,8509.756,0.00012,0.0,0.0
3.802,8549.443,0.00012,0.0,0.0
3.808,8612.627,0.00012,0.0,0.0
3.815,8666.777,0.00012,0.0,0.0
3.821,8725.494,0.00011,0.0,0.0
3.827,8787.552,0.00011,0.0,0.0
3.834,8840.866,0.00011,0.0,0.0
3.84,8895.472,0.00011,0.0,0.0
3.846,8946.008,0.00011,0.0,0.0
3.853,9001.931,0.00011,0.0,0.0
3.859,9005.158,0.00011,0.0,0.0
3.865,9074.957,0.00011,0.0,0.0
3.872,9087.65,0.00011,0.0,0.0
3.878,9135.36,0.00011,0.0,0.0
3.884,9118.86,0.00011,0.0,0.0
3.89,9158.869,0.00011,0.0,0.0
3.897,9152.078,0.00011,0.0,0.0
3.903,9142.642,0.00011,0.0,0.0
3.909,9135.953,0.00011,0.0,0.0
3.916,9153.543,0.00011,0.0,0.0
3.922,9130.134,0.00011,0.0,0.0
3.928,9133.848,0.00011,0.0,0.0
3.935,9099.684,0.00011,0.0,0.0
3.941,9076.47,0.00011,0.0,0.0
3.947,9058.434,0.00011,0.0,0.0
3.954,8992.18,0.00011,0.0,0.0
3.96,9001.969,0.00011,0.0,0.0
3.966,8940.484,0.00011,0.0,0.0
3.973,8935.583,0.00011,0.0,0.0
3.979,8891.776,0.00011,0.0,0.0
3.985,8821.237,0.00011,0.0,0.0
3.992,8772.525,0.00011,0.0,0.0
3.998,8726.849,0.00011,0.0,0.0
4.004,8690.925,0.00012,0.0,0.0
4.011,8656.611,0.00012,0.0,0.0
4.017,8612.18,0.00012,0.0,0.0
4.023,8581.502,0.00012,0.0,0.0
4.03,8547.604,0.00012,0.0,0.0
4.036,8489.565,0.00012,0.0,0.0
4.042,8490.924,0.00012,0.0,0.0
4.048,8474.333,0.00012,0.0,0.0
4.055,8421.524,0.00012,0.0,0.0
4.061,8399.315,0.00012,0.0,0.0
4.067,8451.499,0.00012,0.0,0.0
4.074,8355.433,0.00012,0.0,0.0
4.08,8333.9,0.00012,0.0,0.0
4.086,8304.584,0.00012,0.0,0.0
4.093,8357.778,0.00012,0.0,0.0
4.099,8303.418,0.00012,0.0,0.0
4.105,8304.475,0.00012,0.0,0.0
4.112,8296.806,0.00012,0.0,0.0
4.118,8288.983,0.00012,0.0,0.0
4.124,8282.264,0.00012,0.0,0.0
4.131,8291.271,0.00012,0.0,0.0
4.137,8301.561,0.00012,0.0,0.0
4.143,8283.105,0.00012,0.0,0.0
4.15,8303.703,0.00012,0.0,0.0
4.156,8268.371,0.00012,0.0,0.0
4.162,8335.429,0.00012,0.0,0.0
4.169,8282.739,0.00012,0.0,0.0
4.175,8349.948,0.00012,0.0,0.0
4.181,8334.6,0.00012,0.0,0.0
4.188,8351.924,0.00012,0.0,0.0
4.194,8379.357,0.00012,0.0,0.0
4.2,8376.8,0.00012,0.0,0.0
4.206,8398.192,0.00012,0.0,0.0
4.213,8435.571,0.00012,0.0,0.0
4.219,8406.63,0.00012,0.0,0.0
4.225,8452.233,0.00012,0.0,0.0
4.232,8470.846,0.00012,0.0,0.0
4.238,8446.933,0.00012,0.0,0.0
4.244,8519.391,0.00012,0.0,0.0
4.251,8553.487,0.00012,0.0,0.0
4.257,8533.928,0.00012,0.0,0.0
4.263,8613.24,0.00012,0.0,0.0
4.27,8574.0,0.00012,0.0,0.0
4.276,8694.23,0.00012,0.0,0.0
4.282,8676.511,0.00012,0.0,0.0
4.289,8656.969,0.00012,0.0,0.0
4.295,8802.072,0.00011,0.0,0.0
4.301,8718.014,0.00011,0.0,0.0
4.308,8789.536,0.00011,0.0,0.0
4.314,8850.372,0.00011,0.0,0.0
4.32,8825.728,0.00011,0.0,0.0
4.327,8929.638,0.00011,0.0,0.0
4.333,8926.626,0.00011,0.0,0.0
4.339,8973.696,0.00011,0.0,0.0
4.346,9130.374,0.00011,0.0,0.0
4.352,9041.142,0.00011,0.0,0.0
4.358,9190.386,0.00011,0.0,0.0
4.364,9251.629,0.00011,0.0,0.0
4.371,9127.323,0.00011,0.0,0.0
4.377,9505.728,0.00011,0.0,0.0
4.383,9339.609,0.00011,0.0,0.0
4.39,9534.643,0.0001,0.0,0.0
4.396,9625.463,0.0001,0.0,0.0
4.402,9566.503,0.0001,0.0,0.0
4.409,9675.197,0.0001,0.0,0.0
4.415,9844.788,0.0001,0.0,0.0
4.421,9843.978,0.0001,0.0,0.0
4.428,10171.91,0.0001,0.0,0.0
4.434,10122.002,0.0001,0.0,0.0
4.44,10160.933,0.0001,0.0,0.0
4.447,10471.086,0.0001,0.0,0.0
4.453,10386.977,0.0001,0.0,0.0
4.459,10894.573,0.00009,0.0,0.0
4.466,11012.683,0.00009,0.0,0.0
4.472,10998.694,0.00009,0.0,0.0
4.478,11697.508,0.00009,0.0,0.0
4.485,11567.136,0.00009,0.0,0.0
4.491,12120.695,0.00008,0.0,0.0
4.497,13389.745,0.00007,0.0,0.0
4.504,12980.982,0.00008,0.0,0.0
4.51,16388.892,0.00006,0.0,0.0
4.516,16329.521,0.00006,0.0,0.0
4.522,20341.369,0.00005,0.0,0.0
4.529,28224.163,0.00004,0.0,0.0
4.535,37299.267,0.00003,0.0,0.0
4.541,55477.295,0.00002,0.0,0.0
4.548,71416.098,0.00001,0.0,0.0
4.554,66778.147,0.00001,0.0,0.0
4.56,90406.239,0.00001,0.0,0.0
4.567,74295.484,0.00001,0.0,0.0
4.573,75245.145,0.00001,0.0,0.0
4.579,65585.56,0.00002,0.0,0.0
4.586,45183.18,0.00002,0.0,0.0
4.592,38990.359,0.00003,0.0,0.0
4.598,26875.205,0.00004,0.0,0.0
4.605,24371.091,0.00004,0.0,0.0
4.611,17252.276,0.00006,0.0,0.0
4.617,16397.573,0.00006,0.0,0.0
4.624,13422.895,0.00007,0.0,0.0
4.63,13619.993,0.00007,0.0,0.0
4.636,12154.427,0.00008,0.0,0.0
4.643,12092.715,0.00008,0.0,0.0
4.649,11625.783,0.00009,0.0,0.0
4.655,11147.135,0.00009,0.0,0.0
4.662,11300.245,0.00009,0.0,0.0
4.668,10808.835,0.00009,0.0,0.0
4.674,10495.85,0.0001,0.0,0.0
4.68,10694.298,0.00009,0.0,0.0
4.687,10191.692,0.0001,0.0,0.0
4.693,10251.506,0.0001,0.0,0.0
4.699,10157.738,0.0001,0.0,0.0
4.706,9844.472,0.0001,0.0,0.0
4.712,10042.946,0.0001,0.0,0.0
4.718,9727.736,0.0001,0.0,0.0
4.725,9500.839,0.00011,0.0,0.0
4.731,9763.916,0.0001,0.0,0.0
4.737,9376.029,0.00011,0.0,0.0
4.744,9436.103,0.00011,0.0,0.0
4.75,9320.072,0.00011,0.0,0.0
4.756,9230.039,0.00011,0.0,0.0
4.763,9202.38,0.00011,0.0,0.0
4.769,9046.151,0.00011,0.0,0.0
4.775,9001.779,0.00011,0.0,0.0
4.782,8991.312,0.00011,0.0,0.0
4.788,8849.868,0.00011,0.0,0.0
4.794,8781.682,0.00011,0.0,0.0
4.801,8787.149,0.00011,0.0,0.0
4.807,8616.699,0.00012,0.0,0.0
4.813,8708.673,0.00011,0.0,0.0
4.82,8583.903,0.00012,0.0,0.0
4.826,8586.153,0.00012,0.0,0.0
4.832,8607.456,0.00012,0.0,0.0
4.838,8562.6,0.00012,0.0,0.0
4.845,8590.041,0.00012,0.0,0.0
4.851,8721.949,0.00011,0.0,0.0
4.857,8707.178,0.00011,0.0,0.0
4.864,8703.003,0.00011,0.0,0.0
4.87,8610.387,0.00012,0.0,0.0
4.876,8416.569,0.00012,0.0,0.0
4.883,8364.168,0.00012,0.0,0.0
4.889,8142.762,0.00012,0.0,0.0
4.895,8080.876,0.00012,0.0,0.0
4.902,8016.874,0.00012,0.0,0.0
4.908,7926.086,0.00013,0.0,0.0
4.914,7912.211,0.00013,0.0,0.0
4.921,7827.987,0.00013,0.0,0.0
4.927,7790.268,0.00013,0.0,0.0
4.933,7829.657,0.00013,0.0,0.0
4.94,7681.498,0.00013,0.0,0.0
4.946,7810.528,0.00013,0.0,0.0
4.952,7720.972,0.00013,0.0,0.0
4.959,7566.098,0.00013,0.0,0.0
4.965,7688.977,0.00013,0.0,0.0
4.971,7504.26,0.00013,0.0,0.0
4.978,7471.911,0.00013,0.0,0.0
4.984,7487.76,0.00013,0.0,0.0
4.99,7388.61,0.00014,0.0,0.0
4.996,7371.935,0.00014,0.0,0.0
5.003,7369.944,0.00014,0.0,0.0
5.009,7290.057,0.00014,0.0,0.0
5.015,7346.934,0.00014,0.0,0.0
5.022,7260.052,0.00014,0.0,0.0
5.028,7262.234,0.00014,0.0,0.0
5.034,7257.003,0.00014,0.0,0.0
5.041,7161.652,0.00014,0.0,0.0
5.047,7147.033,0.00014,0.0,0.0
5.053,7160.627,0.00014,0.0,0.0
5.06,7124.619,0.00014,0.0,0.0
5.066,7109.44,0.00014,0.0,0.0
5.072,7046.365,0.00014,0.0,0.0
5.079,7032.05,0.00014,0.0,0.0
5.085,7035.109,0.00014,0.0,0.0
5.091,6949.885,0.00014,0.0,0.0
5.098,6967.787,0.00014,0.0,0.0
5.104,6925.824,0.00014,0.0,0.0
5.11,6903.29,0.00014,0.0,0.0
5.117,6900.818,0.00014,0.0,0.0
5.123,6846.089,0.00015,0.0,0.0
5.129,6821.369,0.00015,0.0,0.0
5.136,6810.324,0.00015,0.0,0.0
5.142,6773.855,0.00015,0.0,0.0
5.148,6775.242,0.00015,0.0,0.0
5.154,6784.94,0.00015,0.0,0.0
5.161,6726.685,0.00015,0.0,0.0
5.167,6746.024,0.00015,0.0,0.0
5.173,6676.681,0.00015,0.0,0.0
5.18,6673.359,0.00015,0.0,0.0
5.186,6684.203,0.00015,0.0,0.0
5.192,6638.136,0.00015,0.0,0.0
5.199,6636.312,0.00015,0.0,0.0
5.205,6628.079,0.00015,0.0,0.0
5.211,6598.245,0.00015,0.0,0.0
5.218,6591.119,0.00015,0.0,0.0
5.224,6560.523,0.00015,0.0,0.0
5.23,6542.226,0.00015,0.0,0.0
5.237,6528.088,0.00015,0.0,0.0
5.243,6503.571,0.00015,0.0,0.0
5.249,6524.042,0.00015,0.0,0.0
5.256,6491.686,0.00015,0.0,0.0
5.262,6473.715,0.00015,0.0,0.0
5.268,6463.963,0.00015,0.0,0.0
5.275,6435.282,0.00016,0.0,0.0
5.281,6413.83,0.00016,0.0,0.0
5.287,6422.955,0.00016,0.0,0.0
5.294,6355.31,0.00016,0.0,0.0
5.3,6397.973,0.00016,0.0,0.0
5.306,6359.567,0.00016,0.0,0.0
5.312,6333.402,0.00016,0.0,0.0
5.319,6336.131,0.00016,0.0,0.0
5.325,6326.172,0.00016,0.0,0.0
5.331,6299.717,0.00016,0.0,0.0
5.338,6319.016,0.00016,0.0,0.0
5.344,6278.922,0.00016,0.0,0.0
5.35,6289.214,0.00016,0.0,0.0
5.357,6266.76,0.00016,0.0,0.0
5.363,6247.562,0.00016,0.0,0.0
5.369,6273.278,0.00016,0.0,0.0
5.376,6241.274,0.00016,0.0,0.0
5.382,6249.785,0.00016,0.0,0.0
5.388,6224.206,0.00016,0.0,0.0
5.395,6200.134,0.00016,0.0,0.0
5.401,6201.67,0.00016,0.0,0.0
5.407,6196.842,0.00016,0.0,0.0
5.414,6162.842,0.00016,0.0,0.0
5.42,6185.666,0.00016,0.0,0.0
5.426,6153.154,0.00016,0.0,0.0
5.433,6149.232,0.00016,0.0,0.0
5.439,6162.751,0.00016,0.0,0.0
5.445,6121.44,0.00016,0.0,0.0
5.452,6138.369,0.00016,0.0,0.0
5.458,6089.633,0.00016,0.0,0.0
5.464,6117.491,0.00016,0.0,0.0
5.47,6128.11,0.00016,0.0,0.0
5.477,6107.105,0.00016,0.0,0.0
5.483,6087.681,0.00016,0.0,0.0
5.489,6074.464,0.00016,0.0,0.0
5.496,6098.816,0.00016,0.0,0.0
5.502,6062.227,0.00016,0.0,0.0
5.508,6068.653,0.00016,0.0,0.0
5.515,6042.951,0.00017,0.0,0.0
5.521,6067.395,0.00016,0.0,0.0
5.527,6039.503,0.00017,0.0,0.0
5.534,6068.421,0.00016,0.0,0.0
5.54,6035.431,0.00017,0.0,0.0
5.546,6045.253,0.00017,0.0,0.0
5.553,6052.189,0.00017,0.0,0.0
5.559,6043.241,0.00017,0.0,0.0
5.565,6025.304,0.00017,0.0,0.0
5.572,6040.386,0.00017,0.0,0.0
5.578,6019.022,0.00017,0.0,0.0
5.584,6051.566,0.00017,0.0,0.0
5.591,6040.634,0.00017,0.0,0.0
5.597,6028.428,0.00017,0.0,0.0
5.603,6048.788,0.00017,0.0,0.0
5.61,6024.642,0.00017,0.0,0.0
5.616,6026.066,0.00017,0.0,0.0
5.622,6065.696,0.00016,0.0,0.0
5.628,6028.666,0.00017,0.0,0.0
5.635,6060.894,0.00016,0.0,0.0
5.641,6026.786,0.00017,0.0,0.0
5.647,6026.718,0.00017,0.0,0.0
5.654,6032.492,0.00017,0.0,0.0
5.66,6038.302,0.00017,0.0,0.0
5.666,6035.274,0.00017,0.0,0.0
5.673,6044.859,0.00017,0.0,0.0
5.679,6010.587,0.00017,0.0,0.0
5.685,6027.236,0.00017,0.0,0.0
5.692,6048.95,0.00017,0.0,0.0
5.698,6030.918,0.00017,0.0,0.0
5.704,6054.543,0.00017,0.0,0.0
5.711,6054.574,0.00017,0.0,0.0
5.717,6050.884,0.00017,0.0,0.0
5.723,6089.452,0.00016,0.0,0.0
5.73,6061.287,0.00016,0.0,0.0
5.736,6095.64,0.00016,0.0,0.0
5.742,6096.115,0.00016,0.0,0.0
5.749,6108.102,0.00016,0.0,0.0
5.755,6142.073,0.00016,0.0,0.0
5.761,6147.398,0.00016,0.0,0.0
5.768,6143.524,0.00016,0.0,0.0
5.774,6199.813,0.00016,0.0,0.0
5.78,6211.231,0.00016,0.0,0.0
5.786,6215.331,0.00016,0.0,0.0
5.793,6226.136,0.00016,0.0,0.0
5.799,6253.674,0.00016,0.0,0.0
5.805,6293.159,0.00016,0.0,0.0
5.812,6274.503,0.00016,0.0,0.0
5.818,6328.372,0.00016,0.0,0.0
5.824,6334.525,0.00016,0.0,0.0
5.831,6363.475,0.00016,0.0,0.0
5.837,6402.563,0.00016,0.0,0.0
5.843,6459.027,0.00015,0.0,0.0
5.85,6550.14,0.00015,0.0,0.0
5.856,6705.887,0.00015,0.0,0.0
5.862,6905.722,0.00014,0.0,0.0
5.869,7196.096,0.00014,0.0,0.0
5.875,7481.351,0.00013,0.0,0.0
5.881,7649.046,0.00013,0.0,0.0
5.888,7660.562,0.00013,0.0,0.0
5.894,7435.228,0.00013,0.0,0.0
5.9,7180.984,0.00014,0.0,0.0
5.907,6821.225,0.00015,0.0,0.0
5.913,6531.271,0.00015,0.0,0.0
5.919,6338.22,0.00016,0.0,0.0
5.926,6170.302,0.00016,0.0,0.0
5.932,6095.868,0.00016,0.0,0.0
5.938,6052.772,0.00017,0.0,0.0
5.944,5987.95,0.00017,0.0,0.0
5.951,6001.297,0.00017,0.0,0.0
5.957,5946.632,0.00017,0.0,0.0
5.963,5911.021,0.00017,0.0,0.0
5.97,5898.958,0.00017,0.0,0.0
5.976,5879.471,0.00017,0.0,0.0
5.982,5880.628,0.00017,0.0,0.0
5.989,5868.611,0.00017,0.0,0.0
5.995,5844.772,0.00017,0.0,0.0
6.001,5840.561,0.00017,0.0,0.0
6.008,5826.592,0.00017,0.0,0.0
6.014,5828.955,0.00017,0.0,0.0
6.02,5829.743,0.00017,0.0,0.0
6.027,5812.171,0.00017,0.0,0.0
6.033,5815.609,0.00017,0.0,0.0
6.039,5825.215,0.00017,0.0,0.0
6.046,5801.128,0.00017,0.0,0.0
6.052,5813.374,0.00017,0.0,0.0
6.058,5782.08,0.00017,0.0,0.0
6.065,5785.363,0.00017,0.0,0.0
6.071,5809.969,0.00017,0.0,0.0
6.077,5794.59,0.00017,0.0,0.0
6.084,5762.075,0.00017,0.0,0.0
6.09,5797.205,0.00017,0.0,0.0
6.096,5753.135,0.00017,0.0,0.0
6.102,5786.178,0.00017,0.0,0.0
6.109,5776.961,0.00017,0.0,0.0
6.115,5797.35,0.00017,0.0,0.0
6.121,5782.838,0.00017,0.0,0.0
6.128,5767.968,0.00017,0.0,0.0
6.134,5774.67,0.00017,0.0,0.0
6.14,5774.356,0.00017,0.0,0.0
6.147,5804.441,0.00017,0.0,0.0
6.153,5745.359,0.00017,0.0,0.0
6.159,5808.622,0.00017,0.0,0.0
6.166,5767.303,0.00017,0.0,0.0
6.172,5789.017,0.00017,0.0,0.0
6.178,5773.597,0.00017,0.0,0.0
6.185,5791.352,0.00017,0.0,0.0
6.191,5781.841,0.00017,0.0,0.0
6.197,5797.253,0.00017,0.0,0.0
6.204,5771.694,0.00017,0.0,0.0
6.21,5816.075,0.00017,0.0,0.0
6.216,5763.939,0.00017,0.0,0.0
6.223,5811.284,0.00017,0.0,0.0
6.229,5813.363,0.00017,0.0,0.0
6.235,5833.242,0.00017,0.0,0.0
6.242,5824.188,0.00017,0.0,0.0
6.248,5824.483,0.00017,0.0,0.0
6.254,5813.971,0.00017,0.0,0.0
6.26,5829.302,0.00017,0.0,0.0
6.267,5870.25,0.00017,0.0,0.0
6.273,5846.154,0.00017,0.0,0.0
6.279,5877.577,0.00017,0.0,0.0
6.286,5878.013,0.00017,0.0,0.0
6.292,5907.608,0.00017,0.0,0.0
6.298,5883.787,0.00017,0.0,0.0
6.305,5937.701,0.00017,0.0,0.0
6.311,5928.462,0.00017,0.0,0.0
6.317,5925.487,0.00017,0.0,0.0
6.324,5966.374,0.00017,0.0,0.0
6.33,5971.636,0.00017,0.0,0.0
6.336,5952.539,0.00017,0.0,0.0
6.343,5986.431,0.00017,0.0,0.0
6.349,6048.871,0.00017,0.0,0.0
6.355,6025.773,0.00017,0.0,0.0
6.362,6066.854,0.00016,0.0,0.0
6.368,6112.14,0.00016,0.0,0.0
6.374,6114.331,0.00016,0.0,0.0
6.381,6179.728,0.00016,0.0,0.0
6.387,6241.137,0.00016,0.0,0.0
6.393,6243.183,0.00016,0.0,0.0
6.4,6494.746,0.00015,0.0,0.0
6.406,6552.709,0.00015,0.0,0.0
6.412,6995.324,0.00014,0.0,0.0
6.418,7507.528,0.00013,0.0,0.0
6.425,8440.443,0.00012,0.0,0.0
6.431,11700.657,0.00009,0.0,0.0
6.437,13247.786,0.00008,0.0,0.0
6.444,14825.368,0.00007,0.0,0.0
6.45,20505.589,0.00005,0.0,0.0
6.456,14043.921,0.00007,0.0,0.0
6.463,17052.242,0.00006,0.0,0.0
6.469,20427.599,0.00005,0.0,0.0
6.475,10019.603,0.0001,0.0,0.0
6.482,13015.678,0.00008,0.0,0.0
6.488,8336.692,0.00012,0.0,0.0
6.494,7157.974,0.00014,0.0,0.0
6.501,7429.586,0.00013,0.0,0.0
6.507,6685.849,0.00015,0.0,0.0
6.513,6626.14,0.00015,0.0,0.0
6.52,6585.352,0.00015,0.0,0.0
6.526,6526.385,0.00015,0.0,0.0
6.532,6597.096,0.00015,0.0,0.0
6.539,6682.785,0.00015,0.0,0.0
6.545,6782.234,0.00015,0.0,0.0
6.551,6999.46,0.00014,0.0,0.0
6.558,7363.457,0.00014,0.0,0.0
6.564,7974.722,0.00013,0.0,0.0
6.57,8825.033,0.00011,0.0,0.0
6.576,10651.85,0.00009,0.0,0.0
6.583,13770.119,0.00007,0.0,0.0
6.589,20206.617,0.00005,0.0,0.0
6.595,33339.347,0.00003,0.0,0.0
6.602,49831.132,0.00002,0.0,0.0
6.608,78318.969,0.00001,0.0,0.0
6.614,99108.254,0.00001,0.0,0.0
6.621,107169.446,0.00001,0.0,0.0
6.627,101266.702,0.00001,0.0,0.0
6.633,76239.768,0.00001,0.0,0.0
6.64,55459.503,0.00002,0.0,0.0
6.646,34467.196,0.00003,0.0,0.0
6.652,19976.869,0.00005,0.0,0.0
6.659,15513.521,0.00006,0.0,0.0
6.665,10789.638,0.00009,0.0,0.0
6.671,9116.729,0.00011,0.0,0.0
6.678,7968.727,0.00013,0.0,0.0
6.684,7269.041,0.00014,0.0,0.0
6.69,6851.725,0.00015,0.0,0.0
6.697,6589.948,0.00015,0.0,0.0
6.703,6349.795,0.00016,0.0,0.0
6.709,6235.45,0.00016,0.0,0.0
6.716,6136.222,0.00016,0.0,0.0
6.722,6048.127,0.00017,0.0,0.0
6.728,5997.423,0.00017,0.0,0.0
6.734,5934.379,0.00017,0.0,0.0
6.741,5935.22,0.00017,0.0,0.0
6.747,5888.798,0.00017,0.0,0.0
6.753,5849.664,0.00017,0.0,0.0
6.76,5841.24,0.00017,0.0,0.0
6.766,5824.424,0.00017,0.0,0.0
6.772,5811.188,0.00017,0.0,0.0
6.779,5814.811,0.00017,0.0,0.0
6.785,5813.089,0.00017,0.0,0.0
6.791,5760.384,0.00017,0.0,0.0
6.798,5811.643,0.00017,0.0,0.0
6.804,5790.308,0.00017,0.0,0.0
6.81,5809.69,0.00017,0.0,0.0
6.817,5830.284,0.00017,0.0,0.0
6.823,5798.26,0.00017,0.0,0.0
6.829,5764.79,0.00017,0.0,0.0
6.836,5775.962,0.00017,0.0,0.0
6.842,5719.818,0.00017,0.0,0.0
6.848,5718.525,0.00017,0.0,0.0
6.855,5698.091,0.00018,0.0,0.0
6.861,5669.306,0.00018,0.0,0.0
6.867,5691.082,0.00018,0.0,0.0
6.874,5635.895,0.00018,0.0,0.0
6.88,5652.346,0.00018,0.0,0.0
6.886,5633.313,0.00018,0.0,0.0
6.892,5637.356,0.00018,0.0,0.0
6.899,5645.481,0.00018,0.0,0.0
6.905,5622.04,0.00018,0.0,0.0
6.911,5593.375,0.00018,0.0,0.0
6.918,5613.167,0.00018,0.0,0.0
6.924,5590.136,0.00018,0.0,0.0
6.93,5602.907,0.00018,0.0,0.0
6.937,5625.984,0.00018,0.0,0.0
6.943,5604.559,0.00018,0.0,0.0
6.949,5608.578,0.00018,0.0,0.0
6.956,5582.758,0.00018,0.0,0.0
6.962,5610.025,0.00018,0.0,0.0
6.968,5616.576,0.00018,0.0,0.0
6.975,5608.665,0.00018,0.0,0.0
6.981,5609.489,0.00018,0.0,0.0
6.987,5621.12,0.00018,0.0,0.0
6.994,5605.542,0.00018,0.0,0.0
7.0,5631.239,0.00018,0.0,0.0
7.006,5605.226,0.00018,0.0,0.0
7.013,5610.043,0.00018,0.0,0.0
7.019,5627.75,0.00018,0.0,0.0
7.025,5627.908,0.00018,0.0,0.0
7.032,5618.301,0.00018,0.0,0.0
7.038,5641.409,0.00018,0.0,0.0
7.044,5641.361,0.00018,0.0,0.0
7.05,5651.925,0.00018,0.0,0.0
7.057,5661.246,0.00018,0.0,0.0
7.063,5688.429,0.00018,0.0,0.0
7.069,5691.484,0.00018,0.0,0.0
7.076,5689.435,0.00018,0.0,0.0
7.082,5711.561,0.00018,0.0,0.0
7.088,5703.15,0.00018,0.0,0.0
7.095,5737.356,0.00017,0.0,0.0
7.101,5754.91,0.00017,0.0,0.0
7.107,5749.126,0.00017,0.0,0.0
7.114,5758.739,0.00017,0.0,0.0
7.12,5779.682,0.00017,0.0,0.0
7.126,5781.672,0.00017,0.0,0.0
7.133,5796.785,0.00017,0.0,0.0
7.139,5829.374,0.00017,0.0,0.0
7.145,5827.341,0.00017,0.0,0.0
7.152,5853.001,0.00017,0.0,0.0
7.158,5850.386,0.00017,0.0,0.0
7.164,5864.883,0.00017,0.0,0.0
7.171,5863.291,0.00017,0.0,0.0
7.177,5867.967,0.00017,0.0,0.0
7.183,5881.768,0.00017,0.0,0.0
7.19,5890.461,0.00017,0.0,0.0
7.196,5899.963,0.00017,0.0,0.0
7.202,5907.842,0.00017,0.0,0.0
7.208,5888.02,0.00017,0.0,0.0
7.215,5886.193,0.00017,0.0,0.0
7.221,5887.161,0.00017,0.0,0.0
7.227,5893.803,0.00017,0.0,0.0
7.234,5880.706,0.00017,0.0,0.0
7.24,5866.149,0.00017,0.0,0.0
7.246,5885.674,0.00017,0.0,0.0
7.253,5873.764,0.00017,0.0,0.0
7.259,5864.604,0.00017,0.0,0.0
7.265,5866.941,0.00017,0.0,0.0
7.272,5849.512,0.00017,0.0,0.0
7.278,5876.683,0.00017,0.0,0.0
7.284,5865.183,0.00017,0.0,0.0
7.291,5856.611,0.00017,0.0,0.0
7.297,5864.105,0.00017,0.0,0.0
7.303,5870.887,0.00017,0.0,0.0
7.31,5862.849,0.00017,0.0,0.0
7.316,5805.008,0.00017,0.0,0.0
7.322,5749.245,0.00017,0.0,0.0
7.329,5728.944,0.00017,0.0,0.0
7.335,5715.622,0.00017,0.0,0.0
7.341,5670.445,0.00018,0.0,0.0
7.348,5665.063,0.00018,0.0,0.0
7.354,5641.891,0.00018,0.0,0.0
7.36,5651.344,0.00018,0.0,0.0
7.366,5643.707,0.00018,0.0,0.0
7.373,5635.227,0.00018,0.0,0.0
7.379,5611.297,0.00018,0.0,0.0
7.385,5624.496,0.00018,0.0,0.0
7.392,5606.048,0.00018,0.0,0.0
7.398,5605.132,0.00018,0.0,0.0
7.404,5587.777,0.00018,0.0,0.0
7.411,5589.82,0.00018,0.0,0.0
7.417,5597.451,0.00018,0.0,0.0
7.423,5603.358,0.00018,0.0,0.0
7.43,5592.76,0.00018,0.0,0.0
7.436,5608.33,0.00018,0.0,0.0
7.442,5593.729,0.00018,0.0,0.0
7.449,5603.603,0.00018,0.0,0.0
7.455,5609.578,0.00018,0.0,0.0
7.461,5607.347,0.00018,0.0,0.0
7.468,5620.483,0.00018,0.0,0.0
7.474,5610.107,0.00018,0.0,0.0
7.48,5638.366,0.00018,0.0,0.0
7.487,5620.317,0.00018,0.0,0.0
7.493,5639.608,0.00018,0.0,0.0
7.499,5656.91,0.00018,0.0,0.0
7.506,5639.633,0.00018,0.0,0.0
7.512,5658.683,0.00018,0.0,0.0
7.518,5694.837,0.00018,0.0,0.0
7.524,5697.685,0.00018,0.0,0.0
7.531,5717.443,0.00017,0.0,0.0
7.537,5757.409,0.00017,0.0,0.0
7.543,5788.65,0.00017,0.0,0.0
7.55,5823.723,0.00017,0.0,0.0
7.556,5858.066,0.00017,0.0,0.0
7.562,5942.895,0.00017,0.0,0.0
7.569,6059.653,0.00017,0.0,0.0
7.575,6156.368,0.00016,0.0,0.0
7.581,6391.723,0.00016,0.0,0.0
7.588,6636.043,0.00015,0.0,0.0
7.594,7091.546,0.00014,0.0,0.0
7.6,8061.574,0.00012,0.0,0.0
7.607,9163.451,0.00011,0.0,0.0
7.613,12825.29,0.00008,0.0,0.0
7.619,15722.46,0.00006,0.0,0.0
7.626,23096.857,0.00004,0.0,0.0
7.632,37555.257,0.00003,0.0,0.0
7.638,39118.165,0.00003,0.0,0.0
7.645,50557.986,0.00002,0.0,0.0
7.651,52539.991,0.00002,0.0,0.0
7.657,42555.69,0.00002,0.0,0.0
7.664,32532.624,0.00003,0.0,0.0
7.67,23477.724,0.00004,0.0,0.0
7.676,15338.712,0.00007,0.0,0.0
7.682,11586.601,0.00009,0.0,0.0
7.689,9359.092,0.00011,0.0,0.0
7.695,7896.558,0.00013,0.0,0.0
7.701,7310.196,0.00014,0.0,0.0
7.708,6787.806,0.00015,0.0,0.0
7.714,6601.186,0.00015,0.0,0.0
7.72,6399.729,0.00016,0.0,0.0
7.727,6325.602,0.00016,0.0,0.0
7.733,6278.502,0.00016,0.0,0.0
7.739,6202.394,0.00016,0.0,0.0
7.746,6219.932,0.00016,0.0,0.0
7.752,6179.307,0.00016,0.0,0.0
7.758,6174.502,0.00016,0.0,0.0
7.765,6218.678,0.00016,0.0,0.0
7.771,6209.662,0.00016,0.0,0.0
7.777,6218.881,0.00016,0.0,0.0
7.784,6251.379,0.00016,0.0,0.0
7.79,6263.623,0.00016,0.0,0.0
7.796,6285.267,0.00016,0.0,0.0
7.803,6373.962,0.00016,0.0,0.0
7.809,6365.433,0.00016,0.0,0.0
7.815,6501.696,0.00015,0.0,0.0
7.822,6458.645,0.00015,0.0,0.0
7.828,6684.605,0.00015,0.0,0.0
7.834,6765.902,0.00015,0.0,0.0
7.84,6825.057,0.00015,0.0,0.0
7.847,7325.453,0.00014,0.0,0.0
7.853,7264.001,0.00014,0.0,0.0
7.859,8861.597,0.00011,0.0,0.0
7.866,7934.705,0.00013,0.0,0.0
7.872,12229.502,0.00008,0.0,0.0
7.878,9439.25,0.00011,0.0,0.0
7.885,15600.921,0.00006,0.0,0.0
7.891,14466.363,0.00007,0.0,0.0
7.897,23444.345,0.00004,0.0,0.0
7.904,22210.745,0.00005,0.0,0.0
7.91,28679.051,0.00003,0.0,0.0
7.916,23037.451,0.00004,0.0,0.0
7.923,24530.019,0.00004,0.0,0.0
7.929,16637.135,0.00006,0.0,0.0
7.935,14750.276,0.00007,0.0,0.0
7.942,12442.644,0.00008,0.0,0.0
7.948,10454.24,0.0001,0.0,0.0
7.954,8979.996,0.00011,0.0,0.0
7.961,7905.063,0.00013,0.0,0.0
7.967,7740.565,0.00013,0.0,0.0
7.973,7034.96,0.00014,0.0,0.0
7.98,7125.966,0.00014,0.0,0.0
7.986,6783.344,0.00015,0.0,0.0
7.992,6832.352,0.00015,0.0,0.0
7.998,6732.031,0.00015,0.0,0.0
8.005,6678.06,0.00015,0.0,0.0
8.011,6614.194,0.00015,0.0,0.0
8.017,6635.21,0.00015,0.0,0.0
8.024,6573.523,0.00015,0.0,0.0
8.03,6601.066,0.00015,0.0,0.0
8.036,6593.772,0.00015,0.0,0.0
8.043,6576.44,0.00015,0.0,0.0
8.049,6568.038,0.00015,0.0,0.0
8.055,6557.167,0.00015,0.0,0.0
8.062,6601.074,0.00015,0.0,0.0
8.068,6584.164,0.00015,0.0,0.0
8.074,6602.181,0.00015,0.0,0.0
8.081,6597.32,0.00015,0.0,0.0
8.087,6607.905,0.00015,0.0,0.0
8.093,6613.405,0.00015,0.0,0.0
8.1,6634.182,0.00015,0.0,0.0
8.106,6647.665,0.00015,0.0,0.0
8.112,6686.123,0.00015,0.0,0.0
8.119,6720.386,0.00015,0.0,0.0
8.125,6768.325,0.00015,0.0,0.0
8.131,6832.827,0.00015,0.0,0.0
8.138,6868.702,0.00015,0.0,0.0
8.144,6916.069,0.00014,0.0,0.0
8.15,6947.298,0.00014,0.0,0.0
8.156,6889.351,0.00015,0.0,0.0
8.163,6856.604,0.00015,0.0,0.0
8.169,6763.194,0.00015,0.0,0.0
8.175,6715.19,0.00015,0.0,0.0
8.182,6655.247,0.00015,0.0,0.0
8.188,6603.63,0.00015,0.0,0.0
8.194,6586.062,0.00015,0.0,0.0
8.201,6563.178,0.00015,0.0,0.0
8.207,6551.02,0.00015,0.0,0.0
8.213,6526.925,0.00015,0.0,0.0
8.22,6484.994,0.00015,0.0,0.0
8.226,6483.904,0.00015,0.0,0.0
8.232,6470.659,0.00015,0.0,0.0
8.239,6447.069,0.00016,0.0,0.0
8.245,6429.279,0.00016,0.0,0.0
8.251,6398.191,0.00016,0.0,0.0
8.258,6397.189,0.00016,0.0,0.0
8.264,6363.16,0.00016,0.0,0.0
8.27,6339.324,0.00016,0.0,0.0
8.277,6344.065,0.00016,0.0,0.0
8.283,6327.786,0.00016,0.0,0.0
8.289,6299.757,0.00016,0.0,0.0
8.296,6292.427,0.00016,0.0,0.0
8.302,6280.527,0.00016,0.0,0.0
8.308,6269.184,0.00016,0.0,0.0
8.314,6256.142,0.00016,0.0,0.0
8.321,6245.905,0.00016,0.0,0.0
8.327,6229.329,0.00016,0.0,0.0
8.333,6237.153,0.00016,0.0,0.0
8.34,6237.667,0.00016,0.0,0.0
8.346,6229.151,0.00016,0.0,0.0
8.352,6259.368,0.00016,0.0,0.0
8.359,6300.025,0.00016,0.0,0.0
8.365,6343.5,0.00016,0.0,0.0
8.371,6360.096,0.00016,0.0,0.0
8.378,6381.837,0.00016,0.0,0.0
8.384,6360.42,0.00016,0.0,0.0
8.39,6346.016,0.00016,0.0,0.0
8.397,6291.828,0.00016,0.0,0.0
8.403,6231.805,0.00016,0.0,0.0
8.409,6172.843,0.00016,0.0,0.0
8.416,6133.402,0.00016,0.0,0.0
8.422,6108.536,0.00016,0.0,0.0
8.428,6075.945,0.00016,0.0,0.0
8.435,6047.539,0.00017,0.0,0.0
8.441,6018.35,0.00017,0.0,0.0
8.447,6017.062,0.00017,0.0,0.0
8.454,6003.034,0.00017,0.0,0.0
8.46,5991.5,0.00017,0.0,0.0
8.466,5985.452,0.00017,0.0,0.0
8.472,5987.258,0.00017,0.0,0.0
8.479,5960.923,0.00017,0.0,0.0
8.485,5987.549,0.00017,0.0,0.0
8.491,5962.889,0.00017,0.0,0.0
8.498,5984.04,0.00017,0.0,0.0
8.504,5976.941,0.00017,0.0,0.0
8.51,5980.888,0.00017,0.0,0.0
8.517,5983.65,0.00017,0.0,0.0
8.523,5948.318,0.00017,0.0,0.0
8.529,5953.377,0.00017,0.0,0.0
8.536,5939.248,0.00017,0.0,0.0
8.542,5934.036,0.00017,0.0,0.0
8.548,5925.485,0.00017,0.0,0.0
8.555,5920.231,0.00017,0.0,0.0
8.561,5926.418,0.00017,0.0,0.0
8.567,5910.774,0.00017,0.0,0.0
8.574,5906.589,0.00017,0.0,0.0
8.58,5887.687,0.00017,0.0,0.0
8.586,5874.442,0.00017,0.0,0.0
8.593,5895.595,0.00017,0.0,0.0
8.599,5867.084,0.00017,0.0,0.0
8.605,5873.26,0.00017,0.0,0.0
8.612,5867.053,0.00017,0.0,0.0
8.618,5872.189,0.00017,0.0,0.0
8.624,5867.386,0.00017,0.0,0.0
8.63,5867.644,0.00017,0.0,0.0
8.637,5875.291,0.00017,0.0,0.0
8.643,5861.762,0.00017,0.0,0.0
8.649,5859.873,0.00017,0.0,0.0
8.656,5865.241,0.00017,0.0,0.0
8.662,5864.474,0.00017,0.0,0.0
8.668,5860.592,0.00017,0.0,0.0
8.675,5862.041,0.00017,0.0,0.0
8.681,5862.32,0.00017,0.0,0.0
8.687,5846.203,0.00017,0.0,0.0
8.694,5852.083,0.00017,0.0,0.0
8.7,5850.445,0.00017,0.0,0.0
8.706,5834.56,0.00017,0.0,0.0
8.713,5838.772,0.00017,0.0,0.0
8.719,5834.988,0.00017,0.0,0.0
8.725,5850.293,0.00017,0.0,0.0
8.732,5846.966,0.00017,0.0,0.0
8.738,5833.491,0.00017,0.0,0.0
8.744,5844.431,0.00017,0.0,0.0
8.751,5821.128,0.00017,0.0,0.0
8.757,5828.538,0.00017,0.0,0.0
8.763,5830.795,0.00017,0.0,0.0
8.77,5835.473,0.00017,0.0,0.0
8.776,5836.788,0.00017,0.0,0.0
8.782,5841.749,0.00017,0.0,0.0
8.788,5821.88,0.00017,0.0,0.0
8.795,5823.09,0.00017,0.0,0.0
8.801,5828.424,0.00017,0.0,0.0
8.807,5833.243,0.00017,0.0,0.0
8.814,5834.545,0.00017,0.0,0.0
8.82,5833.987,0.00017,0.0,0.0
8.826,5836.811,0.00017,0.0,0.0
8.833,5822.482,0.00017,0.0,0.0
8.839,5837.179,0.00017,0.0,0.0
8.845,5831.599,0.00017,0.0,0.0
8.852,5823.175,0.00017,0.0,0.0
8.858,5846.784,0.00017,0.0,0.0
8.864,5836.843,0.00017,0.0,0.0
8.871,5845.343,0.00017,0.0,0.0
8.877,5845.068,0.00017,0.0,0.0
8.883,5837.14,0.00017,0.0,0.0
8.89,5861.968,0.00017,0.0,0.0
8.896,5843.712,0.00017,0.0,0.0
8.902,5836.957,0.00017,0.0,0.0
8.909,5857.14,0.00017,0.0,0.0
8.915,5841.873,0.00017,0.0,0.0
8.921,5864.306,0.00017,0.0,0.0
8.928,5850.432,0.00017,0.0,0.0
8.934,5855.459,0.00017,0.0,0.0
8.94,5883.69,0.00017,0.0,0.0
8.946,5861.409,0.00017,0.0,0.0
8.953,5879.296,0.00017,0.0,0.0
8.959,5881.134,0.00017,0.0,0.0
8.965,5855.83,0.00017,0.0,0.0
8.972,5884.004,0.00017,0.0,0.0
8.978,5893.259,0.00017,0.0,0.0
8.984,5874.101,0.00017,0.0,0.0
8.991,5916.551,0.00017,0.0,0.0
8.997,5900.319,0.00017,0.0,0.0
9.003,5917.275,0.00017,0.0,0.0
9.01,5909.351,0.00017,0.0,0.0
9.016,5896.632,0.00017,0.0,0.0
9.022,5958.24,0.00017,0.0,0.0
9.029,5924.991,0.00017,0.0,0.0
9.035,5952.6,0.00017,0.0,0.0
9.041,5965.127,0.00017,0.0,0.0
9.048,5953.089,0.00017,0.0,0.0
9.054,6005.096,0.00017,0.0,0.0
9.06,5986.832,0.00017,0.0,0.0
9.067,5981.653,0.00017,0.0,0.0
9.073,6064.844,0.00016,0.0,0.0
9.079,6048.234,0.00017,0.0,0.0
9.086,6093.732,0.00016,0.0,0.0
9.092,6162.579,0.00016,0.0,0.0
9.098,6211.751,0.00016,0.0,0.0
9.104,6426.726,0.00016,0.0,0.0
9.111,6716.943,0.00015,0.0,0.0
9.117,7307.872,0.00014,0.0,0.0
9.123,8123.682,0.00012,0.0,0.0
9.13,8985.671,0.00011,0.0,0.0
9.136,9650.973,0.0001,0.0,0.0
9.142,9484.294,0.00011,0.0,0.0
9.149,12847.647,0.00008,0.0,0.0
9.155,8026.708,0.00012,0.0,0.0
9.161,7585.149,0.00013,0.0,0.0
9.168,8552.787,0.00012,0.0,0.0
9.174,6452.689,0.00015,0.0,0.0
9.18,6522.447,0.00015,0.0,0.0
9.187,6365.956,0.00016,0.0,0.0
9.193,6194.572,0.00016,0.0,0.0
9.199,6214.606,0.00016,0.0,0.0
9.206,6153.675,0.00016,0.0,0.0
9.212,6116.579,0.00016,0.0,0.0
9.218,6144.285,0.00016,0.0,0.0
9.225,6079.285,0.00016,0.0,0.0
9.231,6072.811,0.00016,0.0,0.0
9.237,6076.33,0.00016,0.0,0.0
9.244,6067.174,0.00016,0.0,0.0
9.25,6072.64,0.00016,0.0,0.0
9.256,6047.889,0.00017,0.0,0.0
9.262,6020.249,0.00017,0.0,0.0
9.269,6064.76,0.00016,0.0,0.0
9.275,6009.689,0.00017,0.0,0.0
9.281,6012.844,0.00017,0.0,0.0
9.288,5999.253,0.00017,0.0,0.0
9.294,5982.82,0.00017,0.0,0.0
9.3,5979.398,0.00017,0.0,0.0
9.307,5958.81,0.00017,0.0,0.0
9.313,5926.59,0.00017,0.0,0.0
9.319,5941.963,0.00017,0.0,0.0
9.326,5902.365,0.00017,0.0,0.0
9.332,5898.245,0.00017,0.0,0.0
9.338,5880.723,0.00017,0.0,0.0
9.345,5851.791,0.00017,0.0,0.0
9.351,5862.306,0.00017,0.0,0.0
9.357,5814.412,0.00017,0.0,0.0
9.364,5809.235,0.00017,0.0,0.0
9.37,5784.868,0.00017,0.0,0.0
9.376,5761.441,0.00017,0.0,0.0
9.383,5751.952,0.00017,0.0,0.0
9.389,5719.881,0.00017,0.0,0.0
9.395,5703.042,0.00018,0.0,0.0
9.402,5701.151,0.00018,0.0,0.0
9.408,5690.566,0.00018,0.0,0.0
9.414,5661.056,0.00018,0.0,0.0
9.42,5649.604,0.00018,0.0,0.0
9.427,5627.347,0.00018,0.0,0.0
9.433,5644.325,0.00018,0.0,0.0
9.439,5610.89,0.00018,0.0,0.0
9.446,5608.753,0.00018,0.0,0.0
9.452,5602.014,0.00018,0.0,0.0
9.458,5585.817,0.00018,0.0,0.0
9.465,5573.353,0.00018,0.0,0.0
9.471,5574.802,0.00018,0.0,0.0
9.477,5579.567,0.00018,0.0,0.0
9.484,5587.134,0.00018,0.0,0.0
9.49,5587.526,0.00018,0.0,0.0
9.496,5587.429,0.00018,0.0,0.0
9.503,5560.788,0.00018,0.0,0.0
9.509,5539.318,0.00018,0.0,0.0
9.515,5512.313,0.00018,0.0,0.0
9.522,5495.848,0.00018,0.0,0.0
9.528,5456.789,0.00018,0.0,0.0
9.534,5433.282,0.00018,0.0,0.0
9.541,5427.457,0.00018,0.0,0.0
9.547,5412.6,0.00018,0.0,0.0
9.553,5397.663,0.00019,0.0,0.0
9.56,5382.332,0.00019,0.0,0.0
9.566,5370.807,0.00019,0.0,0.0
9.572,5382.275,0.00019,0.0,0.0
9.578,5354.795,0.00019,0.0,0.0
9.585,5344.708,0.00019,0.0,0.0
9.591,5342.38,0.00019,0.0,0.0
9.597,5320.095,0.00019,0.0,0.0
9.604,5319.224,0.00019,0.0,0.0
9.61,5308.084,0.00019,0.0,0.0
9.616,5314.233,0.00019,0.0,0.0
9.623,5298.935,0.00019,0.0,0.0
9.629,5280.958,0.00019,0.0,0.0
9.635,5304.294,0.00019,0.0,0.0
9.642,5271.15,0.00019,0.0,0.0
9.648,5259.947,0.00019,0.0,0.0
9.654,5286.424,0.00019,0.0,0.0
9.661,5256.614,0.00019,0.0,0.0
9.667,5265.635,0.00019,0.0,0.0
9.673,5274.644,0.00019,0.0,0.0
9.68,5263.26,0.00019,0.0,0.0
9.686,5276.209,0.00019,0.0,0.0
9.692,5238.879,0.00019,0.0,0.0
9.699,5236.508,0.00019,0.0,0.0
9.705,5260.094,0.00019,0.0,0.0
9.711,5225.787,0.00019,0.0,0.0
9.718,5237.562,0.00019,0.0,0.0
9.724,5218.17,0.00019,0.0,0.0
9.73,5237.323,0.00019,0.0,0.0
9.736,5234.918,0.00019,0.0,0.0
9.743,5230.247,0.00019,0.0,0.0
9.749,5229.975,0.00019,0.0,0.0
9.755,5220.871,0.00019,0.0,0.0
9.762,5221.325,0.00019,0.0,0.0
9.768,5219.421,0.00019,0.0,0.0
9.774,5216.079,0.00019,0.0,0.0
9.781,5206.855,0.00019,0.0,0.0
9.787,5219.634,0.00019,0.0,0.0
9.793,5204.019,0.00019,0.0,0.0
9.8,5228.166,0.00019,0.0,0.0
9.806,5206.572,0.00019,0.0,0.0
9.812,5197.56,0.00019,0.0,0.0
9.819,5225.674,0.00019,0.0,0.0
9.825,5193.137,0.00019,0.0,0.0
9.831,5184.797,0.00019,0.0,0.0
9.838,5212.867,0.00019,0.0,0.0
9.844,5218.654,0.00019,0.0,0.0
9.85,5204.452,0.00019,0.0,0.0
9.857,5201.183,0.00019,0.0,0.0
9.863,5194.316,0.00019,0.0,0.0
9.869,5207.998,0.00019,0.0,0.0
9.876,5193.8,0.00019,0.0,0.0
9.882,5222.578,0.00019,0.0,0.0
9.888,5199.969,0.00019,0.0,0.0
9.894,5201.161,0.00019,0.0,0.0
9.901,5221.732,0.00019,0.0,0.0
9.907,5208.358,0.00019,0.0,0.0
9.913,5205.513,0.00019,0.0,0.0
9.92,5216.359,0.00019,0.0,0.0
9.926,5214.838,0.00019,0.0,0.0
9.932,5252.229,0.00019,0.0,0.0
9.939,5221.901,0.00019,0.0,0.0
9.945,5216.441,0.00019,0.0,0.0
9.951,5260.084,0.00019,0.0,0.0
9.958,5230.878,0.00019,0.0,0.0
9.964,5249.832,0.00019,0.0,0.0
9.97,5242.658,0.00019,0.0,0.0
9.977,5258.152,0.00019,0.0,0.0
9.983,5293.793,0.00019,0.0,0.0
9.989,5269.2,0.00019,0.0,0.0
9.996,5285.117,0.00019,0.0,0.0
10.002,5303.459,0.00019,0.0,0.0
10.008,5268.748,0.00019,0.0,0.0
10.015,5307.14,0.00019,0.0,0.0
10.021,5301.593,0.00019,0.0,0.0
10.027,5322.16,0.00019,0.0,0.0
10.034,5328.208,0.00019,0.0,0.0
10.04,5338.662,0.00019,0.0,0.0
10.046,5370.597,0.00019,0.0,0.0
10.052,5357.079,0.00019,0.0,0.0
10.059,5347.225,0.00019,0.0,0.0
10.065,5395.67,0.00019,0.0,0.0
10.071,5407.017,0.00018,0.0,0.0
10.078,5403.862,0.00019,0.0,0.0
10.084,5455.445,0.00018,0.0,0.0
10.09,5419.628,0.00018,0.0,0.0
10.097,5483.483,0.00018,0.0,0.0
10.103,5436.535,0.00018,0.0,0.0
10.109,5503.726,0.00018,0.0,0.0
10.116,5522.37,0.00018,0.0,0.0
10.122,5517.336,0.00018,0.0,0.0
10.128,5564.57,0.00018,0.0,0.0
10.135,5568.63,0.00018,0.0,0.0
10.141,5579.849,0.00018,0.0,0.0
10.147,5623.313,0.00018,0.0,0.0
10.154,5689.192,0.00018,0.0,0.0
10.16,5698.034,0.00018,0.0,0.0
10.166,5954.558,0.00017,0.0,0.0
10.173,5886.277,0.00017,0.0,0.0
10.179,6213.659,0.00016,0.0,0.0
10.185,7356.291,0.00014,0.0,0.0
10.192,7351.69,0.00014,0.0,0.0
10.198,9640.584,0.0001,0.0,0.0
10.204,13108.872,0.00008,0.0,0.0
10.21,12298.523,0.00008,0.0,0.0
10.217,17014.77,0.00006,0.0,0.0
10.223,12785.009,0.00008,0.0,0.0
10.229,10174.649,0.0001,0.0,0.0
10.236,13730.727,0.00007,0.0,0.0
10.242,7444.404,0.00013,0.0,0.0
10.248,9169.587,0.00011,0.0,0.0
10.255,6199.67,0.00016,0.0,0.0
10.261,5977.883,0.00017,0.0,0.0
10.267,6191.464,0.00016,0.0,0.0
10.274,5575.477,0.00018,0.0,0.0
10.28,5705.277,0.00018,0.0,0.0
10.286,5516.72,0.00018,0.0,0.0
10.293,5510.47,0.00018,0.0,0.0
10.299,5484.483,0.00018,0.0,0.0
10.305,5409.403,0.00018,0.0,0.0
10.312,5428.706,0.00018,0.0,0.0
10.318,5379.971,0.00019,0.0,0.0
10.324,5364.355,0.00019,0.0,0.0
10.331,5326.567,0.00019,0.0,0.0
10.337,5289.794,0.00019,0.0,0.0
10.343,5333.616,0.00019,0.0,0.0
10.35,5278.459,0.00019,0.0,0.0
10.356,5275.049,0.00019,0.0,0.0
10.362,5261.589,0.00019,0.0,0.0
10.368,5205.865,0.00019,0.0,0.0
10.375,5275.229,0.00019,0.0,0.0
10.381,5200.125,0.00019,0.0,0.0
10.387,5177.603,0.00019,0.0,0.0
10.394,5208.06,0.00019,0.0,0.0
10.4,5144.084,0.00019,0.0,0.0
10.406,5190.015,0.00019,0.0,0.0
10.413,5142.857,0.00019,0.0,0.0
10.419,5102.669,0.0002,0.0,0.0
10.425,5136.878,0.00019,0.0,0.0
10.432,5099.716,0.0002,0.0,0.0
10.438,5114.815,0.0002,0.0,0.0
10.444,5119.605,0.0002,0.0,0.0
10.451,5055.828,0.0002,0.0,0.0
10.457,5125.183,0.0002,0.0,0.0
10.463,5073.161,0.0002,0.0,0.0
10.47,5070.941,0.0002,0.0,0.0
10.476,5064.461,0.0002,0.0,0.0
10.482,5028.397,0.0002,0.0,0.0
10.489,5067.939,0.0002,0.0,0.0
10.495,5042.175,0.0002,0.0,0.0
10.501,5034.751,0.0002,0.0,0.0
10.508,5059.516,0.0002,0.0,0.0
10.514,5027.522,0.0002,0.0,0.0
10.52,5048.113,0.0002,0.0,0.0
10.526,5030.062,0.0002,0.0,0.0
10.533,5003.887,0.0002,0.0,0.0
10.539,5031.848,0.0002,0.0,0.0
10.545,4999.581,0.0002,0.0,0.0
10.552,5001.89,0.0002,0.0,0.0
10.558,5002.609,0.0002,0.0,0.0
10.564,4976.595,0.0002,0.0,0.0
10.571,5024.196,0.0002,0.0,0.0
10.577,4979.027,0.0002,0.0,0.0
10.583,4990.286,0.0002,0.0,0.0
10.59,4989.988,0.0002,0.0,0.0
10.596,4983.198,0.0002,0.0,0.0
10.602,4980.218,0.0002,0.0,0.0
10.609,4963.578,0.0002,0.0,0.0
10.615,4961.815,0.0002,0.0,0.0
10.621,4992.764,0.0002,0.0,0.0
10.628,4976.738,0.0002,0.0,0.0
10.634,4980.874,0.0002,0.0,0.0
10.64,4980.984,0.0002,0.0,0.0
10.647,4962.031,0.0002,0.0,0.0
10.653,4988.975,0.0002,0.0,0.0
10.659,4959.406,0.0002,0.0,0.0
10.666,4978.931,0.0002,0.0,0.0
10.672,4984.744,0.0002,0.0,0.0
10.678,4968.2,0.0002,0.0,0.0
10.684,5000.878,0.0002,0.0,0.0
10.691,4994.643,0.0002,0.0,0.0
10.697,4997.602,0.0002,0.0,0.0
10.703,5018.143,0.0002,0.0,0.0
10.71,5005.335,0.0002,0.0,0.0
10.716,5039.129,0.0002,0.0,0.0
10.722,5043.322,0.0002,0.0,0.0
10.729,5070.942,0.0002,0.0,0.0
10.735,5111.906,0.0002,0.0,0.0
10.741,5138.849,0.00019,0.0,0.0
10.748,5198.117,0.00019,0.0,0.0
10.754,5268.856,0.00019,0.0,0.0
10.76,5364.848,0.00019,0.0,0.0
10.767,5562.481,0.00018,0.0,0.0
10.773,5787.283,0.00017,0.0,0.0
10.779,6353.814,0.00016,0.0,0.0
10.786,7128.825,0.00014,0.0,0.0
10.792,8789.953,0.00011,0.0,0.0
10.798,11949.517,0.00008,0.0,0.0
10.805,15418.321,0.00006,0.0,0.0
10.811,24355.962,0.00004,0.0,0.0
10.817,25652.402,0.00004,0.0,0.0
10.824,34857.196,0.00003,0.0,0.0
10.83,29718.953,0.00003,0.0,0.0
10.836,27411.716,0.00004,0.0,0.0
10.842,21767.679,0.00005,0.0,0.0
10.849,15807.381,0.00006,0.0,0.0
10.855,10879.768,0.00009,0.0,0.0
10.861,8715.657,0.00011,0.0,0.0
10.868,7118.011,0.00014,0.0,0.0
10.874,6211.973,0.00016,0.0,0.0
10.88,5860.867,0.00017,0.0,0.0
10.887,5536.11,0.00018,0.0,0.0
10.893,5404.008,0.00019,0.0,0.0
10.899,5301.582,0.00019,0.0,0.0
10.906,5233.24,0.00019,0.0,0.0
10.912,5182.552,0.00019,0.0,0.0
10.918,5158.991,0.00019,0.0,0.0
10.925,5116.53,0.0002,0.0,0.0
10.931,5124.045,0.0002,0.0,0.0
10.937,5094.604,0.0002,0.0,0.0
10.944,5079.948,0.0002,0.0,0.0
10.95,5073.255,0.0002,0.0,0.0
10.956,5040.893,0.0002,0.0,0.0
10.963,5047.241,0.0002,0.0,0.0
10.969,5010.825,0.0002,0.0,0.0
10.975,4995.561,0.0002,0.0,0.0
10.982,4955.423,0.0002,0.0,0.0
10.988,4947.526,0.0002,0.0,0.0
10.994,4936.355,0.0002,0.0,0.0
11.0,4915.474,0.0002,0.0,0.0
11.007,4909.495,0.0002,0.0,0.0
11.013,4870.346,0.00021,0.0,0.0
11.019,4883.413,0.0002,0.0,0.0
11.026,4870.396,0.00021,0.0,0.0
11.032,4858.497,0.00021,0.0,0.0
11.038,4837.591,0.00021,0.0,0.0
11.045,4835.942,0.00021,0.0,0.0
11.051,4824.122,0.00021,0.0,0.0
11.057,4818.894,0.00021,0.0,0.0
11.064,4812.7,0.00021,0.0,0.0
11.07,4790.528,0.00021,0.0,0.0
11.076,4793.171,0.00021,0.0,0.0
11.083,4782.09,0.00021,0.0,0.0
11.089,4778.262,0.00021,0.0,0.0
11.095,4766.368,0.00021,0.0,0.0
11.102,4770.232,0.00021,0.0,0.0
11.108,4754.127,0.00021,0.0,0.0
11.114,4745.244,0.00021,0.0,0.0
11.121,4736.889,0.00021,0.0,0.0
11.127,4733.662,0.00021,0.0,0.0
11.133,4740.614,0.00021,0.0,0.0
11.14,4727.297,0.00021,0.0,0.0
11.146,4729.448,0.00021,0.0,0.0
11.152,4706.667,0.00021,0.0,0.0
11.158,4719.103,0.00021,0.0,0.0
11.165,4712.846,0.00021,0.0,0.0
11.171,4724.324,0.00021,0.0,0.0
11.177,4707.613,0.00021,0.0,0.0
11.184,4725.179,0.00021,0.0,0.0
11.19,4736.854,0.00021,0.0,0.0
11.196,4719.092,0.00021,0.0,0.0
11.203,4730.597,0.00021,0.0,0.0
11.209,4727.235,0.00021,0.0,0.0
11.215,4692.774,0.00021,0.0,0.0
11.222,4754.977,0.00021,0.0,0.0
11.228,4682.551,0.00021,0.0,0.0
11.234,4698.909,0.00021,0.0,0.0
11.241,4661.425,0.00021,0.0,0.0
11.247,4663.746,0.00021,0.0,0.0
11.253,4654.898,0.00021,0.0,0.0
11.26,4651.434,0.00021,0.0,0.0
11.266,4649.755,0.00022,0.0,0.0
11.272,4651.37,0.00021,0.0,0.0
11.279,4634.625,0.00022,0.0,0.0
11.285,4633.78,0.00022,0.0,0.0
11.291,4644.084,0.00022,0.0,0.0
11.298,4632.427,0.00022,0.0,0.0
11.304,4622.291,0.00022,0.0,0.0
11.31,4618.615,0.00022,0.0,0.0
11.316,4612.153,0.00022,0.0,0.0
11.323,4621.271,0.00022,0.0,0.0
11.329,4621.12,0.00022,0.0,0.0
11.335,4613.464,0.00022,0.0,0.0
11.342,4606.109,0.00022,0.0,0.0
11.348,4606.525,0.00022,0.0,0.0
11.354,4596.957,0.00022,0.0,0.0
11.361,4607.369,0.00022,0.0,0.0
11.367,4594.426,0.00022,0.0,0.0
11.373,4596.143,0.00022,0.0,0.0
11.38,4593.349,0.00022,0.0,0.0
11.386,4595.951,0.00022,0.0,0.0
11.392,4593.168,0.00022,0.0,0.0
11.399,4576.624,0.00022,0.0,0.0
11.405,4575.858,0.00022,0.0,0.0
11.411,4582.739,0.00022,0.0,0.0
11.418,4579.318,0.00022,0.0,0.0
11.424,4590.9,0.00022,0.0,0.0
11.43,4587.706,0.00022,0.0,0.0
11.437,4580.3,0.00022,0.0,0.0
11.443,4577.687,0.00022,0.0,0.0
11.449,4583.358,0.00022,0.0,0.0
11.456,4580.649,0.00022,0.0,0.0
11.462,4563.509,0.00022,0.0,0.0
11.468,4576.93,0.00022,0.0,0.0
11.474,4568.288,0.00022,0.0,0.0
11.481,4573.957,0.00022,0.0,0.0
11.487,4585.0,0.00022,0.0,0.0
11.493,4571.901,0.00022,0.0,0.0
11.5,4580.757,0.00022,0.0,0.0
11.506,4591.557,0.00022,0.0,0.0
11.512,4603.651,0.00022,0.0,0.0
11.519,4623.663,0.00022,0.0,0.0
11.525,4622.507,0.00022,0.0,0.0
11.531,4630.032,0.00022,0.0,0.0
11.538,4642.15,0.00022,0.0,0.0
11.544,4641.697,0.00022,0.0,0.0
11.55,4616.691,0.00022,0.0,0.0
11.557,4603.758,0.00022,0.0,0.0
11.563,4596.747,0.00022,0.0,0.0
11.569,4595.173,0.00022,0.0,0.0
11.576,4570.296,0.00022,0.0,0.0
11.582,4577.329,0.00022,0.0,0.0
11.588,4580.753,0.00022,0.0,0.0
11.595,4569.063,0.00022,0.0,0.0
11.601,4577.269,0.00022,0.0,0.0
11.607,4591.175,0.00022,0.0,0.0
11.614,4581.439,0.00022,0.0,0.0
11.62,4580.659,0.00022,0.0,0.0
11.626,4578.984,0.00022,0.0,0.0
11.632,4585.545,0.00022,0.0,0.0
11.639,4594.624,0.00022,0.0,0.0
11.645,4595.495,0.00022,0.0,0.0
11.651,4591.267,0.00022,0.0,0.0
11.658,4581.42,0.00022,0.0,0.0
11.664,4603.23,0.00022,0.0,0.0
11.67,4604.85,0.00022,0.0,0.0
11.677,4611.287,0.00022,0.0,0.0
11.683,4627.903,0.00022,0.0,0.0
11.689,4604.551,0.00022,0.0,0.0
11.696,4617.432,0.00022,0.0,0.0
11.702,4614.052,0.00022,0.0,0.0
11.708,4622.221,0.00022,0.0,0.0
11.715,4620.943,0.00022,0.0,0.0
11.721,4616.119,0.00022,0.0,0.0
11.727,4633.19,0.00022,0.0,0.0
11.734,4622.328,0.00022,0.0,0.0
11.74,4634.021,0.00022,0.0,0.0
11.746,4633.883,0.00022,0.0,0.0
11.753,4642.178,0.00022,0.0,0.0
11.759,4642.559,0.00022,0.0,0.0
11.765,4643.172,0.00022,0.0,0.0
11.772,4648.149,0.00022,0.0,0.0
11.778,4650.16,0.00022,0.0,0.0
11.784,4652.416,0.00021,0.0,0.0
11.79,4652.471,0.00021,0.0,0.0
11.797,4640.295,0.00022,0.0,0.0
11.803,4652.728,0.00021,0.0,0.0
11.809,4644.689,0.00022,0.0,0.0
11.816,4628.723,0.00022,0.0,0.0
11.822,4629.306,0.00022,0.0,0.0
11.828,4636.134,0.00022,0.0,0.0
11.835,4625.725,0.00022,0.0,0.0
11.841,4618.781,0.00022,0.0,0.0
11.847,4621.264,0.00022,0.0,0.0
11.854,4628.356,0.00022,0.0,0.0
11.86,4591.853,0.00022,0.0,0.0
11.866,4609.382,0.00022,0.0,0.0
11.873,4590.576,0.00022,0.0,0.0
11.879,4619.234,0.00022,0.0,0.0
11.885,4599.485,0.00022,0.0,0.0
11.892,4600.662,0.00022,0.0,0.0
11.898,4598.846,0.00022,0.0,0.0
11.904,4592.262,0.00022,0.0,0.0
11.911,4594.808,0.00022,0.0,0.0
11.917,4571.637,0.00022,0.0,0.0
11.923,4575.343,0.00022,0.0,0.0
11.93,4568.493,0.00022,0.0,0.0
11.936,4572.672,0.00022,0.0,0.0
11.942,4575.759,0.00022,0.0,0.0
11.948,4579.408,0.00022,0.0,0.0
11.955,4571.631,0.00022,0.0,0.0
11.961,4562.64,0.00022,0.0,0.0
11.967,4572.352,0.00022,0.0,0.0
11.974,4585.808,0.00022,0.0,0.0
11.98,4580.999,0.00022,0.0,0.0
11.986,4577.091,0.00022,0.0,0.0
11.993,4577.607,0.00022,0.0,0.0
11.999,4567.18,0.00022,0.0,0.0
12.005,4575.364,0.00022,0.0,0.0
12.012,4597.08,0.00022,0.0,0.0
12.018,4596.922,0.00022,0.0,0.0
12.024,4596.248,0.00022,0.0,0.0
12.031,4590.326,0.00022,0.0,0.0
12.037,4651.874,0.00021,0.0,0.0
12.043,4625.092,0.00022,0.0,0.0
12.05,4756.343,0.00021,0.0,0.0
12.056,4697.254,0.00021,0.0,0.0
12.062,4736.163,0.00021,0.0,0.0
12.069,5305.974,0.00019,0.0,0.0
12.075,5031.682,0.0002,0.0,0.0
12.081,7739.87,0.00013,0.0,0.0
12.088,5818.96,0.00017,0.0,0.0
12.094,7064.56,0.00014,0.0,0.0
12.1,10061.7,0.0001,0.0,0.0
12.106,6631.483,0.00015,0.0,0.0
12.113,8728.44,0.00011,0.0,0.0
12.119,5584.045,0.00018,0.0,0.0
12.125,5144.213,0.00019,0.0,0.0
12.132,5297.161,0.00019,0.0,0.0
12.138,4803.52,0.00021,0.0,0.0
12.144,4730.445,0.00021,0.0,0.0
12.151,4688.335,0.00021,0.0,0.0
12.157,4601.753,0.00022,0.0,0.0
12.163,4606.016,0.00022,0.0,0.0
12.17,4556.454,0.00022,0.0,0.0
12.176,4534.981,0.00022,0.0,0.0
12.182,4535.114,0.00022,0.0,0.0
12.189,4525.735,0.00022,0.0,0.0
12.195,4507.235,0.00022,0.0,0.0
12.201,4496.213,0.00022,0.0,0.0
12.208,4496.176,0.00022,0.0,0.0
12.214,4475.604,0.00022,0.0,0.0
12.22,4453.059,0.00022,0.0,0.0
12.227,4449.062,0.00022,0.0,0.0
12.233,4458.532,0.00022,0.0,0.0
12.239,4452.427,0.00022,0.0,0.0
12.246,4436.673,0.00023,0.0,0.0
12.252,4432.469,0.00023,0.0,0.0
12.258,4426.131,0.00023,0.0,0.0
12.264,4430.785,0.00023,0.0,0.0
12.271,4424.337,0.00023,0.0,0.0
12.277,4403.922,0.00023,0.0,0.0
12.283,4412.448,0.00023,0.0,0.0
12.29,4402.896,0.00023,0.0,0.0
12.296,4402.889,0.00023,0.0,0.0
12.302,4395.273,0.00023,0.0,0.0
12.309,4385.068,0.00023,0.0,0.0
12.315,4388.669,0.00023,0.0,0.0
12.321,4395.233,0.00023,0.0,0.0
12.328,4379.435,0.00023,0.0,0.0
12.334,4392.306,0.00023,0.0,0.0
12.34,4364.718,0.00023,0.0,0.0
12.347,4371.996,0.00023,0.0,0.0
12.353,4374.887,0.00023,0.0,0.0
12.359,4365.32,0.00023,0.0,0.0
12.366,4358.133,0.00023,0.0,0.0
12.372,4346.468,0.00023,0.0,0.0
12.378,4354.386,0.00023,0.0,0.0
12.385,4357.095,0.00023,0.0,0.0
12.391,4352.525,0.00023,0.0,0.0
12.397,4353.638,0.00023,0.0,0.0
12.404,4354.329,0.00023,0.0,0.0
12.41,4351.403,0.00023,0.0,0.0
12.416,4335.883,0.00023,0.0,0.0
12.422,4343.034,0.00023,0.0,0.0
12.429,4333.464,0.00023,0.0,0.0
12.435,4324.267,0.00023,0.0,0.0
12.441,4317.054,0.00023,0.0,0.0
12.448,4334.8,0.00023,0.0,0.0
12.454,4316.834,0.00023,0.0,0.0
12.46,4325.697,0.00023,0.0,0.0
12.467,4338.251,0.00023,0.0,0.0
12.473,4325.391,0.00023,0.0,0.0
12.479,4337.422,0.00023,0.0,0.0
12.486,4333.354,0.00023,0.0,0.0
12.492,4339.422,0.00023,0.0,0.0
12.498,4329.512,0.00023,0.0,0.0
12.505,4341.11,0.00023,0.0,0.0
12.511,4356.32,0.00023,0.0,0.0
12.517,4354.337,0.00023,0.0,0.0
12.524,4357.393,0.00023,0.0,0.0
12.53,4346.924,0.00023,0.0,0.0
12.536,4365.047,0.00023,0.0,0.0
12.543,4362.265,0.00023,0.0,0.0
12.549,4352.329,0.00023,0.0,0.0
12.555,4343.714,0.00023,0.0,0.0
12.562,4354.652,0.00023,0.0,0.0
12.568,4358.302,0.00023,0.0,0.0
12.574,4364.629,0.00023,0.0,0.0
12.58,4367.483,0.00023,0.0,0.0
12.587,4373.672,0.00023,0.0,0.0
12.593,4390.304,0.00023,0.0,0.0
12.599,4410.977,0.00023,0.0,0.0
12.606,4432.325,0.00023,0.0,0.0
12.612,4457.693,0.00022,0.0,0.0
12.618,4516.718,0.00022,0.0,0.0
12.625,4581.882,0.00022,0.0,0.0
12.631,4660.457,0.00021,0.0,0.0
12.637,4798.364,0.00021,0.0,0.0
12.644,5025.677,0.0002,0.0,0.0
12.65,5337.614,0.00019,0.0,0.0
12.656,6045.938,0.00017,0.0,0.0
12.663,6977.298,0.00014,0.0,0.0
12.669,9144.517,0.00011,0.0,0.0
12.675,12519.245,0.00008,0.0,0.0
12.682,17191.084,0.00006,0.0,0.0
12.688,25900.877,0.00004,0.0,0.0
12.694,30258.964,0.00003,0.0,0.0
12.701,36007.894,0.00003,0.0,0.0
12.707,34041.005,0.00003,0.0,0.0
12.713,27012.188,0.00004,0.0,0.0
12.72,21410.842,0.00005,0.0,0.0
12.726,14495.661,0.00007,0.0,0.0
12.732,10729.765,0.00009,0.0,0.0
12.738,7799.403,0.00013,0.0,0.0
12.745,6442.49,0.00016,0.0,0.0
12.751,5584.176,0.00018,0.0,0.0
12.757,5090.222,0.0002,0.0,0.0
12.764,4833.53,0.00021,0.0,0.0
12.77,4670.972,0.00021,0.0,0.0
12.776,4544.808,0.00022,0.0,0.0
12.783,4467.474,0.00022,0.0,0.0
12.789,4415.881,0.00023,0.0,0.0
12.795,4378.357,0.00023,0.0,0.0
12.802,4343.01,0.00023,0.0,0.0
12.808,4315.36,0.00023,0.0,0.0
12.814,4321.893,0.00023,0.0,0.0
12.821,4294.035,0.00023,0.0,0.0
12.827,4283.811,0.00023,0.0,0.0
12.833,4276.632,0.00023,0.0,0.0
12.84,4253.316,0.00024,0.0,0.0
12.846,4244.509,0.00024,0.0,0.0
12.852,4245.01,0.00024,0.0,0.0
12.859,4233.358,0.00024,0.0,0.0
12.865,4217.054,0.00024,0.0,0.0
12.871,4223.297,0.00024,0.0,0.0
12.878,4222.197,0.00024,0.0,0.0
12.884,4214.242,0.00024,0.0,0.0
12.89,4217.467,0.00024,0.0,0.0
12.896,4260.344,0.00023,0.0,0.0
12.903,4278.541,0.00023,0.0,0.0
12.909,4540.558,0.00022,0.0,0.0
12.915,4415.436,0.00023,0.0,0.0
12.922,4548.447,0.00022,0.0,0.0
12.928,5471.352,0.00018,0.0,0.0
12.934,5780.457,0.00017,0.0,0.0
12.941,4911.774,0.0002,0.0,0.0
12.947,5192.937,0.00019,0.0,0.0
12.953,4929.552,0.0002,0.0,0.0
12.96,4525.009,0.00022,0.0,0.0
12.966,4460.265,0.00022,0.0,0.0
12.972,4360.964,0.00023,0.0,0.0
12.979,4274.164,0.00023,0.0,0.0
12.985,4212.968,0.00024,0.0,0.0
12.991,4202.782,0.00024,0.0,0.0
12.998,4180.951,0.00024,0.0,0.0
13.004,4165.785,0.00024,0.0,0.0
13.01,4153.631,0.00024,0.0,0.0
13.017,4154.114,0.00024,0.0,0.0
13.023,4141.221,0.00024,0.0,0.0
13.029,4139.345,0.00024,0.0,0.0
13.036,4149.775,0.00024,0.0,0.0
13.042,4138.752,0.00024,0.0,0.0
13.048,4132.171,0.00024,0.0,0.0
13.054,4138.181,0.00024,0.0,0.0
13.061,4126.291,0.00024,0.0,0.0
13.067,4124.31,0.00024,0.0,0.0
13.073,4121.966,0.00024,0.0,0.0
13.08,4139.491,0.00024,0.0,0.0
13.086,4131.406,0.00024,0.0,0.0
13.092,4132.359,0.00024,0.0,0.0
13.099,4131.206,0.00024,0.0,0.0
13.105,4109.569,0.00024,0.0,0.0
13.111,4121.686,0.00024,0.0,0.0
13.118,4103.854,0.00024,0.0,0.0
13.124,4106.183,0.00024,0.0,0.0
13.13,4120.52,0.00024,0.0,0.0
13.137,4116.227,0.00024,0.0,0.0
13.143,4115.443,0.00024,0.0,0.0
13.149,4101.215,0.00024,0.0,0.0
13.156,4113.718,0.00024,0.0,0.0
13.162,4116.624,0.00024,0.0,0.0
13.168,4108.84,0.00024,0.0,0.0
13.175,4109.511,0.00024,0.0,0.0
13.181,4119.834,0.00024,0.0,0.0
13.187,4137.218,0.00024,0.0,0.0
13.194,4143.713,0.00024,0.0,0.0
13.2,4158.033,0.00024,0.0,0.0
13.206,4209.865,0.00024,0.0,0.0
13.212,4268.877,0.00023,0.0,0.0
13.219,4355.424,0.00023,0.0,0.0
13.225,4585.188,0.00022,0.0,0.0
13.231,4834.825,0.00021,0.0,0.0
13.238,5733.047,0.00017,0.0,0.0
13.244,6548.615,0.00015,0.0,0.0
13.25,8062.165,0.00012,0.0,0.0
13.257,10899.057,0.00009,0.0,0.0
13.263,11755.681,0.00009,0.0,0.0
13.269,12748.07,0.00008,0.0,0.0
13.276,12041.888,0.00008,0.0,0.0
13.282,10467.939,0.0001,0.0,0.0
13.288,8345.186,0.00012,0.0,0.0
13.295,6920.309,0.00014,0.0,0.0
13.301,5406.366,0.00018,0.0,0.0
13.307,4886.913,0.0002,0.0,0.0
13.314,4506.863,0.00022,0.0,0.0
13.32,4285.061,0.00023,0.0,0.0
13.326,4203.402,0.00024,0.0,0.0
13.333,4117.366,0.00024,0.0,0.0
13.339,4072.922,0.00025,0.0,0.0
13.345,4032.097,0.00025,0.0,0.0
13.352,4013.662,0.00025,0.0,0.0
13.358,4014.963,0.00025,0.0,0.0
13.364,3992.795,0.00025,0.0,0.0
13.37,3982.931,0.00025,0.0,0.0
13.377,3963.546,0.00025,0.0,0.0
13.383,3964.717,0.00025,0.0,0.0
13.389,3970.68,0.00025,0.0,0.0
13.396,3955.698,0.00025,0.0,0.0
13.402,3945.809,0.00025,0.0,0.0
13.408,3940.336,0.00025,0.0,0.0
13.415,3931.731,0.00025,0.0,0.0
13.421,3934.699,0.00025,0.0,0.0
13.427,3927.431,0.00025,0.0,0.0
13.434,3917.595,0.00026,0.0,0.0
13.44,3917.814,0.00026,0.0,0.0
13.446,3904.319,0.00026,0.0,0.0
13.453,3914.607,0.00026,0.0,0.0
13.459,3912.824,0.00026,0.0,0.0
13.465,3902.63,0.00026,0.0,0.0
13.472,3897.583,0.00026,0.0,0.0
13.478,3891.263,0.00026,0.0,0.0
13.484,3885.96,0.00026,0.0,0.0
13.491,3896.509,0.00026,0.0,0.0
13.497,3891.859,0.00026,0.0,0.0
13.503,3879.349,0.00026,0.0,0.0
13.51,3880.974,0.00026,0.0,0.0
13.516,3882.802,0.00026,0.0,0.0
13.522,3869.171,0.00026,0.0,0.0
13.528,3879.75,0.00026,0.0,0.0
13.535,3868.473,0.00026,0.0,0.0
13.541,3879.455,0.00026,0.0,0.0
13.547,3875.869,0.00026,0.0,0.0
13.554,3858.049,0.00026,0.0,0.0
13.56,3871.297,0.00026,0.0,0.0
13.566,3856.823,0.00026,0.0,0.0
13.573,3872.264,0.00026,0.0,0.0
13.579,3869.593,0.00026,0.0,0.0
13.585,3861.145,0.00026,0.0,0.0
13.592,3853.404,0.00026,0.0,0.0
13.598,3870.431,0.00026,0.0,0.0
13.604,3869.132,0.00026,0.0,0.0
13.611,3863.511,0.00026,0.0,0.0
13.617,3865.028,0.00026,0.0,0.0
13.623,3857.153,0.00026,0.0,0.0
13.63,3879.555,0.00026,0.0,0.0
13.636,3862.504,0.00026,0.0,0.0
13.642,3873.716,0.00026,0.0,0.0
13.649,3869.589,0.00026,0.0,0.0
13.655,3871.924,0.00026,0.0,0.0
13.661,3876.559,0.00026,0.0,0.0
13.668,3880.991,0.00026,0.0,0.0
13.674,3884.374,0.00026,0.0,0.0
13.68,3892.211,0.00026,0.0,0.0
13.686,3896.487,0.00026,0.0,0.0
13.693,3916.751,0.00026,0.0,0.0
13.699,3963.184,0.00025,0.0,0.0
13.705,3981.798,0.00025,0.0,0.0
13.712,4197.139,0.00024,0.0,0.0
13.718,4127.197,0.00024,0.0,0.0
13.724,4405.284,0.00023,0.0,0.0
13.731,4220.096,0.00024,0.0,0.0
13.737,4124.261,0.00024,0.0,0.0
13.743,4181.454,0.00024,0.0,0.0
13.75,3975.362,0.00025,0.0,0.0
13.756,3921.955,0.00025,0.0,0.0
13.762,3879.609,0.00026,0.0,0.0
13.769,3850.682,0.00026,0.0,0.0
13.775,3833.179,0.00026,0.0,0.0
13.781,3818.361,0.00026,0.0,0.0
13.788,3817.766,0.00026,0.0,0.0
13.794,3790.677,0.00026,0.0,0.0
13.8,3797.917,0.00026,0.0,0.0
13.807,3782.156,0.00026,0.0,0.0
13.813,3790.542,0.00026,0.0,0.0
13.819,3768.402,0.00027,0.0,0.0
13.826,3767.798,0.00027,0.0,0.0
13.832,3770.368,0.00027,0.0,0.0
13.838,3752.101,0.00027,0.0,0.0
13.844,3756.29,0.00027,0.0,0.0
13.851,3747.63,0.00027,0.0,0.0
13.857,3748.035,0.00027,0.0,0.0
13.863,3739.55,0.00027,0.0,0.0
13.87,3733.952,0.00027,0.0,0.0
13.876,3733.704,0.00027,0.0,0.0
13.882,3726.859,0.00027,0.0,0.0
13.889,3728.311,0.00027,0.0,0.0
13.895,3714.174,0.00027,0.0,0.0
13.901,3713.053,0.00027,0.0,0.0
13.908,3712.964,0.00027,0.0,0.0
13.914,3700.167,0.00027,0.0,0.0
13.92,3704.673,0.00027,0.0,0.0
13.927,3696.101,0.00027,0.0,0.0
13.933,3710.096,0.00027,0.0,0.0
13.939,3691.218,0.00027,0.0,0.0
13.946,3686.351,0.00027,0.0,0.0
13.952,3687.532,0.00027,0.0,0.0
13.958,3683.343,0.00027,0.0,0.0
13.965,3686.694,0.00027,0.0,0.0
13.971,3678.112,0.00027,0.0,0.0
13.977,3678.479,0.00027,0.0,0.0
13.984,3665.805,0.00027,0.0,0.0
13.99,3663.141,0.00027,0.0,0.0
13.996,3647.248,0.00027,0.0,0.0
14.002,3660.102,0.00027,0.0,0.0
14.009,3645.794,0.00027,0.0,0.0
14.015,3653.462,0.00027,0.0,0.0
14.021,3652.55,0.00027,0.0,0.0
14.028,3648.685,0.00027,0.0,0.0
14.034,3647.195,0.00027,0.0,0.0
14.04,3634.659,0.00028,0.0,0.0
14.047,3634.035,0.00028,0.0,0.0
14.053,3627.383,0.00028,0.0,0.0
14.059,3633.106,0.00028,0.0,0.0
14.066,3646.689,0.00027,0.0,0.0
14.072,3632.03,0.00028,0.0,0.0
14.078,3618.187,0.00028,0.0,0.0
14.085,3631.241,0.00028,0.0,0.0
14.091,3644.024,0.00027,0.0,0.0
14.097,3680.556,0.00027,0.0,0.0
14.104,3701.719,0.00027,0.0,0.0
14.11,3830.346,0.00026,0.0,0.0
14.116,3627.793,0.00028,0.0,0.0
14.123,3680.444,0.00027,0.0,0.0
14.129,3619.657,0.00028,0.0,0.0
14.135,3616.677,0.00028,0.0,0.0
14.142,3611.756,0.00028,0.0,0.0
14.148,3599.883,0.00028,0.0,0.0
14.154,3588.833,0.00028,0.0,0.0
14.16,3591.778,0.00028,0.0,0.0
14.167,3592.261,0.00028,0.0,0.0
14.173,3580.912,0.00028,0.0,0.0
14.179,3594.84,0.00028,0.0,0.0
14.186,3581.042,0.00028,0.0,0.0
14.192,3589.502,0.00028,0.0,0.0
14.198,3586.947,0.00028,0.0,0.0
14.205,3588.078,0.00028,0.0,0.0
14.211,3572.157,0.00028,0.0,0.0
14.217,3567.418,0.00028,0.0,0.0
14.224,3586.659,0.00028,0.0,0.0
14.23,3580.475,0.00028,0.0,0.0
14.236,3575.613,0.00028,0.0,0.0
14.243,3579.848,0.00028,0.0,0.0
14.249,3597.708,0.00028,0.0,0.0
14.255,3592.552,0.00028,0.0,0.0
14.262,3589.599,0.00028,0.0,0.0
14.268,3606.722,0.00028,0.0,0.0
14.274,3604.442,0.00028,0.0,0.0
14.281,3599.098,0.00028,0.0,0.0
14.287,3584.652,0.00028,0.0,0.0
14.293,3584.766,0.00028,0.0,0.0
14.3,3580.684,0.00028,0.0,0.0
14.306,3572.363,0.00028,0.0,0.0
14.312,3561.501,0.00028,0.0,0.0
14.318,3586.031,0.00028,0.0,0.0
14.325,3560.883,0.00028,0.0,0.0
14.331,3556.406,0.00028,0.0,0.0
14.337,3558.2,0.00028,0.0,0.0
14.344,3556.806,0.00028,0.0,0.0
14.35,3561.145,0.00028,0.0,0.0
14.356,3556.649,0.00028,0.0,0.0
14.363,3551.997,0.00028,0.0,0.0
14.369,3565.46,0.00028,0.0,0.0
14.375,3551.598,0.00028,0.0,0.0
14.382,3565.553,0.00028,0.0,0.0
14.388,3550.978,0.00028,0.0,0.0
14.394,3547.5,0.00028,0.0,0.0
14.401,3552.055,0.00028,0.0,0.0
14.407,3543.035,0.00028,0.0,0.0
14.413,3555.089,0.00028,0.0,0.0
14.42,3561.609,0.00028,0.0,0.0
14.426,3562.45,0.00028,0.0,0.0
14.432,3550.493,0.00028,0.0,0.0
14.439,3565.835,0.00028,0.0,0.0
14.445,3644.611,0.00027,0.0,0.0
14.451,3601.632,0.00028,0.0,0.0
14.458,3688.76,0.00027,0.0,0.0
14.464,3688.903,0.00027,0.0,0.0
14.47,3662.163,0.00027,0.0,0.0
14.476,3635.53,0.00028,0.0,0.0
14.483,3617.426,0.00028,0.0,0.0
14.489,3594.022,0.00028,0.0,0.0
14.495,3570.482,0.00028,0.0,0.0
14.502,3526.539,0.00028,0.0,0.0
14.508,3529.002,0.00028,0.0,0.0
14.514,3502.51,0.00029,0.0,0.0
14.521,3520.542,0.00028,0.0,0.0
14.527,3510.517,0.00028,0.0,0.0
14.533,3499.328,0.00029,0.0,0.0
14.54,3491.219,0.00029,0.0,0.0
14.546,3487.68,0.00029,0.0,0.0
14.552,3487.424,0.00029,0.0,0.0
14.559,3482.698,0.00029,0.0,0.0
14.565,3481.718,0.00029,0.0,0.0
14.571,3479.756,0.00029,0.0,0.0
14.578,3466.146,0.00029,0.0,0.0
14.584,3470.353,0.00029,0.0,0.0
14.59,3476.255,0.00029,0.0,0.0
14.597,3466.507,0.00029,0.0,0.0
14.603,3458.336,0.00029,0.0,0.0
14.609,3465.354,0.00029,0.0,0.0
14.616,3448.825,0.00029,0.0,0.0
14.622,3452.117,0.00029,0.0,0.0
14.628,3437.971,0.00029,0.0,0.0
14.634,3444.588,0.00029,0.0,0.0
14.641,3448.214,0.00029,0.0,0.0
14.647,3440.546,0.00029,0.0,0.0
14.653,3439.92,0.00029,0.0,0.0
14.66,3446.453,0.00029,0.0,0.0
14.666,3435.76,0.00029,0.0,0.0
14.672,3438.066,0.00029,0.0,0.0
14.679,3437.279,0.00029,0.0,0.0
14.685,3438.46,0.00029,0.0,0.0
14.691,3431.396,0.00029,0.0,0.0
14.698,3435.496,0.00029,0.0,0.0
14.704,3422.521,0.00029,0.0,0.0
14.71,3413.423,0.00029,0.0,0.0
14.717,3419.457,0.00029,0.0,0.0
14.723,3406.866,0.00029,0.0,0.0
14.729,3406.284,0.00029,0.0,0.0
14.736,3412.994,0.00029,0.0,0.0
14.742,3397.956,0.00029,0.0,0.0
14.748,3398.708,0.00029,0.0,0.0
14.755,3398.878,0.00029,0.0,0.0
14.761,3386.145,0.0003,0.0,0.0
14.767,3390.462,0.00029,0.0,0.0
14.774,3385.232,0.0003,0.0,0.0
14.78,3394.662,0.00029,0.0,0.0
14.786,3398.814,0.00029,0.0,0.0
14.792,3388.616,0.0003,0.0,0.0
14.799,3374.952,0.0003,0.0,0.0
14.805,3385.435,0.0003,0.0,0.0
14.811,3388.76,0.0003,0.0,0.0
14.818,3375.688,0.0003,0.0,0.0
14.824,3391.073,0.00029,0.0,0.0
14.83,3373.298,0.0003,0.0,0.0
14.837,3389.346,0.0003,0.0,0.0
14.843,3391.644,0.00029,0.0,0.0
14.849,3381.907,0.0003,0.0,0.0
14.856,3381.796,0.0003,0.0,0.0
14.862,3376.42,0.0003,0.0,0.0
14.868,3382.528,0.0003,0.0,0.0
14.875,3385.394,0.0003,0.0,0.0
14.881,3379.942,0.0003,0.0,0.0
14.887,3382.721,0.0003,0.0,0.0
14.894,3382.271,0.0003,0.0,0.0
14.9,3386.231,0.0003,0.0,0.0
14.906,3390.606,0.00029,0.0,0.0
14.913,3372.163,0.0003,0.0,0.0
14.919,3378.268,0.0003,0.0,0.0
14.925,3383.177,0.0003,0.0,0.0
14.932,3368.185,0.0003,0.0,0.0
14.938,3376.697,0.0003,0.0,0.0
14.944,3376.733,0.0003,0.0,0.0
14.95,3379.595,0.0003,0.0,0.0
14.957,3382.944,0.0003,0.0,0.0
14.963,3373.031,0.0003,0.0,0.0
14.969,3379.469,0.0003,0.0,0.0
14.976,3379.273,0.0003,0.0,0.0
14.982,3378.083,0.0003,0.0,0.0
14.988,3366.072,0.0003,0.0,0.0
14.995,3372.024,0.0003,0.0,0.0
15.001,3371.507,0.0003,0.0,0.0
15.007,3366.17,0.0003,0.0,0.0
15.014,3364.251,0.0003,0.0,0.0
15.02,3366.256,0.0003,0.0,0.0
15.026,3353.655,0.0003,0.0,0.0
15.033,3365.057,0.0003,0.0,0.0
15.039,3355.326,0.0003,0.0,0.0
15.045,3346.272,0.0003,0.0,0.0
15.052,3349.322,0.0003,0.0,0.0
15.058,3351.345,0.0003,0.0,0.0
15.064,3342.255,0.0003,0.0,0.0
15.071,3348.396,0.0003,0.0,0.0
15.077,3339.686,0.0003,0.0,0.0
15.083,3334.489,0.0003,0.0,0.0
15.09,3335.796,0.0003,0.0,0.0
15.096,3335.857,0.0003,0.0,0.0
15.102,3331.508,0.0003,0.0,0.0
15.108,3321.875,0.0003,0.0,0.0
15.115,3330.514,0.0003,0.0,0.0
15.121,3324.47,0.0003,0.0,0.0
15.127,3320.579,0.0003,0.0,0.0
15.134,3322.667,0.0003,0.0,0.0
15.14,3324.65,0.0003,0.0,0.0
15.146,3313.987,0.0003,0.0,0.0
15.153,3325.046,0.0003,0.0,0.0
15.159,3318.09,0.0003,0.0,0.0
15.165,3329.871,0.0003,0.0,0.0
15.172,3336.337,0.0003,0.0,0.0
15.178,3334.451,0.0003,0.0,0.0
15.184,3335.509,0.0003,0.0,0.0
15.191,3318.161,0.0003,0.0,0.0
15.197,3331.497,0.0003,0.0,0.0
15.203,3324.171,0.0003,0.0,0.0
15.21,3325.665,0.0003,0.0,0.0
15.216,3312.279,0.0003,0.0,0.0
15.222,3309.918,0.0003,0.0,0.0
15.229,3314.277,0.0003,0.0,0.0
15.235,3314.9,0.0003,0.0,0.0
15.241,3316.648,0.0003,0.0,0.0
15.248,3324.987,0.0003,0.0,0.0
15.254,3325.575,0.0003,0.0,0.0
15.26,3337.841,0.0003,0.0,0.0
15.266,3353.849,0.0003,0.0,0.0
15.273,3361.969,0.0003,0.0,0.0
15.279,3415.622,0.00029,0.0,0.0
15.285,3477.95,0.00029,0.0,0.0
15.292,3584.133,0.00028,0.0,0.0
15.298,3794.902,0.00026,0.0,0.0
15.304,4027.76,0.00025,0.0,0.0
15.311,4470.442,0.00022,0.0,0.0
15.317,5048.135,0.0002,0.0,0.0
15.323,5475.499,0.00018,0.0,0.0
15.33,5895.094,0.00017,0.0,0.0
15.336,5913.154,0.00017,0.0,0.0
15.342,5503.293,0.00018,0.0,0.0
15.349,5131.652,0.00019,0.0,0.0
15.355,4618.763,0.00022,0.0,0.0
15.361,4109.104,0.00024,0.0,0.0
15.368,3805.712,0.00026,0.0,0.0
15.374,3578.692,0.00028,0.0,0.0
15.38,3475.1,0.00029,0.0,0.0
15.387,3409.334,0.00029,0.0,0.0
15.393,3355.892,0.0003,0.0,0.0
15.399,3340.669,0.0003,0.0,0.0
15.406,3337.123,0.0003,0.0,0.0
15.412,3320.932,0.0003,0.0,0.0
15.418,3308.46,0.0003,0.0,0.0
15.424,3301.717,0.0003,0.0,0.0
15.431,3300.41,0.0003,0.0,0.0
15.437,3310.324,0.0003,0.0,0.0
15.443,3281.821,0.0003,0.0,0.0
15.45,3307.293,0.0003,0.0,0.0
15.456,3291.358,0.0003,0.0,0.0
15.462,3300.202,0.0003,0.0,0.0
15.469,3290.554,0.0003,0.0,0.0
15.475,3289.956,0.0003,0.0,0.0
15.481,3304.931,0.0003,0.0,0.0
15.488,3299.316,0.0003,0.0,0.0
15.494,3292.022,0.0003,0.0,0.0
15.5,3287.372,0.0003,0.0,0.0
15.507,3283.256,0.0003,0.0,0.0
15.513,3281.763,0.0003,0.0,0.0
15.519,3279.875,0.0003,0.0,0.0
15.526,3286.249,0.0003,0.0,0.0
15.532,3277.038,0.00031,0.0,0.0
15.538,3272.921,0.00031,0.0,0.0
15.545,3268.799,0.00031,0.0,0.0
15.551,3276.667,0.00031,0.0,0.0
15.557,3262.537,0.00031,0.0,0.0
15.564,3280.784,0.0003,0.0,0.0
15.57,3268.009,0.00031,0.0,0.0
15.576,3265.38,0.00031,0.0,0.0
15.582,3260.197,0.00031,0.0,0.0
15.589,3268.261,0.00031,0.0,0.0
15.595,3261.602,0.00031,0.0,0.0
15.601,3245.431,0.00031,0.0,0.0
15.608,3241.606,0.00031,0.0,0.0
15.614,3231.049,0.00031,0.0,0.0
15.62,3244.772,0.00031,0.0,0.0
15.627,3236.044,0.00031,0.0,0.0
15.633,3234.238,0.00031,0.0,0.0
15.639,3232.881,0.00031,0.0,0.0
15.646,3230.796,0.00031,0.0,0.0
15.652,3231.135,0.00031,0.0,0.0
15.658,3219.627,0.00031,0.0,0.0
15.665,3220.15,0.00031,0.0,0.0
15.671,3213.154,0.00031,0.0,0.0
15.677,3203.715,0.00031,0.0,0.0
15.684,3212.007,0.00031,0.0,0.0
15.69,3213.535,0.00031,0.0,0.0
15.696,3193.78,0.00031,0.0,0.0
15.703,3197.201,0.00031,0.0,0.0
15.709,3188.15,0.00031,0.0,0.0
15.715,3189.834,0.00031,0.0,0.0
15.722,3191.622,0.00031,0.0,0.0
15.728,3190.92,0.00031,0.0,0.0
15.734,3181.067,0.00031,0.0,0.0
15.74,3174.134,0.00032,0.0,0.0
15.747,3182.665,0.00031,0.0,0.0
15.753,3175.03,0.00031,0.0,0.0
15.759,3174.665,0.00031,0.0,0.0
15.766,3182.567,0.00031,0.0,0.0
15.772,3161.17,0.00032,0.0,0.0
15.778,3175.679,0.00031,0.0,0.0
15.785,3160.814,0.00032,0.0,0.0
15.791,3162.591,0.00032,0.0,0.0
15.797,3149.005,0.00032,0.0,0.0
15.804,3147.997,0.00032,0.0,0.0
15.81,3148.997,0.00032,0.0,0.0
15.816,3153.885,0.00032,0.0,0.0
15.823,3163.875,0.00032,0.0,0.0
15.829,3149.127,0.00032,0.0,0.0
15.835,3154.294,0.00032,0.0,0.0
15.842,3166.696,0.00032,0.0,0.0
15.848,3197.126,0.00031,0.0,0.0
15.854,3160.803,0.00032,0.0,0.0
15.861,3150.405,0.00032,0.0,0.0
15.867,3153.365,0.00032,0.0,0.0
15.873,3140.144,0.00032,0.0,0.0
15.88,3138.129,0.00032,0.0,0.0
15.886,3137.295,0.00032,0.0,0.0
15.892,3140.104,0.00032,0.0,0.0
15.898,3131.935,0.00032,0.0,0.0
15.905,3126.059,0.00032,0.0,0.0
15.911,3135.417,0.00032,0.0,0.0
15.917,3122.548,0.00032,0.0,0.0
15.924,3128.454,0.00032,0.0,0.0
15.93,3112.165,0.00032,0.0,0.0
15.936,3125.305,0.00032,0.0,0.0
15.943,3130.707,0.00032,0.0,0.0
15.949,3116.282,0.00032,0.0,0.0
15.955,3111.308,0.00032,0.0,0.0
15.962,3121.955,0.00032,0.0,0.0
15.968,3108.342,0.00032,0.0,0.0
15.974,3105.845,0.00032,0.0,0.0
15.981,3117.271,0.00032,0.0,0.0
15.987,3114.018,0.00032,0.0,0.0
15.993,3116.962,0.00032,0.0,0.0
16.0,3116.593,0.00032,0.0,0.0
16.006,3111.772,0.00032,0.0,0.0
16.012,3102.977,0.00032,0.0,0.0
16.019,3089.258,0.00032,0.0,0.0
16.025,3101.85,0.00032,0.0,0.0
16.031,3108.724,0.00032,0.0,0.0
16.038,3094.822,0.00032,0.0,0.0
16.044,3105.847,0.00032,0.0,0.0
16.05,3094.001,0.00032,0.0,0.0
16.056,3088.081,0.00032,0.0,0.0
16.063,3097.504,0.00032,0.0,0.0
16.069,3093.862,0.00032,0.0,0.0
16.075,3095.096,0.00032,0.0,0.0
16.082,3094.772,0.00032,0.0,0.0
16.088,3099.902,0.00032,0.0,0.0
16.094,3106.691,0.00032,0.0,0.0
16.101,3091.803,0.00032,0.0,0.0
16.107,3095.578,0.00032,0.0,0.0
16.113,3100.743,0.00032,0.0,0.0
16.12,3087.666,0.00032,0.0,0.0
16.126,3103.187,0.00032,0.0,0.0
16.132,3096.112,0.00032,0.0,0.0
16.139,3092.752,0.00032,0.0,0.0
16.145,3098.596,0.00032,0.0,0.0
16.151,3083.42,0.00032,0.0,0.0
16.158,3092.838,0.00032,0.0,0.0
16.164,3090.309,0.00032,0.0,0.0
16.17,3087.511,0.00032,0.0,0.0
16.177,3087.878,0.00032,0.0,0.0
16.183,3100.277,0.00032,0.0,0.0
16.189,3092.747,0.00032,0.0,0.0
16.196,3089.294,0.00032,0.0,0.0
16.202,3096.684,0.00032,0.0,0.0
16.208,3083.726,0.00032,0.0,0.0
16.214,3098.85,0.00032,0.0,0.0
16.221,3087.29,0.00032,0.0,0.0
16.227,3087.471,0.00032,0.0,0.0
16.233,3090.182,0.00032,0.0,0.0
16.24,3087.002,0.00032,0.0,0.0
16.246,3093.824,0.00032,0.0,0.0
16.252,3084.549,0.00032,0.0,0.0
16.259,3087.991,0.00032,0.0,0.0
16.265,3090.059,0.00032,0.0,0.0
16.271,3071.758,0.00033,0.0,0.0
16.278,3078.32,0.00032,0.0,0.0
16.284,3090.303,0.00032,0.0,0.0
16.29,3081.498,0.00032,0.0,0.0
16.297,3089.005,0.00032,0.0,0.0
16.303,3077.904,0.00032,0.0,0.0
16.309,3085.155,0.00032,0.0,0.0
16.316,3075.226,0.00033,0.0,0.0
16.322,3084.405,0.00032,0.0,0.0
16.328,3082.598,0.00032,0.0,0.0
16.335,3084.666,0.00032,0.0,0.0
16.341,3087.172,0.00032,0.0,0.0
16.347,3094.023,0.00032,0.0,0.0
16.354,3087.322,0.00032,0.0,0.0
16.36,3082.562,0.00032,0.0,0.0
16.366,3085.779,0.00032,0.0,0.0
16.372,3087.204,0.00032,0.0,0.0
16.379,3078.524,0.00032,0.0,0.0
16.385,3077.217,0.00032,0.0,0.0
16.391,3074.406,0.00033,0.0,0.0
16.398,3083.168,0.00032,0.0,0.0
16.404,3074.96,0.00033,0.0,0.0
16.41,3064.193,0.00033,0.0,0.0
16.417,3089.253,0.00032,0.0,0.0
16.423,3072.871,0.00033,0.0,0.0
16.429,3072.951,0.00033,0.0,0.0
16.436,3076.022,0.00033,0.0,0.0
16.442,3084.9,0.00032,0.0,0.0
16.448,3083.305,0.00032,0.0,0.0
16.455,3077.627,0.00032,0.0,0.0
16.461,3084.757,0.00032,0.0,0.0
16.467,3095.613,0.00032,0.0,0.0
16.474,3097.349,0.00032,0.0,0.0
16.48,3095.16,0.00032,0.0,0.0
16.486,3098.839,0.00032,0.0,0.0
16.493,3113.979,0.00032,0.0,0.0
16.499,3121.956,0.00032,0.0,0.0
16.505,3138.949,0.00032,0.0,0.0
16.512,3149.212,0.00032,0.0,0.0
16.518,3162.009,0.00032,0.0,0.0
16.524,3175.356,0.00031,0.0,0.0
16.53,3146.621,0.00032,0.0,0.0
16.537,3152.573,0.00032,0.0,0.0
16.543,3132.125,0.00032,0.0,0.0
16.549,3111.146,0.00032,0.0,0.0
16.556,3103.238,0.00032,0.0,0.0
16.562,3111.026,0.00032,0.0,0.0
16.568,3110.942,0.00032,0.0,0.0
16.575,3106.0,0.00032,0.0,0.0
16.581,3107.038,0.00032,0.0,0.0
16.587,3109.734,0.00032,0.0,0.0
16.594,3114.7,0.00032,0.0,0.0
