"x","y_obs","weight","y_calc","y_bkg"
0.8,2784.94,0.00036,0.0,0.0
0.806,3213.351,0.00031,0.0,0.0
0.813,3333.464,0.0003,0.0,0.0
0.819,3180.051,0.00031,0.0,0.0
0.825,3810.692,0.00026,0.0,0.0
0.832,3596.174,0.00028,0.0,0.0
0.838,3842.395,0.00026,0.0,0.0
0.844,4200.122,0.00024,0.0,0.0
0.851,4036.048,0.00025,0.0,0.0
0.857,4391.494,0.00023,0.0,0.0
0.863,4817.712,0.00021,0.0,0.0
0.87,4407.168,0.00023,0.0,0.0
0.876,5181.579,0.00019,0.0,0.0
0.882,5044.745,0.0002,0.0,0.0
0.888,5285.305,0.00019,0.0,0.0
0.895,5524.722,0.00018,0.0,0.0
0.901,5497.393,0.00018,0.0,0.0
0.907,5944.393,0.00017,0.0,0.0
0.914,6088.471,0.00016,0.0,0.0
0.92,5786.753,0.00017,0.0,0.0
0.926,6386.142,0.00016,0.0,0.0
0.933,6432.824,0.00016,0.0,0.0
0.939,6206.098,0.00016,0.0,0.0
0.945,6786.118,0.00015,0.0,0.0
0.952,6432.491,0.00016,0.0,0.0
0.958,6802.174,0.00015,0.0,0.0
0.964,6768.649,0.00015,0.0,0.0
0.971,6542.359,0.00015,0.0,0.0
0.977,6982.906,0.00014,0.0,0.0
0.983,6966.68,0.00014,0.0,0.0
0.99,6757.164,0.00015,0.0,0.0
0.996,7055.245,0.00014,0.0,0.0
1.002,6800.44,0.00015,0.0,0.0
1.009,6975.66,0.00014,0.0,0.0
1.015,7130.254,0.00014,0.0,0.0
1.021,6897.695,0.00014,0.0,0.0
1.028,7182.496,0.00014,0.0,0.0
1.034,7031.502,0.00014,0.0,0.0
1.04,6972.983,0.00014,0.0,0.0
1.046,7060.306,0.00014,0.0,0.0
1.053,7025.516,0.00014,0.0,0.0
1.059,6952.115,0.00014,0.0,0.0
1.065,7073.012,0.00014,0.0,0.0
1.072,6876.89,0.00015,0.0,0.0
1.078,7024.626,0.00014,0.0,0.0
1.084,6825.703,0.00015,0.0,0.0
1.091,6854.82,0.00015,0.0,0.0
1.097,6863.639,0.00015,0.0,0.0
1.103,6833.163,0.00015,0.0,0.0
1.11,6798.653,0.00015,0.0,0.0
1.116,6776.529,0.00015,0.0,0.0
1.122,6675.48,0.00015,0.0,0.0
1.129,6722.06,0.00015,0.0,0.0
1.135,6648.365,0.00015,0.0,0.0
1.141,6631.306,0.00015,0.0,0.0
1.148,6586.045,0.00015,0.0,0.0
1.154,6503.234,0.00015,0.0,0.0
1.16,6493.805,0.00015,0.0,0.0
1.167,6467.525,0.00015,0.0,0.0
1.173,6427.796,0.00016,0.0,0.0
1.179,6417.881,0.00016,0.0,0.0
1.186,6308.981,0.00016,0.0,0.0
1.192,6249.598,0.00016,0.0,0.0
1.198,6281.528,0.00016,0.0,0.0
1.204,6171.468,0.00016,0.0,0.0
1.211,6184.733,0.00016,0.0,0.0
1.217,6149.463,0.00016,0.0,0.0
1.223,6093.308,0.00016,0.0,0.0
1.23,6053.346,0.00017,0.0,0.0
1.236,6028.934,0.00017,0.0,0.0
1.242,6011.365,0.00017,0.0,0.0
1.249,5952.966,0.00017,0.0,0.0
1.255,5982.654,0.00017,0.0,0.0
1.261,5904.831,0.00017,0.0,0.0
1.268,5908.217,0.00017,0.0,0.0
1.274,5846.834,0.00017,0.0,0.0
1.28,5859.027,0.00017,0.0,0.0
1.287,5850.142,0.00017,0.0,0.0
1.293,5835.154,0.00017,0.0,0.0
1.299,5777.299,0.00017,0.0,0.0
1.306,5771.878,0.00017,0.0,0.0
1.312,5724.577,0.00017,0.0,0.0
1.318,5710.138,0.00018,0.0,0.0
1.325,5656.348,0.00018,0.0,0.0
1.331,5717.264,0.00017,0.0,0.0
1.337,5659.448,0.00018,0.0,0.0
1.344,5617.584,0.00018,0.0,0.0
1.35,5666.865,0.00018,0.0,0.0
1.356,5614.628,0.00018,0.0,0.0
1.362,5582.697,0.00018,0.0,0.0
1.369,5587.399,0.00018,0.0,0.0
1.375,5583.154,0.00018,0.0,0.0
1.381,5569.269,0.00018,0.0,0.0
1.388,5586.637,0.00018,0.0,0.0
1.394,5492.545,0.00018,0.0,0.0
1.4,5563.066,0.00018,0.0,0.0
1.407,5535.631,0.00018,0.0,0.0
1.413,5555.467,0.00018,0.0,0.0
1.419,5516.301,0.00018,0.0,0.0
1.426,5490.593,0.00018,0.0,0.0
1.432,5506.766,0.00018,0.0,0.0
1.438,5455.275,0.00018,0.0,0.0
1.445,5479.987,0.00018,0.0,0.0
1.451,5530.334,0.00018,0.0,0.0
1.457,5487.242,0.00018,0.0,0.0
1.464,5481.996,0.00018,0.0,0.0
1.47,5472.533,0.00018,0.0,0.0
1.476,5469.733,0.00018,0.0,0.0
1.483,5464.152,0.00018,0.0,0.0
1.489,5483.025,0.00018,0.0,0.0
1.495,5466.051,0.00018,0.0,0.0
1.502,5457.952,0.00018,0.0,0.0
1.508,5442.347,0.00018,0.0,0.0
1.514,5435.902,0.00018,0.0,0.0
1.52,5457.767,0.00018,0.0,0.0
1.527,5478.919,0.00018,0.0,0.0
1.533,5467.781,0.00018,0.0,0.0
1.539,5404.36,0.00019,0.0,0.0
1.546,5470.353,0.00018,0.0,0.0
1.552,5493.495,0.00018,0.0,0.0
1.558,5440.271,0.00018,0.0,0.0
1.565,5476.005,0.00018,0.0,0.0
1.571,5491.044,0.00018,0.0,0.0
1.577,5512.018,0.00018,0.0,0.0
1.584,5507.299,0.00018,0.0,0.0
1.59,5523.532,0.00018,0.0,0.0
1.596,5496.93,0.00018,0.0,0.0
1.603,5564.035,0.00018,0.0,0.0
1.609,5547.543,0.00018,0.0,0.0
1.615,5558.509,0.00018,0.0,0.0
1.622,5544.106,0.00018,0.0,0.0
1.628,5572.902,0.00018,0.0,0.0
1.634,5582.276,0.00018,0.0,0.0
1.641,5589.272,0.00018,0.0,0.0
1.647,5597.28,0.00018,0.0,0.0
1.653,5652.489,0.00018,0.0,0.0
1.66,5634.552,0.00018,0.0,0.0
1.666,5609.189,0.00018,0.0,0.0
1.672,5681.191,0.00018,0.0,0.0
1.678,5696.824,0.00018,0.0,0.0
1.685,5664.753,0.00018,0.0,0.0
1.691,5667.532,0.00018,0.0,0.0
1.697,5716.689,0.00017,0.0,0.0
1.704,5705.385,0.00018,0.0,0.0
1.71,5717.635,0.00017,0.0,0.0
1.716,5737.305,0.00017,0.0,0.0
1.723,5750.859,0.00017,0.0,0.0
1.729,5764.627,0.00017,0.0,0.0
1.735,5743.942,0.00017,0.0,0.0
1.742,5783.058,0.00017,0.0,0.0
1.748,5781.612,0.00017,0.0,0.0
1.754,5806.417,0.00017,0.0,0.0
1.761,5810.721,0.00017,0.0,0.0
1.767,5803.637,0.00017,0.0,0.0
1.773,5841.314,0.00017,0.0,0.0
1.78,5812.719,0.00017,0.0,0.0
1.786,5830.66,0.00017,0.0,0.0
1.792,5798.752,0.00017,0.0,0.0
1.799,5824.989,0.00017,0.0,0.0
1.805,5838.169,0.00017,0.0,0.0
1.811,5825.959,0.00017,0.0,0.0
1.818,5876.217,0.00017,0.0,0.0
1.824,5815.335,0.00017,0.0,0.0
1.83,5832.407,0.00017,0.0,0.0
1.836,5820.949,0.00017,0.0,0.0
1.843,5848.297,0.00017,0.0,0.0
1.849,5838.523,0.00017,0.0,0.0
1.855,5826.786,0.00017,0.0,0.0
1.862,5840.976,0.00017,0.0,0.0
1.868,5889.012,0.00017,0.0,0.0
1.874,5886.651,0.00017,0.0,0.0
1.881,5877.208,0.00017,0.0,0.0
1.887,5871.836,0.00017,0.0,0.0
1.893,5872.126,0.00017,0.0,0.0
1.9,5853.92,0.00017,0.0,0.0
1.906,5886.306,0.00017,0.0,0.0
1.912,5880.387,0.00017,0.0,0.0
1.919,5840.85,0.00017,0.0,0.0
1.925,5877.352,0.00017,0.0,0.0
1.931,5856.184,0.00017,0.0,0.0
1.938,5861.117,0.00017,0.0,0.0
1.944,5857.373,0.00017,0.0,0.0
1.95,5859.878,0.00017,0.0,0.0
1.957,5853.21,0.00017,0.0,0.0
1.963,5819.38,0.00017,0.0,0.0
1.969,5804.489,0.00017,0.0,0.0
1.976,5867.043,0.00017,0.0,0.0
1.982,5856.053,0.00017,0.0,0.0
1.988,5862.435,0.00017,0.0,0.0
1.994,5855.302,0.00017,0.0,0.0
2.001,5851.262,0.00017,0.0,0.0
2.007,5865.519,0.00017,0.0,0.0
2.013,5838.026,0.00017,0.0,0.0
2.02,5828.375,0.00017,0.0,0.0
2.026,5844.992,0.00017,0.0,0.0
2.032,5858.728,0.00017,0.0,0.0
2.039,5858.745,0.00017,0.0,0.0
2.045,5870.098,0.00017,0.0,0.0
2.051,5855.584,0.00017,0.0,0.0
2.058,5866.288,0.00017,0.0,0.0
2.064,5874.579,0.00017,0.0,0.0
2.07,5902.139,0.00017,0.0,0.0
2.077,5874.288,0.00017,0.0,0.0
2.083,5871.196,0.00017,0.0,0.0
2.089,5848.486,0.00017,0.0,0.0
2.096,5898.856,0.00017,0.0,0.0
2.102,5878.173,0.00017,0.0,0.0
2.108,5907.633,0.00017,0.0,0.0
2.115,5906.347,0.00017,0.0,0.0
2.121,5911.315,0.00017,0.0,0.0
2.127,5920.521,0.00017,0.0,0.0
2.134,5950.099,0.00017,0.0,0.0
2.14,5930.524,0.00017,0.0,0.0
2.146,5953.283,0.00017,0.0,0.0
2.152,5996.624,0.00017,0.0,0.0
2.159,5953.379,0.00017,0.0,0.0
2.165,5972.649,0.00017,0.0,0.0
2.171,5974.539,0.00017,0.0,0.0
2.178,5989.748,0.00017,0.0,0.0
2.184,6026.617,0.00017,0.0,0.0
2.19,5992.09,0.00017,0.0,0.0
2.197,6009.969,0.00017,0.0,0.0
2.203,6025.06,0.00017,0.0,0.0
2.209,6026.361,0.00017,0.0,0.0
2.216,6058.675,0.00017,0.0,0.0
2.222,6066.451,0.00016,0.0,0.0
2.228,6079.756,0.00016,0.0,0.0
2.235,6093.918,0.00016,0.0,0.0
2.241,6075.356,0.00016,0.0,0.0
2.247,6122.312,0.00016,0.0,0.0
2.254,6132.473,0.00016,0.0,0.0
2.26,6153.502,0.00016,0.0,0.0
2.266,6154.557,0.00016,0.0,0.0
2.273,6198.672,0.00016,0.0,0.0
2.279,6180.024,0.00016,0.0,0.0
2.285,6235.935,0.00016,0.0,0.0
2.292,6217.426,0.00016,0.0,0.0
2.298,6208.014,0.00016,0.0,0.0
2.304,6266.531,0.00016,0.0,0.0
2.31,6274.87,0.00016,0.0,0.0
2.317,6279.475,0.00016,0.0,0.0
2.323,6297.014,0.00016,0.0,0.0
2.329,6280.498,0.00016,0.0,0.0
2.336,6321.139,0.00016,0.0,0.0
2.342,6350.533,0.00016,0.0,0.0
2.348,6364.346,0.00016,0.0,0.0
2.355,6410.387,0.00016,0.0,0.0
2.361,6412.26,0.00016,0.0,0.0
2.367,6468.922,0.00015,0.0,0.0
2.374,6454.297,0.00015,0.0,0.0
2.38,6526.23,0.00015,0.0,0.0
2.386,6507.043,0.00015,0.0,0.0
2.393,6586.456,0.00015,0.0,0.0
2.399,6648.344,0.00015,0.0,0.0
2.405,6735.406,0.00015,0.0,0.0
2.412,6823.351,0.00015,0.0,0.0
2.418,6967.261,0.00014,0.0,0.0
2.424,6986.807,0.00014,0.0,0.0
2.431,7066.465,0.00014,0.0,0.0
2.437,7038.203,0.00014,0.0,0.0
2.443,6949.046,0.00014,0.0,0.0
2.45,6956.545,0.00014,0.0,0.0
2.456,6841.181,0.00015,0.0,0.0
2.462,6844.23,0.00015,0.0,0.0
2.468,6844.174,0.00015,0.0,0.0
2.475,6823.415,0.00015,0.0,0.0
2.481,6836.894,0.00015,0.0,0.0
2.487,6889.096,0.00015,0.0,0.0
2.494,6877.33,0.00015,0.0,0.0
2.5,6907.325,0.00014,0.0,0.0
2.506,6934.28,0.00014,0.0,0.0
2.513,6942.985,0.00014,0.0,0.0
2.519,6940.849,0.00014,0.0,0.0
2.525,6997.906,0.00014,0.0,0.0
2.532,7010.009,0.00014,0.0,0.0
2.538,7072.723,0.00014,0.0,0.0
2.544,7060.886,0.00014,0.0,0.0
2.551,7081.509,0.00014,0.0,0.0
2.557,7115.746,0.00014,0.0,0.0
2.563,7126.335,0.00014,0.0,0.0
2.57,7136.017,0.00014,0.0,0.0
2.576,7190.174,0.00014,0.0,0.0
2.582,7210.043,0.00014,0.0,0.0
2.589,7240.971,0.00014,0.0,0.0
2.595,7242.224,0.00014,0.0,0.0
2.601,7274.347,0.00014,0.0,0.0
2.608,7298.933,0.00014,0.0,0.0
2.614,7287.218,0.00014,0.0,0.0
2.62,7346.524,0.00014,0.0,0.0
2.626,7382.843,0.00014,0.0,0.0
2.633,7381.483,0.00014,0.0,0.0
2.639,7427.84,0.00013,0.0,0.0
2.645,7475.75,0.00013,0.0,0.0
2.652,7468.53,0.00013,0.0,0.0
2.658,7481.178,0.00013,0.0,0.0
2.664,7495.389,0.00013,0.0,0.0
2.671,7536.493,0.00013,0.0,0.0
2.677,7565.068,0.00013,0.0,0.0
2.683,7578.145,0.00013,0.0,0.0
2.69,7594.015,0.00013,0.0,0.0
2.696,7605.005,0.00013,0.0,0.0
2.702,7669.389,0.00013,0.0,0.0
2.709,7674.591,0.00013,0.0,0.0
2.715,7717.271,0.00013,0.0,0.0
2.721,7713.259,0.00013,0.0,0.0
2.728,7739.365,0.00013,0.0,0.0
2.734,7767.743,0.00013,0.0,0.0
2.74,7814.697,0.00013,0.0,0.0
2.747,7794.563,0.00013,0.0,0.0
2.753,7857.305,0.00013,0.0,0.0
2.759,7896.674,0.00013,0.0,0.0
2.766,7924.788,0.00013,0.0,0.0
2.772,7937.242,0.00013,0.0,0.0
2.778,7969.899,0.00013,0.0,0.0
2.784,7973.502,0.00013,0.0,0.0
2.791,8004.599,0.00012,0.0,0.0
2.797,8022.805,0.00012,0.0,0.0
2.803,8049.147,0.00012,0.0,0.0
2.81,8082.216,0.00012,0.0,0.0
2.816,8097.925,0.00012,0.0,0.0
2.822,8137.425,0.00012,0.0,0.0
2.829,8158.506,0.00012,0.0,0.0
2.835,8189.978,0.00012,0.0,0.0
2.841,8231.48,0.00012,0.0,0.0
2.848,8250.98,0.00012,0.0,0.0
2.854,8265.642,0.00012,0.0,0.0
2.86,8281.115,0.00012,0.0,0.0
2.867,8332.862,0.00012,0.0,0.0
2.873,8325.697,0.00012,0.0,0.0
2.879,8361.242,0.00012,0.0,0.0
2.886,8385.559,0.00012,0.0,0.0
2.892,8406.463,0.00012,0.0,0.0
2.898,8431.117,0.00012,0.0,0.0
2.905,8470.674,0.00012,0.0,0.0
2.911,8472.133,0.00012,0.0,0.0
2.917,8508.563,0.00012,0.0,0.0
2.924,8506.888,0.00012,0.0,0.0
2.93,8534.931,0.00012,0.0,0.0
2.936,8555.22,0.00012,0.0,0.0
2.942,8560.763,0.00012,0.0,0.0
2.949,8594.303,0.00012,0.0,0.0
2.955,8617.47,0.00012,0.0,0.0
2.961,8606.289,0.00012,0.0,0.0
2.968,8654.563,0.00012,0.0,0.0
2.974,8654.25,0.00012,0.0,0.0
2.98,8686.354,0.00012,0.0,0.0
2.987,8703.49,0.00011,0.0,0.0
2.993,8696.414,0.00011,0.0,0.0
2.999,8755.515,0.00011,0.0,0.0
3.006,8738.431,0.00011,0.0,0.0
3.012,8773.09,0.00011,0.0,0.0
3.018,8773.398,0.00011,0.0,0.0
3.025,8791.741,0.00011,0.0,0.0
3.031,8772.716,0.00011,0.0,0.0
3.037,8817.796,0.00011,0.0,0.0
3.044,8802.172,0.00011,0.0,0.0
3.05,8826.993,0.00011,0.0,0.0
3.056,8824.692,0.00011,0.0,0.0
3.063,8834.176,0.00011,0.0,0.0
3.069,8834.131,0.00011,0.0,0.0
3.075,8834.398,0.00011,0.0,0.0
3.082,8870.034,0.00011,0.0,0.0
3.088,8860.893,0.00011,0.0,0.0
3.094,8851.886,0.00011,0.0,0.0
3.1,8865.127,0.00011,0.0,0.0
3.107,8869.035,0.00011,0.0,0.0
3.113,8850.763,0.00011,0.0,0.0
3.119,8850.503,0.00011,0.0,0.0
3.126,8867.13,0.00011,0.0,0.0
3.132,8881.298,0.00011,0.0,0.0
3.138,8838.252,0.00011,0.0,0.0
3.145,8829.385,0.00011,0.0,0.0
3.151,8846.212,0.00011,0.0,0.0
3.157,8863.826,0.00011,0.0,0.0
3.164,8825.093,0.00011,0.0,0.0
3.17,8821.799,0.00011,0.0,0.0
3.176,8800.579,0.00011,0.0,0.0
3.183,8801.283,0.00011,0.0,0.0
3.189,8786.786,0.00011,0.0,0.0
3.195,8778.513,0.00011,0.0,0.0
3.202,8784.589,0.00011,0.0,0.0
3.208,8757.145,0.00011,0.0,0.0
3.214,8749.815,0.00011,0.0,0.0
3.221,8750.678,0.00011,0.0,0.0
3.227,8763.045,0.00011,0.0,0.0
3.233,8708.155,0.00011,0.0,0.0
3.24,8732.049,0.00011,0.0,0.0
3.246,8707.19,0.00011,0.0,0.0
3.252,8701.874,0.00011,0.0,0.0
3.258,8662.273,0.00012,0.0,0.0
3.265,8654.031,0.00012,0.0,0.0
3.271,8638.955,0.00012,0.0,0.0
3.277,8633.896,0.00012,0.0,0.0
3.284,8613.315,0.00012,0.0,0.0
3.29,8623.877,0.00012,0.0,0.0
3.296,8570.613,0.00012,0.0,0.0
3.303,8568.775,0.00012,0.0,0.0
3.309,8580.898,0.00012,0.0,0.0
3.315,8543.375,0.00012,0.0,0.0
3.322,8550.709,0.00012,0.0,0.0
3.328,8525.204,0.00012,0.0,0.0
3.334,8503.964,0.00012,0.0,0.0
3.341,8497.143,0.00012,0.0,0.0
3.347,8492.99,0.00012,0.0,0.0
3.353,8473.643,0.00012,0.0,0.0
3.36,8428.127,0.00012,0.0,0.0
3.366,8414.15,0.00012,0.0,0.0
3.372,8407.923,0.00012,0.0,0.0
3.379,8393.247,0.00012,0.0,0.0
3.385,8403.139,0.00012,0.0,0.0
3.391,8377.661,0.00012,0.0,0.0
3.398,8366.212,0.00012,0.0,0.0
3.404,8369.453,0.00012,0.0,0.0
3.41,8344.144,0.00012,0.0,0.0
3.416,8348.991,0.00012,0.0,0.0
3.423,8338.616,0.00012,0.0,0.0
3.429,8302.509,0.00012,0.0,0.0
3.435,8325.437,0.00012,0.0,0.0
3.442,8302.6,0.00012,0.0,0.0
3.448,8282.275,0.00012,0.0,0.0
3.454,8267.933,0.00012,0.0,0.0
3.461,8223.701,0.00012,0.0,0.0
3.467,8237.975,0.00012,0.0,0.0
3.473,8221.577,0.00012,0.0,0.0
3.48,8212.467,0.00012,0.0,0.0
3.486,8186.565,0.00012,0.0,0.0
3.492,8186.033,0.00012,0.0,0.0
3.499,8161.823,0.00012,0.0,0.0
3.505,8140.259,0.00012,0.0,0.0
3.511,8150.739,0.00012,0.0,0.0
3.518,8150.225,0.00012,0.0,0.0
3.524,8144.088,0.00012,0.0,0.0
3.53,8107.412,0.00012,0.0,0.0
3.537,8125.467,0.00012,0.0,0.0
3.543,8101.547,0.00012,0.0,0.0
3.549,8094.853,0.00012,0.0,0.0
3.556,8066.908,0.00012,0.0,0.0
3.562,8077.523,0.00012,0.0,0.0
3.568,8071.704,0.00012,0.0,0.0
3.574,8102.052,0.00012,0.0,0.0
3.581,8082.814,0.00012,0.0,0.0
3.587,8078.747,0.00012,0.0,0.0
3.593,8096.688,0.00012,0.0,0.0
3.6,8066.506,0.00012,0.0,0.0
3.606,8063.561,0.00012,0.0,0.0
3.612,8064.974,0.00012,0.0,0.0
3.619,8053.254,0.00012,0.0,0.0
3.625,8056.188,0.00012,0.0,0.0
3.631,8055.035,0.00012,0.0,0.0
3.638,8048.119,0.00012,0.0,0.0
3.644,8049.294,0.00012,0.0,0.0
3.65,8064.528,0.00012,0.0,0.0
3.657,8065.769,0.00012,0.0,0.0
3.663,8031.645,0.00012,0.0,0.0
3.669,8051.202,0.00012,0.0,0.0
3.676,8059.796,0.00012,0.0,0.0
3.682,8072.918,0.00012,0.0,0.0
3.688,8035.391,0.00012,0.0,0.0
3.695,8044.887,0.00012,0.0,0.0
3.701,8075.572,0.00012,0.0,0.0
3.707,8075.687,0.00012,0.0,0.0
3.714,8047.426,0.00012,0.0,0.0
3.72,8064.319,0.00012,0.0,0.0
3.726,8066.646,0.00012,0.0,0.0
3.732,8051.251,0.00012,0.0,0.0
3.739,8057.865,0.00012,0.0,0.0
3.745,8064.767,0.00012,0.0,0.0
3.751,8060.745,0.00012,0.0,0.0
3.758,8051.087,0.00012,0.0,0.0
3.764,8068.998,0.00012,0.0,0.0
3.77,8048.993,0.00012,0.0,0.0
3.777,8053.886,0.00012,0.0,0.0
3.783,8055.174,0.00012,0.0,0.0
3.789,8041.562,0.00012,0.0,0.0
3.796,8067.589,0.00012,0.0,0.0
3.802,8066.61,0.00012,0.0,0.0
3.808,8076.698,0.00012,0.0,0.0
3.815,8046.289,0.00012,0.0,0.0
3.821,8077.06,0.00012,0.0,0.0
3.827,8074.74,0.00012,0.0,0.0
3.834,8065.322,0.00012,0.0,0.0
3.84,8063.399,0.00012,0.0,0.0
3.846,8046.993,0.00012,0.0,0.0
3.853,8088.314,0.00012,0.0,0.0
3.859,8086.647,0.00012,0.0,0.0
3.865,8104.773,0.00012,0.0,0.0
3.872,8074.018,0.00012,0.0,0.0
3.878,8093.901,0.00012,0.0,0.0
3.884,8045.49,0.00012,0.0,0.0
3.89,8054.82,0.00012,0.0,0.0
3.897,8057.195,0.00012,0.0,0.0
3.903,8056.837,0.00012,0.0,0.0
3.909,8065.207,0.00012,0.0,0.0
3.916,8072.898,0.00012,0.0,0.0
3.922,8057.137,0.00012,0.0,0.0
3.928,8044.655,0.00012,0.0,0.0
3.935,8049.032,0.00012,0.0,0.0
3.941,8061.124,0.00012,0.0,0.0
3.947,8054.721,0.00012,0.0,0.0
3.954,8085.407,0.00012,0.0,0.0
3.96,8078.675,0.00012,0.0,0.0
3.966,8063.232,0.00012,0.0,0.0
3.973,8132.398,0.00012,0.0,0.0
3.979,8082.335,0.00012,0.0,0.0
3.985,8080.036,0.00012,0.0,0.0
3.992,8036.289,0.00012,0.0,0.0
3.998,8025.472,0.00012,0.0,0.0
4.004,8034.427,0.00012,0.0,0.0
4.011,8051.115,0.00012,0.0,0.0
4.017,8022.908,0.00012,0.0,0.0
4.023,8045.771,0.00012,0.0,0.0
4.03,8056.313,0.00012,0.0,0.0
4.036,8031.485,0.00012,0.0,0.0
4.042,8043.508,0.00012,0.0,0.0
4.048,8062.069,0.00012,0.0,0.0
4.055,8030.576,0.00012,0.0,0.0
4.061,8064.095,0.00012,0.0,0.0
4.067,8054.933,0.00012,0.0,0.0
4.074,8076.616,0.00012,0.0,0.0
4.08,8101.492,0.00012,0.0,0.0
4.086,8070.822,0.00012,0.0,0.0
4.093,8116.155,0.00012,0.0,0.0
4.099,8081.201,0.00012,0.0,0.0
4.105,8101.904,0.00012,0.0,0.0
4.112,8119.201,0.00012,0.0,0.0
4.118,8130.465,0.00012,0.0,0.0
4.124,8132.154,0.00012,0.0,0.0
4.131,8149.803,0.00012,0.0,0.0
4.137,8145.444,0.00012,0.0,0.0
4.143,8161.634,0.00012,0.0,0.0
4.15,8184.291,0.00012,0.0,0.0
4.156,8190.082,0.00012,0.0,0.0
4.162,8233.609,0.00012,0.0,0.0
4.169,8208.782,0.00012,0.0,0.0
4.175,8259.633,0.00012,0.0,0.0
4.181,8285.674,0.00012,0.0,0.0
4.188,8272.64,0.00012,0.0,0.0
4.194,8334.668,0.00012,0.0,0.0
4.2,8334.989,0.00012,0.0,0.0
4.206,8342.98,0.00012,0.0,0.0
4.213,8393.96,0.00012,0.0,0.0
4.219,8395.691,0.00012,0.0,0.0
4.225,8446.766,0.00012,0.0,0.0
4.232,8445.522,0.00012,0.0,0.0
4.238,8427.544,0.00012,0.0,0.0
4.244,8497.004,0.00012,0.0,0.0
4.251,8495.222,0.00012,0.0,0.0
4.257,8524.043,0.00012,0.0,0.0
4.263,8601.688,0.00012,0.0,0.0
4.27,8567.468,0.00012,0.0,0.0
4.276,8699.922,0.00011,0.0,0.0
4.282,8689.2,0.00012,0.0,0.0
4.289,8677.017,0.00012,0.0,0.0
4.295,8796.664,0.00011,0.0,0.0
4.301,8738.268,0.00011,0.0,0.0
4.308,8798.791,0.00011,0.0,0.0
4.314,8881.829,0.00011,0.0,0.0
4.32,8864.496,0.00011,0.0,0.0
4.327,8950.286,0.00011,0.0,0.0
4.333,8947.959,0.00011,0.0,0.0
4.339,8994.668,0.00011,0.0,0.0
4.346,9133.667,0.00011,0.0,0.0
4.352,9094.205,0.00011,0.0,0.0
4.358,9242.868,0.00011,0.0,0.0
4.364,9282.563,0.00011,0.0,0.0
4.371,9182.064,0.00011,0.0,0.0
4.377,9549.094,0.0001,0.0,0.0
4.383,9422.763,0.00011,0.0,0.0
4.39,9564.51,0.0001,0.0,0.0
4.396,9686.858,0.0001,0.0,0.0
4.402,9625.716,0.0001,0.0,0.0
4.409,9747.073,0.0001,0.0,0.0
4.415,9934.223,0.0001,0.0,0.0
4.421,9894.089,0.0001,0.0,0.0
4.428,10247.374,0.0001,0.0,0.0
4.434,10158.737,0.0001,0.0,0.0
4.44,10263.042,0.0001,0.0,0.0
4.447,10519.637,0.0001,0.0,0.0
4.453,10454.031,0.0001,0.0,0.0
4.459,10974.74,0.00009,0.0,0.0
4.466,11042.258,0.00009,0.0,0.0
4.472,11088.302,0.00009,0.0,0.0
4.478,11760.669,0.00009,0.0,0.0
4.485,11654.055,0.00009,0.0,0.0
4.491,12180.22,0.00008,0.0,0.0
4.497,13368.517,0.00007,0.0,0.0
4.504,13153.594,0.00008,0.0,0.0
4.51,16084.048,0.00006,0.0,0.0
4.516,16976.464,0.00006,0.0,0.0
4.522,19271.08,0.00005,0.0,0.0
4.529,28189.6,0.00004,0.0,0.0
4.535,39687.583,0.00003,0.0,0.0
4.541,54314.03,0.00002,0.0,0.0
4.548,89997.731,0.00001,0.0,0.0
4.554,72469.29,0.00001,0.0,0.0
4.56,99056.435,0.00001,0.0,0.0
4.567,86505.451,0.00001,0.0,0.0
4.573,81755.332,0.00001,0.0,0.0
4.579,72442.03,0.00001,0.0,0.0
4.586,49110.126,0.00002,0.0,0.0
4.592,46861.06,0.00002,0.0,0.0
4.598,29974.81,0.00003,0.0,0.0
4.605,24895.406,0.00004,0.0,0.0
4.611,18875.697,0.00005,0.0,0.0
4.617,16207.864,0.00006,0.0,0.0
4.624,13963.577,0.00007,0.0,0.0
4.63,13779.354,0.00007,0.0,0.0
4.636,12186.573,0.00008,0.0,0.0
4.643,12262.43,0.00008,0.0,0.0
4.649,11703.608,0.00009,0.0,0.0
4.655,11275.95,0.00009,0.0,0.0
4.662,11466.392,0.00009,0.0,0.0
4.668,10878.191,0.00009,0.0,0.0
4.674,10607.726,0.00009,0.0,0.0
4.68,10836.181,0.00009,0.0,0.0
4.687,10272.29,0.0001,0.0,0.0
4.693,10379.131,0.0001,0.0,0.0
4.699,10257.869,0.0001,0.0,0.0
4.706,9959.795,0.0001,0.0,0.0
4.712,10134.274,0.0001,0.0,0.0
4.718,9838.245,0.0001,0.0,0.0
4.725,9641.521,0.0001,0.0,0.0
4.731,9896.71,0.0001,0.0,0.0
4.737,9512.24,0.00011,0.0,0.0
4.744,9578.27,0.0001,0.0,0.0
4.75,9457.036,0.00011,0.0,0.0
4.756,9299.014,0.00011,0.0,0.0
4.763,9334.924,0.00011,0.0,0.0
4.769,9176.158,0.00011,0.0,0.0
4.775,9150.171,0.00011,0.0,0.0
4.782,9133.815,0.00011,0.0,0.0
4.788,8970.091,0.00011,0.0,0.0
4.794,8925.12,0.00011,0.0,0.0
4.801,8909.695,0.00011,0.0,0.0
4.807,8745.916,0.00011,0.0,0.0
4.813,8817.306,0.00011,0.0,0.0
4.82,8724.546,0.00011,0.0,0.0
4.826,8698.856,0.00011,0.0,0.0
4.832,8744.698,0.00011,0.0,0.0
4.838,8703.153,0.00011,0.0,0.0
4.845,8730.187,0.00011,0.0,0.0
4.851,8861.892,0.00011,0.0,0.0
4.857,8845.755,0.00011,0.0,0.0
4.864,8859.902,0.00011,0.0,0.0
4.87,8765.2,0.00011,0.0,0.0
4.876,8573.83,0.00012,0.0,0.0
4.883,8524.819,0.00012,0.0,0.0
4.889,8306.629,0.00012,0.0,0.0
4.895,8254.453,0.00012,0.0,0.0
4.902,8164.319,0.00012,0.0,0.0
4.908,8074.16,0.00012,0.0,0.0
4.914,8066.77,0.00012,0.0,0.0
4.921,7963.221,0.00013,0.0,0.0
4.927,7920.833,0.00013,0.0,0.0
4.933,7928.187,0.00013,0.0,0.0
4.94,7829.149,0.00013,0.0,0.0
4.946,7823.186,0.00013,0.0,0.0
4.952,7798.157,0.00013,0.0,0.0
4.959,7725.719,0.00013,0.0,0.0
4.965,7733.83,0.00013,0.0,0.0
4.971,7672.156,0.00013,0.0,0.0
4.978,7658.964,0.00013,0.0,0.0
4.984,7647.369,0.00013,0.0,0.0
4.99,7573.098,0.00013,0.0,0.0
4.996,7535.279,0.00013,0.0,0.0
5.003,7531.823,0.00013,0.0,0.0
5.009,7461.235,0.00013,0.0,0.0
5.015,7489.88,0.00013,0.0,0.0
5.022,7422.6,0.00013,0.0,0.0
5.028,7400.157,0.00014,0.0,0.0
5.034,7395.661,0.00014,0.0,0.0
5.041,7330.643,0.00014,0.0,0.0
5.047,7312.843,0.00014,0.0,0.0
5.053,7314.454,0.00014,0.0,0.0
5.06,7252.453,0.00014,0.0,0.0
5.066,7255.264,0.00014,0.0,0.0
5.072,7224.842,0.00014,0.0,0.0
5.079,7170.326,0.00014,0.0,0.0
5.085,7192.533,0.00014,0.0,0.0
5.091,7099.969,0.00014,0.0,0.0
5.098,7117.974,0.00014,0.0,0.0
5.104,7093.186,0.00014,0.0,0.0
5.11,7064.291,0.00014,0.0,0.0
5.117,7054.557,0.00014,0.0,0.0
5.123,7016.046,0.00014,0.0,0.0
5.129,6986.251,0.00014,0.0,0.0
5.136,6997.625,0.00014,0.0,0.0
5.142,6967.844,0.00014,0.0,0.0
5.148,6956.547,0.00014,0.0,0.0
5.154,6948.167,0.00014,0.0,0.0
5.161,6909.511,0.00014,0.0,0.0
5.167,6915.344,0.00014,0.0,0.0
5.173,6854.495,0.00015,0.0,0.0
5.18,6848.225,0.00015,0.0,0.0
5.186,6845.336,0.00015,0.0,0.0
5.192,6814.431,0.00015,0.0,0.0
5.199,6780.955,0.00015,0.0,0.0
5.205,6800.067,0.00015,0.0,0.0
5.211,6767.065,0.00015,0.0,0.0
5.218,6764.585,0.00015,0.0,0.0
5.224,6737.086,0.00015,0.0,0.0
5.23,6703.613,0.00015,0.0,0.0
5.237,6728.588,0.00015,0.0,0.0
5.243,6659.497,0.00015,0.0,0.0
5.249,6684.59,0.00015,0.0,0.0
5.256,6661.454,0.00015,0.0,0.0
5.262,6616.558,0.00015,0.0,0.0
5.268,6641.195,0.00015,0.0,0.0
5.275,6609.927,0.00015,0.0,0.0
5.281,6593.852,0.00015,0.0,0.0
5.287,6583.398,0.00015,0.0,0.0
5.294,6532.443,0.00015,0.0,0.0
5.3,6573.721,0.00015,0.0,0.0
5.306,6540.669,0.00015,0.0,0.0
5.312,6498.309,0.00015,0.0,0.0
5.319,6508.877,0.00015,0.0,0.0
5.325,6491.546,0.00015,0.0,0.0
5.331,6479.4,0.00015,0.0,0.0
5.338,6496.297,0.00015,0.0,0.0
5.344,6472.835,0.00015,0.0,0.0
5.35,6452.203,0.00015,0.0,0.0
5.357,6447.765,0.00016,0.0,0.0
5.363,6416.031,0.00016,0.0,0.0
5.369,6454.902,0.00015,0.0,0.0
5.376,6389.012,0.00016,0.0,0.0
5.382,6408.21,0.00016,0.0,0.0
5.388,6390.264,0.00016,0.0,0.0
5.395,6387.978,0.00016,0.0,0.0
5.401,6383.088,0.00016,0.0,0.0
5.407,6367.693,0.00016,0.0,0.0
5.414,6340.256,0.00016,0.0,0.0
5.42,6368.329,0.00016,0.0,0.0
5.426,6334.899,0.00016,0.0,0.0
5.433,6334.437,0.00016,0.0,0.0
5.439,6358.663,0.00016,0.0,0.0
5.445,6314.436,0.00016,0.0,0.0
5.452,6355.533,0.00016,0.0,0.0
5.458,6292.418,0.00016,0.0,0.0
5.464,6327.364,0.00016,0.0,0.0
5.47,6315.702,0.00016,0.0,0.0
5.477,6296.522,0.00016,0.0,0.0
5.483,6290.229,0.00016,0.0,0.0
5.489,6288.533,0.00016,0.0,0.0
5.496,6271.786,0.00016,0.0,0.0
5.502,6286.907,0.00016,0.0,0.0
5.508,6259.976,0.00016,0.0,0.0
5.515,6266.02,0.00016,0.0,0.0
5.521,6255.779,0.00016,0.0,0.0
5.527,6246.746,0.00016,0.0,0.0
5.534,6247.761,0.00016,0.0,0.0
5.54,6237.63,0.00016,0.0,0.0
5.546,6226.151,0.00016,0.0,0.0
5.553,6246.681,0.00016,0.0,0.0
5.559,6203.236,0.00016,0.0,0.0
5.565,6204.127,0.00016,0.0,0.0
5.572,6210.737,0.00016,0.0,0.0
5.578,6191.749,0.00016,0.0,0.0
5.584,6200.869,0.00016,0.0,0.0
5.591,6167.46,0.00016,0.0,0.0
5.597,6175.536,0.00016,0.0,0.0
5.603,6168.99,0.00016,0.0,0.0
5.61,6141.353,0.00016,0.0,0.0
5.616,6159.686,0.00016,0.0,0.0
5.622,6168.979,0.00016,0.0,0.0
5.628,6152.27,0.00016,0.0,0.0
5.635,6151.943,0.00016,0.0,0.0
5.641,6121.276,0.00016,0.0,0.0
5.647,6109.05,0.00016,0.0,0.0
5.654,6114.408,0.00016,0.0,0.0
5.66,6115.407,0.00016,0.0,0.0
5.666,6111.388,0.00016,0.0,0.0
5.673,6092.436,0.00016,0.0,0.0
5.679,6080.011,0.00016,0.0,0.0
5.685,6080.9,0.00016,0.0,0.0
5.692,6072.323,0.00016,0.0,0.0
5.698,6069.932,0.00016,0.0,0.0
5.704,6081.761,0.00016,0.0,0.0
5.711,6055.924,0.00017,0.0,0.0
5.717,6050.102,0.00017,0.0,0.0
5.723,6063.031,0.00016,0.0,0.0
5.73,6028.761,0.00017,0.0,0.0
5.736,6058.64,0.00017,0.0,0.0
5.742,6026.768,0.00017,0.0,0.0
5.749,6022.262,0.00017,0.0,0.0
5.755,6040.999,0.00017,0.0,0.0
5.761,6036.199,0.00017,0.0,0.0
5.768,6022.532,0.00017,0.0,0.0
5.774,6021.673,0.00017,0.0,0.0
5.78,6035.765,0.00017,0.0,0.0
5.786,6036.922,0.00017,0.0,0.0
5.793,6014.116,0.00017,0.0,0.0
5.799,6001.764,0.00017,0.0,0.0
5.805,6027.529,0.00017,0.0,0.0
5.812,6020.087,0.00017,0.0,0.0
5.818,6054.555,0.00017,0.0,0.0
5.824,6071.023,0.00016,0.0,0.0
5.831,6092.267,0.00016,0.0,0.0
5.837,6131.186,0.00016,0.0,0.0
5.843,6201.399,0.00016,0.0,0.0
5.85,6345.758,0.00016,0.0,0.0
5.856,6516.261,0.00015,0.0,0.0
5.862,6784.316,0.00015,0.0,0.0
5.869,7137.659,0.00014,0.0,0.0
5.875,7443.733,0.00013,0.0,0.0
5.881,7666.631,0.00013,0.0,0.0
5.888,7686.782,0.00013,0.0,0.0
5.894,7478.619,0.00013,0.0,0.0
5.9,7206.384,0.00014,0.0,0.0
5.907,6854.312,0.00015,0.0,0.0
5.913,6594.585,0.00015,0.0,0.0
5.919,6363.801,0.00016,0.0,0.0
5.926,6215.373,0.00016,0.0,0.0
5.932,6156.023,0.00016,0.0,0.0
5.938,6101.028,0.00016,0.0,0.0
5.944,6069.971,0.00016,0.0,0.0
5.951,6083.574,0.00016,0.0,0.0
5.957,6049.266,0.00017,0.0,0.0
5.963,6052.495,0.00017,0.0,0.0
5.97,6056.543,0.00017,0.0,0.0
5.976,6036.198,0.00017,0.0,0.0
5.982,6056.546,0.00017,0.0,0.0
5.989,6049.517,0.00017,0.0,0.0
5.995,6027.367,0.00017,0.0,0.0
6.001,6032.684,0.00017,0.0,0.0
6.008,6035.812,0.00017,0.0,0.0
6.014,6041.313,0.00017,0.0,0.0
6.02,6068.689,0.00016,0.0,0.0
6.027,6041.287,0.00017,0.0,0.0
6.033,6068.839,0.00016,0.0,0.0
6.039,6070.912,0.00016,0.0,0.0
6.046,6042.366,0.00017,0.0,0.0
6.052,6064.563,0.00016,0.0,0.0
6.058,6061.176,0.00016,0.0,0.0
6.065,6059.327,0.00017,0.0,0.0
6.071,6071.708,0.00016,0.0,0.0
6.077,6071.115,0.00016,0.0,0.0
6.084,6066.671,0.00016,0.0,0.0
6.09,6074.024,0.00016,0.0,0.0
6.096,6049.648,0.00017,0.0,0.0
6.102,6080.685,0.00016,0.0,0.0
6.109,6083.865,0.00016,0.0,0.0
6.115,6086.854,0.00016,0.0,0.0
6.121,6081.771,0.00016,0.0,0.0
6.128,6063.072,0.00016,0.0,0.0
6.134,6082.885,0.00016,0.0,0.0
6.14,6061.217,0.00016,0.0,0.0
6.147,6073.725,0.00016,0.0,0.0
6.153,6047.48,0.00017,0.0,0.0
6.159,6084.539,0.00016,0.0,0.0
6.166,6030.606,0.00017,0.0,0.0
6.172,6047.554,0.00017,0.0,0.0
6.178,6063.981,0.00016,0.0,0.0
6.185,6055.726,0.00017,0.0,0.0
6.191,6035.868,0.00017,0.0,0.0
6.197,6083.404,0.00016,0.0,0.0
6.204,6054.377,0.00017,0.0,0.0
6.21,6081.767,0.00016,0.0,0.0
6.216,6050.151,0.00017,0.0,0.0
6.223,6084.401,0.00016,0.0,0.0
6.229,6075.431,0.00016,0.0,0.0
6.235,6068.916,0.00016,0.0,0.0
6.242,6091.33,0.00016,0.0,0.0
6.248,6071.29,0.00016,0.0,0.0
6.254,6063.022,0.00016,0.0,0.0
6.26,6078.834,0.00016,0.0,0.0
6.267,6115.66,0.00016,0.0,0.0
6.273,6091.665,0.00016,0.0,0.0
6.279,6109.601,0.00016,0.0,0.0
6.286,6078.275,0.00016,0.0,0.0
6.292,6131.834,0.00016,0.0,0.0
6.298,6122.174,0.00016,0.0,0.0
6.305,6140.292,0.00016,0.0,0.0
6.311,6138.314,0.00016,0.0,0.0
6.317,6134.562,0.00016,0.0,0.0
6.324,6202.411,0.00016,0.0,0.0
6.33,6191.745,0.00016,0.0,0.0
6.336,6183.44,0.00016,0.0,0.0
6.343,6217.194,0.00016,0.0,0.0
6.349,6266.326,0.00016,0.0,0.0
6.355,6254.205,0.00016,0.0,0.0
6.362,6310.824,0.00016,0.0,0.0
6.368,6348.38,0.00016,0.0,0.0
6.374,6366.899,0.00016,0.0,0.0
6.381,6411.946,0.00016,0.0,0.0
6.387,6527.726,0.00015,0.0,0.0
6.393,6484.634,0.00015,0.0,0.0
6.4,6723.291,0.00015,0.0,0.0
6.406,6851.632,0.00015,0.0,0.0
6.412,7312.454,0.00014,0.0,0.0
6.418,8118.201,0.00012,0.0,0.0
6.425,9127.278,0.00011,0.0,0.0
6.431,13959.033,0.00007,0.0,0.0
6.437,14017.252,0.00007,0.0,0.0
6.444,19526.26,0.00005,0.0,0.0
6.45,21873.102,0.00005,0.0,0.0
6.456,17972.099,0.00006,0.0,0.0
6.463,19104.12,0.00005,0.0,0.0
6.469,20305.368,0.00005,0.0,0.0
6.475,11329.889,0.00009,0.0,0.0
6.482,11956.961,0.00008,0.0,0.0
6.488,8476.022,0.00012,0.0,0.0
6.494,7453.217,0.00013,0.0,0.0
6.501,7483.416,0.00013,0.0,0.0
6.507,6980.679,0.00014,0.0,0.0
6.513,6911.608,0.00014,0.0,0.0
6.52,6839.371,0.00015,0.0,0.0
6.526,6894.299,0.00015,0.0,0.0
6.532,6899.866,0.00014,0.0,0.0
6.539,7015.202,0.00014,0.0,0.0
6.545,7150.84,0.00014,0.0,0.0
6.551,7345.047,0.00014,0.0,0.0
6.558,7721.165,0.00013,0.0,0.0
6.564,8366.108,0.00012,0.0,0.0
6.57,9218.464,0.00011,0.0,0.0
6.576,11287.054,0.00009,0.0,0.0
6.583,14233.146,0.00007,0.0,0.0
6.589,20718.555,0.00005,0.0,0.0
6.595,35370.896,0.00003,0.0,0.0
6.602,49812.425,0.00002,0.0,0.0
6.608,79851.474,0.00001,0.0,0.0
6.614,98579.419,0.00001,0.0,0.0
6.621,111037.371,0.00001,0.0,0.0
6.627,103878.14,0.00001,0.0,0.0
6.633,79907.943,0.00001,0.0,0.0
6.64,52006.935,0.00002,0.0,0.0
6.646,37579.195,0.00003,0.0,0.0
6.652,21345.47,0.00005,0.0,0.0
6.659,15763.045,0.00006,0.0,0.0
6.665,11354.586,0.00009,0.0,0.0
6.671,9435.038,0.00011,0.0,0.0
6.678,8322.394,0.00012,0.0,0.0
6.684,7593.708,0.00013,0.0,0.0
6.69,7193.062,0.00014,0.0,0.0
6.697,6922.257,0.00014,0.0,0.0
6.703,6685.633,0.00015,0.0,0.0
6.709,6580.62,0.00015,0.0,0.0
6.716,6476.314,0.00015,0.0,0.0
6.722,6374.53,0.00016,0.0,0.0
6.728,6371.564,0.00016,0.0,0.0
6.734,6267.741,0.00016,0.0,0.0
6.741,6257.667,0.00016,0.0,0.0
6.747,6210.043,0.00016,0.0,0.0
6.753,6173.003,0.00016,0.0,0.0
6.76,6167.272,0.00016,0.0,0.0
6.766,6142.31,0.00016,0.0,0.0
6.772,6120.313,0.00016,0.0,0.0
6.779,6121.272,0.00016,0.0,0.0
6.785,6114.906,0.00016,0.0,0.0
6.791,6064.263,0.00016,0.0,0.0
6.798,6112.136,0.00016,0.0,0.0
6.804,6092.491,0.00016,0.0,0.0
6.81,6119.471,0.00016,0.0,0.0
6.817,6086.054,0.00016,0.0,0.0
6.823,6073.009,0.00016,0.0,0.0
6.829,6033.67,0.00017,0.0,0.0
6.836,6049.006,0.00017,0.0,0.0
6.842,5991.551,0.00017,0.0,0.0
6.848,5981.987,0.00017,0.0,0.0
6.855,5958.531,0.00017,0.0,0.0
6.861,5930.807,0.00017,0.0,0.0
6.867,5926.953,0.00017,0.0,0.0
6.874,5880.468,0.00017,0.0,0.0
6.88,5895.971,0.00017,0.0,0.0
6.886,5858.142,0.00017,0.0,0.0
6.892,5856.55,0.00017,0.0,0.0
6.899,5860.748,0.00017,0.0,0.0
6.905,5843.871,0.00017,0.0,0.0
6.911,5810.904,0.00017,0.0,0.0
6.918,5825.126,0.00017,0.0,0.0
6.924,5790.381,0.00017,0.0,0.0
6.93,5823.116,0.00017,0.0,0.0
6.937,5790.136,0.00017,0.0,0.0
6.943,5796.755,0.00017,0.0,0.0
6.949,5768.904,0.00017,0.0,0.0
6.956,5772.276,0.00017,0.0,0.0
6.962,5760.059,0.00017,0.0,0.0
6.968,5774.303,0.00017,0.0,0.0
6.975,5763.445,0.00017,0.0,0.0
6.981,5763.882,0.00017,0.0,0.0
6.987,5752.835,0.00017,0.0,0.0
6.994,5750.141,0.00017,0.0,0.0
7.0,5763.192,0.00017,0.0,0.0
7.006,5739.477,0.00017,0.0,0.0
7.013,5741.17,0.00017,0.0,0.0
7.019,5728.576,0.00017,0.0,0.0
7.025,5722.462,0.00017,0.0,0.0
7.032,5701.031,0.00018,0.0,0.0
7.038,5689.924,0.00018,0.0,0.0
7.044,5698.453,0.00018,0.0,0.0
7.05,5683.18,0.00018,0.0,0.0
7.057,5691.757,0.00018,0.0,0.0
7.063,5690.999,0.00018,0.0,0.0
7.069,5692.284,0.00018,0.0,0.0
7.076,5683.036,0.00018,0.0,0.0
7.082,5683.071,0.00018,0.0,0.0
7.088,5671.435,0.00018,0.0,0.0
7.095,5655.722,0.00018,0.0,0.0
7.101,5671.077,0.00018,0.0,0.0
7.107,5639.823,0.00018,0.0,0.0
7.114,5655.509,0.00018,0.0,0.0
7.12,5650.522,0.00018,0.0,0.0
7.126,5638.675,0.00018,0.0,0.0
7.133,5627.986,0.00018,0.0,0.0
7.139,5636.262,0.00018,0.0,0.0
7.145,5632.174,0.00018,0.0,0.0
7.152,5614.228,0.00018,0.0,0.0
7.158,5598.265,0.00018,0.0,0.0
7.164,5611.317,0.00018,0.0,0.0
7.171,5589.188,0.00018,0.0,0.0
7.177,5604.134,0.00018,0.0,0.0
7.183,5591.533,0.00018,0.0,0.0
7.19,5579.936,0.00018,0.0,0.0
7.196,5576.263,0.00018,0.0,0.0
7.202,5570.794,0.00018,0.0,0.0
7.208,5576.955,0.00018,0.0,0.0
7.215,5582.93,0.00018,0.0,0.0
7.221,5570.416,0.00018,0.0,0.0
7.227,5574.108,0.00018,0.0,0.0
7.234,5580.187,0.00018,0.0,0.0
7.24,5571.353,0.00018,0.0,0.0
7.246,5564.696,0.00018,0.0,0.0
7.253,5562.722,0.00018,0.0,0.0
7.259,5568.608,0.00018,0.0,0.0
7.265,5579.189,0.00018,0.0,0.0
7.272,5596.931,0.00018,0.0,0.0
7.278,5602.303,0.00018,0.0,0.0
7.284,5628.489,0.00018,0.0,0.0
7.291,5642.494,0.00018,0.0,0.0
7.297,5646.944,0.00018,0.0,0.0
7.303,5658.921,0.00018,0.0,0.0
7.31,5639.661,0.00018,0.0,0.0
7.316,5638.037,0.00018,0.0,0.0
7.322,5598.145,0.00018,0.0,0.0
7.329,5578.831,0.00018,0.0,0.0
7.335,5575.633,0.00018,0.0,0.0
7.341,5551.949,0.00018,0.0,0.0
7.348,5566.601,0.00018,0.0,0.0
7.354,5562.542,0.00018,0.0,0.0
7.36,5538.046,0.00018,0.0,0.0
7.366,5574.339,0.00018,0.0,0.0
7.373,5542.988,0.00018,0.0,0.0
7.379,5547.029,0.00018,0.0,0.0
7.385,5569.117,0.00018,0.0,0.0
7.392,5548.013,0.00018,0.0,0.0
7.398,5568.266,0.00018,0.0,0.0
7.404,5564.214,0.00018,0.0,0.0
7.411,5567.421,0.00018,0.0,0.0
7.417,5599.65,0.00018,0.0,0.0
7.423,5571.021,0.00018,0.0,0.0
7.43,5589.192,0.00018,0.0,0.0
7.436,5592.09,0.00018,0.0,0.0
7.442,5591.338,0.00018,0.0,0.0
7.449,5592.964,0.00018,0.0,0.0
7.455,5614.827,0.00018,0.0,0.0
7.461,5620.167,0.00018,0.0,0.0
7.468,5645.065,0.00018,0.0,0.0
7.474,5627.663,0.00018,0.0,0.0
7.48,5633.357,0.00018,0.0,0.0
7.487,5649.372,0.00018,0.0,0.0
7.493,5659.021,0.00018,0.0,0.0
7.499,5687.681,0.00018,0.0,0.0
7.506,5682.484,0.00018,0.0,0.0
7.512,5721.221,0.00017,0.0,0.0
7.518,5725.579,0.00017,0.0,0.0
7.524,5755.685,0.00017,0.0,0.0
7.531,5757.658,0.00017,0.0,0.0
7.537,5804.145,0.00017,0.0,0.0
7.543,5826.475,0.00017,0.0,0.0
7.55,5872.037,0.00017,0.0,0.0
7.556,5900.914,0.00017,0.0,0.0
7.562,5998.621,0.00017,0.0,0.0
7.569,6115.559,0.00016,0.0,0.0
7.575,6229.519,0.00016,0.0,0.0
7.581,6458.299,0.00015,0.0,0.0
7.588,6702.576,0.00015,0.0,0.0
7.594,7238.453,0.00014,0.0,0.0
7.6,8044.973,0.00012,0.0,0.0
7.607,9534.763,0.0001,0.0,0.0
7.613,11875.681,0.00008,0.0,0.0
7.619,16353.054,0.00006,0.0,0.0
7.626,25174.344,0.00004,0.0,0.0
7.632,33034.173,0.00003,0.0,0.0
7.638,39110.07,0.00003,0.0,0.0
7.645,50090.181,0.00002,0.0,0.0
7.651,46976.328,0.00002,0.0,0.0
7.657,40528.883,0.00002,0.0,0.0
7.664,32327.953,0.00003,0.0,0.0
7.67,20397.303,0.00005,0.0,0.0
7.676,15114.947,0.00007,0.0,0.0
7.682,11177.139,0.00009,0.0,0.0
7.689,9007.413,0.00011,0.0,0.0
7.695,7851.603,0.00013,0.0,0.0
7.701,7188.331,0.00014,0.0,0.0
7.708,6769.293,0.00015,0.0,0.0
7.714,6570.823,0.00015,0.0,0.0
7.72,6370.832,0.00016,0.0,0.0
7.727,6347.517,0.00016,0.0,0.0
7.733,6263.414,0.00016,0.0,0.0
7.739,6186.276,0.00016,0.0,0.0
7.746,6211.257,0.00016,0.0,0.0
7.752,6174.129,0.00016,0.0,0.0
7.758,6151.823,0.00016,0.0,0.0
7.765,6193.666,0.00016,0.0,0.0
7.771,6186.172,0.00016,0.0,0.0
7.777,6192.07,0.00016,0.0,0.0
7.784,6202.181,0.00016,0.0,0.0
7.79,6220.445,0.00016,0.0,0.0
7.796,6246.004,0.00016,0.0,0.0
7.803,6273.67,0.00016,0.0,0.0
7.809,6265.672,0.00016,0.0,0.0
7.815,6370.316,0.00016,0.0,0.0
7.822,6355.012,0.00016,0.0,0.0
7.828,6442.078,0.00016,0.0,0.0
7.834,6452.244,0.00015,0.0,0.0
7.84,6507.087,0.00015,0.0,0.0
7.847,6596.93,0.00015,0.0,0.0
7.853,6709.166,0.00015,0.0,0.0
7.859,6891.511,0.00015,0.0,0.0
7.866,7038.529,0.00014,0.0,0.0
7.872,7948.226,0.00013,0.0,0.0
7.878,7972.135,0.00013,0.0,0.0
7.885,11076.25,0.00009,0.0,0.0
7.891,10034.476,0.0001,0.0,0.0
7.897,15211.371,0.00007,0.0,0.0
7.904,12846.317,0.00008,0.0,0.0
7.91,20463.383,0.00005,0.0,0.0
7.916,15637.786,0.00006,0.0,0.0
7.923,14452.959,0.00007,0.0,0.0
7.929,11335.119,0.00009,0.0,0.0
7.935,9346.458,0.00011,0.0,0.0
7.942,8188.427,0.00012,0.0,0.0
7.948,7604.645,0.00013,0.0,0.0
7.954,7099.145,0.00014,0.0,0.0
7.961,6934.936,0.00014,0.0,0.0
7.967,6795.416,0.00015,0.0,0.0
7.973,6645.678,0.00015,0.0,0.0
7.98,6658.887,0.00015,0.0,0.0
7.986,6527.293,0.00015,0.0,0.0
7.992,6525.11,0.00015,0.0,0.0
7.998,6517.64,0.00015,0.0,0.0
8.005,6452.099,0.00015,0.0,0.0
8.011,6413.686,0.00016,0.0,0.0
8.017,6435.058,0.00016,0.0,0.0
8.024,6403.901,0.00016,0.0,0.0
8.03,6410.165,0.00016,0.0,0.0
8.036,6388.039,0.00016,0.0,0.0
8.043,6357.247,0.00016,0.0,0.0
8.049,6335.751,0.00016,0.0,0.0
8.055,6313.641,0.00016,0.0,0.0
8.062,6362.352,0.00016,0.0,0.0
8.068,6328.416,0.00016,0.0,0.0
8.074,6333.885,0.00016,0.0,0.0
8.081,6309.931,0.00016,0.0,0.0
8.087,6295.925,0.00016,0.0,0.0
8.093,6294.212,0.00016,0.0,0.0
8.1,6298.4,0.00016,0.0,0.0
8.106,6308.502,0.00016,0.0,0.0
8.112,6329.247,0.00016,0.0,0.0
8.119,6371.942,0.00016,0.0,0.0
8.125,6405.741,0.00016,0.0,0.0
8.131,6479.31,0.00015,0.0,0.0
8.138,6499.218,0.00015,0.0,0.0
8.144,6566.031,0.00015,0.0,0.0
8.15,6573.857,0.00015,0.0,0.0
8.156,6518.358,0.00015,0.0,0.0
8.163,6479.631,0.00015,0.0,0.0
8.169,6404.964,0.00016,0.0,0.0
8.175,6344.128,0.00016,0.0,0.0
8.182,6296.05,0.00016,0.0,0.0
8.188,6257.002,0.00016,0.0,0.0
8.194,6238.335,0.00016,0.0,0.0
8.201,6223.865,0.00016,0.0,0.0
8.207,6206.916,0.00016,0.0,0.0
8.213,6209.859,0.00016,0.0,0.0
8.22,6171.262,0.00016,0.0,0.0
8.226,6190.868,0.00016,0.0,0.0
8.232,6180.879,0.00016,0.0,0.0
8.239,6173.5,0.00016,0.0,0.0
8.245,6186.022,0.00016,0.0,0.0
8.251,6163.931,0.00016,0.0,0.0
8.258,6176.447,0.00016,0.0,0.0
8.264,6153.561,0.00016,0.0,0.0
8.27,6150.77,0.00016,0.0,0.0
8.277,6164.75,0.00016,0.0,0.0
8.283,6158.774,0.00016,0.0,0.0
8.289,6144.541,0.00016,0.0,0.0
8.296,6137.101,0.00016,0.0,0.0
8.302,6147.744,0.00016,0.0,0.0
8.308,6153.006,0.00016,0.0,0.0
8.314,6157.152,0.00016,0.0,0.0
8.321,6157.745,0.00016,0.0,0.0
8.327,6158.727,0.00016,0.0,0.0
8.333,6166.227,0.00016,0.0,0.0
8.34,6180.335,0.00016,0.0,0.0
8.346,6179.02,0.00016,0.0,0.0
8.352,6205.945,0.00016,0.0,0.0
8.359,6280.085,0.00016,0.0,0.0
8.365,6338.539,0.00016,0.0,0.0
8.371,6370.345,0.00016,0.0,0.0
8.378,6402.707,0.00016,0.0,0.0
8.384,6361.491,0.00016,0.0,0.0
8.39,6367.664,0.00016,0.0,0.0
8.397,6319.532,0.00016,0.0,0.0
8.403,6251.766,0.00016,0.0,0.0
8.409,6204.792,0.00016,0.0,0.0
8.416,6178.333,0.00016,0.0,0.0
8.422,6151.605,0.00016,0.0,0.0
8.428,6111.938,0.00016,0.0,0.0
8.435,6094.605,0.00016,0.0,0.0
8.441,6096.696,0.00016,0.0,0.0
8.447,6076.704,0.00016,0.0,0.0
8.454,6066.497,0.00016,0.0,0.0
8.46,6062.799,0.00016,0.0,0.0
8.466,6062.421,0.00016,0.0,0.0
8.472,6072.27,0.00016,0.0,0.0
8.479,6059.057,0.00017,0.0,0.0
8.485,6060.624,0.00016,0.0,0.0
8.491,6087.646,0.00016,0.0,0.0
8.498,6090.005,0.00016,0.0,0.0
8.504,6065.743,0.00016,0.0,0.0
8.51,6071.747,0.00016,0.0,0.0
8.517,6082.664,0.00016,0.0,0.0
8.523,6042.842,0.00017,0.0,0.0
8.529,6060.314,0.00017,0.0,0.0
8.536,6024.564,0.00017,0.0,0.0
8.542,6049.771,0.00017,0.0,0.0
8.548,6013.587,0.00017,0.0,0.0
8.555,6041.246,0.00017,0.0,0.0
8.561,6023.675,0.00017,0.0,0.0
8.567,6018.208,0.00017,0.0,0.0
8.574,6017.974,0.00017,0.0,0.0
8.58,6004.743,0.00017,0.0,0.0
8.586,6005.357,0.00017,0.0,0.0
8.593,6008.97,0.00017,0.0,0.0
8.599,5990.984,0.00017,0.0,0.0
8.605,6007.69,0.00017,0.0,0.0
8.612,5995.616,0.00017,0.0,0.0
8.618,5984.197,0.00017,0.0,0.0
8.624,5988.863,0.00017,0.0,0.0
8.63,5997.458,0.00017,0.0,0.0
8.637,5991.32,0.00017,0.0,0.0
8.643,5990.968,0.00017,0.0,0.0
8.649,5978.356,0.00017,0.0,0.0
8.656,5969.805,0.00017,0.0,0.0
8.662,5987.177,0.00017,0.0,0.0
8.668,5996.843,0.00017,0.0,0.0
8.675,5973.686,0.00017,0.0,0.0
8.681,5975.168,0.00017,0.0,0.0
8.687,5994.667,0.00017,0.0,0.0
8.694,5978.0,0.00017,0.0,0.0
8.7,5979.827,0.00017,0.0,0.0
8.706,5987.359,0.00017,0.0,0.0
8.713,6018.716,0.00017,0.0,0.0
8.719,6014.326,0.00017,0.0,0.0
8.725,6002.119,0.00017,0.0,0.0
8.732,6003.745,0.00017,0.0,0.0
8.738,5993.387,0.00017,0.0,0.0
8.744,5995.199,0.00017,0.0,0.0
8.751,5983.859,0.00017,0.0,0.0
8.757,5990.256,0.00017,0.0,0.0
8.763,5978.69,0.00017,0.0,0.0
8.77,5974.627,0.00017,0.0,0.0
8.776,5987.842,0.00017,0.0,0.0
8.782,5991.711,0.00017,0.0,0.0
8.788,5982.898,0.00017,0.0,0.0
8.795,5986.702,0.00017,0.0,0.0
8.801,5995.57,0.00017,0.0,0.0
8.807,6012.263,0.00017,0.0,0.0
8.814,5985.665,0.00017,0.0,0.0
8.82,5989.786,0.00017,0.0,0.0
8.826,6002.864,0.00017,0.0,0.0
8.833,6018.398,0.00017,0.0,0.0
8.839,5995.181,0.00017,0.0,0.0
8.845,6022.702,0.00017,0.0,0.0
8.852,6002.287,0.00017,0.0,0.0
8.858,6032.908,0.00017,0.0,0.0
8.864,6021.139,0.00017,0.0,0.0
8.871,6019.707,0.00017,0.0,0.0
8.877,6021.474,0.00017,0.0,0.0
8.883,6025.346,0.00017,0.0,0.0
8.89,6029.614,0.00017,0.0,0.0
8.896,6045.765,0.00017,0.0,0.0
8.902,6043.697,0.00017,0.0,0.0
8.909,6042.545,0.00017,0.0,0.0
8.915,6038.965,0.00017,0.0,0.0
8.921,6046.678,0.00017,0.0,0.0
8.928,6063.338,0.00016,0.0,0.0
8.934,6058.632,0.00017,0.0,0.0
8.94,6103.445,0.00016,0.0,0.0
8.946,6058.91,0.00017,0.0,0.0
8.953,6093.655,0.00016,0.0,0.0
8.959,6106.51,0.00016,0.0,0.0
8.965,6089.529,0.00016,0.0,0.0
8.972,6107.744,0.00016,0.0,0.0
8.978,6115.28,0.00016,0.0,0.0
8.984,6140.429,0.00016,0.0,0.0
8.991,6145.454,0.00016,0.0,0.0
8.997,6125.627,0.00016,0.0,0.0
9.003,6144.302,0.00016,0.0,0.0
9.01,6157.747,0.00016,0.0,0.0
9.016,6103.587,0.00016,0.0,0.0
9.022,6188.96,0.00016,0.0,0.0
9.029,6157.024,0.00016,0.0,0.0
9.035,6174.284,0.00016,0.0,0.0
9.041,6167.536,0.00016,0.0,0.0
9.048,6160.26,0.00016,0.0,0.0
9.054,6209.708,0.00016,0.0,0.0
9.06,6208.15,0.00016,0.0,0.0
9.067,6182.388,0.00016,0.0,0.0
9.073,6292.171,0.00016,0.0,0.0
9.079,6248.595,0.00016,0.0,0.0
9.086,6292.018,0.00016,0.0,0.0
9.092,6360.37,0.00016,0.0,0.0
9.098,6426.978,0.00016,0.0,0.0
9.104,6677.489,0.00015,0.0,0.0
9.111,6727.177,0.00015,0.0,0.0
9.117,8052.048,0.00012,0.0,0.0
9.123,7493.069,0.00013,0.0,0.0
9.13,9300.012,0.00011,0.0,0.0
9.136,9481.683,0.00011,0.0,0.0
9.142,9244.88,0.00011,0.0,0.0
9.149,12498.964,0.00008,0.0,0.0
9.155,8801.027,0.00011,0.0,0.0
9.161,7141.365,0.00014,0.0,0.0
9.168,9371.335,0.00011,0.0,0.0
9.174,6471.193,0.00015,0.0,0.0
9.18,6566.394,0.00015,0.0,0.0
9.187,6496.21,0.00015,0.0,0.0
9.193,6219.193,0.00016,0.0,0.0
9.199,6261.185,0.00016,0.0,0.0
9.206,6180.271,0.00016,0.0,0.0
9.212,6109.902,0.00016,0.0,0.0
9.218,6141.32,0.00016,0.0,0.0
9.225,6088.045,0.00016,0.0,0.0
9.231,6030.668,0.00017,0.0,0.0
9.237,6084.473,0.00016,0.0,0.0
9.244,6031.428,0.00017,0.0,0.0
9.25,6031.441,0.00017,0.0,0.0
9.256,5997.775,0.00017,0.0,0.0
9.262,5961.998,0.00017,0.0,0.0
9.269,6004.19,0.00017,0.0,0.0
9.275,5944.672,0.00017,0.0,0.0
9.281,5929.159,0.00017,0.0,0.0
9.288,5955.232,0.00017,0.0,0.0
9.294,5891.896,0.00017,0.0,0.0
9.3,5908.871,0.00017,0.0,0.0
9.307,5893.158,0.00017,0.0,0.0
9.313,5853.861,0.00017,0.0,0.0
9.319,5892.11,0.00017,0.0,0.0
9.326,5849.064,0.00017,0.0,0.0
9.332,5845.286,0.00017,0.0,0.0
9.338,5840.538,0.00017,0.0,0.0
9.345,5807.753,0.00017,0.0,0.0
9.351,5816.24,0.00017,0.0,0.0
9.357,5785.066,0.00017,0.0,0.0
9.364,5775.42,0.00017,0.0,0.0
9.37,5782.519,0.00017,0.0,0.0
9.376,5745.774,0.00017,0.0,0.0
9.383,5744.951,0.00017,0.0,0.0
9.389,5739.259,0.00017,0.0,0.0
9.395,5714.027,0.00018,0.0,0.0
9.402,5707.538,0.00018,0.0,0.0
9.408,5712.967,0.00018,0.0,0.0
9.414,5696.874,0.00018,0.0,0.0
9.42,5692.811,0.00018,0.0,0.0
9.427,5678.715,0.00018,0.0,0.0
9.433,5681.629,0.00018,0.0,0.0
9.439,5661.365,0.00018,0.0,0.0
9.446,5660.271,0.00018,0.0,0.0
9.452,5663.73,0.00018,0.0,0.0
9.458,5663.339,0.00018,0.0,0.0
9.465,5687.28,0.00018,0.0,0.0
9.471,5691.594,0.00018,0.0,0.0
9.477,5693.634,0.00018,0.0,0.0
9.484,5712.633,0.00018,0.0,0.0
9.49,5709.41,0.00018,0.0,0.0
9.496,5706.563,0.00018,0.0,0.0
9.503,5682.668,0.00018,0.0,0.0
9.509,5669.115,0.00018,0.0,0.0
9.515,5639.624,0.00018,0.0,0.0
9.522,5635.071,0.00018,0.0,0.0
9.528,5583.776,0.00018,0.0,0.0
9.534,5568.07,0.00018,0.0,0.0
9.541,5541.427,0.00018,0.0,0.0
9.547,5537.323,0.00018,0.0,0.0
9.553,5501.353,0.00018,0.0,0.0
9.56,5512.277,0.00018,0.0,0.0
9.566,5488.549,0.00018,0.0,0.0
9.572,5492.411,0.00018,0.0,0.0
9.578,5487.938,0.00018,0.0,0.0
9.585,5471.309,0.00018,0.0,0.0
9.591,5446.036,0.00018,0.0,0.0
9.597,5455.431,0.00018,0.0,0.0
9.604,5438.85,0.00018,0.0,0.0
9.61,5441.386,0.00018,0.0,0.0
9.616,5432.107,0.00018,0.0,0.0
9.623,5433.581,0.00018,0.0,0.0
9.629,5431.721,0.00018,0.0,0.0
9.635,5429.468,0.00018,0.0,0.0
9.642,5406.105,0.00018,0.0,0.0
9.648,5406.503,0.00018,0.0,0.0
9.654,5412.565,0.00018,0.0,0.0
9.661,5392.824,0.00019,0.0,0.0
9.667,5404.356,0.00019,0.0,0.0
9.673,5382.167,0.00019,0.0,0.0
9.68,5370.387,0.00019,0.0,0.0
9.686,5384.117,0.00019,0.0,0.0
9.692,5375.301,0.00019,0.0,0.0
9.699,5366.203,0.00019,0.0,0.0
9.705,5377.014,0.00019,0.0,0.0
9.711,5368.103,0.00019,0.0,0.0
9.718,5374.08,0.00019,0.0,0.0
9.724,5365.819,0.00019,0.0,0.0
9.73,5358.238,0.00019,0.0,0.0
9.736,5346.714,0.00019,0.0,0.0
9.743,5353.015,0.00019,0.0,0.0
9.749,5357.477,0.00019,0.0,0.0
9.755,5345.757,0.00019,0.0,0.0
9.762,5332.644,0.00019,0.0,0.0
9.768,5347.073,0.00019,0.0,0.0
9.774,5328.109,0.00019,0.0,0.0
9.781,5322.601,0.00019,0.0,0.0
9.787,5329.384,0.00019,0.0,0.0
9.793,5328.769,0.00019,0.0,0.0
9.8,5347.587,0.00019,0.0,0.0
9.806,5320.798,0.00019,0.0,0.0
9.812,5320.266,0.00019,0.0,0.0
9.819,5335.643,0.00019,0.0,0.0
9.825,5315.378,0.00019,0.0,0.0
9.831,5326.03,0.00019,0.0,0.0
9.838,5322.421,0.00019,0.0,0.0
9.844,5321.533,0.00019,0.0,0.0
9.85,5322.182,0.00019,0.0,0.0
9.857,5317.424,0.00019,0.0,0.0
9.863,5304.773,0.00019,0.0,0.0
9.869,5314.632,0.00019,0.0,0.0
9.876,5308.915,0.00019,0.0,0.0
9.882,5305.591,0.00019,0.0,0.0
9.888,5298.614,0.00019,0.0,0.0
9.894,5289.333,0.00019,0.0,0.0
9.901,5315.565,0.00019,0.0,0.0
9.907,5292.248,0.00019,0.0,0.0
9.913,5309.146,0.00019,0.0,0.0
9.92,5300.52,0.00019,0.0,0.0
9.926,5286.663,0.00019,0.0,0.0
9.932,5330.968,0.00019,0.0,0.0
9.939,5299.717,0.00019,0.0,0.0
9.945,5314.612,0.00019,0.0,0.0
9.951,5318.731,0.00019,0.0,0.0
9.958,5298.756,0.00019,0.0,0.0
9.964,5307.198,0.00019,0.0,0.0
9.97,5336.72,0.00019,0.0,0.0
9.977,5311.825,0.00019,0.0,0.0
9.983,5339.996,0.00019,0.0,0.0
9.989,5332.613,0.00019,0.0,0.0
9.996,5319.603,0.00019,0.0,0.0
10.002,5335.171,0.00019,0.0,0.0
10.008,5325.837,0.00019,0.0,0.0
10.015,5355.143,0.00019,0.0,0.0
10.021,5334.704,0.00019,0.0,0.0
10.027,5370.164,0.00019,0.0,0.0
10.034,5357.331,0.00019,0.0,0.0
10.04,5355.927,0.00019,0.0,0.0
10.046,5384.493,0.00019,0.0,0.0
10.052,5357.728,0.00019,0.0,0.0
10.059,5349.075,0.00019,0.0,0.0
10.065,5406.337,0.00018,0.0,0.0
10.071,5402.38,0.00019,0.0,0.0
10.078,5384.138,0.00019,0.0,0.0
10.084,5428.901,0.00018,0.0,0.0
10.09,5390.457,0.00019,0.0,0.0
10.097,5468.925,0.00018,0.0,0.0
10.103,5388.377,0.00019,0.0,0.0
10.109,5489.125,0.00018,0.0,0.0
10.116,5506.707,0.00018,0.0,0.0
10.122,5476.971,0.00018,0.0,0.0
10.128,5579.669,0.00018,0.0,0.0
10.135,5525.538,0.00018,0.0,0.0
10.141,5626.702,0.00018,0.0,0.0
10.147,5608.121,0.00018,0.0,0.0
10.154,5725.398,0.00017,0.0,0.0
10.16,5782.551,0.00017,0.0,0.0
10.166,6231.516,0.00016,0.0,0.0
10.173,6307.862,0.00016,0.0,0.0
10.179,7447.075,0.00013,0.0,0.0
10.185,10298.783,0.0001,0.0,0.0
10.192,10294.855,0.0001,0.0,0.0
10.198,13345.466,0.00007,0.0,0.0
10.204,16715.257,0.00006,0.0,0.0
10.21,20272.805,0.00005,0.0,0.0
10.217,20060.416,0.00005,0.0,0.0
10.223,19833.091,0.00005,0.0,0.0
10.229,13208.064,0.00008,0.0,0.0
10.236,17878.955,0.00006,0.0,0.0
10.242,8259.769,0.00012,0.0,0.0
10.248,9399.134,0.00011,0.0,0.0
10.255,6865.483,0.00015,0.0,0.0
10.261,6245.681,0.00016,0.0,0.0
10.267,6134.598,0.00016,0.0,0.0
10.274,5688.475,0.00018,0.0,0.0
10.28,5765.694,0.00017,0.0,0.0
10.286,5518.379,0.00018,0.0,0.0
10.293,5571.447,0.00018,0.0,0.0
10.299,5478.521,0.00018,0.0,0.0
10.305,5471.137,0.00018,0.0,0.0
10.312,5442.306,0.00018,0.0,0.0
10.318,5430.579,0.00018,0.0,0.0
10.324,5416.421,0.00018,0.0,0.0
10.331,5338.494,0.00019,0.0,0.0
10.337,5342.16,0.00019,0.0,0.0
10.343,5357.74,0.00019,0.0,0.0
10.35,5336.216,0.00019,0.0,0.0
10.356,5322.995,0.00019,0.0,0.0
10.362,5311.944,0.00019,0.0,0.0
10.368,5246.104,0.00019,0.0,0.0
10.375,5315.247,0.00019,0.0,0.0
10.381,5226.87,0.00019,0.0,0.0
10.387,5237.758,0.00019,0.0,0.0
10.394,5263.144,0.00019,0.0,0.0
10.4,5218.095,0.00019,0.0,0.0
10.406,5244.691,0.00019,0.0,0.0
10.413,5194.826,0.00019,0.0,0.0
10.419,5182.886,0.00019,0.0,0.0
10.425,5211.536,0.00019,0.0,0.0
10.432,5174.309,0.00019,0.0,0.0
10.438,5185.095,0.00019,0.0,0.0
10.444,5170.635,0.00019,0.0,0.0
10.451,5153.631,0.00019,0.0,0.0
10.457,5166.49,0.00019,0.0,0.0
10.463,5136.949,0.00019,0.0,0.0
10.47,5134.191,0.00019,0.0,0.0
10.476,5133.096,0.00019,0.0,0.0
10.482,5102.158,0.0002,0.0,0.0
10.489,5159.829,0.00019,0.0,0.0
10.495,5098.332,0.0002,0.0,0.0
10.501,5095.699,0.0002,0.0,0.0
10.508,5117.793,0.0002,0.0,0.0
10.514,5097.108,0.0002,0.0,0.0
10.52,5110.474,0.0002,0.0,0.0
10.526,5073.451,0.0002,0.0,0.0
10.533,5074.004,0.0002,0.0,0.0
10.539,5091.288,0.0002,0.0,0.0
10.545,5071.502,0.0002,0.0,0.0
10.552,5083.091,0.0002,0.0,0.0
10.558,5076.291,0.0002,0.0,0.0
10.564,5042.265,0.0002,0.0,0.0
10.571,5083.808,0.0002,0.0,0.0
10.577,5039.297,0.0002,0.0,0.0
10.583,5048.988,0.0002,0.0,0.0
10.59,5053.104,0.0002,0.0,0.0
10.596,5051.098,0.0002,0.0,0.0
10.602,5065.851,0.0002,0.0,0.0
10.609,5041.182,0.0002,0.0,0.0
10.615,5029.858,0.0002,0.0,0.0
10.621,5053.853,0.0002,0.0,0.0
10.628,5013.11,0.0002,0.0,0.0
10.634,5044.05,0.0002,0.0,0.0
10.64,5044.438,0.0002,0.0,0.0
10.647,5034.999,0.0002,0.0,0.0
10.653,5053.402,0.0002,0.0,0.0
10.659,5021.258,0.0002,0.0,0.0
10.666,5049.455,0.0002,0.0,0.0
10.672,5032.778,0.0002,0.0,0.0
10.678,5029.426,0.0002,0.0,0.0
10.684,5062.842,0.0002,0.0,0.0
10.691,5029.604,0.0002,0.0,0.0
10.697,5043.69,0.0002,0.0,0.0
10.703,5054.98,0.0002,0.0,0.0
10.71,5056.989,0.0002,0.0,0.0
10.716,5091.097,0.0002,0.0,0.0
10.722,5090.074,0.0002,0.0,0.0
10.729,5098.935,0.0002,0.0,0.0
10.735,5143.096,0.00019,0.0,0.0
10.741,5151.681,0.00019,0.0,0.0
10.748,5200.097,0.00019,0.0,0.0
10.754,5287.26,0.00019,0.0,0.0
10.76,5368.985,0.00019,0.0,0.0
10.767,5576.3,0.00018,0.0,0.0
10.773,5803.37,0.00017,0.0,0.0
10.779,6292.289,0.00016,0.0,0.0
10.786,7234.842,0.00014,0.0,0.0
10.792,8934.906,0.00011,0.0,0.0
10.798,11933.156,0.00008,0.0,0.0
10.805,15896.29,0.00006,0.0,0.0
10.811,22500.63,0.00004,0.0,0.0
10.817,26928.658,0.00004,0.0,0.0
10.824,31680.894,0.00003,0.0,0.0
10.83,32159.067,0.00003,0.0,0.0
10.836,26103.035,0.00004,0.0,0.0
10.842,22085.1,0.00005,0.0,0.0
10.849,15644.988,0.00006,0.0,0.0
10.855,10537.69,0.00009,0.0,0.0
10.861,8493.741,0.00012,0.0,0.0
10.868,6961.927,0.00014,0.0,0.0
10.874,6127.759,0.00016,0.0,0.0
10.88,5717.646,0.00017,0.0,0.0
10.887,5430.556,0.00018,0.0,0.0
10.893,5303.162,0.00019,0.0,0.0
10.899,5198.533,0.00019,0.0,0.0
10.906,5120.366,0.0002,0.0,0.0
10.912,5110.399,0.0002,0.0,0.0
10.918,5048.991,0.0002,0.0,0.0
10.925,5022.167,0.0002,0.0,0.0
10.931,5017.705,0.0002,0.0,0.0
10.937,5005.473,0.0002,0.0,0.0
10.944,4998.418,0.0002,0.0,0.0
10.95,4983.226,0.0002,0.0,0.0
10.956,4963.806,0.0002,0.0,0.0
10.963,4970.195,0.0002,0.0,0.0
10.969,4943.841,0.0002,0.0,0.0
10.975,4929.242,0.0002,0.0,0.0
10.982,4920.681,0.0002,0.0,0.0
10.988,4891.474,0.0002,0.0,0.0
10.994,4880.864,0.0002,0.0,0.0
11.0,4875.925,0.00021,0.0,0.0
11.007,4859.814,0.00021,0.0,0.0
11.013,4862.742,0.00021,0.0,0.0
11.019,4857.705,0.00021,0.0,0.0
11.026,4846.684,0.00021,0.0,0.0
11.032,4839.316,0.00021,0.0,0.0
11.038,4830.919,0.00021,0.0,0.0
11.045,4838.195,0.00021,0.0,0.0
11.051,4820.423,0.00021,0.0,0.0
11.057,4809.821,0.00021,0.0,0.0
11.064,4807.947,0.00021,0.0,0.0
11.07,4802.894,0.00021,0.0,0.0
11.076,4808.766,0.00021,0.0,0.0
11.083,4794.264,0.00021,0.0,0.0
11.089,4806.753,0.00021,0.0,0.0
11.095,4790.935,0.00021,0.0,0.0
11.102,4787.112,0.00021,0.0,0.0
11.108,4786.18,0.00021,0.0,0.0
11.114,4783.617,0.00021,0.0,0.0
11.121,4779.749,0.00021,0.0,0.0
11.127,4786.598,0.00021,0.0,0.0
11.133,4784.125,0.00021,0.0,0.0
11.14,4788.287,0.00021,0.0,0.0
11.146,4773.592,0.00021,0.0,0.0
11.152,4771.317,0.00021,0.0,0.0
11.158,4774.675,0.00021,0.0,0.0
11.165,4763.99,0.00021,0.0,0.0
11.171,4771.608,0.00021,0.0,0.0
11.177,4792.393,0.00021,0.0,0.0
11.184,4823.581,0.00021,0.0,0.0
11.19,4788.729,0.00021,0.0,0.0
11.196,4870.882,0.00021,0.0,0.0
11.203,4821.061,0.00021,0.0,0.0
11.209,4868.155,0.00021,0.0,0.0
11.215,4791.084,0.00021,0.0,0.0
11.222,4883.38,0.0002,0.0,0.0
11.228,4766.149,0.00021,0.0,0.0
11.234,4802.791,0.00021,0.0,0.0
11.241,4760.619,0.00021,0.0,0.0
11.247,4730.848,0.00021,0.0,0.0
11.253,4724.982,0.00021,0.0,0.0
11.26,4730.017,0.00021,0.0,0.0
11.266,4707.501,0.00021,0.0,0.0
11.272,4706.24,0.00021,0.0,0.0
11.279,4711.323,0.00021,0.0,0.0
11.285,4708.383,0.00021,0.0,0.0
11.291,4704.416,0.00021,0.0,0.0
11.298,4703.422,0.00021,0.0,0.0
11.304,4691.011,0.00021,0.0,0.0
11.31,4710.243,0.00021,0.0,0.0
11.316,4697.333,0.00021,0.0,0.0
11.323,4695.652,0.00021,0.0,0.0
11.329,4683.662,0.00021,0.0,0.0
11.335,4681.719,0.00021,0.0,0.0
11.342,4679.395,0.00021,0.0,0.0
11.348,4678.915,0.00021,0.0,0.0
11.354,4674.658,0.00021,0.0,0.0
11.361,4679.272,0.00021,0.0,0.0
11.367,4687.488,0.00021,0.0,0.0
11.373,4684.307,0.00021,0.0,0.0
11.38,4659.597,0.00021,0.0,0.0
11.386,4664.685,0.00021,0.0,0.0
11.392,4659.763,0.00021,0.0,0.0
11.399,4653.538,0.00021,0.0,0.0
11.405,4649.452,0.00022,0.0,0.0
11.411,4655.047,0.00021,0.0,0.0
11.418,4664.065,0.00021,0.0,0.0
11.424,4651.006,0.00022,0.0,0.0
11.43,4644.548,0.00022,0.0,0.0
11.437,4643.831,0.00022,0.0,0.0
11.443,4644.907,0.00022,0.0,0.0
11.449,4633.057,0.00022,0.0,0.0
11.456,4640.96,0.00022,0.0,0.0
11.462,4617.799,0.00022,0.0,0.0
11.468,4645.112,0.00022,0.0,0.0
11.474,4631.144,0.00022,0.0,0.0
11.481,4635.512,0.00022,0.0,0.0
11.487,4649.602,0.00022,0.0,0.0
11.493,4641.078,0.00022,0.0,0.0
11.5,4647.915,0.00022,0.0,0.0
11.506,4648.753,0.00022,0.0,0.0
11.512,4669.202,0.00021,0.0,0.0
11.519,4674.767,0.00021,0.0,0.0
11.525,4680.629,0.00021,0.0,0.0
11.531,4692.864,0.00021,0.0,0.0
11.538,4697.737,0.00021,0.0,0.0
11.544,4692.685,0.00021,0.0,0.0
11.55,4671.728,0.00021,0.0,0.0
11.557,4652.788,0.00021,0.0,0.0
11.563,4638.792,0.00022,0.0,0.0
11.569,4630.609,0.00022,0.0,0.0
11.576,4621.756,0.00022,0.0,0.0
11.582,4621.775,0.00022,0.0,0.0
11.588,4611.934,0.00022,0.0,0.0
11.595,4602.71,0.00022,0.0,0.0
11.601,4603.871,0.00022,0.0,0.0
11.607,4602.949,0.00022,0.0,0.0
11.614,4598.134,0.00022,0.0,0.0
11.62,4602.454,0.00022,0.0,0.0
11.626,4594.022,0.00022,0.0,0.0
11.632,4587.214,0.00022,0.0,0.0
11.639,4600.582,0.00022,0.0,0.0
11.645,4577.01,0.00022,0.0,0.0
11.651,4600.404,0.00022,0.0,0.0
11.658,4585.117,0.00022,0.0,0.0
11.664,4595.052,0.00022,0.0,0.0
11.67,4604.786,0.00022,0.0,0.0
11.677,4578.933,0.00022,0.0,0.0
11.683,4589.749,0.00022,0.0,0.0
11.689,4575.634,0.00022,0.0,0.0
11.696,4589.334,0.00022,0.0,0.0
11.702,4576.82,0.00022,0.0,0.0
11.708,4582.542,0.00022,0.0,0.0
11.715,4580.289,0.00022,0.0,0.0
11.721,4567.959,0.00022,0.0,0.0
11.727,4580.542,0.00022,0.0,0.0
11.734,4583.275,0.00022,0.0,0.0
11.74,4577.911,0.00022,0.0,0.0
11.746,4578.17,0.00022,0.0,0.0
11.753,4569.824,0.00022,0.0,0.0
11.759,4580.817,0.00022,0.0,0.0
11.765,4576.534,0.00022,0.0,0.0
11.772,4577.962,0.00022,0.0,0.0
11.778,4582.296,0.00022,0.0,0.0
11.784,4582.134,0.00022,0.0,0.0
11.79,4572.407,0.00022,0.0,0.0
11.797,4586.116,0.00022,0.0,0.0
11.803,4578.762,0.00022,0.0,0.0
11.809,4579.03,0.00022,0.0,0.0
11.816,4580.509,0.00022,0.0,0.0
11.822,4567.587,0.00022,0.0,0.0
11.828,4565.125,0.00022,0.0,0.0
11.835,4572.768,0.00022,0.0,0.0
11.841,4562.506,0.00022,0.0,0.0
11.847,4567.085,0.00022,0.0,0.0
11.854,4572.481,0.00022,0.0,0.0
11.86,4565.915,0.00022,0.0,0.0
11.866,4570.126,0.00022,0.0,0.0
11.873,4559.481,0.00022,0.0,0.0
11.879,4572.708,0.00022,0.0,0.0
11.885,4559.388,0.00022,0.0,0.0
11.892,4572.096,0.00022,0.0,0.0
11.898,4564.145,0.00022,0.0,0.0
11.904,4576.858,0.00022,0.0,0.0
11.911,4576.606,0.00022,0.0,0.0
11.917,4555.646,0.00022,0.0,0.0
11.923,4570.049,0.00022,0.0,0.0
11.93,4559.636,0.00022,0.0,0.0
11.936,4572.485,0.00022,0.0,0.0
11.942,4564.561,0.00022,0.0,0.0
11.948,4570.644,0.00022,0.0,0.0
11.955,4572.325,0.00022,0.0,0.0
11.961,4591.338,0.00022,0.0,0.0
11.967,4579.949,0.00022,0.0,0.0
11.974,4588.89,0.00022,0.0,0.0
11.98,4589.439,0.00022,0.0,0.0
11.986,4586.03,0.00022,0.0,0.0
11.993,4578.89,0.00022,0.0,0.0
11.999,4597.131,0.00022,0.0,0.0
12.005,4594.121,0.00022,0.0,0.0
12.012,4606.77,0.00022,0.0,0.0
12.018,4599.869,0.00022,0.0,0.0
12.024,4607.995,0.00022,0.0,0.0
12.031,4613.526,0.00022,0.0,0.0
12.037,4648.275,0.00022,0.0,0.0
12.043,4638.324,0.00022,0.0,0.0
12.05,4701.161,0.00021,0.0,0.0
12.056,4697.545,0.00021,0.0,0.0
12.062,4720.839,0.00021,0.0,0.0
12.069,5075.694,0.0002,0.0,0.0
12.075,4989.205,0.0002,0.0,0.0
12.081,6177.661,0.00016,0.0,0.0
12.088,5878.184,0.00017,0.0,0.0
12.094,6055.121,0.00017,0.0,0.0
12.1,7539.523,0.00013,0.0,0.0
12.106,6093.234,0.00016,0.0,0.0
12.113,6389.075,0.00016,0.0,0.0
12.119,5383.808,0.00019,0.0,0.0
12.125,5192.928,0.00019,0.0,0.0
12.132,4937.833,0.0002,0.0,0.0
12.138,4796.686,0.00021,0.0,0.0
12.144,4697.786,0.00021,0.0,0.0
12.151,4669.709,0.00021,0.0,0.0
12.157,4623.449,0.00022,0.0,0.0
12.163,4609.043,0.00022,0.0,0.0
12.17,4600.335,0.00022,0.0,0.0
12.176,4580.301,0.00022,0.0,0.0
12.182,4564.9,0.00022,0.0,0.0
12.189,4553.759,0.00022,0.0,0.0
12.195,4536.855,0.00022,0.0,0.0
12.201,4537.36,0.00022,0.0,0.0
12.208,4527.022,0.00022,0.0,0.0
12.214,4519.985,0.00022,0.0,0.0
12.22,4511.715,0.00022,0.0,0.0
12.227,4487.733,0.00022,0.0,0.0
12.233,4502.66,0.00022,0.0,0.0
12.239,4500.416,0.00022,0.0,0.0
12.246,4475.772,0.00022,0.0,0.0
12.252,4479.721,0.00022,0.0,0.0
12.258,4474.101,0.00022,0.0,0.0
12.264,4474.256,0.00022,0.0,0.0
12.271,4463.643,0.00022,0.0,0.0
12.277,4461.761,0.00022,0.0,0.0
12.283,4459.195,0.00022,0.0,0.0
12.29,4456.962,0.00022,0.0,0.0
12.296,4451.604,0.00022,0.0,0.0
12.302,4445.184,0.00022,0.0,0.0
12.309,4437.062,0.00023,0.0,0.0
12.315,4435.929,0.00023,0.0,0.0
12.321,4444.209,0.00023,0.0,0.0
12.328,4430.185,0.00023,0.0,0.0
12.334,4429.627,0.00023,0.0,0.0
12.34,4423.069,0.00023,0.0,0.0
12.347,4429.215,0.00023,0.0,0.0
12.353,4413.073,0.00023,0.0,0.0
12.359,4415.442,0.00023,0.0,0.0
12.366,4424.186,0.00023,0.0,0.0
12.372,4415.289,0.00023,0.0,0.0
12.378,4412.793,0.00023,0.0,0.0
12.385,4416.393,0.00023,0.0,0.0
12.391,4404.012,0.00023,0.0,0.0
12.397,4411.418,0.00023,0.0,0.0
12.404,4397.332,0.00023,0.0,0.0
12.41,4400.436,0.00023,0.0,0.0
12.416,4408.909,0.00023,0.0,0.0
12.422,4379.601,0.00023,0.0,0.0
12.429,4392.391,0.00023,0.0,0.0
12.435,4384.97,0.00023,0.0,0.0
12.441,4383.614,0.00023,0.0,0.0
12.448,4385.788,0.00023,0.0,0.0
12.454,4385.697,0.00023,0.0,0.0
12.46,4392.677,0.00023,0.0,0.0
12.467,4380.277,0.00023,0.0,0.0
12.473,4387.546,0.00023,0.0,0.0
12.479,4376.933,0.00023,0.0,0.0
12.486,4389.765,0.00023,0.0,0.0
12.492,4412.161,0.00023,0.0,0.0
12.498,4384.766,0.00023,0.0,0.0
12.505,4404.116,0.00023,0.0,0.0
12.511,4410.319,0.00023,0.0,0.0
12.517,4411.73,0.00023,0.0,0.0
12.524,4426.404,0.00023,0.0,0.0
12.53,4419.114,0.00023,0.0,0.0
12.536,4415.153,0.00023,0.0,0.0
12.543,4410.097,0.00023,0.0,0.0
12.549,4407.221,0.00023,0.0,0.0
12.555,4418.287,0.00023,0.0,0.0
12.562,4407.399,0.00023,0.0,0.0
12.568,4404.49,0.00023,0.0,0.0
12.574,4420.114,0.00023,0.0,0.0
12.58,4415.682,0.00023,0.0,0.0
12.587,4443.311,0.00023,0.0,0.0
12.593,4431.185,0.00023,0.0,0.0
12.599,4466.235,0.00022,0.0,0.0
12.606,4488.753,0.00022,0.0,0.0
12.612,4522.873,0.00022,0.0,0.0
12.618,4565.401,0.00022,0.0,0.0
12.625,4627.374,0.00022,0.0,0.0
12.631,4708.599,0.00021,0.0,0.0
12.637,4881.63,0.0002,0.0,0.0
12.644,5097.604,0.0002,0.0,0.0
12.65,5477.216,0.00018,0.0,0.0
12.656,6118.059,0.00016,0.0,0.0
12.663,7336.618,0.00014,0.0,0.0
12.669,9293.436,0.00011,0.0,0.0
12.675,13132.153,0.00008,0.0,0.0
12.682,17537.742,0.00006,0.0,0.0
12.688,24751.331,0.00004,0.0,0.0
12.694,29436.29,0.00003,0.0,0.0
12.701,31909.236,0.00003,0.0,0.0
12.707,30891.988,0.00003,0.0,0.0
12.713,24841.398,0.00004,0.0,0.0
12.72,19073.871,0.00005,0.0,0.0
12.726,13345.056,0.00007,0.0,0.0
12.732,9703.626,0.0001,0.0,0.0
12.738,7480.188,0.00013,0.0,0.0
12.745,6226.586,0.00016,0.0,0.0
12.751,5540.568,0.00018,0.0,0.0
12.757,5064.963,0.0002,0.0,0.0
12.764,4829.568,0.00021,0.0,0.0
12.77,4678.576,0.00021,0.0,0.0
12.776,4567.757,0.00022,0.0,0.0
12.783,4493.08,0.00022,0.0,0.0
12.789,4440.011,0.00023,0.0,0.0
12.795,4405.91,0.00023,0.0,0.0
12.802,4379.729,0.00023,0.0,0.0
12.808,4355.991,0.00023,0.0,0.0
12.814,4339.997,0.00023,0.0,0.0
12.821,4317.247,0.00023,0.0,0.0
12.827,4311.533,0.00023,0.0,0.0
12.833,4307.023,0.00023,0.0,0.0
12.84,4291.787,0.00023,0.0,0.0
12.846,4291.216,0.00023,0.0,0.0
12.852,4267.185,0.00023,0.0,0.0
12.859,4272.989,0.00023,0.0,0.0
12.865,4270.002,0.00023,0.0,0.0
12.871,4253.082,0.00024,0.0,0.0
12.878,4254.437,0.00024,0.0,0.0
12.884,4253.005,0.00024,0.0,0.0
12.89,4235.756,0.00024,0.0,0.0
12.896,4252.049,0.00024,0.0,0.0
12.903,4245.847,0.00024,0.0,0.0
12.909,4276.866,0.00023,0.0,0.0
12.915,4297.92,0.00023,0.0,0.0
12.922,4281.629,0.00023,0.0,0.0
12.928,4450.693,0.00022,0.0,0.0
12.934,4427.253,0.00023,0.0,0.0
12.941,4399.701,0.00023,0.0,0.0
12.947,4624.713,0.00022,0.0,0.0
12.953,4415.164,0.00023,0.0,0.0
12.96,4403.858,0.00023,0.0,0.0
12.966,4360.895,0.00023,0.0,0.0
12.972,4287.559,0.00023,0.0,0.0
12.979,4256.198,0.00023,0.0,0.0
12.985,4237.215,0.00024,0.0,0.0
12.991,4207.314,0.00024,0.0,0.0
12.998,4195.073,0.00024,0.0,0.0
13.004,4180.785,0.00024,0.0,0.0
13.01,4166.653,0.00024,0.0,0.0
13.017,4168.579,0.00024,0.0,0.0
13.023,4154.619,0.00024,0.0,0.0
13.029,4151.435,0.00024,0.0,0.0
13.036,4140.239,0.00024,0.0,0.0
13.042,4139.276,0.00024,0.0,0.0
13.048,4134.386,0.00024,0.0,0.0
13.054,4141.41,0.00024,0.0,0.0
13.061,4127.295,0.00024,0.0,0.0
13.067,4114.18,0.00024,0.0,0.0
13.073,4130.133,0.00024,0.0,0.0
13.08,4122.137,0.00024,0.0,0.0
13.086,4123.511,0.00024,0.0,0.0
13.092,4123.037,0.00024,0.0,0.0
13.099,4128.924,0.00024,0.0,0.0
13.105,4122.504,0.00024,0.0,0.0
13.111,4116.107,0.00024,0.0,0.0
13.118,4117.799,0.00024,0.0,0.0
13.124,4110.514,0.00024,0.0,0.0
13.13,4111.872,0.00024,0.0,0.0
13.137,4111.998,0.00024,0.0,0.0
13.143,4112.776,0.00024,0.0,0.0
13.149,4110.743,0.00024,0.0,0.0
13.156,4107.537,0.00024,0.0,0.0
13.162,4119.422,0.00024,0.0,0.0
13.168,4121.722,0.00024,0.0,0.0
13.175,4110.735,0.00024,0.0,0.0
13.181,4129.206,0.00024,0.0,0.0
13.187,4133.991,0.00024,0.0,0.0
13.194,4158.526,0.00024,0.0,0.0
13.2,4165.823,0.00024,0.0,0.0
13.206,4214.781,0.00024,0.0,0.0
13.212,4298.577,0.00023,0.0,0.0
13.219,4396.835,0.00023,0.0,0.0
13.225,4604.989,0.00022,0.0,0.0
13.231,4928.907,0.0002,0.0,0.0
13.238,5723.467,0.00017,0.0,0.0
13.244,6762.953,0.00015,0.0,0.0
13.25,8380.225,0.00012,0.0,0.0
13.257,10279.325,0.0001,0.0,0.0
13.263,12389.496,0.00008,0.0,0.0
13.269,12504.375,0.00008,0.0,0.0
13.276,12143.712,0.00008,0.0,0.0
13.282,10423.669,0.0001,0.0,0.0
13.288,8090.166,0.00012,0.0,0.0
13.295,6993.651,0.00014,0.0,0.0
13.301,5502.261,0.00018,0.0,0.0
13.307,4934.135,0.0002,0.0,0.0
13.314,4554.003,0.00022,0.0,0.0
13.32,4327.47,0.00023,0.0,0.0
13.326,4235.303,0.00024,0.0,0.0
13.333,4148.184,0.00024,0.0,0.0
13.339,4111.781,0.00024,0.0,0.0
13.345,4074.972,0.00025,0.0,0.0
13.352,4054.932,0.00025,0.0,0.0
13.358,4050.559,0.00025,0.0,0.0
13.364,4033.863,0.00025,0.0,0.0
13.37,4027.139,0.00025,0.0,0.0
13.377,4015.002,0.00025,0.0,0.0
13.383,4011.95,0.00025,0.0,0.0
13.389,3987.227,0.00025,0.0,0.0
13.396,4006.479,0.00025,0.0,0.0
13.402,3990.434,0.00025,0.0,0.0
13.408,3985.282,0.00025,0.0,0.0
13.415,3988.206,0.00025,0.0,0.0
13.421,3977.853,0.00025,0.0,0.0
13.427,3973.698,0.00025,0.0,0.0
13.434,3968.202,0.00025,0.0,0.0
13.44,3969.351,0.00025,0.0,0.0
13.446,3968.532,0.00025,0.0,0.0
13.453,3966.177,0.00025,0.0,0.0
13.459,3951.383,0.00025,0.0,0.0
13.465,3944.043,0.00025,0.0,0.0
13.472,3945.022,0.00025,0.0,0.0
13.478,3940.553,0.00025,0.0,0.0
13.484,3951.361,0.00025,0.0,0.0
13.491,3931.379,0.00025,0.0,0.0
13.497,3937.809,0.00025,0.0,0.0
13.503,3925.959,0.00025,0.0,0.0
13.51,3928.113,0.00025,0.0,0.0
13.516,3926.499,0.00025,0.0,0.0
13.522,3921.391,0.00026,0.0,0.0
13.528,3929.492,0.00025,0.0,0.0
13.535,3907.021,0.00026,0.0,0.0
13.541,3911.091,0.00026,0.0,0.0
13.547,3904.426,0.00026,0.0,0.0
13.554,3894.656,0.00026,0.0,0.0
13.56,3901.014,0.00026,0.0,0.0
13.566,3893.241,0.00026,0.0,0.0
13.573,3912.199,0.00026,0.0,0.0
13.579,3903.849,0.00026,0.0,0.0
13.585,3901.532,0.00026,0.0,0.0
13.592,3887.632,0.00026,0.0,0.0
13.598,3894.008,0.00026,0.0,0.0
13.604,3892.181,0.00026,0.0,0.0
13.611,3884.22,0.00026,0.0,0.0
13.617,3882.996,0.00026,0.0,0.0
13.623,3886.641,0.00026,0.0,0.0
13.63,3883.267,0.00026,0.0,0.0
13.636,3887.714,0.00026,0.0,0.0
13.642,3905.051,0.00026,0.0,0.0
13.649,3890.614,0.00026,0.0,0.0
13.655,3896.468,0.00026,0.0,0.0
13.661,3889.248,0.00026,0.0,0.0
13.668,3901.284,0.00026,0.0,0.0
13.674,3896.469,0.00026,0.0,0.0
13.68,3913.205,0.00026,0.0,0.0
13.686,3909.977,0.00026,0.0,0.0
13.693,3916.592,0.00026,0.0,0.0
13.699,3944.859,0.00025,0.0,0.0
13.705,4000.59,0.00025,0.0,0.0
13.712,4123.952,0.00024,0.0,0.0
13.718,4127.767,0.00024,0.0,0.0
13.724,4185.412,0.00024,0.0,0.0
13.731,4204.221,0.00024,0.0,0.0
13.737,4150.639,0.00024,0.0,0.0
13.743,4119.359,0.00024,0.0,0.0
13.75,4047.389,0.00025,0.0,0.0
13.756,3934.107,0.00025,0.0,0.0
13.762,3904.01,0.00026,0.0,0.0
13.769,3877.944,0.00026,0.0,0.0
13.775,3844.417,0.00026,0.0,0.0
13.781,3837.993,0.00026,0.0,0.0
13.788,3822.615,0.00026,0.0,0.0
13.794,3829.658,0.00026,0.0,0.0
13.8,3818.078,0.00026,0.0,0.0
13.807,3807.116,0.00026,0.0,0.0
13.813,3814.197,0.00026,0.0,0.0
13.819,3806.004,0.00026,0.0,0.0
13.826,3802.009,0.00026,0.0,0.0
13.832,3796.486,0.00026,0.0,0.0
13.838,3797.24,0.00026,0.0,0.0
13.844,3781.351,0.00026,0.0,0.0
13.851,3789.182,0.00026,0.0,0.0
13.857,3779.442,0.00026,0.0,0.0
13.863,3769.81,0.00027,0.0,0.0
13.87,3774.477,0.00026,0.0,0.0
13.876,3768.393,0.00027,0.0,0.0
13.882,3770.683,0.00027,0.0,0.0
13.889,3765.617,0.00027,0.0,0.0
13.895,3757.525,0.00027,0.0,0.0
13.901,3755.944,0.00027,0.0,0.0
13.908,3768.757,0.00027,0.0,0.0
13.914,3755.526,0.00027,0.0,0.0
13.92,3757.393,0.00027,0.0,0.0
13.927,3749.044,0.00027,0.0,0.0
13.933,3742.484,0.00027,0.0,0.0
13.939,3732.956,0.00027,0.0,0.0
13.946,3747.781,0.00027,0.0,0.0
13.952,3739.155,0.00027,0.0,0.0
13.958,3746.935,0.00027,0.0,0.0
13.965,3733.363,0.00027,0.0,0.0
13.971,3726.982,0.00027,0.0,0.0
13.977,3721.034,0.00027,0.0,0.0
13.984,3724.917,0.00027,0.0,0.0
13.99,3724.222,0.00027,0.0,0.0
13.996,3714.199,0.00027,0.0,0.0
14.002,3707.073,0.00027,0.0,0.0
14.009,3710.472,0.00027,0.0,0.0
14.015,3703.199,0.00027,0.0,0.0
14.021,3714.02,0.00027,0.0,0.0
14.028,3700.363,0.00027,0.0,0.0
14.034,3694.538,0.00027,0.0,0.0
14.04,3702.667,0.00027,0.0,0.0
14.047,3683.86,0.00027,0.0,0.0
14.053,3695.774,0.00027,0.0,0.0
14.059,3683.804,0.00027,0.0,0.0
14.066,3683.838,0.00027,0.0,0.0
14.072,3682.655,0.00027,0.0,0.0
14.078,3677.186,0.00027,0.0,0.0
14.085,3681.266,0.00027,0.0,0.0
14.091,3676.5,0.00027,0.0,0.0
14.097,3666.637,0.00027,0.0,0.0
14.104,3667.025,0.00027,0.0,0.0
14.11,3658.158,0.00027,0.0,0.0
14.116,3658.492,0.00027,0.0,0.0
14.123,3651.919,0.00027,0.0,0.0
14.129,3656.088,0.00027,0.0,0.0
14.135,3647.429,0.00027,0.0,0.0
14.142,3658.212,0.00027,0.0,0.0
14.148,3649.712,0.00027,0.0,0.0
14.154,3660.391,0.00027,0.0,0.0
14.16,3649.579,0.00027,0.0,0.0
14.167,3644.413,0.00027,0.0,0.0
14.173,3650.628,0.00027,0.0,0.0
14.179,3643.173,0.00027,0.0,0.0
14.186,3638.294,0.00027,0.0,0.0
14.192,3636.487,0.00027,0.0,0.0
14.198,3642.054,0.00027,0.0,0.0
14.205,3618.831,0.00028,0.0,0.0
14.211,3630.989,0.00028,0.0,0.0
14.217,3631.371,0.00028,0.0,0.0
14.224,3643.364,0.00027,0.0,0.0
14.23,3639.641,0.00027,0.0,0.0
14.236,3625.082,0.00028,0.0,0.0
14.243,3646.657,0.00027,0.0,0.0
14.249,3638.615,0.00027,0.0,0.0
14.255,3643.64,0.00027,0.0,0.0
14.262,3652.94,0.00027,0.0,0.0
14.268,3655.062,0.00027,0.0,0.0
14.274,3643.704,0.00027,0.0,0.0
14.281,3651.283,0.00027,0.0,0.0
14.287,3640.129,0.00027,0.0,0.0
14.293,3635.661,0.00028,0.0,0.0
14.3,3624.345,0.00028,0.0,0.0
14.306,3617.567,0.00028,0.0,0.0
14.312,3610.896,0.00028,0.0,0.0
14.318,3609.49,0.00028,0.0,0.0
14.325,3601.34,0.00028,0.0,0.0
14.331,3593.86,0.00028,0.0,0.0
14.337,3594.073,0.00028,0.0,0.0
14.344,3588.688,0.00028,0.0,0.0
14.35,3580.474,0.00028,0.0,0.0
14.356,3569.845,0.00028,0.0,0.0
14.363,3566.768,0.00028,0.0,0.0
14.369,3574.322,0.00028,0.0,0.0
14.375,3558.345,0.00028,0.0,0.0
14.382,3574.294,0.00028,0.0,0.0
14.388,3568.163,0.00028,0.0,0.0
14.394,3567.864,0.00028,0.0,0.0
14.401,3579.882,0.00028,0.0,0.0
14.407,3557.568,0.00028,0.0,0.0
14.413,3562.376,0.00028,0.0,0.0
14.42,3565.685,0.00028,0.0,0.0
14.426,3559.555,0.00028,0.0,0.0
14.432,3565.513,0.00028,0.0,0.0
14.439,3566.253,0.00028,0.0,0.0
14.445,3573.94,0.00028,0.0,0.0
14.451,3575.496,0.00028,0.0,0.0
14.458,3590.012,0.00028,0.0,0.0
14.464,3627.637,0.00028,0.0,0.0
14.47,3686.687,0.00027,0.0,0.0
14.476,3649.125,0.00027,0.0,0.0
14.483,3685.944,0.00027,0.0,0.0
14.489,3600.737,0.00028,0.0,0.0
14.495,3596.252,0.00028,0.0,0.0
14.502,3549.747,0.00028,0.0,0.0
14.508,3540.254,0.00028,0.0,0.0
14.514,3537.371,0.00028,0.0,0.0
14.521,3519.798,0.00028,0.0,0.0
14.527,3525.205,0.00028,0.0,0.0
14.533,3522.667,0.00028,0.0,0.0
14.54,3521.528,0.00028,0.0,0.0
14.546,3502.163,0.00029,0.0,0.0
14.552,3497.53,0.00029,0.0,0.0
14.559,3498.952,0.00029,0.0,0.0
14.565,3507.999,0.00029,0.0,0.0
14.571,3499.87,0.00029,0.0,0.0
14.578,3504.934,0.00029,0.0,0.0
14.584,3493.74,0.00029,0.0,0.0
14.59,3492.491,0.00029,0.0,0.0
14.597,3489.374,0.00029,0.0,0.0
14.603,3493.928,0.00029,0.0,0.0
14.609,3484.91,0.00029,0.0,0.0
14.616,3494.037,0.00029,0.0,0.0
14.622,3498.767,0.00029,0.0,0.0
14.628,3486.108,0.00029,0.0,0.0
14.634,3491.463,0.00029,0.0,0.0
14.641,3483.635,0.00029,0.0,0.0
14.647,3481.662,0.00029,0.0,0.0
14.653,3478.821,0.00029,0.0,0.0
14.66,3475.65,0.00029,0.0,0.0
14.666,3465.249,0.00029,0.0,0.0
14.672,3473.961,0.00029,0.0,0.0
14.679,3476.087,0.00029,0.0,0.0
14.685,3484.902,0.00029,0.0,0.0
14.691,3468.274,0.00029,0.0,0.0
14.698,3459.99,0.00029,0.0,0.0
14.704,3454.221,0.00029,0.0,0.0
14.71,3450.234,0.00029,0.0,0.0
14.717,3451.227,0.00029,0.0,0.0
14.723,3451.934,0.00029,0.0,0.0
14.729,3447.371,0.00029,0.0,0.0
14.736,3451.897,0.00029,0.0,0.0
14.742,3436.443,0.00029,0.0,0.0
14.748,3444.551,0.00029,0.0,0.0
14.755,3444.532,0.00029,0.0,0.0
14.761,3440.027,0.00029,0.0,0.0
14.767,3438.36,0.00029,0.0,0.0
14.774,3433.129,0.00029,0.0,0.0
14.78,3440.829,0.00029,0.0,0.0
14.786,3421.698,0.00029,0.0,0.0
14.792,3428.433,0.00029,0.0,0.0
14.799,3422.609,0.00029,0.0,0.0
14.805,3424.57,0.00029,0.0,0.0
14.811,3415.403,0.00029,0.0,0.0
14.818,3417.33,0.00029,0.0,0.0
14.824,3413.197,0.00029,0.0,0.0
14.83,3409.91,0.00029,0.0,0.0
14.837,3420.728,0.00029,0.0,0.0
14.843,3412.679,0.00029,0.0,0.0
14.849,3398.324,0.00029,0.0,0.0
14.856,3404.154,0.00029,0.0,0.0
14.862,3390.499,0.00029,0.0,0.0
14.868,3390.373,0.00029,0.0,0.0
14.875,3412.026,0.00029,0.0,0.0
14.881,3403.619,0.00029,0.0,0.0
14.887,3390.828,0.00029,0.0,0.0
14.894,3405.79,0.00029,0.0,0.0
14.9,3397.653,0.00029,0.0,0.0
14.906,3405.986,0.00029,0.0,0.0
14.913,3392.935,0.00029,0.0,0.0
14.919,3392.586,0.00029,0.0,0.0
14.925,3390.134,0.00029,0.0,0.0
14.932,3385.055,0.0003,0.0,0.0
14.938,3392.362,0.00029,0.0,0.0
14.944,3384.086,0.0003,0.0,0.0
14.95,3384.868,0.0003,0.0,0.0
14.957,3382.836,0.0003,0.0,0.0
14.963,3383.386,0.0003,0.0,0.0
14.969,3378.4,0.0003,0.0,0.0
14.976,3375.655,0.0003,0.0,0.0
14.982,3368.283,0.0003,0.0,0.0
14.988,3372.57,0.0003,0.0,0.0
14.995,3371.924,0.0003,0.0,0.0
15.001,3367.968,0.0003,0.0,0.0
15.007,3364.785,0.0003,0.0,0.0
15.014,3380.844,0.0003,0.0,0.0
15.02,3355.826,0.0003,0.0,0.0
15.026,3360.089,0.0003,0.0,0.0
15.033,3362.864,0.0003,0.0,0.0
15.039,3350.417,0.0003,0.0,0.0
15.045,3357.418,0.0003,0.0,0.0
15.052,3354.791,0.0003,0.0,0.0
15.058,3360.092,0.0003,0.0,0.0
15.064,3357.506,0.0003,0.0,0.0
15.071,3347.201,0.0003,0.0,0.0
15.077,3347.887,0.0003,0.0,0.0
15.083,3354.24,0.0003,0.0,0.0
15.09,3346.965,0.0003,0.0,0.0
15.096,3342.642,0.0003,0.0,0.0
15.102,3339.079,0.0003,0.0,0.0
15.108,3349.778,0.0003,0.0,0.0
15.115,3339.297,0.0003,0.0,0.0
15.121,3348.995,0.0003,0.0,0.0
15.127,3339.004,0.0003,0.0,0.0
15.134,3332.158,0.0003,0.0,0.0
15.14,3342.589,0.0003,0.0,0.0
15.146,3326.611,0.0003,0.0,0.0
15.153,3346.87,0.0003,0.0,0.0
15.159,3338.358,0.0003,0.0,0.0
15.165,3348.347,0.0003,0.0,0.0
15.172,3340.779,0.0003,0.0,0.0
15.178,3339.594,0.0003,0.0,0.0
15.184,3358.137,0.0003,0.0,0.0
15.191,3343.127,0.0003,0.0,0.0
15.197,3354.328,0.0003,0.0,0.0
15.203,3345.514,0.0003,0.0,0.0
15.21,3333.062,0.0003,0.0,0.0
15.216,3335.626,0.0003,0.0,0.0
15.222,3335.231,0.0003,0.0,0.0
15.229,3337.391,0.0003,0.0,0.0
15.235,3333.522,0.0003,0.0,0.0
15.241,3339.709,0.0003,0.0,0.0
15.248,3344.436,0.0003,0.0,0.0
15.254,3356.106,0.0003,0.0,0.0
15.26,3366.015,0.0003,0.0,0.0
15.266,3379.333,0.0003,0.0,0.0
15.273,3413.055,0.00029,0.0,0.0
15.279,3477.095,0.00029,0.0,0.0
15.285,3532.367,0.00028,0.0,0.0
15.292,3717.547,0.00027,0.0,0.0
15.298,3899.835,0.00026,0.0,0.0
15.304,4283.869,0.00023,0.0,0.0
15.311,4820.133,0.00021,0.0,0.0
15.317,5443.652,0.00018,0.0,0.0
15.323,6174.59,0.00016,0.0,0.0
15.33,6051.731,0.00017,0.0,0.0
15.336,6281.376,0.00016,0.0,0.0
15.342,5805.858,0.00017,0.0,0.0
15.349,5135.907,0.00019,0.0,0.0
15.355,4683.121,0.00021,0.0,0.0
15.361,4113.496,0.00024,0.0,0.0
15.368,3815.974,0.00026,0.0,0.0
15.374,3593.461,0.00028,0.0,0.0
15.38,3477.018,0.00029,0.0,0.0
15.387,3415.48,0.00029,0.0,0.0
15.393,3355.497,0.0003,0.0,0.0
15.399,3344.674,0.0003,0.0,0.0
15.406,3313.243,0.0003,0.0,0.0
15.412,3305.54,0.0003,0.0,0.0
15.418,3304.158,0.0003,0.0,0.0
15.424,3293.502,0.0003,0.0,0.0
15.431,3291.721,0.0003,0.0,0.0
15.437,3290.406,0.0003,0.0,0.0
15.443,3279.585,0.0003,0.0,0.0
15.45,3273.174,0.00031,0.0,0.0
15.456,3271.292,0.00031,0.0,0.0
15.462,3269.426,0.00031,0.0,0.0
15.469,3261.043,0.00031,0.0,0.0
15.475,3266.287,0.00031,0.0,0.0
15.481,3269.0,0.00031,0.0,0.0
15.488,3252.858,0.00031,0.0,0.0
15.494,3255.372,0.00031,0.0,0.0
15.5,3250.129,0.00031,0.0,0.0
15.507,3249.201,0.00031,0.0,0.0
15.513,3249.931,0.00031,0.0,0.0
15.519,3241.359,0.00031,0.0,0.0
15.526,3242.589,0.00031,0.0,0.0
15.532,3239.289,0.00031,0.0,0.0
15.538,3226.621,0.00031,0.0,0.0
15.545,3240.353,0.00031,0.0,0.0
15.551,3235.883,0.00031,0.0,0.0
15.557,3226.05,0.00031,0.0,0.0
15.564,3232.556,0.00031,0.0,0.0
15.57,3232.825,0.00031,0.0,0.0
15.576,3225.121,0.00031,0.0,0.0
15.582,3221.845,0.00031,0.0,0.0
15.589,3220.606,0.00031,0.0,0.0
15.595,3218.666,0.00031,0.0,0.0
15.601,3227.947,0.00031,0.0,0.0
15.608,3218.344,0.00031,0.0,0.0
15.614,3216.606,0.00031,0.0,0.0
15.62,3212.8,0.00031,0.0,0.0
15.627,3213.036,0.00031,0.0,0.0
15.633,3212.956,0.00031,0.0,0.0
15.639,3217.865,0.00031,0.0,0.0
15.646,3202.733,0.00031,0.0,0.0
15.652,3207.133,0.00031,0.0,0.0
15.658,3211.758,0.00031,0.0,0.0
15.665,3203.127,0.00031,0.0,0.0
15.671,3209.904,0.00031,0.0,0.0
15.677,3208.193,0.00031,0.0,0.0
15.684,3196.553,0.00031,0.0,0.0
15.69,3194.339,0.00031,0.0,0.0
15.696,3193.412,0.00031,0.0,0.0
15.703,3185.028,0.00031,0.0,0.0
15.709,3183.728,0.00031,0.0,0.0
15.715,3190.005,0.00031,0.0,0.0
15.722,3188.987,0.00031,0.0,0.0
15.728,3186.942,0.00031,0.0,0.0
15.734,3185.04,0.00031,0.0,0.0
15.74,3179.408,0.00031,0.0,0.0
15.747,3187.496,0.00031,0.0,0.0
15.753,3180.388,0.00031,0.0,0.0
15.759,3189.946,0.00031,0.0,0.0
15.766,3184.778,0.00031,0.0,0.0
15.772,3176.046,0.00031,0.0,0.0
15.778,3184.246,0.00031,0.0,0.0
15.785,3182.349,0.00031,0.0,0.0
15.791,3163.793,0.00032,0.0,0.0
15.797,3174.957,0.00031,0.0,0.0
15.804,3165.161,0.00032,0.0,0.0
15.81,3174.702,0.00031,0.0,0.0
15.816,3175.931,0.00031,0.0,0.0
15.823,3175.751,0.00031,0.0,0.0
15.829,3175.602,0.00031,0.0,0.0
15.835,3168.152,0.00032,0.0,0.0
15.842,3173.66,0.00032,0.0,0.0
15.848,3189.565,0.00031,0.0,0.0
15.854,3165.103,0.00032,0.0,0.0
15.861,3174.561,0.00032,0.0,0.0
15.867,3182.91,0.00031,0.0,0.0
15.873,3165.81,0.00032,0.0,0.0
15.88,3168.787,0.00032,0.0,0.0
15.886,3162.375,0.00032,0.0,0.0
15.892,3156.2,0.00032,0.0,0.0
15.898,3161.7,0.00032,0.0,0.0
15.905,3162.311,0.00032,0.0,0.0
15.911,3151.217,0.00032,0.0,0.0
15.917,3140.944,0.00032,0.0,0.0
15.924,3156.358,0.00032,0.0,0.0
15.93,3147.687,0.00032,0.0,0.0
15.936,3156.756,0.00032,0.0,0.0
15.943,3146.066,0.00032,0.0,0.0
15.949,3148.956,0.00032,0.0,0.0
15.955,3147.809,0.00032,0.0,0.0
15.962,3139.784,0.00032,0.0,0.0
15.968,3143.761,0.00032,0.0,0.0
15.974,3143.789,0.00032,0.0,0.0
15.981,3150.115,0.00032,0.0,0.0
15.987,3144.696,0.00032,0.0,0.0
15.993,3140.236,0.00032,0.0,0.0
16.0,3140.422,0.00032,0.0,0.0
16.006,3138.089,0.00032,0.0,0.0
16.012,3153.28,0.00032,0.0,0.0
16.019,3136.774,0.00032,0.0,0.0
16.025,3135.683,0.00032,0.0,0.0
16.031,3133.97,0.00032,0.0,0.0
16.038,3117.846,0.00032,0.0,0.0
16.044,3131.349,0.00032,0.0,0.0
16.05,3142.359,0.00032,0.0,0.0
16.056,3129.523,0.00032,0.0,0.0
16.063,3126.726,0.00032,0.0,0.0
16.069,3128.95,0.00032,0.0,0.0
16.075,3139.178,0.00032,0.0,0.0
16.082,3124.129,0.00032,0.0,0.0
16.088,3124.77,0.00032,0.0,0.0
16.094,3125.491,0.00032,0.0,0.0
16.101,3116.192,0.00032,0.0,0.0
16.107,3124.594,0.00032,0.0,0.0
16.113,3127.741,0.00032,0.0,0.0
16.12,3134.132,0.00032,0.0,0.0
16.126,3114.019,0.00032,0.0,0.0
16.132,3114.225,0.00032,0.0,0.0
16.139,3113.444,0.00032,0.0,0.0
16.145,3120.795,0.00032,0.0,0.0
16.151,3122.154,0.00032,0.0,0.0
16.158,3106.119,0.00032,0.0,0.0
16.164,3113.496,0.00032,0.0,0.0
16.17,3116.044,0.00032,0.0,0.0
16.177,3114.067,0.00032,0.0,0.0
16.183,3116.848,0.00032,0.0,0.0
16.189,3120.14,0.00032,0.0,0.0
16.196,3112.744,0.00032,0.0,0.0
16.202,3114.309,0.00032,0.0,0.0
16.208,3104.983,0.00032,0.0,0.0
16.214,3113.867,0.00032,0.0,0.0
16.221,3108.984,0.00032,0.0,0.0
16.227,3111.427,0.00032,0.0,0.0
16.233,3099.695,0.00032,0.0,0.0
16.24,3105.353,0.00032,0.0,0.0
16.246,3105.918,0.00032,0.0,0.0
16.252,3106.307,0.00032,0.0,0.0
16.259,3114.089,0.00032,0.0,0.0
16.265,3109.166,0.00032,0.0,0.0
16.271,3109.994,0.00032,0.0,0.0
16.278,3103.341,0.00032,0.0,0.0
16.284,3097.204,0.00032,0.0,0.0
16.29,3110.398,0.00032,0.0,0.0
16.297,3113.381,0.00032,0.0,0.0
16.303,3103.989,0.00032,0.0,0.0
16.309,3099.652,0.00032,0.0,0.0
16.316,3102.769,0.00032,0.0,0.0
16.322,3106.014,0.00032,0.0,0.0
16.328,3119.475,0.00032,0.0,0.0
16.335,3108.587,0.00032,0.0,0.0
16.341,3103.041,0.00032,0.0,0.0
16.347,3108.578,0.00032,0.0,0.0
16.354,3110.327,0.00032,0.0,0.0
16.36,3104.664,0.00032,0.0,0.0
16.366,3100.512,0.00032,0.0,0.0
16.372,3100.097,0.00032,0.0,0.0
16.379,3108.58,0.00032,0.0,0.0
16.385,3090.395,0.00032,0.0,0.0
16.391,3096.315,0.00032,0.0,0.0
16.398,3086.47,0.00032,0.0,0.0
16.404,3093.629,0.00032,0.0,0.0
16.41,3107.686,0.00032,0.0,0.0
16.417,3101.192,0.00032,0.0,0.0
16.423,3107.739,0.00032,0.0,0.0
16.429,3101.064,0.00032,0.0,0.0
16.436,3102.538,0.00032,0.0,0.0
16.442,3099.296,0.00032,0.0,0.0
16.448,3112.034,0.00032,0.0,0.0
16.455,3102.295,0.00032,0.0,0.0
16.461,3118.313,0.00032,0.0,0.0
16.467,3108.156,0.00032,0.0,0.0
16.474,3112.91,0.00032,0.0,0.0
16.48,3126.103,0.00032,0.0,0.0
16.486,3122.393,0.00032,0.0,0.0
16.493,3131.627,0.00032,0.0,0.0
16.499,3153.76,0.00032,0.0,0.0
16.505,3179.404,0.00031,0.0,0.0
16.512,3161.781,0.00032,0.0,0.0
16.518,3175.801,0.00031,0.0,0.0
16.524,3178.645,0.00031,0.0,0.0
16.53,3149.007,0.00032,0.0,0.0
16.537,3158.114,0.00032,0.0,0.0
16.543,3137.048,0.00032,0.0,0.0
16.549,3129.138,0.00032,0.0,0.0
16.556,3124.551,0.00032,0.0,0.0
16.562,3123.619,0.00032,0.0,0.0
16.568,3114.476,0.00032,0.0,0.0
16.575,3120.947,0.00032,0.0,0.0
16.581,3119.718,0.00032,0.0,0.0
16.587,3123.098,0.00032,0.0,0.0
16.594,3113.156,0.00032,0.0,0.0
