"x","y_obs","weight","y_calc","y_bkg"
0.8,2917.603,0.00034,0.0,0.0
0.806,3313.862,0.0003,0.0,0.0
0.813,3411.715,0.00029,0.0,0.0
0.819,3276.063,0.00031,0.0,0.0
0.825,3945.32,0.00025,0.0,0.0
0.832,3713.353,0.00027,0.0,0.0
0.838,3951.104,0.00025,0.0,0.0
0.844,4276.977,0.00023,0.0,0.0
0.851,4136.488,0.00024,0.0,0.0
0.857,4584.2,0.00022,0.0,0.0
0.863,4927.455,0.0002,0.0,0.0
0.87,4539.298,0.00022,0.0,0.0
0.876,5401.333,0.00019,0.0,0.0
0.882,5192.058,0.00019,0.0,0.0
0.888,5481.487,0.00018,0.0,0.0
0.895,5666.175,0.00018,0.0,0.0
0.901,5666.166,0.00018,0.0,0.0
0.907,6105.367,0.00016,0.0,0.0
0.914,6298.548,0.00016,0.0,0.0
0.92,5948.132,0.00017,0.0,0.0
0.926,6545.66,0.00015,0.0,0.0
0.933,6602.272,0.00015,0.0,0.0
0.939,6396.154,0.00016,0.0,0.0
0.945,7030.079,0.00014,0.0,0.0
0.952,6567.15,0.00015,0.0,0.0
0.958,6936.201,0.00014,0.0,0.0
0.964,6992.812,0.00014,0.0,0.0
0.971,6738.709,0.00015,0.0,0.0
0.977,7139.372,0.00014,0.0,0.0
0.983,7152.249,0.00014,0.0,0.0
0.99,6886.824,0.00015,0.0,0.0
0.996,7302.215,0.00014,0.0,0.0
1.002,7016.154,0.00014,0.0,0.0
1.009,7161.184,0.00014,0.0,0.0
1.015,7301.341,0.00014,0.0,0.0
1.021,6996.095,0.00014,0.0,0.0
1.028,7334.404,0.00014,0.0,0.0
1.034,7169.999,0.00014,0.0,0.0
1.04,7151.922,0.00014,0.0,0.0
1.046,7217.762,0.00014,0.0,0.0
1.053,7236.433,0.00014,0.0,0.0
1.059,7157.159,0.00014,0.0,0.0
1.065,7248.185,0.00014,0.0,0.0
1.072,7036.855,0.00014,0.0,0.0
1.078,7160.435,0.00014,0.0,0.0
1.084,7029.61,0.00014,0.0,0.0
1.091,7061.5,0.00014,0.0,0.0
1.097,7112.449,0.00014,0.0,0.0
1.103,7035.737,0.00014,0.0,0.0
1.11,6970.669,0.00014,0.0,0.0
1.116,6960.298,0.00014,0.0,0.0
1.122,6868.932,0.00015,0.0,0.0
1.129,6885.53,0.00015,0.0,0.0
1.135,6830.97,0.00015,0.0,0.0
1.141,6776.357,0.00015,0.0,0.0
1.148,6780.644,0.00015,0.0,0.0
1.154,6678.374,0.00015,0.0,0.0
1.16,6688.367,0.00015,0.0,0.0
1.167,6624.453,0.00015,0.0,0.0
1.173,6573.529,0.00015,0.0,0.0
1.179,6530.123,0.00015,0.0,0.0
1.186,6503.685,0.00015,0.0,0.0
1.192,6463.116,0.00015,0.0,0.0
1.198,6439.898,0.00016,0.0,0.0
1.204,6325.342,0.00016,0.0,0.0
1.211,6371.802,0.00016,0.0,0.0
1.217,6273.913,0.00016,0.0,0.0
1.223,6230.34,0.00016,0.0,0.0
1.23,6257.934,0.00016,0.0,0.0
1.236,6203.463,0.00016,0.0,0.0
1.242,6138.06,0.00016,0.0,0.0
1.249,6172.117,0.00016,0.0,0.0
1.255,6127.359,0.00016,0.0,0.0
1.261,6068.566,0.00016,0.0,0.0
1.268,6083.579,0.00016,0.0,0.0
1.274,5980.652,0.00017,0.0,0.0
1.28,6012.431,0.00017,0.0,0.0
1.287,5974.891,0.00017,0.0,0.0
1.293,5945.774,0.00017,0.0,0.0
1.299,5919.323,0.00017,0.0,0.0
1.306,5916.493,0.00017,0.0,0.0
1.312,5855.488,0.00017,0.0,0.0
1.318,5819.531,0.00017,0.0,0.0
1.325,5825.184,0.00017,0.0,0.0
1.331,5827.084,0.00017,0.0,0.0
1.337,5774.18,0.00017,0.0,0.0
1.344,5792.626,0.00017,0.0,0.0
1.35,5763.712,0.00017,0.0,0.0
1.356,5731.859,0.00017,0.0,0.0
1.362,5727.651,0.00017,0.0,0.0
1.369,5755.836,0.00017,0.0,0.0
1.375,5728.631,0.00017,0.0,0.0
1.381,5680.439,0.00018,0.0,0.0
1.388,5719.117,0.00017,0.0,0.0
1.394,5596.322,0.00018,0.0,0.0
1.4,5695.194,0.00018,0.0,0.0
1.407,5585.058,0.00018,0.0,0.0
1.413,5658.46,0.00018,0.0,0.0
1.419,5610.738,0.00018,0.0,0.0
1.426,5603.796,0.00018,0.0,0.0
1.432,5607.266,0.00018,0.0,0.0
1.438,5587.315,0.00018,0.0,0.0
1.445,5619.095,0.00018,0.0,0.0
1.451,5618.091,0.00018,0.0,0.0
1.457,5570.292,0.00018,0.0,0.0
1.464,5618.03,0.00018,0.0,0.0
1.47,5592.874,0.00018,0.0,0.0
1.476,5571.958,0.00018,0.0,0.0
1.483,5636.741,0.00018,0.0,0.0
1.489,5554.746,0.00018,0.0,0.0
1.495,5567.527,0.00018,0.0,0.0
1.502,5546.062,0.00018,0.0,0.0
1.508,5545.148,0.00018,0.0,0.0
1.514,5534.641,0.00018,0.0,0.0
1.52,5571.956,0.00018,0.0,0.0
1.527,5561.884,0.00018,0.0,0.0
1.533,5592.103,0.00018,0.0,0.0
1.539,5584.189,0.00018,0.0,0.0
1.546,5562.004,0.00018,0.0,0.0
1.552,5595.568,0.00018,0.0,0.0
1.558,5613.386,0.00018,0.0,0.0
1.565,5602.128,0.00018,0.0,0.0
1.571,5596.729,0.00018,0.0,0.0
1.577,5626.307,0.00018,0.0,0.0
1.584,5615.58,0.00018,0.0,0.0
1.59,5659.823,0.00018,0.0,0.0
1.596,5638.9,0.00018,0.0,0.0
1.603,5670.483,0.00018,0.0,0.0
1.609,5628.56,0.00018,0.0,0.0
1.615,5676.483,0.00018,0.0,0.0
1.622,5681.739,0.00018,0.0,0.0
1.628,5709.948,0.00018,0.0,0.0
1.634,5699.359,0.00018,0.0,0.0
1.641,5697.912,0.00018,0.0,0.0
1.647,5721.55,0.00017,0.0,0.0
1.653,5744.785,0.00017,0.0,0.0
1.66,5739.401,0.00017,0.0,0.0
1.666,5754.954,0.00017,0.0,0.0
1.672,5754.319,0.00017,0.0,0.0
1.678,5799.432,0.00017,0.0,0.0
1.685,5788.296,0.00017,0.0,0.0
1.691,5767.195,0.00017,0.0,0.0
1.697,5808.83,0.00017,0.0,0.0
1.704,5829.333,0.00017,0.0,0.0
1.71,5841.945,0.00017,0.0,0.0
1.716,5828.334,0.00017,0.0,0.0
1.723,5874.33,0.00017,0.0,0.0
1.729,5842.23,0.00017,0.0,0.0
1.735,5857.025,0.00017,0.0,0.0
1.742,5887.0,0.00017,0.0,0.0
1.748,5874.804,0.00017,0.0,0.0
1.754,5910.432,0.00017,0.0,0.0
1.761,5933.93,0.00017,0.0,0.0
1.767,5937.556,0.00017,0.0,0.0
1.773,5941.141,0.00017,0.0,0.0
1.78,5944.696,0.00017,0.0,0.0
1.786,5966.349,0.00017,0.0,0.0
1.792,5919.292,0.00017,0.0,0.0
1.799,5977.319,0.00017,0.0,0.0
1.805,5952.386,0.00017,0.0,0.0
1.811,5935.692,0.00017,0.0,0.0
1.818,5938.945,0.00017,0.0,0.0
1.824,6010.406,0.00017,0.0,0.0
1.83,5993.892,0.00017,0.0,0.0
1.836,5986.926,0.00017,0.0,0.0
1.843,6007.172,0.00017,0.0,0.0
1.849,5975.948,0.00017,0.0,0.0
1.855,6004.402,0.00017,0.0,0.0
1.862,6013.438,0.00017,0.0,0.0
1.868,5988.136,0.00017,0.0,0.0
1.874,6002.189,0.00017,0.0,0.0
1.881,5994.152,0.00017,0.0,0.0
1.887,5997.962,0.00017,0.0,0.0
1.893,5985.533,0.00017,0.0,0.0
1.9,5972.337,0.00017,0.0,0.0
1.906,5980.547,0.00017,0.0,0.0
1.912,6003.102,0.00017,0.0,0.0
1.919,5954.007,0.00017,0.0,0.0
1.925,5989.099,0.00017,0.0,0.0
1.931,5982.258,0.00017,0.0,0.0
1.938,5977.372,0.00017,0.0,0.0
1.944,5981.106,0.00017,0.0,0.0
1.95,5970.026,0.00017,0.0,0.0
1.957,5994.632,0.00017,0.0,0.0
1.963,5955.653,0.00017,0.0,0.0
1.969,5956.945,0.00017,0.0,0.0
1.976,6003.615,0.00017,0.0,0.0
1.982,5989.209,0.00017,0.0,0.0
1.988,5966.605,0.00017,0.0,0.0
1.994,6001.338,0.00017,0.0,0.0
2.001,5959.982,0.00017,0.0,0.0
2.007,6018.664,0.00017,0.0,0.0
2.013,5988.119,0.00017,0.0,0.0
2.02,5990.029,0.00017,0.0,0.0
2.026,6003.526,0.00017,0.0,0.0
2.032,6026.092,0.00017,0.0,0.0
2.039,6003.927,0.00017,0.0,0.0
2.045,6000.398,0.00017,0.0,0.0
2.051,6005.442,0.00017,0.0,0.0
2.058,5979.412,0.00017,0.0,0.0
2.064,6026.289,0.00017,0.0,0.0
2.07,6046.211,0.00017,0.0,0.0
2.077,6046.665,0.00017,0.0,0.0
2.083,6009.478,0.00017,0.0,0.0
2.089,5994.785,0.00017,0.0,0.0
2.096,6037.913,0.00017,0.0,0.0
2.102,6038.185,0.00017,0.0,0.0
2.108,6049.551,0.00017,0.0,0.0
2.115,6066.816,0.00016,0.0,0.0
2.121,6049.288,0.00017,0.0,0.0
2.127,6078.633,0.00016,0.0,0.0
2.134,6071.07,0.00016,0.0,0.0
2.14,6071.903,0.00016,0.0,0.0
2.146,6041.896,0.00017,0.0,0.0
2.152,6060.157,0.00017,0.0,0.0
2.159,6079.374,0.00016,0.0,0.0
2.165,6043.358,0.00017,0.0,0.0
2.171,6117.15,0.00016,0.0,0.0
2.178,6108.777,0.00016,0.0,0.0
2.184,6127.129,0.00016,0.0,0.0
2.19,6124.024,0.00016,0.0,0.0
2.197,6144.37,0.00016,0.0,0.0
2.203,6178.1,0.00016,0.0,0.0
2.209,6156.69,0.00016,0.0,0.0
2.216,6190.127,0.00016,0.0,0.0
2.222,6212.716,0.00016,0.0,0.0
2.228,6200.584,0.00016,0.0,0.0
2.235,6205.356,0.00016,0.0,0.0
2.241,6223.721,0.00016,0.0,0.0
2.247,6257.23,0.00016,0.0,0.0
2.254,6266.86,0.00016,0.0,0.0
2.26,6273.527,0.00016,0.0,0.0
2.266,6247.096,0.00016,0.0,0.0
2.273,6321.722,0.00016,0.0,0.0
2.279,6334.923,0.00016,0.0,0.0
2.285,6364.277,0.00016,0.0,0.0
2.292,6351.877,0.00016,0.0,0.0
2.298,6413.011,0.00016,0.0,0.0
2.304,6401.564,0.00016,0.0,0.0
2.31,6393.867,0.00016,0.0,0.0
2.317,6402.61,0.00016,0.0,0.0
2.323,6456.098,0.00015,0.0,0.0
2.329,6430.794,0.00016,0.0,0.0
2.336,6470.084,0.00015,0.0,0.0
2.342,6525.499,0.00015,0.0,0.0
2.348,6512.203,0.00015,0.0,0.0
2.355,6597.843,0.00015,0.0,0.0
2.361,6558.025,0.00015,0.0,0.0
2.367,6603.743,0.00015,0.0,0.0
2.374,6599.447,0.00015,0.0,0.0
2.38,6642.02,0.00015,0.0,0.0
2.386,6677.811,0.00015,0.0,0.0
2.393,6723.678,0.00015,0.0,0.0
2.399,6805.978,0.00015,0.0,0.0
2.405,6901.121,0.00014,0.0,0.0
2.412,7008.175,0.00014,0.0,0.0
2.418,7098.561,0.00014,0.0,0.0
2.424,7176.089,0.00014,0.0,0.0
2.431,7250.674,0.00014,0.0,0.0
2.437,7186.362,0.00014,0.0,0.0
2.443,7090.809,0.00014,0.0,0.0
2.45,7046.302,0.00014,0.0,0.0
2.456,7031.016,0.00014,0.0,0.0
2.462,7001.684,0.00014,0.0,0.0
2.468,6992.231,0.00014,0.0,0.0
2.475,6976.909,0.00014,0.0,0.0
2.481,7028.548,0.00014,0.0,0.0
2.487,7019.895,0.00014,0.0,0.0
2.494,7014.151,0.00014,0.0,0.0
2.5,7061.728,0.00014,0.0,0.0
2.506,7077.485,0.00014,0.0,0.0
2.513,7136.364,0.00014,0.0,0.0
2.519,7132.583,0.00014,0.0,0.0
2.525,7144.367,0.00014,0.0,0.0
2.532,7144.248,0.00014,0.0,0.0
2.538,7154.92,0.00014,0.0,0.0
2.544,7197.816,0.00014,0.0,0.0
2.551,7230.783,0.00014,0.0,0.0
2.557,7247.654,0.00014,0.0,0.0
2.563,7278.529,0.00014,0.0,0.0
2.57,7348.866,0.00014,0.0,0.0
2.576,7340.985,0.00014,0.0,0.0
2.582,7378.914,0.00014,0.0,0.0
2.589,7384.015,0.00014,0.0,0.0
2.595,7409.637,0.00013,0.0,0.0
2.601,7428.958,0.00013,0.0,0.0
2.608,7446.814,0.00013,0.0,0.0
2.614,7487.935,0.00013,0.0,0.0
2.62,7504.15,0.00013,0.0,0.0
2.626,7496.029,0.00013,0.0,0.0
2.633,7561.528,0.00013,0.0,0.0
2.639,7597.904,0.00013,0.0,0.0
2.645,7607.124,0.00013,0.0,0.0
2.652,7632.171,0.00013,0.0,0.0
2.658,7635.592,0.00013,0.0,0.0
2.664,7697.114,0.00013,0.0,0.0
2.671,7697.167,0.00013,0.0,0.0
2.677,7723.134,0.00013,0.0,0.0
2.683,7750.903,0.00013,0.0,0.0
2.69,7773.142,0.00013,0.0,0.0
2.696,7793.171,0.00013,0.0,0.0
2.702,7829.102,0.00013,0.0,0.0
2.709,7840.094,0.00013,0.0,0.0
2.715,7888.534,0.00013,0.0,0.0
2.721,7893.708,0.00013,0.0,0.0
2.728,7937.343,0.00013,0.0,0.0
2.734,7962.903,0.00013,0.0,0.0
2.74,7979.219,0.00013,0.0,0.0
2.747,7996.18,0.00013,0.0,0.0
2.753,8038.299,0.00012,0.0,0.0
2.759,8048.743,0.00012,0.0,0.0
2.766,8072.594,0.00012,0.0,0.0
2.772,8109.806,0.00012,0.0,0.0
2.778,8131.432,0.00012,0.0,0.0
2.784,8156.808,0.00012,0.0,0.0
2.791,8189.541,0.00012,0.0,0.0
2.797,8203.551,0.00012,0.0,0.0
2.803,8246.342,0.00012,0.0,0.0
2.81,8249.205,0.00012,0.0,0.0
2.816,8284.711,0.00012,0.0,0.0
2.822,8296.824,0.00012,0.0,0.0
2.829,8328.468,0.00012,0.0,0.0
2.835,8344.168,0.00012,0.0,0.0
2.841,8377.991,0.00012,0.0,0.0
2.848,8427.51,0.00012,0.0,0.0
2.854,8451.338,0.00012,0.0,0.0
2.86,8472.608,0.00012,0.0,0.0
2.867,8474.041,0.00012,0.0,0.0
2.873,8478.959,0.00012,0.0,0.0
2.879,8520.759,0.00012,0.0,0.0
2.886,8533.549,0.00012,0.0,0.0
2.892,8579.72,0.00012,0.0,0.0
2.898,8594.572,0.00012,0.0,0.0
2.905,8631.802,0.00012,0.0,0.0
2.911,8651.711,0.00012,0.0,0.0
2.917,8662.355,0.00012,0.0,0.0
2.924,8661.083,0.00012,0.0,0.0
2.93,8704.089,0.00011,0.0,0.0
2.936,8719.616,0.00011,0.0,0.0
2.942,8735.447,0.00011,0.0,0.0
2.949,8758.649,0.00011,0.0,0.0
2.955,8784.475,0.00011,0.0,0.0
2.961,8804.08,0.00011,0.0,0.0
2.968,8819.917,0.00011,0.0,0.0
2.974,8848.748,0.00011,0.0,0.0
2.98,8870.43,0.00011,0.0,0.0
2.987,8882.943,0.00011,0.0,0.0
2.993,8863.142,0.00011,0.0,0.0
2.999,8939.415,0.00011,0.0,0.0
3.006,8911.967,0.00011,0.0,0.0
3.012,8936.328,0.00011,0.0,0.0
3.018,8948.253,0.00011,0.0,0.0
3.025,8952.021,0.00011,0.0,0.0
3.031,8968.419,0.00011,0.0,0.0
3.037,8968.447,0.00011,0.0,0.0
3.044,8964.988,0.00011,0.0,0.0
3.05,8996.681,0.00011,0.0,0.0
3.056,8995.815,0.00011,0.0,0.0
3.063,9024.629,0.00011,0.0,0.0
3.069,9027.3,0.00011,0.0,0.0
3.075,8996.157,0.00011,0.0,0.0
3.082,9014.935,0.00011,0.0,0.0
3.088,9012.652,0.00011,0.0,0.0
3.094,9034.403,0.00011,0.0,0.0
3.1,9008.565,0.00011,0.0,0.0
3.107,9015.727,0.00011,0.0,0.0
3.113,9011.108,0.00011,0.0,0.0
3.119,9054.912,0.00011,0.0,0.0
3.126,9010.868,0.00011,0.0,0.0
3.132,9023.165,0.00011,0.0,0.0
3.138,9021.991,0.00011,0.0,0.0
3.145,9029.786,0.00011,0.0,0.0
3.151,9053.179,0.00011,0.0,0.0
3.157,8982.484,0.00011,0.0,0.0
3.164,8997.344,0.00011,0.0,0.0
3.17,9010.044,0.00011,0.0,0.0
3.176,8977.615,0.00011,0.0,0.0
3.183,8988.798,0.00011,0.0,0.0
3.189,8957.381,0.00011,0.0,0.0
3.195,8918.809,0.00011,0.0,0.0
3.202,8959.784,0.00011,0.0,0.0
3.208,8937.757,0.00011,0.0,0.0
3.214,8940.941,0.00011,0.0,0.0
3.221,8917.862,0.00011,0.0,0.0
3.227,8925.354,0.00011,0.0,0.0
3.233,8875.952,0.00011,0.0,0.0
3.24,8909.793,0.00011,0.0,0.0
3.246,8856.581,0.00011,0.0,0.0
3.252,8873.057,0.00011,0.0,0.0
3.258,8852.615,0.00011,0.0,0.0
3.265,8848.892,0.00011,0.0,0.0
3.271,8836.769,0.00011,0.0,0.0
3.277,8788.136,0.00011,0.0,0.0
3.284,8774.698,0.00011,0.0,0.0
3.29,8781.279,0.00011,0.0,0.0
3.296,8766.309,0.00011,0.0,0.0
3.303,8759.183,0.00011,0.0,0.0
3.309,8724.693,0.00011,0.0,0.0
3.315,8703.842,0.00011,0.0,0.0
3.322,8704.356,0.00011,0.0,0.0
3.328,8694.348,0.00012,0.0,0.0
3.334,8668.886,0.00012,0.0,0.0
3.341,8690.091,0.00012,0.0,0.0
3.347,8662.198,0.00012,0.0,0.0
3.353,8630.436,0.00012,0.0,0.0
3.36,8638.04,0.00012,0.0,0.0
3.366,8615.25,0.00012,0.0,0.0
3.372,8608.371,0.00012,0.0,0.0
3.379,8576.615,0.00012,0.0,0.0
3.385,8583.659,0.00012,0.0,0.0
3.391,8557.053,0.00012,0.0,0.0
3.398,8532.101,0.00012,0.0,0.0
3.404,8524.352,0.00012,0.0,0.0
3.41,8499.292,0.00012,0.0,0.0
3.416,8506.489,0.00012,0.0,0.0
3.423,8532.922,0.00012,0.0,0.0
3.429,8507.995,0.00012,0.0,0.0
3.435,8509.208,0.00012,0.0,0.0
3.442,8477.738,0.00012,0.0,0.0
3.448,8432.245,0.00012,0.0,0.0
3.454,8443.81,0.00012,0.0,0.0
3.461,8442.273,0.00012,0.0,0.0
3.467,8409.149,0.00012,0.0,0.0
3.473,8411.908,0.00012,0.0,0.0
3.48,8410.377,0.00012,0.0,0.0
3.486,8419.544,0.00012,0.0,0.0
3.492,8388.409,0.00012,0.0,0.0
3.499,8381.119,0.00012,0.0,0.0
3.505,8393.445,0.00012,0.0,0.0
3.511,8365.144,0.00012,0.0,0.0
3.518,8358.442,0.00012,0.0,0.0
3.524,8335.355,0.00012,0.0,0.0
3.53,8317.098,0.00012,0.0,0.0
3.537,8331.251,0.00012,0.0,0.0
3.543,8336.712,0.00012,0.0,0.0
3.549,8338.27,0.00012,0.0,0.0
3.556,8317.693,0.00012,0.0,0.0
3.562,8321.749,0.00012,0.0,0.0
3.568,8296.146,0.00012,0.0,0.0
3.574,8304.887,0.00012,0.0,0.0
3.581,8282.136,0.00012,0.0,0.0
3.587,8318.927,0.00012,0.0,0.0
3.593,8299.289,0.00012,0.0,0.0
3.6,8331.476,0.00012,0.0,0.0
3.606,8310.349,0.00012,0.0,0.0
3.612,8303.945,0.00012,0.0,0.0
3.619,8296.476,0.00012,0.0,0.0
3.625,8301.469,0.00012,0.0,0.0
3.631,8258.985,0.00012,0.0,0.0
3.638,8301.184,0.00012,0.0,0.0
3.644,8284.932,0.00012,0.0,0.0
3.65,8276.807,0.00012,0.0,0.0
3.657,8288.257,0.00012,0.0,0.0
3.663,8250.407,0.00012,0.0,0.0
3.669,8256.147,0.00012,0.0,0.0
3.676,8257.492,0.00012,0.0,0.0
3.682,8269.054,0.00012,0.0,0.0
3.688,8250.914,0.00012,0.0,0.0
3.695,8240.951,0.00012,0.0,0.0
3.701,8252.685,0.00012,0.0,0.0
3.707,8244.25,0.00012,0.0,0.0
3.714,8267.25,0.00012,0.0,0.0
3.72,8252.633,0.00012,0.0,0.0
3.726,8246.921,0.00012,0.0,0.0
3.732,8227.038,0.00012,0.0,0.0
3.739,8258.69,0.00012,0.0,0.0
3.745,8223.657,0.00012,0.0,0.0
3.751,8226.196,0.00012,0.0,0.0
3.758,8246.694,0.00012,0.0,0.0
3.764,8251.404,0.00012,0.0,0.0
3.77,8244.581,0.00012,0.0,0.0
3.777,8223.717,0.00012,0.0,0.0
3.783,8217.455,0.00012,0.0,0.0
3.789,8227.405,0.00012,0.0,0.0
3.796,8215.871,0.00012,0.0,0.0
3.802,8217.026,0.00012,0.0,0.0
3.808,8253.307,0.00012,0.0,0.0
3.815,8227.736,0.00012,0.0,0.0
3.821,8235.134,0.00012,0.0,0.0
3.827,8229.65,0.00012,0.0,0.0
3.834,8245.508,0.00012,0.0,0.0
3.84,8212.738,0.00012,0.0,0.0
3.846,8248.984,0.00012,0.0,0.0
3.853,8215.482,0.00012,0.0,0.0
3.859,8216.277,0.00012,0.0,0.0
3.865,8220.353,0.00012,0.0,0.0
3.872,8217.103,0.00012,0.0,0.0
3.878,8231.246,0.00012,0.0,0.0
3.884,8191.874,0.00012,0.0,0.0
3.89,8218.924,0.00012,0.0,0.0
3.897,8191.492,0.00012,0.0,0.0
3.903,8188.658,0.00012,0.0,0.0
3.909,8190.326,0.00012,0.0,0.0
3.916,8166.49,0.00012,0.0,0.0
3.922,8173.7,0.00012,0.0,0.0
3.928,8192.407,0.00012,0.0,0.0
3.935,8178.781,0.00012,0.0,0.0
3.941,8184.943,0.00012,0.0,0.0
3.947,8225.439,0.00012,0.0,0.0
3.954,8210.885,0.00012,0.0,0.0
3.96,8190.826,0.00012,0.0,0.0
3.966,8267.52,0.00012,0.0,0.0
3.973,8210.029,0.00012,0.0,0.0
3.979,8193.588,0.00012,0.0,0.0
3.985,8198.808,0.00012,0.0,0.0
3.992,8186.556,0.00012,0.0,0.0
3.998,8170.934,0.00012,0.0,0.0
4.004,8168.042,0.00012,0.0,0.0
4.011,8187.898,0.00012,0.0,0.0
4.017,8174.634,0.00012,0.0,0.0
4.023,8180.585,0.00012,0.0,0.0
4.03,8173.869,0.00012,0.0,0.0
4.036,8182.568,0.00012,0.0,0.0
4.042,8203.104,0.00012,0.0,0.0
4.048,8210.654,0.00012,0.0,0.0
4.055,8167.73,0.00012,0.0,0.0
4.061,8214.703,0.00012,0.0,0.0
4.067,8262.43,0.00012,0.0,0.0
4.074,8214.75,0.00012,0.0,0.0
4.08,8213.755,0.00012,0.0,0.0
4.086,8213.367,0.00012,0.0,0.0
4.093,8260.552,0.00012,0.0,0.0
4.099,8246.074,0.00012,0.0,0.0
4.105,8257.695,0.00012,0.0,0.0
4.112,8290.331,0.00012,0.0,0.0
4.118,8263.308,0.00012,0.0,0.0
4.124,8287.914,0.00012,0.0,0.0
4.131,8314.978,0.00012,0.0,0.0
4.137,8272.838,0.00012,0.0,0.0
4.143,8362.152,0.00012,0.0,0.0
4.15,8332.044,0.00012,0.0,0.0
4.156,8352.123,0.00012,0.0,0.0
4.162,8390.792,0.00012,0.0,0.0
4.169,8386.66,0.00012,0.0,0.0
4.175,8405.682,0.00012,0.0,0.0
4.181,8431.967,0.00012,0.0,0.0
4.188,8419.578,0.00012,0.0,0.0
4.194,8505.278,0.00012,0.0,0.0
4.2,8508.736,0.00012,0.0,0.0
4.206,8511.702,0.00012,0.0,0.0
4.213,8561.396,0.00012,0.0,0.0
4.219,8530.925,0.00012,0.0,0.0
4.225,8615.482,0.00012,0.0,0.0
4.232,8612.633,0.00012,0.0,0.0
4.238,8604.086,0.00012,0.0,0.0
4.244,8677.318,0.00012,0.0,0.0
4.251,8685.156,0.00012,0.0,0.0
4.257,8688.602,0.00012,0.0,0.0
4.263,8800.37,0.00011,0.0,0.0
4.27,8736.353,0.00011,0.0,0.0
4.276,8868.602,0.00011,0.0,0.0
4.282,8873.741,0.00011,0.0,0.0
4.289,8848.203,0.00011,0.0,0.0
4.295,9007.693,0.00011,0.0,0.0
4.301,8947.421,0.00011,0.0,0.0
4.308,9012.222,0.00011,0.0,0.0
4.314,9065.379,0.00011,0.0,0.0
4.32,9071.299,0.00011,0.0,0.0
4.327,9137.422,0.00011,0.0,0.0
4.333,9136.882,0.00011,0.0,0.0
4.339,9193.099,0.00011,0.0,0.0
4.346,9320.938,0.00011,0.0,0.0
4.352,9267.23,0.00011,0.0,0.0
4.358,9432.108,0.00011,0.0,0.0
4.364,9482.503,0.00011,0.0,0.0
4.371,9377.981,0.00011,0.0,0.0
4.377,9760.714,0.0001,0.0,0.0
4.383,9620.964,0.0001,0.0,0.0
4.39,9782.651,0.0001,0.0,0.0
4.396,9882.733,0.0001,0.0,0.0
4.402,9814.929,0.0001,0.0,0.0
4.409,9931.839,0.0001,0.0,0.0
4.415,10117.042,0.0001,0.0,0.0
4.421,10107.538,0.0001,0.0,0.0
4.428,10465.107,0.0001,0.0,0.0
4.434,10384.184,0.0001,0.0,0.0
4.44,10466.167,0.0001,0.0,0.0
4.447,10749.857,0.00009,0.0,0.0
4.453,10673.644,0.00009,0.0,0.0
4.459,11194.255,0.00009,0.0,0.0
4.466,11290.799,0.00009,0.0,0.0
4.472,11318.486,0.00009,0.0,0.0
4.478,12017.36,0.00008,0.0,0.0
4.485,11895.707,0.00008,0.0,0.0
4.491,12439.113,0.00008,0.0,0.0
4.497,13758.425,0.00007,0.0,0.0
4.504,13332.438,0.00008,0.0,0.0
4.51,16481.446,0.00006,0.0,0.0
4.516,17242.763,0.00006,0.0,0.0
4.522,19475.843,0.00005,0.0,0.0
4.529,31113.733,0.00003,0.0,0.0
4.535,38658.367,0.00003,0.0,0.0
4.541,51843.161,0.00002,0.0,0.0
4.548,91432.84,0.00001,0.0,0.0
4.554,73018.064,0.00001,0.0,0.0
4.56,98390.456,0.00001,0.0,0.0
4.567,91624.72,0.00001,0.0,0.0
4.573,82425.021,0.00001,0.0,0.0
4.579,75887.604,0.00001,0.0,0.0
4.586,48614.887,0.00002,0.0,0.0
4.592,47410.874,0.00002,0.0,0.0
4.598,27142.831,0.00004,0.0,0.0
4.605,25222.45,0.00004,0.0,0.0
4.611,18345.055,0.00005,0.0,0.0
4.617,16286.61,0.00006,0.0,0.0
4.624,14140.92,0.00007,0.0,0.0
4.63,14043.359,0.00007,0.0,0.0
4.636,12481.695,0.00008,0.0,0.0
4.643,12406.816,0.00008,0.0,0.0
4.649,11921.137,0.00008,0.0,0.0
4.655,11499.592,0.00009,0.0,0.0
4.662,11703.249,0.00009,0.0,0.0
4.668,11098.669,0.00009,0.0,0.0
4.674,10823.094,0.00009,0.0,0.0
4.68,11064.17,0.00009,0.0,0.0
4.687,10478.234,0.0001,0.0,0.0
4.693,10599.448,0.00009,0.0,0.0
4.699,10485.701,0.0001,0.0,0.0
4.706,10144.864,0.0001,0.0,0.0
4.712,10352.005,0.0001,0.0,0.0
4.718,10050.907,0.0001,0.0,0.0
4.725,9824.309,0.0001,0.0,0.0
4.731,10129.288,0.0001,0.0,0.0
4.737,9691.252,0.0001,0.0,0.0
4.744,9773.381,0.0001,0.0,0.0
4.75,9670.918,0.0001,0.0,0.0
4.756,9513.434,0.00011,0.0,0.0
4.763,9520.786,0.00011,0.0,0.0
4.769,9372.129,0.00011,0.0,0.0
4.775,9309.382,0.00011,0.0,0.0
4.782,9343.007,0.00011,0.0,0.0
4.788,9159.955,0.00011,0.0,0.0
4.794,9109.8,0.00011,0.0,0.0
4.801,9133.984,0.00011,0.0,0.0
4.807,8931.946,0.00011,0.0,0.0
4.813,9011.225,0.00011,0.0,0.0
4.82,8896.87,0.00011,0.0,0.0
4.826,8912.017,0.00011,0.0,0.0
4.832,8935.942,0.00011,0.0,0.0
4.838,8911.291,0.00011,0.0,0.0
4.845,8921.416,0.00011,0.0,0.0
4.851,9061.004,0.00011,0.0,0.0
4.857,9065.905,0.00011,0.0,0.0
4.864,9069.672,0.00011,0.0,0.0
4.87,8976.104,0.00011,0.0,0.0
4.876,8773.974,0.00011,0.0,0.0
4.883,8723.22,0.00011,0.0,0.0
4.889,8482.584,0.00012,0.0,0.0
4.895,8422.02,0.00012,0.0,0.0
4.902,8325.15,0.00012,0.0,0.0
4.908,8270.142,0.00012,0.0,0.0
4.914,8219.818,0.00012,0.0,0.0
4.921,8139.109,0.00012,0.0,0.0
4.927,8091.092,0.00012,0.0,0.0
4.933,8090.522,0.00012,0.0,0.0
4.94,8002.092,0.00012,0.0,0.0
4.946,7985.655,0.00013,0.0,0.0
4.952,7984.652,0.00013,0.0,0.0
4.959,7905.241,0.00013,0.0,0.0
4.965,7896.428,0.00013,0.0,0.0
4.971,7847.27,0.00013,0.0,0.0
4.978,7836.286,0.00013,0.0,0.0
4.984,7811.719,0.00013,0.0,0.0
4.99,7727.988,0.00013,0.0,0.0
4.996,7706.897,0.00013,0.0,0.0
5.003,7711.754,0.00013,0.0,0.0
5.009,7642.715,0.00013,0.0,0.0
5.015,7691.412,0.00013,0.0,0.0
5.022,7585.071,0.00013,0.0,0.0
5.028,7579.725,0.00013,0.0,0.0
5.034,7597.025,0.00013,0.0,0.0
5.041,7491.419,0.00013,0.0,0.0
5.047,7497.086,0.00013,0.0,0.0
5.053,7496.411,0.00013,0.0,0.0
5.06,7437.872,0.00013,0.0,0.0
5.066,7437.332,0.00013,0.0,0.0
5.072,7413.013,0.00013,0.0,0.0
5.079,7364.427,0.00014,0.0,0.0
5.085,7393.342,0.00014,0.0,0.0
5.091,7272.199,0.00014,0.0,0.0
5.098,7313.824,0.00014,0.0,0.0
5.104,7265.937,0.00014,0.0,0.0
5.11,7258.134,0.00014,0.0,0.0
5.117,7241.046,0.00014,0.0,0.0
5.123,7203.028,0.00014,0.0,0.0
5.129,7172.911,0.00014,0.0,0.0
5.136,7180.301,0.00014,0.0,0.0
5.142,7146.226,0.00014,0.0,0.0
5.148,7125.043,0.00014,0.0,0.0
5.154,7123.393,0.00014,0.0,0.0
5.161,7105.471,0.00014,0.0,0.0
5.167,7098.416,0.00014,0.0,0.0
5.173,7066.354,0.00014,0.0,0.0
5.18,7012.731,0.00014,0.0,0.0
5.186,7045.319,0.00014,0.0,0.0
5.192,6978.473,0.00014,0.0,0.0
5.199,6960.981,0.00014,0.0,0.0
5.205,6965.969,0.00014,0.0,0.0
5.211,6957.119,0.00014,0.0,0.0
5.218,6960.173,0.00014,0.0,0.0
5.224,6910.69,0.00014,0.0,0.0
5.23,6885.067,0.00015,0.0,0.0
5.237,6929.216,0.00014,0.0,0.0
5.243,6860.924,0.00015,0.0,0.0
5.249,6863.398,0.00015,0.0,0.0
5.256,6832.863,0.00015,0.0,0.0
5.262,6836.166,0.00015,0.0,0.0
5.268,6815.938,0.00015,0.0,0.0
5.275,6778.901,0.00015,0.0,0.0
5.281,6771.274,0.00015,0.0,0.0
5.287,6774.175,0.00015,0.0,0.0
5.294,6738.077,0.00015,0.0,0.0
5.3,6744.36,0.00015,0.0,0.0
5.306,6724.477,0.00015,0.0,0.0
5.312,6712.716,0.00015,0.0,0.0
5.319,6720.22,0.00015,0.0,0.0
5.325,6696.93,0.00015,0.0,0.0
5.331,6706.237,0.00015,0.0,0.0
5.338,6692.668,0.00015,0.0,0.0
5.344,6678.648,0.00015,0.0,0.0
5.35,6653.82,0.00015,0.0,0.0
5.357,6656.05,0.00015,0.0,0.0
5.363,6640.095,0.00015,0.0,0.0
5.369,6667.51,0.00015,0.0,0.0
5.376,6628.174,0.00015,0.0,0.0
5.382,6620.768,0.00015,0.0,0.0
5.388,6635.093,0.00015,0.0,0.0
5.395,6606.002,0.00015,0.0,0.0
5.401,6619.156,0.00015,0.0,0.0
5.407,6595.55,0.00015,0.0,0.0
5.414,6572.2,0.00015,0.0,0.0
5.42,6581.954,0.00015,0.0,0.0
5.426,6598.935,0.00015,0.0,0.0
5.433,6568.395,0.00015,0.0,0.0
5.439,6598.183,0.00015,0.0,0.0
5.445,6567.714,0.00015,0.0,0.0
5.452,6582.491,0.00015,0.0,0.0
5.458,6551.753,0.00015,0.0,0.0
5.464,6567.925,0.00015,0.0,0.0
5.47,6572.292,0.00015,0.0,0.0
5.477,6549.451,0.00015,0.0,0.0
5.483,6556.702,0.00015,0.0,0.0
5.489,6532.04,0.00015,0.0,0.0
5.496,6542.637,0.00015,0.0,0.0
5.502,6529.208,0.00015,0.0,0.0
5.508,6523.254,0.00015,0.0,0.0
5.515,6508.496,0.00015,0.0,0.0
5.521,6520.279,0.00015,0.0,0.0
5.527,6475.917,0.00015,0.0,0.0
5.534,6479.995,0.00015,0.0,0.0
5.54,6438.717,0.00016,0.0,0.0
5.546,6455.632,0.00015,0.0,0.0
5.553,6465.968,0.00015,0.0,0.0
5.559,6430.361,0.00016,0.0,0.0
5.565,6431.234,0.00016,0.0,0.0
5.572,6423.294,0.00016,0.0,0.0
5.578,6399.803,0.00016,0.0,0.0
5.584,6409.374,0.00016,0.0,0.0
5.591,6393.925,0.00016,0.0,0.0
5.597,6369.723,0.00016,0.0,0.0
5.603,6378.43,0.00016,0.0,0.0
5.61,6355.741,0.00016,0.0,0.0
5.616,6383.194,0.00016,0.0,0.0
5.622,6366.31,0.00016,0.0,0.0
5.628,6332.726,0.00016,0.0,0.0
5.635,6343.219,0.00016,0.0,0.0
5.641,6307.187,0.00016,0.0,0.0
5.647,6290.216,0.00016,0.0,0.0
5.654,6320.259,0.00016,0.0,0.0
5.66,6293.153,0.00016,0.0,0.0
5.666,6294.043,0.00016,0.0,0.0
5.673,6286.459,0.00016,0.0,0.0
5.679,6252.274,0.00016,0.0,0.0
5.685,6256.4,0.00016,0.0,0.0
5.692,6258.41,0.00016,0.0,0.0
5.698,6244.062,0.00016,0.0,0.0
5.704,6263.331,0.00016,0.0,0.0
5.711,6235.609,0.00016,0.0,0.0
5.717,6214.935,0.00016,0.0,0.0
5.723,6244.535,0.00016,0.0,0.0
5.73,6225.258,0.00016,0.0,0.0
5.736,6230.473,0.00016,0.0,0.0
5.742,6208.705,0.00016,0.0,0.0
5.749,6213.778,0.00016,0.0,0.0
5.755,6237.835,0.00016,0.0,0.0
5.761,6218.317,0.00016,0.0,0.0
5.768,6202.032,0.00016,0.0,0.0
5.774,6220.552,0.00016,0.0,0.0
5.78,6212.405,0.00016,0.0,0.0
5.786,6214.193,0.00016,0.0,0.0
5.793,6253.924,0.00016,0.0,0.0
5.799,6220.284,0.00016,0.0,0.0
5.805,6246.097,0.00016,0.0,0.0
5.812,6211.668,0.00016,0.0,0.0
5.818,6252.113,0.00016,0.0,0.0
5.824,6291.879,0.00016,0.0,0.0
5.831,6309.565,0.00016,0.0,0.0
5.837,6360.892,0.00016,0.0,0.0
5.843,6423.777,0.00016,0.0,0.0
5.85,6549.469,0.00015,0.0,0.0
5.856,6746.802,0.00015,0.0,0.0
5.862,7016.018,0.00014,0.0,0.0
5.869,7352.876,0.00014,0.0,0.0
5.875,7666.116,0.00013,0.0,0.0
5.881,7886.219,0.00013,0.0,0.0
5.888,7924.172,0.00013,0.0,0.0
5.894,7719.045,0.00013,0.0,0.0
5.9,7455.304,0.00013,0.0,0.0
5.907,7085.708,0.00014,0.0,0.0
5.913,6817.082,0.00015,0.0,0.0
5.919,6605.107,0.00015,0.0,0.0
5.926,6453.701,0.00015,0.0,0.0
5.932,6379.621,0.00016,0.0,0.0
5.938,6378.318,0.00016,0.0,0.0
5.944,6272.101,0.00016,0.0,0.0
5.951,6328.199,0.00016,0.0,0.0
5.957,6297.961,0.00016,0.0,0.0
5.963,6290.921,0.00016,0.0,0.0
5.97,6294.326,0.00016,0.0,0.0
5.976,6284.568,0.00016,0.0,0.0
5.982,6316.696,0.00016,0.0,0.0
5.989,6304.265,0.00016,0.0,0.0
5.995,6304.576,0.00016,0.0,0.0
6.001,6293.008,0.00016,0.0,0.0
6.008,6311.39,0.00016,0.0,0.0
6.014,6293.806,0.00016,0.0,0.0
6.02,6347.535,0.00016,0.0,0.0
6.027,6308.1,0.00016,0.0,0.0
6.033,6358.447,0.00016,0.0,0.0
6.039,6358.846,0.00016,0.0,0.0
6.046,6344.121,0.00016,0.0,0.0
6.052,6348.313,0.00016,0.0,0.0
6.058,6321.141,0.00016,0.0,0.0
6.065,6341.538,0.00016,0.0,0.0
6.071,6361.403,0.00016,0.0,0.0
6.077,6361.295,0.00016,0.0,0.0
6.084,6341.328,0.00016,0.0,0.0
6.09,6362.116,0.00016,0.0,0.0
6.096,6329.669,0.00016,0.0,0.0
6.102,6365.72,0.00016,0.0,0.0
6.109,6340.114,0.00016,0.0,0.0
6.115,6387.753,0.00016,0.0,0.0
6.121,6339.962,0.00016,0.0,0.0
6.128,6354.722,0.00016,0.0,0.0
6.134,6350.043,0.00016,0.0,0.0
6.14,6340.596,0.00016,0.0,0.0
6.147,6333.188,0.00016,0.0,0.0
6.153,6309.901,0.00016,0.0,0.0
6.159,6336.216,0.00016,0.0,0.0
6.166,6294.241,0.00016,0.0,0.0
6.172,6319.804,0.00016,0.0,0.0
6.178,6313.623,0.00016,0.0,0.0
6.185,6330.723,0.00016,0.0,0.0
6.191,6302.025,0.00016,0.0,0.0
6.197,6342.118,0.00016,0.0,0.0
6.204,6298.652,0.00016,0.0,0.0
6.21,6353.236,0.00016,0.0,0.0
6.216,6298.099,0.00016,0.0,0.0
6.223,6358.963,0.00016,0.0,0.0
6.229,6342.71,0.00016,0.0,0.0
6.235,6344.274,0.00016,0.0,0.0
6.242,6362.263,0.00016,0.0,0.0
6.248,6349.005,0.00016,0.0,0.0
6.254,6354.583,0.00016,0.0,0.0
6.26,6354.867,0.00016,0.0,0.0
6.267,6405.151,0.00016,0.0,0.0
6.273,6347.155,0.00016,0.0,0.0
6.279,6419.65,0.00016,0.0,0.0
6.286,6370.957,0.00016,0.0,0.0
6.292,6435.561,0.00016,0.0,0.0
6.298,6395.699,0.00016,0.0,0.0
6.305,6438.503,0.00016,0.0,0.0
6.311,6434.98,0.00016,0.0,0.0
6.317,6481.681,0.00015,0.0,0.0
6.324,6499.373,0.00015,0.0,0.0
6.33,6529.068,0.00015,0.0,0.0
6.336,6535.214,0.00015,0.0,0.0
6.343,6555.627,0.00015,0.0,0.0
6.349,6659.59,0.00015,0.0,0.0
6.355,6569.361,0.00015,0.0,0.0
6.362,6761.193,0.00015,0.0,0.0
6.368,6642.453,0.00015,0.0,0.0
6.374,6974.261,0.00014,0.0,0.0
6.381,6688.338,0.00015,0.0,0.0
6.387,7422.855,0.00013,0.0,0.0
6.393,6803.264,0.00015,0.0,0.0
6.4,8365.06,0.00012,0.0,0.0
6.406,7401.754,0.00014,0.0,0.0
6.412,11062.817,0.00009,0.0,0.0
6.418,13135.752,0.00008,0.0,0.0
6.425,10321.282,0.0001,0.0,0.0
6.431,19298.373,0.00005,0.0,0.0
6.437,15116.264,0.00007,0.0,0.0
6.444,23714.714,0.00004,0.0,0.0
6.45,22076.423,0.00005,0.0,0.0
6.456,23004.035,0.00004,0.0,0.0
6.463,18865.575,0.00005,0.0,0.0
6.469,24691.152,0.00004,0.0,0.0
6.475,12133.529,0.00008,0.0,0.0
6.482,13811.778,0.00007,0.0,0.0
6.488,8833.701,0.00011,0.0,0.0
6.494,8691.411,0.00012,0.0,0.0
6.501,7902.492,0.00013,0.0,0.0
6.507,7621.333,0.00013,0.0,0.0
6.513,7454.423,0.00013,0.0,0.0
6.52,7280.298,0.00014,0.0,0.0
6.526,7367.613,0.00014,0.0,0.0
6.532,7306.803,0.00014,0.0,0.0
6.539,7517.046,0.00013,0.0,0.0
6.545,7589.525,0.00013,0.0,0.0
6.551,7899.035,0.00013,0.0,0.0
6.558,8307.862,0.00012,0.0,0.0
6.564,9068.611,0.00011,0.0,0.0
6.57,10307.626,0.0001,0.0,0.0
6.576,12875.186,0.00008,0.0,0.0
6.583,16789.455,0.00006,0.0,0.0
6.589,26183.387,0.00004,0.0,0.0
6.595,42942.526,0.00002,0.0,0.0
6.602,63885.597,0.00002,0.0,0.0
6.608,94772.241,0.00001,0.0,0.0
6.614,110281.037,0.00001,0.0,0.0
6.621,114020.535,0.00001,0.0,0.0
6.627,99868.151,0.00001,0.0,0.0
6.633,74621.75,0.00001,0.0,0.0
6.64,48849.755,0.00002,0.0,0.0
6.646,31906.664,0.00003,0.0,0.0
6.652,20125.605,0.00005,0.0,0.0
6.659,14704.75,0.00007,0.0,0.0
6.665,10955.449,0.00009,0.0,0.0
6.671,9407.85,0.00011,0.0,0.0
6.678,8365.715,0.00012,0.0,0.0
6.684,7732.233,0.00013,0.0,0.0
6.69,7339.102,0.00014,0.0,0.0
6.697,7086.764,0.00014,0.0,0.0
6.703,6849.569,0.00015,0.0,0.0
6.709,6730.244,0.00015,0.0,0.0
6.716,6665.335,0.00015,0.0,0.0
6.722,6561.721,0.00015,0.0,0.0
6.728,6524.682,0.00015,0.0,0.0
6.734,6458.348,0.00015,0.0,0.0
6.741,6416.872,0.00016,0.0,0.0
6.747,6359.399,0.00016,0.0,0.0
6.753,6359.338,0.00016,0.0,0.0
6.76,6314.948,0.00016,0.0,0.0
6.766,6318.294,0.00016,0.0,0.0
6.772,6277.828,0.00016,0.0,0.0
6.779,6285.752,0.00016,0.0,0.0
6.785,6270.85,0.00016,0.0,0.0
6.791,6203.38,0.00016,0.0,0.0
6.798,6254.317,0.00016,0.0,0.0
6.804,6246.173,0.00016,0.0,0.0
6.81,6280.309,0.00016,0.0,0.0
6.817,6238.9,0.00016,0.0,0.0
6.823,6228.708,0.00016,0.0,0.0
6.829,6201.589,0.00016,0.0,0.0
6.836,6207.234,0.00016,0.0,0.0
6.842,6137.231,0.00016,0.0,0.0
6.848,6125.238,0.00016,0.0,0.0
6.855,6104.681,0.00016,0.0,0.0
6.861,6084.607,0.00016,0.0,0.0
6.867,6071.697,0.00016,0.0,0.0
6.874,6036.805,0.00017,0.0,0.0
6.88,6043.465,0.00017,0.0,0.0
6.886,6004.763,0.00017,0.0,0.0
6.892,6013.078,0.00017,0.0,0.0
6.899,6011.403,0.00017,0.0,0.0
6.905,6001.923,0.00017,0.0,0.0
6.911,5973.775,0.00017,0.0,0.0
6.918,5984.97,0.00017,0.0,0.0
6.924,5937.132,0.00017,0.0,0.0
6.93,5956.557,0.00017,0.0,0.0
6.937,5961.399,0.00017,0.0,0.0
6.943,5935.384,0.00017,0.0,0.0
6.949,5924.906,0.00017,0.0,0.0
6.956,5923.575,0.00017,0.0,0.0
6.962,5906.28,0.00017,0.0,0.0
6.968,5924.809,0.00017,0.0,0.0
6.975,5913.042,0.00017,0.0,0.0
6.981,5884.711,0.00017,0.0,0.0
6.987,5916.338,0.00017,0.0,0.0
6.994,5894.384,0.00017,0.0,0.0
7.0,5902.877,0.00017,0.0,0.0
7.006,5877.741,0.00017,0.0,0.0
7.013,5882.225,0.00017,0.0,0.0
7.019,5867.712,0.00017,0.0,0.0
7.025,5877.593,0.00017,0.0,0.0
7.032,5856.489,0.00017,0.0,0.0
7.038,5846.27,0.00017,0.0,0.0
7.044,5848.566,0.00017,0.0,0.0
7.05,5822.362,0.00017,0.0,0.0
7.057,5850.231,0.00017,0.0,0.0
7.063,5819.866,0.00017,0.0,0.0
7.069,5822.624,0.00017,0.0,0.0
7.076,5803.417,0.00017,0.0,0.0
7.082,5809.203,0.00017,0.0,0.0
7.088,5804.407,0.00017,0.0,0.0
7.095,5798.578,0.00017,0.0,0.0
7.101,5796.358,0.00017,0.0,0.0
7.107,5779.857,0.00017,0.0,0.0
7.114,5784.351,0.00017,0.0,0.0
7.12,5779.354,0.00017,0.0,0.0
7.126,5761.597,0.00017,0.0,0.0
7.133,5765.759,0.00017,0.0,0.0
7.139,5773.401,0.00017,0.0,0.0
7.145,5759.3,0.00017,0.0,0.0
7.152,5743.852,0.00017,0.0,0.0
7.158,5734.314,0.00017,0.0,0.0
7.164,5747.307,0.00017,0.0,0.0
7.171,5739.097,0.00017,0.0,0.0
7.177,5730.465,0.00017,0.0,0.0
7.183,5715.325,0.00017,0.0,0.0
7.19,5719.759,0.00017,0.0,0.0
7.196,5739.674,0.00017,0.0,0.0
7.202,5722.984,0.00017,0.0,0.0
7.208,5710.198,0.00018,0.0,0.0
7.215,5705.804,0.00018,0.0,0.0
7.221,5719.289,0.00017,0.0,0.0
7.227,5723.433,0.00017,0.0,0.0
7.234,5717.231,0.00017,0.0,0.0
7.24,5704.404,0.00018,0.0,0.0
7.246,5709.174,0.00018,0.0,0.0
7.253,5712.244,0.00018,0.0,0.0
7.259,5704.672,0.00018,0.0,0.0
7.265,5713.945,0.00018,0.0,0.0
7.272,5723.445,0.00017,0.0,0.0
7.278,5746.992,0.00017,0.0,0.0
7.284,5767.491,0.00017,0.0,0.0
7.291,5777.075,0.00017,0.0,0.0
7.297,5780.578,0.00017,0.0,0.0
7.303,5780.747,0.00017,0.0,0.0
7.31,5773.693,0.00017,0.0,0.0
7.316,5761.912,0.00017,0.0,0.0
7.322,5729.285,0.00017,0.0,0.0
7.329,5727.756,0.00017,0.0,0.0
7.335,5734.213,0.00017,0.0,0.0
7.341,5682.346,0.00018,0.0,0.0
7.348,5701.171,0.00018,0.0,0.0
7.354,5688.902,0.00018,0.0,0.0
7.36,5692.31,0.00018,0.0,0.0
7.366,5700.029,0.00018,0.0,0.0
7.373,5681.105,0.00018,0.0,0.0
7.379,5707.191,0.00018,0.0,0.0
7.385,5682.669,0.00018,0.0,0.0
7.392,5702.501,0.00018,0.0,0.0
7.398,5691.708,0.00018,0.0,0.0
7.404,5692.017,0.00018,0.0,0.0
7.411,5712.013,0.00018,0.0,0.0
7.417,5706.846,0.00018,0.0,0.0
7.423,5712.468,0.00018,0.0,0.0
7.43,5720.08,0.00017,0.0,0.0
7.436,5736.557,0.00017,0.0,0.0
7.442,5729.051,0.00017,0.0,0.0
7.449,5747.908,0.00017,0.0,0.0
7.455,5744.964,0.00017,0.0,0.0
7.461,5773.646,0.00017,0.0,0.0
7.468,5775.517,0.00017,0.0,0.0
7.474,5769.89,0.00017,0.0,0.0
7.48,5789.939,0.00017,0.0,0.0
7.487,5818.445,0.00017,0.0,0.0
7.493,5831.997,0.00017,0.0,0.0
7.499,5840.989,0.00017,0.0,0.0
7.506,5824.967,0.00017,0.0,0.0
7.512,5860.56,0.00017,0.0,0.0
7.518,5875.915,0.00017,0.0,0.0
7.524,5919.069,0.00017,0.0,0.0
7.531,5933.301,0.00017,0.0,0.0
7.537,5965.687,0.00017,0.0,0.0
7.543,5997.35,0.00017,0.0,0.0
7.55,6045.767,0.00017,0.0,0.0
7.556,6092.975,0.00016,0.0,0.0
7.562,6224.192,0.00016,0.0,0.0
7.569,6310.614,0.00016,0.0,0.0
7.575,6508.206,0.00015,0.0,0.0
7.581,6745.381,0.00015,0.0,0.0
7.588,7153.657,0.00014,0.0,0.0
7.594,7780.718,0.00013,0.0,0.0
7.6,9145.316,0.00011,0.0,0.0
7.607,11090.865,0.00009,0.0,0.0
7.613,15130.072,0.00007,0.0,0.0
7.619,20934.9,0.00005,0.0,0.0
7.626,30947.965,0.00003,0.0,0.0
7.632,38911.907,0.00003,0.0,0.0
7.638,44431.498,0.00002,0.0,0.0
7.645,48755.056,0.00002,0.0,0.0
7.651,41563.349,0.00002,0.0,0.0
7.657,36300.941,0.00003,0.0,0.0
7.664,25264.357,0.00004,0.0,0.0
7.67,18390.177,0.00005,0.0,0.0
7.676,13341.594,0.00007,0.0,0.0
7.682,10304.188,0.0001,0.0,0.0
7.689,8609.104,0.00012,0.0,0.0
7.695,7658.759,0.00013,0.0,0.0
7.701,7175.841,0.00014,0.0,0.0
7.708,6818.688,0.00015,0.0,0.0
7.714,6647.672,0.00015,0.0,0.0
7.72,6486.317,0.00015,0.0,0.0
7.727,6448.642,0.00016,0.0,0.0
7.733,6380.131,0.00016,0.0,0.0
7.739,6329.5,0.00016,0.0,0.0
7.746,6336.28,0.00016,0.0,0.0
7.752,6302.158,0.00016,0.0,0.0
7.758,6312.351,0.00016,0.0,0.0
7.765,6338.97,0.00016,0.0,0.0
7.771,6341.851,0.00016,0.0,0.0
7.777,6339.456,0.00016,0.0,0.0
7.784,6373.371,0.00016,0.0,0.0
7.79,6365.757,0.00016,0.0,0.0
7.796,6399.643,0.00016,0.0,0.0
7.803,6434.817,0.00016,0.0,0.0
7.809,6436.827,0.00016,0.0,0.0
7.815,6506.415,0.00015,0.0,0.0
7.822,6500.518,0.00015,0.0,0.0
7.828,6598.688,0.00015,0.0,0.0
7.834,6586.588,0.00015,0.0,0.0
7.84,6644.708,0.00015,0.0,0.0
7.847,6754.394,0.00015,0.0,0.0
7.853,6840.531,0.00015,0.0,0.0
7.859,6979.947,0.00014,0.0,0.0
7.866,7122.307,0.00014,0.0,0.0
7.872,7780.322,0.00013,0.0,0.0
7.878,7910.556,0.00013,0.0,0.0
7.885,10716.342,0.00009,0.0,0.0
7.891,9795.585,0.0001,0.0,0.0
7.897,14339.989,0.00007,0.0,0.0
7.904,12788.096,0.00008,0.0,0.0
7.91,18838.969,0.00005,0.0,0.0
7.916,15382.715,0.00007,0.0,0.0
7.923,13816.214,0.00007,0.0,0.0
7.929,11234.748,0.00009,0.0,0.0
7.935,9334.193,0.00011,0.0,0.0
7.942,8317.757,0.00012,0.0,0.0
7.948,7675.91,0.00013,0.0,0.0
7.954,7252.69,0.00014,0.0,0.0
7.961,7091.799,0.00014,0.0,0.0
7.967,6937.39,0.00014,0.0,0.0
7.973,6835.635,0.00015,0.0,0.0
7.98,6822.927,0.00015,0.0,0.0
7.986,6705.082,0.00015,0.0,0.0
7.992,6713.883,0.00015,0.0,0.0
7.998,6678.38,0.00015,0.0,0.0
8.005,6627.326,0.00015,0.0,0.0
8.011,6584.254,0.00015,0.0,0.0
8.017,6603.435,0.00015,0.0,0.0
8.024,6571.229,0.00015,0.0,0.0
8.03,6572.059,0.00015,0.0,0.0
8.036,6565.793,0.00015,0.0,0.0
8.043,6519.151,0.00015,0.0,0.0
8.049,6529.977,0.00015,0.0,0.0
8.055,6480.774,0.00015,0.0,0.0
8.062,6516.766,0.00015,0.0,0.0
8.068,6496.052,0.00015,0.0,0.0
8.074,6485.75,0.00015,0.0,0.0
8.081,6470.835,0.00015,0.0,0.0
8.087,6464.027,0.00015,0.0,0.0
8.093,6489.96,0.00015,0.0,0.0
8.1,6466.307,0.00015,0.0,0.0
8.106,6479.916,0.00015,0.0,0.0
8.112,6487.43,0.00015,0.0,0.0
8.119,6531.389,0.00015,0.0,0.0
8.125,6571.802,0.00015,0.0,0.0
8.131,6670.633,0.00015,0.0,0.0
8.138,6678.216,0.00015,0.0,0.0
8.144,6744.461,0.00015,0.0,0.0
8.15,6761.973,0.00015,0.0,0.0
8.156,6701.957,0.00015,0.0,0.0
8.163,6653.374,0.00015,0.0,0.0
8.169,6567.679,0.00015,0.0,0.0
8.175,6505.954,0.00015,0.0,0.0
8.182,6452.951,0.00015,0.0,0.0
8.188,6403.991,0.00016,0.0,0.0
8.194,6401.197,0.00016,0.0,0.0
8.201,6379.915,0.00016,0.0,0.0
8.207,6383.046,0.00016,0.0,0.0
8.213,6388.139,0.00016,0.0,0.0
8.22,6344.951,0.00016,0.0,0.0
8.226,6371.016,0.00016,0.0,0.0
8.232,6347.546,0.00016,0.0,0.0
8.239,6348.773,0.00016,0.0,0.0
8.245,6353.162,0.00016,0.0,0.0
8.251,6337.801,0.00016,0.0,0.0
8.258,6329.458,0.00016,0.0,0.0
8.264,6320.472,0.00016,0.0,0.0
8.27,6307.11,0.00016,0.0,0.0
8.277,6333.402,0.00016,0.0,0.0
8.283,6329.786,0.00016,0.0,0.0
8.289,6301.75,0.00016,0.0,0.0
8.296,6299.106,0.00016,0.0,0.0
8.302,6308.991,0.00016,0.0,0.0
8.308,6297.734,0.00016,0.0,0.0
8.314,6305.946,0.00016,0.0,0.0
8.321,6315.019,0.00016,0.0,0.0
8.327,6300.874,0.00016,0.0,0.0
8.333,6343.968,0.00016,0.0,0.0
8.34,6348.062,0.00016,0.0,0.0
8.346,6373.637,0.00016,0.0,0.0
8.352,6404.277,0.00016,0.0,0.0
8.359,6445.704,0.00016,0.0,0.0
8.365,6500.424,0.00015,0.0,0.0
8.371,6538.145,0.00015,0.0,0.0
8.378,6562.188,0.00015,0.0,0.0
8.384,6536.703,0.00015,0.0,0.0
8.39,6527.463,0.00015,0.0,0.0
8.397,6480.508,0.00015,0.0,0.0
8.403,6426.628,0.00016,0.0,0.0
8.409,6372.406,0.00016,0.0,0.0
8.416,6318.341,0.00016,0.0,0.0
8.422,6303.277,0.00016,0.0,0.0
8.428,6269.969,0.00016,0.0,0.0
8.435,6256.809,0.00016,0.0,0.0
8.441,6241.433,0.00016,0.0,0.0
8.447,6228.868,0.00016,0.0,0.0
8.454,6222.921,0.00016,0.0,0.0
8.46,6226.165,0.00016,0.0,0.0
8.466,6204.583,0.00016,0.0,0.0
8.472,6220.974,0.00016,0.0,0.0
8.479,6214.031,0.00016,0.0,0.0
8.485,6233.172,0.00016,0.0,0.0
8.491,6223.554,0.00016,0.0,0.0
8.498,6229.503,0.00016,0.0,0.0
8.504,6233.039,0.00016,0.0,0.0
8.51,6225.405,0.00016,0.0,0.0
8.517,6216.328,0.00016,0.0,0.0
8.523,6199.096,0.00016,0.0,0.0
8.529,6210.869,0.00016,0.0,0.0
8.536,6180.55,0.00016,0.0,0.0
8.542,6194.96,0.00016,0.0,0.0
8.548,6210.065,0.00016,0.0,0.0
8.555,6199.983,0.00016,0.0,0.0
8.561,6188.977,0.00016,0.0,0.0
8.567,6176.826,0.00016,0.0,0.0
8.574,6172.126,0.00016,0.0,0.0
8.58,6183.766,0.00016,0.0,0.0
8.586,6178.755,0.00016,0.0,0.0
8.593,6176.428,0.00016,0.0,0.0
8.599,6164.994,0.00016,0.0,0.0
8.605,6159.7,0.00016,0.0,0.0
8.612,6165.859,0.00016,0.0,0.0
8.618,6160.765,0.00016,0.0,0.0
8.624,6159.103,0.00016,0.0,0.0
8.63,6167.13,0.00016,0.0,0.0
8.637,6170.679,0.00016,0.0,0.0
8.643,6180.765,0.00016,0.0,0.0
8.649,6154.241,0.00016,0.0,0.0
8.656,6164.537,0.00016,0.0,0.0
8.662,6159.962,0.00016,0.0,0.0
8.668,6159.5,0.00016,0.0,0.0
8.675,6157.961,0.00016,0.0,0.0
8.681,6161.866,0.00016,0.0,0.0
8.687,6125.991,0.00016,0.0,0.0
8.694,6168.614,0.00016,0.0,0.0
8.7,6163.333,0.00016,0.0,0.0
8.706,6159.515,0.00016,0.0,0.0
8.713,6181.186,0.00016,0.0,0.0
8.719,6171.393,0.00016,0.0,0.0
8.725,6179.379,0.00016,0.0,0.0
8.732,6174.145,0.00016,0.0,0.0
8.738,6173.733,0.00016,0.0,0.0
8.744,6175.34,0.00016,0.0,0.0
8.751,6176.986,0.00016,0.0,0.0
8.757,6182.562,0.00016,0.0,0.0
8.763,6183.875,0.00016,0.0,0.0
8.77,6184.947,0.00016,0.0,0.0
8.776,6187.772,0.00016,0.0,0.0
8.782,6204.122,0.00016,0.0,0.0
8.788,6209.024,0.00016,0.0,0.0
8.795,6195.039,0.00016,0.0,0.0
8.801,6215.173,0.00016,0.0,0.0
8.807,6228.551,0.00016,0.0,0.0
8.814,6223.788,0.00016,0.0,0.0
8.82,6222.655,0.00016,0.0,0.0
8.826,6221.167,0.00016,0.0,0.0
8.833,6232.961,0.00016,0.0,0.0
8.839,6247.598,0.00016,0.0,0.0
8.845,6253.154,0.00016,0.0,0.0
8.852,6231.044,0.00016,0.0,0.0
8.858,6263.698,0.00016,0.0,0.0
8.864,6240.837,0.00016,0.0,0.0
8.871,6271.683,0.00016,0.0,0.0
8.877,6255.946,0.00016,0.0,0.0
8.883,6259.821,0.00016,0.0,0.0
8.89,6279.781,0.00016,0.0,0.0
8.896,6284.663,0.00016,0.0,0.0
8.902,6288.411,0.00016,0.0,0.0
8.909,6299.918,0.00016,0.0,0.0
8.915,6284.503,0.00016,0.0,0.0
8.921,6304.098,0.00016,0.0,0.0
8.928,6296.471,0.00016,0.0,0.0
8.934,6291.698,0.00016,0.0,0.0
8.94,6313.84,0.00016,0.0,0.0
8.946,6286.329,0.00016,0.0,0.0
8.953,6309.507,0.00016,0.0,0.0
8.959,6331.984,0.00016,0.0,0.0
8.965,6295.677,0.00016,0.0,0.0
8.972,6334.222,0.00016,0.0,0.0
8.978,6335.879,0.00016,0.0,0.0
8.984,6341.612,0.00016,0.0,0.0
8.991,6352.13,0.00016,0.0,0.0
8.997,6330.97,0.00016,0.0,0.0
9.003,6355.947,0.00016,0.0,0.0
9.01,6361.673,0.00016,0.0,0.0
9.016,6322.9,0.00016,0.0,0.0
9.022,6389.592,0.00016,0.0,0.0
9.029,6343.188,0.00016,0.0,0.0
9.035,6375.489,0.00016,0.0,0.0
9.041,6391.02,0.00016,0.0,0.0
9.048,6367.342,0.00016,0.0,0.0
9.054,6414.805,0.00016,0.0,0.0
9.06,6410.94,0.00016,0.0,0.0
9.067,6386.416,0.00016,0.0,0.0
9.073,6484.102,0.00015,0.0,0.0
9.079,6449.731,0.00016,0.0,0.0
9.086,6480.578,0.00015,0.0,0.0
9.092,6551.981,0.00015,0.0,0.0
9.098,6595.142,0.00015,0.0,0.0
9.104,6839.915,0.00015,0.0,0.0
9.111,6994.95,0.00014,0.0,0.0
9.117,8063.88,0.00012,0.0,0.0
9.123,7868.348,0.00013,0.0,0.0
9.13,9564.506,0.0001,0.0,0.0
9.136,10106.187,0.0001,0.0,0.0
9.142,9978.931,0.0001,0.0,0.0
9.149,12577.367,0.00008,0.0,0.0
9.155,8623.645,0.00012,0.0,0.0
9.161,7305.162,0.00014,0.0,0.0
9.168,9257.038,0.00011,0.0,0.0
9.174,6658.563,0.00015,0.0,0.0
9.18,6717.635,0.00015,0.0,0.0
9.187,6670.894,0.00015,0.0,0.0
9.193,6392.832,0.00016,0.0,0.0
9.199,6419.913,0.00016,0.0,0.0
9.206,6352.793,0.00016,0.0,0.0
9.212,6268.907,0.00016,0.0,0.0
9.218,6308.559,0.00016,0.0,0.0
9.225,6232.565,0.00016,0.0,0.0
9.231,6219.835,0.00016,0.0,0.0
9.237,6245.371,0.00016,0.0,0.0
9.244,6190.727,0.00016,0.0,0.0
9.25,6169.099,0.00016,0.0,0.0
9.256,6173.645,0.00016,0.0,0.0
9.262,6102.418,0.00016,0.0,0.0
9.269,6172.803,0.00016,0.0,0.0
9.275,6098.54,0.00016,0.0,0.0
9.281,6083.237,0.00016,0.0,0.0
9.288,6085.615,0.00016,0.0,0.0
9.294,6051.329,0.00017,0.0,0.0
9.3,6064.639,0.00016,0.0,0.0
9.307,6056.99,0.00017,0.0,0.0
9.313,6012.164,0.00017,0.0,0.0
9.319,6028.679,0.00017,0.0,0.0
9.326,6004.601,0.00017,0.0,0.0
9.332,5982.086,0.00017,0.0,0.0
9.338,5988.374,0.00017,0.0,0.0
9.345,5947.945,0.00017,0.0,0.0
9.351,5944.718,0.00017,0.0,0.0
9.357,5923.517,0.00017,0.0,0.0
9.364,5925.434,0.00017,0.0,0.0
9.37,5905.087,0.00017,0.0,0.0
9.376,5889.56,0.00017,0.0,0.0
9.383,5903.613,0.00017,0.0,0.0
9.389,5876.852,0.00017,0.0,0.0
9.395,5858.983,0.00017,0.0,0.0
9.402,5844.787,0.00017,0.0,0.0
9.408,5848.308,0.00017,0.0,0.0
9.414,5837.426,0.00017,0.0,0.0
9.42,5816.014,0.00017,0.0,0.0
9.427,5806.087,0.00017,0.0,0.0
9.433,5815.414,0.00017,0.0,0.0
9.439,5793.832,0.00017,0.0,0.0
9.446,5791.974,0.00017,0.0,0.0
9.452,5785.623,0.00017,0.0,0.0
9.458,5785.55,0.00017,0.0,0.0
9.465,5797.74,0.00017,0.0,0.0
9.471,5797.472,0.00017,0.0,0.0
9.477,5816.306,0.00017,0.0,0.0
9.484,5821.651,0.00017,0.0,0.0
9.49,5821.227,0.00017,0.0,0.0
9.496,5826.846,0.00017,0.0,0.0
9.503,5818.147,0.00017,0.0,0.0
9.509,5787.094,0.00017,0.0,0.0
9.515,5767.025,0.00017,0.0,0.0
9.522,5733.717,0.00017,0.0,0.0
9.528,5703.225,0.00018,0.0,0.0
9.534,5693.555,0.00018,0.0,0.0
9.541,5661.803,0.00018,0.0,0.0
9.547,5664.839,0.00018,0.0,0.0
9.553,5630.024,0.00018,0.0,0.0
9.56,5645.59,0.00018,0.0,0.0
9.566,5619.551,0.00018,0.0,0.0
9.572,5615.816,0.00018,0.0,0.0
9.578,5615.956,0.00018,0.0,0.0
9.585,5591.924,0.00018,0.0,0.0
9.591,5580.767,0.00018,0.0,0.0
9.597,5571.067,0.00018,0.0,0.0
9.604,5579.655,0.00018,0.0,0.0
9.61,5570.38,0.00018,0.0,0.0
9.616,5554.778,0.00018,0.0,0.0
9.623,5552.406,0.00018,0.0,0.0
9.629,5544.186,0.00018,0.0,0.0
9.635,5546.551,0.00018,0.0,0.0
9.642,5538.286,0.00018,0.0,0.0
9.648,5529.519,0.00018,0.0,0.0
9.654,5549.519,0.00018,0.0,0.0
9.661,5523.047,0.00018,0.0,0.0
9.667,5525.059,0.00018,0.0,0.0
9.673,5517.75,0.00018,0.0,0.0
9.68,5507.51,0.00018,0.0,0.0
9.686,5508.458,0.00018,0.0,0.0
9.692,5496.725,0.00018,0.0,0.0
9.699,5502.282,0.00018,0.0,0.0
9.705,5520.496,0.00018,0.0,0.0
9.711,5483.414,0.00018,0.0,0.0
9.718,5497.361,0.00018,0.0,0.0
9.724,5482.32,0.00018,0.0,0.0
9.73,5479.786,0.00018,0.0,0.0
9.736,5487.282,0.00018,0.0,0.0
9.743,5481.947,0.00018,0.0,0.0
9.749,5474.762,0.00018,0.0,0.0
9.755,5483.752,0.00018,0.0,0.0
9.762,5462.655,0.00018,0.0,0.0
9.768,5476.63,0.00018,0.0,0.0
9.774,5455.224,0.00018,0.0,0.0
9.781,5448.208,0.00018,0.0,0.0
9.787,5473.342,0.00018,0.0,0.0
9.793,5458.939,0.00018,0.0,0.0
9.8,5473.785,0.00018,0.0,0.0
9.806,5442.717,0.00018,0.0,0.0
9.812,5437.142,0.00018,0.0,0.0
9.819,5466.483,0.00018,0.0,0.0
9.825,5434.855,0.00018,0.0,0.0
9.831,5452.053,0.00018,0.0,0.0
9.838,5473.523,0.00018,0.0,0.0
9.844,5453.321,0.00018,0.0,0.0
9.85,5456.116,0.00018,0.0,0.0
9.857,5444.388,0.00018,0.0,0.0
9.863,5428.689,0.00018,0.0,0.0
9.869,5447.044,0.00018,0.0,0.0
9.876,5412.588,0.00018,0.0,0.0
9.882,5448.791,0.00018,0.0,0.0
9.888,5423.822,0.00018,0.0,0.0
9.894,5419.118,0.00018,0.0,0.0
9.901,5452.797,0.00018,0.0,0.0
9.907,5427.06,0.00018,0.0,0.0
9.913,5428.242,0.00018,0.0,0.0
9.92,5429.219,0.00018,0.0,0.0
9.926,5431.007,0.00018,0.0,0.0
9.932,5448.56,0.00018,0.0,0.0
9.939,5432.736,0.00018,0.0,0.0
9.945,5427.956,0.00018,0.0,0.0
9.951,5448.108,0.00018,0.0,0.0
9.958,5439.109,0.00018,0.0,0.0
9.964,5431.152,0.00018,0.0,0.0
9.97,5447.174,0.00018,0.0,0.0
9.977,5448.115,0.00018,0.0,0.0
9.983,5467.194,0.00018,0.0,0.0
9.989,5444.385,0.00018,0.0,0.0
9.996,5457.395,0.00018,0.0,0.0
10.002,5467.863,0.00018,0.0,0.0
10.008,5439.66,0.00018,0.0,0.0
10.015,5495.486,0.00018,0.0,0.0
10.021,5461.115,0.00018,0.0,0.0
10.027,5501.323,0.00018,0.0,0.0
10.034,5493.916,0.00018,0.0,0.0
10.04,5486.767,0.00018,0.0,0.0
10.046,5515.202,0.00018,0.0,0.0
10.052,5490.126,0.00018,0.0,0.0
10.059,5481.797,0.00018,0.0,0.0
10.065,5531.763,0.00018,0.0,0.0
10.071,5548.889,0.00018,0.0,0.0
10.078,5533.527,0.00018,0.0,0.0
10.084,5558.495,0.00018,0.0,0.0
10.09,5541.554,0.00018,0.0,0.0
10.097,5606.664,0.00018,0.0,0.0
10.103,5544.174,0.00018,0.0,0.0
10.109,5611.828,0.00018,0.0,0.0
10.116,5637.217,0.00018,0.0,0.0
10.122,5621.627,0.00018,0.0,0.0
10.128,5695.768,0.00018,0.0,0.0
10.135,5659.815,0.00018,0.0,0.0
10.141,5744.29,0.00017,0.0,0.0
10.147,5753.881,0.00017,0.0,0.0
10.154,5822.89,0.00017,0.0,0.0
10.16,5914.136,0.00017,0.0,0.0
10.166,6239.305,0.00016,0.0,0.0
10.173,6339.134,0.00016,0.0,0.0
10.179,7238.631,0.00014,0.0,0.0
10.185,9013.873,0.00011,0.0,0.0
10.192,10663.397,0.00009,0.0,0.0
10.198,11755.354,0.00009,0.0,0.0
10.204,14991.904,0.00007,0.0,0.0
10.21,17801.127,0.00006,0.0,0.0
10.217,20374.325,0.00005,0.0,0.0
10.223,19032.111,0.00005,0.0,0.0
10.229,12697.491,0.00008,0.0,0.0
10.236,19096.357,0.00005,0.0,0.0
10.242,9285.192,0.00011,0.0,0.0
10.248,9382.275,0.00011,0.0,0.0
10.255,7202.457,0.00014,0.0,0.0
10.261,6415.301,0.00016,0.0,0.0
10.267,6289.836,0.00016,0.0,0.0
10.274,5869.785,0.00017,0.0,0.0
10.28,5881.23,0.00017,0.0,0.0
10.286,5687.552,0.00018,0.0,0.0
10.293,5705.708,0.00018,0.0,0.0
10.299,5612.56,0.00018,0.0,0.0
10.305,5611.952,0.00018,0.0,0.0
10.312,5591.326,0.00018,0.0,0.0
10.318,5568.361,0.00018,0.0,0.0
10.324,5571.369,0.00018,0.0,0.0
10.331,5480.944,0.00018,0.0,0.0
10.337,5480.049,0.00018,0.0,0.0
10.343,5504.62,0.00018,0.0,0.0
10.35,5476.219,0.00018,0.0,0.0
10.356,5458.723,0.00018,0.0,0.0
10.362,5448.595,0.00018,0.0,0.0
10.368,5397.003,0.00019,0.0,0.0
10.375,5468.972,0.00018,0.0,0.0
10.381,5373.449,0.00019,0.0,0.0
10.387,5397.489,0.00019,0.0,0.0
10.394,5408.927,0.00018,0.0,0.0
10.4,5376.881,0.00019,0.0,0.0
10.406,5404.847,0.00019,0.0,0.0
10.413,5338.19,0.00019,0.0,0.0
10.419,5342.204,0.00019,0.0,0.0
10.425,5366.009,0.00019,0.0,0.0
10.432,5317.32,0.00019,0.0,0.0
10.438,5338.598,0.00019,0.0,0.0
10.444,5347.819,0.00019,0.0,0.0
10.451,5292.852,0.00019,0.0,0.0
10.457,5326.521,0.00019,0.0,0.0
10.463,5288.253,0.00019,0.0,0.0
10.47,5272.893,0.00019,0.0,0.0
10.476,5279.228,0.00019,0.0,0.0
10.482,5251.675,0.00019,0.0,0.0
10.489,5296.305,0.00019,0.0,0.0
10.495,5270.06,0.00019,0.0,0.0
10.501,5253.427,0.00019,0.0,0.0
10.508,5274.586,0.00019,0.0,0.0
10.514,5234.789,0.00019,0.0,0.0
10.52,5252.158,0.00019,0.0,0.0
10.526,5246.715,0.00019,0.0,0.0
10.533,5216.36,0.00019,0.0,0.0
10.539,5264.875,0.00019,0.0,0.0
10.545,5223.974,0.00019,0.0,0.0
10.552,5230.467,0.00019,0.0,0.0
10.558,5238.437,0.00019,0.0,0.0
10.564,5195.238,0.00019,0.0,0.0
10.571,5232.544,0.00019,0.0,0.0
10.577,5203.565,0.00019,0.0,0.0
10.583,5206.183,0.00019,0.0,0.0
10.59,5210.226,0.00019,0.0,0.0
10.596,5201.953,0.00019,0.0,0.0
10.602,5220.141,0.00019,0.0,0.0
10.609,5201.116,0.00019,0.0,0.0
10.615,5196.94,0.00019,0.0,0.0
10.621,5216.881,0.00019,0.0,0.0
10.628,5204.817,0.00019,0.0,0.0
10.634,5205.862,0.00019,0.0,0.0
10.64,5192.135,0.00019,0.0,0.0
10.647,5192.647,0.00019,0.0,0.0
10.653,5222.126,0.00019,0.0,0.0
10.659,5192.589,0.00019,0.0,0.0
10.666,5199.365,0.00019,0.0,0.0
10.672,5204.175,0.00019,0.0,0.0
10.678,5209.326,0.00019,0.0,0.0
10.684,5213.307,0.00019,0.0,0.0
10.691,5189.324,0.00019,0.0,0.0
10.697,5212.209,0.00019,0.0,0.0
10.703,5233.517,0.00019,0.0,0.0
10.71,5215.898,0.00019,0.0,0.0
10.716,5251.693,0.00019,0.0,0.0
10.722,5240.889,0.00019,0.0,0.0
10.729,5270.213,0.00019,0.0,0.0
10.735,5309.497,0.00019,0.0,0.0
10.741,5340.041,0.00019,0.0,0.0
10.748,5409.016,0.00018,0.0,0.0
10.754,5506.137,0.00018,0.0,0.0
10.76,5630.66,0.00018,0.0,0.0
10.767,5907.677,0.00017,0.0,0.0
10.773,6277.022,0.00016,0.0,0.0
10.779,6993.497,0.00014,0.0,0.0
10.786,8601.138,0.00012,0.0,0.0
10.792,10643.268,0.00009,0.0,0.0
10.798,15418.508,0.00006,0.0,0.0
10.805,19364.043,0.00005,0.0,0.0
10.811,26424.943,0.00004,0.0,0.0
10.817,30064.309,0.00003,0.0,0.0
10.824,30346.932,0.00003,0.0,0.0
10.83,26355.494,0.00004,0.0,0.0
10.836,21064.818,0.00005,0.0,0.0
10.842,16052.921,0.00006,0.0,0.0
10.849,12203.399,0.00008,0.0,0.0
10.855,8835.826,0.00011,0.0,0.0
10.861,7423.043,0.00013,0.0,0.0
10.868,6567.406,0.00015,0.0,0.0
10.874,5959.721,0.00017,0.0,0.0
10.88,5689.319,0.00018,0.0,0.0
10.887,5481.361,0.00018,0.0,0.0
10.893,5390.077,0.00019,0.0,0.0
10.899,5301.787,0.00019,0.0,0.0
10.906,5255.936,0.00019,0.0,0.0
10.912,5219.878,0.00019,0.0,0.0
10.918,5187.185,0.00019,0.0,0.0
10.925,5165.392,0.00019,0.0,0.0
10.931,5163.903,0.00019,0.0,0.0
10.937,5149.336,0.00019,0.0,0.0
10.944,5145.746,0.00019,0.0,0.0
10.95,5151.737,0.00019,0.0,0.0
10.956,5113.62,0.0002,0.0,0.0
10.963,5123.412,0.0002,0.0,0.0
10.969,5101.945,0.0002,0.0,0.0
10.975,5095.591,0.0002,0.0,0.0
10.982,5054.201,0.0002,0.0,0.0
10.988,5062.863,0.0002,0.0,0.0
10.994,5038.827,0.0002,0.0,0.0
11.0,5022.629,0.0002,0.0,0.0
11.007,5006.233,0.0002,0.0,0.0
11.013,5007.354,0.0002,0.0,0.0
11.019,5001.343,0.0002,0.0,0.0
11.026,4990.911,0.0002,0.0,0.0
11.032,4989.851,0.0002,0.0,0.0
11.038,4986.296,0.0002,0.0,0.0
11.045,4975.674,0.0002,0.0,0.0
11.051,4972.827,0.0002,0.0,0.0
11.057,4972.751,0.0002,0.0,0.0
11.064,4958.196,0.0002,0.0,0.0
11.07,4955.124,0.0002,0.0,0.0
11.076,4975.435,0.0002,0.0,0.0
11.083,4963.972,0.0002,0.0,0.0
11.089,4942.385,0.0002,0.0,0.0
11.095,4958.73,0.0002,0.0,0.0
11.102,4939.435,0.0002,0.0,0.0
11.108,4940.089,0.0002,0.0,0.0
11.114,4951.658,0.0002,0.0,0.0
11.121,4936.306,0.0002,0.0,0.0
11.127,4924.632,0.0002,0.0,0.0
11.133,4917.698,0.0002,0.0,0.0
11.14,4920.422,0.0002,0.0,0.0
11.146,4912.925,0.0002,0.0,0.0
11.152,4897.83,0.0002,0.0,0.0
11.158,4918.488,0.0002,0.0,0.0
11.165,4901.499,0.0002,0.0,0.0
11.171,4917.428,0.0002,0.0,0.0
11.177,4906.814,0.0002,0.0,0.0
11.184,4922.985,0.0002,0.0,0.0
11.19,4913.037,0.0002,0.0,0.0
11.196,4949.539,0.0002,0.0,0.0
11.203,4926.693,0.0002,0.0,0.0
11.209,4989.905,0.0002,0.0,0.0
11.215,4903.474,0.0002,0.0,0.0
11.222,5031.121,0.0002,0.0,0.0
11.228,4883.985,0.0002,0.0,0.0
11.234,4939.419,0.0002,0.0,0.0
11.241,4864.224,0.00021,0.0,0.0
11.247,4868.951,0.00021,0.0,0.0
11.253,4853.875,0.00021,0.0,0.0
11.26,4843.078,0.00021,0.0,0.0
11.266,4833.545,0.00021,0.0,0.0
11.272,4841.002,0.00021,0.0,0.0
11.279,4837.054,0.00021,0.0,0.0
11.285,4823.396,0.00021,0.0,0.0
11.291,4825.517,0.00021,0.0,0.0
11.298,4834.583,0.00021,0.0,0.0
11.304,4822.135,0.00021,0.0,0.0
11.31,4821.728,0.00021,0.0,0.0
11.316,4821.513,0.00021,0.0,0.0
11.323,4823.552,0.00021,0.0,0.0
11.329,4806.14,0.00021,0.0,0.0
11.335,4817.858,0.00021,0.0,0.0
11.342,4809.779,0.00021,0.0,0.0
11.348,4807.901,0.00021,0.0,0.0
11.354,4805.861,0.00021,0.0,0.0
11.361,4799.19,0.00021,0.0,0.0
11.367,4796.082,0.00021,0.0,0.0
11.373,4788.038,0.00021,0.0,0.0
11.38,4784.526,0.00021,0.0,0.0
11.386,4774.124,0.00021,0.0,0.0
11.392,4784.285,0.00021,0.0,0.0
11.399,4775.257,0.00021,0.0,0.0
11.405,4783.902,0.00021,0.0,0.0
11.411,4779.339,0.00021,0.0,0.0
11.418,4776.113,0.00021,0.0,0.0
11.424,4769.747,0.00021,0.0,0.0
11.43,4770.34,0.00021,0.0,0.0
11.437,4772.385,0.00021,0.0,0.0
11.443,4777.79,0.00021,0.0,0.0
11.449,4757.786,0.00021,0.0,0.0
11.456,4757.386,0.00021,0.0,0.0
11.462,4761.055,0.00021,0.0,0.0
11.468,4752.468,0.00021,0.0,0.0
11.474,4755.653,0.00021,0.0,0.0
11.481,4756.651,0.00021,0.0,0.0
11.487,4762.982,0.00021,0.0,0.0
11.493,4755.563,0.00021,0.0,0.0
11.5,4761.675,0.00021,0.0,0.0
11.506,4772.086,0.00021,0.0,0.0
11.512,4787.197,0.00021,0.0,0.0
11.519,4794.945,0.00021,0.0,0.0
11.525,4821.989,0.00021,0.0,0.0
11.531,4824.709,0.00021,0.0,0.0
11.538,4827.374,0.00021,0.0,0.0
11.544,4796.109,0.00021,0.0,0.0
11.55,4793.278,0.00021,0.0,0.0
11.557,4778.503,0.00021,0.0,0.0
11.563,4757.138,0.00021,0.0,0.0
11.569,4758.045,0.00021,0.0,0.0
11.576,4748.206,0.00021,0.0,0.0
11.582,4745.522,0.00021,0.0,0.0
11.588,4742.562,0.00021,0.0,0.0
11.595,4740.753,0.00021,0.0,0.0
11.601,4732.239,0.00021,0.0,0.0
11.607,4730.066,0.00021,0.0,0.0
11.614,4716.829,0.00021,0.0,0.0
11.62,4717.625,0.00021,0.0,0.0
11.626,4717.665,0.00021,0.0,0.0
11.632,4710.326,0.00021,0.0,0.0
11.639,4724.621,0.00021,0.0,0.0
11.645,4709.472,0.00021,0.0,0.0
11.651,4710.715,0.00021,0.0,0.0
11.658,4716.866,0.00021,0.0,0.0
11.664,4716.281,0.00021,0.0,0.0
11.67,4705.274,0.00021,0.0,0.0
11.677,4711.505,0.00021,0.0,0.0
11.683,4715.605,0.00021,0.0,0.0
11.689,4692.985,0.00021,0.0,0.0
11.696,4704.098,0.00021,0.0,0.0
11.702,4710.141,0.00021,0.0,0.0
11.708,4710.72,0.00021,0.0,0.0
11.715,4703.376,0.00021,0.0,0.0
11.721,4701.589,0.00021,0.0,0.0
11.727,4702.94,0.00021,0.0,0.0
11.734,4705.906,0.00021,0.0,0.0
11.74,4697.199,0.00021,0.0,0.0
11.746,4689.233,0.00021,0.0,0.0
11.753,4718.876,0.00021,0.0,0.0
11.759,4693.055,0.00021,0.0,0.0
11.765,4707.438,0.00021,0.0,0.0
11.772,4699.346,0.00021,0.0,0.0
11.778,4702.345,0.00021,0.0,0.0
11.784,4701.756,0.00021,0.0,0.0
11.79,4698.081,0.00021,0.0,0.0
11.797,4706.315,0.00021,0.0,0.0
11.803,4692.228,0.00021,0.0,0.0
11.809,4696.775,0.00021,0.0,0.0
11.816,4708.048,0.00021,0.0,0.0
11.822,4689.788,0.00021,0.0,0.0
11.828,4697.878,0.00021,0.0,0.0
11.835,4685.105,0.00021,0.0,0.0
11.841,4689.3,0.00021,0.0,0.0
11.847,4698.211,0.00021,0.0,0.0
11.854,4684.921,0.00021,0.0,0.0
11.86,4681.518,0.00021,0.0,0.0
11.866,4696.814,0.00021,0.0,0.0
11.873,4680.535,0.00021,0.0,0.0
11.879,4691.028,0.00021,0.0,0.0
11.885,4680.409,0.00021,0.0,0.0
11.892,4691.811,0.00021,0.0,0.0
11.898,4692.132,0.00021,0.0,0.0
11.904,4681.799,0.00021,0.0,0.0
11.911,4685.349,0.00021,0.0,0.0
11.917,4694.97,0.00021,0.0,0.0
11.923,4697.376,0.00021,0.0,0.0
11.93,4696.534,0.00021,0.0,0.0
11.936,4702.85,0.00021,0.0,0.0
11.942,4695.859,0.00021,0.0,0.0
11.948,4701.971,0.00021,0.0,0.0
11.955,4703.895,0.00021,0.0,0.0
11.961,4698.038,0.00021,0.0,0.0
11.967,4712.137,0.00021,0.0,0.0
11.974,4707.338,0.00021,0.0,0.0
11.98,4729.414,0.00021,0.0,0.0
11.986,4707.943,0.00021,0.0,0.0
11.993,4710.643,0.00021,0.0,0.0
11.999,4713.925,0.00021,0.0,0.0
12.005,4729.564,0.00021,0.0,0.0
12.012,4728.455,0.00021,0.0,0.0
12.018,4722.567,0.00021,0.0,0.0
12.024,4744.582,0.00021,0.0,0.0
12.031,4753.169,0.00021,0.0,0.0
12.037,4782.994,0.00021,0.0,0.0
12.043,4779.619,0.00021,0.0,0.0
12.05,4865.244,0.00021,0.0,0.0
12.056,4835.682,0.00021,0.0,0.0
12.062,4855.916,0.00021,0.0,0.0
12.069,5366.788,0.00019,0.0,0.0
12.075,5104.409,0.0002,0.0,0.0
12.081,7392.423,0.00014,0.0,0.0
12.088,5738.385,0.00017,0.0,0.0
12.094,6248.146,0.00016,0.0,0.0
12.1,8902.715,0.00011,0.0,0.0
12.106,6223.798,0.00016,0.0,0.0
12.113,6623.264,0.00015,0.0,0.0
12.119,5546.829,0.00018,0.0,0.0
12.125,5267.387,0.00019,0.0,0.0
12.132,5053.731,0.0002,0.0,0.0
12.138,4910.429,0.0002,0.0,0.0
12.144,4821.497,0.00021,0.0,0.0
12.151,4797.016,0.00021,0.0,0.0
12.157,4752.662,0.00021,0.0,0.0
12.163,4725.351,0.00021,0.0,0.0
12.17,4730.457,0.00021,0.0,0.0
12.176,4702.186,0.00021,0.0,0.0
12.182,4699.628,0.00021,0.0,0.0
12.189,4685.143,0.00021,0.0,0.0
12.195,4668.836,0.00021,0.0,0.0
12.201,4654.153,0.00021,0.0,0.0
12.208,4658.759,0.00021,0.0,0.0
12.214,4651.33,0.00021,0.0,0.0
12.22,4655.018,0.00021,0.0,0.0
12.227,4622.528,0.00022,0.0,0.0
12.233,4620.826,0.00022,0.0,0.0
12.239,4612.764,0.00022,0.0,0.0
12.246,4617.398,0.00022,0.0,0.0
12.252,4612.364,0.00022,0.0,0.0
12.258,4594.637,0.00022,0.0,0.0
12.264,4604.667,0.00022,0.0,0.0
12.271,4598.132,0.00022,0.0,0.0
12.277,4595.625,0.00022,0.0,0.0
12.283,4582.815,0.00022,0.0,0.0
12.29,4563.664,0.00022,0.0,0.0
12.296,4568.007,0.00022,0.0,0.0
12.302,4568.724,0.00022,0.0,0.0
12.309,4550.795,0.00022,0.0,0.0
12.315,4569.482,0.00022,0.0,0.0
12.321,4569.624,0.00022,0.0,0.0
12.328,4546.764,0.00022,0.0,0.0
12.334,4544.787,0.00022,0.0,0.0
12.34,4538.796,0.00022,0.0,0.0
12.347,4545.404,0.00022,0.0,0.0
12.353,4529.498,0.00022,0.0,0.0
12.359,4541.036,0.00022,0.0,0.0
12.366,4537.642,0.00022,0.0,0.0
12.372,4538.303,0.00022,0.0,0.0
12.378,4525.763,0.00022,0.0,0.0
12.385,4529.433,0.00022,0.0,0.0
12.391,4528.688,0.00022,0.0,0.0
12.397,4522.407,0.00022,0.0,0.0
12.404,4532.691,0.00022,0.0,0.0
12.41,4519.607,0.00022,0.0,0.0
12.416,4526.091,0.00022,0.0,0.0
12.422,4516.937,0.00022,0.0,0.0
12.429,4511.135,0.00022,0.0,0.0
12.435,4506.239,0.00022,0.0,0.0
12.441,4499.342,0.00022,0.0,0.0
12.448,4510.366,0.00022,0.0,0.0
12.454,4508.209,0.00022,0.0,0.0
12.46,4512.402,0.00022,0.0,0.0
12.467,4504.542,0.00022,0.0,0.0
12.473,4520.892,0.00022,0.0,0.0
12.479,4505.795,0.00022,0.0,0.0
12.486,4506.873,0.00022,0.0,0.0
12.492,4520.097,0.00022,0.0,0.0
12.498,4521.619,0.00022,0.0,0.0
12.505,4530.528,0.00022,0.0,0.0
12.511,4539.782,0.00022,0.0,0.0
12.517,4556.869,0.00022,0.0,0.0
12.524,4551.651,0.00022,0.0,0.0
12.53,4563.959,0.00022,0.0,0.0
12.536,4534.533,0.00022,0.0,0.0
12.543,4549.73,0.00022,0.0,0.0
12.549,4540.448,0.00022,0.0,0.0
12.555,4524.766,0.00022,0.0,0.0
12.562,4544.673,0.00022,0.0,0.0
12.568,4543.586,0.00022,0.0,0.0
12.574,4543.679,0.00022,0.0,0.0
12.58,4554.773,0.00022,0.0,0.0
12.587,4569.356,0.00022,0.0,0.0
12.593,4589.56,0.00022,0.0,0.0
12.599,4608.301,0.00022,0.0,0.0
12.606,4648.136,0.00022,0.0,0.0
12.612,4687.535,0.00021,0.0,0.0
12.618,4749.388,0.00021,0.0,0.0
12.625,4844.677,0.00021,0.0,0.0
12.631,4971.928,0.0002,0.0,0.0
12.637,5217.823,0.00019,0.0,0.0
12.644,5558.231,0.00018,0.0,0.0
12.65,6196.93,0.00016,0.0,0.0
12.656,7246.143,0.00014,0.0,0.0
12.663,9237.899,0.00011,0.0,0.0
12.669,12690.729,0.00008,0.0,0.0
12.675,17033.461,0.00006,0.0,0.0
12.682,23588.081,0.00004,0.0,0.0
12.688,28787.478,0.00003,0.0,0.0
12.694,31737.679,0.00003,0.0,0.0
12.701,31906.433,0.00003,0.0,0.0
12.707,26961.183,0.00004,0.0,0.0
12.713,21680.609,0.00005,0.0,0.0
12.72,15004.593,0.00007,0.0,0.0
12.726,11503.641,0.00009,0.0,0.0
12.732,8222.736,0.00012,0.0,0.0
12.738,6658.862,0.00015,0.0,0.0
12.745,5930.057,0.00017,0.0,0.0
12.751,5354.954,0.00019,0.0,0.0
12.757,5040.056,0.0002,0.0,0.0
12.764,4853.067,0.00021,0.0,0.0
12.77,4729.719,0.00021,0.0,0.0
12.776,4657.696,0.00021,0.0,0.0
12.783,4593.258,0.00022,0.0,0.0
12.789,4534.594,0.00022,0.0,0.0
12.795,4512.235,0.00022,0.0,0.0
12.802,4503.371,0.00022,0.0,0.0
12.808,4459.058,0.00022,0.0,0.0
12.814,4471.302,0.00022,0.0,0.0
12.821,4443.164,0.00023,0.0,0.0
12.827,4428.521,0.00023,0.0,0.0
12.833,4413.123,0.00023,0.0,0.0
12.84,4414.409,0.00023,0.0,0.0
12.846,4409.444,0.00023,0.0,0.0
12.852,4393.687,0.00023,0.0,0.0
12.859,4386.333,0.00023,0.0,0.0
12.865,4388.27,0.00023,0.0,0.0
12.871,4381.763,0.00023,0.0,0.0
12.878,4386.327,0.00023,0.0,0.0
12.884,4373.834,0.00023,0.0,0.0
12.89,4377.563,0.00023,0.0,0.0
12.896,4377.674,0.00023,0.0,0.0
12.903,4401.593,0.00023,0.0,0.0
12.909,4488.681,0.00022,0.0,0.0
12.915,4598.372,0.00022,0.0,0.0
12.922,4479.925,0.00022,0.0,0.0
12.928,4988.284,0.0002,0.0,0.0
12.934,4663.604,0.00021,0.0,0.0
12.941,4595.247,0.00022,0.0,0.0
12.947,4813.121,0.00021,0.0,0.0
12.953,4555.459,0.00022,0.0,0.0
12.96,4530.266,0.00022,0.0,0.0
12.966,4479.577,0.00022,0.0,0.0
12.972,4404.623,0.00023,0.0,0.0
12.979,4371.274,0.00023,0.0,0.0
12.985,4356.414,0.00023,0.0,0.0
12.991,4325.449,0.00023,0.0,0.0
12.998,4315.353,0.00023,0.0,0.0
13.004,4294.887,0.00023,0.0,0.0
13.01,4290.182,0.00023,0.0,0.0
13.017,4288.068,0.00023,0.0,0.0
13.023,4267.744,0.00023,0.0,0.0
13.029,4279.88,0.00023,0.0,0.0
13.036,4273.556,0.00023,0.0,0.0
13.042,4259.102,0.00023,0.0,0.0
13.048,4256.645,0.00023,0.0,0.0
13.054,4253.477,0.00024,0.0,0.0
13.061,4247.254,0.00024,0.0,0.0
13.067,4244.897,0.00024,0.0,0.0
13.073,4248.159,0.00024,0.0,0.0
13.08,4240.461,0.00024,0.0,0.0
13.086,4231.839,0.00024,0.0,0.0
13.092,4227.053,0.00024,0.0,0.0
13.099,4237.183,0.00024,0.0,0.0
13.105,4236.315,0.00024,0.0,0.0
13.111,4232.501,0.00024,0.0,0.0
13.118,4234.123,0.00024,0.0,0.0
13.124,4228.052,0.00024,0.0,0.0
13.13,4234.841,0.00024,0.0,0.0
13.137,4234.354,0.00024,0.0,0.0
13.143,4230.925,0.00024,0.0,0.0
13.149,4218.289,0.00024,0.0,0.0
13.156,4238.511,0.00024,0.0,0.0
13.162,4234.35,0.00024,0.0,0.0
13.168,4239.181,0.00024,0.0,0.0
13.175,4250.413,0.00024,0.0,0.0
13.181,4254.429,0.00024,0.0,0.0
13.187,4266.545,0.00023,0.0,0.0
13.194,4285.645,0.00023,0.0,0.0
13.2,4319.231,0.00023,0.0,0.0
13.206,4371.728,0.00023,0.0,0.0
13.212,4457.105,0.00022,0.0,0.0
13.219,4646.259,0.00022,0.0,0.0
13.225,4899.645,0.0002,0.0,0.0
13.231,5408.525,0.00018,0.0,0.0
13.238,6324.181,0.00016,0.0,0.0
13.244,8004.65,0.00012,0.0,0.0
13.25,9716.554,0.0001,0.0,0.0
13.257,11564.626,0.00009,0.0,0.0
13.263,12539.452,0.00008,0.0,0.0
13.269,13485.934,0.00007,0.0,0.0
13.276,11556.124,0.00009,0.0,0.0
13.282,9727.657,0.0001,0.0,0.0
13.288,7696.299,0.00013,0.0,0.0
13.295,6278.59,0.00016,0.0,0.0
13.301,5394.877,0.00019,0.0,0.0
13.307,4827.108,0.00021,0.0,0.0
13.314,4554.604,0.00022,0.0,0.0
13.32,4392.307,0.00023,0.0,0.0
13.326,4293.286,0.00023,0.0,0.0
13.333,4263.504,0.00023,0.0,0.0
13.339,4209.832,0.00024,0.0,0.0
13.345,4184.02,0.00024,0.0,0.0
13.352,4168.278,0.00024,0.0,0.0
13.358,4161.656,0.00024,0.0,0.0
13.364,4152.376,0.00024,0.0,0.0
13.37,4139.744,0.00024,0.0,0.0
13.377,4126.971,0.00024,0.0,0.0
13.383,4119.852,0.00024,0.0,0.0
13.389,4116.928,0.00024,0.0,0.0
13.396,4111.019,0.00024,0.0,0.0
13.402,4118.718,0.00024,0.0,0.0
13.408,4103.036,0.00024,0.0,0.0
13.415,4105.924,0.00024,0.0,0.0
13.421,4093.027,0.00024,0.0,0.0
13.427,4093.136,0.00024,0.0,0.0
13.434,4086.591,0.00024,0.0,0.0
13.44,4075.309,0.00025,0.0,0.0
13.446,4073.378,0.00025,0.0,0.0
13.453,4067.132,0.00025,0.0,0.0
13.459,4054.891,0.00025,0.0,0.0
13.465,4067.51,0.00025,0.0,0.0
13.472,4046.249,0.00025,0.0,0.0
13.478,4053.024,0.00025,0.0,0.0
13.484,4044.123,0.00025,0.0,0.0
13.491,4035.001,0.00025,0.0,0.0
13.497,4041.669,0.00025,0.0,0.0
13.503,4037.62,0.00025,0.0,0.0
13.51,4042.45,0.00025,0.0,0.0
13.516,4041.422,0.00025,0.0,0.0
13.522,4030.632,0.00025,0.0,0.0
13.528,4036.885,0.00025,0.0,0.0
13.535,4014.093,0.00025,0.0,0.0
13.541,4019.272,0.00025,0.0,0.0
13.547,4021.659,0.00025,0.0,0.0
13.554,4015.258,0.00025,0.0,0.0
13.56,4025.141,0.00025,0.0,0.0
13.566,4008.082,0.00025,0.0,0.0
13.573,4001.631,0.00025,0.0,0.0
13.579,4009.697,0.00025,0.0,0.0
13.585,4006.236,0.00025,0.0,0.0
13.592,4002.172,0.00025,0.0,0.0
13.598,4006.287,0.00025,0.0,0.0
13.604,4005.183,0.00025,0.0,0.0
13.611,4002.273,0.00025,0.0,0.0
13.617,4002.671,0.00025,0.0,0.0
13.623,4011.514,0.00025,0.0,0.0
13.63,4011.792,0.00025,0.0,0.0
13.636,4000.42,0.00025,0.0,0.0
13.642,4001.978,0.00025,0.0,0.0
13.649,3997.233,0.00025,0.0,0.0
13.655,4010.952,0.00025,0.0,0.0
13.661,4016.297,0.00025,0.0,0.0
13.668,4016.389,0.00025,0.0,0.0
13.674,4011.669,0.00025,0.0,0.0
13.68,4021.361,0.00025,0.0,0.0
13.686,4023.576,0.00025,0.0,0.0
13.693,4042.536,0.00025,0.0,0.0
13.699,4083.253,0.00024,0.0,0.0
13.705,4134.482,0.00024,0.0,0.0
13.712,4266.22,0.00023,0.0,0.0
13.718,4279.88,0.00023,0.0,0.0
13.724,4347.733,0.00023,0.0,0.0
13.731,4319.782,0.00023,0.0,0.0
13.737,4273.464,0.00023,0.0,0.0
13.743,4238.221,0.00024,0.0,0.0
13.75,4169.475,0.00024,0.0,0.0
13.756,4067.795,0.00025,0.0,0.0
13.762,4015.775,0.00025,0.0,0.0
13.769,3998.277,0.00025,0.0,0.0
13.775,3960.198,0.00025,0.0,0.0
13.781,3959.779,0.00025,0.0,0.0
13.788,3954.345,0.00025,0.0,0.0
13.794,3956.307,0.00025,0.0,0.0
13.8,3928.306,0.00025,0.0,0.0
13.807,3934.146,0.00025,0.0,0.0
13.813,3918.408,0.00026,0.0,0.0
13.819,3914.597,0.00026,0.0,0.0
13.826,3907.413,0.00026,0.0,0.0
13.832,3906.064,0.00026,0.0,0.0
13.838,3909.099,0.00026,0.0,0.0
13.844,3907.53,0.00026,0.0,0.0
13.851,3907.618,0.00026,0.0,0.0
13.857,3897.485,0.00026,0.0,0.0
13.863,3902.181,0.00026,0.0,0.0
13.87,3889.974,0.00026,0.0,0.0
13.876,3894.143,0.00026,0.0,0.0
13.882,3886.211,0.00026,0.0,0.0
13.889,3871.67,0.00026,0.0,0.0
13.895,3866.306,0.00026,0.0,0.0
13.901,3863.31,0.00026,0.0,0.0
13.908,3875.892,0.00026,0.0,0.0
13.914,3873.878,0.00026,0.0,0.0
13.92,3860.012,0.00026,0.0,0.0
13.927,3869.694,0.00026,0.0,0.0
13.933,3863.815,0.00026,0.0,0.0
13.939,3862.655,0.00026,0.0,0.0
13.946,3850.928,0.00026,0.0,0.0
13.952,3856.537,0.00026,0.0,0.0
13.958,3847.713,0.00026,0.0,0.0
13.965,3841.592,0.00026,0.0,0.0
13.971,3841.084,0.00026,0.0,0.0
13.977,3837.293,0.00026,0.0,0.0
13.984,3836.54,0.00026,0.0,0.0
13.99,3828.867,0.00026,0.0,0.0
13.996,3838.111,0.00026,0.0,0.0
14.002,3828.745,0.00026,0.0,0.0
14.009,3826.218,0.00026,0.0,0.0
14.015,3815.513,0.00026,0.0,0.0
14.021,3824.917,0.00026,0.0,0.0
14.028,3813.35,0.00026,0.0,0.0
14.034,3806.273,0.00026,0.0,0.0
14.04,3821.55,0.00026,0.0,0.0
14.047,3806.491,0.00026,0.0,0.0
14.053,3802.392,0.00026,0.0,0.0
14.059,3797.192,0.00026,0.0,0.0
14.066,3795.212,0.00026,0.0,0.0
14.072,3791.711,0.00026,0.0,0.0
14.078,3795.661,0.00026,0.0,0.0
14.085,3793.971,0.00026,0.0,0.0
14.091,3780.527,0.00026,0.0,0.0
14.097,3778.077,0.00026,0.0,0.0
14.104,3792.022,0.00026,0.0,0.0
14.11,3764.168,0.00027,0.0,0.0
14.116,3781.429,0.00026,0.0,0.0
14.123,3770.997,0.00027,0.0,0.0
14.129,3768.686,0.00027,0.0,0.0
14.135,3771.02,0.00027,0.0,0.0
14.142,3755.322,0.00027,0.0,0.0
14.148,3776.765,0.00026,0.0,0.0
14.154,3745.824,0.00027,0.0,0.0
14.16,3757.031,0.00027,0.0,0.0
14.167,3759.828,0.00027,0.0,0.0
14.173,3738.34,0.00027,0.0,0.0
14.179,3756.073,0.00027,0.0,0.0
14.186,3747.816,0.00027,0.0,0.0
14.192,3755.366,0.00027,0.0,0.0
14.198,3747.646,0.00027,0.0,0.0
14.205,3756.885,0.00027,0.0,0.0
14.211,3745.57,0.00027,0.0,0.0
14.217,3738.06,0.00027,0.0,0.0
14.224,3748.214,0.00027,0.0,0.0
14.23,3736.036,0.00027,0.0,0.0
14.236,3741.769,0.00027,0.0,0.0
14.243,3743.88,0.00027,0.0,0.0
14.249,3751.773,0.00027,0.0,0.0
14.255,3745.478,0.00027,0.0,0.0
14.262,3744.354,0.00027,0.0,0.0
14.268,3754.406,0.00027,0.0,0.0
14.274,3760.51,0.00027,0.0,0.0
14.281,3754.392,0.00027,0.0,0.0
14.287,3744.898,0.00027,0.0,0.0
14.293,3739.012,0.00027,0.0,0.0
14.3,3740.013,0.00027,0.0,0.0
14.306,3714.479,0.00027,0.0,0.0
14.312,3720.59,0.00027,0.0,0.0
14.318,3710.089,0.00027,0.0,0.0
14.325,3707.225,0.00027,0.0,0.0
14.331,3695.876,0.00027,0.0,0.0
14.337,3694.998,0.00027,0.0,0.0
14.344,3685.712,0.00027,0.0,0.0
14.35,3686.93,0.00027,0.0,0.0
14.356,3691.438,0.00027,0.0,0.0
14.363,3679.388,0.00027,0.0,0.0
14.369,3689.317,0.00027,0.0,0.0
14.375,3675.441,0.00027,0.0,0.0
14.382,3696.29,0.00027,0.0,0.0
14.388,3678.532,0.00027,0.0,0.0
14.394,3671.002,0.00027,0.0,0.0
14.401,3670.625,0.00027,0.0,0.0
14.407,3675.302,0.00027,0.0,0.0
14.413,3666.62,0.00027,0.0,0.0
14.42,3675.723,0.00027,0.0,0.0
14.426,3667.056,0.00027,0.0,0.0
14.432,3670.372,0.00027,0.0,0.0
14.439,3681.436,0.00027,0.0,0.0
14.445,3695.437,0.00027,0.0,0.0
14.451,3728.465,0.00027,0.0,0.0
14.458,3722.609,0.00027,0.0,0.0
14.464,3849.813,0.00026,0.0,0.0
14.47,3846.311,0.00026,0.0,0.0
14.476,3959.594,0.00025,0.0,0.0
14.483,3900.875,0.00026,0.0,0.0
14.489,3779.753,0.00026,0.0,0.0
14.495,3730.382,0.00027,0.0,0.0
14.502,3698.055,0.00027,0.0,0.0
14.508,3663.723,0.00027,0.0,0.0
14.514,3641.526,0.00027,0.0,0.0
14.521,3637.37,0.00027,0.0,0.0
14.527,3629.215,0.00028,0.0,0.0
14.533,3619.854,0.00028,0.0,0.0
14.54,3628.028,0.00028,0.0,0.0
14.546,3619.705,0.00028,0.0,0.0
14.552,3612.135,0.00028,0.0,0.0
14.559,3607.401,0.00028,0.0,0.0
14.565,3616.443,0.00028,0.0,0.0
14.571,3619.998,0.00028,0.0,0.0
14.578,3613.331,0.00028,0.0,0.0
14.584,3601.584,0.00028,0.0,0.0
14.59,3611.234,0.00028,0.0,0.0
14.597,3600.927,0.00028,0.0,0.0
14.603,3609.672,0.00028,0.0,0.0
14.609,3593.347,0.00028,0.0,0.0
14.616,3596.316,0.00028,0.0,0.0
14.622,3596.522,0.00028,0.0,0.0
14.628,3593.0,0.00028,0.0,0.0
14.634,3586.507,0.00028,0.0,0.0
14.641,3583.37,0.00028,0.0,0.0
14.647,3585.723,0.00028,0.0,0.0
14.653,3574.291,0.00028,0.0,0.0
14.66,3577.483,0.00028,0.0,0.0
14.666,3567.719,0.00028,0.0,0.0
14.672,3589.326,0.00028,0.0,0.0
14.679,3559.133,0.00028,0.0,0.0
14.685,3566.887,0.00028,0.0,0.0
14.691,3563.617,0.00028,0.0,0.0
14.698,3555.933,0.00028,0.0,0.0
14.704,3565.613,0.00028,0.0,0.0
14.71,3555.161,0.00028,0.0,0.0
14.717,3557.251,0.00028,0.0,0.0
14.723,3554.403,0.00028,0.0,0.0
14.729,3543.412,0.00028,0.0,0.0
14.736,3540.974,0.00028,0.0,0.0
14.742,3539.794,0.00028,0.0,0.0
14.748,3548.294,0.00028,0.0,0.0
14.755,3531.564,0.00028,0.0,0.0
14.761,3529.781,0.00028,0.0,0.0
14.767,3541.368,0.00028,0.0,0.0
14.774,3528.148,0.00028,0.0,0.0
14.78,3529.301,0.00028,0.0,0.0
14.786,3523.088,0.00028,0.0,0.0
14.792,3514.023,0.00028,0.0,0.0
14.799,3522.337,0.00028,0.0,0.0
14.805,3518.798,0.00028,0.0,0.0
14.811,3525.773,0.00028,0.0,0.0
14.818,3514.449,0.00028,0.0,0.0
14.824,3522.09,0.00028,0.0,0.0
14.83,3515.812,0.00028,0.0,0.0
14.837,3508.349,0.00029,0.0,0.0
14.843,3523.758,0.00028,0.0,0.0
14.849,3493.969,0.00029,0.0,0.0
14.856,3495.712,0.00029,0.0,0.0
14.862,3502.843,0.00029,0.0,0.0
14.868,3501.09,0.00029,0.0,0.0
14.875,3499.633,0.00029,0.0,0.0
14.881,3487.185,0.00029,0.0,0.0
14.887,3497.203,0.00029,0.0,0.0
14.894,3500.242,0.00029,0.0,0.0
14.9,3501.868,0.00029,0.0,0.0
14.906,3499.344,0.00029,0.0,0.0
14.913,3486.247,0.00029,0.0,0.0
14.919,3491.757,0.00029,0.0,0.0
14.925,3476.103,0.00029,0.0,0.0
14.932,3479.836,0.00029,0.0,0.0
14.938,3476.154,0.00029,0.0,0.0
14.944,3487.563,0.00029,0.0,0.0
14.95,3482.649,0.00029,0.0,0.0
14.957,3478.298,0.00029,0.0,0.0
14.963,3467.979,0.00029,0.0,0.0
14.969,3475.406,0.00029,0.0,0.0
14.976,3468.485,0.00029,0.0,0.0
14.982,3464.251,0.00029,0.0,0.0
14.988,3459.355,0.00029,0.0,0.0
14.995,3465.314,0.00029,0.0,0.0
15.001,3467.539,0.00029,0.0,0.0
15.007,3465.449,0.00029,0.0,0.0
15.014,3461.068,0.00029,0.0,0.0
15.02,3452.878,0.00029,0.0,0.0
15.026,3451.945,0.00029,0.0,0.0
15.033,3452.0,0.00029,0.0,0.0
15.039,3457.171,0.00029,0.0,0.0
15.045,3457.037,0.00029,0.0,0.0
15.052,3444.444,0.00029,0.0,0.0
15.058,3454.083,0.00029,0.0,0.0
15.064,3437.201,0.00029,0.0,0.0
15.071,3456.294,0.00029,0.0,0.0
15.077,3447.09,0.00029,0.0,0.0
15.083,3457.751,0.00029,0.0,0.0
15.09,3439.353,0.00029,0.0,0.0
15.096,3439.225,0.00029,0.0,0.0
15.102,3437.349,0.00029,0.0,0.0
15.108,3439.687,0.00029,0.0,0.0
15.115,3433.288,0.00029,0.0,0.0
15.121,3448.066,0.00029,0.0,0.0
15.127,3446.484,0.00029,0.0,0.0
15.134,3425.143,0.00029,0.0,0.0
15.14,3449.21,0.00029,0.0,0.0
15.146,3441.011,0.00029,0.0,0.0
15.153,3428.489,0.00029,0.0,0.0
15.159,3435.976,0.00029,0.0,0.0
15.165,3458.998,0.00029,0.0,0.0
15.172,3442.539,0.00029,0.0,0.0
15.178,3453.508,0.00029,0.0,0.0
15.184,3451.833,0.00029,0.0,0.0
15.191,3440.108,0.00029,0.0,0.0
15.197,3444.625,0.00029,0.0,0.0
15.203,3439.676,0.00029,0.0,0.0
15.21,3436.249,0.00029,0.0,0.0
15.216,3430.69,0.00029,0.0,0.0
15.222,3428.78,0.00029,0.0,0.0
15.229,3441.073,0.00029,0.0,0.0
15.235,3433.0,0.00029,0.0,0.0
15.241,3441.028,0.00029,0.0,0.0
15.248,3448.315,0.00029,0.0,0.0
15.254,3464.707,0.00029,0.0,0.0
15.26,3483.769,0.00029,0.0,0.0
15.266,3512.167,0.00028,0.0,0.0
15.273,3564.276,0.00028,0.0,0.0
15.279,3647.918,0.00027,0.0,0.0
15.285,3786.621,0.00026,0.0,0.0
15.292,4021.195,0.00025,0.0,0.0
15.298,4355.683,0.00023,0.0,0.0
15.304,4836.749,0.00021,0.0,0.0
15.311,5387.435,0.00019,0.0,0.0
15.317,5876.985,0.00017,0.0,0.0
15.323,6147.004,0.00016,0.0,0.0
15.33,5980.322,0.00017,0.0,0.0
15.336,5655.873,0.00018,0.0,0.0
15.342,5258.911,0.00019,0.0,0.0
15.349,4586.852,0.00022,0.0,0.0
15.355,4218.449,0.00024,0.0,0.0
15.361,3889.837,0.00026,0.0,0.0
15.368,3702.892,0.00027,0.0,0.0
15.374,3583.036,0.00028,0.0,0.0
15.38,3510.737,0.00028,0.0,0.0
15.387,3462.176,0.00029,0.0,0.0
15.393,3434.852,0.00029,0.0,0.0
15.399,3408.594,0.00029,0.0,0.0
15.406,3410.888,0.00029,0.0,0.0
15.412,3388.502,0.0003,0.0,0.0
15.418,3378.685,0.0003,0.0,0.0
15.424,3383.882,0.0003,0.0,0.0
15.431,3382.596,0.0003,0.0,0.0
15.437,3376.511,0.0003,0.0,0.0
15.443,3371.406,0.0003,0.0,0.0
15.45,3374.761,0.0003,0.0,0.0
15.456,3358.519,0.0003,0.0,0.0
15.462,3363.248,0.0003,0.0,0.0
15.469,3351.672,0.0003,0.0,0.0
15.475,3349.9,0.0003,0.0,0.0
15.481,3359.718,0.0003,0.0,0.0
15.488,3363.369,0.0003,0.0,0.0
15.494,3353.526,0.0003,0.0,0.0
15.5,3354.173,0.0003,0.0,0.0
15.507,3346.098,0.0003,0.0,0.0
15.513,3338.81,0.0003,0.0,0.0
15.519,3336.074,0.0003,0.0,0.0
15.526,3341.044,0.0003,0.0,0.0
15.532,3340.969,0.0003,0.0,0.0
15.538,3322.267,0.0003,0.0,0.0
15.545,3330.167,0.0003,0.0,0.0
15.551,3321.525,0.0003,0.0,0.0
15.557,3315.523,0.0003,0.0,0.0
15.564,3320.459,0.0003,0.0,0.0
15.57,3322.92,0.0003,0.0,0.0
15.576,3309.662,0.0003,0.0,0.0
15.582,3312.317,0.0003,0.0,0.0
15.589,3321.099,0.0003,0.0,0.0
15.595,3303.552,0.0003,0.0,0.0
15.601,3298.678,0.0003,0.0,0.0
15.608,3312.764,0.0003,0.0,0.0
15.614,3307.091,0.0003,0.0,0.0
15.62,3311.47,0.0003,0.0,0.0
15.627,3310.61,0.0003,0.0,0.0
15.633,3301.227,0.0003,0.0,0.0
15.639,3300.89,0.0003,0.0,0.0
15.646,3303.566,0.0003,0.0,0.0
15.652,3293.863,0.0003,0.0,0.0
15.658,3305.659,0.0003,0.0,0.0
15.665,3303.782,0.0003,0.0,0.0
15.671,3296.832,0.0003,0.0,0.0
15.677,3297.343,0.0003,0.0,0.0
15.684,3296.575,0.0003,0.0,0.0
15.69,3291.686,0.0003,0.0,0.0
15.696,3284.636,0.0003,0.0,0.0
15.703,3289.922,0.0003,0.0,0.0
15.709,3280.355,0.0003,0.0,0.0
15.715,3277.928,0.00031,0.0,0.0
15.722,3277.515,0.00031,0.0,0.0
15.728,3282.512,0.0003,0.0,0.0
15.734,3279.935,0.0003,0.0,0.0
15.74,3272.361,0.00031,0.0,0.0
15.747,3280.067,0.0003,0.0,0.0
15.753,3280.85,0.0003,0.0,0.0
15.759,3275.155,0.00031,0.0,0.0
15.766,3280.12,0.0003,0.0,0.0
15.772,3274.63,0.00031,0.0,0.0
15.778,3264.776,0.00031,0.0,0.0
15.785,3273.874,0.00031,0.0,0.0
15.791,3263.834,0.00031,0.0,0.0
15.797,3268.577,0.00031,0.0,0.0
15.804,3268.668,0.00031,0.0,0.0
15.81,3265.705,0.00031,0.0,0.0
15.816,3251.661,0.00031,0.0,0.0
15.823,3260.153,0.00031,0.0,0.0
15.829,3267.547,0.00031,0.0,0.0
15.835,3258.683,0.00031,0.0,0.0
15.842,3258.224,0.00031,0.0,0.0
15.848,3258.444,0.00031,0.0,0.0
15.854,3267.134,0.00031,0.0,0.0
15.861,3260.554,0.00031,0.0,0.0
15.867,3257.813,0.00031,0.0,0.0
15.873,3252.583,0.00031,0.0,0.0
15.88,3259.154,0.00031,0.0,0.0
15.886,3256.924,0.00031,0.0,0.0
15.892,3248.531,0.00031,0.0,0.0
15.898,3241.082,0.00031,0.0,0.0
15.905,3248.945,0.00031,0.0,0.0
15.911,3257.513,0.00031,0.0,0.0
15.917,3243.549,0.00031,0.0,0.0
15.924,3242.88,0.00031,0.0,0.0
15.93,3241.66,0.00031,0.0,0.0
15.936,3240.854,0.00031,0.0,0.0
15.943,3237.604,0.00031,0.0,0.0
15.949,3230.327,0.00031,0.0,0.0
15.955,3234.124,0.00031,0.0,0.0
15.962,3233.256,0.00031,0.0,0.0
15.968,3236.676,0.00031,0.0,0.0
15.974,3230.908,0.00031,0.0,0.0
15.981,3237.935,0.00031,0.0,0.0
15.987,3231.803,0.00031,0.0,0.0
15.993,3220.226,0.00031,0.0,0.0
16.0,3217.684,0.00031,0.0,0.0
16.006,3220.529,0.00031,0.0,0.0
16.012,3227.659,0.00031,0.0,0.0
16.019,3227.027,0.00031,0.0,0.0
16.025,3223.974,0.00031,0.0,0.0
16.031,3215.42,0.00031,0.0,0.0
16.038,3212.346,0.00031,0.0,0.0
16.044,3217.804,0.00031,0.0,0.0
16.05,3225.575,0.00031,0.0,0.0
16.056,3218.453,0.00031,0.0,0.0
16.063,3217.226,0.00031,0.0,0.0
16.069,3216.089,0.00031,0.0,0.0
16.075,3222.559,0.00031,0.0,0.0
16.082,3215.017,0.00031,0.0,0.0
16.088,3210.469,0.00031,0.0,0.0
16.094,3204.644,0.00031,0.0,0.0
16.101,3215.204,0.00031,0.0,0.0
16.107,3202.892,0.00031,0.0,0.0
16.113,3201.419,0.00031,0.0,0.0
16.12,3213.918,0.00031,0.0,0.0
16.126,3202.665,0.00031,0.0,0.0
16.132,3218.444,0.00031,0.0,0.0
16.139,3208.982,0.00031,0.0,0.0
16.145,3196.184,0.00031,0.0,0.0
16.151,3195.455,0.00031,0.0,0.0
16.158,3205.459,0.00031,0.0,0.0
16.164,3200.57,0.00031,0.0,0.0
16.17,3211.698,0.00031,0.0,0.0
16.177,3213.062,0.00031,0.0,0.0
16.183,3199.489,0.00031,0.0,0.0
16.189,3196.173,0.00031,0.0,0.0
16.196,3202.469,0.00031,0.0,0.0
16.202,3191.72,0.00031,0.0,0.0
16.208,3204.565,0.00031,0.0,0.0
16.214,3193.575,0.00031,0.0,0.0
16.221,3189.095,0.00031,0.0,0.0
16.227,3192.227,0.00031,0.0,0.0
16.233,3201.043,0.00031,0.0,0.0
16.24,3193.576,0.00031,0.0,0.0
16.246,3197.42,0.00031,0.0,0.0
16.252,3192.633,0.00031,0.0,0.0
16.259,3199.153,0.00031,0.0,0.0
16.265,3189.486,0.00031,0.0,0.0
16.271,3191.672,0.00031,0.0,0.0
16.278,3195.912,0.00031,0.0,0.0
16.284,3197.46,0.00031,0.0,0.0
16.29,3189.938,0.00031,0.0,0.0
16.297,3187.912,0.00031,0.0,0.0
16.303,3186.167,0.00031,0.0,0.0
16.309,3197.607,0.00031,0.0,0.0
16.316,3190.022,0.00031,0.0,0.0
16.322,3190.301,0.00031,0.0,0.0
16.328,3189.687,0.00031,0.0,0.0
16.335,3194.198,0.00031,0.0,0.0
16.341,3201.842,0.00031,0.0,0.0
16.347,3190.331,0.00031,0.0,0.0
16.354,3197.611,0.00031,0.0,0.0
16.36,3195.101,0.00031,0.0,0.0
16.366,3191.359,0.00031,0.0,0.0
16.372,3193.058,0.00031,0.0,0.0
16.379,3188.745,0.00031,0.0,0.0
16.385,3182.591,0.00031,0.0,0.0
16.391,3186.17,0.00031,0.0,0.0
16.398,3188.728,0.00031,0.0,0.0
16.404,3187.526,0.00031,0.0,0.0
16.41,3186.682,0.00031,0.0,0.0
16.417,3195.425,0.00031,0.0,0.0
16.423,3182.652,0.00031,0.0,0.0
16.429,3194.145,0.00031,0.0,0.0
16.436,3182.605,0.00031,0.0,0.0
16.442,3189.345,0.00031,0.0,0.0
16.448,3193.253,0.00031,0.0,0.0
16.455,3194.577,0.00031,0.0,0.0
16.461,3195.907,0.00031,0.0,0.0
16.467,3206.392,0.00031,0.0,0.0
16.474,3201.147,0.00031,0.0,0.0
16.48,3203.936,0.00031,0.0,0.0
16.486,3223.566,0.00031,0.0,0.0
16.493,3226.691,0.00031,0.0,0.0
16.499,3237.347,0.00031,0.0,0.0
16.505,3296.244,0.0003,0.0,0.0
16.512,3258.591,0.00031,0.0,0.0
16.518,3290.969,0.0003,0.0,0.0
16.524,3291.815,0.0003,0.0,0.0
16.53,3241.378,0.00031,0.0,0.0
16.537,3258.852,0.00031,0.0,0.0
16.543,3230.667,0.00031,0.0,0.0
16.549,3217.21,0.00031,0.0,0.0
16.556,3212.046,0.00031,0.0,0.0
16.562,3210.298,0.00031,0.0,0.0
16.568,3205.064,0.00031,0.0,0.0
16.575,3218.856,0.00031,0.0,0.0
16.581,3212.21,0.00031,0.0,0.0
16.587,3217.836,0.00031,0.0,0.0
16.594,3211.329,0.00031,0.0,0.0
