"x","y_obs","weight","y_calc","y_bkg"
0.8,2724.538,0.00037,0.0,0.0
0.806,3064.962,0.00033,0.0,0.0
0.813,3258.66,0.00031,0.0,0.0
0.819,3122.137,0.00032,0.0,0.0
0.825,3686.823,0.00027,0.0,0.0
0.832,3486.046,0.00029,0.0,0.0
0.838,3727.359,0.00027,0.0,0.0
0.844,4007.986,0.00025,0.0,0.0
0.851,3875.194,0.00026,0.0,0.0
0.857,4288.108,0.00023,0.0,0.0
0.863,4636.633,0.00022,0.0,0.0
0.87,4229.85,0.00024,0.0,0.0
0.876,4989.712,0.0002,0.0,0.0
0.882,4878.369,0.0002,0.0,0.0
0.888,5101.575,0.0002,0.0,0.0
0.895,5278.092,0.00019,0.0,0.0
0.901,5332.995,0.00019,0.0,0.0
0.907,5715.724,0.00017,0.0,0.0
0.914,5890.362,0.00017,0.0,0.0
0.92,5579.329,0.00018,0.0,0.0
0.926,6126.362,0.00016,0.0,0.0
0.933,6140.699,0.00016,0.0,0.0
0.939,5992.161,0.00017,0.0,0.0
0.945,6527.459,0.00015,0.0,0.0
0.952,6205.892,0.00016,0.0,0.0
0.958,6494.77,0.00015,0.0,0.0
0.964,6540.485,0.00015,0.0,0.0
0.971,6339.506,0.00016,0.0,0.0
0.977,6726.243,0.00015,0.0,0.0
0.983,6670.098,0.00015,0.0,0.0
0.99,6523.272,0.00015,0.0,0.0
0.996,6814.894,0.00015,0.0,0.0
1.002,6588.292,0.00015,0.0,0.0
1.009,6687.912,0.00015,0.0,0.0
1.015,6805.443,0.00015,0.0,0.0
1.021,6616.696,0.00015,0.0,0.0
1.028,6895.33,0.00015,0.0,0.0
1.034,6692.087,0.00015,0.0,0.0
1.04,6735.238,0.00015,0.0,0.0
1.046,6787.511,0.00015,0.0,0.0
1.053,6752.782,0.00015,0.0,0.0
1.059,6715.328,0.00015,0.0,0.0
1.065,6822.92,0.00015,0.0,0.0
1.072,6610.02,0.00015,0.0,0.0
1.078,6738.732,0.00015,0.0,0.0
1.084,6608.022,0.00015,0.0,0.0
1.091,6637.577,0.00015,0.0,0.0
1.097,6641.177,0.00015,0.0,0.0
1.103,6585.246,0.00015,0.0,0.0
1.11,6551.863,0.00015,0.0,0.0
1.116,6529.2,0.00015,0.0,0.0
1.122,6513.895,0.00015,0.0,0.0
1.129,6503.317,0.00015,0.0,0.0
1.135,6441.101,0.00016,0.0,0.0
1.141,6402.979,0.00016,0.0,0.0
1.148,6352.325,0.00016,0.0,0.0
1.154,6251.353,0.00016,0.0,0.0
1.16,6319.085,0.00016,0.0,0.0
1.167,6238.276,0.00016,0.0,0.0
1.173,6201.09,0.00016,0.0,0.0
1.179,6204.713,0.00016,0.0,0.0
1.186,6140.721,0.00016,0.0,0.0
1.192,6095.117,0.00016,0.0,0.0
1.198,6053.169,0.00017,0.0,0.0
1.204,6012.293,0.00017,0.0,0.0
1.211,5997.531,0.00017,0.0,0.0
1.217,5920.053,0.00017,0.0,0.0
1.223,5931.935,0.00017,0.0,0.0
1.23,5884.543,0.00017,0.0,0.0
1.236,5848.968,0.00017,0.0,0.0
1.242,5810.878,0.00017,0.0,0.0
1.249,5812.643,0.00017,0.0,0.0
1.255,5793.194,0.00017,0.0,0.0
1.261,5715.909,0.00017,0.0,0.0
1.268,5740.089,0.00017,0.0,0.0
1.274,5667.409,0.00018,0.0,0.0
1.28,5726.921,0.00017,0.0,0.0
1.287,5611.227,0.00018,0.0,0.0
1.293,5619.875,0.00018,0.0,0.0
1.299,5561.873,0.00018,0.0,0.0
1.306,5571.146,0.00018,0.0,0.0
1.312,5514.542,0.00018,0.0,0.0
1.318,5551.416,0.00018,0.0,0.0
1.325,5464.492,0.00018,0.0,0.0
1.331,5525.449,0.00018,0.0,0.0
1.337,5479.989,0.00018,0.0,0.0
1.344,5467.827,0.00018,0.0,0.0
1.35,5423.069,0.00018,0.0,0.0
1.356,5407.301,0.00018,0.0,0.0
1.362,5408.631,0.00018,0.0,0.0
1.369,5393.097,0.00019,0.0,0.0
1.375,5420.438,0.00018,0.0,0.0
1.381,5360.572,0.00019,0.0,0.0
1.388,5407.47,0.00018,0.0,0.0
1.394,5347.745,0.00019,0.0,0.0
1.4,5402.74,0.00019,0.0,0.0
1.407,5336.233,0.00019,0.0,0.0
1.413,5390.268,0.00019,0.0,0.0
1.419,5330.694,0.00019,0.0,0.0
1.426,5320.205,0.00019,0.0,0.0
1.432,5291.343,0.00019,0.0,0.0
1.438,5311.39,0.00019,0.0,0.0
1.445,5265.725,0.00019,0.0,0.0
1.451,5308.697,0.00019,0.0,0.0
1.457,5267.95,0.00019,0.0,0.0
1.464,5267.056,0.00019,0.0,0.0
1.47,5286.827,0.00019,0.0,0.0
1.476,5313.435,0.00019,0.0,0.0
1.483,5317.48,0.00019,0.0,0.0
1.489,5268.785,0.00019,0.0,0.0
1.495,5289.428,0.00019,0.0,0.0
1.502,5263.454,0.00019,0.0,0.0
1.508,5289.035,0.00019,0.0,0.0
1.514,5300.348,0.00019,0.0,0.0
1.52,5306.73,0.00019,0.0,0.0
1.527,5310.42,0.00019,0.0,0.0
1.533,5314.631,0.00019,0.0,0.0
1.539,5317.859,0.00019,0.0,0.0
1.546,5335.709,0.00019,0.0,0.0
1.552,5318.693,0.00019,0.0,0.0
1.558,5301.347,0.00019,0.0,0.0
1.565,5368.435,0.00019,0.0,0.0
1.571,5359.941,0.00019,0.0,0.0
1.577,5348.5,0.00019,0.0,0.0
1.584,5344.793,0.00019,0.0,0.0
1.59,5395.079,0.00019,0.0,0.0
1.596,5352.546,0.00019,0.0,0.0
1.603,5423.818,0.00018,0.0,0.0
1.609,5387.427,0.00019,0.0,0.0
1.615,5396.663,0.00019,0.0,0.0
1.622,5383.236,0.00019,0.0,0.0
1.628,5418.506,0.00018,0.0,0.0
1.634,5422.916,0.00018,0.0,0.0
1.641,5454.013,0.00018,0.0,0.0
1.647,5445.391,0.00018,0.0,0.0
1.653,5498.873,0.00018,0.0,0.0
1.66,5475.3,0.00018,0.0,0.0
1.666,5489.302,0.00018,0.0,0.0
1.672,5536.244,0.00018,0.0,0.0
1.678,5517.935,0.00018,0.0,0.0
1.685,5519.741,0.00018,0.0,0.0
1.691,5559.336,0.00018,0.0,0.0
1.697,5542.897,0.00018,0.0,0.0
1.704,5554.692,0.00018,0.0,0.0
1.71,5570.557,0.00018,0.0,0.0
1.716,5591.425,0.00018,0.0,0.0
1.723,5632.867,0.00018,0.0,0.0
1.729,5623.049,0.00018,0.0,0.0
1.735,5622.686,0.00018,0.0,0.0
1.742,5651.97,0.00018,0.0,0.0
1.748,5640.825,0.00018,0.0,0.0
1.754,5674.994,0.00018,0.0,0.0
1.761,5645.452,0.00018,0.0,0.0
1.767,5670.63,0.00018,0.0,0.0
1.773,5694.607,0.00018,0.0,0.0
1.78,5710.567,0.00018,0.0,0.0
1.786,5710.876,0.00018,0.0,0.0
1.792,5732.803,0.00017,0.0,0.0
1.799,5749.381,0.00017,0.0,0.0
1.805,5718.867,0.00017,0.0,0.0
1.811,5729.521,0.00017,0.0,0.0
1.818,5736.376,0.00017,0.0,0.0
1.824,5764.398,0.00017,0.0,0.0
1.83,5756.454,0.00017,0.0,0.0
1.836,5752.759,0.00017,0.0,0.0
1.843,5775.626,0.00017,0.0,0.0
1.849,5741.263,0.00017,0.0,0.0
1.855,5776.746,0.00017,0.0,0.0
1.862,5762.805,0.00017,0.0,0.0
1.868,5751.914,0.00017,0.0,0.0
1.874,5755.599,0.00017,0.0,0.0
1.881,5752.44,0.00017,0.0,0.0
1.887,5730.111,0.00017,0.0,0.0
1.893,5739.45,0.00017,0.0,0.0
1.9,5762.938,0.00017,0.0,0.0
1.906,5758.843,0.00017,0.0,0.0
1.912,5770.449,0.00017,0.0,0.0
1.919,5732.874,0.00017,0.0,0.0
1.925,5742.606,0.00017,0.0,0.0
1.931,5731.539,0.00017,0.0,0.0
1.938,5763.304,0.00017,0.0,0.0
1.944,5735.386,0.00017,0.0,0.0
1.95,5774.427,0.00017,0.0,0.0
1.957,5748.103,0.00017,0.0,0.0
1.963,5714.199,0.00018,0.0,0.0
1.969,5750.946,0.00017,0.0,0.0
1.976,5732.335,0.00017,0.0,0.0
1.982,5745.917,0.00017,0.0,0.0
1.988,5733.908,0.00017,0.0,0.0
1.994,5746.31,0.00017,0.0,0.0
2.001,5733.54,0.00017,0.0,0.0
2.007,5723.358,0.00017,0.0,0.0
2.013,5731.57,0.00017,0.0,0.0
2.02,5756.694,0.00017,0.0,0.0
2.026,5766.402,0.00017,0.0,0.0
2.032,5784.566,0.00017,0.0,0.0
2.039,5740.176,0.00017,0.0,0.0
2.045,5754.326,0.00017,0.0,0.0
2.051,5754.996,0.00017,0.0,0.0
2.058,5772.931,0.00017,0.0,0.0
2.064,5809.474,0.00017,0.0,0.0
2.07,5787.168,0.00017,0.0,0.0
2.077,5783.87,0.00017,0.0,0.0
2.083,5782.291,0.00017,0.0,0.0
2.089,5786.029,0.00017,0.0,0.0
2.096,5814.821,0.00017,0.0,0.0
2.102,5824.526,0.00017,0.0,0.0
2.108,5808.456,0.00017,0.0,0.0
2.115,5841.309,0.00017,0.0,0.0
2.121,5837.649,0.00017,0.0,0.0
2.127,5849.354,0.00017,0.0,0.0
2.134,5864.899,0.00017,0.0,0.0
2.14,5837.563,0.00017,0.0,0.0
2.146,5893.506,0.00017,0.0,0.0
2.152,5850.097,0.00017,0.0,0.0
2.159,5874.707,0.00017,0.0,0.0
2.165,5904.331,0.00017,0.0,0.0
2.171,5884.718,0.00017,0.0,0.0
2.178,5895.26,0.00017,0.0,0.0
2.184,5899.53,0.00017,0.0,0.0
2.19,5912.823,0.00017,0.0,0.0
2.197,5922.519,0.00017,0.0,0.0
2.203,5964.222,0.00017,0.0,0.0
2.209,5916.916,0.00017,0.0,0.0
2.216,5965.812,0.00017,0.0,0.0
2.222,5953.345,0.00017,0.0,0.0
2.228,6124.749,0.00016,0.0,0.0
2.235,5997.054,0.00017,0.0,0.0
2.241,6016.244,0.00017,0.0,0.0
2.247,6019.019,0.00017,0.0,0.0
2.254,6042.421,0.00017,0.0,0.0
2.26,6035.47,0.00017,0.0,0.0
2.266,6096.177,0.00016,0.0,0.0
2.273,6110.244,0.00016,0.0,0.0
2.279,6115.816,0.00016,0.0,0.0
2.285,6100.146,0.00016,0.0,0.0
2.292,6120.495,0.00016,0.0,0.0
2.298,6150.917,0.00016,0.0,0.0
2.304,6144.607,0.00016,0.0,0.0
2.31,6164.34,0.00016,0.0,0.0
2.317,6181.884,0.00016,0.0,0.0
2.323,6208.587,0.00016,0.0,0.0
2.329,6194.139,0.00016,0.0,0.0
2.336,6246.911,0.00016,0.0,0.0
2.342,6229.422,0.00016,0.0,0.0
2.348,6273.003,0.00016,0.0,0.0
2.355,6299.346,0.00016,0.0,0.0
2.361,6310.2,0.00016,0.0,0.0
2.367,6364.028,0.00016,0.0,0.0
2.374,6339.852,0.00016,0.0,0.0
2.38,6434.838,0.00016,0.0,0.0
2.386,6426.53,0.00016,0.0,0.0
2.393,6479.511,0.00015,0.0,0.0
2.399,6540.996,0.00015,0.0,0.0
2.405,6620.21,0.00015,0.0,0.0
2.412,6742.547,0.00015,0.0,0.0
2.418,6854.574,0.00015,0.0,0.0
2.424,6906.977,0.00014,0.0,0.0
2.431,6959.621,0.00014,0.0,0.0
2.437,6944.328,0.00014,0.0,0.0
2.443,6855.681,0.00015,0.0,0.0
2.45,6837.677,0.00015,0.0,0.0
2.456,6754.908,0.00015,0.0,0.0
2.462,6772.412,0.00015,0.0,0.0
2.468,6708.818,0.00015,0.0,0.0
2.475,6739.211,0.00015,0.0,0.0
2.481,6749.502,0.00015,0.0,0.0
2.487,6746.047,0.00015,0.0,0.0
2.494,6775.354,0.00015,0.0,0.0
2.5,6819.859,0.00015,0.0,0.0
2.506,6827.963,0.00015,0.0,0.0
2.513,6820.838,0.00015,0.0,0.0
2.519,6902.561,0.00014,0.0,0.0
2.525,6921.307,0.00014,0.0,0.0
2.532,6891.874,0.00015,0.0,0.0
2.538,6963.235,0.00014,0.0,0.0
2.544,6985.944,0.00014,0.0,0.0
2.551,6981.642,0.00014,0.0,0.0
2.557,7028.892,0.00014,0.0,0.0
2.563,7041.486,0.00014,0.0,0.0
2.57,7082.354,0.00014,0.0,0.0
2.576,7075.93,0.00014,0.0,0.0
2.582,7121.488,0.00014,0.0,0.0
2.589,7120.521,0.00014,0.0,0.0
2.595,7152.544,0.00014,0.0,0.0
2.601,7173.995,0.00014,0.0,0.0
2.608,7187.286,0.00014,0.0,0.0
2.614,7221.563,0.00014,0.0,0.0
2.62,7265.75,0.00014,0.0,0.0
2.626,7257.554,0.00014,0.0,0.0
2.633,7290.645,0.00014,0.0,0.0
2.639,7302.263,0.00014,0.0,0.0
2.645,7340.285,0.00014,0.0,0.0
2.652,7382.389,0.00014,0.0,0.0
2.658,7413.705,0.00013,0.0,0.0
2.664,7421.169,0.00013,0.0,0.0
2.671,7463.278,0.00013,0.0,0.0
2.677,7488.062,0.00013,0.0,0.0
2.683,7516.46,0.00013,0.0,0.0
2.69,7506.754,0.00013,0.0,0.0
2.696,7520.895,0.00013,0.0,0.0
2.702,7560.007,0.00013,0.0,0.0
2.709,7585.689,0.00013,0.0,0.0
2.715,7616.142,0.00013,0.0,0.0
2.721,7633.822,0.00013,0.0,0.0
2.728,7660.757,0.00013,0.0,0.0
2.734,7683.735,0.00013,0.0,0.0
2.74,7733.765,0.00013,0.0,0.0
2.747,7749.641,0.00013,0.0,0.0
2.753,7764.586,0.00013,0.0,0.0
2.759,7790.6,0.00013,0.0,0.0
2.766,7834.964,0.00013,0.0,0.0
2.772,7825.382,0.00013,0.0,0.0
2.778,7872.145,0.00013,0.0,0.0
2.784,7877.389,0.00013,0.0,0.0
2.791,7932.898,0.00013,0.0,0.0
2.797,7948.009,0.00013,0.0,0.0
2.803,7946.472,0.00013,0.0,0.0
2.81,7997.386,0.00013,0.0,0.0
2.816,8055.157,0.00012,0.0,0.0
2.822,8058.481,0.00012,0.0,0.0
2.829,8083.231,0.00012,0.0,0.0
2.835,8099.697,0.00012,0.0,0.0
2.841,8121.647,0.00012,0.0,0.0
2.848,8160.456,0.00012,0.0,0.0
2.854,8157.991,0.00012,0.0,0.0
2.86,8193.999,0.00012,0.0,0.0
2.867,8215.525,0.00012,0.0,0.0
2.873,8246.686,0.00012,0.0,0.0
2.879,8293.083,0.00012,0.0,0.0
2.886,8300.517,0.00012,0.0,0.0
2.892,8346.245,0.00012,0.0,0.0
2.898,8354.564,0.00012,0.0,0.0
2.905,8369.357,0.00012,0.0,0.0
2.911,8376.003,0.00012,0.0,0.0
2.917,8434.23,0.00012,0.0,0.0
2.924,8424.09,0.00012,0.0,0.0
2.93,8446.158,0.00012,0.0,0.0
2.936,8470.984,0.00012,0.0,0.0
2.942,8508.199,0.00012,0.0,0.0
2.949,8514.299,0.00012,0.0,0.0
2.955,8513.457,0.00012,0.0,0.0
2.961,8558.408,0.00012,0.0,0.0
2.968,8533.586,0.00012,0.0,0.0
2.974,8584.344,0.00012,0.0,0.0
2.98,8579.458,0.00012,0.0,0.0
2.987,8621.114,0.00012,0.0,0.0
2.993,8634.747,0.00012,0.0,0.0
2.999,8626.572,0.00012,0.0,0.0
3.006,8622.445,0.00012,0.0,0.0
3.012,8682.503,0.00012,0.0,0.0
3.018,8684.004,0.00012,0.0,0.0
3.025,8673.363,0.00012,0.0,0.0
3.031,8674.214,0.00012,0.0,0.0
3.037,8686.206,0.00012,0.0,0.0
3.044,8702.489,0.00011,0.0,0.0
3.05,8708.163,0.00011,0.0,0.0
3.056,8707.137,0.00011,0.0,0.0
3.063,8732.729,0.00011,0.0,0.0
3.069,8736.84,0.00011,0.0,0.0
3.075,8712.487,0.00011,0.0,0.0
3.082,8703.093,0.00011,0.0,0.0
3.088,8732.089,0.00011,0.0,0.0
3.094,8752.387,0.00011,0.0,0.0
3.1,8748.18,0.00011,0.0,0.0
3.107,8741.424,0.00011,0.0,0.0
3.113,8747.902,0.00011,0.0,0.0
3.119,8755.089,0.00011,0.0,0.0
3.126,8756.242,0.00011,0.0,0.0
3.132,8743.78,0.00011,0.0,0.0
3.138,8723.04,0.00011,0.0,0.0
3.145,8730.639,0.00011,0.0,0.0
3.151,8738.449,0.00011,0.0,0.0
3.157,8715.169,0.00011,0.0,0.0
3.164,8701.872,0.00011,0.0,0.0
3.17,8714.741,0.00011,0.0,0.0
3.176,8680.277,0.00012,0.0,0.0
3.183,8669.941,0.00012,0.0,0.0
3.189,8666.373,0.00012,0.0,0.0
3.195,8650.767,0.00012,0.0,0.0
3.202,8645.482,0.00012,0.0,0.0
3.208,8633.0,0.00012,0.0,0.0
3.214,8619.279,0.00012,0.0,0.0
3.221,8595.147,0.00012,0.0,0.0
3.227,8609.019,0.00012,0.0,0.0
3.233,8604.227,0.00012,0.0,0.0
3.24,8593.213,0.00012,0.0,0.0
3.246,8591.578,0.00012,0.0,0.0
3.252,8549.715,0.00012,0.0,0.0
3.258,8533.282,0.00012,0.0,0.0
3.265,8553.469,0.00012,0.0,0.0
3.271,8523.502,0.00012,0.0,0.0
3.277,8495.375,0.00012,0.0,0.0
3.284,8479.104,0.00012,0.0,0.0
3.29,8463.239,0.00012,0.0,0.0
3.296,8455.392,0.00012,0.0,0.0
3.303,8452.982,0.00012,0.0,0.0
3.309,8422.186,0.00012,0.0,0.0
3.315,8412.04,0.00012,0.0,0.0
3.322,8410.149,0.00012,0.0,0.0
3.328,8394.6,0.00012,0.0,0.0
3.334,8361.571,0.00012,0.0,0.0
3.341,8338.53,0.00012,0.0,0.0
3.347,8312.998,0.00012,0.0,0.0
3.353,8322.505,0.00012,0.0,0.0
3.36,8297.913,0.00012,0.0,0.0
3.366,8286.089,0.00012,0.0,0.0
3.372,8281.878,0.00012,0.0,0.0
3.379,8250.723,0.00012,0.0,0.0
3.385,8265.099,0.00012,0.0,0.0
3.391,8247.156,0.00012,0.0,0.0
3.398,8230.162,0.00012,0.0,0.0
3.404,8194.915,0.00012,0.0,0.0
3.41,8190.686,0.00012,0.0,0.0
3.416,8166.002,0.00012,0.0,0.0
3.423,8188.903,0.00012,0.0,0.0
3.429,8178.934,0.00012,0.0,0.0
3.435,8165.851,0.00012,0.0,0.0
3.442,8161.079,0.00012,0.0,0.0
3.448,8125.292,0.00012,0.0,0.0
3.454,8113.213,0.00012,0.0,0.0
3.461,8112.667,0.00012,0.0,0.0
3.467,8080.275,0.00012,0.0,0.0
3.473,8045.196,0.00012,0.0,0.0
3.48,8060.821,0.00012,0.0,0.0
3.486,8028.855,0.00012,0.0,0.0
3.492,8010.932,0.00012,0.0,0.0
3.499,8013.114,0.00012,0.0,0.0
3.505,8014.883,0.00012,0.0,0.0
3.511,7992.802,0.00013,0.0,0.0
3.518,7965.996,0.00013,0.0,0.0
3.524,7964.348,0.00013,0.0,0.0
3.53,7981.028,0.00013,0.0,0.0
3.537,7965.303,0.00013,0.0,0.0
3.543,7975.076,0.00013,0.0,0.0
3.549,7955.611,0.00013,0.0,0.0
3.556,7935.055,0.00013,0.0,0.0
3.562,7942.665,0.00013,0.0,0.0
3.568,7929.762,0.00013,0.0,0.0
3.574,7907.254,0.00013,0.0,0.0
3.581,7930.546,0.00013,0.0,0.0
3.587,7934.203,0.00013,0.0,0.0
3.593,7927.57,0.00013,0.0,0.0
3.6,7929.444,0.00013,0.0,0.0
3.606,7924.194,0.00013,0.0,0.0
3.612,7910.134,0.00013,0.0,0.0
3.619,7906.869,0.00013,0.0,0.0
3.625,7939.275,0.00013,0.0,0.0
3.631,7886.58,0.00013,0.0,0.0
3.638,7905.646,0.00013,0.0,0.0
3.644,7900.492,0.00013,0.0,0.0
3.65,7928.372,0.00013,0.0,0.0
3.657,7942.509,0.00013,0.0,0.0
3.663,7934.148,0.00013,0.0,0.0
3.669,7931.991,0.00013,0.0,0.0
3.676,7977.445,0.00013,0.0,0.0
3.682,7987.736,0.00013,0.0,0.0
3.688,8001.175,0.00012,0.0,0.0
3.695,8021.28,0.00012,0.0,0.0
3.701,8035.434,0.00012,0.0,0.0
3.707,8047.032,0.00012,0.0,0.0
3.714,8085.26,0.00012,0.0,0.0
3.72,8111.065,0.00012,0.0,0.0
3.726,8128.247,0.00012,0.0,0.0
3.732,8163.648,0.00012,0.0,0.0
3.739,8175.152,0.00012,0.0,0.0
3.745,8232.176,0.00012,0.0,0.0
3.751,8244.807,0.00012,0.0,0.0
3.758,8286.885,0.00012,0.0,0.0
3.764,8349.031,0.00012,0.0,0.0
3.77,8382.101,0.00012,0.0,0.0
3.777,8420.577,0.00012,0.0,0.0
3.783,8471.152,0.00012,0.0,0.0
3.789,8545.646,0.00012,0.0,0.0
3.796,8562.367,0.00012,0.0,0.0
3.802,8605.209,0.00012,0.0,0.0
3.808,8684.851,0.00012,0.0,0.0
3.815,8685.865,0.00012,0.0,0.0
3.821,8735.787,0.00011,0.0,0.0
3.827,8778.212,0.00011,0.0,0.0
3.834,8808.186,0.00011,0.0,0.0
3.84,8831.572,0.00011,0.0,0.0
3.846,8869.339,0.00011,0.0,0.0
3.853,8912.56,0.00011,0.0,0.0
3.859,8909.159,0.00011,0.0,0.0
3.865,8938.846,0.00011,0.0,0.0
3.872,8954.416,0.00011,0.0,0.0
3.878,8966.457,0.00011,0.0,0.0
3.884,8980.894,0.00011,0.0,0.0
3.89,8939.32,0.00011,0.0,0.0
3.897,8945.618,0.00011,0.0,0.0
3.903,8954.156,0.00011,0.0,0.0
3.909,8931.969,0.00011,0.0,0.0
3.916,8909.111,0.00011,0.0,0.0
3.922,8898.204,0.00011,0.0,0.0
3.928,8870.805,0.00011,0.0,0.0
3.935,8851.702,0.00011,0.0,0.0
3.941,8812.298,0.00011,0.0,0.0
3.947,8803.957,0.00011,0.0,0.0
3.954,8739.618,0.00011,0.0,0.0
3.96,8783.659,0.00011,0.0,0.0
3.966,8705.634,0.00011,0.0,0.0
3.973,8695.777,0.00011,0.0,0.0
3.979,8642.243,0.00012,0.0,0.0
3.985,8579.95,0.00012,0.0,0.0
3.992,8593.078,0.00012,0.0,0.0
3.998,8545.408,0.00012,0.0,0.0
4.004,8505.902,0.00012,0.0,0.0
4.011,8461.598,0.00012,0.0,0.0
4.017,8480.468,0.00012,0.0,0.0
4.023,8429.804,0.00012,0.0,0.0
4.03,8424.412,0.00012,0.0,0.0
4.036,8357.263,0.00012,0.0,0.0
4.042,8388.71,0.00012,0.0,0.0
4.048,8320.518,0.00012,0.0,0.0
4.055,8350.923,0.00012,0.0,0.0
4.061,8307.065,0.00012,0.0,0.0
4.067,8343.984,0.00012,0.0,0.0
4.074,8313.811,0.00012,0.0,0.0
4.08,8315.084,0.00012,0.0,0.0
4.086,8277.226,0.00012,0.0,0.0
4.093,8298.971,0.00012,0.0,0.0
4.099,8286.561,0.00012,0.0,0.0
4.105,8252.509,0.00012,0.0,0.0
4.112,8289.65,0.00012,0.0,0.0
4.118,8267.107,0.00012,0.0,0.0
4.124,8291.502,0.00012,0.0,0.0
4.131,8262.677,0.00012,0.0,0.0
4.137,8278.032,0.00012,0.0,0.0
4.143,8291.16,0.00012,0.0,0.0
4.15,8316.713,0.00012,0.0,0.0
4.156,8292.768,0.00012,0.0,0.0
4.162,8349.559,0.00012,0.0,0.0
4.169,8307.202,0.00012,0.0,0.0
4.175,8370.456,0.00012,0.0,0.0
4.181,8361.25,0.00012,0.0,0.0
4.188,8373.518,0.00012,0.0,0.0
4.194,8435.411,0.00012,0.0,0.0
4.2,8445.956,0.00012,0.0,0.0
4.206,8439.223,0.00012,0.0,0.0
4.213,8495.702,0.00012,0.0,0.0
4.219,8501.322,0.00012,0.0,0.0
4.225,8515.793,0.00012,0.0,0.0
4.232,8546.964,0.00012,0.0,0.0
4.238,8527.341,0.00012,0.0,0.0
4.244,8629.577,0.00012,0.0,0.0
4.251,8592.315,0.00012,0.0,0.0
4.257,8633.877,0.00012,0.0,0.0
4.263,8735.096,0.00011,0.0,0.0
4.27,8700.485,0.00011,0.0,0.0
4.276,8799.8,0.00011,0.0,0.0
4.282,8801.632,0.00011,0.0,0.0
4.289,8788.907,0.00011,0.0,0.0
4.295,8904.966,0.00011,0.0,0.0
4.301,8858.377,0.00011,0.0,0.0
4.308,8918.503,0.00011,0.0,0.0
4.314,9003.73,0.00011,0.0,0.0
4.32,8998.234,0.00011,0.0,0.0
4.327,9118.726,0.00011,0.0,0.0
4.333,9085.017,0.00011,0.0,0.0
4.339,9149.596,0.00011,0.0,0.0
4.346,9311.659,0.00011,0.0,0.0
4.352,9208.639,0.00011,0.0,0.0
4.358,9416.074,0.00011,0.0,0.0
4.364,9449.571,0.00011,0.0,0.0
4.371,9357.425,0.00011,0.0,0.0
4.377,9783.668,0.0001,0.0,0.0
4.383,9584.742,0.0001,0.0,0.0
4.39,9844.966,0.0001,0.0,0.0
4.396,9862.793,0.0001,0.0,0.0
4.402,9841.449,0.0001,0.0,0.0
4.409,9951.953,0.0001,0.0,0.0
4.415,10112.144,0.0001,0.0,0.0
4.421,10128.881,0.0001,0.0,0.0
4.428,10509.374,0.0001,0.0,0.0
4.434,10450.722,0.0001,0.0,0.0
4.44,10509.451,0.0001,0.0,0.0
4.447,10961.441,0.00009,0.0,0.0
4.453,10738.106,0.00009,0.0,0.0
4.459,11382.319,0.00009,0.0,0.0
4.466,11616.026,0.00009,0.0,0.0
4.472,11543.185,0.00009,0.0,0.0
4.478,12596.201,0.00008,0.0,0.0
4.485,12450.977,0.00008,0.0,0.0
4.491,13122.542,0.00008,0.0,0.0
4.497,15564.632,0.00006,0.0,0.0
4.504,14613.267,0.00007,0.0,0.0
4.51,20654.032,0.00005,0.0,0.0
4.516,20294.433,0.00005,0.0,0.0
4.522,25525.259,0.00004,0.0,0.0
4.529,43075.288,0.00002,0.0,0.0
4.535,43384.676,0.00002,0.0,0.0
4.541,64808.755,0.00002,0.0,0.0
4.548,92355.007,0.00001,0.0,0.0
4.554,74733.898,0.00001,0.0,0.0
4.56,109357.24,0.00001,0.0,0.0
4.567,85019.193,0.00001,0.0,0.0
4.573,82371.685,0.00001,0.0,0.0
4.579,77382.927,0.00001,0.0,0.0
4.586,51816.975,0.00002,0.0,0.0
4.592,42405.179,0.00002,0.0,0.0
4.598,31394.727,0.00003,0.0,0.0
4.605,28111.126,0.00004,0.0,0.0
4.611,19758.635,0.00005,0.0,0.0
4.617,21434.671,0.00005,0.0,0.0
4.624,14983.646,0.00007,0.0,0.0
4.63,15465.846,0.00006,0.0,0.0
4.636,13368.762,0.00007,0.0,0.0
4.643,13104.378,0.00008,0.0,0.0
4.649,12465.699,0.00008,0.0,0.0
4.655,11713.064,0.00009,0.0,0.0
4.662,11864.115,0.00008,0.0,0.0
4.668,11271.711,0.00009,0.0,0.0
4.674,10889.026,0.00009,0.0,0.0
4.68,11062.624,0.00009,0.0,0.0
4.687,10551.016,0.00009,0.0,0.0
4.693,10545.33,0.00009,0.0,0.0
4.699,10486.906,0.0001,0.0,0.0
4.706,10056.458,0.0001,0.0,0.0
4.712,10370.439,0.0001,0.0,0.0
4.718,9950.929,0.0001,0.0,0.0
4.725,9759.021,0.0001,0.0,0.0
4.731,10074.873,0.0001,0.0,0.0
4.737,9580.689,0.0001,0.0,0.0
4.744,9698.042,0.0001,0.0,0.0
4.75,9554.018,0.0001,0.0,0.0
4.756,9440.388,0.00011,0.0,0.0
4.763,9393.013,0.00011,0.0,0.0
4.769,9259.178,0.00011,0.0,0.0
4.775,9186.198,0.00011,0.0,0.0
4.782,9189.284,0.00011,0.0,0.0
4.788,9007.891,0.00011,0.0,0.0
4.794,8927.538,0.00011,0.0,0.0
4.801,8972.128,0.00011,0.0,0.0
4.807,8756.382,0.00011,0.0,0.0
4.813,8829.931,0.00011,0.0,0.0
4.82,8713.261,0.00011,0.0,0.0
4.826,8720.046,0.00011,0.0,0.0
4.832,8721.187,0.00011,0.0,0.0
4.838,8682.453,0.00012,0.0,0.0
4.845,8692.834,0.00012,0.0,0.0
4.851,8822.386,0.00011,0.0,0.0
4.857,8825.51,0.00011,0.0,0.0
4.864,8819.239,0.00011,0.0,0.0
4.87,8708.501,0.00011,0.0,0.0
4.876,8529.583,0.00012,0.0,0.0
4.883,8461.213,0.00012,0.0,0.0
4.889,8239.855,0.00012,0.0,0.0
4.895,8180.353,0.00012,0.0,0.0
4.902,8121.091,0.00012,0.0,0.0
4.908,8014.895,0.00012,0.0,0.0
4.914,8009.713,0.00012,0.0,0.0
4.921,7897.275,0.00013,0.0,0.0
4.927,7889.354,0.00013,0.0,0.0
4.933,7967.174,0.00013,0.0,0.0
4.94,7768.55,0.00013,0.0,0.0
4.946,7927.989,0.00013,0.0,0.0
4.952,7829.231,0.00013,0.0,0.0
4.959,7657.135,0.00013,0.0,0.0
4.965,7836.522,0.00013,0.0,0.0
4.971,7586.084,0.00013,0.0,0.0
4.978,7562.728,0.00013,0.0,0.0
4.984,7585.221,0.00013,0.0,0.0
4.99,7471.624,0.00013,0.0,0.0
4.996,7477.095,0.00013,0.0,0.0
5.003,7429.109,0.00013,0.0,0.0
5.009,7394.408,0.00014,0.0,0.0
5.015,7412.956,0.00013,0.0,0.0
5.022,7312.808,0.00014,0.0,0.0
5.028,7354.292,0.00014,0.0,0.0
5.034,7298.843,0.00014,0.0,0.0
5.041,7244.112,0.00014,0.0,0.0
5.047,7227.731,0.00014,0.0,0.0
5.053,7230.283,0.00014,0.0,0.0
5.06,7160.705,0.00014,0.0,0.0
5.066,7170.807,0.00014,0.0,0.0
5.072,7090.733,0.00014,0.0,0.0
5.079,7055.665,0.00014,0.0,0.0
5.085,7087.986,0.00014,0.0,0.0
5.091,7004.094,0.00014,0.0,0.0
5.098,7042.886,0.00014,0.0,0.0
5.104,6974.628,0.00014,0.0,0.0
5.11,6980.94,0.00014,0.0,0.0
5.117,6958.484,0.00014,0.0,0.0
5.123,6931.313,0.00014,0.0,0.0
5.129,6876.077,0.00015,0.0,0.0
5.136,6893.346,0.00015,0.0,0.0
5.142,6858.342,0.00015,0.0,0.0
5.148,6834.297,0.00015,0.0,0.0
5.154,6830.234,0.00015,0.0,0.0
5.161,6776.827,0.00015,0.0,0.0
5.167,6800.211,0.00015,0.0,0.0
5.173,6745.728,0.00015,0.0,0.0
5.18,6728.208,0.00015,0.0,0.0
5.186,6733.873,0.00015,0.0,0.0
5.192,6691.418,0.00015,0.0,0.0
5.199,6678.862,0.00015,0.0,0.0
5.205,6673.443,0.00015,0.0,0.0
5.211,6648.838,0.00015,0.0,0.0
5.218,6626.314,0.00015,0.0,0.0
5.224,6600.601,0.00015,0.0,0.0
5.23,6595.731,0.00015,0.0,0.0
5.237,6593.93,0.00015,0.0,0.0
5.243,6560.366,0.00015,0.0,0.0
5.249,6574.739,0.00015,0.0,0.0
5.256,6521.389,0.00015,0.0,0.0
5.262,6522.245,0.00015,0.0,0.0
5.268,6512.088,0.00015,0.0,0.0
5.275,6459.602,0.00015,0.0,0.0
5.281,6442.583,0.00016,0.0,0.0
5.287,6450.415,0.00016,0.0,0.0
5.294,6429.652,0.00016,0.0,0.0
5.3,6435.297,0.00016,0.0,0.0
5.306,6405.322,0.00016,0.0,0.0
5.312,6381.441,0.00016,0.0,0.0
5.319,6397.433,0.00016,0.0,0.0
5.325,6353.414,0.00016,0.0,0.0
5.331,6353.419,0.00016,0.0,0.0
5.338,6367.27,0.00016,0.0,0.0
5.344,6340.521,0.00016,0.0,0.0
5.35,6328.856,0.00016,0.0,0.0
5.357,6308.121,0.00016,0.0,0.0
5.363,6271.897,0.00016,0.0,0.0
5.369,6303.322,0.00016,0.0,0.0
5.376,6272.475,0.00016,0.0,0.0
5.382,6259.255,0.00016,0.0,0.0
5.388,6272.027,0.00016,0.0,0.0
5.395,6255.388,0.00016,0.0,0.0
5.401,6238.297,0.00016,0.0,0.0
5.407,6246.555,0.00016,0.0,0.0
5.414,6217.66,0.00016,0.0,0.0
5.42,6206.4,0.00016,0.0,0.0
5.426,6194.896,0.00016,0.0,0.0
5.433,6175.055,0.00016,0.0,0.0
5.439,6208.822,0.00016,0.0,0.0
5.445,6175.84,0.00016,0.0,0.0
5.452,6187.565,0.00016,0.0,0.0
5.458,6146.431,0.00016,0.0,0.0
5.464,6167.254,0.00016,0.0,0.0
5.47,6171.369,0.00016,0.0,0.0
5.477,6141.793,0.00016,0.0,0.0
5.483,6125.421,0.00016,0.0,0.0
5.489,6136.258,0.00016,0.0,0.0
5.496,6119.335,0.00016,0.0,0.0
5.502,6111.707,0.00016,0.0,0.0
5.508,6102.394,0.00016,0.0,0.0
5.515,6103.54,0.00016,0.0,0.0
5.521,6098.15,0.00016,0.0,0.0
5.527,6090.835,0.00016,0.0,0.0
5.534,6125.203,0.00016,0.0,0.0
5.54,6112.905,0.00016,0.0,0.0
5.546,6084.395,0.00016,0.0,0.0
5.553,6065.313,0.00016,0.0,0.0
5.559,6066.469,0.00016,0.0,0.0
5.565,6068.118,0.00016,0.0,0.0
5.572,6077.274,0.00016,0.0,0.0
5.578,6049.994,0.00017,0.0,0.0
5.584,6057.836,0.00017,0.0,0.0
5.591,6062.574,0.00016,0.0,0.0
5.597,6052.228,0.00017,0.0,0.0
5.603,6054.727,0.00017,0.0,0.0
5.61,6068.418,0.00016,0.0,0.0
5.616,6069.605,0.00016,0.0,0.0
5.622,6070.32,0.00016,0.0,0.0
5.628,6058.598,0.00017,0.0,0.0
5.635,6082.826,0.00016,0.0,0.0
5.641,6052.009,0.00017,0.0,0.0
5.647,6065.822,0.00016,0.0,0.0
5.654,6077.125,0.00016,0.0,0.0
5.66,6045.91,0.00017,0.0,0.0
5.666,6054.559,0.00017,0.0,0.0
5.673,6058.866,0.00017,0.0,0.0
5.679,6054.485,0.00017,0.0,0.0
5.685,6077.858,0.00016,0.0,0.0
5.692,6087.64,0.00016,0.0,0.0
5.698,6075.603,0.00016,0.0,0.0
5.704,6089.589,0.00016,0.0,0.0
5.711,6060.837,0.00016,0.0,0.0
5.717,6073.462,0.00016,0.0,0.0
5.723,6106.718,0.00016,0.0,0.0
5.73,6070.315,0.00016,0.0,0.0
5.736,6116.34,0.00016,0.0,0.0
5.742,6106.929,0.00016,0.0,0.0
5.749,6141.937,0.00016,0.0,0.0
5.755,6142.057,0.00016,0.0,0.0
5.761,6141.367,0.00016,0.0,0.0
5.768,6168.114,0.00016,0.0,0.0
5.774,6166.519,0.00016,0.0,0.0
5.78,6186.702,0.00016,0.0,0.0
5.786,6229.31,0.00016,0.0,0.0
5.793,6227.097,0.00016,0.0,0.0
5.799,6235.347,0.00016,0.0,0.0
5.805,6275.088,0.00016,0.0,0.0
5.812,6238.212,0.00016,0.0,0.0
5.818,6291.436,0.00016,0.0,0.0
5.824,6305.283,0.00016,0.0,0.0
5.831,6352.565,0.00016,0.0,0.0
5.837,6384.771,0.00016,0.0,0.0
5.843,6442.856,0.00016,0.0,0.0
5.85,6562.852,0.00015,0.0,0.0
5.856,6708.458,0.00015,0.0,0.0
5.862,6943.231,0.00014,0.0,0.0
5.869,7236.382,0.00014,0.0,0.0
5.875,7531.677,0.00013,0.0,0.0
5.881,7699.282,0.00013,0.0,0.0
5.888,7708.323,0.00013,0.0,0.0
5.894,7493.718,0.00013,0.0,0.0
5.9,7240.981,0.00014,0.0,0.0
5.907,6877.239,0.00015,0.0,0.0
5.913,6624.831,0.00015,0.0,0.0
5.919,6387.385,0.00016,0.0,0.0
5.926,6232.754,0.00016,0.0,0.0
5.932,6154.445,0.00016,0.0,0.0
5.938,6107.454,0.00016,0.0,0.0
5.944,6027.393,0.00017,0.0,0.0
5.951,6042.488,0.00017,0.0,0.0
5.957,5983.971,0.00017,0.0,0.0
5.963,5964.019,0.00017,0.0,0.0
5.97,5963.052,0.00017,0.0,0.0
5.976,5936.09,0.00017,0.0,0.0
5.982,5942.782,0.00017,0.0,0.0
5.989,5911.115,0.00017,0.0,0.0
5.995,5917.276,0.00017,0.0,0.0
6.001,5878.935,0.00017,0.0,0.0
6.008,5891.241,0.00017,0.0,0.0
6.014,5875.077,0.00017,0.0,0.0
6.02,5902.636,0.00017,0.0,0.0
6.027,5867.364,0.00017,0.0,0.0
6.033,5893.386,0.00017,0.0,0.0
6.039,5877.471,0.00017,0.0,0.0
6.046,5835.35,0.00017,0.0,0.0
6.052,5870.169,0.00017,0.0,0.0
6.058,5841.053,0.00017,0.0,0.0
6.065,5829.806,0.00017,0.0,0.0
6.071,5865.335,0.00017,0.0,0.0
6.077,5833.911,0.00017,0.0,0.0
6.084,5824.012,0.00017,0.0,0.0
6.09,5838.149,0.00017,0.0,0.0
6.096,5784.3,0.00017,0.0,0.0
6.102,5828.443,0.00017,0.0,0.0
6.109,5809.594,0.00017,0.0,0.0
6.115,5823.863,0.00017,0.0,0.0
6.121,5811.642,0.00017,0.0,0.0
6.128,5800.474,0.00017,0.0,0.0
6.134,5813.501,0.00017,0.0,0.0
6.14,5811.416,0.00017,0.0,0.0
6.147,5827.383,0.00017,0.0,0.0
6.153,5803.093,0.00017,0.0,0.0
6.159,5839.958,0.00017,0.0,0.0
6.166,5782.269,0.00017,0.0,0.0
6.172,5810.444,0.00017,0.0,0.0
6.178,5826.565,0.00017,0.0,0.0
6.185,5818.327,0.00017,0.0,0.0
6.191,5807.596,0.00017,0.0,0.0
6.197,5833.134,0.00017,0.0,0.0
6.204,5803.226,0.00017,0.0,0.0
6.21,5851.982,0.00017,0.0,0.0
6.216,5821.134,0.00017,0.0,0.0
6.223,5856.198,0.00017,0.0,0.0
6.229,5854.374,0.00017,0.0,0.0
6.235,5860.867,0.00017,0.0,0.0
6.242,5869.444,0.00017,0.0,0.0
6.248,5857.59,0.00017,0.0,0.0
6.254,5866.482,0.00017,0.0,0.0
6.26,5852.195,0.00017,0.0,0.0
6.267,5898.615,0.00017,0.0,0.0
6.273,5877.635,0.00017,0.0,0.0
6.279,5902.939,0.00017,0.0,0.0
6.286,5899.563,0.00017,0.0,0.0
6.292,5924.225,0.00017,0.0,0.0
6.298,5913.692,0.00017,0.0,0.0
6.305,5948.538,0.00017,0.0,0.0
6.311,5957.862,0.00017,0.0,0.0
6.317,5927.612,0.00017,0.0,0.0
6.324,5999.008,0.00017,0.0,0.0
6.33,5987.415,0.00017,0.0,0.0
6.336,5989.562,0.00017,0.0,0.0
6.343,6020.064,0.00017,0.0,0.0
6.349,6052.017,0.00017,0.0,0.0
6.355,6034.726,0.00017,0.0,0.0
6.362,6087.112,0.00016,0.0,0.0
6.368,6123.899,0.00016,0.0,0.0
6.374,6130.088,0.00016,0.0,0.0
6.381,6182.133,0.00016,0.0,0.0
6.387,6285.136,0.00016,0.0,0.0
6.393,6260.372,0.00016,0.0,0.0
6.4,6448.983,0.00016,0.0,0.0
6.406,6616.946,0.00015,0.0,0.0
6.412,6911.765,0.00014,0.0,0.0
6.418,7424.904,0.00013,0.0,0.0
6.425,8777.683,0.00011,0.0,0.0
6.431,10932.157,0.00009,0.0,0.0
6.437,13323.438,0.00008,0.0,0.0
6.444,14784.011,0.00007,0.0,0.0
6.45,18989.86,0.00005,0.0,0.0
6.456,18936.514,0.00005,0.0,0.0
6.463,19032.147,0.00005,0.0,0.0
6.469,21300.087,0.00005,0.0,0.0
6.475,14983.149,0.00007,0.0,0.0
6.482,10879.013,0.00009,0.0,0.0
6.488,11424.003,0.00009,0.0,0.0
6.494,7399.589,0.00014,0.0,0.0
6.501,7440.593,0.00013,0.0,0.0
6.507,6951.658,0.00014,0.0,0.0
6.513,6659.712,0.00015,0.0,0.0
6.52,6635.722,0.00015,0.0,0.0
6.526,6599.017,0.00015,0.0,0.0
6.532,6609.045,0.00015,0.0,0.0
6.539,6721.891,0.00015,0.0,0.0
6.545,6827.519,0.00015,0.0,0.0
6.551,7025.681,0.00014,0.0,0.0
6.558,7414.093,0.00013,0.0,0.0
6.564,8089.348,0.00012,0.0,0.0
6.57,8864.623,0.00011,0.0,0.0
6.576,10947.763,0.00009,0.0,0.0
6.583,14006.508,0.00007,0.0,0.0
6.589,20875.272,0.00005,0.0,0.0
6.595,36159.295,0.00003,0.0,0.0
6.602,48692.071,0.00002,0.0,0.0
6.608,81832.471,0.00001,0.0,0.0
6.614,95757.674,0.00001,0.0,0.0
6.621,102629.483,0.00001,0.0,0.0
6.627,96642.325,0.00001,0.0,0.0
6.633,76429.575,0.00001,0.0,0.0
6.64,50670.528,0.00002,0.0,0.0
6.646,32634.455,0.00003,0.0,0.0
6.652,20323.34,0.00005,0.0,0.0
6.659,14537.905,0.00007,0.0,0.0
6.665,10553.476,0.00009,0.0,0.0
6.671,9042.956,0.00011,0.0,0.0
6.678,7846.343,0.00013,0.0,0.0
6.684,7246.291,0.00014,0.0,0.0
6.69,6832.046,0.00015,0.0,0.0
6.697,6569.372,0.00015,0.0,0.0
6.703,6395.71,0.00016,0.0,0.0
6.709,6248.051,0.00016,0.0,0.0
6.716,6174.874,0.00016,0.0,0.0
6.722,6065.998,0.00016,0.0,0.0
6.728,6015.267,0.00017,0.0,0.0
6.734,5971.889,0.00017,0.0,0.0
6.741,5939.471,0.00017,0.0,0.0
6.747,5898.754,0.00017,0.0,0.0
6.753,5891.935,0.00017,0.0,0.0
6.76,5866.392,0.00017,0.0,0.0
6.766,5848.558,0.00017,0.0,0.0
6.772,5831.057,0.00017,0.0,0.0
6.779,5847.32,0.00017,0.0,0.0
6.785,5844.542,0.00017,0.0,0.0
6.791,5785.005,0.00017,0.0,0.0
6.798,5845.42,0.00017,0.0,0.0
6.804,5828.962,0.00017,0.0,0.0
6.81,5853.616,0.00017,0.0,0.0
6.817,5832.107,0.00017,0.0,0.0
6.823,5829.333,0.00017,0.0,0.0
6.829,5799.234,0.00017,0.0,0.0
6.836,5824.41,0.00017,0.0,0.0
6.842,5754.875,0.00017,0.0,0.0
6.848,5753.878,0.00017,0.0,0.0
6.855,5706.23,0.00018,0.0,0.0
6.861,5708.109,0.00018,0.0,0.0
6.867,5731.227,0.00017,0.0,0.0
6.874,5684.353,0.00018,0.0,0.0
6.88,5689.879,0.00018,0.0,0.0
6.886,5671.19,0.00018,0.0,0.0
6.892,5665.686,0.00018,0.0,0.0
6.899,5676.487,0.00018,0.0,0.0
6.905,5662.389,0.00018,0.0,0.0
6.911,5655.517,0.00018,0.0,0.0
6.918,5663.866,0.00018,0.0,0.0
6.924,5637.603,0.00018,0.0,0.0
6.93,5663.23,0.00018,0.0,0.0
6.937,5673.158,0.00018,0.0,0.0
6.943,5668.203,0.00018,0.0,0.0
6.949,5653.391,0.00018,0.0,0.0
6.956,5650.096,0.00018,0.0,0.0
6.962,5682.745,0.00018,0.0,0.0
6.968,5681.076,0.00018,0.0,0.0
6.975,5673.528,0.00018,0.0,0.0
6.981,5683.847,0.00018,0.0,0.0
6.987,5692.6,0.00018,0.0,0.0
6.994,5693.86,0.00018,0.0,0.0
7.0,5724.632,0.00017,0.0,0.0
7.006,5694.253,0.00018,0.0,0.0
7.013,5712.61,0.00018,0.0,0.0
7.019,5720.027,0.00017,0.0,0.0
7.025,5726.328,0.00017,0.0,0.0
7.032,5718.053,0.00017,0.0,0.0
7.038,5737.678,0.00017,0.0,0.0
7.044,5739.323,0.00017,0.0,0.0
7.05,5736.169,0.00017,0.0,0.0
7.057,5769.954,0.00017,0.0,0.0
7.063,5782.907,0.00017,0.0,0.0
7.069,5792.378,0.00017,0.0,0.0
7.076,5785.497,0.00017,0.0,0.0
7.082,5821.413,0.00017,0.0,0.0
7.088,5810.825,0.00017,0.0,0.0
7.095,5826.108,0.00017,0.0,0.0
7.101,5833.949,0.00017,0.0,0.0
7.107,5814.224,0.00017,0.0,0.0
7.114,5845.773,0.00017,0.0,0.0
7.12,5833.136,0.00017,0.0,0.0
7.126,5831.071,0.00017,0.0,0.0
7.133,5832.846,0.00017,0.0,0.0
7.139,5828.44,0.00017,0.0,0.0
7.145,5844.336,0.00017,0.0,0.0
7.152,5842.565,0.00017,0.0,0.0
7.158,5831.046,0.00017,0.0,0.0
7.164,5843.316,0.00017,0.0,0.0
7.171,5830.883,0.00017,0.0,0.0
7.177,5847.936,0.00017,0.0,0.0
7.183,5822.679,0.00017,0.0,0.0
7.19,5825.556,0.00017,0.0,0.0
7.196,5821.016,0.00017,0.0,0.0
7.202,5827.066,0.00017,0.0,0.0
7.208,5797.463,0.00017,0.0,0.0
7.215,5795.612,0.00017,0.0,0.0
7.221,5789.82,0.00017,0.0,0.0
7.227,5809.409,0.00017,0.0,0.0
7.234,5772.615,0.00017,0.0,0.0
7.24,5753.057,0.00017,0.0,0.0
7.246,5762.383,0.00017,0.0,0.0
7.253,5748.728,0.00017,0.0,0.0
7.259,5736.804,0.00017,0.0,0.0
7.265,5739.135,0.00017,0.0,0.0
7.272,5729.626,0.00017,0.0,0.0
7.278,5757.09,0.00017,0.0,0.0
7.284,5747.3,0.00017,0.0,0.0
7.291,5763.514,0.00017,0.0,0.0
7.297,5768.494,0.00017,0.0,0.0
7.303,5758.441,0.00017,0.0,0.0
7.31,5729.119,0.00017,0.0,0.0
7.316,5705.443,0.00018,0.0,0.0
7.322,5678.312,0.00018,0.0,0.0
7.329,5656.952,0.00018,0.0,0.0
7.335,5636.277,0.00018,0.0,0.0
7.341,5616.082,0.00018,0.0,0.0
7.348,5611.761,0.00018,0.0,0.0
7.354,5583.064,0.00018,0.0,0.0
7.36,5586.927,0.00018,0.0,0.0
7.366,5578.298,0.00018,0.0,0.0
7.373,5568.261,0.00018,0.0,0.0
7.379,5552.506,0.00018,0.0,0.0
7.385,5565.0,0.00018,0.0,0.0
7.392,5551.22,0.00018,0.0,0.0
7.398,5542.065,0.00018,0.0,0.0
7.404,5554.373,0.00018,0.0,0.0
7.411,5550.156,0.00018,0.0,0.0
7.417,5559.522,0.00018,0.0,0.0
7.423,5545.811,0.00018,0.0,0.0
7.43,5547.119,0.00018,0.0,0.0
7.436,5562.59,0.00018,0.0,0.0
7.442,5546.154,0.00018,0.0,0.0
7.449,5575.997,0.00018,0.0,0.0
7.455,5556.309,0.00018,0.0,0.0
7.461,5571.656,0.00018,0.0,0.0
7.468,5592.266,0.00018,0.0,0.0
7.474,5569.666,0.00018,0.0,0.0
7.48,5608.85,0.00018,0.0,0.0
7.487,5620.791,0.00018,0.0,0.0
7.493,5604.946,0.00018,0.0,0.0
7.499,5617.042,0.00018,0.0,0.0
7.506,5613.29,0.00018,0.0,0.0
7.512,5626.996,0.00018,0.0,0.0
7.518,5657.923,0.00018,0.0,0.0
7.524,5687.109,0.00018,0.0,0.0
7.531,5694.477,0.00018,0.0,0.0
7.537,5730.267,0.00017,0.0,0.0
7.543,5754.899,0.00017,0.0,0.0
7.55,5820.429,0.00017,0.0,0.0
7.556,5832.936,0.00017,0.0,0.0
7.562,5942.461,0.00017,0.0,0.0
7.569,6044.444,0.00017,0.0,0.0
7.575,6168.105,0.00016,0.0,0.0
7.581,6414.509,0.00016,0.0,0.0
7.588,6677.202,0.00015,0.0,0.0
7.594,7098.448,0.00014,0.0,0.0
7.6,8117.623,0.00012,0.0,0.0
7.607,9365.921,0.00011,0.0,0.0
7.613,12583.944,0.00008,0.0,0.0
7.619,17035.419,0.00006,0.0,0.0
7.626,24104.006,0.00004,0.0,0.0
7.632,37942.879,0.00003,0.0,0.0
7.638,42521.316,0.00002,0.0,0.0
7.645,51356.007,0.00002,0.0,0.0
7.651,52519.945,0.00002,0.0,0.0
7.657,45198.44,0.00002,0.0,0.0
7.664,33934.194,0.00003,0.0,0.0
7.67,22972.333,0.00004,0.0,0.0
7.676,15810.113,0.00006,0.0,0.0
7.682,11602.207,0.00009,0.0,0.0
7.689,9293.104,0.00011,0.0,0.0
7.695,7901.688,0.00013,0.0,0.0
7.701,7254.189,0.00014,0.0,0.0
7.708,6739.496,0.00015,0.0,0.0
7.714,6531.55,0.00015,0.0,0.0
7.72,6346.287,0.00016,0.0,0.0
7.727,6246.047,0.00016,0.0,0.0
7.733,6210.477,0.00016,0.0,0.0
7.739,6119.711,0.00016,0.0,0.0
7.746,6137.289,0.00016,0.0,0.0
7.752,6112.829,0.00016,0.0,0.0
7.758,6087.3,0.00016,0.0,0.0
7.765,6101.925,0.00016,0.0,0.0
7.771,6123.685,0.00016,0.0,0.0
7.777,6123.576,0.00016,0.0,0.0
7.784,6148.865,0.00016,0.0,0.0
7.79,6133.683,0.00016,0.0,0.0
7.796,6174.093,0.00016,0.0,0.0
7.803,6207.214,0.00016,0.0,0.0
7.809,6238.204,0.00016,0.0,0.0
7.815,6270.95,0.00016,0.0,0.0
7.822,6287.204,0.00016,0.0,0.0
7.828,6369.995,0.00016,0.0,0.0
7.834,6399.127,0.00016,0.0,0.0
7.84,6433.495,0.00016,0.0,0.0
7.847,6561.07,0.00015,0.0,0.0
7.853,6643.618,0.00015,0.0,0.0
7.859,6831.073,0.00015,0.0,0.0
7.866,7038.724,0.00014,0.0,0.0
7.872,7398.861,0.00014,0.0,0.0
7.878,8296.87,0.00012,0.0,0.0
7.885,9725.036,0.0001,0.0,0.0
7.891,12618.509,0.00008,0.0,0.0
7.897,17132.664,0.00006,0.0,0.0
7.904,17834.688,0.00006,0.0,0.0
7.91,20330.624,0.00005,0.0,0.0
7.916,18993.167,0.00005,0.0,0.0
7.923,17512.061,0.00006,0.0,0.0
7.929,12881.414,0.00008,0.0,0.0
7.935,9817.765,0.0001,0.0,0.0
7.942,8642.363,0.00012,0.0,0.0
7.948,7767.574,0.00013,0.0,0.0
7.954,7238.077,0.00014,0.0,0.0
7.961,7040.497,0.00014,0.0,0.0
7.967,6862.14,0.00015,0.0,0.0
7.973,6716.047,0.00015,0.0,0.0
7.98,6697.255,0.00015,0.0,0.0
7.986,6603.18,0.00015,0.0,0.0
7.992,6584.361,0.00015,0.0,0.0
7.998,6581.025,0.00015,0.0,0.0
8.005,6530.728,0.00015,0.0,0.0
8.011,6500.209,0.00015,0.0,0.0
8.017,6527.341,0.00015,0.0,0.0
8.024,6501.421,0.00015,0.0,0.0
8.03,6513.713,0.00015,0.0,0.0
8.036,6501.651,0.00015,0.0,0.0
8.043,6502.537,0.00015,0.0,0.0
8.049,6507.358,0.00015,0.0,0.0
8.055,6466.667,0.00015,0.0,0.0
8.062,6521.319,0.00015,0.0,0.0
8.068,6505.585,0.00015,0.0,0.0
8.074,6514.885,0.00015,0.0,0.0
8.081,6511.721,0.00015,0.0,0.0
8.087,6534.886,0.00015,0.0,0.0
8.093,6539.535,0.00015,0.0,0.0
8.1,6551.672,0.00015,0.0,0.0
8.106,6551.338,0.00015,0.0,0.0
8.112,6585.648,0.00015,0.0,0.0
8.119,6631.039,0.00015,0.0,0.0
8.125,6661.147,0.00015,0.0,0.0
8.131,6738.243,0.00015,0.0,0.0
8.138,6762.111,0.00015,0.0,0.0
8.144,6824.723,0.00015,0.0,0.0
8.15,6836.255,0.00015,0.0,0.0
8.156,6779.501,0.00015,0.0,0.0
8.163,6725.119,0.00015,0.0,0.0
8.169,6654.958,0.00015,0.0,0.0
8.175,6587.513,0.00015,0.0,0.0
8.182,6538.847,0.00015,0.0,0.0
8.188,6500.092,0.00015,0.0,0.0
8.194,6475.902,0.00015,0.0,0.0
8.201,6451.045,0.00016,0.0,0.0
8.207,6432.791,0.00016,0.0,0.0
8.213,6416.274,0.00016,0.0,0.0
8.22,6373.053,0.00016,0.0,0.0
8.226,6384.68,0.00016,0.0,0.0
8.232,6358.765,0.00016,0.0,0.0
8.239,6348.725,0.00016,0.0,0.0
8.245,6357.547,0.00016,0.0,0.0
8.251,6302.343,0.00016,0.0,0.0
8.258,6304.867,0.00016,0.0,0.0
8.264,6268.577,0.00016,0.0,0.0
8.27,6254.838,0.00016,0.0,0.0
8.277,6252.375,0.00016,0.0,0.0
8.283,6241.402,0.00016,0.0,0.0
8.289,6210.438,0.00016,0.0,0.0
8.296,6207.543,0.00016,0.0,0.0
8.302,6187.425,0.00016,0.0,0.0
8.308,6200.41,0.00016,0.0,0.0
8.314,6185.167,0.00016,0.0,0.0
8.321,6178.655,0.00016,0.0,0.0
8.327,6170.061,0.00016,0.0,0.0
8.333,6173.599,0.00016,0.0,0.0
8.34,6195.305,0.00016,0.0,0.0
8.346,6194.544,0.00016,0.0,0.0
8.352,6212.817,0.00016,0.0,0.0
8.359,6267.954,0.00016,0.0,0.0
8.365,6296.443,0.00016,0.0,0.0
8.371,6312.798,0.00016,0.0,0.0
8.378,6344.541,0.00016,0.0,0.0
8.384,6318.877,0.00016,0.0,0.0
8.39,6299.718,0.00016,0.0,0.0
8.397,6272.372,0.00016,0.0,0.0
8.403,6208.333,0.00016,0.0,0.0
8.409,6153.824,0.00016,0.0,0.0
8.416,6120.316,0.00016,0.0,0.0
8.422,6077.953,0.00016,0.0,0.0
8.428,6054.378,0.00017,0.0,0.0
8.435,6033.47,0.00017,0.0,0.0
8.441,6028.275,0.00017,0.0,0.0
8.447,6008.681,0.00017,0.0,0.0
8.454,6011.811,0.00017,0.0,0.0
8.46,5988.997,0.00017,0.0,0.0
8.466,5967.586,0.00017,0.0,0.0
8.472,5977.765,0.00017,0.0,0.0
8.479,5962.807,0.00017,0.0,0.0
8.485,5971.069,0.00017,0.0,0.0
8.491,5986.079,0.00017,0.0,0.0
8.498,6000.465,0.00017,0.0,0.0
8.504,5982.972,0.00017,0.0,0.0
8.51,5982.388,0.00017,0.0,0.0
8.517,5963.621,0.00017,0.0,0.0
8.523,5948.185,0.00017,0.0,0.0
8.529,5945.525,0.00017,0.0,0.0
8.536,5921.285,0.00017,0.0,0.0
8.542,5936.221,0.00017,0.0,0.0
8.548,5919.231,0.00017,0.0,0.0
8.555,5910.158,0.00017,0.0,0.0
8.561,5919.239,0.00017,0.0,0.0
8.567,5921.416,0.00017,0.0,0.0
8.574,5907.157,0.00017,0.0,0.0
8.58,5892.08,0.00017,0.0,0.0
8.586,5894.72,0.00017,0.0,0.0
8.593,5881.34,0.00017,0.0,0.0
8.599,5890.459,0.00017,0.0,0.0
8.605,5887.681,0.00017,0.0,0.0
8.612,5889.131,0.00017,0.0,0.0
8.618,5880.416,0.00017,0.0,0.0
8.624,5866.806,0.00017,0.0,0.0
8.63,5876.65,0.00017,0.0,0.0
8.637,5874.874,0.00017,0.0,0.0
8.643,5871.11,0.00017,0.0,0.0
8.649,5851.029,0.00017,0.0,0.0
8.656,5845.108,0.00017,0.0,0.0
8.662,5844.642,0.00017,0.0,0.0
8.668,5850.742,0.00017,0.0,0.0
8.675,5870.282,0.00017,0.0,0.0
8.681,5864.1,0.00017,0.0,0.0
8.687,5849.461,0.00017,0.0,0.0
8.694,5854.937,0.00017,0.0,0.0
8.7,5842.756,0.00017,0.0,0.0
8.706,5840.887,0.00017,0.0,0.0
8.713,5852.229,0.00017,0.0,0.0
8.719,5857.721,0.00017,0.0,0.0
8.725,5861.0,0.00017,0.0,0.0
8.732,5853.996,0.00017,0.0,0.0
8.738,5851.285,0.00017,0.0,0.0
8.744,5848.991,0.00017,0.0,0.0
8.751,5844.987,0.00017,0.0,0.0
8.757,5857.533,0.00017,0.0,0.0
8.763,5852.982,0.00017,0.0,0.0
8.77,5856.236,0.00017,0.0,0.0
8.776,5849.753,0.00017,0.0,0.0
8.782,5841.947,0.00017,0.0,0.0
8.788,5846.203,0.00017,0.0,0.0
8.795,5845.408,0.00017,0.0,0.0
8.801,5837.368,0.00017,0.0,0.0
8.807,5860.005,0.00017,0.0,0.0
8.814,5845.07,0.00017,0.0,0.0
8.82,5851.307,0.00017,0.0,0.0
8.826,5850.234,0.00017,0.0,0.0
8.833,5848.617,0.00017,0.0,0.0
8.839,5860.489,0.00017,0.0,0.0
8.845,5846.461,0.00017,0.0,0.0
8.852,5842.683,0.00017,0.0,0.0
8.858,5861.808,0.00017,0.0,0.0
8.864,5854.227,0.00017,0.0,0.0
8.871,5868.058,0.00017,0.0,0.0
8.877,5851.325,0.00017,0.0,0.0
8.883,5857.393,0.00017,0.0,0.0
8.89,5857.57,0.00017,0.0,0.0
8.896,5870.344,0.00017,0.0,0.0
8.902,5879.529,0.00017,0.0,0.0
8.909,5873.273,0.00017,0.0,0.0
8.915,5863.398,0.00017,0.0,0.0
8.921,5875.257,0.00017,0.0,0.0
8.928,5878.819,0.00017,0.0,0.0
8.934,5857.004,0.00017,0.0,0.0
8.94,5894.95,0.00017,0.0,0.0
8.946,5871.352,0.00017,0.0,0.0
8.953,5879.326,0.00017,0.0,0.0
8.959,5887.925,0.00017,0.0,0.0
8.965,5885.76,0.00017,0.0,0.0
8.972,5901.0,0.00017,0.0,0.0
8.978,5906.131,0.00017,0.0,0.0
8.984,5901.681,0.00017,0.0,0.0
8.991,5927.429,0.00017,0.0,0.0
8.997,5924.02,0.00017,0.0,0.0
9.003,5932.331,0.00017,0.0,0.0
9.01,5927.925,0.00017,0.0,0.0
9.016,5938.147,0.00017,0.0,0.0
9.022,5983.343,0.00017,0.0,0.0
9.029,5937.239,0.00017,0.0,0.0
9.035,5972.018,0.00017,0.0,0.0
9.041,5979.219,0.00017,0.0,0.0
9.048,5970.805,0.00017,0.0,0.0
9.054,6034.936,0.00017,0.0,0.0
9.06,6027.223,0.00017,0.0,0.0
9.067,6002.787,0.00017,0.0,0.0
9.073,6104.86,0.00016,0.0,0.0
9.079,6093.503,0.00016,0.0,0.0
9.086,6117.769,0.00016,0.0,0.0
9.092,6248.079,0.00016,0.0,0.0
9.098,6240.641,0.00016,0.0,0.0
9.104,6616.952,0.00015,0.0,0.0
9.111,6741.151,0.00015,0.0,0.0
9.117,7797.856,0.00013,0.0,0.0
9.123,8263.936,0.00012,0.0,0.0
9.13,9033.534,0.00011,0.0,0.0
9.136,9600.069,0.0001,0.0,0.0
9.142,9455.51,0.00011,0.0,0.0
9.149,12657.864,0.00008,0.0,0.0
9.155,8123.718,0.00012,0.0,0.0
9.161,7287.319,0.00014,0.0,0.0
9.168,8982.076,0.00011,0.0,0.0
9.174,6453.906,0.00015,0.0,0.0
9.18,6547.987,0.00015,0.0,0.0
9.187,6421.914,0.00016,0.0,0.0
9.193,6204.748,0.00016,0.0,0.0
9.199,6226.366,0.00016,0.0,0.0
9.206,6169.43,0.00016,0.0,0.0
9.212,6129.617,0.00016,0.0,0.0
9.218,6148.637,0.00016,0.0,0.0
9.225,6079.666,0.00016,0.0,0.0
9.231,6071.373,0.00016,0.0,0.0
9.237,6094.215,0.00016,0.0,0.0
9.244,6041.453,0.00017,0.0,0.0
9.25,6045.08,0.00017,0.0,0.0
9.256,6028.572,0.00017,0.0,0.0
9.262,5984.261,0.00017,0.0,0.0
9.269,6034.512,0.00017,0.0,0.0
9.275,5979.439,0.00017,0.0,0.0
9.281,5975.303,0.00017,0.0,0.0
9.288,5959.599,0.00017,0.0,0.0
9.294,5942.032,0.00017,0.0,0.0
9.3,5929.409,0.00017,0.0,0.0
9.307,5912.35,0.00017,0.0,0.0
9.313,5890.22,0.00017,0.0,0.0
9.319,5887.796,0.00017,0.0,0.0
9.326,5850.64,0.00017,0.0,0.0
9.332,5833.262,0.00017,0.0,0.0
9.338,5823.467,0.00017,0.0,0.0
9.345,5782.495,0.00017,0.0,0.0
9.351,5809.25,0.00017,0.0,0.0
9.357,5758.801,0.00017,0.0,0.0
9.364,5750.579,0.00017,0.0,0.0
9.37,5737.958,0.00017,0.0,0.0
9.376,5707.149,0.00018,0.0,0.0
9.383,5713.772,0.00018,0.0,0.0
9.389,5671.909,0.00018,0.0,0.0
9.395,5660.879,0.00018,0.0,0.0
9.402,5653.271,0.00018,0.0,0.0
9.408,5651.829,0.00018,0.0,0.0
9.414,5633.226,0.00018,0.0,0.0
9.42,5617.341,0.00018,0.0,0.0
9.427,5593.167,0.00018,0.0,0.0
9.433,5585.181,0.00018,0.0,0.0
9.439,5581.776,0.00018,0.0,0.0
9.446,5563.604,0.00018,0.0,0.0
9.452,5573.454,0.00018,0.0,0.0
9.458,5547.813,0.00018,0.0,0.0
9.465,5568.159,0.00018,0.0,0.0
9.471,5561.755,0.00018,0.0,0.0
9.477,5568.12,0.00018,0.0,0.0
9.484,5580.881,0.00018,0.0,0.0
9.49,5578.77,0.00018,0.0,0.0
9.496,5590.221,0.00018,0.0,0.0
9.503,5575.874,0.00018,0.0,0.0
9.509,5530.972,0.00018,0.0,0.0
9.515,5508.454,0.00018,0.0,0.0
9.522,5495.355,0.00018,0.0,0.0
9.528,5450.344,0.00018,0.0,0.0
9.534,5432.737,0.00018,0.0,0.0
9.541,5418.301,0.00018,0.0,0.0
9.547,5406.486,0.00018,0.0,0.0
9.553,5382.86,0.00019,0.0,0.0
9.56,5393.454,0.00019,0.0,0.0
9.566,5359.208,0.00019,0.0,0.0
9.572,5368.673,0.00019,0.0,0.0
9.578,5360.923,0.00019,0.0,0.0
9.585,5347.781,0.00019,0.0,0.0
9.591,5341.957,0.00019,0.0,0.0
9.597,5314.826,0.00019,0.0,0.0
9.604,5329.807,0.00019,0.0,0.0
9.61,5327.122,0.00019,0.0,0.0
9.616,5310.379,0.00019,0.0,0.0
9.623,5306.806,0.00019,0.0,0.0
9.629,5296.791,0.00019,0.0,0.0
9.635,5300.785,0.00019,0.0,0.0
9.642,5289.219,0.00019,0.0,0.0
9.648,5260.581,0.00019,0.0,0.0
9.654,5304.366,0.00019,0.0,0.0
9.661,5277.429,0.00019,0.0,0.0
9.667,5284.445,0.00019,0.0,0.0
9.673,5269.285,0.00019,0.0,0.0
9.68,5263.874,0.00019,0.0,0.0
9.686,5274.032,0.00019,0.0,0.0
9.692,5247.132,0.00019,0.0,0.0
9.699,5258.761,0.00019,0.0,0.0
9.705,5277.133,0.00019,0.0,0.0
9.711,5227.037,0.00019,0.0,0.0
9.718,5248.529,0.00019,0.0,0.0
9.724,5242.251,0.00019,0.0,0.0
9.73,5235.63,0.00019,0.0,0.0
9.736,5231.944,0.00019,0.0,0.0
9.743,5257.867,0.00019,0.0,0.0
9.749,5251.163,0.00019,0.0,0.0
9.755,5235.77,0.00019,0.0,0.0
9.762,5226.957,0.00019,0.0,0.0
9.768,5237.025,0.00019,0.0,0.0
9.774,5224.006,0.00019,0.0,0.0
9.781,5208.468,0.00019,0.0,0.0
9.787,5245.929,0.00019,0.0,0.0
9.793,5226.072,0.00019,0.0,0.0
9.8,5233.398,0.00019,0.0,0.0
9.806,5227.281,0.00019,0.0,0.0
9.812,5218.524,0.00019,0.0,0.0
9.819,5231.602,0.00019,0.0,0.0
9.825,5233.203,0.00019,0.0,0.0
9.831,5228.04,0.00019,0.0,0.0
9.838,5245.858,0.00019,0.0,0.0
9.844,5227.651,0.00019,0.0,0.0
9.85,5239.57,0.00019,0.0,0.0
9.857,5236.009,0.00019,0.0,0.0
9.863,5226.05,0.00019,0.0,0.0
9.869,5257.211,0.00019,0.0,0.0
9.876,5213.67,0.00019,0.0,0.0
9.882,5251.364,0.00019,0.0,0.0
9.888,5244.771,0.00019,0.0,0.0
9.894,5228.261,0.00019,0.0,0.0
9.901,5264.536,0.00019,0.0,0.0
9.907,5226.284,0.00019,0.0,0.0
9.913,5228.291,0.00019,0.0,0.0
9.92,5237.116,0.00019,0.0,0.0
9.926,5232.889,0.00019,0.0,0.0
9.932,5263.906,0.00019,0.0,0.0
9.939,5246.733,0.00019,0.0,0.0
9.945,5246.746,0.00019,0.0,0.0
9.951,5267.914,0.00019,0.0,0.0
9.958,5242.182,0.00019,0.0,0.0
9.964,5262.095,0.00019,0.0,0.0
9.97,5269.616,0.00019,0.0,0.0
9.977,5264.933,0.00019,0.0,0.0
9.983,5307.838,0.00019,0.0,0.0
9.989,5287.269,0.00019,0.0,0.0
9.996,5301.863,0.00019,0.0,0.0
10.002,5314.229,0.00019,0.0,0.0
10.008,5286.598,0.00019,0.0,0.0
10.015,5323.112,0.00019,0.0,0.0
10.021,5305.896,0.00019,0.0,0.0
10.027,5328.092,0.00019,0.0,0.0
10.034,5332.25,0.00019,0.0,0.0
10.04,5339.417,0.00019,0.0,0.0
10.046,5351.014,0.00019,0.0,0.0
10.052,5364.501,0.00019,0.0,0.0
10.059,5342.875,0.00019,0.0,0.0
10.065,5396.921,0.00019,0.0,0.0
10.071,5405.795,0.00018,0.0,0.0
10.078,5407.458,0.00018,0.0,0.0
10.084,5448.636,0.00018,0.0,0.0
10.09,5421.839,0.00018,0.0,0.0
10.097,5467.317,0.00018,0.0,0.0
10.103,5413.295,0.00018,0.0,0.0
10.109,5488.131,0.00018,0.0,0.0
10.116,5510.343,0.00018,0.0,0.0
10.122,5508.392,0.00018,0.0,0.0
10.128,5570.943,0.00018,0.0,0.0
10.135,5550.161,0.00018,0.0,0.0
10.141,5615.533,0.00018,0.0,0.0
10.147,5597.573,0.00018,0.0,0.0
10.154,5717.948,0.00017,0.0,0.0
10.16,5717.053,0.00017,0.0,0.0
10.166,6085.242,0.00016,0.0,0.0
10.173,5981.352,0.00017,0.0,0.0
10.179,6760.793,0.00015,0.0,0.0
10.185,8706.432,0.00011,0.0,0.0
10.192,8945.677,0.00011,0.0,0.0
10.198,11316.192,0.00009,0.0,0.0
10.204,14063.115,0.00007,0.0,0.0
10.21,16046.61,0.00006,0.0,0.0
10.217,18307.624,0.00005,0.0,0.0
10.223,15076.365,0.00007,0.0,0.0
10.229,11780.284,0.00008,0.0,0.0
10.236,15014.809,0.00007,0.0,0.0
10.242,7866.594,0.00013,0.0,0.0
10.248,8904.403,0.00011,0.0,0.0
10.255,6620.073,0.00015,0.0,0.0
10.261,6065.889,0.00016,0.0,0.0
10.267,6118.894,0.00016,0.0,0.0
10.274,5587.731,0.00018,0.0,0.0
10.28,5686.68,0.00018,0.0,0.0
10.286,5481.601,0.00018,0.0,0.0
10.293,5489.635,0.00018,0.0,0.0
10.299,5438.496,0.00018,0.0,0.0
10.305,5399.818,0.00019,0.0,0.0
10.312,5402.548,0.00019,0.0,0.0
10.318,5361.13,0.00019,0.0,0.0
10.324,5360.449,0.00019,0.0,0.0
10.331,5308.611,0.00019,0.0,0.0
10.337,5290.974,0.00019,0.0,0.0
10.343,5307.592,0.00019,0.0,0.0
10.35,5271.777,0.00019,0.0,0.0
10.356,5272.177,0.00019,0.0,0.0
10.362,5243.729,0.00019,0.0,0.0
10.368,5199.396,0.00019,0.0,0.0
10.375,5244.021,0.00019,0.0,0.0
10.381,5178.364,0.00019,0.0,0.0
10.387,5168.482,0.00019,0.0,0.0
10.394,5187.577,0.00019,0.0,0.0
10.4,5139.358,0.00019,0.0,0.0
10.406,5198.782,0.00019,0.0,0.0
10.413,5141.321,0.00019,0.0,0.0
10.419,5117.969,0.0002,0.0,0.0
10.425,5133.281,0.00019,0.0,0.0
10.432,5116.249,0.0002,0.0,0.0
10.438,5108.426,0.0002,0.0,0.0
10.444,5123.964,0.0002,0.0,0.0
10.451,5064.278,0.0002,0.0,0.0
10.457,5114.802,0.0002,0.0,0.0
10.463,5069.304,0.0002,0.0,0.0
10.47,5078.547,0.0002,0.0,0.0
10.476,5085.663,0.0002,0.0,0.0
10.482,5027.893,0.0002,0.0,0.0
10.489,5099.492,0.0002,0.0,0.0
10.495,5029.779,0.0002,0.0,0.0
10.501,5045.572,0.0002,0.0,0.0
10.508,5076.476,0.0002,0.0,0.0
10.514,5018.273,0.0002,0.0,0.0
10.52,5036.226,0.0002,0.0,0.0
10.526,5016.526,0.0002,0.0,0.0
10.533,4991.833,0.0002,0.0,0.0
10.539,5040.718,0.0002,0.0,0.0
10.545,4989.214,0.0002,0.0,0.0
10.552,5009.873,0.0002,0.0,0.0
10.558,5000.132,0.0002,0.0,0.0
10.564,4985.436,0.0002,0.0,0.0
10.571,5027.683,0.0002,0.0,0.0
10.577,4993.511,0.0002,0.0,0.0
10.583,4999.686,0.0002,0.0,0.0
10.59,4993.467,0.0002,0.0,0.0
10.596,4986.845,0.0002,0.0,0.0
10.602,5003.155,0.0002,0.0,0.0
10.609,4972.289,0.0002,0.0,0.0
10.615,4982.848,0.0002,0.0,0.0
10.621,4982.536,0.0002,0.0,0.0
10.628,4991.799,0.0002,0.0,0.0
10.634,5005.204,0.0002,0.0,0.0
10.64,4981.21,0.0002,0.0,0.0
10.647,4955.565,0.0002,0.0,0.0
10.653,5008.195,0.0002,0.0,0.0
10.659,4977.078,0.0002,0.0,0.0
10.666,4979.857,0.0002,0.0,0.0
10.672,4996.014,0.0002,0.0,0.0
10.678,4977.317,0.0002,0.0,0.0
10.684,5008.247,0.0002,0.0,0.0
10.691,4992.049,0.0002,0.0,0.0
10.697,4989.988,0.0002,0.0,0.0
10.703,5023.269,0.0002,0.0,0.0
10.71,5020.12,0.0002,0.0,0.0
10.716,5041.667,0.0002,0.0,0.0
10.722,5050.846,0.0002,0.0,0.0
10.729,5073.028,0.0002,0.0,0.0
10.735,5114.682,0.0002,0.0,0.0
10.741,5142.726,0.00019,0.0,0.0
10.748,5199.295,0.00019,0.0,0.0
10.754,5258.185,0.00019,0.0,0.0
10.76,5384.728,0.00019,0.0,0.0
10.767,5572.182,0.00018,0.0,0.0
10.773,5801.148,0.00017,0.0,0.0
10.779,6348.858,0.00016,0.0,0.0
10.786,7134.906,0.00014,0.0,0.0
10.792,8732.985,0.00011,0.0,0.0
10.798,12048.415,0.00008,0.0,0.0
10.805,15162.93,0.00007,0.0,0.0
10.811,23034.186,0.00004,0.0,0.0
10.817,25221.017,0.00004,0.0,0.0
10.824,32101.34,0.00003,0.0,0.0
10.83,29017.938,0.00003,0.0,0.0
10.836,27341.675,0.00004,0.0,0.0
10.842,22390.658,0.00004,0.0,0.0
10.849,15924.545,0.00006,0.0,0.0
10.855,10957.634,0.00009,0.0,0.0
10.861,8476.881,0.00012,0.0,0.0
10.868,7195.787,0.00014,0.0,0.0
10.874,6151.474,0.00016,0.0,0.0
10.88,5798.026,0.00017,0.0,0.0
10.887,5510.277,0.00018,0.0,0.0
10.893,5361.149,0.00019,0.0,0.0
10.899,5267.142,0.00019,0.0,0.0
10.906,5192.331,0.00019,0.0,0.0
10.912,5149.991,0.00019,0.0,0.0
10.918,5105.243,0.0002,0.0,0.0
10.925,5081.547,0.0002,0.0,0.0
10.931,5068.848,0.0002,0.0,0.0
10.937,5056.855,0.0002,0.0,0.0
10.944,5033.269,0.0002,0.0,0.0
10.95,5027.263,0.0002,0.0,0.0
10.956,5008.96,0.0002,0.0,0.0
10.963,4998.095,0.0002,0.0,0.0
10.969,4958.011,0.0002,0.0,0.0
10.975,4947.717,0.0002,0.0,0.0
10.982,4942.672,0.0002,0.0,0.0
10.988,4908.852,0.0002,0.0,0.0
10.994,4910.127,0.0002,0.0,0.0
11.0,4867.882,0.00021,0.0,0.0
11.007,4877.014,0.00021,0.0,0.0
11.013,4864.924,0.00021,0.0,0.0
11.019,4851.777,0.00021,0.0,0.0
11.026,4835.866,0.00021,0.0,0.0
11.032,4829.959,0.00021,0.0,0.0
11.038,4818.457,0.00021,0.0,0.0
11.045,4800.935,0.00021,0.0,0.0
11.051,4809.348,0.00021,0.0,0.0
11.057,4817.354,0.00021,0.0,0.0
11.064,4800.81,0.00021,0.0,0.0
11.07,4801.401,0.00021,0.0,0.0
11.076,4792.66,0.00021,0.0,0.0
11.083,4778.691,0.00021,0.0,0.0
11.089,4770.524,0.00021,0.0,0.0
11.095,4748.572,0.00021,0.0,0.0
11.102,4749.894,0.00021,0.0,0.0
11.108,4739.068,0.00021,0.0,0.0
11.114,4757.263,0.00021,0.0,0.0
11.121,4721.768,0.00021,0.0,0.0
11.127,4726.733,0.00021,0.0,0.0
11.133,4724.892,0.00021,0.0,0.0
11.14,4732.6,0.00021,0.0,0.0
11.146,4717.683,0.00021,0.0,0.0
11.152,4709.915,0.00021,0.0,0.0
11.158,4709.837,0.00021,0.0,0.0
11.165,4697.255,0.00021,0.0,0.0
11.171,4701.135,0.00021,0.0,0.0
11.177,4730.931,0.00021,0.0,0.0
11.184,4729.688,0.00021,0.0,0.0
11.19,4762.123,0.00021,0.0,0.0
11.196,4720.117,0.00021,0.0,0.0
11.203,4745.615,0.00021,0.0,0.0
11.209,4731.743,0.00021,0.0,0.0
11.215,4691.966,0.00021,0.0,0.0
11.222,4734.555,0.00021,0.0,0.0
11.228,4679.263,0.00021,0.0,0.0
11.234,4696.925,0.00021,0.0,0.0
11.241,4663.363,0.00021,0.0,0.0
11.247,4662.774,0.00021,0.0,0.0
11.253,4656.522,0.00021,0.0,0.0
11.26,4643.765,0.00022,0.0,0.0
11.266,4647.197,0.00022,0.0,0.0
11.272,4653.246,0.00021,0.0,0.0
11.279,4641.17,0.00022,0.0,0.0
11.285,4643.495,0.00022,0.0,0.0
11.291,4636.189,0.00022,0.0,0.0
11.298,4633.727,0.00022,0.0,0.0
11.304,4634.601,0.00022,0.0,0.0
11.31,4618.854,0.00022,0.0,0.0
11.316,4612.607,0.00022,0.0,0.0
11.323,4613.033,0.00022,0.0,0.0
11.329,4620.246,0.00022,0.0,0.0
11.335,4619.452,0.00022,0.0,0.0
11.342,4610.494,0.00022,0.0,0.0
11.348,4617.943,0.00022,0.0,0.0
11.354,4597.813,0.00022,0.0,0.0
11.361,4612.984,0.00022,0.0,0.0
11.367,4594.419,0.00022,0.0,0.0
11.373,4613.369,0.00022,0.0,0.0
11.38,4594.677,0.00022,0.0,0.0
11.386,4594.508,0.00022,0.0,0.0
11.392,4584.236,0.00022,0.0,0.0
11.399,4581.727,0.00022,0.0,0.0
11.405,4589.925,0.00022,0.0,0.0
11.411,4584.466,0.00022,0.0,0.0
11.418,4589.79,0.00022,0.0,0.0
11.424,4602.103,0.00022,0.0,0.0
11.43,4582.317,0.00022,0.0,0.0
11.437,4581.57,0.00022,0.0,0.0
11.443,4587.006,0.00022,0.0,0.0
11.449,4582.751,0.00022,0.0,0.0
11.456,4586.647,0.00022,0.0,0.0
11.462,4577.583,0.00022,0.0,0.0
11.468,4582.115,0.00022,0.0,0.0
11.474,4595.242,0.00022,0.0,0.0
11.481,4582.258,0.00022,0.0,0.0
11.487,4589.69,0.00022,0.0,0.0
11.493,4585.116,0.00022,0.0,0.0
11.5,4592.652,0.00022,0.0,0.0
11.506,4599.803,0.00022,0.0,0.0
11.512,4615.333,0.00022,0.0,0.0
11.519,4634.431,0.00022,0.0,0.0
11.525,4645.936,0.00022,0.0,0.0
11.531,4639.833,0.00022,0.0,0.0
11.538,4658.986,0.00021,0.0,0.0
11.544,4647.87,0.00022,0.0,0.0
11.55,4641.883,0.00022,0.0,0.0
11.557,4624.687,0.00022,0.0,0.0
11.563,4598.65,0.00022,0.0,0.0
11.569,4597.879,0.00022,0.0,0.0
11.576,4593.662,0.00022,0.0,0.0
11.582,4588.787,0.00022,0.0,0.0
11.588,4597.425,0.00022,0.0,0.0
11.595,4591.674,0.00022,0.0,0.0
11.601,4601.472,0.00022,0.0,0.0
11.607,4591.338,0.00022,0.0,0.0
11.614,4601.772,0.00022,0.0,0.0
11.62,4593.813,0.00022,0.0,0.0
11.626,4605.172,0.00022,0.0,0.0
11.632,4599.663,0.00022,0.0,0.0
11.639,4610.245,0.00022,0.0,0.0
11.645,4580.742,0.00022,0.0,0.0
11.651,4620.824,0.00022,0.0,0.0
11.658,4594.062,0.00022,0.0,0.0
11.664,4608.357,0.00022,0.0,0.0
11.67,4611.33,0.00022,0.0,0.0
11.677,4607.19,0.00022,0.0,0.0
11.683,4616.085,0.00022,0.0,0.0
11.689,4605.494,0.00022,0.0,0.0
11.696,4616.371,0.00022,0.0,0.0
11.702,4605.756,0.00022,0.0,0.0
11.708,4613.125,0.00022,0.0,0.0
11.715,4601.571,0.00022,0.0,0.0
11.721,4615.838,0.00022,0.0,0.0
11.727,4621.839,0.00022,0.0,0.0
11.734,4604.654,0.00022,0.0,0.0
11.74,4609.798,0.00022,0.0,0.0
11.746,4610.222,0.00022,0.0,0.0
11.753,4611.136,0.00022,0.0,0.0
11.759,4607.319,0.00022,0.0,0.0
11.765,4616.654,0.00022,0.0,0.0
11.772,4608.067,0.00022,0.0,0.0
11.778,4624.203,0.00022,0.0,0.0
11.784,4617.713,0.00022,0.0,0.0
11.79,4629.57,0.00022,0.0,0.0
11.797,4615.715,0.00022,0.0,0.0
11.803,4596.631,0.00022,0.0,0.0
11.809,4615.155,0.00022,0.0,0.0
11.816,4590.243,0.00022,0.0,0.0
11.822,4596.662,0.00022,0.0,0.0
11.828,4592.046,0.00022,0.0,0.0
11.835,4580.872,0.00022,0.0,0.0
11.841,4581.666,0.00022,0.0,0.0
11.847,4585.544,0.00022,0.0,0.0
11.854,4580.484,0.00022,0.0,0.0
11.86,4580.338,0.00022,0.0,0.0
11.866,4584.667,0.00022,0.0,0.0
11.873,4581.051,0.00022,0.0,0.0
11.879,4567.963,0.00022,0.0,0.0
11.885,4564.11,0.00022,0.0,0.0
11.892,4579.802,0.00022,0.0,0.0
11.898,4571.32,0.00022,0.0,0.0
11.904,4555.253,0.00022,0.0,0.0
11.911,4564.084,0.00022,0.0,0.0
11.917,4547.518,0.00022,0.0,0.0
11.923,4576.186,0.00022,0.0,0.0
11.93,4563.414,0.00022,0.0,0.0
11.936,4559.872,0.00022,0.0,0.0
11.942,4563.287,0.00022,0.0,0.0
11.948,4569.161,0.00022,0.0,0.0
11.955,4561.375,0.00022,0.0,0.0
11.961,4565.209,0.00022,0.0,0.0
11.967,4556.138,0.00022,0.0,0.0
11.974,4559.621,0.00022,0.0,0.0
11.98,4566.844,0.00022,0.0,0.0
11.986,4562.204,0.00022,0.0,0.0
11.993,4564.01,0.00022,0.0,0.0
11.999,4582.363,0.00022,0.0,0.0
12.005,4570.961,0.00022,0.0,0.0
12.012,4574.034,0.00022,0.0,0.0
12.018,4589.575,0.00022,0.0,0.0
12.024,4586.439,0.00022,0.0,0.0
12.031,4587.205,0.00022,0.0,0.0
12.037,4659.436,0.00021,0.0,0.0
12.043,4601.424,0.00022,0.0,0.0
12.05,4772.68,0.00021,0.0,0.0
12.056,4684.999,0.00021,0.0,0.0
12.062,4701.39,0.00021,0.0,0.0
12.069,5419.637,0.00018,0.0,0.0
12.075,4943.756,0.0002,0.0,0.0
12.081,7917.677,0.00013,0.0,0.0
12.088,5623.422,0.00018,0.0,0.0
12.094,6412.267,0.00016,0.0,0.0
12.1,9886.577,0.0001,0.0,0.0
12.106,6458.688,0.00015,0.0,0.0
12.113,8672.685,0.00012,0.0,0.0
12.119,5357.571,0.00019,0.0,0.0
12.125,5147.028,0.00019,0.0,0.0
12.132,5288.528,0.00019,0.0,0.0
12.138,4768.611,0.00021,0.0,0.0
12.144,4697.51,0.00021,0.0,0.0
12.151,4679.487,0.00021,0.0,0.0
12.157,4582.516,0.00022,0.0,0.0
12.163,4600.453,0.00022,0.0,0.0
12.17,4554.149,0.00022,0.0,0.0
12.176,4535.297,0.00022,0.0,0.0
12.182,4538.256,0.00022,0.0,0.0
12.189,4533.356,0.00022,0.0,0.0
12.195,4503.198,0.00022,0.0,0.0
12.201,4490.16,0.00022,0.0,0.0
12.208,4478.877,0.00022,0.0,0.0
12.214,4476.507,0.00022,0.0,0.0
12.22,4468.156,0.00022,0.0,0.0
12.227,4453.946,0.00022,0.0,0.0
12.233,4443.437,0.00023,0.0,0.0
12.239,4449.597,0.00022,0.0,0.0
12.246,4430.697,0.00023,0.0,0.0
12.252,4436.463,0.00023,0.0,0.0
12.258,4419.112,0.00023,0.0,0.0
12.264,4415.458,0.00023,0.0,0.0
12.271,4412.04,0.00023,0.0,0.0
12.277,4425.47,0.00023,0.0,0.0
12.283,4414.348,0.00023,0.0,0.0
12.29,4398.301,0.00023,0.0,0.0
12.296,4394.517,0.00023,0.0,0.0
12.302,4393.896,0.00023,0.0,0.0
12.309,4375.177,0.00023,0.0,0.0
12.315,4376.448,0.00023,0.0,0.0
12.321,4387.356,0.00023,0.0,0.0
12.328,4373.352,0.00023,0.0,0.0
12.334,4377.763,0.00023,0.0,0.0
12.34,4370.4,0.00023,0.0,0.0
12.347,4367.589,0.00023,0.0,0.0
12.353,4360.672,0.00023,0.0,0.0
12.359,4350.135,0.00023,0.0,0.0
12.366,4366.703,0.00023,0.0,0.0
12.372,4367.996,0.00023,0.0,0.0
12.378,4354.948,0.00023,0.0,0.0
12.385,4362.145,0.00023,0.0,0.0
12.391,4361.416,0.00023,0.0,0.0
12.397,4360.581,0.00023,0.0,0.0
12.404,4340.742,0.00023,0.0,0.0
12.41,4333.16,0.00023,0.0,0.0
12.416,4328.192,0.00023,0.0,0.0
12.422,4351.658,0.00023,0.0,0.0
12.429,4325.898,0.00023,0.0,0.0
12.435,4327.23,0.00023,0.0,0.0
12.441,4329.596,0.00023,0.0,0.0
12.448,4339.003,0.00023,0.0,0.0
12.454,4328.597,0.00023,0.0,0.0
12.46,4314.979,0.00023,0.0,0.0
12.467,4321.222,0.00023,0.0,0.0
12.473,4334.424,0.00023,0.0,0.0
12.479,4330.907,0.00023,0.0,0.0
12.486,4326.659,0.00023,0.0,0.0
12.492,4320.8,0.00023,0.0,0.0
12.498,4329.475,0.00023,0.0,0.0
12.505,4344.236,0.00023,0.0,0.0
12.511,4347.374,0.00023,0.0,0.0
12.517,4346.763,0.00023,0.0,0.0
12.524,4354.441,0.00023,0.0,0.0
12.53,4353.778,0.00023,0.0,0.0
12.536,4362.411,0.00023,0.0,0.0
12.543,4357.712,0.00023,0.0,0.0
12.549,4353.36,0.00023,0.0,0.0
12.555,4357.027,0.00023,0.0,0.0
12.562,4336.963,0.00023,0.0,0.0
12.568,4351.571,0.00023,0.0,0.0
12.574,4351.681,0.00023,0.0,0.0
12.58,4364.886,0.00023,0.0,0.0
12.587,4377.357,0.00023,0.0,0.0
12.593,4386.151,0.00023,0.0,0.0
12.599,4405.904,0.00023,0.0,0.0
12.606,4444.061,0.00023,0.0,0.0
12.612,4480.539,0.00022,0.0,0.0
12.618,4514.458,0.00022,0.0,0.0
12.625,4582.693,0.00022,0.0,0.0
12.631,4663.743,0.00021,0.0,0.0
12.637,4849.296,0.00021,0.0,0.0
12.644,5048.27,0.0002,0.0,0.0
12.65,5437.572,0.00018,0.0,0.0
12.656,6140.4,0.00016,0.0,0.0
12.663,7238.645,0.00014,0.0,0.0
12.669,9691.797,0.0001,0.0,0.0
12.675,13129.846,0.00008,0.0,0.0
12.682,18595.818,0.00005,0.0,0.0
12.688,26195.843,0.00004,0.0,0.0
12.694,31262.661,0.00003,0.0,0.0
12.701,36140.996,0.00003,0.0,0.0
12.707,33017.734,0.00003,0.0,0.0
12.713,27104.752,0.00004,0.0,0.0
12.72,20511.281,0.00005,0.0,0.0
12.726,14354.327,0.00007,0.0,0.0
12.732,10301.25,0.0001,0.0,0.0
12.738,7583.907,0.00013,0.0,0.0
12.745,6337.811,0.00016,0.0,0.0
12.751,5540.546,0.00018,0.0,0.0
12.757,5063.792,0.0002,0.0,0.0
12.764,4803.56,0.00021,0.0,0.0
12.77,4649.621,0.00022,0.0,0.0
12.776,4521.501,0.00022,0.0,0.0
12.783,4475.864,0.00022,0.0,0.0
12.789,4405.294,0.00023,0.0,0.0
12.795,4376.355,0.00023,0.0,0.0
12.802,4345.614,0.00023,0.0,0.0
12.808,4321.341,0.00023,0.0,0.0
12.814,4300.442,0.00023,0.0,0.0
12.821,4274.794,0.00023,0.0,0.0
12.827,4271.69,0.00023,0.0,0.0
12.833,4274.569,0.00023,0.0,0.0
12.84,4249.801,0.00024,0.0,0.0
12.846,4248.107,0.00024,0.0,0.0
12.852,4240.012,0.00024,0.0,0.0
12.859,4234.41,0.00024,0.0,0.0
12.865,4233.625,0.00024,0.0,0.0
12.871,4219.856,0.00024,0.0,0.0
12.878,4223.208,0.00024,0.0,0.0
12.884,4211.349,0.00024,0.0,0.0
12.89,4215.543,0.00024,0.0,0.0
12.896,4209.356,0.00024,0.0,0.0
12.903,4216.793,0.00024,0.0,0.0
12.909,4265.7,0.00023,0.0,0.0
12.915,4279.717,0.00023,0.0,0.0
12.922,4291.61,0.00023,0.0,0.0
12.928,4419.183,0.00023,0.0,0.0
12.934,4461.621,0.00022,0.0,0.0
12.941,4401.637,0.00023,0.0,0.0
12.947,4608.513,0.00022,0.0,0.0
12.953,4424.229,0.00023,0.0,0.0
12.96,4341.91,0.00023,0.0,0.0
12.966,4344.138,0.00023,0.0,0.0
12.972,4279.328,0.00023,0.0,0.0
12.979,4238.168,0.00024,0.0,0.0
12.985,4208.655,0.00024,0.0,0.0
12.991,4179.225,0.00024,0.0,0.0
12.998,4181.514,0.00024,0.0,0.0
13.004,4150.243,0.00024,0.0,0.0
13.01,4165.906,0.00024,0.0,0.0
13.017,4145.337,0.00024,0.0,0.0
13.023,4134.04,0.00024,0.0,0.0
13.029,4145.699,0.00024,0.0,0.0
13.036,4123.616,0.00024,0.0,0.0
13.042,4132.133,0.00024,0.0,0.0
13.048,4124.245,0.00024,0.0,0.0
13.054,4119.295,0.00024,0.0,0.0
13.061,4125.213,0.00024,0.0,0.0
13.067,4116.711,0.00024,0.0,0.0
13.073,4122.855,0.00024,0.0,0.0
13.08,4119.896,0.00024,0.0,0.0
13.086,4115.457,0.00024,0.0,0.0
13.092,4092.032,0.00024,0.0,0.0
13.099,4112.632,0.00024,0.0,0.0
13.105,4103.678,0.00024,0.0,0.0
13.111,4108.929,0.00024,0.0,0.0
13.118,4093.343,0.00024,0.0,0.0
13.124,4093.503,0.00024,0.0,0.0
13.13,4098.097,0.00024,0.0,0.0
13.137,4098.847,0.00024,0.0,0.0
13.143,4095.567,0.00024,0.0,0.0
13.149,4082.035,0.00024,0.0,0.0
13.156,4096.542,0.00024,0.0,0.0
13.162,4084.618,0.00024,0.0,0.0
13.168,4093.282,0.00024,0.0,0.0
13.175,4100.821,0.00024,0.0,0.0
13.181,4102.695,0.00024,0.0,0.0
13.187,4119.675,0.00024,0.0,0.0
13.194,4135.686,0.00024,0.0,0.0
13.2,4144.549,0.00024,0.0,0.0
13.206,4166.582,0.00024,0.0,0.0
13.212,4241.015,0.00024,0.0,0.0
13.219,4311.14,0.00023,0.0,0.0
13.225,4519.824,0.00022,0.0,0.0
13.231,4808.288,0.00021,0.0,0.0
13.238,5444.788,0.00018,0.0,0.0
13.244,6462.872,0.00015,0.0,0.0
13.25,7434.835,0.00013,0.0,0.0
13.257,9746.378,0.0001,0.0,0.0
13.263,10769.59,0.00009,0.0,0.0
13.269,11232.812,0.00009,0.0,0.0
13.276,11058.978,0.00009,0.0,0.0
13.282,9328.788,0.00011,0.0,0.0
13.288,7694.639,0.00013,0.0,0.0
13.295,6328.855,0.00016,0.0,0.0
13.301,5254.952,0.00019,0.0,0.0
13.307,4741.248,0.00021,0.0,0.0
13.314,4435.483,0.00023,0.0,0.0
13.32,4240.423,0.00024,0.0,0.0
13.326,4153.879,0.00024,0.0,0.0
13.333,4080.904,0.00025,0.0,0.0
13.339,4060.484,0.00025,0.0,0.0
13.345,4034.98,0.00025,0.0,0.0
13.352,4006.578,0.00025,0.0,0.0
13.358,3991.561,0.00025,0.0,0.0
13.364,3972.405,0.00025,0.0,0.0
13.37,3967.396,0.00025,0.0,0.0
13.377,3963.665,0.00025,0.0,0.0
13.383,3949.099,0.00025,0.0,0.0
13.389,3951.158,0.00025,0.0,0.0
13.396,3940.632,0.00025,0.0,0.0
13.402,3944.935,0.00025,0.0,0.0
13.408,3938.097,0.00025,0.0,0.0
13.415,3943.786,0.00025,0.0,0.0
13.421,3931.324,0.00025,0.0,0.0
13.427,3924.466,0.00025,0.0,0.0
13.434,3913.715,0.00026,0.0,0.0
13.44,3908.957,0.00026,0.0,0.0
13.446,3916.082,0.00026,0.0,0.0
13.453,3904.858,0.00026,0.0,0.0
13.459,3896.857,0.00026,0.0,0.0
13.465,3894.24,0.00026,0.0,0.0
13.472,3887.953,0.00026,0.0,0.0
13.478,3887.057,0.00026,0.0,0.0
13.484,3890.175,0.00026,0.0,0.0
13.491,3884.027,0.00026,0.0,0.0
13.497,3879.537,0.00026,0.0,0.0
13.503,3878.444,0.00026,0.0,0.0
13.51,3879.546,0.00026,0.0,0.0
13.516,3870.435,0.00026,0.0,0.0
13.522,3860.941,0.00026,0.0,0.0
13.528,3878.353,0.00026,0.0,0.0
13.535,3865.835,0.00026,0.0,0.0
13.541,3871.639,0.00026,0.0,0.0
13.547,3872.359,0.00026,0.0,0.0
13.554,3869.154,0.00026,0.0,0.0
13.56,3858.815,0.00026,0.0,0.0
13.566,3859.28,0.00026,0.0,0.0
13.573,3863.361,0.00026,0.0,0.0
13.579,3853.192,0.00026,0.0,0.0
13.585,3858.094,0.00026,0.0,0.0
13.592,3870.701,0.00026,0.0,0.0
13.598,3865.346,0.00026,0.0,0.0
13.604,3864.58,0.00026,0.0,0.0
13.611,3864.279,0.00026,0.0,0.0
13.617,3858.904,0.00026,0.0,0.0
13.623,3858.088,0.00026,0.0,0.0
13.63,3881.739,0.00026,0.0,0.0
13.636,3862.218,0.00026,0.0,0.0
13.642,3870.081,0.00026,0.0,0.0
13.649,3859.413,0.00026,0.0,0.0
13.655,3875.136,0.00026,0.0,0.0
13.661,3878.622,0.00026,0.0,0.0
13.668,3874.456,0.00026,0.0,0.0
13.674,3875.405,0.00026,0.0,0.0
13.68,3880.674,0.00026,0.0,0.0
13.686,3893.191,0.00026,0.0,0.0
13.693,3922.223,0.00025,0.0,0.0
13.699,3963.649,0.00025,0.0,0.0
13.705,4013.748,0.00025,0.0,0.0
13.712,4161.195,0.00024,0.0,0.0
13.718,4200.549,0.00024,0.0,0.0
13.724,4400.22,0.00023,0.0,0.0
13.731,4445.569,0.00022,0.0,0.0
13.737,4414.81,0.00023,0.0,0.0
13.743,4528.946,0.00022,0.0,0.0
13.75,4233.944,0.00024,0.0,0.0
13.756,3971.987,0.00025,0.0,0.0
13.762,3934.244,0.00025,0.0,0.0
13.769,3905.017,0.00026,0.0,0.0
13.775,3831.788,0.00026,0.0,0.0
13.781,3824.101,0.00026,0.0,0.0
13.788,3805.809,0.00026,0.0,0.0
13.794,3798.579,0.00026,0.0,0.0
13.8,3796.701,0.00026,0.0,0.0
13.807,3786.191,0.00026,0.0,0.0
13.813,3777.54,0.00026,0.0,0.0
13.819,3779.101,0.00026,0.0,0.0
13.826,3765.861,0.00027,0.0,0.0
13.832,3759.415,0.00027,0.0,0.0
13.838,3763.196,0.00027,0.0,0.0
13.844,3760.498,0.00027,0.0,0.0
13.851,3755.851,0.00027,0.0,0.0
13.857,3739.359,0.00027,0.0,0.0
13.863,3735.715,0.00027,0.0,0.0
13.87,3739.151,0.00027,0.0,0.0
13.876,3730.551,0.00027,0.0,0.0
13.882,3728.204,0.00027,0.0,0.0
13.889,3723.458,0.00027,0.0,0.0
13.895,3711.142,0.00027,0.0,0.0
13.901,3715.607,0.00027,0.0,0.0
13.908,3708.032,0.00027,0.0,0.0
13.914,3700.059,0.00027,0.0,0.0
13.92,3699.409,0.00027,0.0,0.0
13.927,3713.755,0.00027,0.0,0.0
13.933,3703.294,0.00027,0.0,0.0
13.939,3703.214,0.00027,0.0,0.0
13.946,3682.202,0.00027,0.0,0.0
13.952,3689.048,0.00027,0.0,0.0
13.958,3673.693,0.00027,0.0,0.0
13.965,3681.74,0.00027,0.0,0.0
13.971,3678.084,0.00027,0.0,0.0
13.977,3681.69,0.00027,0.0,0.0
13.984,3661.087,0.00027,0.0,0.0
13.99,3659.954,0.00027,0.0,0.0
13.996,3674.66,0.00027,0.0,0.0
14.002,3660.475,0.00027,0.0,0.0
14.009,3658.858,0.00027,0.0,0.0
14.015,3654.788,0.00027,0.0,0.0
14.021,3649.19,0.00027,0.0,0.0
14.028,3644.566,0.00027,0.0,0.0
14.034,3653.011,0.00027,0.0,0.0
14.04,3643.12,0.00027,0.0,0.0
14.047,3633.6,0.00028,0.0,0.0
14.053,3634.652,0.00028,0.0,0.0
14.059,3628.601,0.00028,0.0,0.0
14.066,3639.691,0.00027,0.0,0.0
14.072,3617.619,0.00028,0.0,0.0
14.078,3624.758,0.00028,0.0,0.0
14.085,3638.665,0.00027,0.0,0.0
14.091,3633.949,0.00028,0.0,0.0
14.097,3621.282,0.00028,0.0,0.0
14.104,3615.474,0.00028,0.0,0.0
14.11,3620.597,0.00028,0.0,0.0
14.116,3615.805,0.00028,0.0,0.0
14.123,3617.784,0.00028,0.0,0.0
14.129,3606.302,0.00028,0.0,0.0
14.135,3603.223,0.00028,0.0,0.0
14.142,3585.993,0.00028,0.0,0.0
14.148,3598.48,0.00028,0.0,0.0
14.154,3596.924,0.00028,0.0,0.0
14.16,3597.048,0.00028,0.0,0.0
14.167,3588.188,0.00028,0.0,0.0
14.173,3594.437,0.00028,0.0,0.0
14.179,3594.198,0.00028,0.0,0.0
14.186,3580.441,0.00028,0.0,0.0
14.192,3584.285,0.00028,0.0,0.0
14.198,3586.085,0.00028,0.0,0.0
14.205,3581.145,0.00028,0.0,0.0
14.211,3594.688,0.00028,0.0,0.0
14.217,3577.968,0.00028,0.0,0.0
14.224,3577.923,0.00028,0.0,0.0
14.23,3595.384,0.00028,0.0,0.0
14.236,3588.611,0.00028,0.0,0.0
14.243,3588.315,0.00028,0.0,0.0
14.249,3590.39,0.00028,0.0,0.0
14.255,3596.413,0.00028,0.0,0.0
14.262,3604.536,0.00028,0.0,0.0
14.268,3596.554,0.00028,0.0,0.0
14.274,3612.914,0.00028,0.0,0.0
14.281,3608.286,0.00028,0.0,0.0
14.287,3603.243,0.00028,0.0,0.0
14.293,3589.244,0.00028,0.0,0.0
14.3,3583.681,0.00028,0.0,0.0
14.306,3575.367,0.00028,0.0,0.0
14.312,3577.075,0.00028,0.0,0.0
14.318,3578.235,0.00028,0.0,0.0
14.325,3568.83,0.00028,0.0,0.0
14.331,3562.35,0.00028,0.0,0.0
14.337,3565.552,0.00028,0.0,0.0
14.344,3543.133,0.00028,0.0,0.0
14.35,3554.014,0.00028,0.0,0.0
14.356,3551.816,0.00028,0.0,0.0
14.363,3554.572,0.00028,0.0,0.0
14.369,3554.324,0.00028,0.0,0.0
14.375,3550.878,0.00028,0.0,0.0
14.382,3546.947,0.00028,0.0,0.0
14.388,3549.318,0.00028,0.0,0.0
14.394,3546.531,0.00028,0.0,0.0
14.401,3538.001,0.00028,0.0,0.0
14.407,3543.603,0.00028,0.0,0.0
14.413,3538.261,0.00028,0.0,0.0
14.42,3535.115,0.00028,0.0,0.0
14.426,3551.753,0.00028,0.0,0.0
14.432,3549.063,0.00028,0.0,0.0
14.439,3578.524,0.00028,0.0,0.0
14.445,3608.158,0.00028,0.0,0.0
14.451,3700.191,0.00027,0.0,0.0
14.458,3734.552,0.00027,0.0,0.0
14.464,3625.797,0.00028,0.0,0.0
14.47,4125.525,0.00024,0.0,0.0
14.476,3794.004,0.00026,0.0,0.0
14.483,3777.492,0.00026,0.0,0.0
14.489,3626.688,0.00028,0.0,0.0
14.495,3590.165,0.00028,0.0,0.0
14.502,3524.767,0.00028,0.0,0.0
14.508,3527.298,0.00028,0.0,0.0
14.514,3506.354,0.00029,0.0,0.0
14.521,3501.7,0.00029,0.0,0.0
14.527,3493.881,0.00029,0.0,0.0
14.533,3491.783,0.00029,0.0,0.0
14.54,3490.484,0.00029,0.0,0.0
14.546,3481.761,0.00029,0.0,0.0
14.552,3473.706,0.00029,0.0,0.0
14.559,3484.914,0.00029,0.0,0.0
14.565,3461.72,0.00029,0.0,0.0
14.571,3472.794,0.00029,0.0,0.0
14.578,3465.22,0.00029,0.0,0.0
14.584,3471.21,0.00029,0.0,0.0
14.59,3467.126,0.00029,0.0,0.0
14.597,3458.612,0.00029,0.0,0.0
14.603,3451.972,0.00029,0.0,0.0
14.609,3469.256,0.00029,0.0,0.0
14.616,3445.064,0.00029,0.0,0.0
14.622,3446.82,0.00029,0.0,0.0
14.628,3446.855,0.00029,0.0,0.0
14.634,3447.195,0.00029,0.0,0.0
14.641,3442.722,0.00029,0.0,0.0
14.647,3430.729,0.00029,0.0,0.0
14.653,3438.592,0.00029,0.0,0.0
14.66,3439.855,0.00029,0.0,0.0
14.666,3439.58,0.00029,0.0,0.0
14.672,3433.061,0.00029,0.0,0.0
14.679,3423.466,0.00029,0.0,0.0
14.685,3435.098,0.00029,0.0,0.0
14.691,3424.072,0.00029,0.0,0.0
14.698,3433.524,0.00029,0.0,0.0
14.704,3430.949,0.00029,0.0,0.0
14.71,3420.03,0.00029,0.0,0.0
14.717,3418.625,0.00029,0.0,0.0
14.723,3413.343,0.00029,0.0,0.0
14.729,3407.442,0.00029,0.0,0.0
14.736,3407.645,0.00029,0.0,0.0
14.742,3401.121,0.00029,0.0,0.0
14.748,3401.213,0.00029,0.0,0.0
14.755,3399.311,0.00029,0.0,0.0
14.761,3405.992,0.00029,0.0,0.0
14.767,3402.344,0.00029,0.0,0.0
14.774,3400.37,0.00029,0.0,0.0
14.78,3397.578,0.00029,0.0,0.0
14.786,3407.638,0.00029,0.0,0.0
14.792,3402.125,0.00029,0.0,0.0
14.799,3390.392,0.00029,0.0,0.0
14.805,3401.242,0.00029,0.0,0.0
14.811,3388.461,0.0003,0.0,0.0
14.818,3389.589,0.0003,0.0,0.0
14.824,3389.667,0.0003,0.0,0.0
14.83,3381.276,0.0003,0.0,0.0
14.837,3387.353,0.0003,0.0,0.0
14.843,3392.29,0.00029,0.0,0.0
14.849,3379.75,0.0003,0.0,0.0
14.856,3395.384,0.00029,0.0,0.0
14.862,3390.481,0.00029,0.0,0.0
14.868,3389.159,0.0003,0.0,0.0
14.875,3388.128,0.0003,0.0,0.0
14.881,3388.797,0.0003,0.0,0.0
14.887,3383.39,0.0003,0.0,0.0
14.894,3386.638,0.0003,0.0,0.0
14.9,3386.299,0.0003,0.0,0.0
14.906,3377.724,0.0003,0.0,0.0
14.913,3379.866,0.0003,0.0,0.0
14.919,3383.583,0.0003,0.0,0.0
14.925,3368.615,0.0003,0.0,0.0
14.932,3374.354,0.0003,0.0,0.0
14.938,3372.701,0.0003,0.0,0.0
14.944,3375.991,0.0003,0.0,0.0
14.95,3365.494,0.0003,0.0,0.0
14.957,3362.019,0.0003,0.0,0.0
14.963,3370.623,0.0003,0.0,0.0
14.969,3354.569,0.0003,0.0,0.0
14.976,3358.419,0.0003,0.0,0.0
14.982,3372.174,0.0003,0.0,0.0
14.988,3351.177,0.0003,0.0,0.0
14.995,3350.731,0.0003,0.0,0.0
15.001,3358.317,0.0003,0.0,0.0
15.007,3358.927,0.0003,0.0,0.0
15.014,3356.57,0.0003,0.0,0.0
15.02,3350.494,0.0003,0.0,0.0
15.026,3350.588,0.0003,0.0,0.0
15.033,3342.262,0.0003,0.0,0.0
15.039,3347.199,0.0003,0.0,0.0
15.045,3339.888,0.0003,0.0,0.0
15.052,3335.364,0.0003,0.0,0.0
15.058,3341.613,0.0003,0.0,0.0
15.064,3338.74,0.0003,0.0,0.0
15.071,3329.894,0.0003,0.0,0.0
15.077,3329.889,0.0003,0.0,0.0
15.083,3338.526,0.0003,0.0,0.0
15.09,3334.426,0.0003,0.0,0.0
15.096,3322.574,0.0003,0.0,0.0
15.102,3330.349,0.0003,0.0,0.0
15.108,3326.776,0.0003,0.0,0.0
15.115,3322.451,0.0003,0.0,0.0
15.121,3316.871,0.0003,0.0,0.0
15.127,3327.835,0.0003,0.0,0.0
15.134,3325.227,0.0003,0.0,0.0
15.14,3310.459,0.0003,0.0,0.0
15.146,3315.736,0.0003,0.0,0.0
15.153,3314.339,0.0003,0.0,0.0
15.159,3311.81,0.0003,0.0,0.0
15.165,3315.761,0.0003,0.0,0.0
15.172,3314.668,0.0003,0.0,0.0
15.178,3330.791,0.0003,0.0,0.0
15.184,3327.047,0.0003,0.0,0.0
15.191,3321.4,0.0003,0.0,0.0
15.197,3316.436,0.0003,0.0,0.0
15.203,3314.622,0.0003,0.0,0.0
15.21,3312.343,0.0003,0.0,0.0
15.216,3298.919,0.0003,0.0,0.0
15.222,3305.924,0.0003,0.0,0.0
15.229,3310.089,0.0003,0.0,0.0
15.235,3305.145,0.0003,0.0,0.0
15.241,3311.01,0.0003,0.0,0.0
15.248,3314.688,0.0003,0.0,0.0
15.254,3326.939,0.0003,0.0,0.0
15.26,3336.42,0.0003,0.0,0.0
15.266,3354.917,0.0003,0.0,0.0
15.273,3378.013,0.0003,0.0,0.0
15.279,3431.987,0.00029,0.0,0.0
15.285,3509.993,0.00028,0.0,0.0
15.292,3655.96,0.00027,0.0,0.0
15.298,3897.209,0.00026,0.0,0.0
15.304,4198.193,0.00024,0.0,0.0
15.311,4652.856,0.00021,0.0,0.0
15.317,5568.297,0.00018,0.0,0.0
15.323,5702.246,0.00018,0.0,0.0
15.33,6354.279,0.00016,0.0,0.0
15.336,6099.432,0.00016,0.0,0.0
15.342,5668.37,0.00018,0.0,0.0
15.349,5071.784,0.0002,0.0,0.0
15.355,4576.507,0.00022,0.0,0.0
15.361,4063.773,0.00025,0.0,0.0
15.368,3758.836,0.00027,0.0,0.0
15.374,3568.17,0.00028,0.0,0.0
15.38,3467.147,0.00029,0.0,0.0
15.387,3385.186,0.0003,0.0,0.0
15.393,3360.614,0.0003,0.0,0.0
15.399,3334.586,0.0003,0.0,0.0
15.406,3315.795,0.0003,0.0,0.0
15.412,3313.972,0.0003,0.0,0.0
15.418,3292.074,0.0003,0.0,0.0
15.424,3293.329,0.0003,0.0,0.0
15.431,3289.363,0.0003,0.0,0.0
15.437,3293.465,0.0003,0.0,0.0
15.443,3282.356,0.0003,0.0,0.0
15.45,3286.358,0.0003,0.0,0.0
15.456,3288.038,0.0003,0.0,0.0
15.462,3282.576,0.0003,0.0,0.0
15.469,3295.202,0.0003,0.0,0.0
15.475,3297.104,0.0003,0.0,0.0
15.481,3292.959,0.0003,0.0,0.0
15.488,3289.609,0.0003,0.0,0.0
15.494,3281.434,0.0003,0.0,0.0
15.5,3282.256,0.0003,0.0,0.0
15.507,3274.62,0.00031,0.0,0.0
15.513,3276.43,0.00031,0.0,0.0
15.519,3278.909,0.0003,0.0,0.0
15.526,3276.404,0.00031,0.0,0.0
15.532,3272.339,0.00031,0.0,0.0
15.538,3272.842,0.00031,0.0,0.0
15.545,3265.205,0.00031,0.0,0.0
15.551,3254.141,0.00031,0.0,0.0
15.557,3253.705,0.00031,0.0,0.0
15.564,3248.916,0.00031,0.0,0.0
15.57,3256.05,0.00031,0.0,0.0
15.576,3254.745,0.00031,0.0,0.0
15.582,3233.216,0.00031,0.0,0.0
15.589,3241.952,0.00031,0.0,0.0
15.595,3235.086,0.00031,0.0,0.0
15.601,3234.382,0.00031,0.0,0.0
15.608,3242.278,0.00031,0.0,0.0
15.614,3227.347,0.00031,0.0,0.0
15.62,3220.396,0.00031,0.0,0.0
15.627,3222.824,0.00031,0.0,0.0
15.633,3215.673,0.00031,0.0,0.0
15.639,3213.826,0.00031,0.0,0.0
15.646,3217.388,0.00031,0.0,0.0
15.652,3203.217,0.00031,0.0,0.0
15.658,3204.9,0.00031,0.0,0.0
15.665,3208.515,0.00031,0.0,0.0
15.671,3209.45,0.00031,0.0,0.0
15.677,3207.593,0.00031,0.0,0.0
15.684,3195.114,0.00031,0.0,0.0
15.69,3187.192,0.00031,0.0,0.0
15.696,3191.295,0.00031,0.0,0.0
15.703,3182.825,0.00031,0.0,0.0
15.709,3177.743,0.00031,0.0,0.0
15.715,3179.921,0.00031,0.0,0.0
15.722,3175.862,0.00031,0.0,0.0
15.728,3171.302,0.00032,0.0,0.0
15.734,3179.559,0.00031,0.0,0.0
15.74,3175.374,0.00031,0.0,0.0
15.747,3174.645,0.00031,0.0,0.0
15.753,3160.112,0.00032,0.0,0.0
15.759,3155.373,0.00032,0.0,0.0
15.766,3156.832,0.00032,0.0,0.0
15.772,3165.838,0.00032,0.0,0.0
15.778,3162.146,0.00032,0.0,0.0
15.785,3156.015,0.00032,0.0,0.0
15.791,3154.46,0.00032,0.0,0.0
15.797,3161.822,0.00032,0.0,0.0
15.804,3157.484,0.00032,0.0,0.0
15.81,3154.684,0.00032,0.0,0.0
15.816,3145.047,0.00032,0.0,0.0
15.823,3156.951,0.00032,0.0,0.0
15.829,3136.121,0.00032,0.0,0.0
15.835,3150.013,0.00032,0.0,0.0
15.842,3162.679,0.00032,0.0,0.0
15.848,3178.472,0.00031,0.0,0.0
15.854,3184.827,0.00031,0.0,0.0
15.861,3163.9,0.00032,0.0,0.0
15.867,3253.589,0.00031,0.0,0.0
15.873,3175.957,0.00031,0.0,0.0
15.88,3149.842,0.00032,0.0,0.0
15.886,3147.748,0.00032,0.0,0.0
15.892,3135.921,0.00032,0.0,0.0
15.898,3134.181,0.00032,0.0,0.0
15.905,3136.38,0.00032,0.0,0.0
15.911,3124.491,0.00032,0.0,0.0
15.917,3129.592,0.00032,0.0,0.0
15.924,3127.985,0.00032,0.0,0.0
15.93,3126.049,0.00032,0.0,0.0
15.936,3116.584,0.00032,0.0,0.0
15.943,3111.904,0.00032,0.0,0.0
15.949,3117.281,0.00032,0.0,0.0
15.955,3110.27,0.00032,0.0,0.0
15.962,3114.818,0.00032,0.0,0.0
15.968,3118.447,0.00032,0.0,0.0
15.974,3103.895,0.00032,0.0,0.0
15.981,3120.28,0.00032,0.0,0.0
15.987,3116.535,0.00032,0.0,0.0
15.993,3116.12,0.00032,0.0,0.0
16.0,3109.52,0.00032,0.0,0.0
16.006,3103.727,0.00032,0.0,0.0
16.012,3105.589,0.00032,0.0,0.0
16.019,3091.492,0.00032,0.0,0.0
16.025,3103.671,0.00032,0.0,0.0
16.031,3091.597,0.00032,0.0,0.0
16.038,3097.194,0.00032,0.0,0.0
16.044,3111.693,0.00032,0.0,0.0
16.05,3094.218,0.00032,0.0,0.0
16.056,3094.843,0.00032,0.0,0.0
16.063,3095.54,0.00032,0.0,0.0
16.069,3101.628,0.00032,0.0,0.0
16.075,3098.954,0.00032,0.0,0.0
16.082,3090.968,0.00032,0.0,0.0
16.088,3104.43,0.00032,0.0,0.0
16.094,3091.01,0.00032,0.0,0.0
16.101,3087.47,0.00032,0.0,0.0
16.107,3090.768,0.00032,0.0,0.0
16.113,3098.607,0.00032,0.0,0.0
16.12,3091.291,0.00032,0.0,0.0
16.126,3089.439,0.00032,0.0,0.0
16.132,3092.569,0.00032,0.0,0.0
16.139,3093.493,0.00032,0.0,0.0
16.145,3093.023,0.00032,0.0,0.0
16.151,3097.719,0.00032,0.0,0.0
16.158,3092.241,0.00032,0.0,0.0
16.164,3077.225,0.00032,0.0,0.0
16.17,3087.535,0.00032,0.0,0.0
16.177,3093.146,0.00032,0.0,0.0
16.183,3087.001,0.00032,0.0,0.0
16.189,3080.708,0.00032,0.0,0.0
16.196,3085.644,0.00032,0.0,0.0
16.202,3088.235,0.00032,0.0,0.0
16.208,3096.915,0.00032,0.0,0.0
16.214,3077.339,0.00032,0.0,0.0
16.221,3083.999,0.00032,0.0,0.0
16.227,3077.839,0.00032,0.0,0.0
16.233,3089.553,0.00032,0.0,0.0
16.24,3085.774,0.00032,0.0,0.0
16.246,3079.167,0.00032,0.0,0.0
16.252,3090.848,0.00032,0.0,0.0
16.259,3081.364,0.00032,0.0,0.0
16.265,3073.628,0.00033,0.0,0.0
16.271,3079.07,0.00032,0.0,0.0
16.278,3076.729,0.00033,0.0,0.0
16.284,3084.222,0.00032,0.0,0.0
16.29,3070.097,0.00033,0.0,0.0
16.297,3092.275,0.00032,0.0,0.0
16.303,3072.411,0.00033,0.0,0.0
16.309,3080.996,0.00032,0.0,0.0
16.316,3087.719,0.00032,0.0,0.0
16.322,3088.653,0.00032,0.0,0.0
16.328,3085.438,0.00032,0.0,0.0
16.335,3081.029,0.00032,0.0,0.0
16.341,3080.437,0.00032,0.0,0.0
16.347,3087.634,0.00032,0.0,0.0
16.354,3075.138,0.00033,0.0,0.0
16.36,3085.014,0.00032,0.0,0.0
16.366,3084.56,0.00032,0.0,0.0
16.372,3071.404,0.00033,0.0,0.0
16.379,3071.442,0.00033,0.0,0.0
16.385,3077.218,0.00032,0.0,0.0
16.391,3070.486,0.00033,0.0,0.0
16.398,3074.605,0.00033,0.0,0.0
16.404,3077.96,0.00032,0.0,0.0
16.41,3079.006,0.00032,0.0,0.0
16.417,3085.081,0.00032,0.0,0.0
16.423,3078.742,0.00032,0.0,0.0
16.429,3079.963,0.00032,0.0,0.0
16.436,3081.089,0.00032,0.0,0.0
16.442,3086.623,0.00032,0.0,0.0
16.448,3074.137,0.00033,0.0,0.0
16.455,3089.296,0.00032,0.0,0.0
16.461,3081.941,0.00032,0.0,0.0
16.467,3084.769,0.00032,0.0,0.0
16.474,3092.266,0.00032,0.0,0.0
16.48,3088.221,0.00032,0.0,0.0
16.486,3097.821,0.00032,0.0,0.0
16.493,3115.744,0.00032,0.0,0.0
16.499,3122.16,0.00032,0.0,0.0
16.505,3135.618,0.00032,0.0,0.0
16.512,3153.292,0.00032,0.0,0.0
16.518,3149.181,0.00032,0.0,0.0
16.524,3173.24,0.00032,0.0,0.0
16.53,3135.707,0.00032,0.0,0.0
16.537,3141.205,0.00032,0.0,0.0
16.543,3131.806,0.00032,0.0,0.0
16.549,3104.666,0.00032,0.0,0.0
16.556,3096.535,0.00032,0.0,0.0
16.562,3103.142,0.00032,0.0,0.0
16.568,3107.617,0.00032,0.0,0.0
16.575,3105.558,0.00032,0.0,0.0
16.581,3111.641,0.00032,0.0,0.0
16.587,3114.027,0.00032,0.0,0.0
16.594,3101.659,0.00032,0.0,0.0
