"x","y_obs","weight","y_calc","y_bkg"
0.8,2878.977,0.00035,0.0,0.0
0.806,3319.944,0.0003,0.0,0.0
0.813,3462.207,0.00029,0.0,0.0
0.819,3259.315,0.00031,0.0,0.0
0.825,3960.341,0.00025,0.0,0.0
0.832,3654.552,0.00027,0.0,0.0
0.838,3997.067,0.00025,0.0,0.0
0.844,4269.213,0.00023,0.0,0.0
0.851,4104.794,0.00024,0.0,0.0
0.857,4532.622,0.00022,0.0,0.0
0.863,4927.576,0.0002,0.0,0.0
0.87,4498.801,0.00022,0.0,0.0
0.876,5323.367,0.00019,0.0,0.0
0.882,5176.166,0.00019,0.0,0.0
0.888,5425.506,0.00018,0.0,0.0
0.895,5608.61,0.00018,0.0,0.0
0.901,5720.169,0.00017,0.0,0.0
0.907,6077.963,0.00016,0.0,0.0
0.914,6312.03,0.00016,0.0,0.0
0.92,5967.242,0.00017,0.0,0.0
0.926,6555.503,0.00015,0.0,0.0
0.933,6571.852,0.00015,0.0,0.0
0.939,6362.77,0.00016,0.0,0.0
0.945,6957.289,0.00014,0.0,0.0
0.952,6619.243,0.00015,0.0,0.0
0.958,6897.398,0.00014,0.0,0.0
0.964,6961.686,0.00014,0.0,0.0
0.971,6674.499,0.00015,0.0,0.0
0.977,7140.001,0.00014,0.0,0.0
0.983,7100.231,0.00014,0.0,0.0
0.99,6897.196,0.00014,0.0,0.0
0.996,7270.678,0.00014,0.0,0.0
1.002,6985.071,0.00014,0.0,0.0
1.009,7166.578,0.00014,0.0,0.0
1.015,7299.321,0.00014,0.0,0.0
1.021,7035.258,0.00014,0.0,0.0
1.028,7308.454,0.00014,0.0,0.0
1.034,7156.578,0.00014,0.0,0.0
1.04,7138.906,0.00014,0.0,0.0
1.046,7246.95,0.00014,0.0,0.0
1.053,7210.49,0.00014,0.0,0.0
1.059,7134.841,0.00014,0.0,0.0
1.065,7199.428,0.00014,0.0,0.0
1.072,7019.681,0.00014,0.0,0.0
1.078,7135.945,0.00014,0.0,0.0
1.084,6976.062,0.00014,0.0,0.0
1.091,7041.902,0.00014,0.0,0.0
1.097,7050.297,0.00014,0.0,0.0
1.103,6967.144,0.00014,0.0,0.0
1.11,6996.648,0.00014,0.0,0.0
1.116,6972.517,0.00014,0.0,0.0
1.122,6882.486,0.00015,0.0,0.0
1.129,6886.209,0.00015,0.0,0.0
1.135,6826.611,0.00015,0.0,0.0
1.141,6758.668,0.00015,0.0,0.0
1.148,6806.223,0.00015,0.0,0.0
1.154,6668.424,0.00015,0.0,0.0
1.16,6690.311,0.00015,0.0,0.0
1.167,6606.506,0.00015,0.0,0.0
1.173,6588.875,0.00015,0.0,0.0
1.179,6563.223,0.00015,0.0,0.0
1.186,6467.396,0.00015,0.0,0.0
1.192,6474.225,0.00015,0.0,0.0
1.198,6379.533,0.00016,0.0,0.0
1.204,6346.481,0.00016,0.0,0.0
1.211,6376.717,0.00016,0.0,0.0
1.217,6257.859,0.00016,0.0,0.0
1.223,6267.915,0.00016,0.0,0.0
1.23,6240.382,0.00016,0.0,0.0
1.236,6204.336,0.00016,0.0,0.0
1.242,6133.123,0.00016,0.0,0.0
1.249,6159.083,0.00016,0.0,0.0
1.255,6121.287,0.00016,0.0,0.0
1.261,6066.537,0.00016,0.0,0.0
1.268,6058.607,0.00017,0.0,0.0
1.274,5980.924,0.00017,0.0,0.0
1.28,5998.827,0.00017,0.0,0.0
1.287,5951.018,0.00017,0.0,0.0
1.293,5935.405,0.00017,0.0,0.0
1.299,5894.511,0.00017,0.0,0.0
1.306,5875.909,0.00017,0.0,0.0
1.312,5888.883,0.00017,0.0,0.0
1.318,5858.433,0.00017,0.0,0.0
1.325,5828.275,0.00017,0.0,0.0
1.331,5827.466,0.00017,0.0,0.0
1.337,5781.448,0.00017,0.0,0.0
1.344,5771.748,0.00017,0.0,0.0
1.35,5773.369,0.00017,0.0,0.0
1.356,5734.341,0.00017,0.0,0.0
1.362,5691.394,0.00018,0.0,0.0
1.369,5724.673,0.00017,0.0,0.0
1.375,5682.876,0.00018,0.0,0.0
1.381,5714.376,0.00017,0.0,0.0
1.388,5731.7,0.00017,0.0,0.0
1.394,5636.312,0.00018,0.0,0.0
1.4,5695.581,0.00018,0.0,0.0
1.407,5604.555,0.00018,0.0,0.0
1.413,5695.583,0.00018,0.0,0.0
1.419,5593.974,0.00018,0.0,0.0
1.426,5610.784,0.00018,0.0,0.0
1.432,5622.419,0.00018,0.0,0.0
1.438,5611.417,0.00018,0.0,0.0
1.445,5582.215,0.00018,0.0,0.0
1.451,5604.243,0.00018,0.0,0.0
1.457,5597.906,0.00018,0.0,0.0
1.464,5611.434,0.00018,0.0,0.0
1.47,5599.705,0.00018,0.0,0.0
1.476,5553.209,0.00018,0.0,0.0
1.483,5625.489,0.00018,0.0,0.0
1.489,5550.885,0.00018,0.0,0.0
1.495,5569.027,0.00018,0.0,0.0
1.502,5555.029,0.00018,0.0,0.0
1.508,5577.584,0.00018,0.0,0.0
1.514,5551.513,0.00018,0.0,0.0
1.52,5560.515,0.00018,0.0,0.0
1.527,5594.575,0.00018,0.0,0.0
1.533,5589.657,0.00018,0.0,0.0
1.539,5569.201,0.00018,0.0,0.0
1.546,5590.894,0.00018,0.0,0.0
1.552,5606.071,0.00018,0.0,0.0
1.558,5614.325,0.00018,0.0,0.0
1.565,5618.514,0.00018,0.0,0.0
1.571,5594.351,0.00018,0.0,0.0
1.577,5597.593,0.00018,0.0,0.0
1.584,5620.183,0.00018,0.0,0.0
1.59,5664.772,0.00018,0.0,0.0
1.596,5635.034,0.00018,0.0,0.0
1.603,5651.65,0.00018,0.0,0.0
1.609,5651.234,0.00018,0.0,0.0
1.615,5694.997,0.00018,0.0,0.0
1.622,5666.626,0.00018,0.0,0.0
1.628,5686.447,0.00018,0.0,0.0
1.634,5726.329,0.00017,0.0,0.0
1.641,5691.156,0.00018,0.0,0.0
1.647,5712.458,0.00018,0.0,0.0
1.653,5752.129,0.00017,0.0,0.0
1.66,5741.983,0.00017,0.0,0.0
1.666,5750.762,0.00017,0.0,0.0
1.672,5763.632,0.00017,0.0,0.0
1.678,5767.397,0.00017,0.0,0.0
1.685,5791.057,0.00017,0.0,0.0
1.691,5799.504,0.00017,0.0,0.0
1.697,5811.751,0.00017,0.0,0.0
1.704,5804.537,0.00017,0.0,0.0
1.71,5806.287,0.00017,0.0,0.0
1.716,5838.598,0.00017,0.0,0.0
1.723,5874.334,0.00017,0.0,0.0
1.729,5867.03,0.00017,0.0,0.0
1.735,5889.693,0.00017,0.0,0.0
1.742,5891.901,0.00017,0.0,0.0
1.748,5890.701,0.00017,0.0,0.0
1.754,5886.871,0.00017,0.0,0.0
1.761,5935.406,0.00017,0.0,0.0
1.767,5909.328,0.00017,0.0,0.0
1.773,5908.056,0.00017,0.0,0.0
1.78,5954.079,0.00017,0.0,0.0
1.786,5975.96,0.00017,0.0,0.0
1.792,5950.656,0.00017,0.0,0.0
1.799,5957.95,0.00017,0.0,0.0
1.805,5962.45,0.00017,0.0,0.0
1.811,5960.933,0.00017,0.0,0.0
1.818,5975.136,0.00017,0.0,0.0
1.824,5981.794,0.00017,0.0,0.0
1.83,5980.246,0.00017,0.0,0.0
1.836,5954.602,0.00017,0.0,0.0
1.843,5981.318,0.00017,0.0,0.0
1.849,6010.166,0.00017,0.0,0.0
1.855,6017.584,0.00017,0.0,0.0
1.862,6015.344,0.00017,0.0,0.0
1.868,5990.284,0.00017,0.0,0.0
1.874,6005.876,0.00017,0.0,0.0
1.881,5991.412,0.00017,0.0,0.0
1.887,6016.902,0.00017,0.0,0.0
1.893,5998.097,0.00017,0.0,0.0
1.9,6004.889,0.00017,0.0,0.0
1.906,5959.949,0.00017,0.0,0.0
1.912,5983.676,0.00017,0.0,0.0
1.919,5990.427,0.00017,0.0,0.0
1.925,6014.346,0.00017,0.0,0.0
1.931,5969.491,0.00017,0.0,0.0
1.938,5977.855,0.00017,0.0,0.0
1.944,5980.542,0.00017,0.0,0.0
1.95,5973.06,0.00017,0.0,0.0
1.957,5996.596,0.00017,0.0,0.0
1.963,6004.884,0.00017,0.0,0.0
1.969,5985.508,0.00017,0.0,0.0
1.976,5967.487,0.00017,0.0,0.0
1.982,6003.302,0.00017,0.0,0.0
1.988,5985.239,0.00017,0.0,0.0
1.994,6003.839,0.00017,0.0,0.0
2.001,5970.325,0.00017,0.0,0.0
2.007,6010.243,0.00017,0.0,0.0
2.013,5950.153,0.00017,0.0,0.0
2.02,5954.294,0.00017,0.0,0.0
2.026,5962.088,0.00017,0.0,0.0
2.032,6013.649,0.00017,0.0,0.0
2.039,5993.905,0.00017,0.0,0.0
2.045,6005.889,0.00017,0.0,0.0
2.051,5986.997,0.00017,0.0,0.0
2.058,5998.07,0.00017,0.0,0.0
2.064,5977.492,0.00017,0.0,0.0
2.07,6012.106,0.00017,0.0,0.0
2.077,6022.686,0.00017,0.0,0.0
2.083,5988.924,0.00017,0.0,0.0
2.089,6012.903,0.00017,0.0,0.0
2.096,6021.377,0.00017,0.0,0.0
2.102,6017.158,0.00017,0.0,0.0
2.108,6051.285,0.00017,0.0,0.0
2.115,6018.153,0.00017,0.0,0.0
2.121,6048.749,0.00017,0.0,0.0
2.127,6070.231,0.00016,0.0,0.0
2.134,6071.855,0.00016,0.0,0.0
2.14,6098.902,0.00016,0.0,0.0
2.146,6090.497,0.00016,0.0,0.0
2.152,6112.837,0.00016,0.0,0.0
2.159,6091.873,0.00016,0.0,0.0
2.165,6103.697,0.00016,0.0,0.0
2.171,6104.479,0.00016,0.0,0.0
2.178,6136.761,0.00016,0.0,0.0
2.184,6113.24,0.00016,0.0,0.0
2.19,6154.079,0.00016,0.0,0.0
2.197,6174.354,0.00016,0.0,0.0
2.203,6157.163,0.00016,0.0,0.0
2.209,6145.491,0.00016,0.0,0.0
2.216,6160.634,0.00016,0.0,0.0
2.222,6195.492,0.00016,0.0,0.0
2.228,6252.779,0.00016,0.0,0.0
2.235,6217.614,0.00016,0.0,0.0
2.241,6208.016,0.00016,0.0,0.0
2.247,6263.303,0.00016,0.0,0.0
2.254,6276.757,0.00016,0.0,0.0
2.26,6286.254,0.00016,0.0,0.0
2.266,6309.092,0.00016,0.0,0.0
2.273,6319.484,0.00016,0.0,0.0
2.279,6316.925,0.00016,0.0,0.0
2.285,6344.929,0.00016,0.0,0.0
2.292,6363.524,0.00016,0.0,0.0
2.298,6386.79,0.00016,0.0,0.0
2.304,6380.324,0.00016,0.0,0.0
2.31,6402.267,0.00016,0.0,0.0
2.317,6422.705,0.00016,0.0,0.0
2.323,6433.582,0.00016,0.0,0.0
2.329,6460.922,0.00015,0.0,0.0
2.336,6490.653,0.00015,0.0,0.0
2.342,6500.067,0.00015,0.0,0.0
2.348,6513.383,0.00015,0.0,0.0
2.355,6535.224,0.00015,0.0,0.0
2.361,6558.917,0.00015,0.0,0.0
2.367,6592.229,0.00015,0.0,0.0
2.374,6592.089,0.00015,0.0,0.0
2.38,6654.983,0.00015,0.0,0.0
2.386,6689.15,0.00015,0.0,0.0
2.393,6731.792,0.00015,0.0,0.0
2.399,6791.396,0.00015,0.0,0.0
2.405,6891.007,0.00015,0.0,0.0
2.412,6978.899,0.00014,0.0,0.0
2.418,7085.077,0.00014,0.0,0.0
2.424,7184.34,0.00014,0.0,0.0
2.431,7243.435,0.00014,0.0,0.0
2.437,7194.962,0.00014,0.0,0.0
2.443,7111.419,0.00014,0.0,0.0
2.45,7064.016,0.00014,0.0,0.0
2.456,7015.561,0.00014,0.0,0.0
2.462,7027.679,0.00014,0.0,0.0
2.468,6980.476,0.00014,0.0,0.0
2.475,6983.347,0.00014,0.0,0.0
2.481,6984.583,0.00014,0.0,0.0
2.487,7032.438,0.00014,0.0,0.0
2.494,7059.373,0.00014,0.0,0.0
2.5,7033.704,0.00014,0.0,0.0
2.506,7057.068,0.00014,0.0,0.0
2.513,7100.462,0.00014,0.0,0.0
2.519,7107.588,0.00014,0.0,0.0
2.525,7159.885,0.00014,0.0,0.0
2.532,7171.693,0.00014,0.0,0.0
2.538,7206.68,0.00014,0.0,0.0
2.544,7212.083,0.00014,0.0,0.0
2.551,7245.59,0.00014,0.0,0.0
2.557,7262.625,0.00014,0.0,0.0
2.563,7279.134,0.00014,0.0,0.0
2.57,7314.445,0.00014,0.0,0.0
2.576,7346.376,0.00014,0.0,0.0
2.582,7376.169,0.00014,0.0,0.0
2.589,7388.833,0.00014,0.0,0.0
2.595,7413.376,0.00013,0.0,0.0
2.601,7429.97,0.00013,0.0,0.0
2.608,7477.761,0.00013,0.0,0.0
2.614,7505.189,0.00013,0.0,0.0
2.62,7515.087,0.00013,0.0,0.0
2.626,7543.38,0.00013,0.0,0.0
2.633,7552.827,0.00013,0.0,0.0
2.639,7582.92,0.00013,0.0,0.0
2.645,7617.71,0.00013,0.0,0.0
2.652,7599.175,0.00013,0.0,0.0
2.658,7656.233,0.00013,0.0,0.0
2.664,7679.686,0.00013,0.0,0.0
2.671,7707.243,0.00013,0.0,0.0
2.677,7740.82,0.00013,0.0,0.0
2.683,7749.315,0.00013,0.0,0.0
2.69,7775.504,0.00013,0.0,0.0
2.696,7790.264,0.00013,0.0,0.0
2.702,7820.487,0.00013,0.0,0.0
2.709,7855.675,0.00013,0.0,0.0
2.715,7865.324,0.00013,0.0,0.0
2.721,7896.34,0.00013,0.0,0.0
2.728,7934.294,0.00013,0.0,0.0
2.734,7944.513,0.00013,0.0,0.0
2.74,7998.302,0.00013,0.0,0.0
2.747,8001.472,0.00012,0.0,0.0
2.753,8010.865,0.00012,0.0,0.0
2.759,8086.515,0.00012,0.0,0.0
2.766,8058.076,0.00012,0.0,0.0
2.772,8110.41,0.00012,0.0,0.0
2.778,8171.601,0.00012,0.0,0.0
2.784,8142.781,0.00012,0.0,0.0
2.791,8194.52,0.00012,0.0,0.0
2.797,8208.606,0.00012,0.0,0.0
2.803,8226.253,0.00012,0.0,0.0
2.81,8266.492,0.00012,0.0,0.0
2.816,8279.291,0.00012,0.0,0.0
2.822,8306.014,0.00012,0.0,0.0
2.829,8317.998,0.00012,0.0,0.0
2.835,8363.263,0.00012,0.0,0.0
2.841,8369.092,0.00012,0.0,0.0
2.848,8438.349,0.00012,0.0,0.0
2.854,8448.619,0.00012,0.0,0.0
2.86,8483.849,0.00012,0.0,0.0
2.867,8522.716,0.00012,0.0,0.0
2.873,8530.092,0.00012,0.0,0.0
2.879,8541.215,0.00012,0.0,0.0
2.886,8592.594,0.00012,0.0,0.0
2.892,8590.19,0.00012,0.0,0.0
2.898,8623.83,0.00012,0.0,0.0
2.905,8656.698,0.00012,0.0,0.0
2.911,8657.429,0.00012,0.0,0.0
2.917,8679.266,0.00012,0.0,0.0
2.924,8682.724,0.00012,0.0,0.0
2.93,8709.394,0.00011,0.0,0.0
2.936,8733.786,0.00011,0.0,0.0
2.942,8770.24,0.00011,0.0,0.0
2.949,8776.31,0.00011,0.0,0.0
2.955,8791.69,0.00011,0.0,0.0
2.961,8827.753,0.00011,0.0,0.0
2.968,8858.353,0.00011,0.0,0.0
2.974,8846.169,0.00011,0.0,0.0
2.98,8875.476,0.00011,0.0,0.0
2.987,8879.47,0.00011,0.0,0.0
2.993,8903.126,0.00011,0.0,0.0
2.999,8951.593,0.00011,0.0,0.0
3.006,8932.331,0.00011,0.0,0.0
3.012,8947.718,0.00011,0.0,0.0
3.018,8959.455,0.00011,0.0,0.0
3.025,8981.029,0.00011,0.0,0.0
3.031,8979.0,0.00011,0.0,0.0
3.037,8969.759,0.00011,0.0,0.0
3.044,9021.099,0.00011,0.0,0.0
3.05,9009.713,0.00011,0.0,0.0
3.056,9036.28,0.00011,0.0,0.0
3.063,9013.193,0.00011,0.0,0.0
3.069,9015.938,0.00011,0.0,0.0
3.075,9023.665,0.00011,0.0,0.0
3.082,9023.544,0.00011,0.0,0.0
3.088,9028.469,0.00011,0.0,0.0
3.094,9063.395,0.00011,0.0,0.0
3.1,9018.533,0.00011,0.0,0.0
3.107,9045.918,0.00011,0.0,0.0
3.113,9037.431,0.00011,0.0,0.0
3.119,9041.749,0.00011,0.0,0.0
3.126,9032.312,0.00011,0.0,0.0
3.132,9004.925,0.00011,0.0,0.0
3.138,9023.358,0.00011,0.0,0.0
3.145,9024.227,0.00011,0.0,0.0
3.151,9023.802,0.00011,0.0,0.0
3.157,8998.541,0.00011,0.0,0.0
3.164,8992.822,0.00011,0.0,0.0
3.17,8981.98,0.00011,0.0,0.0
3.176,8957.468,0.00011,0.0,0.0
3.183,8977.774,0.00011,0.0,0.0
3.189,8954.239,0.00011,0.0,0.0
3.195,8963.935,0.00011,0.0,0.0
3.202,8984.786,0.00011,0.0,0.0
3.208,8931.152,0.00011,0.0,0.0
3.214,8937.024,0.00011,0.0,0.0
3.221,8920.057,0.00011,0.0,0.0
3.227,8912.869,0.00011,0.0,0.0
3.233,8904.983,0.00011,0.0,0.0
3.24,8901.154,0.00011,0.0,0.0
3.246,8891.052,0.00011,0.0,0.0
3.252,8870.585,0.00011,0.0,0.0
3.258,8875.353,0.00011,0.0,0.0
3.265,8834.454,0.00011,0.0,0.0
3.271,8853.123,0.00011,0.0,0.0
3.277,8826.049,0.00011,0.0,0.0
3.284,8777.632,0.00011,0.0,0.0
3.29,8795.656,0.00011,0.0,0.0
3.296,8737.926,0.00011,0.0,0.0
3.303,8760.646,0.00011,0.0,0.0
3.309,8732.28,0.00011,0.0,0.0
3.315,8722.52,0.00011,0.0,0.0
3.322,8711.25,0.00011,0.0,0.0
3.328,8712.541,0.00011,0.0,0.0
3.334,8692.931,0.00012,0.0,0.0
3.341,8671.046,0.00012,0.0,0.0
3.347,8680.314,0.00012,0.0,0.0
3.353,8666.525,0.00012,0.0,0.0
3.36,8650.93,0.00012,0.0,0.0
3.366,8610.752,0.00012,0.0,0.0
3.372,8614.054,0.00012,0.0,0.0
3.379,8581.273,0.00012,0.0,0.0
3.385,8571.868,0.00012,0.0,0.0
3.391,8564.591,0.00012,0.0,0.0
3.398,8531.102,0.00012,0.0,0.0
3.404,8537.191,0.00012,0.0,0.0
3.41,8542.305,0.00012,0.0,0.0
3.416,8502.808,0.00012,0.0,0.0
3.423,8523.975,0.00012,0.0,0.0
3.429,8520.5,0.00012,0.0,0.0
3.435,8494.42,0.00012,0.0,0.0
3.442,8516.935,0.00012,0.0,0.0
3.448,8486.772,0.00012,0.0,0.0
3.454,8484.797,0.00012,0.0,0.0
3.461,8448.395,0.00012,0.0,0.0
3.467,8421.4,0.00012,0.0,0.0
3.473,8417.9,0.00012,0.0,0.0
3.48,8413.879,0.00012,0.0,0.0
3.486,8394.303,0.00012,0.0,0.0
3.492,8393.667,0.00012,0.0,0.0
3.499,8349.306,0.00012,0.0,0.0
3.505,8372.178,0.00012,0.0,0.0
3.511,8347.791,0.00012,0.0,0.0
3.518,8371.249,0.00012,0.0,0.0
3.524,8397.377,0.00012,0.0,0.0
3.53,8348.209,0.00012,0.0,0.0
3.537,8342.523,0.00012,0.0,0.0
3.543,8320.255,0.00012,0.0,0.0
3.549,8318.71,0.00012,0.0,0.0
3.556,8311.074,0.00012,0.0,0.0
3.562,8311.935,0.00012,0.0,0.0
3.568,8325.966,0.00012,0.0,0.0
3.574,8316.833,0.00012,0.0,0.0
3.581,8319.805,0.00012,0.0,0.0
3.587,8301.39,0.00012,0.0,0.0
3.593,8319.223,0.00012,0.0,0.0
3.6,8329.758,0.00012,0.0,0.0
3.606,8322.367,0.00012,0.0,0.0
3.612,8301.897,0.00012,0.0,0.0
3.619,8311.668,0.00012,0.0,0.0
3.625,8311.208,0.00012,0.0,0.0
3.631,8300.999,0.00012,0.0,0.0
3.638,8285.614,0.00012,0.0,0.0
3.644,8305.03,0.00012,0.0,0.0
3.65,8308.031,0.00012,0.0,0.0
3.657,8293.779,0.00012,0.0,0.0
3.663,8292.404,0.00012,0.0,0.0
3.669,8291.586,0.00012,0.0,0.0
3.676,8305.261,0.00012,0.0,0.0
3.682,8285.775,0.00012,0.0,0.0
3.688,8299.893,0.00012,0.0,0.0
3.695,8287.748,0.00012,0.0,0.0
3.701,8290.194,0.00012,0.0,0.0
3.707,8282.739,0.00012,0.0,0.0
3.714,8292.308,0.00012,0.0,0.0
3.72,8293.237,0.00012,0.0,0.0
3.726,8303.472,0.00012,0.0,0.0
3.732,8284.973,0.00012,0.0,0.0
3.739,8314.199,0.00012,0.0,0.0
3.745,8300.87,0.00012,0.0,0.0
3.751,8288.534,0.00012,0.0,0.0
3.758,8285.861,0.00012,0.0,0.0
3.764,8282.361,0.00012,0.0,0.0
3.77,8306.434,0.00012,0.0,0.0
3.777,8311.199,0.00012,0.0,0.0
3.783,8307.941,0.00012,0.0,0.0
3.789,8294.071,0.00012,0.0,0.0
3.796,8305.372,0.00012,0.0,0.0
3.802,8294.108,0.00012,0.0,0.0
3.808,8355.921,0.00012,0.0,0.0
3.815,8311.046,0.00012,0.0,0.0
3.821,8292.817,0.00012,0.0,0.0
3.827,8285.725,0.00012,0.0,0.0
3.834,8287.113,0.00012,0.0,0.0
3.84,8291.425,0.00012,0.0,0.0
3.846,8282.745,0.00012,0.0,0.0
3.853,8252.704,0.00012,0.0,0.0
3.859,8279.289,0.00012,0.0,0.0
3.865,8282.714,0.00012,0.0,0.0
3.872,8267.2,0.00012,0.0,0.0
3.878,8283.647,0.00012,0.0,0.0
3.884,8264.381,0.00012,0.0,0.0
3.89,8259.747,0.00012,0.0,0.0
3.897,8271.157,0.00012,0.0,0.0
3.903,8256.073,0.00012,0.0,0.0
3.909,8251.029,0.00012,0.0,0.0
3.916,8263.681,0.00012,0.0,0.0
3.922,8242.617,0.00012,0.0,0.0
3.928,8243.82,0.00012,0.0,0.0
3.935,8234.572,0.00012,0.0,0.0
3.941,8241.163,0.00012,0.0,0.0
3.947,8365.814,0.00012,0.0,0.0
3.954,8256.799,0.00012,0.0,0.0
3.96,8238.97,0.00012,0.0,0.0
3.966,8364.316,0.00012,0.0,0.0
3.973,8260.244,0.00012,0.0,0.0
3.979,8243.881,0.00012,0.0,0.0
3.985,8246.396,0.00012,0.0,0.0
3.992,8212.396,0.00012,0.0,0.0
3.998,8215.054,0.00012,0.0,0.0
4.004,8192.507,0.00012,0.0,0.0
4.011,8224.089,0.00012,0.0,0.0
4.017,8186.918,0.00012,0.0,0.0
4.023,8207.339,0.00012,0.0,0.0
4.03,8195.022,0.00012,0.0,0.0
4.036,8220.822,0.00012,0.0,0.0
4.042,8229.346,0.00012,0.0,0.0
4.048,8212.847,0.00012,0.0,0.0
4.055,8204.465,0.00012,0.0,0.0
4.061,8242.669,0.00012,0.0,0.0
4.067,8244.731,0.00012,0.0,0.0
4.074,8235.613,0.00012,0.0,0.0
4.08,8232.811,0.00012,0.0,0.0
4.086,8233.539,0.00012,0.0,0.0
4.093,8264.525,0.00012,0.0,0.0
4.099,8261.221,0.00012,0.0,0.0
4.105,8278.57,0.00012,0.0,0.0
4.112,8310.532,0.00012,0.0,0.0
4.118,8313.631,0.00012,0.0,0.0
4.124,8309.483,0.00012,0.0,0.0
4.131,8341.192,0.00012,0.0,0.0
4.137,8329.492,0.00012,0.0,0.0
4.143,8379.164,0.00012,0.0,0.0
4.15,8381.62,0.00012,0.0,0.0
4.156,8389.892,0.00012,0.0,0.0
4.162,8428.929,0.00012,0.0,0.0
4.169,8397.55,0.00012,0.0,0.0
4.175,8438.636,0.00012,0.0,0.0
4.181,8459.253,0.00012,0.0,0.0
4.188,8478.481,0.00012,0.0,0.0
4.194,8518.515,0.00012,0.0,0.0
4.2,8540.931,0.00012,0.0,0.0
4.206,8531.99,0.00012,0.0,0.0
4.213,8620.579,0.00012,0.0,0.0
4.219,8635.137,0.00012,0.0,0.0
4.225,8645.842,0.00012,0.0,0.0
4.232,8645.401,0.00012,0.0,0.0
4.238,8641.365,0.00012,0.0,0.0
4.244,8694.803,0.00012,0.0,0.0
4.251,8695.409,0.00012,0.0,0.0
4.257,8706.267,0.00011,0.0,0.0
4.263,8822.474,0.00011,0.0,0.0
4.27,8777.021,0.00011,0.0,0.0
4.276,8911.966,0.00011,0.0,0.0
4.282,8898.417,0.00011,0.0,0.0
4.289,8887.815,0.00011,0.0,0.0
4.295,9000.979,0.00011,0.0,0.0
4.301,8964.427,0.00011,0.0,0.0
4.308,9046.252,0.00011,0.0,0.0
4.314,9096.7,0.00011,0.0,0.0
4.32,9107.511,0.00011,0.0,0.0
4.327,9165.019,0.00011,0.0,0.0
4.333,9180.236,0.00011,0.0,0.0
4.339,9212.873,0.00011,0.0,0.0
4.346,9406.04,0.00011,0.0,0.0
4.352,9327.89,0.00011,0.0,0.0
4.358,9498.631,0.00011,0.0,0.0
4.364,9522.764,0.00011,0.0,0.0
4.371,9406.38,0.00011,0.0,0.0
4.377,9826.436,0.0001,0.0,0.0
4.383,9639.573,0.0001,0.0,0.0
4.39,9803.349,0.0001,0.0,0.0
4.396,9929.532,0.0001,0.0,0.0
4.402,9855.152,0.0001,0.0,0.0
4.409,9981.793,0.0001,0.0,0.0
4.415,10197.059,0.0001,0.0,0.0
4.421,10176.656,0.0001,0.0,0.0
4.428,10501.042,0.0001,0.0,0.0
4.434,10393.209,0.0001,0.0,0.0
4.44,10524.253,0.0001,0.0,0.0
4.447,10784.327,0.00009,0.0,0.0
4.453,10723.998,0.00009,0.0,0.0
4.459,11258.131,0.00009,0.0,0.0
4.466,11342.303,0.00009,0.0,0.0
4.472,11383.979,0.00009,0.0,0.0
4.478,12081.705,0.00008,0.0,0.0
4.485,11987.805,0.00008,0.0,0.0
4.491,12533.22,0.00008,0.0,0.0
4.497,13939.2,0.00007,0.0,0.0
4.504,13448.05,0.00007,0.0,0.0
4.51,16805.556,0.00006,0.0,0.0
4.516,17531.952,0.00006,0.0,0.0
4.522,20133.142,0.00005,0.0,0.0
4.529,32576.639,0.00003,0.0,0.0
4.535,39310.389,0.00003,0.0,0.0
4.541,54218.404,0.00002,0.0,0.0
4.548,90091.99,0.00001,0.0,0.0
4.554,72646.948,0.00001,0.0,0.0
4.56,96965.391,0.00001,0.0,0.0
4.567,88448.396,0.00001,0.0,0.0
4.573,79950.258,0.00001,0.0,0.0
4.579,72427.228,0.00001,0.0,0.0
4.586,48833.409,0.00002,0.0,0.0
4.592,46418.103,0.00002,0.0,0.0
4.598,27184.299,0.00004,0.0,0.0
4.605,26298.212,0.00004,0.0,0.0
4.611,18384.662,0.00005,0.0,0.0
4.617,16666.826,0.00006,0.0,0.0
4.624,14313.278,0.00007,0.0,0.0
4.63,14195.831,0.00007,0.0,0.0
4.636,12597.541,0.00008,0.0,0.0
4.643,12482.781,0.00008,0.0,0.0
4.649,11977.42,0.00008,0.0,0.0
4.655,11558.294,0.00009,0.0,0.0
4.662,11763.921,0.00009,0.0,0.0
4.668,11168.162,0.00009,0.0,0.0
4.674,10863.501,0.00009,0.0,0.0
4.68,11100.655,0.00009,0.0,0.0
4.687,10527.184,0.00009,0.0,0.0
4.693,10645.081,0.00009,0.0,0.0
4.699,10522.88,0.0001,0.0,0.0
4.706,10161.762,0.0001,0.0,0.0
4.712,10377.228,0.0001,0.0,0.0
4.718,10065.1,0.0001,0.0,0.0
4.725,9873.8,0.0001,0.0,0.0
4.731,10133.694,0.0001,0.0,0.0
4.737,9718.109,0.0001,0.0,0.0
4.744,9804.53,0.0001,0.0,0.0
4.75,9684.001,0.0001,0.0,0.0
4.756,9556.01,0.0001,0.0,0.0
4.763,9532.79,0.0001,0.0,0.0
4.769,9413.227,0.00011,0.0,0.0
4.775,9364.446,0.00011,0.0,0.0
4.782,9361.644,0.00011,0.0,0.0
4.788,9194.099,0.00011,0.0,0.0
4.794,9124.704,0.00011,0.0,0.0
4.801,9131.356,0.00011,0.0,0.0
4.807,8963.095,0.00011,0.0,0.0
4.813,9067.169,0.00011,0.0,0.0
4.82,8909.902,0.00011,0.0,0.0
4.826,8935.361,0.00011,0.0,0.0
4.832,8985.915,0.00011,0.0,0.0
4.838,8904.455,0.00011,0.0,0.0
4.845,8937.197,0.00011,0.0,0.0
4.851,9066.345,0.00011,0.0,0.0
4.857,9082.228,0.00011,0.0,0.0
4.864,9080.804,0.00011,0.0,0.0
4.87,8979.882,0.00011,0.0,0.0
4.876,8810.233,0.00011,0.0,0.0
4.883,8726.649,0.00011,0.0,0.0
4.889,8512.628,0.00012,0.0,0.0
4.895,8426.729,0.00012,0.0,0.0
4.902,8354.678,0.00012,0.0,0.0
4.908,8259.795,0.00012,0.0,0.0
4.914,8242.444,0.00012,0.0,0.0
4.921,8147.198,0.00012,0.0,0.0
4.927,8142.424,0.00012,0.0,0.0
4.933,8099.506,0.00012,0.0,0.0
4.94,8055.733,0.00012,0.0,0.0
4.946,8006.609,0.00012,0.0,0.0
4.952,7998.33,0.00013,0.0,0.0
4.959,7902.763,0.00013,0.0,0.0
4.965,7915.074,0.00013,0.0,0.0
4.971,7842.367,0.00013,0.0,0.0
4.978,7808.173,0.00013,0.0,0.0
4.984,7851.632,0.00013,0.0,0.0
4.99,7744.716,0.00013,0.0,0.0
4.996,7727.93,0.00013,0.0,0.0
5.003,7718.515,0.00013,0.0,0.0
5.009,7631.598,0.00013,0.0,0.0
5.015,7699.144,0.00013,0.0,0.0
5.022,7591.441,0.00013,0.0,0.0
5.028,7596.295,0.00013,0.0,0.0
5.034,7591.622,0.00013,0.0,0.0
5.041,7499.546,0.00013,0.0,0.0
5.047,7504.05,0.00013,0.0,0.0
5.053,7504.097,0.00013,0.0,0.0
5.06,7419.366,0.00013,0.0,0.0
5.066,7455.292,0.00013,0.0,0.0
5.072,7390.299,0.00014,0.0,0.0
5.079,7366.896,0.00014,0.0,0.0
5.085,7374.768,0.00014,0.0,0.0
5.091,7325.717,0.00014,0.0,0.0
5.098,7293.291,0.00014,0.0,0.0
5.104,7245.244,0.00014,0.0,0.0
5.11,7250.538,0.00014,0.0,0.0
5.117,7244.333,0.00014,0.0,0.0
5.123,7209.124,0.00014,0.0,0.0
5.129,7198.236,0.00014,0.0,0.0
5.136,7170.778,0.00014,0.0,0.0
5.142,7150.425,0.00014,0.0,0.0
5.148,7139.114,0.00014,0.0,0.0
5.154,7112.054,0.00014,0.0,0.0
5.161,7067.71,0.00014,0.0,0.0
5.167,7079.065,0.00014,0.0,0.0
5.173,7054.785,0.00014,0.0,0.0
5.18,7047.615,0.00014,0.0,0.0
5.186,7025.156,0.00014,0.0,0.0
5.192,6981.759,0.00014,0.0,0.0
5.199,6968.704,0.00014,0.0,0.0
5.205,6971.772,0.00014,0.0,0.0
5.211,6932.584,0.00014,0.0,0.0
5.218,6969.337,0.00014,0.0,0.0
5.224,6914.127,0.00014,0.0,0.0
5.23,6885.552,0.00015,0.0,0.0
5.237,6929.985,0.00014,0.0,0.0
5.243,6859.034,0.00015,0.0,0.0
5.249,6871.968,0.00015,0.0,0.0
5.256,6844.623,0.00015,0.0,0.0
5.262,6824.829,0.00015,0.0,0.0
5.268,6813.588,0.00015,0.0,0.0
5.275,6787.152,0.00015,0.0,0.0
5.281,6763.522,0.00015,0.0,0.0
5.287,6779.147,0.00015,0.0,0.0
5.294,6738.746,0.00015,0.0,0.0
5.3,6740.829,0.00015,0.0,0.0
5.306,6725.151,0.00015,0.0,0.0
5.312,6702.366,0.00015,0.0,0.0
5.319,6703.363,0.00015,0.0,0.0
5.325,6688.15,0.00015,0.0,0.0
5.331,6678.738,0.00015,0.0,0.0
5.338,6662.173,0.00015,0.0,0.0
5.344,6710.318,0.00015,0.0,0.0
5.35,6669.758,0.00015,0.0,0.0
5.357,6664.285,0.00015,0.0,0.0
5.363,6634.084,0.00015,0.0,0.0
5.369,6668.906,0.00015,0.0,0.0
5.376,6627.8,0.00015,0.0,0.0
5.382,6616.295,0.00015,0.0,0.0
5.388,6612.405,0.00015,0.0,0.0
5.395,6574.177,0.00015,0.0,0.0
5.401,6599.576,0.00015,0.0,0.0
5.407,6596.604,0.00015,0.0,0.0
5.414,6560.892,0.00015,0.0,0.0
5.42,6574.436,0.00015,0.0,0.0
5.426,6555.822,0.00015,0.0,0.0
5.433,6565.457,0.00015,0.0,0.0
5.439,6570.589,0.00015,0.0,0.0
5.445,6552.831,0.00015,0.0,0.0
5.452,6564.492,0.00015,0.0,0.0
5.458,6534.301,0.00015,0.0,0.0
5.464,6532.796,0.00015,0.0,0.0
5.47,6539.669,0.00015,0.0,0.0
5.477,6526.969,0.00015,0.0,0.0
5.483,6516.509,0.00015,0.0,0.0
5.489,6504.352,0.00015,0.0,0.0
5.496,6508.171,0.00015,0.0,0.0
5.502,6501.494,0.00015,0.0,0.0
5.508,6499.28,0.00015,0.0,0.0
5.515,6493.602,0.00015,0.0,0.0
5.521,6508.725,0.00015,0.0,0.0
5.527,6470.572,0.00015,0.0,0.0
5.534,6482.026,0.00015,0.0,0.0
5.54,6453.097,0.00015,0.0,0.0
5.546,6449.333,0.00016,0.0,0.0
5.553,6431.42,0.00016,0.0,0.0
5.559,6446.616,0.00016,0.0,0.0
5.565,6407.552,0.00016,0.0,0.0
5.572,6422.839,0.00016,0.0,0.0
5.578,6406.496,0.00016,0.0,0.0
5.584,6401.857,0.00016,0.0,0.0
5.591,6399.901,0.00016,0.0,0.0
5.597,6379.262,0.00016,0.0,0.0
5.603,6411.772,0.00016,0.0,0.0
5.61,6357.847,0.00016,0.0,0.0
5.616,6365.708,0.00016,0.0,0.0
5.622,6363.288,0.00016,0.0,0.0
5.628,6336.31,0.00016,0.0,0.0
5.635,6347.952,0.00016,0.0,0.0
5.641,6327.217,0.00016,0.0,0.0
5.647,6311.971,0.00016,0.0,0.0
5.654,6317.1,0.00016,0.0,0.0
5.66,6296.408,0.00016,0.0,0.0
5.666,6296.734,0.00016,0.0,0.0
5.673,6306.386,0.00016,0.0,0.0
5.679,6273.687,0.00016,0.0,0.0
5.685,6281.123,0.00016,0.0,0.0
5.692,6272.689,0.00016,0.0,0.0
5.698,6264.792,0.00016,0.0,0.0
5.704,6243.862,0.00016,0.0,0.0
5.711,6237.869,0.00016,0.0,0.0
5.717,6216.025,0.00016,0.0,0.0
5.723,6267.642,0.00016,0.0,0.0
5.73,6223.939,0.00016,0.0,0.0
5.736,6249.933,0.00016,0.0,0.0
5.742,6249.764,0.00016,0.0,0.0
5.749,6239.535,0.00016,0.0,0.0
5.755,6261.982,0.00016,0.0,0.0
5.761,6225.192,0.00016,0.0,0.0
5.768,6212.856,0.00016,0.0,0.0
5.774,6215.061,0.00016,0.0,0.0
5.78,6217.883,0.00016,0.0,0.0
5.786,6226.919,0.00016,0.0,0.0
5.793,6258.115,0.00016,0.0,0.0
5.799,6243.019,0.00016,0.0,0.0
5.805,6252.564,0.00016,0.0,0.0
5.812,6232.656,0.00016,0.0,0.0
5.818,6289.164,0.00016,0.0,0.0
5.824,6278.329,0.00016,0.0,0.0
5.831,6310.451,0.00016,0.0,0.0
5.837,6353.828,0.00016,0.0,0.0
5.843,6431.379,0.00016,0.0,0.0
5.85,6582.451,0.00015,0.0,0.0
5.856,6763.0,0.00015,0.0,0.0
5.862,7022.24,0.00014,0.0,0.0
5.869,7367.891,0.00014,0.0,0.0
5.875,7693.055,0.00013,0.0,0.0
5.881,7916.992,0.00013,0.0,0.0
5.888,7949.69,0.00013,0.0,0.0
5.894,7733.013,0.00013,0.0,0.0
5.9,7460.637,0.00013,0.0,0.0
5.907,7130.778,0.00014,0.0,0.0
5.913,6837.631,0.00015,0.0,0.0
5.919,6636.172,0.00015,0.0,0.0
5.926,6475.894,0.00015,0.0,0.0
5.932,6407.361,0.00016,0.0,0.0
5.938,6377.738,0.00016,0.0,0.0
5.944,6303.805,0.00016,0.0,0.0
5.951,6360.501,0.00016,0.0,0.0
5.957,6313.306,0.00016,0.0,0.0
5.963,6296.503,0.00016,0.0,0.0
5.97,6302.245,0.00016,0.0,0.0
5.976,6287.414,0.00016,0.0,0.0
5.982,6304.501,0.00016,0.0,0.0
5.989,6307.313,0.00016,0.0,0.0
5.995,6298.319,0.00016,0.0,0.0
6.001,6312.613,0.00016,0.0,0.0
6.008,6307.656,0.00016,0.0,0.0
6.014,6296.539,0.00016,0.0,0.0
6.02,6323.546,0.00016,0.0,0.0
6.027,6310.325,0.00016,0.0,0.0
6.033,6337.73,0.00016,0.0,0.0
6.039,6346.813,0.00016,0.0,0.0
6.046,6307.558,0.00016,0.0,0.0
6.052,6345.154,0.00016,0.0,0.0
6.058,6316.118,0.00016,0.0,0.0
6.065,6326.332,0.00016,0.0,0.0
6.071,6350.621,0.00016,0.0,0.0
6.077,6340.786,0.00016,0.0,0.0
6.084,6292.181,0.00016,0.0,0.0
6.09,6333.377,0.00016,0.0,0.0
6.096,6268.574,0.00016,0.0,0.0
6.102,6327.144,0.00016,0.0,0.0
6.109,6340.681,0.00016,0.0,0.0
6.115,6335.526,0.00016,0.0,0.0
6.121,6317.397,0.00016,0.0,0.0
6.128,6285.672,0.00016,0.0,0.0
6.134,6307.76,0.00016,0.0,0.0
6.14,6266.687,0.00016,0.0,0.0
6.147,6304.232,0.00016,0.0,0.0
6.153,6246.792,0.00016,0.0,0.0
6.159,6275.124,0.00016,0.0,0.0
6.166,6235.871,0.00016,0.0,0.0
6.172,6268.651,0.00016,0.0,0.0
6.178,6271.902,0.00016,0.0,0.0
6.185,6269.963,0.00016,0.0,0.0
6.191,6264.565,0.00016,0.0,0.0
6.197,6287.828,0.00016,0.0,0.0
6.204,6246.951,0.00016,0.0,0.0
6.21,6293.373,0.00016,0.0,0.0
6.216,6263.151,0.00016,0.0,0.0
6.223,6305.117,0.00016,0.0,0.0
6.229,6274.413,0.00016,0.0,0.0
6.235,6299.265,0.00016,0.0,0.0
6.242,6300.238,0.00016,0.0,0.0
6.248,6294.696,0.00016,0.0,0.0
6.254,6301.514,0.00016,0.0,0.0
6.26,6303.874,0.00016,0.0,0.0
6.267,6337.274,0.00016,0.0,0.0
6.273,6320.646,0.00016,0.0,0.0
6.279,6346.899,0.00016,0.0,0.0
6.286,6332.595,0.00016,0.0,0.0
6.292,6364.365,0.00016,0.0,0.0
6.298,6362.958,0.00016,0.0,0.0
6.305,6385.446,0.00016,0.0,0.0
6.311,6376.325,0.00016,0.0,0.0
6.317,6377.666,0.00016,0.0,0.0
6.324,6448.141,0.00016,0.0,0.0
6.33,6422.538,0.00016,0.0,0.0
6.336,6441.829,0.00016,0.0,0.0
6.343,6455.353,0.00015,0.0,0.0
6.349,6535.815,0.00015,0.0,0.0
6.355,6498.47,0.00015,0.0,0.0
6.362,6590.329,0.00015,0.0,0.0
6.368,6581.063,0.00015,0.0,0.0
6.374,6707.047,0.00015,0.0,0.0
6.381,6638.683,0.00015,0.0,0.0
6.387,6944.912,0.00014,0.0,0.0
6.393,6738.526,0.00015,0.0,0.0
6.4,7364.883,0.00014,0.0,0.0
6.406,7167.251,0.00014,0.0,0.0
6.412,8523.874,0.00012,0.0,0.0
6.418,11592.24,0.00009,0.0,0.0
6.425,9559.476,0.0001,0.0,0.0
6.431,17620.158,0.00006,0.0,0.0
6.437,14899.824,0.00007,0.0,0.0
6.444,21436.975,0.00005,0.0,0.0
6.45,21647.467,0.00005,0.0,0.0
6.456,20442.72,0.00005,0.0,0.0
6.463,18164.232,0.00006,0.0,0.0
6.469,21452.359,0.00005,0.0,0.0
6.475,12045.589,0.00008,0.0,0.0
6.482,12048.703,0.00008,0.0,0.0
6.488,8818.133,0.00011,0.0,0.0
6.494,8025.065,0.00012,0.0,0.0
6.501,7761.294,0.00013,0.0,0.0
6.507,7376.409,0.00014,0.0,0.0
6.513,7258.78,0.00014,0.0,0.0
6.52,7180.631,0.00014,0.0,0.0
6.526,7214.663,0.00014,0.0,0.0
6.532,7216.123,0.00014,0.0,0.0
6.539,7373.816,0.00014,0.0,0.0
6.545,7504.917,0.00013,0.0,0.0
6.551,7747.339,0.00013,0.0,0.0
6.558,8199.009,0.00012,0.0,0.0
6.564,8911.272,0.00011,0.0,0.0
6.57,10138.066,0.0001,0.0,0.0
6.576,12573.915,0.00008,0.0,0.0
6.583,16160.617,0.00006,0.0,0.0
6.589,25013.927,0.00004,0.0,0.0
6.595,41552.762,0.00002,0.0,0.0
6.602,61192.653,0.00002,0.0,0.0
6.608,92492.048,0.00001,0.0,0.0
6.614,107239.866,0.00001,0.0,0.0
6.621,114732.772,0.00001,0.0,0.0
6.627,102192.96,0.00001,0.0,0.0
6.633,74133.939,0.00001,0.0,0.0
6.64,48829.857,0.00002,0.0,0.0
6.646,31727.545,0.00003,0.0,0.0
6.652,19597.049,0.00005,0.0,0.0
6.659,14790.431,0.00007,0.0,0.0
6.665,10891.044,0.00009,0.0,0.0
6.671,9361.876,0.00011,0.0,0.0
6.678,8328.501,0.00012,0.0,0.0
6.684,7699.043,0.00013,0.0,0.0
6.69,7319.842,0.00014,0.0,0.0
6.697,7053.414,0.00014,0.0,0.0
6.703,6863.214,0.00015,0.0,0.0
6.709,6725.393,0.00015,0.0,0.0
6.716,6637.537,0.00015,0.0,0.0
6.722,6568.46,0.00015,0.0,0.0
6.728,6515.851,0.00015,0.0,0.0
6.734,6449.721,0.00016,0.0,0.0
6.741,6416.351,0.00016,0.0,0.0
6.747,6369.94,0.00016,0.0,0.0
6.753,6362.789,0.00016,0.0,0.0
6.76,6336.636,0.00016,0.0,0.0
6.766,6311.103,0.00016,0.0,0.0
6.772,6301.995,0.00016,0.0,0.0
6.779,6295.658,0.00016,0.0,0.0
6.785,6286.924,0.00016,0.0,0.0
6.791,6221.736,0.00016,0.0,0.0
6.798,6278.432,0.00016,0.0,0.0
6.804,6250.492,0.00016,0.0,0.0
6.81,6297.853,0.00016,0.0,0.0
6.817,6262.631,0.00016,0.0,0.0
6.823,6231.807,0.00016,0.0,0.0
6.829,6194.886,0.00016,0.0,0.0
6.836,6199.459,0.00016,0.0,0.0
6.842,6137.89,0.00016,0.0,0.0
6.848,6129.756,0.00016,0.0,0.0
6.855,6101.843,0.00016,0.0,0.0
6.861,6075.43,0.00016,0.0,0.0
6.867,6113.649,0.00016,0.0,0.0
6.874,6045.907,0.00017,0.0,0.0
6.88,6057.217,0.00017,0.0,0.0
6.886,6032.292,0.00017,0.0,0.0
6.892,6015.974,0.00017,0.0,0.0
6.899,6029.01,0.00017,0.0,0.0
6.905,6005.402,0.00017,0.0,0.0
6.911,5981.552,0.00017,0.0,0.0
6.918,5982.619,0.00017,0.0,0.0
6.924,5956.653,0.00017,0.0,0.0
6.93,5978.4,0.00017,0.0,0.0
6.937,5967.625,0.00017,0.0,0.0
6.943,5961.419,0.00017,0.0,0.0
6.949,5944.961,0.00017,0.0,0.0
6.956,5918.853,0.00017,0.0,0.0
6.962,5938.94,0.00017,0.0,0.0
6.968,5920.15,0.00017,0.0,0.0
6.975,5921.575,0.00017,0.0,0.0
6.981,5934.14,0.00017,0.0,0.0
6.987,5923.591,0.00017,0.0,0.0
6.994,5892.974,0.00017,0.0,0.0
7.0,5929.038,0.00017,0.0,0.0
7.006,5881.028,0.00017,0.0,0.0
7.013,5902.462,0.00017,0.0,0.0
7.019,5885.502,0.00017,0.0,0.0
7.025,5892.222,0.00017,0.0,0.0
7.032,5861.086,0.00017,0.0,0.0
7.038,5877.138,0.00017,0.0,0.0
7.044,5872.688,0.00017,0.0,0.0
7.05,5841.467,0.00017,0.0,0.0
7.057,5877.241,0.00017,0.0,0.0
7.063,5852.877,0.00017,0.0,0.0
7.069,5863.164,0.00017,0.0,0.0
7.076,5816.101,0.00017,0.0,0.0
7.082,5822.523,0.00017,0.0,0.0
7.088,5831.024,0.00017,0.0,0.0
7.095,5809.143,0.00017,0.0,0.0
7.101,5807.09,0.00017,0.0,0.0
7.107,5804.035,0.00017,0.0,0.0
7.114,5796.83,0.00017,0.0,0.0
7.12,5796.828,0.00017,0.0,0.0
7.126,5791.713,0.00017,0.0,0.0
7.133,5770.144,0.00017,0.0,0.0
7.139,5770.359,0.00017,0.0,0.0
7.145,5766.383,0.00017,0.0,0.0
7.152,5772.571,0.00017,0.0,0.0
7.158,5755.757,0.00017,0.0,0.0
7.164,5754.094,0.00017,0.0,0.0
7.171,5743.687,0.00017,0.0,0.0
7.177,5753.433,0.00017,0.0,0.0
7.183,5737.236,0.00017,0.0,0.0
7.19,5731.86,0.00017,0.0,0.0
7.196,5728.154,0.00017,0.0,0.0
7.202,5710.285,0.00018,0.0,0.0
7.208,5717.154,0.00017,0.0,0.0
7.215,5716.661,0.00017,0.0,0.0
7.221,5722.009,0.00017,0.0,0.0
7.227,5714.519,0.00017,0.0,0.0
7.234,5727.616,0.00017,0.0,0.0
7.24,5704.6,0.00018,0.0,0.0
7.246,5707.712,0.00018,0.0,0.0
7.253,5715.814,0.00017,0.0,0.0
7.259,5713.034,0.00018,0.0,0.0
7.265,5713.09,0.00018,0.0,0.0
7.272,5737.908,0.00017,0.0,0.0
7.278,5760.215,0.00017,0.0,0.0
7.284,5777.2,0.00017,0.0,0.0
7.291,5789.692,0.00017,0.0,0.0
7.297,5788.005,0.00017,0.0,0.0
7.303,5796.806,0.00017,0.0,0.0
7.31,5789.403,0.00017,0.0,0.0
7.316,5766.965,0.00017,0.0,0.0
7.322,5740.507,0.00017,0.0,0.0
7.329,5730.078,0.00017,0.0,0.0
7.335,5728.503,0.00017,0.0,0.0
7.341,5705.598,0.00018,0.0,0.0
7.348,5708.289,0.00018,0.0,0.0
7.354,5700.622,0.00018,0.0,0.0
7.36,5708.478,0.00018,0.0,0.0
7.366,5703.115,0.00018,0.0,0.0
7.373,5693.816,0.00018,0.0,0.0
7.379,5704.842,0.00018,0.0,0.0
7.385,5700.176,0.00018,0.0,0.0
7.392,5680.439,0.00018,0.0,0.0
7.398,5712.833,0.00018,0.0,0.0
7.404,5705.192,0.00018,0.0,0.0
7.411,5723.852,0.00017,0.0,0.0
7.417,5719.958,0.00017,0.0,0.0
7.423,5726.4,0.00017,0.0,0.0
7.43,5730.775,0.00017,0.0,0.0
7.436,5740.706,0.00017,0.0,0.0
7.442,5749.661,0.00017,0.0,0.0
7.449,5751.735,0.00017,0.0,0.0
7.455,5750.759,0.00017,0.0,0.0
7.461,5765.926,0.00017,0.0,0.0
7.468,5769.001,0.00017,0.0,0.0
7.474,5773.806,0.00017,0.0,0.0
7.48,5791.372,0.00017,0.0,0.0
7.487,5809.184,0.00017,0.0,0.0
7.493,5800.946,0.00017,0.0,0.0
7.499,5826.213,0.00017,0.0,0.0
7.506,5834.66,0.00017,0.0,0.0
7.512,5870.054,0.00017,0.0,0.0
7.518,5878.313,0.00017,0.0,0.0
7.524,5892.39,0.00017,0.0,0.0
7.531,5907.67,0.00017,0.0,0.0
7.537,5950.52,0.00017,0.0,0.0
7.543,5995.044,0.00017,0.0,0.0
7.55,6060.159,0.00017,0.0,0.0
7.556,6092.136,0.00016,0.0,0.0
7.562,6194.016,0.00016,0.0,0.0
7.569,6307.257,0.00016,0.0,0.0
7.575,6486.294,0.00015,0.0,0.0
7.581,6712.433,0.00015,0.0,0.0
7.588,7114.967,0.00014,0.0,0.0
7.594,7705.632,0.00013,0.0,0.0
7.6,9053.544,0.00011,0.0,0.0
7.607,10771.381,0.00009,0.0,0.0
7.613,15240.706,0.00007,0.0,0.0
7.619,19708.911,0.00005,0.0,0.0
7.626,31148.049,0.00003,0.0,0.0
7.632,37036.972,0.00003,0.0,0.0
7.638,43720.192,0.00002,0.0,0.0
7.645,46149.232,0.00002,0.0,0.0
7.651,39576.737,0.00003,0.0,0.0
7.657,35907.895,0.00003,0.0,0.0
7.664,24111.166,0.00004,0.0,0.0
7.67,18075.25,0.00006,0.0,0.0
7.676,13256.608,0.00008,0.0,0.0
7.682,10228.498,0.0001,0.0,0.0
7.689,8570.062,0.00012,0.0,0.0
7.695,7650.974,0.00013,0.0,0.0
7.701,7161.618,0.00014,0.0,0.0
7.708,6815.232,0.00015,0.0,0.0
7.714,6629.507,0.00015,0.0,0.0
7.72,6509.895,0.00015,0.0,0.0
7.727,6451.697,0.00015,0.0,0.0
7.733,6401.652,0.00016,0.0,0.0
7.739,6328.978,0.00016,0.0,0.0
7.746,6343.723,0.00016,0.0,0.0
7.752,6327.689,0.00016,0.0,0.0
7.758,6344.507,0.00016,0.0,0.0
7.765,6347.968,0.00016,0.0,0.0
7.771,6342.33,0.00016,0.0,0.0
7.777,6358.343,0.00016,0.0,0.0
7.784,6389.0,0.00016,0.0,0.0
7.79,6374.021,0.00016,0.0,0.0
7.796,6387.997,0.00016,0.0,0.0
7.803,6426.481,0.00016,0.0,0.0
7.809,6443.956,0.00016,0.0,0.0
7.815,6497.782,0.00015,0.0,0.0
7.822,6519.93,0.00015,0.0,0.0
7.828,6597.589,0.00015,0.0,0.0
7.834,6591.444,0.00015,0.0,0.0
7.84,6660.904,0.00015,0.0,0.0
7.847,6742.15,0.00015,0.0,0.0
7.853,6837.212,0.00015,0.0,0.0
7.859,6961.77,0.00014,0.0,0.0
7.866,7139.109,0.00014,0.0,0.0
7.872,7698.629,0.00013,0.0,0.0
7.878,8022.792,0.00012,0.0,0.0
7.885,10568.664,0.00009,0.0,0.0
7.891,9713.737,0.0001,0.0,0.0
7.897,14341.766,0.00007,0.0,0.0
7.904,13059.948,0.00008,0.0,0.0
7.91,18164.206,0.00006,0.0,0.0
7.916,15933.192,0.00006,0.0,0.0
7.923,13763.06,0.00007,0.0,0.0
7.929,11274.074,0.00009,0.0,0.0
7.935,9405.904,0.00011,0.0,0.0
7.942,8378.707,0.00012,0.0,0.0
7.948,7693.987,0.00013,0.0,0.0
7.954,7294.584,0.00014,0.0,0.0
7.961,7113.563,0.00014,0.0,0.0
7.967,6963.078,0.00014,0.0,0.0
7.973,6834.437,0.00015,0.0,0.0
7.98,6839.363,0.00015,0.0,0.0
7.986,6740.542,0.00015,0.0,0.0
7.992,6714.706,0.00015,0.0,0.0
7.998,6708.44,0.00015,0.0,0.0
8.005,6632.605,0.00015,0.0,0.0
8.011,6594.561,0.00015,0.0,0.0
8.017,6637.044,0.00015,0.0,0.0
8.024,6600.045,0.00015,0.0,0.0
8.03,6600.817,0.00015,0.0,0.0
8.036,6570.207,0.00015,0.0,0.0
8.043,6533.282,0.00015,0.0,0.0
8.049,6546.941,0.00015,0.0,0.0
8.055,6505.573,0.00015,0.0,0.0
8.062,6545.461,0.00015,0.0,0.0
8.068,6516.599,0.00015,0.0,0.0
8.074,6507.305,0.00015,0.0,0.0
8.081,6488.668,0.00015,0.0,0.0
8.087,6486.942,0.00015,0.0,0.0
8.093,6485.534,0.00015,0.0,0.0
8.1,6487.538,0.00015,0.0,0.0
8.106,6497.219,0.00015,0.0,0.0
8.112,6518.452,0.00015,0.0,0.0
8.119,6551.373,0.00015,0.0,0.0
8.125,6603.137,0.00015,0.0,0.0
8.131,6664.919,0.00015,0.0,0.0
8.138,6694.059,0.00015,0.0,0.0
8.144,6754.207,0.00015,0.0,0.0
8.15,6767.556,0.00015,0.0,0.0
8.156,6726.583,0.00015,0.0,0.0
8.163,6676.72,0.00015,0.0,0.0
8.169,6589.295,0.00015,0.0,0.0
8.175,6536.214,0.00015,0.0,0.0
8.182,6475.723,0.00015,0.0,0.0
8.188,6436.148,0.00016,0.0,0.0
8.194,6409.337,0.00016,0.0,0.0
8.201,6401.281,0.00016,0.0,0.0
8.207,6383.788,0.00016,0.0,0.0
8.213,6397.44,0.00016,0.0,0.0
8.22,6367.858,0.00016,0.0,0.0
8.226,6368.057,0.00016,0.0,0.0
8.232,6343.348,0.00016,0.0,0.0
8.239,6349.831,0.00016,0.0,0.0
8.245,6345.692,0.00016,0.0,0.0
8.251,6340.408,0.00016,0.0,0.0
8.258,6350.578,0.00016,0.0,0.0
8.264,6332.947,0.00016,0.0,0.0
8.27,6337.875,0.00016,0.0,0.0
8.277,6322.461,0.00016,0.0,0.0
8.283,6327.967,0.00016,0.0,0.0
8.289,6314.057,0.00016,0.0,0.0
8.296,6330.524,0.00016,0.0,0.0
8.302,6309.841,0.00016,0.0,0.0
8.308,6304.234,0.00016,0.0,0.0
8.314,6327.824,0.00016,0.0,0.0
8.321,6323.483,0.00016,0.0,0.0
8.327,6319.225,0.00016,0.0,0.0
8.333,6334.074,0.00016,0.0,0.0
8.34,6362.553,0.00016,0.0,0.0
8.346,6378.841,0.00016,0.0,0.0
8.352,6396.801,0.00016,0.0,0.0
8.359,6451.936,0.00015,0.0,0.0
8.365,6498.027,0.00015,0.0,0.0
8.371,6527.793,0.00015,0.0,0.0
8.378,6566.383,0.00015,0.0,0.0
8.384,6543.47,0.00015,0.0,0.0
8.39,6530.321,0.00015,0.0,0.0
8.397,6478.335,0.00015,0.0,0.0
8.403,6415.535,0.00016,0.0,0.0
8.409,6383.013,0.00016,0.0,0.0
8.416,6347.252,0.00016,0.0,0.0
8.422,6290.932,0.00016,0.0,0.0
8.428,6279.185,0.00016,0.0,0.0
8.435,6269.058,0.00016,0.0,0.0
8.441,6247.855,0.00016,0.0,0.0
8.447,6242.773,0.00016,0.0,0.0
8.454,6246.034,0.00016,0.0,0.0
8.46,6236.768,0.00016,0.0,0.0
8.466,6202.541,0.00016,0.0,0.0
8.472,6237.122,0.00016,0.0,0.0
8.479,6233.968,0.00016,0.0,0.0
8.485,6237.329,0.00016,0.0,0.0
8.491,6233.349,0.00016,0.0,0.0
8.498,6232.341,0.00016,0.0,0.0
8.504,6248.691,0.00016,0.0,0.0
8.51,6232.271,0.00016,0.0,0.0
8.517,6226.8,0.00016,0.0,0.0
8.523,6207.665,0.00016,0.0,0.0
8.529,6198.243,0.00016,0.0,0.0
8.536,6214.892,0.00016,0.0,0.0
8.542,6193.337,0.00016,0.0,0.0
8.548,6200.071,0.00016,0.0,0.0
8.555,6201.771,0.00016,0.0,0.0
8.561,6188.138,0.00016,0.0,0.0
8.567,6175.216,0.00016,0.0,0.0
8.574,6171.835,0.00016,0.0,0.0
8.58,6179.445,0.00016,0.0,0.0
8.586,6183.581,0.00016,0.0,0.0
8.593,6164.721,0.00016,0.0,0.0
8.599,6144.027,0.00016,0.0,0.0
8.605,6172.375,0.00016,0.0,0.0
8.612,6161.482,0.00016,0.0,0.0
8.618,6172.638,0.00016,0.0,0.0
8.624,6156.984,0.00016,0.0,0.0
8.63,6164.374,0.00016,0.0,0.0
8.637,6161.186,0.00016,0.0,0.0
8.643,6158.942,0.00016,0.0,0.0
8.649,6162.799,0.00016,0.0,0.0
8.656,6138.829,0.00016,0.0,0.0
8.662,6154.902,0.00016,0.0,0.0
8.668,6168.626,0.00016,0.0,0.0
8.675,6176.913,0.00016,0.0,0.0
8.681,6160.158,0.00016,0.0,0.0
8.687,6148.854,0.00016,0.0,0.0
8.694,6163.919,0.00016,0.0,0.0
8.7,6174.534,0.00016,0.0,0.0
8.706,6159.996,0.00016,0.0,0.0
8.713,6170.051,0.00016,0.0,0.0
8.719,6178.388,0.00016,0.0,0.0
8.725,6182.79,0.00016,0.0,0.0
8.732,6176.314,0.00016,0.0,0.0
8.738,6164.084,0.00016,0.0,0.0
8.744,6173.306,0.00016,0.0,0.0
8.751,6158.387,0.00016,0.0,0.0
8.757,6185.889,0.00016,0.0,0.0
8.763,6178.334,0.00016,0.0,0.0
8.77,6182.487,0.00016,0.0,0.0
8.776,6189.467,0.00016,0.0,0.0
8.782,6200.843,0.00016,0.0,0.0
8.788,6198.853,0.00016,0.0,0.0
8.795,6203.626,0.00016,0.0,0.0
8.801,6193.991,0.00016,0.0,0.0
8.807,6201.831,0.00016,0.0,0.0
8.814,6210.81,0.00016,0.0,0.0
8.82,6198.005,0.00016,0.0,0.0
8.826,6211.0,0.00016,0.0,0.0
8.833,6200.19,0.00016,0.0,0.0
8.839,6227.122,0.00016,0.0,0.0
8.845,6233.016,0.00016,0.0,0.0
8.852,6214.805,0.00016,0.0,0.0
8.858,6255.559,0.00016,0.0,0.0
8.864,6231.156,0.00016,0.0,0.0
8.871,6254.987,0.00016,0.0,0.0
8.877,6261.549,0.00016,0.0,0.0
8.883,6248.09,0.00016,0.0,0.0
8.89,6263.769,0.00016,0.0,0.0
8.896,6267.138,0.00016,0.0,0.0
8.902,6266.334,0.00016,0.0,0.0
8.909,6277.168,0.00016,0.0,0.0
8.915,6245.34,0.00016,0.0,0.0
8.921,6275.876,0.00016,0.0,0.0
8.928,6296.944,0.00016,0.0,0.0
8.934,6275.552,0.00016,0.0,0.0
8.94,6312.248,0.00016,0.0,0.0
8.946,6275.524,0.00016,0.0,0.0
8.953,6297.111,0.00016,0.0,0.0
8.959,6315.679,0.00016,0.0,0.0
8.965,6285.63,0.00016,0.0,0.0
8.972,6309.689,0.00016,0.0,0.0
8.978,6313.784,0.00016,0.0,0.0
8.984,6303.245,0.00016,0.0,0.0
8.991,6338.197,0.00016,0.0,0.0
8.997,6308.301,0.00016,0.0,0.0
9.003,6329.503,0.00016,0.0,0.0
9.01,6338.941,0.00016,0.0,0.0
9.016,6300.164,0.00016,0.0,0.0
9.022,6369.648,0.00016,0.0,0.0
9.029,6332.594,0.00016,0.0,0.0
9.035,6373.878,0.00016,0.0,0.0
9.041,6372.468,0.00016,0.0,0.0
9.048,6359.678,0.00016,0.0,0.0
9.054,6424.26,0.00016,0.0,0.0
9.06,6396.493,0.00016,0.0,0.0
9.067,6372.236,0.00016,0.0,0.0
9.073,6470.488,0.00015,0.0,0.0
9.079,6440.442,0.00016,0.0,0.0
9.086,6481.399,0.00015,0.0,0.0
9.092,6560.838,0.00015,0.0,0.0
9.098,6624.981,0.00015,0.0,0.0
9.104,6851.965,0.00015,0.0,0.0
9.111,7027.237,0.00014,0.0,0.0
9.117,8132.164,0.00012,0.0,0.0
9.123,8027.272,0.00012,0.0,0.0
9.13,9635.435,0.0001,0.0,0.0
9.136,10284.76,0.0001,0.0,0.0
9.142,9594.165,0.0001,0.0,0.0
9.149,12723.961,0.00008,0.0,0.0
9.155,8561.81,0.00012,0.0,0.0
9.161,7347.353,0.00014,0.0,0.0
9.168,9292.164,0.00011,0.0,0.0
9.174,6664.913,0.00015,0.0,0.0
9.18,6739.608,0.00015,0.0,0.0
9.187,6664.762,0.00015,0.0,0.0
9.193,6391.221,0.00016,0.0,0.0
9.199,6418.938,0.00016,0.0,0.0
9.206,6356.418,0.00016,0.0,0.0
9.212,6291.292,0.00016,0.0,0.0
9.218,6305.419,0.00016,0.0,0.0
9.225,6246.335,0.00016,0.0,0.0
9.231,6219.622,0.00016,0.0,0.0
9.237,6238.713,0.00016,0.0,0.0
9.244,6177.234,0.00016,0.0,0.0
9.25,6183.091,0.00016,0.0,0.0
9.256,6180.897,0.00016,0.0,0.0
9.262,6120.35,0.00016,0.0,0.0
9.269,6162.134,0.00016,0.0,0.0
9.275,6115.001,0.00016,0.0,0.0
9.281,6102.525,0.00016,0.0,0.0
9.288,6108.161,0.00016,0.0,0.0
9.294,6065.409,0.00016,0.0,0.0
9.3,6076.716,0.00016,0.0,0.0
9.307,6068.45,0.00016,0.0,0.0
9.313,6036.561,0.00017,0.0,0.0
9.319,6035.323,0.00017,0.0,0.0
9.326,6014.045,0.00017,0.0,0.0
9.332,5985.481,0.00017,0.0,0.0
9.338,5988.796,0.00017,0.0,0.0
9.345,5947.965,0.00017,0.0,0.0
9.351,5947.797,0.00017,0.0,0.0
9.357,5938.687,0.00017,0.0,0.0
9.364,5928.509,0.00017,0.0,0.0
9.37,5918.016,0.00017,0.0,0.0
9.376,5892.541,0.00017,0.0,0.0
9.383,5895.896,0.00017,0.0,0.0
9.389,5873.014,0.00017,0.0,0.0
9.395,5861.883,0.00017,0.0,0.0
9.402,5849.622,0.00017,0.0,0.0
9.408,5846.027,0.00017,0.0,0.0
9.414,5826.216,0.00017,0.0,0.0
9.42,5820.418,0.00017,0.0,0.0
9.427,5816.725,0.00017,0.0,0.0
9.433,5813.41,0.00017,0.0,0.0
9.439,5804.508,0.00017,0.0,0.0
9.446,5790.61,0.00017,0.0,0.0
9.452,5807.395,0.00017,0.0,0.0
9.458,5792.48,0.00017,0.0,0.0
9.465,5802.555,0.00017,0.0,0.0
9.471,5807.123,0.00017,0.0,0.0
9.477,5810.8,0.00017,0.0,0.0
9.484,5850.602,0.00017,0.0,0.0
9.49,5848.211,0.00017,0.0,0.0
9.496,5831.344,0.00017,0.0,0.0
9.503,5821.195,0.00017,0.0,0.0
9.509,5799.593,0.00017,0.0,0.0
9.515,5762.637,0.00017,0.0,0.0
9.522,5752.593,0.00017,0.0,0.0
9.528,5709.781,0.00018,0.0,0.0
9.534,5697.818,0.00018,0.0,0.0
9.541,5685.754,0.00018,0.0,0.0
9.547,5661.515,0.00018,0.0,0.0
9.553,5668.718,0.00018,0.0,0.0
9.56,5633.972,0.00018,0.0,0.0
9.566,5624.735,0.00018,0.0,0.0
9.572,5609.862,0.00018,0.0,0.0
9.578,5611.177,0.00018,0.0,0.0
9.585,5607.259,0.00018,0.0,0.0
9.591,5585.156,0.00018,0.0,0.0
9.597,5582.037,0.00018,0.0,0.0
9.604,5576.259,0.00018,0.0,0.0
9.61,5586.667,0.00018,0.0,0.0
9.616,5589.613,0.00018,0.0,0.0
9.623,5569.663,0.00018,0.0,0.0
9.629,5578.618,0.00018,0.0,0.0
9.635,5551.244,0.00018,0.0,0.0
9.642,5554.715,0.00018,0.0,0.0
9.648,5530.044,0.00018,0.0,0.0
9.654,5547.597,0.00018,0.0,0.0
9.661,5533.239,0.00018,0.0,0.0
9.667,5548.687,0.00018,0.0,0.0
9.673,5527.538,0.00018,0.0,0.0
9.68,5529.561,0.00018,0.0,0.0
9.686,5546.165,0.00018,0.0,0.0
9.692,5503.586,0.00018,0.0,0.0
9.699,5516.574,0.00018,0.0,0.0
9.705,5526.457,0.00018,0.0,0.0
9.711,5507.01,0.00018,0.0,0.0
9.718,5505.797,0.00018,0.0,0.0
9.724,5503.679,0.00018,0.0,0.0
9.73,5481.454,0.00018,0.0,0.0
9.736,5491.789,0.00018,0.0,0.0
9.743,5507.754,0.00018,0.0,0.0
9.749,5491.165,0.00018,0.0,0.0
9.755,5491.253,0.00018,0.0,0.0
9.762,5469.63,0.00018,0.0,0.0
9.768,5491.434,0.00018,0.0,0.0
9.774,5479.76,0.00018,0.0,0.0
9.781,5445.782,0.00018,0.0,0.0
9.787,5466.348,0.00018,0.0,0.0
9.793,5473.363,0.00018,0.0,0.0
9.8,5478.266,0.00018,0.0,0.0
9.806,5460.476,0.00018,0.0,0.0
9.812,5440.77,0.00018,0.0,0.0
9.819,5458.353,0.00018,0.0,0.0
9.825,5443.521,0.00018,0.0,0.0
9.831,5454.131,0.00018,0.0,0.0
9.838,5460.639,0.00018,0.0,0.0
9.844,5448.742,0.00018,0.0,0.0
9.85,5461.263,0.00018,0.0,0.0
9.857,5432.978,0.00018,0.0,0.0
9.863,5434.168,0.00018,0.0,0.0
9.869,5468.749,0.00018,0.0,0.0
9.876,5439.603,0.00018,0.0,0.0
9.882,5458.481,0.00018,0.0,0.0
9.888,5445.127,0.00018,0.0,0.0
9.894,5434.727,0.00018,0.0,0.0
9.901,5452.3,0.00018,0.0,0.0
9.907,5443.768,0.00018,0.0,0.0
9.913,5445.39,0.00018,0.0,0.0
9.92,5438.787,0.00018,0.0,0.0
9.926,5441.463,0.00018,0.0,0.0
9.932,5448.737,0.00018,0.0,0.0
9.939,5445.399,0.00018,0.0,0.0
9.945,5435.501,0.00018,0.0,0.0
9.951,5465.197,0.00018,0.0,0.0
9.958,5438.485,0.00018,0.0,0.0
9.964,5459.779,0.00018,0.0,0.0
9.97,5438.866,0.00018,0.0,0.0
9.977,5450.298,0.00018,0.0,0.0
9.983,5474.495,0.00018,0.0,0.0
9.989,5453.445,0.00018,0.0,0.0
9.996,5475.478,0.00018,0.0,0.0
10.002,5478.008,0.00018,0.0,0.0
10.008,5446.269,0.00018,0.0,0.0
10.015,5503.197,0.00018,0.0,0.0
10.021,5483.35,0.00018,0.0,0.0
10.027,5486.914,0.00018,0.0,0.0
10.034,5495.312,0.00018,0.0,0.0
10.04,5498.603,0.00018,0.0,0.0
10.046,5515.367,0.00018,0.0,0.0
10.052,5514.02,0.00018,0.0,0.0
10.059,5496.911,0.00018,0.0,0.0
10.065,5537.935,0.00018,0.0,0.0
10.071,5554.646,0.00018,0.0,0.0
10.078,5525.334,0.00018,0.0,0.0
10.084,5574.833,0.00018,0.0,0.0
10.09,5533.7,0.00018,0.0,0.0
10.097,5617.582,0.00018,0.0,0.0
10.103,5533.894,0.00018,0.0,0.0
10.109,5629.62,0.00018,0.0,0.0
10.116,5641.363,0.00018,0.0,0.0
10.122,5627.525,0.00018,0.0,0.0
10.128,5689.789,0.00018,0.0,0.0
10.135,5663.5,0.00018,0.0,0.0
10.141,5725.388,0.00017,0.0,0.0
10.147,5740.273,0.00017,0.0,0.0
10.154,5791.585,0.00017,0.0,0.0
10.16,5895.848,0.00017,0.0,0.0
10.166,6183.418,0.00016,0.0,0.0
10.173,6294.014,0.00016,0.0,0.0
10.179,7084.716,0.00014,0.0,0.0
10.185,8655.502,0.00012,0.0,0.0
10.192,10282.812,0.0001,0.0,0.0
10.198,11015.782,0.00009,0.0,0.0
10.204,14323.647,0.00007,0.0,0.0
10.21,16816.493,0.00006,0.0,0.0
10.217,19004.734,0.00005,0.0,0.0
10.223,16666.838,0.00006,0.0,0.0
10.229,12268.821,0.00008,0.0,0.0
10.236,15769.011,0.00006,0.0,0.0
10.242,8944.166,0.00011,0.0,0.0
10.248,8986.84,0.00011,0.0,0.0
10.255,6803.261,0.00015,0.0,0.0
10.261,6344.637,0.00016,0.0,0.0
10.267,6226.446,0.00016,0.0,0.0
10.274,5802.809,0.00017,0.0,0.0
10.28,5857.323,0.00017,0.0,0.0
10.286,5665.076,0.00018,0.0,0.0
10.293,5702.117,0.00018,0.0,0.0
10.299,5625.149,0.00018,0.0,0.0
10.305,5610.881,0.00018,0.0,0.0
10.312,5596.766,0.00018,0.0,0.0
10.318,5556.21,0.00018,0.0,0.0
10.324,5569.327,0.00018,0.0,0.0
10.331,5487.791,0.00018,0.0,0.0
10.337,5471.189,0.00018,0.0,0.0
10.343,5500.1,0.00018,0.0,0.0
10.35,5468.239,0.00018,0.0,0.0
10.356,5453.532,0.00018,0.0,0.0
10.362,5441.339,0.00018,0.0,0.0
10.368,5394.937,0.00019,0.0,0.0
10.375,5451.118,0.00018,0.0,0.0
10.381,5375.778,0.00019,0.0,0.0
10.387,5398.453,0.00019,0.0,0.0
10.394,5389.813,0.00019,0.0,0.0
10.4,5360.771,0.00019,0.0,0.0
10.406,5388.724,0.00019,0.0,0.0
10.413,5352.071,0.00019,0.0,0.0
10.419,5329.975,0.00019,0.0,0.0
10.425,5348.968,0.00019,0.0,0.0
10.432,5318.425,0.00019,0.0,0.0
10.438,5329.898,0.00019,0.0,0.0
10.444,5335.824,0.00019,0.0,0.0
10.451,5288.172,0.00019,0.0,0.0
10.457,5329.945,0.00019,0.0,0.0
10.463,5297.764,0.00019,0.0,0.0
10.47,5284.035,0.00019,0.0,0.0
10.476,5298.118,0.00019,0.0,0.0
10.482,5257.875,0.00019,0.0,0.0
10.489,5300.236,0.00019,0.0,0.0
10.495,5260.596,0.00019,0.0,0.0
10.501,5252.357,0.00019,0.0,0.0
10.508,5286.173,0.00019,0.0,0.0
10.514,5259.229,0.00019,0.0,0.0
10.52,5272.608,0.00019,0.0,0.0
10.526,5252.506,0.00019,0.0,0.0
10.533,5230.97,0.00019,0.0,0.0
10.539,5254.859,0.00019,0.0,0.0
10.545,5221.302,0.00019,0.0,0.0
10.552,5227.499,0.00019,0.0,0.0
10.558,5226.387,0.00019,0.0,0.0
10.564,5192.944,0.00019,0.0,0.0
10.571,5224.313,0.00019,0.0,0.0
10.577,5196.742,0.00019,0.0,0.0
10.583,5208.516,0.00019,0.0,0.0
10.59,5217.191,0.00019,0.0,0.0
10.596,5208.117,0.00019,0.0,0.0
10.602,5219.55,0.00019,0.0,0.0
10.609,5195.568,0.00019,0.0,0.0
10.615,5190.867,0.00019,0.0,0.0
10.621,5205.732,0.00019,0.0,0.0
10.628,5176.754,0.00019,0.0,0.0
10.634,5221.378,0.00019,0.0,0.0
10.64,5203.727,0.00019,0.0,0.0
10.647,5194.596,0.00019,0.0,0.0
10.653,5219.165,0.00019,0.0,0.0
10.659,5197.085,0.00019,0.0,0.0
10.666,5189.569,0.00019,0.0,0.0
10.672,5185.093,0.00019,0.0,0.0
10.678,5188.583,0.00019,0.0,0.0
10.684,5230.699,0.00019,0.0,0.0
10.691,5196.524,0.00019,0.0,0.0
10.697,5203.901,0.00019,0.0,0.0
10.703,5230.259,0.00019,0.0,0.0
10.71,5225.549,0.00019,0.0,0.0
10.716,5245.321,0.00019,0.0,0.0
10.722,5247.762,0.00019,0.0,0.0
10.729,5264.032,0.00019,0.0,0.0
10.735,5318.03,0.00019,0.0,0.0
10.741,5346.332,0.00019,0.0,0.0
10.748,5427.177,0.00018,0.0,0.0
10.754,5524.998,0.00018,0.0,0.0
10.76,5632.797,0.00018,0.0,0.0
10.767,5949.429,0.00017,0.0,0.0
10.773,6326.812,0.00016,0.0,0.0
10.779,7056.884,0.00014,0.0,0.0
10.786,8896.723,0.00011,0.0,0.0
10.792,10927.438,0.00009,0.0,0.0
10.798,16613.876,0.00006,0.0,0.0
10.805,19529.366,0.00005,0.0,0.0
10.811,27621.006,0.00004,0.0,0.0
10.817,29962.806,0.00003,0.0,0.0
10.824,31141.346,0.00003,0.0,0.0
10.83,26897.833,0.00004,0.0,0.0
10.836,21593.465,0.00005,0.0,0.0
10.842,16221.479,0.00006,0.0,0.0
10.849,12302.474,0.00008,0.0,0.0
10.855,8965.668,0.00011,0.0,0.0
10.861,7521.85,0.00013,0.0,0.0
10.868,6568.131,0.00015,0.0,0.0
10.874,5976.454,0.00017,0.0,0.0
10.88,5715.212,0.00017,0.0,0.0
10.887,5493.637,0.00018,0.0,0.0
10.893,5386.29,0.00019,0.0,0.0
10.899,5308.011,0.00019,0.0,0.0
10.906,5251.514,0.00019,0.0,0.0
10.912,5216.577,0.00019,0.0,0.0
10.918,5187.479,0.00019,0.0,0.0
10.925,5179.774,0.00019,0.0,0.0
10.931,5188.058,0.00019,0.0,0.0
10.937,5150.097,0.00019,0.0,0.0
10.944,5150.388,0.00019,0.0,0.0
10.95,5150.979,0.00019,0.0,0.0
10.956,5115.572,0.0002,0.0,0.0
10.963,5125.332,0.0002,0.0,0.0
10.969,5106.132,0.0002,0.0,0.0
10.975,5088.788,0.0002,0.0,0.0
10.982,5072.638,0.0002,0.0,0.0
10.988,5057.444,0.0002,0.0,0.0
10.994,5047.92,0.0002,0.0,0.0
11.0,5026.431,0.0002,0.0,0.0
11.007,5027.261,0.0002,0.0,0.0
11.013,5011.518,0.0002,0.0,0.0
11.019,4992.04,0.0002,0.0,0.0
11.026,4992.548,0.0002,0.0,0.0
11.032,4987.31,0.0002,0.0,0.0
11.038,4986.556,0.0002,0.0,0.0
11.045,4981.777,0.0002,0.0,0.0
11.051,4970.967,0.0002,0.0,0.0
11.057,4977.788,0.0002,0.0,0.0
11.064,4965.328,0.0002,0.0,0.0
11.07,4958.933,0.0002,0.0,0.0
11.076,4968.596,0.0002,0.0,0.0
11.083,4952.403,0.0002,0.0,0.0
11.089,4949.261,0.0002,0.0,0.0
11.095,4948.384,0.0002,0.0,0.0
11.102,4948.149,0.0002,0.0,0.0
11.108,4941.314,0.0002,0.0,0.0
11.114,4927.87,0.0002,0.0,0.0
11.121,4937.985,0.0002,0.0,0.0
11.127,4921.163,0.0002,0.0,0.0
11.133,4924.99,0.0002,0.0,0.0
11.14,4933.919,0.0002,0.0,0.0
11.146,4906.225,0.0002,0.0,0.0
11.152,4920.333,0.0002,0.0,0.0
11.158,4918.643,0.0002,0.0,0.0
11.165,4919.761,0.0002,0.0,0.0
11.171,4929.039,0.0002,0.0,0.0
11.177,4919.371,0.0002,0.0,0.0
11.184,4925.568,0.0002,0.0,0.0
11.19,4928.212,0.0002,0.0,0.0
11.196,4952.337,0.0002,0.0,0.0
11.203,4919.121,0.0002,0.0,0.0
11.209,4979.977,0.0002,0.0,0.0
11.215,4923.74,0.0002,0.0,0.0
11.222,5032.757,0.0002,0.0,0.0
11.228,4886.676,0.0002,0.0,0.0
11.234,4921.644,0.0002,0.0,0.0
11.241,4876.041,0.00021,0.0,0.0
11.247,4863.581,0.00021,0.0,0.0
11.253,4843.712,0.00021,0.0,0.0
11.26,4857.204,0.00021,0.0,0.0
11.266,4847.491,0.00021,0.0,0.0
11.272,4849.844,0.00021,0.0,0.0
11.279,4836.863,0.00021,0.0,0.0
11.285,4845.092,0.00021,0.0,0.0
11.291,4836.335,0.00021,0.0,0.0
11.298,4849.369,0.00021,0.0,0.0
11.304,4819.526,0.00021,0.0,0.0
11.31,4834.607,0.00021,0.0,0.0
11.316,4821.077,0.00021,0.0,0.0
11.323,4803.343,0.00021,0.0,0.0
11.329,4810.463,0.00021,0.0,0.0
11.335,4800.546,0.00021,0.0,0.0
11.342,4808.602,0.00021,0.0,0.0
11.348,4806.71,0.00021,0.0,0.0
11.354,4799.641,0.00021,0.0,0.0
11.361,4800.901,0.00021,0.0,0.0
11.367,4804.485,0.00021,0.0,0.0
11.373,4806.852,0.00021,0.0,0.0
11.38,4785.982,0.00021,0.0,0.0
11.386,4803.996,0.00021,0.0,0.0
11.392,4783.523,0.00021,0.0,0.0
11.399,4798.815,0.00021,0.0,0.0
11.405,4780.49,0.00021,0.0,0.0
11.411,4790.414,0.00021,0.0,0.0
11.418,4776.554,0.00021,0.0,0.0
11.424,4772.87,0.00021,0.0,0.0
11.43,4776.542,0.00021,0.0,0.0
11.437,4768.009,0.00021,0.0,0.0
11.443,4765.873,0.00021,0.0,0.0
11.449,4773.63,0.00021,0.0,0.0
11.456,4770.477,0.00021,0.0,0.0
11.462,4759.731,0.00021,0.0,0.0
11.468,4774.079,0.00021,0.0,0.0
11.474,4764.834,0.00021,0.0,0.0
11.481,4765.229,0.00021,0.0,0.0
11.487,4772.326,0.00021,0.0,0.0
11.493,4772.05,0.00021,0.0,0.0
11.5,4777.713,0.00021,0.0,0.0
11.506,4773.365,0.00021,0.0,0.0
11.512,4791.819,0.00021,0.0,0.0
11.519,4793.871,0.00021,0.0,0.0
11.525,4810.329,0.00021,0.0,0.0
11.531,4819.261,0.00021,0.0,0.0
11.538,4821.667,0.00021,0.0,0.0
11.544,4811.096,0.00021,0.0,0.0
11.55,4813.438,0.00021,0.0,0.0
11.557,4781.873,0.00021,0.0,0.0
11.563,4775.853,0.00021,0.0,0.0
11.569,4778.511,0.00021,0.0,0.0
11.576,4755.023,0.00021,0.0,0.0
11.582,4752.404,0.00021,0.0,0.0
11.588,4733.426,0.00021,0.0,0.0
11.595,4748.054,0.00021,0.0,0.0
11.601,4740.535,0.00021,0.0,0.0
11.607,4732.049,0.00021,0.0,0.0
11.614,4735.138,0.00021,0.0,0.0
11.62,4735.885,0.00021,0.0,0.0
11.626,4735.675,0.00021,0.0,0.0
11.632,4719.029,0.00021,0.0,0.0
11.639,4728.896,0.00021,0.0,0.0
11.645,4705.979,0.00021,0.0,0.0
11.651,4728.425,0.00021,0.0,0.0
11.658,4720.994,0.00021,0.0,0.0
11.664,4718.92,0.00021,0.0,0.0
11.67,4717.071,0.00021,0.0,0.0
11.677,4703.878,0.00021,0.0,0.0
11.683,4718.69,0.00021,0.0,0.0
11.689,4707.049,0.00021,0.0,0.0
11.696,4707.76,0.00021,0.0,0.0
11.702,4705.071,0.00021,0.0,0.0
11.708,4708.341,0.00021,0.0,0.0
11.715,4719.233,0.00021,0.0,0.0
11.721,4710.995,0.00021,0.0,0.0
11.727,4721.699,0.00021,0.0,0.0
11.734,4701.404,0.00021,0.0,0.0
11.74,4708.939,0.00021,0.0,0.0
11.746,4717.404,0.00021,0.0,0.0
11.753,4702.19,0.00021,0.0,0.0
11.759,4709.091,0.00021,0.0,0.0
11.765,4712.048,0.00021,0.0,0.0
11.772,4707.235,0.00021,0.0,0.0
11.778,4703.677,0.00021,0.0,0.0
11.784,4713.038,0.00021,0.0,0.0
11.79,4715.094,0.00021,0.0,0.0
11.797,4709.78,0.00021,0.0,0.0
11.803,4698.42,0.00021,0.0,0.0
11.809,4708.26,0.00021,0.0,0.0
11.816,4709.06,0.00021,0.0,0.0
11.822,4718.819,0.00021,0.0,0.0
11.828,4701.121,0.00021,0.0,0.0
11.835,4693.525,0.00021,0.0,0.0
11.841,4703.894,0.00021,0.0,0.0
11.847,4709.927,0.00021,0.0,0.0
11.854,4709.635,0.00021,0.0,0.0
11.86,4702.453,0.00021,0.0,0.0
11.866,4723.6,0.00021,0.0,0.0
11.873,4697.616,0.00021,0.0,0.0
11.879,4695.55,0.00021,0.0,0.0
11.885,4702.0,0.00021,0.0,0.0
11.892,4700.778,0.00021,0.0,0.0
11.898,4715.668,0.00021,0.0,0.0
11.904,4697.324,0.00021,0.0,0.0
11.911,4702.006,0.00021,0.0,0.0
11.917,4699.635,0.00021,0.0,0.0
11.923,4710.015,0.00021,0.0,0.0
11.93,4689.856,0.00021,0.0,0.0
11.936,4702.5,0.00021,0.0,0.0
11.942,4699.717,0.00021,0.0,0.0
11.948,4701.884,0.00021,0.0,0.0
11.955,4707.249,0.00021,0.0,0.0
11.961,4726.743,0.00021,0.0,0.0
11.967,4706.996,0.00021,0.0,0.0
11.974,4709.987,0.00021,0.0,0.0
11.98,4728.289,0.00021,0.0,0.0
11.986,4717.175,0.00021,0.0,0.0
11.993,4713.415,0.00021,0.0,0.0
11.999,4731.749,0.00021,0.0,0.0
12.005,4723.905,0.00021,0.0,0.0
12.012,4741.799,0.00021,0.0,0.0
12.018,4745.074,0.00021,0.0,0.0
12.024,4749.059,0.00021,0.0,0.0
12.031,4750.157,0.00021,0.0,0.0
12.037,4800.177,0.00021,0.0,0.0
12.043,4769.148,0.00021,0.0,0.0
12.05,4888.206,0.0002,0.0,0.0
12.056,4820.595,0.00021,0.0,0.0
12.062,4880.814,0.0002,0.0,0.0
12.069,5523.838,0.00018,0.0,0.0
12.075,5111.725,0.0002,0.0,0.0
12.081,7937.355,0.00013,0.0,0.0
12.088,5825.641,0.00017,0.0,0.0
12.094,6317.532,0.00016,0.0,0.0
12.1,9393.279,0.00011,0.0,0.0
12.106,6226.503,0.00016,0.0,0.0
12.113,6831.232,0.00015,0.0,0.0
12.119,5560.487,0.00018,0.0,0.0
12.125,5267.758,0.00019,0.0,0.0
12.132,5085.94,0.0002,0.0,0.0
12.138,4902.143,0.0002,0.0,0.0
12.144,4826.697,0.00021,0.0,0.0
12.151,4803.418,0.00021,0.0,0.0
12.157,4751.712,0.00021,0.0,0.0
12.163,4754.485,0.00021,0.0,0.0
12.17,4729.204,0.00021,0.0,0.0
12.176,4711.342,0.00021,0.0,0.0
12.182,4714.201,0.00021,0.0,0.0
12.189,4697.523,0.00021,0.0,0.0
12.195,4683.707,0.00021,0.0,0.0
12.201,4665.964,0.00021,0.0,0.0
12.208,4668.968,0.00021,0.0,0.0
12.214,4640.001,0.00022,0.0,0.0
12.22,4655.266,0.00021,0.0,0.0
12.227,4627.85,0.00022,0.0,0.0
12.233,4633.837,0.00022,0.0,0.0
12.239,4622.021,0.00022,0.0,0.0
12.246,4612.353,0.00022,0.0,0.0
12.252,4606.211,0.00022,0.0,0.0
12.258,4599.69,0.00022,0.0,0.0
12.264,4594.018,0.00022,0.0,0.0
12.271,4590.555,0.00022,0.0,0.0
12.277,4592.878,0.00022,0.0,0.0
12.283,4581.446,0.00022,0.0,0.0
12.29,4575.011,0.00022,0.0,0.0
12.296,4586.921,0.00022,0.0,0.0
12.302,4559.367,0.00022,0.0,0.0
12.309,4555.642,0.00022,0.0,0.0
12.315,4562.708,0.00022,0.0,0.0
12.321,4561.701,0.00022,0.0,0.0
12.328,4550.023,0.00022,0.0,0.0
12.334,4555.903,0.00022,0.0,0.0
12.34,4540.761,0.00022,0.0,0.0
12.347,4553.895,0.00022,0.0,0.0
12.353,4537.797,0.00022,0.0,0.0
12.359,4541.663,0.00022,0.0,0.0
12.366,4539.609,0.00022,0.0,0.0
12.372,4535.541,0.00022,0.0,0.0
12.378,4535.309,0.00022,0.0,0.0
12.385,4553.715,0.00022,0.0,0.0
12.391,4524.573,0.00022,0.0,0.0
12.397,4544.09,0.00022,0.0,0.0
12.404,4534.392,0.00022,0.0,0.0
12.41,4522.665,0.00022,0.0,0.0
12.416,4539.903,0.00022,0.0,0.0
12.422,4526.967,0.00022,0.0,0.0
12.429,4518.404,0.00022,0.0,0.0
12.435,4523.694,0.00022,0.0,0.0
12.441,4495.679,0.00022,0.0,0.0
12.448,4516.541,0.00022,0.0,0.0
12.454,4509.984,0.00022,0.0,0.0
12.46,4520.881,0.00022,0.0,0.0
12.467,4517.401,0.00022,0.0,0.0
12.473,4509.21,0.00022,0.0,0.0
12.479,4523.158,0.00022,0.0,0.0
12.486,4514.043,0.00022,0.0,0.0
12.492,4523.455,0.00022,0.0,0.0
12.498,4528.703,0.00022,0.0,0.0
12.505,4521.771,0.00022,0.0,0.0
12.511,4543.41,0.00022,0.0,0.0
12.517,4548.813,0.00022,0.0,0.0
12.524,4548.078,0.00022,0.0,0.0
12.53,4549.564,0.00022,0.0,0.0
12.536,4534.719,0.00022,0.0,0.0
12.543,4557.718,0.00022,0.0,0.0
12.549,4536.211,0.00022,0.0,0.0
12.555,4543.024,0.00022,0.0,0.0
12.562,4536.404,0.00022,0.0,0.0
12.568,4524.591,0.00022,0.0,0.0
12.574,4550.576,0.00022,0.0,0.0
12.58,4552.674,0.00022,0.0,0.0
12.587,4577.998,0.00022,0.0,0.0
12.593,4580.747,0.00022,0.0,0.0
12.599,4612.626,0.00022,0.0,0.0
12.606,4645.94,0.00022,0.0,0.0
12.612,4678.688,0.00021,0.0,0.0
12.618,4741.685,0.00021,0.0,0.0
12.625,4846.921,0.00021,0.0,0.0
12.631,4960.449,0.0002,0.0,0.0
12.637,5203.861,0.00019,0.0,0.0
12.644,5532.783,0.00018,0.0,0.0
12.65,6145.299,0.00016,0.0,0.0
12.656,7172.441,0.00014,0.0,0.0
12.663,9070.457,0.00011,0.0,0.0
12.669,12287.744,0.00008,0.0,0.0
12.675,17210.604,0.00006,0.0,0.0
12.682,22310.495,0.00004,0.0,0.0
12.688,28874.846,0.00003,0.0,0.0
12.694,31960.271,0.00003,0.0,0.0
12.701,31266.205,0.00003,0.0,0.0
12.707,27777.855,0.00004,0.0,0.0
12.713,21880.037,0.00005,0.0,0.0
12.72,15237.762,0.00007,0.0,0.0
12.726,11593.59,0.00009,0.0,0.0
12.732,8311.57,0.00012,0.0,0.0
12.738,6727.539,0.00015,0.0,0.0
12.745,5955.206,0.00017,0.0,0.0
12.751,5386.466,0.00019,0.0,0.0
12.757,5051.527,0.0002,0.0,0.0
12.764,4856.899,0.00021,0.0,0.0
12.77,4733.287,0.00021,0.0,0.0
12.776,4656.469,0.00021,0.0,0.0
12.783,4605.656,0.00022,0.0,0.0
12.789,4538.432,0.00022,0.0,0.0
12.795,4531.829,0.00022,0.0,0.0
12.802,4496.618,0.00022,0.0,0.0
12.808,4470.691,0.00022,0.0,0.0
12.814,4464.448,0.00022,0.0,0.0
12.821,4429.63,0.00023,0.0,0.0
12.827,4418.385,0.00023,0.0,0.0
12.833,4428.947,0.00023,0.0,0.0
12.84,4410.463,0.00023,0.0,0.0
12.846,4408.014,0.00023,0.0,0.0
12.852,4390.323,0.00023,0.0,0.0
12.859,4392.034,0.00023,0.0,0.0
12.865,4387.698,0.00023,0.0,0.0
12.871,4375.879,0.00023,0.0,0.0
12.878,4380.706,0.00023,0.0,0.0
12.884,4377.588,0.00023,0.0,0.0
12.89,4373.788,0.00023,0.0,0.0
12.896,4379.4,0.00023,0.0,0.0
12.903,4368.452,0.00023,0.0,0.0
12.909,4392.562,0.00023,0.0,0.0
12.915,4436.296,0.00023,0.0,0.0
12.922,4434.827,0.00023,0.0,0.0
12.928,4554.073,0.00022,0.0,0.0
12.934,4647.108,0.00022,0.0,0.0
12.941,4583.072,0.00022,0.0,0.0
12.947,4766.714,0.00021,0.0,0.0
12.953,4559.07,0.00022,0.0,0.0
12.96,4522.737,0.00022,0.0,0.0
12.966,4488.11,0.00022,0.0,0.0
12.972,4408.581,0.00023,0.0,0.0
12.979,4387.823,0.00023,0.0,0.0
12.985,4361.954,0.00023,0.0,0.0
12.991,4321.43,0.00023,0.0,0.0
12.998,4310.295,0.00023,0.0,0.0
13.004,4290.324,0.00023,0.0,0.0
13.01,4282.151,0.00023,0.0,0.0
13.017,4282.38,0.00023,0.0,0.0
13.023,4275.243,0.00023,0.0,0.0
13.029,4267.164,0.00023,0.0,0.0
13.036,4269.106,0.00023,0.0,0.0
13.042,4262.627,0.00023,0.0,0.0
13.048,4263.964,0.00023,0.0,0.0
13.054,4264.16,0.00023,0.0,0.0
13.061,4258.266,0.00023,0.0,0.0
13.067,4252.406,0.00024,0.0,0.0
13.073,4256.872,0.00023,0.0,0.0
13.08,4249.747,0.00024,0.0,0.0
13.086,4251.995,0.00024,0.0,0.0
13.092,4241.369,0.00024,0.0,0.0
13.099,4239.384,0.00024,0.0,0.0
13.105,4240.011,0.00024,0.0,0.0
13.111,4233.492,0.00024,0.0,0.0
13.118,4230.119,0.00024,0.0,0.0
13.124,4227.614,0.00024,0.0,0.0
13.13,4236.937,0.00024,0.0,0.0
13.137,4228.369,0.00024,0.0,0.0
13.143,4233.81,0.00024,0.0,0.0
13.149,4217.34,0.00024,0.0,0.0
13.156,4235.549,0.00024,0.0,0.0
13.162,4238.612,0.00024,0.0,0.0
13.168,4248.186,0.00024,0.0,0.0
13.175,4231.771,0.00024,0.0,0.0
13.181,4273.99,0.00023,0.0,0.0
13.187,4272.88,0.00023,0.0,0.0
13.194,4293.178,0.00023,0.0,0.0
13.2,4311.804,0.00023,0.0,0.0
13.206,4361.115,0.00023,0.0,0.0
13.212,4461.181,0.00022,0.0,0.0
13.219,4633.488,0.00022,0.0,0.0
13.225,4853.775,0.00021,0.0,0.0
13.231,5359.767,0.00019,0.0,0.0
13.238,6186.744,0.00016,0.0,0.0
13.244,7655.881,0.00013,0.0,0.0
13.25,9520.284,0.00011,0.0,0.0
13.257,11210.522,0.00009,0.0,0.0
13.263,12760.841,0.00008,0.0,0.0
13.269,13151.674,0.00008,0.0,0.0
13.276,11312.06,0.00009,0.0,0.0
13.282,9759.161,0.0001,0.0,0.0
13.288,7424.601,0.00013,0.0,0.0
13.295,6240.577,0.00016,0.0,0.0
13.301,5341.742,0.00019,0.0,0.0
13.307,4806.908,0.00021,0.0,0.0
13.314,4554.176,0.00022,0.0,0.0
13.32,4396.318,0.00023,0.0,0.0
13.326,4302.301,0.00023,0.0,0.0
13.333,4258.51,0.00023,0.0,0.0
13.339,4208.609,0.00024,0.0,0.0
13.345,4189.934,0.00024,0.0,0.0
13.352,4170.741,0.00024,0.0,0.0
13.358,4154.371,0.00024,0.0,0.0
13.364,4147.514,0.00024,0.0,0.0
13.37,4135.584,0.00024,0.0,0.0
13.377,4122.057,0.00024,0.0,0.0
13.383,4111.537,0.00024,0.0,0.0
13.389,4114.435,0.00024,0.0,0.0
13.396,4101.903,0.00024,0.0,0.0
13.402,4108.769,0.00024,0.0,0.0
13.408,4101.59,0.00024,0.0,0.0
13.415,4092.59,0.00024,0.0,0.0
13.421,4103.031,0.00024,0.0,0.0
13.427,4092.476,0.00024,0.0,0.0
13.434,4084.174,0.00024,0.0,0.0
13.44,4081.567,0.00025,0.0,0.0
13.446,4063.723,0.00025,0.0,0.0
13.453,4063.198,0.00025,0.0,0.0
13.459,4066.017,0.00025,0.0,0.0
13.465,4056.359,0.00025,0.0,0.0
13.472,4056.003,0.00025,0.0,0.0
13.478,4042.091,0.00025,0.0,0.0
13.484,4054.235,0.00025,0.0,0.0
13.491,4040.184,0.00025,0.0,0.0
13.497,4046.673,0.00025,0.0,0.0
13.503,4037.502,0.00025,0.0,0.0
13.51,4033.955,0.00025,0.0,0.0
13.516,4029.363,0.00025,0.0,0.0
13.522,4024.254,0.00025,0.0,0.0
13.528,4033.532,0.00025,0.0,0.0
13.535,4020.825,0.00025,0.0,0.0
13.541,4021.548,0.00025,0.0,0.0
13.547,4030.818,0.00025,0.0,0.0
13.554,4013.224,0.00025,0.0,0.0
13.56,4028.823,0.00025,0.0,0.0
13.566,4014.325,0.00025,0.0,0.0
13.573,4022.301,0.00025,0.0,0.0
13.579,4022.07,0.00025,0.0,0.0
13.585,3999.311,0.00025,0.0,0.0
13.592,4016.056,0.00025,0.0,0.0
13.598,4006.237,0.00025,0.0,0.0
13.604,4007.713,0.00025,0.0,0.0
13.611,4003.146,0.00025,0.0,0.0
13.617,3996.339,0.00025,0.0,0.0
13.623,4014.43,0.00025,0.0,0.0
13.63,4010.155,0.00025,0.0,0.0
13.636,4003.725,0.00025,0.0,0.0
13.642,4007.856,0.00025,0.0,0.0
13.649,3989.301,0.00025,0.0,0.0
13.655,4021.884,0.00025,0.0,0.0
13.661,4015.153,0.00025,0.0,0.0
13.668,4005.977,0.00025,0.0,0.0
13.674,4015.732,0.00025,0.0,0.0
13.68,4017.779,0.00025,0.0,0.0
13.686,4023.313,0.00025,0.0,0.0
13.693,4051.341,0.00025,0.0,0.0
13.699,4078.937,0.00025,0.0,0.0
13.705,4132.154,0.00024,0.0,0.0
13.712,4256.377,0.00023,0.0,0.0
13.718,4271.839,0.00023,0.0,0.0
13.724,4332.557,0.00023,0.0,0.0
13.731,4346.881,0.00023,0.0,0.0
13.737,4276.03,0.00023,0.0,0.0
13.743,4262.58,0.00023,0.0,0.0
13.75,4209.681,0.00024,0.0,0.0
13.756,4086.584,0.00024,0.0,0.0
13.762,4029.218,0.00025,0.0,0.0
13.769,3998.662,0.00025,0.0,0.0
13.775,3970.902,0.00025,0.0,0.0
13.781,3950.685,0.00025,0.0,0.0
13.788,3946.691,0.00025,0.0,0.0
13.794,3938.807,0.00025,0.0,0.0
13.8,3930.365,0.00025,0.0,0.0
13.807,3930.49,0.00025,0.0,0.0
13.813,3925.077,0.00025,0.0,0.0
13.819,3922.594,0.00025,0.0,0.0
13.826,3914.429,0.00026,0.0,0.0
13.832,3919.037,0.00026,0.0,0.0
13.838,3898.759,0.00026,0.0,0.0
13.844,3919.84,0.00026,0.0,0.0
13.851,3901.961,0.00026,0.0,0.0
13.857,3886.697,0.00026,0.0,0.0
13.863,3898.213,0.00026,0.0,0.0
13.87,3877.735,0.00026,0.0,0.0
13.876,3895.495,0.00026,0.0,0.0
13.882,3883.309,0.00026,0.0,0.0
13.889,3886.516,0.00026,0.0,0.0
13.895,3867.719,0.00026,0.0,0.0
13.901,3874.554,0.00026,0.0,0.0
13.908,3884.872,0.00026,0.0,0.0
13.914,3864.841,0.00026,0.0,0.0
13.92,3885.782,0.00026,0.0,0.0
13.927,3866.527,0.00026,0.0,0.0
13.933,3868.61,0.00026,0.0,0.0
13.939,3857.708,0.00026,0.0,0.0
13.946,3853.95,0.00026,0.0,0.0
13.952,3845.144,0.00026,0.0,0.0
13.958,3837.869,0.00026,0.0,0.0
13.965,3851.236,0.00026,0.0,0.0
13.971,3842.116,0.00026,0.0,0.0
13.977,3845.326,0.00026,0.0,0.0
13.984,3835.322,0.00026,0.0,0.0
13.99,3833.009,0.00026,0.0,0.0
13.996,3826.58,0.00026,0.0,0.0
14.002,3830.373,0.00026,0.0,0.0
14.009,3833.983,0.00026,0.0,0.0
14.015,3821.087,0.00026,0.0,0.0
14.021,3826.657,0.00026,0.0,0.0
14.028,3817.256,0.00026,0.0,0.0
14.034,3809.46,0.00026,0.0,0.0
14.04,3818.794,0.00026,0.0,0.0
14.047,3800.745,0.00026,0.0,0.0
14.053,3810.391,0.00026,0.0,0.0
14.059,3795.106,0.00026,0.0,0.0
14.066,3797.378,0.00026,0.0,0.0
14.072,3787.576,0.00026,0.0,0.0
14.078,3784.301,0.00026,0.0,0.0
14.085,3800.027,0.00026,0.0,0.0
14.091,3780.02,0.00026,0.0,0.0
14.097,3785.294,0.00026,0.0,0.0
14.104,3779.479,0.00026,0.0,0.0
14.11,3755.689,0.00027,0.0,0.0
14.116,3791.388,0.00026,0.0,0.0
14.123,3757.433,0.00027,0.0,0.0
14.129,3764.07,0.00027,0.0,0.0
14.135,3764.305,0.00027,0.0,0.0
14.142,3771.396,0.00027,0.0,0.0
14.148,3763.149,0.00027,0.0,0.0
14.154,3756.08,0.00027,0.0,0.0
14.16,3748.601,0.00027,0.0,0.0
14.167,3764.944,0.00027,0.0,0.0
14.173,3746.57,0.00027,0.0,0.0
14.179,3752.426,0.00027,0.0,0.0
14.186,3736.826,0.00027,0.0,0.0
14.192,3760.765,0.00027,0.0,0.0
14.198,3756.754,0.00027,0.0,0.0
14.205,3743.893,0.00027,0.0,0.0
14.211,3747.136,0.00027,0.0,0.0
14.217,3734.594,0.00027,0.0,0.0
14.224,3748.459,0.00027,0.0,0.0
14.23,3745.093,0.00027,0.0,0.0
14.236,3738.557,0.00027,0.0,0.0
14.243,3752.75,0.00027,0.0,0.0
14.249,3749.454,0.00027,0.0,0.0
14.255,3758.327,0.00027,0.0,0.0
14.262,3756.116,0.00027,0.0,0.0
14.268,3759.643,0.00027,0.0,0.0
14.274,3769.718,0.00027,0.0,0.0
14.281,3754.04,0.00027,0.0,0.0
14.287,3744.456,0.00027,0.0,0.0
14.293,3743.223,0.00027,0.0,0.0
14.3,3728.263,0.00027,0.0,0.0
14.306,3722.397,0.00027,0.0,0.0
14.312,3727.584,0.00027,0.0,0.0
14.318,3724.165,0.00027,0.0,0.0
14.325,3710.208,0.00027,0.0,0.0
14.331,3696.899,0.00027,0.0,0.0
14.337,3697.349,0.00027,0.0,0.0
14.344,3696.994,0.00027,0.0,0.0
14.35,3695.518,0.00027,0.0,0.0
14.356,3696.246,0.00027,0.0,0.0
14.363,3670.622,0.00027,0.0,0.0
14.369,3686.102,0.00027,0.0,0.0
14.375,3682.712,0.00027,0.0,0.0
14.382,3688.002,0.00027,0.0,0.0
14.388,3680.655,0.00027,0.0,0.0
14.394,3664.004,0.00027,0.0,0.0
14.401,3676.722,0.00027,0.0,0.0
14.407,3675.535,0.00027,0.0,0.0
14.413,3671.625,0.00027,0.0,0.0
14.42,3661.071,0.00027,0.0,0.0
14.426,3672.531,0.00027,0.0,0.0
14.432,3662.877,0.00027,0.0,0.0
14.439,3679.84,0.00027,0.0,0.0
14.445,3690.121,0.00027,0.0,0.0
14.451,3731.602,0.00027,0.0,0.0
14.458,3726.639,0.00027,0.0,0.0
14.464,3895.821,0.00026,0.0,0.0
14.47,3817.33,0.00026,0.0,0.0
14.476,3926.676,0.00025,0.0,0.0
14.483,3960.051,0.00025,0.0,0.0
14.489,3776.967,0.00026,0.0,0.0
14.495,3796.024,0.00026,0.0,0.0
14.502,3921.594,0.00025,0.0,0.0
14.508,3665.745,0.00027,0.0,0.0
14.514,3694.23,0.00027,0.0,0.0
14.521,3647.273,0.00027,0.0,0.0
14.527,3637.535,0.00027,0.0,0.0
14.533,3640.933,0.00027,0.0,0.0
14.54,3613.647,0.00028,0.0,0.0
14.546,3622.723,0.00028,0.0,0.0
14.552,3617.754,0.00028,0.0,0.0
14.559,3618.825,0.00028,0.0,0.0
14.565,3616.503,0.00028,0.0,0.0
14.571,3603.839,0.00028,0.0,0.0
14.578,3601.46,0.00028,0.0,0.0
14.584,3607.586,0.00028,0.0,0.0
14.59,3602.604,0.00028,0.0,0.0
14.597,3603.872,0.00028,0.0,0.0
14.603,3602.489,0.00028,0.0,0.0
14.609,3592.321,0.00028,0.0,0.0
14.616,3593.391,0.00028,0.0,0.0
14.622,3587.674,0.00028,0.0,0.0
14.628,3598.943,0.00028,0.0,0.0
14.634,3591.451,0.00028,0.0,0.0
14.641,3585.177,0.00028,0.0,0.0
14.647,3596.61,0.00028,0.0,0.0
14.653,3583.53,0.00028,0.0,0.0
14.66,3576.348,0.00028,0.0,0.0
14.666,3580.269,0.00028,0.0,0.0
14.672,3575.802,0.00028,0.0,0.0
14.679,3566.606,0.00028,0.0,0.0
14.685,3576.773,0.00028,0.0,0.0
14.691,3568.341,0.00028,0.0,0.0
14.698,3564.554,0.00028,0.0,0.0
14.704,3569.922,0.00028,0.0,0.0
14.71,3563.435,0.00028,0.0,0.0
14.717,3562.508,0.00028,0.0,0.0
14.723,3546.389,0.00028,0.0,0.0
14.729,3547.693,0.00028,0.0,0.0
14.736,3548.78,0.00028,0.0,0.0
14.742,3543.678,0.00028,0.0,0.0
14.748,3546.485,0.00028,0.0,0.0
14.755,3540.208,0.00028,0.0,0.0
14.761,3538.457,0.00028,0.0,0.0
14.767,3538.221,0.00028,0.0,0.0
14.774,3546.82,0.00028,0.0,0.0
14.78,3541.937,0.00028,0.0,0.0
14.786,3521.812,0.00028,0.0,0.0
14.792,3532.073,0.00028,0.0,0.0
14.799,3524.741,0.00028,0.0,0.0
14.805,3523.421,0.00028,0.0,0.0
14.811,3532.111,0.00028,0.0,0.0
14.818,3515.28,0.00028,0.0,0.0
14.824,3512.548,0.00028,0.0,0.0
14.83,3526.007,0.00028,0.0,0.0
14.837,3516.037,0.00028,0.0,0.0
14.843,3525.818,0.00028,0.0,0.0
14.849,3517.022,0.00028,0.0,0.0
14.856,3518.894,0.00028,0.0,0.0
14.862,3498.924,0.00029,0.0,0.0
14.868,3505.571,0.00029,0.0,0.0
14.875,3502.149,0.00029,0.0,0.0
14.881,3488.097,0.00029,0.0,0.0
14.887,3507.646,0.00029,0.0,0.0
14.894,3481.166,0.00029,0.0,0.0
14.9,3495.144,0.00029,0.0,0.0
14.906,3497.018,0.00029,0.0,0.0
14.913,3481.138,0.00029,0.0,0.0
14.919,3493.757,0.00029,0.0,0.0
14.925,3485.671,0.00029,0.0,0.0
14.932,3472.723,0.00029,0.0,0.0
14.938,3479.504,0.00029,0.0,0.0
14.944,3471.45,0.00029,0.0,0.0
14.95,3472.348,0.00029,0.0,0.0
14.957,3475.792,0.00029,0.0,0.0
14.963,3467.097,0.00029,0.0,0.0
14.969,3466.286,0.00029,0.0,0.0
14.976,3461.181,0.00029,0.0,0.0
14.982,3469.892,0.00029,0.0,0.0
14.988,3471.407,0.00029,0.0,0.0
14.995,3465.297,0.00029,0.0,0.0
15.001,3461.578,0.00029,0.0,0.0
15.007,3462.859,0.00029,0.0,0.0
15.014,3465.09,0.00029,0.0,0.0
15.02,3443.513,0.00029,0.0,0.0
15.026,3453.468,0.00029,0.0,0.0
15.033,3451.048,0.00029,0.0,0.0
15.039,3443.118,0.00029,0.0,0.0
15.045,3453.993,0.00029,0.0,0.0
15.052,3452.641,0.00029,0.0,0.0
15.058,3440.917,0.00029,0.0,0.0
15.064,3457.007,0.00029,0.0,0.0
15.071,3452.075,0.00029,0.0,0.0
15.077,3451.622,0.00029,0.0,0.0
15.083,3446.212,0.00029,0.0,0.0
15.09,3454.236,0.00029,0.0,0.0
15.096,3436.762,0.00029,0.0,0.0
15.102,3440.45,0.00029,0.0,0.0
15.108,3437.385,0.00029,0.0,0.0
15.115,3449.16,0.00029,0.0,0.0
15.121,3437.547,0.00029,0.0,0.0
15.127,3443.729,0.00029,0.0,0.0
15.134,3442.854,0.00029,0.0,0.0
15.14,3439.099,0.00029,0.0,0.0
15.146,3448.532,0.00029,0.0,0.0
15.153,3449.161,0.00029,0.0,0.0
15.159,3432.483,0.00029,0.0,0.0
15.165,3460.526,0.00029,0.0,0.0
15.172,3443.199,0.00029,0.0,0.0
15.178,3442.508,0.00029,0.0,0.0
15.184,3453.529,0.00029,0.0,0.0
15.191,3451.327,0.00029,0.0,0.0
15.197,3458.188,0.00029,0.0,0.0
15.203,3425.564,0.00029,0.0,0.0
15.21,3436.422,0.00029,0.0,0.0
15.216,3440.852,0.00029,0.0,0.0
15.222,3430.097,0.00029,0.0,0.0
15.229,3436.325,0.00029,0.0,0.0
15.235,3436.37,0.00029,0.0,0.0
15.241,3439.98,0.00029,0.0,0.0
15.248,3460.195,0.00029,0.0,0.0
15.254,3466.364,0.00029,0.0,0.0
15.26,3481.074,0.00029,0.0,0.0
15.266,3523.969,0.00028,0.0,0.0
15.273,3559.842,0.00028,0.0,0.0
15.279,3635.137,0.00028,0.0,0.0
15.285,3741.635,0.00027,0.0,0.0
15.292,3994.606,0.00025,0.0,0.0
15.298,4272.238,0.00023,0.0,0.0
15.304,4745.894,0.00021,0.0,0.0
15.311,5283.627,0.00019,0.0,0.0
15.317,5693.003,0.00018,0.0,0.0
15.323,6075.165,0.00016,0.0,0.0
15.33,5908.017,0.00017,0.0,0.0
15.336,5587.239,0.00018,0.0,0.0
15.342,5269.974,0.00019,0.0,0.0
15.349,4596.928,0.00022,0.0,0.0
15.355,4224.058,0.00024,0.0,0.0
15.361,3910.348,0.00026,0.0,0.0
15.368,3698.89,0.00027,0.0,0.0
15.374,3594.941,0.00028,0.0,0.0
15.38,3508.038,0.00029,0.0,0.0
15.387,3461.404,0.00029,0.0,0.0
15.393,3438.822,0.00029,0.0,0.0
15.399,3410.599,0.00029,0.0,0.0
15.406,3402.764,0.00029,0.0,0.0
15.412,3408.832,0.00029,0.0,0.0
15.418,3383.079,0.0003,0.0,0.0
15.424,3372.142,0.0003,0.0,0.0
15.431,3371.344,0.0003,0.0,0.0
15.437,3377.931,0.0003,0.0,0.0
15.443,3368.784,0.0003,0.0,0.0
15.45,3368.13,0.0003,0.0,0.0
15.456,3366.023,0.0003,0.0,0.0
15.462,3361.414,0.0003,0.0,0.0
15.469,3355.827,0.0003,0.0,0.0
15.475,3368.966,0.0003,0.0,0.0
15.481,3353.776,0.0003,0.0,0.0
15.488,3349.206,0.0003,0.0,0.0
15.494,3353.172,0.0003,0.0,0.0
15.5,3355.35,0.0003,0.0,0.0
15.507,3347.181,0.0003,0.0,0.0
15.513,3346.354,0.0003,0.0,0.0
15.519,3337.26,0.0003,0.0,0.0
15.526,3333.933,0.0003,0.0,0.0
15.532,3336.415,0.0003,0.0,0.0
15.538,3328.472,0.0003,0.0,0.0
15.545,3333.661,0.0003,0.0,0.0
15.551,3330.822,0.0003,0.0,0.0
15.557,3333.318,0.0003,0.0,0.0
15.564,3323.97,0.0003,0.0,0.0
15.57,3324.317,0.0003,0.0,0.0
15.576,3325.224,0.0003,0.0,0.0
15.582,3332.456,0.0003,0.0,0.0
15.589,3307.541,0.0003,0.0,0.0
15.595,3312.809,0.0003,0.0,0.0
15.601,3317.182,0.0003,0.0,0.0
15.608,3314.453,0.0003,0.0,0.0
15.614,3314.592,0.0003,0.0,0.0
15.62,3302.788,0.0003,0.0,0.0
15.627,3305.448,0.0003,0.0,0.0
15.633,3303.697,0.0003,0.0,0.0
15.639,3315.996,0.0003,0.0,0.0
15.646,3303.384,0.0003,0.0,0.0
15.652,3293.92,0.0003,0.0,0.0
15.658,3294.703,0.0003,0.0,0.0
15.665,3304.398,0.0003,0.0,0.0
15.671,3303.75,0.0003,0.0,0.0
15.677,3292.991,0.0003,0.0,0.0
15.684,3299.969,0.0003,0.0,0.0
15.69,3302.299,0.0003,0.0,0.0
15.696,3287.148,0.0003,0.0,0.0
15.703,3291.57,0.0003,0.0,0.0
15.709,3281.351,0.0003,0.0,0.0
15.715,3287.909,0.0003,0.0,0.0
15.722,3275.824,0.00031,0.0,0.0
15.728,3274.632,0.00031,0.0,0.0
15.734,3283.991,0.0003,0.0,0.0
15.74,3273.633,0.00031,0.0,0.0
15.747,3270.806,0.00031,0.0,0.0
15.753,3274.339,0.00031,0.0,0.0
15.759,3276.895,0.00031,0.0,0.0
15.766,3266.292,0.00031,0.0,0.0
15.772,3265.64,0.00031,0.0,0.0
15.778,3285.109,0.0003,0.0,0.0
15.785,3275.413,0.00031,0.0,0.0
15.791,3270.12,0.00031,0.0,0.0
15.797,3260.157,0.00031,0.0,0.0
15.804,3277.685,0.00031,0.0,0.0
15.81,3267.946,0.00031,0.0,0.0
15.816,3261.527,0.00031,0.0,0.0
15.823,3258.813,0.00031,0.0,0.0
15.829,3267.896,0.00031,0.0,0.0
15.835,3261.723,0.00031,0.0,0.0
15.842,3270.13,0.00031,0.0,0.0
15.848,3291.959,0.0003,0.0,0.0
15.854,3262.485,0.00031,0.0,0.0
15.861,3261.716,0.00031,0.0,0.0
15.867,3272.516,0.00031,0.0,0.0
15.873,3259.946,0.00031,0.0,0.0
15.88,3271.701,0.00031,0.0,0.0
15.886,3248.019,0.00031,0.0,0.0
15.892,3254.289,0.00031,0.0,0.0
15.898,3243.896,0.00031,0.0,0.0
15.905,3252.47,0.00031,0.0,0.0
15.911,3249.603,0.00031,0.0,0.0
15.917,3249.899,0.00031,0.0,0.0
15.924,3253.567,0.00031,0.0,0.0
15.93,3235.639,0.00031,0.0,0.0
15.936,3253.376,0.00031,0.0,0.0
15.943,3244.351,0.00031,0.0,0.0
15.949,3245.819,0.00031,0.0,0.0
15.955,3238.578,0.00031,0.0,0.0
15.962,3232.045,0.00031,0.0,0.0
15.968,3225.421,0.00031,0.0,0.0
15.974,3234.291,0.00031,0.0,0.0
15.981,3240.26,0.00031,0.0,0.0
15.987,3234.031,0.00031,0.0,0.0
15.993,3217.461,0.00031,0.0,0.0
16.0,3227.074,0.00031,0.0,0.0
16.006,3228.9,0.00031,0.0,0.0
16.012,3223.082,0.00031,0.0,0.0
16.019,3218.689,0.00031,0.0,0.0
16.025,3223.72,0.00031,0.0,0.0
16.031,3219.679,0.00031,0.0,0.0
16.038,3226.34,0.00031,0.0,0.0
16.044,3230.051,0.00031,0.0,0.0
16.05,3227.289,0.00031,0.0,0.0
16.056,3220.33,0.00031,0.0,0.0
16.063,3220.097,0.00031,0.0,0.0
16.069,3216.103,0.00031,0.0,0.0
16.075,3215.224,0.00031,0.0,0.0
16.082,3219.667,0.00031,0.0,0.0
16.088,3222.992,0.00031,0.0,0.0
16.094,3218.784,0.00031,0.0,0.0
16.101,3214.093,0.00031,0.0,0.0
16.107,3216.106,0.00031,0.0,0.0
16.113,3218.056,0.00031,0.0,0.0
16.12,3214.932,0.00031,0.0,0.0
16.126,3204.084,0.00031,0.0,0.0
16.132,3211.12,0.00031,0.0,0.0
16.139,3208.199,0.00031,0.0,0.0
16.145,3204.922,0.00031,0.0,0.0
16.151,3203.453,0.00031,0.0,0.0
16.158,3204.772,0.00031,0.0,0.0
16.164,3206.096,0.00031,0.0,0.0
16.17,3207.596,0.00031,0.0,0.0
16.177,3209.573,0.00031,0.0,0.0
16.183,3196.518,0.00031,0.0,0.0
16.189,3194.544,0.00031,0.0,0.0
16.196,3188.993,0.00031,0.0,0.0
16.202,3202.049,0.00031,0.0,0.0
16.208,3199.668,0.00031,0.0,0.0
16.214,3200.763,0.00031,0.0,0.0
16.221,3206.846,0.00031,0.0,0.0
16.227,3201.563,0.00031,0.0,0.0
16.233,3194.337,0.00031,0.0,0.0
16.24,3201.562,0.00031,0.0,0.0
16.246,3183.663,0.00031,0.0,0.0
16.252,3196.058,0.00031,0.0,0.0
16.259,3189.15,0.00031,0.0,0.0
16.265,3208.575,0.00031,0.0,0.0
16.271,3194.65,0.00031,0.0,0.0
16.278,3192.682,0.00031,0.0,0.0
16.284,3202.524,0.00031,0.0,0.0
16.29,3201.101,0.00031,0.0,0.0
16.297,3191.285,0.00031,0.0,0.0
16.303,3191.883,0.00031,0.0,0.0
16.309,3194.067,0.00031,0.0,0.0
16.316,3204.531,0.00031,0.0,0.0
16.322,3197.75,0.00031,0.0,0.0
16.328,3191.761,0.00031,0.0,0.0
16.335,3194.157,0.00031,0.0,0.0
16.341,3191.851,0.00031,0.0,0.0
16.347,3182.295,0.00031,0.0,0.0
16.354,3195.296,0.00031,0.0,0.0
16.36,3197.702,0.00031,0.0,0.0
16.366,3200.824,0.00031,0.0,0.0
16.372,3192.629,0.00031,0.0,0.0
16.379,3185.663,0.00031,0.0,0.0
16.385,3190.002,0.00031,0.0,0.0
16.391,3194.311,0.00031,0.0,0.0
16.398,3196.782,0.00031,0.0,0.0
16.404,3188.828,0.00031,0.0,0.0
16.41,3191.809,0.00031,0.0,0.0
16.417,3200.241,0.00031,0.0,0.0
16.423,3190.243,0.00031,0.0,0.0
16.429,3202.963,0.00031,0.0,0.0
16.436,3203.366,0.00031,0.0,0.0
16.442,3189.471,0.00031,0.0,0.0
16.448,3198.673,0.00031,0.0,0.0
16.455,3200.434,0.00031,0.0,0.0
16.461,3197.213,0.00031,0.0,0.0
16.467,3205.325,0.00031,0.0,0.0
16.474,3216.526,0.00031,0.0,0.0
16.48,3210.988,0.00031,0.0,0.0
16.486,3224.798,0.00031,0.0,0.0
16.493,3230.572,0.00031,0.0,0.0
16.499,3248.232,0.00031,0.0,0.0
16.505,3288.239,0.0003,0.0,0.0
16.512,3263.791,0.00031,0.0,0.0
16.518,3321.945,0.0003,0.0,0.0
16.524,3303.542,0.0003,0.0,0.0
16.53,3264.536,0.00031,0.0,0.0
16.537,3268.629,0.00031,0.0,0.0
16.543,3224.781,0.00031,0.0,0.0
16.549,3230.015,0.00031,0.0,0.0
16.556,3220.726,0.00031,0.0,0.0
16.562,3214.394,0.00031,0.0,0.0
16.568,3215.184,0.00031,0.0,0.0
16.575,3208.134,0.00031,0.0,0.0
16.581,3221.42,0.00031,0.0,0.0
16.587,3211.989,0.00031,0.0,0.0
16.594,3217.733,0.00031,0.0,0.0
