"x","y_obs","weight","y_calc","y_bkg"
0.8,2805.025,0.00036,0.0,0.0
0.806,3309.054,0.0003,0.0,0.0
0.813,3453.356,0.00029,0.0,0.0
0.819,3286.344,0.0003,0.0,0.0
0.825,3925.45,0.00025,0.0,0.0
0.832,3654.382,0.00027,0.0,0.0
0.838,3970.71,0.00025,0.0,0.0
0.844,4296.786,0.00023,0.0,0.0
0.851,4178.212,0.00024,0.0,0.0
0.857,4565.361,0.00022,0.0,0.0
0.863,4941.701,0.0002,0.0,0.0
0.87,4528.666,0.00022,0.0,0.0
0.876,5348.097,0.00019,0.0,0.0
0.882,5176.535,0.00019,0.0,0.0
0.888,5476.449,0.00018,0.0,0.0
0.895,5653.377,0.00018,0.0,0.0
0.901,5640.348,0.00018,0.0,0.0
0.907,6106.95,0.00016,0.0,0.0
0.914,6224.088,0.00016,0.0,0.0
0.92,5915.767,0.00017,0.0,0.0
0.926,6494.038,0.00015,0.0,0.0
0.933,6524.058,0.00015,0.0,0.0
0.939,6329.385,0.00016,0.0,0.0
0.945,6922.863,0.00014,0.0,0.0
0.952,6516.904,0.00015,0.0,0.0
0.958,6883.395,0.00015,0.0,0.0
0.964,6876.509,0.00015,0.0,0.0
0.971,6682.228,0.00015,0.0,0.0
0.977,7083.386,0.00014,0.0,0.0
0.983,7017.805,0.00014,0.0,0.0
0.99,6903.002,0.00014,0.0,0.0
0.996,7223.171,0.00014,0.0,0.0
1.002,6931.725,0.00014,0.0,0.0
1.009,7122.363,0.00014,0.0,0.0
1.015,7216.451,0.00014,0.0,0.0
1.021,6993.927,0.00014,0.0,0.0
1.028,7316.582,0.00014,0.0,0.0
1.034,7118.943,0.00014,0.0,0.0
1.04,7101.291,0.00014,0.0,0.0
1.046,7171.586,0.00014,0.0,0.0
1.053,7135.848,0.00014,0.0,0.0
1.059,7082.408,0.00014,0.0,0.0
1.065,7158.367,0.00014,0.0,0.0
1.072,7003.27,0.00014,0.0,0.0
1.078,7075.7,0.00014,0.0,0.0
1.084,6965.685,0.00014,0.0,0.0
1.091,6997.358,0.00014,0.0,0.0
1.097,7031.263,0.00014,0.0,0.0
1.103,6960.593,0.00014,0.0,0.0
1.11,6959.433,0.00014,0.0,0.0
1.116,6916.997,0.00014,0.0,0.0
1.122,6799.217,0.00015,0.0,0.0
1.129,6869.362,0.00015,0.0,0.0
1.135,6781.617,0.00015,0.0,0.0
1.141,6771.461,0.00015,0.0,0.0
1.148,6783.092,0.00015,0.0,0.0
1.154,6663.915,0.00015,0.0,0.0
1.16,6651.861,0.00015,0.0,0.0
1.167,6576.074,0.00015,0.0,0.0
1.173,6556.809,0.00015,0.0,0.0
1.179,6511.421,0.00015,0.0,0.0
1.186,6448.674,0.00016,0.0,0.0
1.192,6392.738,0.00016,0.0,0.0
1.198,6375.033,0.00016,0.0,0.0
1.204,6282.744,0.00016,0.0,0.0
1.211,6348.48,0.00016,0.0,0.0
1.217,6238.231,0.00016,0.0,0.0
1.223,6226.039,0.00016,0.0,0.0
1.23,6218.209,0.00016,0.0,0.0
1.236,6173.382,0.00016,0.0,0.0
1.242,6148.18,0.00016,0.0,0.0
1.249,6140.931,0.00016,0.0,0.0
1.255,6104.95,0.00016,0.0,0.0
1.261,6027.9,0.00017,0.0,0.0
1.268,6019.703,0.00017,0.0,0.0
1.274,5938.549,0.00017,0.0,0.0
1.28,5994.226,0.00017,0.0,0.0
1.287,5936.122,0.00017,0.0,0.0
1.293,5930.943,0.00017,0.0,0.0
1.299,5887.359,0.00017,0.0,0.0
1.306,5910.13,0.00017,0.0,0.0
1.312,5823.997,0.00017,0.0,0.0
1.318,5836.89,0.00017,0.0,0.0
1.325,5775.745,0.00017,0.0,0.0
1.331,5841.302,0.00017,0.0,0.0
1.337,5775.663,0.00017,0.0,0.0
1.344,5763.287,0.00017,0.0,0.0
1.35,5779.157,0.00017,0.0,0.0
1.356,5707.416,0.00018,0.0,0.0
1.362,5708.054,0.00018,0.0,0.0
1.369,5694.255,0.00018,0.0,0.0
1.375,5664.508,0.00018,0.0,0.0
1.381,5646.556,0.00018,0.0,0.0
1.388,5680.72,0.00018,0.0,0.0
1.394,5614.56,0.00018,0.0,0.0
1.4,5630.292,0.00018,0.0,0.0
1.407,5592.451,0.00018,0.0,0.0
1.413,5633.531,0.00018,0.0,0.0
1.419,5603.016,0.00018,0.0,0.0
1.426,5597.294,0.00018,0.0,0.0
1.432,5627.804,0.00018,0.0,0.0
1.438,5601.808,0.00018,0.0,0.0
1.445,5585.021,0.00018,0.0,0.0
1.451,5601.983,0.00018,0.0,0.0
1.457,5573.64,0.00018,0.0,0.0
1.464,5589.511,0.00018,0.0,0.0
1.47,5551.239,0.00018,0.0,0.0
1.476,5572.555,0.00018,0.0,0.0
1.483,5589.893,0.00018,0.0,0.0
1.489,5582.324,0.00018,0.0,0.0
1.495,5551.039,0.00018,0.0,0.0
1.502,5576.766,0.00018,0.0,0.0
1.508,5569.722,0.00018,0.0,0.0
1.514,5567.493,0.00018,0.0,0.0
1.52,5570.258,0.00018,0.0,0.0
1.527,5542.26,0.00018,0.0,0.0
1.533,5588.517,0.00018,0.0,0.0
1.539,5512.164,0.00018,0.0,0.0
1.546,5576.49,0.00018,0.0,0.0
1.552,5571.054,0.00018,0.0,0.0
1.558,5576.575,0.00018,0.0,0.0
1.565,5590.92,0.00018,0.0,0.0
1.571,5591.263,0.00018,0.0,0.0
1.577,5591.463,0.00018,0.0,0.0
1.584,5567.22,0.00018,0.0,0.0
1.59,5613.016,0.00018,0.0,0.0
1.596,5582.432,0.00018,0.0,0.0
1.603,5650.116,0.00018,0.0,0.0
1.609,5598.033,0.00018,0.0,0.0
1.615,5658.724,0.00018,0.0,0.0
1.622,5646.05,0.00018,0.0,0.0
1.628,5647.795,0.00018,0.0,0.0
1.634,5701.535,0.00018,0.0,0.0
1.641,5710.307,0.00018,0.0,0.0
1.647,5706.072,0.00018,0.0,0.0
1.653,5739.75,0.00017,0.0,0.0
1.66,5729.515,0.00017,0.0,0.0
1.666,5762.811,0.00017,0.0,0.0
1.672,5743.856,0.00017,0.0,0.0
1.678,5760.418,0.00017,0.0,0.0
1.685,5796.404,0.00017,0.0,0.0
1.691,5790.117,0.00017,0.0,0.0
1.697,5794.745,0.00017,0.0,0.0
1.704,5793.195,0.00017,0.0,0.0
1.71,5809.984,0.00017,0.0,0.0
1.716,5851.756,0.00017,0.0,0.0
1.723,5860.394,0.00017,0.0,0.0
1.729,5880.342,0.00017,0.0,0.0
1.735,5892.082,0.00017,0.0,0.0
1.742,5898.421,0.00017,0.0,0.0
1.748,5915.638,0.00017,0.0,0.0
1.754,5918.575,0.00017,0.0,0.0
1.761,5945.43,0.00017,0.0,0.0
1.767,5910.88,0.00017,0.0,0.0
1.773,5939.679,0.00017,0.0,0.0
1.78,5895.504,0.00017,0.0,0.0
1.786,5964.171,0.00017,0.0,0.0
1.792,5974.438,0.00017,0.0,0.0
1.799,5958.939,0.00017,0.0,0.0
1.805,5969.231,0.00017,0.0,0.0
1.811,5968.801,0.00017,0.0,0.0
1.818,6001.706,0.00017,0.0,0.0
1.824,5991.482,0.00017,0.0,0.0
1.83,5982.155,0.00017,0.0,0.0
1.836,5981.147,0.00017,0.0,0.0
1.843,5976.347,0.00017,0.0,0.0
1.849,5963.766,0.00017,0.0,0.0
1.855,6005.964,0.00017,0.0,0.0
1.862,5956.246,0.00017,0.0,0.0
1.868,5995.297,0.00017,0.0,0.0
1.874,5962.52,0.00017,0.0,0.0
1.881,6001.606,0.00017,0.0,0.0
1.887,5994.564,0.00017,0.0,0.0
1.893,5962.473,0.00017,0.0,0.0
1.9,5980.659,0.00017,0.0,0.0
1.906,6007.234,0.00017,0.0,0.0
1.912,5999.256,0.00017,0.0,0.0
1.919,5963.378,0.00017,0.0,0.0
1.925,6005.6,0.00017,0.0,0.0
1.931,5992.149,0.00017,0.0,0.0
1.938,5973.851,0.00017,0.0,0.0
1.944,6014.691,0.00017,0.0,0.0
1.95,5979.577,0.00017,0.0,0.0
1.957,5987.574,0.00017,0.0,0.0
1.963,5958.077,0.00017,0.0,0.0
1.969,5976.392,0.00017,0.0,0.0
1.976,5971.755,0.00017,0.0,0.0
1.982,5975.318,0.00017,0.0,0.0
1.988,5986.779,0.00017,0.0,0.0
1.994,5993.649,0.00017,0.0,0.0
2.001,5973.522,0.00017,0.0,0.0
2.007,5999.608,0.00017,0.0,0.0
2.013,5983.023,0.00017,0.0,0.0
2.02,5988.831,0.00017,0.0,0.0
2.026,6003.616,0.00017,0.0,0.0
2.032,6013.98,0.00017,0.0,0.0
2.039,6021.085,0.00017,0.0,0.0
2.045,6009.007,0.00017,0.0,0.0
2.051,5979.359,0.00017,0.0,0.0
2.058,5980.29,0.00017,0.0,0.0
2.064,6005.407,0.00017,0.0,0.0
2.07,6009.172,0.00017,0.0,0.0
2.077,6009.401,0.00017,0.0,0.0
2.083,6011.294,0.00017,0.0,0.0
2.089,6008.4,0.00017,0.0,0.0
2.096,6023.878,0.00017,0.0,0.0
2.102,6029.084,0.00017,0.0,0.0
2.108,6020.341,0.00017,0.0,0.0
2.115,6020.858,0.00017,0.0,0.0
2.121,6036.647,0.00017,0.0,0.0
2.127,6029.908,0.00017,0.0,0.0
2.134,6072.031,0.00016,0.0,0.0
2.14,6058.807,0.00017,0.0,0.0
2.146,6098.602,0.00016,0.0,0.0
2.152,6122.953,0.00016,0.0,0.0
2.159,6082.564,0.00016,0.0,0.0
2.165,6108.902,0.00016,0.0,0.0
2.171,6114.873,0.00016,0.0,0.0
2.178,6151.613,0.00016,0.0,0.0
2.184,6170.254,0.00016,0.0,0.0
2.19,6154.704,0.00016,0.0,0.0
2.197,6164.898,0.00016,0.0,0.0
2.203,6176.192,0.00016,0.0,0.0
2.209,6190.95,0.00016,0.0,0.0
2.216,6214.524,0.00016,0.0,0.0
2.222,6196.127,0.00016,0.0,0.0
2.228,6219.167,0.00016,0.0,0.0
2.235,6233.362,0.00016,0.0,0.0
2.241,6248.269,0.00016,0.0,0.0
2.247,6264.981,0.00016,0.0,0.0
2.254,6280.451,0.00016,0.0,0.0
2.26,6275.378,0.00016,0.0,0.0
2.266,6294.72,0.00016,0.0,0.0
2.273,6330.525,0.00016,0.0,0.0
2.279,6313.912,0.00016,0.0,0.0
2.285,6333.91,0.00016,0.0,0.0
2.292,6338.728,0.00016,0.0,0.0
2.298,6372.511,0.00016,0.0,0.0
2.304,6400.451,0.00016,0.0,0.0
2.31,6409.26,0.00016,0.0,0.0
2.317,6425.548,0.00016,0.0,0.0
2.323,6446.99,0.00016,0.0,0.0
2.329,6451.955,0.00015,0.0,0.0
2.336,6484.752,0.00015,0.0,0.0
2.342,6506.474,0.00015,0.0,0.0
2.348,6514.223,0.00015,0.0,0.0
2.355,6555.289,0.00015,0.0,0.0
2.361,6554.979,0.00015,0.0,0.0
2.367,6624.072,0.00015,0.0,0.0
2.374,6603.897,0.00015,0.0,0.0
2.38,6677.618,0.00015,0.0,0.0
2.386,6690.365,0.00015,0.0,0.0
2.393,6730.954,0.00015,0.0,0.0
2.399,6794.863,0.00015,0.0,0.0
2.405,6895.425,0.00015,0.0,0.0
2.412,7004.161,0.00014,0.0,0.0
2.418,7110.957,0.00014,0.0,0.0
2.424,7156.359,0.00014,0.0,0.0
2.431,7234.79,0.00014,0.0,0.0
2.437,7195.782,0.00014,0.0,0.0
2.443,7117.317,0.00014,0.0,0.0
2.45,7068.81,0.00014,0.0,0.0
2.456,7018.5,0.00014,0.0,0.0
2.462,6983.253,0.00014,0.0,0.0
2.468,6955.687,0.00014,0.0,0.0
2.475,6997.496,0.00014,0.0,0.0
2.481,7009.508,0.00014,0.0,0.0
2.487,7021.086,0.00014,0.0,0.0
2.494,7038.958,0.00014,0.0,0.0
2.5,7050.165,0.00014,0.0,0.0
2.506,7078.327,0.00014,0.0,0.0
2.513,7117.937,0.00014,0.0,0.0
2.519,7100.049,0.00014,0.0,0.0
2.525,7150.068,0.00014,0.0,0.0
2.532,7168.303,0.00014,0.0,0.0
2.538,7201.393,0.00014,0.0,0.0
2.544,7217.026,0.00014,0.0,0.0
2.551,7240.641,0.00014,0.0,0.0
2.557,7286.442,0.00014,0.0,0.0
2.563,7294.967,0.00014,0.0,0.0
2.57,7311.587,0.00014,0.0,0.0
2.576,7345.252,0.00014,0.0,0.0
2.582,7360.139,0.00014,0.0,0.0
2.589,7384.944,0.00014,0.0,0.0
2.595,7402.949,0.00014,0.0,0.0
2.601,7427.818,0.00013,0.0,0.0
2.608,7465.531,0.00013,0.0,0.0
2.614,7480.45,0.00013,0.0,0.0
2.62,7487.624,0.00013,0.0,0.0
2.626,7513.678,0.00013,0.0,0.0
2.633,7533.149,0.00013,0.0,0.0
2.639,7598.749,0.00013,0.0,0.0
2.645,7623.732,0.00013,0.0,0.0
2.652,7649.485,0.00013,0.0,0.0
2.658,7693.282,0.00013,0.0,0.0
2.664,7677.18,0.00013,0.0,0.0
2.671,7713.177,0.00013,0.0,0.0
2.677,7733.893,0.00013,0.0,0.0
2.683,7742.014,0.00013,0.0,0.0
2.69,7775.644,0.00013,0.0,0.0
2.696,7799.04,0.00013,0.0,0.0
2.702,7847.233,0.00013,0.0,0.0
2.709,7825.641,0.00013,0.0,0.0
2.715,7901.247,0.00013,0.0,0.0
2.721,7872.46,0.00013,0.0,0.0
2.728,7922.375,0.00013,0.0,0.0
2.734,7930.314,0.00013,0.0,0.0
2.74,7972.624,0.00013,0.0,0.0
2.747,7996.892,0.00013,0.0,0.0
2.753,8014.501,0.00012,0.0,0.0
2.759,8033.811,0.00012,0.0,0.0
2.766,8070.097,0.00012,0.0,0.0
2.772,8129.869,0.00012,0.0,0.0
2.778,8124.948,0.00012,0.0,0.0
2.784,8159.596,0.00012,0.0,0.0
2.791,8184.879,0.00012,0.0,0.0
2.797,8220.26,0.00012,0.0,0.0
2.803,8259.444,0.00012,0.0,0.0
2.81,8277.254,0.00012,0.0,0.0
2.816,8315.594,0.00012,0.0,0.0
2.822,8326.243,0.00012,0.0,0.0
2.829,8373.949,0.00012,0.0,0.0
2.835,8344.466,0.00012,0.0,0.0
2.841,8393.163,0.00012,0.0,0.0
2.848,8429.179,0.00012,0.0,0.0
2.854,8422.767,0.00012,0.0,0.0
2.86,8473.318,0.00012,0.0,0.0
2.867,8507.486,0.00012,0.0,0.0
2.873,8498.499,0.00012,0.0,0.0
2.879,8540.739,0.00012,0.0,0.0
2.886,8558.415,0.00012,0.0,0.0
2.892,8595.264,0.00012,0.0,0.0
2.898,8609.104,0.00012,0.0,0.0
2.905,8645.285,0.00012,0.0,0.0
2.911,8640.381,0.00012,0.0,0.0
2.917,8662.638,0.00012,0.0,0.0
2.924,8700.708,0.00011,0.0,0.0
2.93,8746.692,0.00011,0.0,0.0
2.936,8739.192,0.00011,0.0,0.0
2.942,8751.155,0.00011,0.0,0.0
2.949,8782.565,0.00011,0.0,0.0
2.955,8805.886,0.00011,0.0,0.0
2.961,8815.904,0.00011,0.0,0.0
2.968,8863.242,0.00011,0.0,0.0
2.974,8858.585,0.00011,0.0,0.0
2.98,8857.284,0.00011,0.0,0.0
2.987,8894.206,0.00011,0.0,0.0
2.993,8870.381,0.00011,0.0,0.0
2.999,8944.49,0.00011,0.0,0.0
3.006,8905.01,0.00011,0.0,0.0
3.012,8937.593,0.00011,0.0,0.0
3.018,8966.035,0.00011,0.0,0.0
3.025,8966.531,0.00011,0.0,0.0
3.031,8987.235,0.00011,0.0,0.0
3.037,8997.074,0.00011,0.0,0.0
3.044,9031.834,0.00011,0.0,0.0
3.05,8998.747,0.00011,0.0,0.0
3.056,9015.157,0.00011,0.0,0.0
3.063,9016.984,0.00011,0.0,0.0
3.069,9007.341,0.00011,0.0,0.0
3.075,9037.22,0.00011,0.0,0.0
3.082,9032.349,0.00011,0.0,0.0
3.088,9058.398,0.00011,0.0,0.0
3.094,9041.011,0.00011,0.0,0.0
3.1,9060.28,0.00011,0.0,0.0
3.107,9036.776,0.00011,0.0,0.0
3.113,9036.144,0.00011,0.0,0.0
3.119,9047.717,0.00011,0.0,0.0
3.126,9022.263,0.00011,0.0,0.0
3.132,9026.267,0.00011,0.0,0.0
3.138,9009.433,0.00011,0.0,0.0
3.145,9029.008,0.00011,0.0,0.0
3.151,9022.802,0.00011,0.0,0.0
3.157,9002.271,0.00011,0.0,0.0
3.164,9009.734,0.00011,0.0,0.0
3.17,8992.222,0.00011,0.0,0.0
3.176,8991.561,0.00011,0.0,0.0
3.183,8993.053,0.00011,0.0,0.0
3.189,8960.223,0.00011,0.0,0.0
3.195,8960.887,0.00011,0.0,0.0
3.202,8986.98,0.00011,0.0,0.0
3.208,8938.757,0.00011,0.0,0.0
3.214,8939.518,0.00011,0.0,0.0
3.221,8917.622,0.00011,0.0,0.0
3.227,8927.418,0.00011,0.0,0.0
3.233,8879.062,0.00011,0.0,0.0
3.24,8895.654,0.00011,0.0,0.0
3.246,8870.122,0.00011,0.0,0.0
3.252,8852.824,0.00011,0.0,0.0
3.258,8829.497,0.00011,0.0,0.0
3.265,8861.273,0.00011,0.0,0.0
3.271,8817.531,0.00011,0.0,0.0
3.277,8806.388,0.00011,0.0,0.0
3.284,8790.467,0.00011,0.0,0.0
3.29,8789.116,0.00011,0.0,0.0
3.296,8757.793,0.00011,0.0,0.0
3.303,8781.473,0.00011,0.0,0.0
3.309,8761.154,0.00011,0.0,0.0
3.315,8697.805,0.00011,0.0,0.0
3.322,8734.703,0.00011,0.0,0.0
3.328,8708.522,0.00011,0.0,0.0
3.334,8689.781,0.00012,0.0,0.0
3.341,8664.118,0.00012,0.0,0.0
3.347,8649.658,0.00012,0.0,0.0
3.353,8649.388,0.00012,0.0,0.0
3.36,8608.989,0.00012,0.0,0.0
3.366,8617.709,0.00012,0.0,0.0
3.372,8586.753,0.00012,0.0,0.0
3.379,8572.924,0.00012,0.0,0.0
3.385,8576.242,0.00012,0.0,0.0
3.391,8570.046,0.00012,0.0,0.0
3.398,8541.587,0.00012,0.0,0.0
3.404,8527.746,0.00012,0.0,0.0
3.41,8527.611,0.00012,0.0,0.0
3.416,8500.53,0.00012,0.0,0.0
3.423,8511.7,0.00012,0.0,0.0
3.429,8499.567,0.00012,0.0,0.0
3.435,8497.757,0.00012,0.0,0.0
3.442,8483.347,0.00012,0.0,0.0
3.448,8481.346,0.00012,0.0,0.0
3.454,8451.705,0.00012,0.0,0.0
3.461,8432.043,0.00012,0.0,0.0
3.467,8442.281,0.00012,0.0,0.0
3.473,8415.573,0.00012,0.0,0.0
3.48,8404.462,0.00012,0.0,0.0
3.486,8364.964,0.00012,0.0,0.0
3.492,8372.395,0.00012,0.0,0.0
3.499,8349.936,0.00012,0.0,0.0
3.505,8387.271,0.00012,0.0,0.0
3.511,8350.437,0.00012,0.0,0.0
3.518,8326.457,0.00012,0.0,0.0
3.524,8348.976,0.00012,0.0,0.0
3.53,8350.606,0.00012,0.0,0.0
3.537,8330.983,0.00012,0.0,0.0
3.543,8318.035,0.00012,0.0,0.0
3.549,8311.981,0.00012,0.0,0.0
3.556,8320.605,0.00012,0.0,0.0
3.562,8287.453,0.00012,0.0,0.0
3.568,8302.157,0.00012,0.0,0.0
3.574,8287.887,0.00012,0.0,0.0
3.581,8298.34,0.00012,0.0,0.0
3.587,8283.244,0.00012,0.0,0.0
3.593,8285.661,0.00012,0.0,0.0
3.6,8295.287,0.00012,0.0,0.0
3.606,8308.643,0.00012,0.0,0.0
3.612,8307.007,0.00012,0.0,0.0
3.619,8296.796,0.00012,0.0,0.0
3.625,8310.399,0.00012,0.0,0.0
3.631,8301.412,0.00012,0.0,0.0
3.638,8302.586,0.00012,0.0,0.0
3.644,8322.624,0.00012,0.0,0.0
3.65,8308.514,0.00012,0.0,0.0
3.657,8318.048,0.00012,0.0,0.0
3.663,8303.833,0.00012,0.0,0.0
3.669,8317.38,0.00012,0.0,0.0
3.676,8357.783,0.00012,0.0,0.0
3.682,8339.454,0.00012,0.0,0.0
3.688,8322.045,0.00012,0.0,0.0
3.695,8350.427,0.00012,0.0,0.0
3.701,8363.544,0.00012,0.0,0.0
3.707,8360.568,0.00012,0.0,0.0
3.714,8374.588,0.00012,0.0,0.0
3.72,8348.251,0.00012,0.0,0.0
3.726,8381.577,0.00012,0.0,0.0
3.732,8372.846,0.00012,0.0,0.0
3.739,8375.057,0.00012,0.0,0.0
3.745,8390.311,0.00012,0.0,0.0
3.751,8393.698,0.00012,0.0,0.0
3.758,8397.557,0.00012,0.0,0.0
3.764,8403.974,0.00012,0.0,0.0
3.77,8396.236,0.00012,0.0,0.0
3.777,8384.485,0.00012,0.0,0.0
3.783,8408.741,0.00012,0.0,0.0
3.789,8411.383,0.00012,0.0,0.0
3.796,8411.66,0.00012,0.0,0.0
3.802,8387.726,0.00012,0.0,0.0
3.808,8426.112,0.00012,0.0,0.0
3.815,8429.237,0.00012,0.0,0.0
3.821,8408.918,0.00012,0.0,0.0
3.827,8427.423,0.00012,0.0,0.0
3.834,8418.368,0.00012,0.0,0.0
3.84,8416.563,0.00012,0.0,0.0
3.846,8400.706,0.00012,0.0,0.0
3.853,8413.996,0.00012,0.0,0.0
3.859,8377.615,0.00012,0.0,0.0
3.865,8378.127,0.00012,0.0,0.0
3.872,8390.783,0.00012,0.0,0.0
3.878,8370.637,0.00012,0.0,0.0
3.884,8365.962,0.00012,0.0,0.0
3.89,8379.924,0.00012,0.0,0.0
3.897,8367.818,0.00012,0.0,0.0
3.903,8343.301,0.00012,0.0,0.0
3.909,8358.384,0.00012,0.0,0.0
3.916,8332.984,0.00012,0.0,0.0
3.922,8335.709,0.00012,0.0,0.0
3.928,8310.778,0.00012,0.0,0.0
3.935,8317.603,0.00012,0.0,0.0
3.941,8299.312,0.00012,0.0,0.0
3.947,8357.164,0.00012,0.0,0.0
3.954,8311.032,0.00012,0.0,0.0
3.96,8342.57,0.00012,0.0,0.0
3.966,8337.327,0.00012,0.0,0.0
3.973,8306.241,0.00012,0.0,0.0
3.979,8290.506,0.00012,0.0,0.0
3.985,8301.434,0.00012,0.0,0.0
3.992,8281.794,0.00012,0.0,0.0
3.998,8295.573,0.00012,0.0,0.0
4.004,8270.346,0.00012,0.0,0.0
4.011,8292.279,0.00012,0.0,0.0
4.017,8252.607,0.00012,0.0,0.0
4.023,8277.694,0.00012,0.0,0.0
4.03,8263.352,0.00012,0.0,0.0
4.036,8258.538,0.00012,0.0,0.0
4.042,8274.944,0.00012,0.0,0.0
4.048,8278.015,0.00012,0.0,0.0
4.055,8261.045,0.00012,0.0,0.0
4.061,8298.28,0.00012,0.0,0.0
4.067,8284.806,0.00012,0.0,0.0
4.074,8287.141,0.00012,0.0,0.0
4.08,8307.512,0.00012,0.0,0.0
4.086,8276.732,0.00012,0.0,0.0
4.093,8322.92,0.00012,0.0,0.0
4.099,8297.306,0.00012,0.0,0.0
4.105,8314.446,0.00012,0.0,0.0
4.112,8325.212,0.00012,0.0,0.0
4.118,8321.347,0.00012,0.0,0.0
4.124,8322.854,0.00012,0.0,0.0
4.131,8343.274,0.00012,0.0,0.0
4.137,8333.035,0.00012,0.0,0.0
4.143,8397.209,0.00012,0.0,0.0
4.15,8375.745,0.00012,0.0,0.0
4.156,8407.367,0.00012,0.0,0.0
4.162,8411.796,0.00012,0.0,0.0
4.169,8423.364,0.00012,0.0,0.0
4.175,8464.629,0.00012,0.0,0.0
4.181,8483.631,0.00012,0.0,0.0
4.188,8486.236,0.00012,0.0,0.0
4.194,8539.933,0.00012,0.0,0.0
4.2,8580.374,0.00012,0.0,0.0
4.206,8541.232,0.00012,0.0,0.0
4.213,8676.29,0.00012,0.0,0.0
4.219,8600.446,0.00012,0.0,0.0
4.225,8670.81,0.00012,0.0,0.0
4.232,8642.484,0.00012,0.0,0.0
4.238,8646.261,0.00012,0.0,0.0
4.244,8723.517,0.00011,0.0,0.0
4.251,8748.889,0.00011,0.0,0.0
4.257,8747.072,0.00011,0.0,0.0
4.263,8834.393,0.00011,0.0,0.0
4.27,8826.412,0.00011,0.0,0.0
4.276,8920.673,0.00011,0.0,0.0
4.282,9060.693,0.00011,0.0,0.0
4.289,8934.822,0.00011,0.0,0.0
4.295,9025.873,0.00011,0.0,0.0
4.301,8998.675,0.00011,0.0,0.0
4.308,9063.02,0.00011,0.0,0.0
4.314,9108.353,0.00011,0.0,0.0
4.32,9113.481,0.00011,0.0,0.0
4.327,9192.728,0.00011,0.0,0.0
4.333,9188.635,0.00011,0.0,0.0
4.339,9234.874,0.00011,0.0,0.0
4.346,9409.616,0.00011,0.0,0.0
4.352,9330.648,0.00011,0.0,0.0
4.358,9482.346,0.00011,0.0,0.0
4.364,9528.185,0.0001,0.0,0.0
4.371,9429.04,0.00011,0.0,0.0
4.377,9798.46,0.0001,0.0,0.0
4.383,9627.864,0.0001,0.0,0.0
4.39,9814.31,0.0001,0.0,0.0
4.396,9906.83,0.0001,0.0,0.0
4.402,9878.073,0.0001,0.0,0.0
4.409,9996.639,0.0001,0.0,0.0
4.415,10173.082,0.0001,0.0,0.0
4.421,10147.226,0.0001,0.0,0.0
4.428,10521.12,0.0001,0.0,0.0
4.434,10419.793,0.0001,0.0,0.0
4.44,10513.165,0.0001,0.0,0.0
4.447,10810.495,0.00009,0.0,0.0
4.453,10709.291,0.00009,0.0,0.0
4.459,11253.012,0.00009,0.0,0.0
4.466,11315.65,0.00009,0.0,0.0
4.472,11333.513,0.00009,0.0,0.0
4.478,12070.898,0.00008,0.0,0.0
4.485,11924.773,0.00008,0.0,0.0
4.491,12491.717,0.00008,0.0,0.0
4.497,13853.414,0.00007,0.0,0.0
4.504,13356.007,0.00007,0.0,0.0
4.51,16598.997,0.00006,0.0,0.0
4.516,17417.746,0.00006,0.0,0.0
4.522,19417.523,0.00005,0.0,0.0
4.529,32510.661,0.00003,0.0,0.0
4.535,39126.146,0.00003,0.0,0.0
4.541,54736.065,0.00002,0.0,0.0
4.548,86737.766,0.00001,0.0,0.0
4.554,71438.456,0.00001,0.0,0.0
4.56,96808.915,0.00001,0.0,0.0
4.567,87089.818,0.00001,0.0,0.0
4.573,78632.628,0.00001,0.0,0.0
4.579,72583.786,0.00001,0.0,0.0
4.586,49035.186,0.00002,0.0,0.0
4.592,48689.423,0.00002,0.0,0.0
4.598,27726.384,0.00004,0.0,0.0
4.605,27816.814,0.00004,0.0,0.0
4.611,18589.097,0.00005,0.0,0.0
4.617,16959.513,0.00006,0.0,0.0
4.624,14292.453,0.00007,0.0,0.0
4.63,14214.064,0.00007,0.0,0.0
4.636,12556.709,0.00008,0.0,0.0
4.643,12507.117,0.00008,0.0,0.0
4.649,11995.451,0.00008,0.0,0.0
4.655,11552.875,0.00009,0.0,0.0
4.662,11748.515,0.00009,0.0,0.0
4.668,11151.173,0.00009,0.0,0.0
4.674,10857.225,0.00009,0.0,0.0
4.68,11116.445,0.00009,0.0,0.0
4.687,10526.749,0.00009,0.0,0.0
4.693,10631.032,0.00009,0.0,0.0
4.699,10522.647,0.0001,0.0,0.0
4.706,10168.968,0.0001,0.0,0.0
4.712,10404.96,0.0001,0.0,0.0
4.718,10072.601,0.0001,0.0,0.0
4.725,9836.465,0.0001,0.0,0.0
4.731,10132.441,0.0001,0.0,0.0
4.737,9720.863,0.0001,0.0,0.0
4.744,9791.917,0.0001,0.0,0.0
4.75,9690.167,0.0001,0.0,0.0
4.756,9527.275,0.0001,0.0,0.0
4.763,9541.204,0.0001,0.0,0.0
4.769,9408.487,0.00011,0.0,0.0
4.775,9334.39,0.00011,0.0,0.0
4.782,9357.474,0.00011,0.0,0.0
4.788,9189.946,0.00011,0.0,0.0
4.794,9133.719,0.00011,0.0,0.0
4.801,9144.62,0.00011,0.0,0.0
4.807,8940.615,0.00011,0.0,0.0
4.813,9052.504,0.00011,0.0,0.0
4.82,8918.127,0.00011,0.0,0.0
4.826,8913.826,0.00011,0.0,0.0
4.832,8964.797,0.00011,0.0,0.0
4.838,8937.224,0.00011,0.0,0.0
4.845,8964.776,0.00011,0.0,0.0
4.851,9084.465,0.00011,0.0,0.0
4.857,9092.295,0.00011,0.0,0.0
4.864,9090.879,0.00011,0.0,0.0
4.87,9008.962,0.00011,0.0,0.0
4.876,8799.076,0.00011,0.0,0.0
4.883,8748.262,0.00011,0.0,0.0
4.889,8504.92,0.00012,0.0,0.0
4.895,8452.603,0.00012,0.0,0.0
4.902,8380.187,0.00012,0.0,0.0
4.908,8257.157,0.00012,0.0,0.0
4.914,8257.106,0.00012,0.0,0.0
4.921,8167.867,0.00012,0.0,0.0
4.927,8119.982,0.00012,0.0,0.0
4.933,8106.381,0.00012,0.0,0.0
4.94,8047.399,0.00012,0.0,0.0
4.946,7996.219,0.00013,0.0,0.0
4.952,7978.332,0.00013,0.0,0.0
4.959,7920.818,0.00013,0.0,0.0
4.965,7913.22,0.00013,0.0,0.0
4.971,7854.284,0.00013,0.0,0.0
4.978,7835.28,0.00013,0.0,0.0
4.984,7834.889,0.00013,0.0,0.0
4.99,7764.95,0.00013,0.0,0.0
4.996,7722.281,0.00013,0.0,0.0
5.003,7698.156,0.00013,0.0,0.0
5.009,7659.462,0.00013,0.0,0.0
5.015,7673.817,0.00013,0.0,0.0
5.022,7595.978,0.00013,0.0,0.0
5.028,7574.478,0.00013,0.0,0.0
5.034,7594.256,0.00013,0.0,0.0
5.041,7510.092,0.00013,0.0,0.0
5.047,7501.637,0.00013,0.0,0.0
5.053,7486.022,0.00013,0.0,0.0
5.06,7453.341,0.00013,0.0,0.0
5.066,7455.242,0.00013,0.0,0.0
5.072,7402.314,0.00014,0.0,0.0
5.079,7362.702,0.00014,0.0,0.0
5.085,7382.041,0.00014,0.0,0.0
5.091,7311.431,0.00014,0.0,0.0
5.098,7310.444,0.00014,0.0,0.0
5.104,7271.404,0.00014,0.0,0.0
5.11,7263.88,0.00014,0.0,0.0
5.117,7242.459,0.00014,0.0,0.0
5.123,7204.777,0.00014,0.0,0.0
5.129,7182.056,0.00014,0.0,0.0
5.136,7182.351,0.00014,0.0,0.0
5.142,7148.906,0.00014,0.0,0.0
5.148,7113.049,0.00014,0.0,0.0
5.154,7139.301,0.00014,0.0,0.0
5.161,7074.388,0.00014,0.0,0.0
5.167,7083.795,0.00014,0.0,0.0
5.173,7033.692,0.00014,0.0,0.0
5.18,7031.964,0.00014,0.0,0.0
5.186,7033.508,0.00014,0.0,0.0
5.192,6975.885,0.00014,0.0,0.0
5.199,6957.56,0.00014,0.0,0.0
5.205,6973.039,0.00014,0.0,0.0
5.211,6940.303,0.00014,0.0,0.0
5.218,6930.528,0.00014,0.0,0.0
5.224,6907.857,0.00014,0.0,0.0
5.23,6886.525,0.00015,0.0,0.0
5.237,6894.008,0.00015,0.0,0.0
5.243,6841.42,0.00015,0.0,0.0
5.249,6867.904,0.00015,0.0,0.0
5.256,6789.717,0.00015,0.0,0.0
5.262,6812.349,0.00015,0.0,0.0
5.268,6818.737,0.00015,0.0,0.0
5.275,6787.615,0.00015,0.0,0.0
5.281,6756.352,0.00015,0.0,0.0
5.287,6768.586,0.00015,0.0,0.0
5.294,6732.025,0.00015,0.0,0.0
5.3,6744.96,0.00015,0.0,0.0
5.306,6724.001,0.00015,0.0,0.0
5.312,6691.469,0.00015,0.0,0.0
5.319,6704.557,0.00015,0.0,0.0
5.325,6688.791,0.00015,0.0,0.0
5.331,6656.763,0.00015,0.0,0.0
5.338,6678.465,0.00015,0.0,0.0
5.344,6660.854,0.00015,0.0,0.0
5.35,6638.482,0.00015,0.0,0.0
5.357,6640.589,0.00015,0.0,0.0
5.363,6588.029,0.00015,0.0,0.0
5.369,6632.035,0.00015,0.0,0.0
5.376,6587.009,0.00015,0.0,0.0
5.382,6578.267,0.00015,0.0,0.0
5.388,6579.584,0.00015,0.0,0.0
5.395,6574.97,0.00015,0.0,0.0
5.401,6590.225,0.00015,0.0,0.0
5.407,6564.599,0.00015,0.0,0.0
5.414,6557.214,0.00015,0.0,0.0
5.42,6577.898,0.00015,0.0,0.0
5.426,6533.681,0.00015,0.0,0.0
5.433,6510.877,0.00015,0.0,0.0
5.439,6535.93,0.00015,0.0,0.0
5.445,6514.987,0.00015,0.0,0.0
5.452,6536.647,0.00015,0.0,0.0
5.458,6507.616,0.00015,0.0,0.0
5.464,6496.453,0.00015,0.0,0.0
5.47,6533.032,0.00015,0.0,0.0
5.477,6484.718,0.00015,0.0,0.0
5.483,6483.722,0.00015,0.0,0.0
5.489,6484.804,0.00015,0.0,0.0
5.496,6480.676,0.00015,0.0,0.0
5.502,6471.793,0.00015,0.0,0.0
5.508,6469.882,0.00015,0.0,0.0
5.515,6463.55,0.00015,0.0,0.0
5.521,6451.697,0.00015,0.0,0.0
5.527,6437.433,0.00016,0.0,0.0
5.534,6440.098,0.00016,0.0,0.0
5.54,6434.75,0.00016,0.0,0.0
5.546,6419.681,0.00016,0.0,0.0
5.553,6431.306,0.00016,0.0,0.0
5.559,6408.146,0.00016,0.0,0.0
5.565,6383.458,0.00016,0.0,0.0
5.572,6417.303,0.00016,0.0,0.0
5.578,6377.336,0.00016,0.0,0.0
5.584,6386.069,0.00016,0.0,0.0
5.591,6382.242,0.00016,0.0,0.0
5.597,6384.744,0.00016,0.0,0.0
5.603,6398.955,0.00016,0.0,0.0
5.61,6367.718,0.00016,0.0,0.0
5.616,6371.184,0.00016,0.0,0.0
5.622,6361.71,0.00016,0.0,0.0
5.628,6341.302,0.00016,0.0,0.0
5.635,6358.118,0.00016,0.0,0.0
5.641,6327.056,0.00016,0.0,0.0
5.647,6307.918,0.00016,0.0,0.0
5.654,6337.424,0.00016,0.0,0.0
5.66,6328.078,0.00016,0.0,0.0
5.666,6293.741,0.00016,0.0,0.0
5.673,6326.182,0.00016,0.0,0.0
5.679,6280.681,0.00016,0.0,0.0
5.685,6287.32,0.00016,0.0,0.0
5.692,6288.158,0.00016,0.0,0.0
5.698,6269.756,0.00016,0.0,0.0
5.704,6303.692,0.00016,0.0,0.0
5.711,6269.786,0.00016,0.0,0.0
5.717,6254.697,0.00016,0.0,0.0
5.723,6272.9,0.00016,0.0,0.0
5.73,6245.065,0.00016,0.0,0.0
5.736,6247.693,0.00016,0.0,0.0
5.742,6249.107,0.00016,0.0,0.0
5.749,6250.55,0.00016,0.0,0.0
5.755,6289.7,0.00016,0.0,0.0
5.761,6241.94,0.00016,0.0,0.0
5.768,6240.905,0.00016,0.0,0.0
5.774,6248.712,0.00016,0.0,0.0
5.78,6253.897,0.00016,0.0,0.0
5.786,6264.917,0.00016,0.0,0.0
5.793,6251.791,0.00016,0.0,0.0
5.799,6271.7,0.00016,0.0,0.0
5.805,6289.685,0.00016,0.0,0.0
5.812,6255.646,0.00016,0.0,0.0
5.818,6310.576,0.00016,0.0,0.0
5.824,6316.143,0.00016,0.0,0.0
5.831,6343.624,0.00016,0.0,0.0
5.837,6394.737,0.00016,0.0,0.0
5.843,6448.032,0.00016,0.0,0.0
5.85,6612.752,0.00015,0.0,0.0
5.856,6765.631,0.00015,0.0,0.0
5.862,7054.145,0.00014,0.0,0.0
5.869,7403.173,0.00014,0.0,0.0
5.875,7725.697,0.00013,0.0,0.0
5.881,7930.366,0.00013,0.0,0.0
5.888,7973.426,0.00013,0.0,0.0
5.894,7766.773,0.00013,0.0,0.0
5.9,7501.301,0.00013,0.0,0.0
5.907,7136.205,0.00014,0.0,0.0
5.913,6848.028,0.00015,0.0,0.0
5.919,6642.612,0.00015,0.0,0.0
5.926,6501.132,0.00015,0.0,0.0
5.932,6407.119,0.00016,0.0,0.0
5.938,6384.986,0.00016,0.0,0.0
5.944,6334.558,0.00016,0.0,0.0
5.951,6344.709,0.00016,0.0,0.0
5.957,6313.627,0.00016,0.0,0.0
5.963,6305.786,0.00016,0.0,0.0
5.97,6322.232,0.00016,0.0,0.0
5.976,6289.343,0.00016,0.0,0.0
5.982,6317.752,0.00016,0.0,0.0
5.989,6302.1,0.00016,0.0,0.0
5.995,6295.232,0.00016,0.0,0.0
6.001,6299.339,0.00016,0.0,0.0
6.008,6305.738,0.00016,0.0,0.0
6.014,6286.51,0.00016,0.0,0.0
6.02,6317.455,0.00016,0.0,0.0
6.027,6288.737,0.00016,0.0,0.0
6.033,6312.967,0.00016,0.0,0.0
6.039,6306.902,0.00016,0.0,0.0
6.046,6278.973,0.00016,0.0,0.0
6.052,6308.22,0.00016,0.0,0.0
6.058,6273.507,0.00016,0.0,0.0
6.065,6272.349,0.00016,0.0,0.0
6.071,6293.302,0.00016,0.0,0.0
6.077,6281.205,0.00016,0.0,0.0
6.084,6246.974,0.00016,0.0,0.0
6.09,6258.575,0.00016,0.0,0.0
6.096,6239.385,0.00016,0.0,0.0
6.102,6264.449,0.00016,0.0,0.0
6.109,6242.386,0.00016,0.0,0.0
6.115,6323.396,0.00016,0.0,0.0
6.121,6255.807,0.00016,0.0,0.0
6.128,6248.98,0.00016,0.0,0.0
6.134,6250.283,0.00016,0.0,0.0
6.14,6212.807,0.00016,0.0,0.0
6.147,6259.483,0.00016,0.0,0.0
6.153,6194.984,0.00016,0.0,0.0
6.159,6224.012,0.00016,0.0,0.0
6.166,6206.963,0.00016,0.0,0.0
6.172,6235.309,0.00016,0.0,0.0
6.178,6218.115,0.00016,0.0,0.0
6.185,6219.173,0.00016,0.0,0.0
6.191,6201.786,0.00016,0.0,0.0
6.197,6248.783,0.00016,0.0,0.0
6.204,6205.862,0.00016,0.0,0.0
6.21,6241.048,0.00016,0.0,0.0
6.216,6203.949,0.00016,0.0,0.0
6.223,6250.437,0.00016,0.0,0.0
6.229,6222.209,0.00016,0.0,0.0
6.235,6260.095,0.00016,0.0,0.0
6.242,6257.005,0.00016,0.0,0.0
6.248,6248.364,0.00016,0.0,0.0
6.254,6236.149,0.00016,0.0,0.0
6.26,6240.856,0.00016,0.0,0.0
6.267,6287.793,0.00016,0.0,0.0
6.273,6259.306,0.00016,0.0,0.0
6.279,6282.808,0.00016,0.0,0.0
6.286,6287.28,0.00016,0.0,0.0
6.292,6314.29,0.00016,0.0,0.0
6.298,6290.674,0.00016,0.0,0.0
6.305,6337.445,0.00016,0.0,0.0
6.311,6339.829,0.00016,0.0,0.0
6.317,6319.06,0.00016,0.0,0.0
6.324,6396.996,0.00016,0.0,0.0
6.33,6392.768,0.00016,0.0,0.0
6.336,6381.355,0.00016,0.0,0.0
6.343,6407.752,0.00016,0.0,0.0
6.349,6465.77,0.00015,0.0,0.0
6.355,6434.713,0.00016,0.0,0.0
6.362,6486.76,0.00015,0.0,0.0
6.368,6509.877,0.00015,0.0,0.0
6.374,6545.246,0.00015,0.0,0.0
6.381,6584.271,0.00015,0.0,0.0
6.387,6703.876,0.00015,0.0,0.0
6.393,6656.672,0.00015,0.0,0.0
6.4,6931.193,0.00014,0.0,0.0
6.406,7005.646,0.00014,0.0,0.0
6.412,7483.453,0.00013,0.0,0.0
6.418,8260.693,0.00012,0.0,0.0
6.425,8980.353,0.00011,0.0,0.0
6.431,13575.266,0.00007,0.0,0.0
6.437,14083.528,0.00007,0.0,0.0
6.444,18312.871,0.00005,0.0,0.0
6.45,23117.435,0.00004,0.0,0.0
6.456,18922.265,0.00005,0.0,0.0
6.463,18601.144,0.00005,0.0,0.0
6.469,22597.294,0.00004,0.0,0.0
6.475,11372.656,0.00009,0.0,0.0
6.482,13468.342,0.00007,0.0,0.0
6.488,9035.041,0.00011,0.0,0.0
6.494,7673.673,0.00013,0.0,0.0
6.501,7900.463,0.00013,0.0,0.0
6.507,7229.716,0.00014,0.0,0.0
6.513,7124.388,0.00014,0.0,0.0
6.52,7100.441,0.00014,0.0,0.0
6.526,7075.975,0.00014,0.0,0.0
6.532,7110.971,0.00014,0.0,0.0
6.539,7244.35,0.00014,0.0,0.0
6.545,7372.815,0.00014,0.0,0.0
6.551,7601.933,0.00013,0.0,0.0
6.558,8030.756,0.00012,0.0,0.0
6.564,8692.836,0.00012,0.0,0.0
6.57,9776.415,0.0001,0.0,0.0
6.576,11967.554,0.00008,0.0,0.0
6.583,15142.118,0.00007,0.0,0.0
6.589,23861.823,0.00004,0.0,0.0
6.595,36460.785,0.00003,0.0,0.0
6.602,57209.605,0.00002,0.0,0.0
6.608,85304.235,0.00001,0.0,0.0
6.614,100906.396,0.00001,0.0,0.0
6.621,111375.058,0.00001,0.0,0.0
6.627,100486.353,0.00001,0.0,0.0
6.633,76072.867,0.00001,0.0,0.0
6.64,50023.83,0.00002,0.0,0.0
6.646,32918.2,0.00003,0.0,0.0
6.652,19943.003,0.00005,0.0,0.0
6.659,14851.051,0.00007,0.0,0.0
6.665,11022.31,0.00009,0.0,0.0
6.671,9347.159,0.00011,0.0,0.0
6.678,8345.178,0.00012,0.0,0.0
6.684,7675.08,0.00013,0.0,0.0
6.69,7308.205,0.00014,0.0,0.0
6.697,7047.59,0.00014,0.0,0.0
6.703,6844.045,0.00015,0.0,0.0
6.709,6712.165,0.00015,0.0,0.0
6.716,6645.308,0.00015,0.0,0.0
6.722,6533.23,0.00015,0.0,0.0
6.728,6488.846,0.00015,0.0,0.0
6.734,6445.581,0.00016,0.0,0.0
6.741,6435.505,0.00016,0.0,0.0
6.747,6375.211,0.00016,0.0,0.0
6.753,6348.564,0.00016,0.0,0.0
6.76,6336.824,0.00016,0.0,0.0
6.766,6317.041,0.00016,0.0,0.0
6.772,6288.898,0.00016,0.0,0.0
6.779,6309.839,0.00016,0.0,0.0
6.785,6297.269,0.00016,0.0,0.0
6.791,6248.702,0.00016,0.0,0.0
6.798,6277.58,0.00016,0.0,0.0
6.804,6276.45,0.00016,0.0,0.0
6.81,6280.419,0.00016,0.0,0.0
6.817,6271.449,0.00016,0.0,0.0
6.823,6242.528,0.00016,0.0,0.0
6.829,6217.991,0.00016,0.0,0.0
6.836,6236.879,0.00016,0.0,0.0
6.842,6162.193,0.00016,0.0,0.0
6.848,6155.069,0.00016,0.0,0.0
6.855,6134.916,0.00016,0.0,0.0
6.861,6109.735,0.00016,0.0,0.0
6.867,6113.399,0.00016,0.0,0.0
6.874,6060.687,0.00016,0.0,0.0
6.88,6065.737,0.00016,0.0,0.0
6.886,6058.378,0.00017,0.0,0.0
6.892,6043.66,0.00017,0.0,0.0
6.899,6039.585,0.00017,0.0,0.0
6.905,6014.97,0.00017,0.0,0.0
6.911,5984.406,0.00017,0.0,0.0
6.918,6023.636,0.00017,0.0,0.0
6.924,5993.137,0.00017,0.0,0.0
6.93,6010.503,0.00017,0.0,0.0
6.937,6005.76,0.00017,0.0,0.0
6.943,5986.805,0.00017,0.0,0.0
6.949,5977.838,0.00017,0.0,0.0
6.956,5948.697,0.00017,0.0,0.0
6.962,5963.858,0.00017,0.0,0.0
6.968,5953.289,0.00017,0.0,0.0
6.975,5956.408,0.00017,0.0,0.0
6.981,5961.292,0.00017,0.0,0.0
6.987,5964.029,0.00017,0.0,0.0
6.994,5946.314,0.00017,0.0,0.0
7.0,5964.696,0.00017,0.0,0.0
7.006,5937.794,0.00017,0.0,0.0
7.013,5927.87,0.00017,0.0,0.0
7.019,5922.666,0.00017,0.0,0.0
7.025,5916.197,0.00017,0.0,0.0
7.032,5919.609,0.00017,0.0,0.0
7.038,5906.864,0.00017,0.0,0.0
7.044,5879.917,0.00017,0.0,0.0
7.05,5892.943,0.00017,0.0,0.0
7.057,5895.322,0.00017,0.0,0.0
7.063,5880.368,0.00017,0.0,0.0
7.069,5880.063,0.00017,0.0,0.0
7.076,5873.733,0.00017,0.0,0.0
7.082,5864.354,0.00017,0.0,0.0
7.088,5860.442,0.00017,0.0,0.0
7.095,5853.828,0.00017,0.0,0.0
7.101,5846.316,0.00017,0.0,0.0
7.107,5817.524,0.00017,0.0,0.0
7.114,5831.261,0.00017,0.0,0.0
7.12,5823.665,0.00017,0.0,0.0
7.126,5829.051,0.00017,0.0,0.0
7.133,5795.855,0.00017,0.0,0.0
7.139,5825.833,0.00017,0.0,0.0
7.145,5819.436,0.00017,0.0,0.0
7.152,5800.096,0.00017,0.0,0.0
7.158,5805.855,0.00017,0.0,0.0
7.164,5783.9,0.00017,0.0,0.0
7.171,5780.236,0.00017,0.0,0.0
7.177,5785.883,0.00017,0.0,0.0
7.183,5770.9,0.00017,0.0,0.0
7.19,5764.539,0.00017,0.0,0.0
7.196,5774.925,0.00017,0.0,0.0
7.202,5760.28,0.00017,0.0,0.0
7.208,5767.27,0.00017,0.0,0.0
7.215,5748.823,0.00017,0.0,0.0
7.221,5751.357,0.00017,0.0,0.0
7.227,5745.32,0.00017,0.0,0.0
7.234,5748.882,0.00017,0.0,0.0
7.24,5741.707,0.00017,0.0,0.0
7.246,5749.303,0.00017,0.0,0.0
7.253,5733.735,0.00017,0.0,0.0
7.259,5740.435,0.00017,0.0,0.0
7.265,5765.752,0.00017,0.0,0.0
7.272,5761.313,0.00017,0.0,0.0
7.278,5783.477,0.00017,0.0,0.0
7.284,5785.164,0.00017,0.0,0.0
7.291,5799.62,0.00017,0.0,0.0
7.297,5819.485,0.00017,0.0,0.0
7.303,5805.981,0.00017,0.0,0.0
7.31,5804.339,0.00017,0.0,0.0
7.316,5782.804,0.00017,0.0,0.0
7.322,5767.45,0.00017,0.0,0.0
7.329,5740.323,0.00017,0.0,0.0
7.335,5728.875,0.00017,0.0,0.0
7.341,5724.676,0.00017,0.0,0.0
7.348,5714.185,0.00018,0.0,0.0
7.354,5707.857,0.00018,0.0,0.0
7.36,5719.735,0.00017,0.0,0.0
7.366,5726.677,0.00017,0.0,0.0
7.373,5698.466,0.00018,0.0,0.0
7.379,5716.959,0.00017,0.0,0.0
7.385,5731.338,0.00017,0.0,0.0
7.392,5708.306,0.00018,0.0,0.0
7.398,5717.588,0.00017,0.0,0.0
7.404,5704.918,0.00018,0.0,0.0
7.411,5744.61,0.00017,0.0,0.0
7.417,5730.774,0.00017,0.0,0.0
7.423,5721.665,0.00017,0.0,0.0
7.43,5738.44,0.00017,0.0,0.0
7.436,5746.213,0.00017,0.0,0.0
7.442,5752.804,0.00017,0.0,0.0
7.449,5769.193,0.00017,0.0,0.0
7.455,5759.802,0.00017,0.0,0.0
7.461,5781.361,0.00017,0.0,0.0
7.468,5807.025,0.00017,0.0,0.0
7.474,5770.609,0.00017,0.0,0.0
7.48,5815.069,0.00017,0.0,0.0
7.487,5800.194,0.00017,0.0,0.0
7.493,5819.74,0.00017,0.0,0.0
7.499,5831.104,0.00017,0.0,0.0
7.506,5848.727,0.00017,0.0,0.0
7.512,5875.009,0.00017,0.0,0.0
7.518,5888.792,0.00017,0.0,0.0
7.524,5893.366,0.00017,0.0,0.0
7.531,5935.509,0.00017,0.0,0.0
7.537,5961.615,0.00017,0.0,0.0
7.543,6001.794,0.00017,0.0,0.0
7.55,6049.65,0.00017,0.0,0.0
7.556,6090.611,0.00016,0.0,0.0
7.562,6207.272,0.00016,0.0,0.0
7.569,6325.902,0.00016,0.0,0.0
7.575,6515.668,0.00015,0.0,0.0
7.581,6739.354,0.00015,0.0,0.0
7.588,7141.768,0.00014,0.0,0.0
7.594,7714.959,0.00013,0.0,0.0
7.6,9043.33,0.00011,0.0,0.0
7.607,10834.089,0.00009,0.0,0.0
7.613,15177.934,0.00007,0.0,0.0
7.619,19892.629,0.00005,0.0,0.0
7.626,31582.957,0.00003,0.0,0.0
7.632,38154.067,0.00003,0.0,0.0
7.638,45344.698,0.00002,0.0,0.0
7.645,49232.099,0.00002,0.0,0.0
7.651,42661.81,0.00002,0.0,0.0
7.657,38780.612,0.00003,0.0,0.0
7.664,26102.441,0.00004,0.0,0.0
7.67,19799.264,0.00005,0.0,0.0
7.676,13673.647,0.00007,0.0,0.0
7.682,10809.396,0.00009,0.0,0.0
7.689,8751.493,0.00011,0.0,0.0
7.695,7778.974,0.00013,0.0,0.0
7.701,7269.072,0.00014,0.0,0.0
7.708,6860.892,0.00015,0.0,0.0
7.714,6670.363,0.00015,0.0,0.0
7.72,6536.818,0.00015,0.0,0.0
7.727,6464.683,0.00015,0.0,0.0
7.733,6410.571,0.00016,0.0,0.0
7.739,6337.004,0.00016,0.0,0.0
7.746,6353.834,0.00016,0.0,0.0
7.752,6336.311,0.00016,0.0,0.0
7.758,6343.434,0.00016,0.0,0.0
7.765,6358.116,0.00016,0.0,0.0
7.771,6350.4,0.00016,0.0,0.0
7.777,6373.893,0.00016,0.0,0.0
7.784,6414.461,0.00016,0.0,0.0
7.79,6391.142,0.00016,0.0,0.0
7.796,6421.426,0.00016,0.0,0.0
7.803,6455.707,0.00015,0.0,0.0
7.809,6482.33,0.00015,0.0,0.0
7.815,6535.856,0.00015,0.0,0.0
7.822,6540.843,0.00015,0.0,0.0
7.828,6613.131,0.00015,0.0,0.0
7.834,6613.751,0.00015,0.0,0.0
7.84,6675.598,0.00015,0.0,0.0
7.847,6768.986,0.00015,0.0,0.0
7.853,6845.549,0.00015,0.0,0.0
7.859,6969.512,0.00014,0.0,0.0
7.866,7126.282,0.00014,0.0,0.0
7.872,7624.409,0.00013,0.0,0.0
7.878,7848.232,0.00013,0.0,0.0
7.885,10139.625,0.0001,0.0,0.0
7.891,9795.002,0.0001,0.0,0.0
7.897,13808.673,0.00007,0.0,0.0
7.904,13264.439,0.00008,0.0,0.0
7.91,17192.93,0.00006,0.0,0.0
7.916,15984.196,0.00006,0.0,0.0
7.923,13887.135,0.00007,0.0,0.0
7.929,11223.405,0.00009,0.0,0.0
7.935,9373.376,0.00011,0.0,0.0
7.942,8444.29,0.00012,0.0,0.0
7.948,7677.868,0.00013,0.0,0.0
7.954,7316.147,0.00014,0.0,0.0
7.961,7135.9,0.00014,0.0,0.0
7.967,6979.622,0.00014,0.0,0.0
7.973,6855.229,0.00015,0.0,0.0
7.98,6851.043,0.00015,0.0,0.0
7.986,6758.456,0.00015,0.0,0.0
7.992,6734.551,0.00015,0.0,0.0
7.998,6735.376,0.00015,0.0,0.0
8.005,6672.812,0.00015,0.0,0.0
8.011,6633.938,0.00015,0.0,0.0
8.017,6652.377,0.00015,0.0,0.0
8.024,6631.061,0.00015,0.0,0.0
8.03,6634.63,0.00015,0.0,0.0
8.036,6596.129,0.00015,0.0,0.0
8.043,6585.856,0.00015,0.0,0.0
8.049,6565.294,0.00015,0.0,0.0
8.055,6518.3,0.00015,0.0,0.0
8.062,6574.03,0.00015,0.0,0.0
8.068,6539.005,0.00015,0.0,0.0
8.074,6541.915,0.00015,0.0,0.0
8.081,6521.902,0.00015,0.0,0.0
8.087,6529.859,0.00015,0.0,0.0
8.093,6526.19,0.00015,0.0,0.0
8.1,6510.819,0.00015,0.0,0.0
8.106,6527.143,0.00015,0.0,0.0
8.112,6565.483,0.00015,0.0,0.0
8.119,6587.622,0.00015,0.0,0.0
8.125,6648.236,0.00015,0.0,0.0
8.131,6705.715,0.00015,0.0,0.0
8.138,6742.795,0.00015,0.0,0.0
8.144,6789.678,0.00015,0.0,0.0
8.15,6804.303,0.00015,0.0,0.0
8.156,6769.746,0.00015,0.0,0.0
8.163,6695.628,0.00015,0.0,0.0
8.169,6626.635,0.00015,0.0,0.0
8.175,6549.348,0.00015,0.0,0.0
8.182,6513.87,0.00015,0.0,0.0
8.188,6478.798,0.00015,0.0,0.0
8.194,6463.578,0.00015,0.0,0.0
8.201,6449.176,0.00016,0.0,0.0
8.207,6414.879,0.00016,0.0,0.0
8.213,6415.456,0.00016,0.0,0.0
8.22,6403.435,0.00016,0.0,0.0
8.226,6399.237,0.00016,0.0,0.0
8.232,6402.163,0.00016,0.0,0.0
8.239,6378.455,0.00016,0.0,0.0
8.245,6399.497,0.00016,0.0,0.0
8.251,6372.145,0.00016,0.0,0.0
8.258,6379.485,0.00016,0.0,0.0
8.264,6345.873,0.00016,0.0,0.0
8.27,6341.929,0.00016,0.0,0.0
8.277,6347.556,0.00016,0.0,0.0
8.283,6360.221,0.00016,0.0,0.0
8.289,6348.311,0.00016,0.0,0.0
8.296,6355.566,0.00016,0.0,0.0
8.302,6339.443,0.00016,0.0,0.0
8.308,6337.023,0.00016,0.0,0.0
8.314,6334.223,0.00016,0.0,0.0
8.321,6334.978,0.00016,0.0,0.0
8.327,6333.06,0.00016,0.0,0.0
8.333,6338.998,0.00016,0.0,0.0
8.34,6371.46,0.00016,0.0,0.0
8.346,6374.087,0.00016,0.0,0.0
8.352,6411.015,0.00016,0.0,0.0
8.359,6448.462,0.00016,0.0,0.0
8.365,6519.25,0.00015,0.0,0.0
8.371,6546.796,0.00015,0.0,0.0
8.378,6570.509,0.00015,0.0,0.0
8.384,6561.179,0.00015,0.0,0.0
8.39,6536.918,0.00015,0.0,0.0
8.397,6496.91,0.00015,0.0,0.0
8.403,6433.961,0.00016,0.0,0.0
8.409,6381.233,0.00016,0.0,0.0
8.416,6346.756,0.00016,0.0,0.0
8.422,6308.829,0.00016,0.0,0.0
8.428,6288.742,0.00016,0.0,0.0
8.435,6248.941,0.00016,0.0,0.0
8.441,6269.439,0.00016,0.0,0.0
8.447,6249.896,0.00016,0.0,0.0
8.454,6252.856,0.00016,0.0,0.0
8.46,6237.965,0.00016,0.0,0.0
8.466,6241.54,0.00016,0.0,0.0
8.472,6238.049,0.00016,0.0,0.0
8.479,6236.954,0.00016,0.0,0.0
8.485,6255.039,0.00016,0.0,0.0
8.491,6242.194,0.00016,0.0,0.0
8.498,6250.5,0.00016,0.0,0.0
8.504,6249.448,0.00016,0.0,0.0
8.51,6249.921,0.00016,0.0,0.0
8.517,6231.117,0.00016,0.0,0.0
8.523,6219.429,0.00016,0.0,0.0
8.529,6214.802,0.00016,0.0,0.0
8.536,6215.237,0.00016,0.0,0.0
8.542,6206.507,0.00016,0.0,0.0
8.548,6202.582,0.00016,0.0,0.0
8.555,6173.255,0.00016,0.0,0.0
8.561,6185.68,0.00016,0.0,0.0
8.567,6178.164,0.00016,0.0,0.0
8.574,6168.921,0.00016,0.0,0.0
8.58,6170.736,0.00016,0.0,0.0
8.586,6191.997,0.00016,0.0,0.0
8.593,6170.842,0.00016,0.0,0.0
8.599,6174.233,0.00016,0.0,0.0
8.605,6164.508,0.00016,0.0,0.0
8.612,6171.391,0.00016,0.0,0.0
8.618,6160.135,0.00016,0.0,0.0
8.624,6169.971,0.00016,0.0,0.0
8.63,6163.309,0.00016,0.0,0.0
8.637,6167.266,0.00016,0.0,0.0
8.643,6160.569,0.00016,0.0,0.0
8.649,6148.25,0.00016,0.0,0.0
8.656,6147.493,0.00016,0.0,0.0
8.662,6161.117,0.00016,0.0,0.0
8.668,6161.565,0.00016,0.0,0.0
8.675,6154.288,0.00016,0.0,0.0
8.681,6144.901,0.00016,0.0,0.0
8.687,6147.36,0.00016,0.0,0.0
8.694,6159.322,0.00016,0.0,0.0
8.7,6160.498,0.00016,0.0,0.0
8.706,6166.157,0.00016,0.0,0.0
8.713,6166.475,0.00016,0.0,0.0
8.719,6174.704,0.00016,0.0,0.0
8.725,6167.774,0.00016,0.0,0.0
8.732,6169.09,0.00016,0.0,0.0
8.738,6146.835,0.00016,0.0,0.0
8.744,6175.756,0.00016,0.0,0.0
8.751,6156.675,0.00016,0.0,0.0
8.757,6167.103,0.00016,0.0,0.0
8.763,6165.761,0.00016,0.0,0.0
8.77,6153.778,0.00016,0.0,0.0
8.776,6162.539,0.00016,0.0,0.0
8.782,6167.904,0.00016,0.0,0.0
8.788,6164.27,0.00016,0.0,0.0
8.795,6162.066,0.00016,0.0,0.0
8.801,6172.683,0.00016,0.0,0.0
8.807,6175.237,0.00016,0.0,0.0
8.814,6168.676,0.00016,0.0,0.0
8.82,6177.305,0.00016,0.0,0.0
8.826,6199.912,0.00016,0.0,0.0
8.833,6185.255,0.00016,0.0,0.0
8.839,6203.466,0.00016,0.0,0.0
8.845,6191.538,0.00016,0.0,0.0
8.852,6202.664,0.00016,0.0,0.0
8.858,6206.385,0.00016,0.0,0.0
8.864,6221.031,0.00016,0.0,0.0
8.871,6229.476,0.00016,0.0,0.0
8.877,6222.152,0.00016,0.0,0.0
8.883,6211.05,0.00016,0.0,0.0
8.89,6240.715,0.00016,0.0,0.0
8.896,6233.35,0.00016,0.0,0.0
8.902,6231.482,0.00016,0.0,0.0
8.909,6257.359,0.00016,0.0,0.0
8.915,6246.286,0.00016,0.0,0.0
8.921,6244.322,0.00016,0.0,0.0
8.928,6251.645,0.00016,0.0,0.0
8.934,6222.605,0.00016,0.0,0.0
8.94,6279.661,0.00016,0.0,0.0
8.946,6261.291,0.00016,0.0,0.0
8.953,6259.277,0.00016,0.0,0.0
8.959,6283.089,0.00016,0.0,0.0
8.965,6261.178,0.00016,0.0,0.0
8.972,6284.06,0.00016,0.0,0.0
8.978,6290.568,0.00016,0.0,0.0
8.984,6285.061,0.00016,0.0,0.0
8.991,6324.005,0.00016,0.0,0.0
8.997,6292.27,0.00016,0.0,0.0
9.003,6303.665,0.00016,0.0,0.0
9.01,6309.96,0.00016,0.0,0.0
9.016,6305.328,0.00016,0.0,0.0
9.022,6353.685,0.00016,0.0,0.0
9.029,6314.169,0.00016,0.0,0.0
9.035,6350.745,0.00016,0.0,0.0
9.041,6367.989,0.00016,0.0,0.0
9.048,6340.934,0.00016,0.0,0.0
9.054,6397.948,0.00016,0.0,0.0
9.06,6371.893,0.00016,0.0,0.0
9.067,6364.169,0.00016,0.0,0.0
9.073,6449.577,0.00016,0.0,0.0
9.079,6438.843,0.00016,0.0,0.0
9.086,6477.992,0.00015,0.0,0.0
9.092,6546.758,0.00015,0.0,0.0
9.098,6585.502,0.00015,0.0,0.0
9.104,6836.298,0.00015,0.0,0.0
9.111,7009.241,0.00014,0.0,0.0
9.117,7989.393,0.00013,0.0,0.0
9.123,7907.122,0.00013,0.0,0.0
9.13,9630.877,0.0001,0.0,0.0
9.136,9832.097,0.0001,0.0,0.0
9.142,9892.856,0.0001,0.0,0.0
9.149,12674.371,0.00008,0.0,0.0
9.155,8670.409,0.00012,0.0,0.0
9.161,7378.856,0.00014,0.0,0.0
9.168,9451.552,0.00011,0.0,0.0
9.174,6660.266,0.00015,0.0,0.0
9.18,6764.743,0.00015,0.0,0.0
9.187,6689.81,0.00015,0.0,0.0
9.193,6403.218,0.00016,0.0,0.0
9.199,6442.598,0.00016,0.0,0.0
9.206,6371.66,0.00016,0.0,0.0
9.212,6286.074,0.00016,0.0,0.0
9.218,6328.256,0.00016,0.0,0.0
9.225,6244.507,0.00016,0.0,0.0
9.231,6216.8,0.00016,0.0,0.0
9.237,6257.941,0.00016,0.0,0.0
9.244,6194.348,0.00016,0.0,0.0
9.25,6190.894,0.00016,0.0,0.0
9.256,6173.885,0.00016,0.0,0.0
9.262,6130.447,0.00016,0.0,0.0
9.269,6177.282,0.00016,0.0,0.0
9.275,6114.811,0.00016,0.0,0.0
9.281,6105.319,0.00016,0.0,0.0
9.288,6102.091,0.00016,0.0,0.0
9.294,6066.086,0.00016,0.0,0.0
9.3,6058.193,0.00017,0.0,0.0
9.307,6050.106,0.00017,0.0,0.0
9.313,6026.426,0.00017,0.0,0.0
9.319,6040.485,0.00017,0.0,0.0
9.326,6000.055,0.00017,0.0,0.0
9.332,5986.765,0.00017,0.0,0.0
9.338,6006.764,0.00017,0.0,0.0
9.345,5966.176,0.00017,0.0,0.0
9.351,5950.587,0.00017,0.0,0.0
9.357,5948.01,0.00017,0.0,0.0
9.364,5941.713,0.00017,0.0,0.0
9.37,5923.779,0.00017,0.0,0.0
9.376,5905.656,0.00017,0.0,0.0
9.383,5905.746,0.00017,0.0,0.0
9.389,5883.277,0.00017,0.0,0.0
9.395,5861.292,0.00017,0.0,0.0
9.402,5870.767,0.00017,0.0,0.0
9.408,5857.595,0.00017,0.0,0.0
9.414,5855.232,0.00017,0.0,0.0
9.42,5826.773,0.00017,0.0,0.0
9.427,5830.393,0.00017,0.0,0.0
9.433,5826.797,0.00017,0.0,0.0
9.439,5821.361,0.00017,0.0,0.0
9.446,5807.759,0.00017,0.0,0.0
9.452,5805.855,0.00017,0.0,0.0
9.458,5808.783,0.00017,0.0,0.0
9.465,5815.988,0.00017,0.0,0.0
9.471,5808.565,0.00017,0.0,0.0
9.477,5813.461,0.00017,0.0,0.0
9.484,5839.679,0.00017,0.0,0.0
9.49,5840.967,0.00017,0.0,0.0
9.496,5840.443,0.00017,0.0,0.0
9.503,5831.818,0.00017,0.0,0.0
9.509,5797.757,0.00017,0.0,0.0
9.515,5790.03,0.00017,0.0,0.0
9.522,5753.763,0.00017,0.0,0.0
9.528,5721.995,0.00017,0.0,0.0
9.534,5692.517,0.00018,0.0,0.0
9.541,5670.15,0.00018,0.0,0.0
9.547,5671.183,0.00018,0.0,0.0
9.553,5651.034,0.00018,0.0,0.0
9.56,5632.794,0.00018,0.0,0.0
9.566,5629.764,0.00018,0.0,0.0
9.572,5627.598,0.00018,0.0,0.0
9.578,5622.333,0.00018,0.0,0.0
9.585,5602.638,0.00018,0.0,0.0
9.591,5601.677,0.00018,0.0,0.0
9.597,5594.456,0.00018,0.0,0.0
9.604,5605.389,0.00018,0.0,0.0
9.61,5576.125,0.00018,0.0,0.0
9.616,5578.68,0.00018,0.0,0.0
9.623,5583.319,0.00018,0.0,0.0
9.629,5555.718,0.00018,0.0,0.0
9.635,5559.202,0.00018,0.0,0.0
9.642,5550.566,0.00018,0.0,0.0
9.648,5549.999,0.00018,0.0,0.0
9.654,5567.94,0.00018,0.0,0.0
9.661,5542.994,0.00018,0.0,0.0
9.667,5541.268,0.00018,0.0,0.0
9.673,5536.378,0.00018,0.0,0.0
9.68,5517.2,0.00018,0.0,0.0
9.686,5528.317,0.00018,0.0,0.0
9.692,5510.445,0.00018,0.0,0.0
9.699,5523.106,0.00018,0.0,0.0
9.705,5531.3,0.00018,0.0,0.0
9.711,5502.494,0.00018,0.0,0.0
9.718,5528.728,0.00018,0.0,0.0
9.724,5500.464,0.00018,0.0,0.0
9.73,5496.242,0.00018,0.0,0.0
9.736,5497.024,0.00018,0.0,0.0
9.743,5503.978,0.00018,0.0,0.0
9.749,5491.367,0.00018,0.0,0.0
9.755,5497.388,0.00018,0.0,0.0
9.762,5467.639,0.00018,0.0,0.0
9.768,5485.167,0.00018,0.0,0.0
9.774,5479.225,0.00018,0.0,0.0
9.781,5467.713,0.00018,0.0,0.0
9.787,5495.678,0.00018,0.0,0.0
9.793,5486.306,0.00018,0.0,0.0
9.8,5487.392,0.00018,0.0,0.0
9.806,5484.865,0.00018,0.0,0.0
9.812,5476.928,0.00018,0.0,0.0
9.819,5482.614,0.00018,0.0,0.0
9.825,5465.214,0.00018,0.0,0.0
9.831,5464.082,0.00018,0.0,0.0
9.838,5466.758,0.00018,0.0,0.0
9.844,5471.144,0.00018,0.0,0.0
9.85,5476.839,0.00018,0.0,0.0
9.857,5447.96,0.00018,0.0,0.0
9.863,5447.368,0.00018,0.0,0.0
9.869,5465.621,0.00018,0.0,0.0
9.876,5442.991,0.00018,0.0,0.0
9.882,5457.3,0.00018,0.0,0.0
9.888,5447.776,0.00018,0.0,0.0
9.894,5437.673,0.00018,0.0,0.0
9.901,5464.858,0.00018,0.0,0.0
9.907,5448.686,0.00018,0.0,0.0
9.913,5464.494,0.00018,0.0,0.0
9.92,5460.743,0.00018,0.0,0.0
9.926,5447.226,0.00018,0.0,0.0
9.932,5469.073,0.00018,0.0,0.0
9.939,5446.612,0.00018,0.0,0.0
9.945,5450.616,0.00018,0.0,0.0
9.951,5465.333,0.00018,0.0,0.0
9.958,5454.371,0.00018,0.0,0.0
9.964,5452.957,0.00018,0.0,0.0
9.97,5457.868,0.00018,0.0,0.0
9.977,5471.083,0.00018,0.0,0.0
9.983,5503.49,0.00018,0.0,0.0
9.989,5472.621,0.00018,0.0,0.0
9.996,5483.506,0.00018,0.0,0.0
10.002,5488.235,0.00018,0.0,0.0
10.008,5463.454,0.00018,0.0,0.0
10.015,5508.922,0.00018,0.0,0.0
10.021,5494.842,0.00018,0.0,0.0
10.027,5501.495,0.00018,0.0,0.0
10.034,5514.435,0.00018,0.0,0.0
10.04,5492.875,0.00018,0.0,0.0
10.046,5527.217,0.00018,0.0,0.0
10.052,5516.762,0.00018,0.0,0.0
10.059,5509.641,0.00018,0.0,0.0
10.065,5547.251,0.00018,0.0,0.0
10.071,5562.27,0.00018,0.0,0.0
10.078,5548.347,0.00018,0.0,0.0
10.084,5579.248,0.00018,0.0,0.0
10.09,5536.277,0.00018,0.0,0.0
10.097,5610.887,0.00018,0.0,0.0
10.103,5546.051,0.00018,0.0,0.0
10.109,5634.297,0.00018,0.0,0.0
10.116,5651.409,0.00018,0.0,0.0
10.122,5638.462,0.00018,0.0,0.0
10.128,5699.823,0.00018,0.0,0.0
10.135,5661.154,0.00018,0.0,0.0
10.141,5723.801,0.00017,0.0,0.0
10.147,5743.331,0.00017,0.0,0.0
10.154,5774.635,0.00017,0.0,0.0
10.16,5868.112,0.00017,0.0,0.0
10.166,6123.386,0.00016,0.0,0.0
10.173,6219.531,0.00016,0.0,0.0
10.179,6914.751,0.00014,0.0,0.0
10.185,8607.427,0.00012,0.0,0.0
10.192,9201.362,0.00011,0.0,0.0
10.198,10072.359,0.0001,0.0,0.0
10.204,13399.817,0.00007,0.0,0.0
10.21,14970.425,0.00007,0.0,0.0
10.217,17378.468,0.00006,0.0,0.0
10.223,15241.917,0.00007,0.0,0.0
10.229,12060.144,0.00008,0.0,0.0
10.236,14268.168,0.00007,0.0,0.0
10.242,8309.816,0.00012,0.0,0.0
10.248,8701.86,0.00011,0.0,0.0
10.255,6625.553,0.00015,0.0,0.0
10.261,6297.223,0.00016,0.0,0.0
10.267,6181.245,0.00016,0.0,0.0
10.274,5793.356,0.00017,0.0,0.0
10.28,5853.641,0.00017,0.0,0.0
10.286,5666.681,0.00018,0.0,0.0
10.293,5686.83,0.00018,0.0,0.0
10.299,5614.695,0.00018,0.0,0.0
10.305,5588.983,0.00018,0.0,0.0
10.312,5580.415,0.00018,0.0,0.0
10.318,5548.971,0.00018,0.0,0.0
10.324,5564.442,0.00018,0.0,0.0
10.331,5503.089,0.00018,0.0,0.0
10.337,5474.554,0.00018,0.0,0.0
10.343,5503.079,0.00018,0.0,0.0
10.35,5463.844,0.00018,0.0,0.0
10.356,5467.802,0.00018,0.0,0.0
10.362,5454.342,0.00018,0.0,0.0
10.368,5392.404,0.00019,0.0,0.0
10.375,5450.452,0.00018,0.0,0.0
10.381,5371.994,0.00019,0.0,0.0
10.387,5384.57,0.00019,0.0,0.0
10.394,5388.412,0.00019,0.0,0.0
10.4,5366.041,0.00019,0.0,0.0
10.406,5399.407,0.00019,0.0,0.0
10.413,5351.559,0.00019,0.0,0.0
10.419,5323.79,0.00019,0.0,0.0
10.425,5359.938,0.00019,0.0,0.0
10.432,5331.246,0.00019,0.0,0.0
10.438,5332.43,0.00019,0.0,0.0
10.444,5345.683,0.00019,0.0,0.0
10.451,5289.351,0.00019,0.0,0.0
10.457,5338.87,0.00019,0.0,0.0
10.463,5300.667,0.00019,0.0,0.0
10.47,5291.329,0.00019,0.0,0.0
10.476,5272.721,0.00019,0.0,0.0
10.482,5255.178,0.00019,0.0,0.0
10.489,5300.185,0.00019,0.0,0.0
10.495,5253.917,0.00019,0.0,0.0
10.501,5246.82,0.00019,0.0,0.0
10.508,5272.478,0.00019,0.0,0.0
10.514,5242.18,0.00019,0.0,0.0
10.52,5263.763,0.00019,0.0,0.0
10.526,5239.283,0.00019,0.0,0.0
10.533,5218.054,0.00019,0.0,0.0
10.539,5262.848,0.00019,0.0,0.0
10.545,5226.097,0.00019,0.0,0.0
10.552,5218.487,0.00019,0.0,0.0
10.558,5220.682,0.00019,0.0,0.0
10.564,5189.824,0.00019,0.0,0.0
10.571,5243.152,0.00019,0.0,0.0
10.577,5190.884,0.00019,0.0,0.0
10.583,5225.649,0.00019,0.0,0.0
10.59,5224.673,0.00019,0.0,0.0
10.596,5217.579,0.00019,0.0,0.0
10.602,5231.402,0.00019,0.0,0.0
10.609,5196.848,0.00019,0.0,0.0
10.615,5196.038,0.00019,0.0,0.0
10.621,5212.801,0.00019,0.0,0.0
10.628,5187.58,0.00019,0.0,0.0
10.634,5203.11,0.00019,0.0,0.0
10.64,5188.002,0.00019,0.0,0.0
10.647,5181.801,0.00019,0.0,0.0
10.653,5208.97,0.00019,0.0,0.0
10.659,5195.564,0.00019,0.0,0.0
10.666,5205.69,0.00019,0.0,0.0
10.672,5202.815,0.00019,0.0,0.0
10.678,5188.678,0.00019,0.0,0.0
10.684,5222.22,0.00019,0.0,0.0
10.691,5184.995,0.00019,0.0,0.0
10.697,5215.545,0.00019,0.0,0.0
10.703,5232.85,0.00019,0.0,0.0
10.71,5222.112,0.00019,0.0,0.0
10.716,5245.682,0.00019,0.0,0.0
10.722,5258.606,0.00019,0.0,0.0
10.729,5290.661,0.00019,0.0,0.0
10.735,5316.593,0.00019,0.0,0.0
10.741,5362.705,0.00019,0.0,0.0
10.748,5434.42,0.00018,0.0,0.0
10.754,5526.075,0.00018,0.0,0.0
10.76,5647.759,0.00018,0.0,0.0
10.767,5946.649,0.00017,0.0,0.0
10.773,6298.465,0.00016,0.0,0.0
10.779,7164.771,0.00014,0.0,0.0
10.786,8651.16,0.00012,0.0,0.0
10.792,11144.22,0.00009,0.0,0.0
10.798,16785.182,0.00006,0.0,0.0
10.805,19156.032,0.00005,0.0,0.0
10.811,27718.59,0.00004,0.0,0.0
10.817,30784.74,0.00003,0.0,0.0
10.824,31586.451,0.00003,0.0,0.0
10.83,27776.378,0.00004,0.0,0.0
10.836,22484.939,0.00004,0.0,0.0
10.842,16967.38,0.00006,0.0,0.0
10.849,12700.032,0.00008,0.0,0.0
10.855,9304.945,0.00011,0.0,0.0
10.861,7597.594,0.00013,0.0,0.0
10.868,6650.6,0.00015,0.0,0.0
10.874,6021.956,0.00017,0.0,0.0
10.88,5742.129,0.00017,0.0,0.0
10.887,5512.278,0.00018,0.0,0.0
10.893,5395.866,0.00019,0.0,0.0
10.899,5321.386,0.00019,0.0,0.0
10.906,5271.383,0.00019,0.0,0.0
10.912,5224.271,0.00019,0.0,0.0
10.918,5208.138,0.00019,0.0,0.0
10.925,5185.655,0.00019,0.0,0.0
10.931,5172.237,0.00019,0.0,0.0
10.937,5149.839,0.00019,0.0,0.0
10.944,5147.091,0.00019,0.0,0.0
10.95,5144.677,0.00019,0.0,0.0
10.956,5130.856,0.00019,0.0,0.0
10.963,5121.251,0.0002,0.0,0.0
10.969,5105.006,0.0002,0.0,0.0
10.975,5099.279,0.0002,0.0,0.0
10.982,5066.979,0.0002,0.0,0.0
10.988,5052.044,0.0002,0.0,0.0
10.994,5042.384,0.0002,0.0,0.0
11.0,5018.729,0.0002,0.0,0.0
11.007,5017.823,0.0002,0.0,0.0
11.013,5016.396,0.0002,0.0,0.0
11.019,5006.679,0.0002,0.0,0.0
11.026,5001.768,0.0002,0.0,0.0
11.032,4970.404,0.0002,0.0,0.0
11.038,4979.802,0.0002,0.0,0.0
11.045,4977.281,0.0002,0.0,0.0
11.051,4981.131,0.0002,0.0,0.0
11.057,4968.219,0.0002,0.0,0.0
11.064,4980.731,0.0002,0.0,0.0
11.07,4956.075,0.0002,0.0,0.0
11.076,4960.162,0.0002,0.0,0.0
11.083,4950.709,0.0002,0.0,0.0
11.089,4941.58,0.0002,0.0,0.0
11.095,4940.748,0.0002,0.0,0.0
11.102,4941.526,0.0002,0.0,0.0
11.108,4940.311,0.0002,0.0,0.0
11.114,4941.547,0.0002,0.0,0.0
11.121,4922.14,0.0002,0.0,0.0
11.127,4923.429,0.0002,0.0,0.0
11.133,4924.81,0.0002,0.0,0.0
11.14,4933.518,0.0002,0.0,0.0
11.146,4903.492,0.0002,0.0,0.0
11.152,4914.623,0.0002,0.0,0.0
11.158,4908.919,0.0002,0.0,0.0
11.165,4905.424,0.0002,0.0,0.0
11.171,4910.276,0.0002,0.0,0.0
11.177,4918.088,0.0002,0.0,0.0
11.184,4929.182,0.0002,0.0,0.0
11.19,4914.75,0.0002,0.0,0.0
11.196,4943.613,0.0002,0.0,0.0
11.203,4933.826,0.0002,0.0,0.0
11.209,4973.3,0.0002,0.0,0.0
11.215,4911.123,0.0002,0.0,0.0
11.222,5014.953,0.0002,0.0,0.0
11.228,4892.435,0.0002,0.0,0.0
11.234,4928.597,0.0002,0.0,0.0
11.241,4874.541,0.00021,0.0,0.0
11.247,4893.368,0.0002,0.0,0.0
11.253,4865.868,0.00021,0.0,0.0
11.26,4865.912,0.00021,0.0,0.0
11.266,4860.93,0.00021,0.0,0.0
11.272,4840.416,0.00021,0.0,0.0
11.279,4845.063,0.00021,0.0,0.0
11.285,4824.131,0.00021,0.0,0.0
11.291,4828.717,0.00021,0.0,0.0
11.298,4843.967,0.00021,0.0,0.0
11.304,4825.621,0.00021,0.0,0.0
11.31,4828.874,0.00021,0.0,0.0
11.316,4829.215,0.00021,0.0,0.0
11.323,4829.142,0.00021,0.0,0.0
11.329,4823.755,0.00021,0.0,0.0
11.335,4810.794,0.00021,0.0,0.0
11.342,4826.405,0.00021,0.0,0.0
11.348,4802.806,0.00021,0.0,0.0
11.354,4807.265,0.00021,0.0,0.0
11.361,4813.698,0.00021,0.0,0.0
11.367,4801.999,0.00021,0.0,0.0
11.373,4810.517,0.00021,0.0,0.0
11.38,4804.342,0.00021,0.0,0.0
11.386,4801.715,0.00021,0.0,0.0
11.392,4802.34,0.00021,0.0,0.0
11.399,4788.465,0.00021,0.0,0.0
11.405,4799.468,0.00021,0.0,0.0
11.411,4792.021,0.00021,0.0,0.0
11.418,4775.455,0.00021,0.0,0.0
11.424,4789.221,0.00021,0.0,0.0
11.43,4780.705,0.00021,0.0,0.0
11.437,4790.93,0.00021,0.0,0.0
11.443,4785.809,0.00021,0.0,0.0
11.449,4777.188,0.00021,0.0,0.0
11.456,4774.278,0.00021,0.0,0.0
11.462,4783.808,0.00021,0.0,0.0
11.468,4779.089,0.00021,0.0,0.0
11.474,4779.518,0.00021,0.0,0.0
11.481,4779.23,0.00021,0.0,0.0
11.487,4784.097,0.00021,0.0,0.0
11.493,4784.823,0.00021,0.0,0.0
11.5,4781.62,0.00021,0.0,0.0
11.506,4784.642,0.00021,0.0,0.0
11.512,4810.446,0.00021,0.0,0.0
11.519,4824.91,0.00021,0.0,0.0
11.525,4825.332,0.00021,0.0,0.0
11.531,4830.612,0.00021,0.0,0.0
11.538,4837.573,0.00021,0.0,0.0
11.544,4815.04,0.00021,0.0,0.0
11.55,4817.187,0.00021,0.0,0.0
11.557,4795.742,0.00021,0.0,0.0
11.563,4783.709,0.00021,0.0,0.0
11.569,4776.02,0.00021,0.0,0.0
11.576,4772.084,0.00021,0.0,0.0
11.582,4756.594,0.00021,0.0,0.0
11.588,4751.767,0.00021,0.0,0.0
11.595,4743.12,0.00021,0.0,0.0
11.601,4752.31,0.00021,0.0,0.0
11.607,4737.402,0.00021,0.0,0.0
11.614,4745.48,0.00021,0.0,0.0
11.62,4736.733,0.00021,0.0,0.0
11.626,4730.316,0.00021,0.0,0.0
11.632,4734.892,0.00021,0.0,0.0
11.639,4732.304,0.00021,0.0,0.0
11.645,4720.725,0.00021,0.0,0.0
11.651,4730.38,0.00021,0.0,0.0
11.658,4718.812,0.00021,0.0,0.0
11.664,4732.879,0.00021,0.0,0.0
11.67,4719.076,0.00021,0.0,0.0
11.677,4735.029,0.00021,0.0,0.0
11.683,4732.091,0.00021,0.0,0.0
11.689,4723.007,0.00021,0.0,0.0
11.696,4728.147,0.00021,0.0,0.0
11.702,4734.238,0.00021,0.0,0.0
11.708,4715.831,0.00021,0.0,0.0
11.715,4737.409,0.00021,0.0,0.0
11.721,4720.371,0.00021,0.0,0.0
11.727,4718.295,0.00021,0.0,0.0
11.734,4723.846,0.00021,0.0,0.0
11.74,4714.743,0.00021,0.0,0.0
11.746,4719.014,0.00021,0.0,0.0
11.753,4718.152,0.00021,0.0,0.0
11.759,4713.977,0.00021,0.0,0.0
11.765,4712.191,0.00021,0.0,0.0
11.772,4719.125,0.00021,0.0,0.0
11.778,4727.876,0.00021,0.0,0.0
11.784,4729.367,0.00021,0.0,0.0
11.79,4723.074,0.00021,0.0,0.0
11.797,4715.792,0.00021,0.0,0.0
11.803,4709.784,0.00021,0.0,0.0
11.809,4711.249,0.00021,0.0,0.0
11.816,4717.921,0.00021,0.0,0.0
11.822,4697.455,0.00021,0.0,0.0
11.828,4711.984,0.00021,0.0,0.0
11.835,4713.804,0.00021,0.0,0.0
11.841,4716.343,0.00021,0.0,0.0
11.847,4706.549,0.00021,0.0,0.0
11.854,4707.489,0.00021,0.0,0.0
11.86,4694.391,0.00021,0.0,0.0
11.866,4710.533,0.00021,0.0,0.0
11.873,4713.666,0.00021,0.0,0.0
11.879,4713.652,0.00021,0.0,0.0
11.885,4699.099,0.00021,0.0,0.0
11.892,4724.267,0.00021,0.0,0.0
11.898,4703.69,0.00021,0.0,0.0
11.904,4706.563,0.00021,0.0,0.0
11.911,4704.597,0.00021,0.0,0.0
11.917,4698.756,0.00021,0.0,0.0
11.923,4717.375,0.00021,0.0,0.0
11.93,4714.746,0.00021,0.0,0.0
11.936,4709.635,0.00021,0.0,0.0
11.942,4704.078,0.00021,0.0,0.0
11.948,4729.354,0.00021,0.0,0.0
11.955,4716.761,0.00021,0.0,0.0
11.961,4728.489,0.00021,0.0,0.0
11.967,4718.093,0.00021,0.0,0.0
11.974,4713.9,0.00021,0.0,0.0
11.98,4721.657,0.00021,0.0,0.0
11.986,4723.393,0.00021,0.0,0.0
11.993,4720.837,0.00021,0.0,0.0
11.999,4733.383,0.00021,0.0,0.0
12.005,4730.672,0.00021,0.0,0.0
12.012,4754.834,0.00021,0.0,0.0
12.018,4743.271,0.00021,0.0,0.0
12.024,4751.657,0.00021,0.0,0.0
12.031,4761.299,0.00021,0.0,0.0
12.037,4813.986,0.00021,0.0,0.0
12.043,4795.381,0.00021,0.0,0.0
12.05,4937.159,0.0002,0.0,0.0
12.056,4846.349,0.00021,0.0,0.0
12.062,4894.103,0.0002,0.0,0.0
12.069,5608.569,0.00018,0.0,0.0
12.075,5146.631,0.00019,0.0,0.0
12.081,8164.343,0.00012,0.0,0.0
12.088,6097.423,0.00016,0.0,0.0
12.094,6471.831,0.00015,0.0,0.0
12.1,9611.422,0.0001,0.0,0.0
12.106,6325.207,0.00016,0.0,0.0
12.113,6923.443,0.00014,0.0,0.0
12.119,5567.558,0.00018,0.0,0.0
12.125,5285.041,0.00019,0.0,0.0
12.132,5126.587,0.0002,0.0,0.0
12.138,4922.982,0.0002,0.0,0.0
12.144,4849.043,0.00021,0.0,0.0
12.151,4818.6,0.00021,0.0,0.0
12.157,4761.298,0.00021,0.0,0.0
12.163,4758.521,0.00021,0.0,0.0
12.17,4732.564,0.00021,0.0,0.0
12.176,4708.688,0.00021,0.0,0.0
12.182,4719.599,0.00021,0.0,0.0
12.189,4706.389,0.00021,0.0,0.0
12.195,4690.628,0.00021,0.0,0.0
12.201,4679.982,0.00021,0.0,0.0
12.208,4658.041,0.00021,0.0,0.0
12.214,4658.239,0.00021,0.0,0.0
12.22,4637.533,0.00022,0.0,0.0
12.227,4624.747,0.00022,0.0,0.0
12.233,4645.359,0.00022,0.0,0.0
12.239,4630.553,0.00022,0.0,0.0
12.246,4624.083,0.00022,0.0,0.0
12.252,4620.821,0.00022,0.0,0.0
12.258,4606.702,0.00022,0.0,0.0
12.264,4603.919,0.00022,0.0,0.0
12.271,4598.028,0.00022,0.0,0.0
12.277,4636.377,0.00022,0.0,0.0
12.283,4583.247,0.00022,0.0,0.0
12.29,4568.84,0.00022,0.0,0.0
12.296,4578.87,0.00022,0.0,0.0
12.302,4588.032,0.00022,0.0,0.0
12.309,4573.516,0.00022,0.0,0.0
12.315,4562.587,0.00022,0.0,0.0
12.321,4568.382,0.00022,0.0,0.0
12.328,4552.072,0.00022,0.0,0.0
12.334,4555.114,0.00022,0.0,0.0
12.34,4542.051,0.00022,0.0,0.0
12.347,4547.135,0.00022,0.0,0.0
12.353,4557.267,0.00022,0.0,0.0
12.359,4535.564,0.00022,0.0,0.0
12.366,4534.992,0.00022,0.0,0.0
12.372,4554.582,0.00022,0.0,0.0
12.378,4544.722,0.00022,0.0,0.0
12.385,4532.967,0.00022,0.0,0.0
12.391,4540.457,0.00022,0.0,0.0
12.397,4533.434,0.00022,0.0,0.0
12.404,4543.162,0.00022,0.0,0.0
12.41,4531.253,0.00022,0.0,0.0
12.416,4520.097,0.00022,0.0,0.0
12.422,4529.738,0.00022,0.0,0.0
12.429,4525.358,0.00022,0.0,0.0
12.435,4513.295,0.00022,0.0,0.0
12.441,4507.689,0.00022,0.0,0.0
12.448,4512.61,0.00022,0.0,0.0
12.454,4522.681,0.00022,0.0,0.0
12.46,4519.724,0.00022,0.0,0.0
12.467,4510.155,0.00022,0.0,0.0
12.473,4521.943,0.00022,0.0,0.0
12.479,4525.013,0.00022,0.0,0.0
12.486,4508.804,0.00022,0.0,0.0
12.492,4528.635,0.00022,0.0,0.0
12.498,4525.344,0.00022,0.0,0.0
12.505,4528.962,0.00022,0.0,0.0
12.511,4543.24,0.00022,0.0,0.0
12.517,4538.127,0.00022,0.0,0.0
12.524,4549.919,0.00022,0.0,0.0
12.53,4544.329,0.00022,0.0,0.0
12.536,4562.776,0.00022,0.0,0.0
12.543,4556.755,0.00022,0.0,0.0
12.549,4550.685,0.00022,0.0,0.0
12.555,4567.204,0.00022,0.0,0.0
12.562,4553.907,0.00022,0.0,0.0
12.568,4553.466,0.00022,0.0,0.0
12.574,4556.772,0.00022,0.0,0.0
12.58,4553.36,0.00022,0.0,0.0
12.587,4571.904,0.00022,0.0,0.0
12.593,4583.069,0.00022,0.0,0.0
12.599,4607.365,0.00022,0.0,0.0
12.606,4657.659,0.00021,0.0,0.0
12.612,4696.739,0.00021,0.0,0.0
12.618,4752.086,0.00021,0.0,0.0
12.625,4848.905,0.00021,0.0,0.0
12.631,4978.876,0.0002,0.0,0.0
12.637,5206.477,0.00019,0.0,0.0
12.644,5531.1,0.00018,0.0,0.0
12.65,6123.739,0.00016,0.0,0.0
12.656,7198.478,0.00014,0.0,0.0
12.663,8939.355,0.00011,0.0,0.0
12.669,12398.563,0.00008,0.0,0.0
12.675,17480.435,0.00006,0.0,0.0
12.682,22537.429,0.00004,0.0,0.0
12.688,30312.293,0.00003,0.0,0.0
12.694,32177.802,0.00003,0.0,0.0
12.701,32627.954,0.00003,0.0,0.0
12.707,28879.222,0.00003,0.0,0.0
12.713,21757.559,0.00005,0.0,0.0
12.72,16476.194,0.00006,0.0,0.0
12.726,11527.262,0.00009,0.0,0.0
12.732,8681.188,0.00012,0.0,0.0
12.738,6907.183,0.00014,0.0,0.0
12.745,5987.901,0.00017,0.0,0.0
12.751,5424.764,0.00018,0.0,0.0
12.757,5078.234,0.0002,0.0,0.0
12.764,4882.594,0.0002,0.0,0.0
12.77,4751.575,0.00021,0.0,0.0
12.776,4663.56,0.00021,0.0,0.0
12.783,4599.754,0.00022,0.0,0.0
12.789,4556.044,0.00022,0.0,0.0
12.795,4535.43,0.00022,0.0,0.0
12.802,4499.927,0.00022,0.0,0.0
12.808,4467.905,0.00022,0.0,0.0
12.814,4475.881,0.00022,0.0,0.0
12.821,4443.503,0.00023,0.0,0.0
12.827,4456.594,0.00022,0.0,0.0
12.833,4419.949,0.00023,0.0,0.0
12.84,4408.084,0.00023,0.0,0.0
12.846,4412.863,0.00023,0.0,0.0
12.852,4402.157,0.00023,0.0,0.0
12.859,4403.04,0.00023,0.0,0.0
12.865,4387.588,0.00023,0.0,0.0
12.871,4382.795,0.00023,0.0,0.0
12.878,4386.28,0.00023,0.0,0.0
12.884,4379.863,0.00023,0.0,0.0
12.89,4379.259,0.00023,0.0,0.0
12.896,4376.276,0.00023,0.0,0.0
12.903,4382.703,0.00023,0.0,0.0
12.909,4390.829,0.00023,0.0,0.0
12.915,4425.095,0.00023,0.0,0.0
12.922,4439.079,0.00023,0.0,0.0
12.928,4572.705,0.00022,0.0,0.0
12.934,4682.881,0.00021,0.0,0.0
12.941,4605.983,0.00022,0.0,0.0
12.947,4778.178,0.00021,0.0,0.0
12.953,4556.946,0.00022,0.0,0.0
12.96,4541.147,0.00022,0.0,0.0
12.966,4487.901,0.00022,0.0,0.0
12.972,4410.17,0.00023,0.0,0.0
12.979,4392.886,0.00023,0.0,0.0
12.985,4352.959,0.00023,0.0,0.0
12.991,4335.489,0.00023,0.0,0.0
12.998,4324.588,0.00023,0.0,0.0
13.004,4298.896,0.00023,0.0,0.0
13.01,4294.234,0.00023,0.0,0.0
13.017,4283.395,0.00023,0.0,0.0
13.023,4282.202,0.00023,0.0,0.0
13.029,4273.633,0.00023,0.0,0.0
13.036,4268.012,0.00023,0.0,0.0
13.042,4273.005,0.00023,0.0,0.0
13.048,4256.892,0.00023,0.0,0.0
13.054,4266.784,0.00023,0.0,0.0
13.061,4258.869,0.00023,0.0,0.0
13.067,4250.817,0.00024,0.0,0.0
13.073,4257.03,0.00023,0.0,0.0
13.08,4245.433,0.00024,0.0,0.0
13.086,4260.284,0.00023,0.0,0.0
13.092,4238.976,0.00024,0.0,0.0
13.099,4248.917,0.00024,0.0,0.0
13.105,4243.505,0.00024,0.0,0.0
13.111,4220.726,0.00024,0.0,0.0
13.118,4236.624,0.00024,0.0,0.0
13.124,4234.773,0.00024,0.0,0.0
13.13,4235.486,0.00024,0.0,0.0
13.137,4246.343,0.00024,0.0,0.0
13.143,4237.238,0.00024,0.0,0.0
13.149,4232.036,0.00024,0.0,0.0
13.156,4239.437,0.00024,0.0,0.0
13.162,4230.585,0.00024,0.0,0.0
13.168,4259.511,0.00023,0.0,0.0
13.175,4245.197,0.00024,0.0,0.0
13.181,4261.22,0.00023,0.0,0.0
13.187,4262.772,0.00023,0.0,0.0
13.194,4287.759,0.00023,0.0,0.0
13.2,4315.411,0.00023,0.0,0.0
13.206,4363.329,0.00023,0.0,0.0
13.212,4438.43,0.00023,0.0,0.0
13.219,4611.039,0.00022,0.0,0.0
13.225,4858.277,0.00021,0.0,0.0
13.231,5326.195,0.00019,0.0,0.0
13.238,6193.792,0.00016,0.0,0.0
13.244,7586.881,0.00013,0.0,0.0
13.25,9454.817,0.00011,0.0,0.0
13.257,10979.519,0.00009,0.0,0.0
13.263,12580.321,0.00008,0.0,0.0
13.269,13059.295,0.00008,0.0,0.0
13.276,10924.745,0.00009,0.0,0.0
13.282,9863.101,0.0001,0.0,0.0
13.288,7396.588,0.00014,0.0,0.0
13.295,6306.19,0.00016,0.0,0.0
13.301,5349.708,0.00019,0.0,0.0
13.307,4820.111,0.00021,0.0,0.0
13.314,4567.8,0.00022,0.0,0.0
13.32,4395.773,0.00023,0.0,0.0
13.326,4315.777,0.00023,0.0,0.0
13.333,4253.898,0.00024,0.0,0.0
13.339,4210.816,0.00024,0.0,0.0
13.345,4188.76,0.00024,0.0,0.0
13.352,4171.532,0.00024,0.0,0.0
13.358,4161.812,0.00024,0.0,0.0
13.364,4140.618,0.00024,0.0,0.0
13.37,4146.053,0.00024,0.0,0.0
13.377,4133.516,0.00024,0.0,0.0
13.383,4120.984,0.00024,0.0,0.0
13.389,4121.596,0.00024,0.0,0.0
13.396,4110.563,0.00024,0.0,0.0
13.402,4104.393,0.00024,0.0,0.0
13.408,4109.173,0.00024,0.0,0.0
13.415,4101.893,0.00024,0.0,0.0
13.421,4106.044,0.00024,0.0,0.0
13.427,4091.229,0.00024,0.0,0.0
13.434,4091.459,0.00024,0.0,0.0
13.44,4081.405,0.00025,0.0,0.0
13.446,4077.536,0.00025,0.0,0.0
13.453,4074.969,0.00025,0.0,0.0
13.459,4065.932,0.00025,0.0,0.0
13.465,4055.454,0.00025,0.0,0.0
13.472,4048.974,0.00025,0.0,0.0
13.478,4053.762,0.00025,0.0,0.0
13.484,4061.047,0.00025,0.0,0.0
13.491,4051.588,0.00025,0.0,0.0
13.497,4043.0,0.00025,0.0,0.0
13.503,4039.09,0.00025,0.0,0.0
13.51,4042.976,0.00025,0.0,0.0
13.516,4033.855,0.00025,0.0,0.0
13.522,4032.248,0.00025,0.0,0.0
13.528,4055.228,0.00025,0.0,0.0
13.535,4023.797,0.00025,0.0,0.0
13.541,4024.044,0.00025,0.0,0.0
13.547,4026.783,0.00025,0.0,0.0
13.554,4013.639,0.00025,0.0,0.0
13.56,4020.208,0.00025,0.0,0.0
13.566,4014.494,0.00025,0.0,0.0
13.573,4015.097,0.00025,0.0,0.0
13.579,4010.724,0.00025,0.0,0.0
13.585,4022.776,0.00025,0.0,0.0
13.592,4011.277,0.00025,0.0,0.0
13.598,4002.565,0.00025,0.0,0.0
13.604,4006.949,0.00025,0.0,0.0
13.611,4008.017,0.00025,0.0,0.0
13.617,3994.543,0.00025,0.0,0.0
13.623,4009.367,0.00025,0.0,0.0
13.63,4008.402,0.00025,0.0,0.0
13.636,4004.821,0.00025,0.0,0.0
13.642,4010.8,0.00025,0.0,0.0
13.649,4015.728,0.00025,0.0,0.0
13.655,4006.192,0.00025,0.0,0.0
13.661,4027.905,0.00025,0.0,0.0
13.668,4016.951,0.00025,0.0,0.0
13.674,4015.631,0.00025,0.0,0.0
13.68,4026.791,0.00025,0.0,0.0
13.686,4030.564,0.00025,0.0,0.0
13.693,4056.519,0.00025,0.0,0.0
13.699,4081.464,0.00025,0.0,0.0
13.705,4150.805,0.00024,0.0,0.0
13.712,4303.165,0.00023,0.0,0.0
13.718,4299.156,0.00023,0.0,0.0
13.724,4393.873,0.00023,0.0,0.0
13.731,4370.079,0.00023,0.0,0.0
13.737,4280.185,0.00023,0.0,0.0
13.743,4270.227,0.00023,0.0,0.0
13.75,4235.346,0.00024,0.0,0.0
13.756,4077.922,0.00025,0.0,0.0
13.762,4031.721,0.00025,0.0,0.0
13.769,4000.833,0.00025,0.0,0.0
13.775,3972.593,0.00025,0.0,0.0
13.781,3954.865,0.00025,0.0,0.0
13.788,3950.558,0.00025,0.0,0.0
13.794,3935.551,0.00025,0.0,0.0
13.8,3938.579,0.00025,0.0,0.0
13.807,3925.401,0.00025,0.0,0.0
13.813,3926.523,0.00025,0.0,0.0
13.819,3912.355,0.00026,0.0,0.0
13.826,3912.921,0.00026,0.0,0.0
13.832,3915.024,0.00026,0.0,0.0
13.838,3905.318,0.00026,0.0,0.0
13.844,3911.543,0.00026,0.0,0.0
13.851,3894.39,0.00026,0.0,0.0
13.857,3906.195,0.00026,0.0,0.0
13.863,3892.563,0.00026,0.0,0.0
13.87,3895.008,0.00026,0.0,0.0
13.876,3891.779,0.00026,0.0,0.0
13.882,3882.739,0.00026,0.0,0.0
13.889,3874.98,0.00026,0.0,0.0
13.895,3867.688,0.00026,0.0,0.0
13.901,3872.538,0.00026,0.0,0.0
13.908,3862.256,0.00026,0.0,0.0
13.914,3879.084,0.00026,0.0,0.0
13.92,3865.706,0.00026,0.0,0.0
13.927,3859.913,0.00026,0.0,0.0
13.933,3867.927,0.00026,0.0,0.0
13.939,3853.002,0.00026,0.0,0.0
13.946,3854.612,0.00026,0.0,0.0
13.952,3846.038,0.00026,0.0,0.0
13.958,3849.573,0.00026,0.0,0.0
13.965,3841.285,0.00026,0.0,0.0
13.971,3841.583,0.00026,0.0,0.0
13.977,3836.472,0.00026,0.0,0.0
13.984,3846.958,0.00026,0.0,0.0
13.99,3825.576,0.00026,0.0,0.0
13.996,3838.499,0.00026,0.0,0.0
14.002,3826.719,0.00026,0.0,0.0
14.009,3828.203,0.00026,0.0,0.0
14.015,3816.176,0.00026,0.0,0.0
14.021,3812.956,0.00026,0.0,0.0
14.028,3814.763,0.00026,0.0,0.0
14.034,3803.107,0.00026,0.0,0.0
14.04,3811.715,0.00026,0.0,0.0
14.047,3795.973,0.00026,0.0,0.0
14.053,3805.875,0.00026,0.0,0.0
14.059,3794.94,0.00026,0.0,0.0
14.066,3812.084,0.00026,0.0,0.0
14.072,3787.054,0.00026,0.0,0.0
14.078,3779.402,0.00026,0.0,0.0
14.085,3791.931,0.00026,0.0,0.0
14.091,3788.565,0.00026,0.0,0.0
14.097,3782.568,0.00026,0.0,0.0
14.104,3769.672,0.00027,0.0,0.0
14.11,3777.743,0.00026,0.0,0.0
14.116,3774.4,0.00026,0.0,0.0
14.123,3770.406,0.00027,0.0,0.0
14.129,3775.476,0.00026,0.0,0.0
14.135,3761.733,0.00027,0.0,0.0
14.142,3758.646,0.00027,0.0,0.0
14.148,3764.392,0.00027,0.0,0.0
14.154,3761.362,0.00027,0.0,0.0
14.16,3764.711,0.00027,0.0,0.0
14.167,3747.232,0.00027,0.0,0.0
14.173,3746.634,0.00027,0.0,0.0
14.179,3754.476,0.00027,0.0,0.0
14.186,3743.561,0.00027,0.0,0.0
14.192,3736.571,0.00027,0.0,0.0
14.198,3738.839,0.00027,0.0,0.0
14.205,3738.864,0.00027,0.0,0.0
14.211,3742.19,0.00027,0.0,0.0
14.217,3740.105,0.00027,0.0,0.0
14.224,3737.25,0.00027,0.0,0.0
14.23,3739.082,0.00027,0.0,0.0
14.236,3744.891,0.00027,0.0,0.0
14.243,3740.858,0.00027,0.0,0.0
14.249,3740.257,0.00027,0.0,0.0
14.255,3755.262,0.00027,0.0,0.0
14.262,3757.748,0.00027,0.0,0.0
14.268,3755.83,0.00027,0.0,0.0
14.274,3749.094,0.00027,0.0,0.0
14.281,3745.173,0.00027,0.0,0.0
14.287,3744.905,0.00027,0.0,0.0
14.293,3760.817,0.00027,0.0,0.0
14.3,3730.45,0.00027,0.0,0.0
14.306,3723.716,0.00027,0.0,0.0
14.312,3722.59,0.00027,0.0,0.0
14.318,3717.602,0.00027,0.0,0.0
14.325,3719.266,0.00027,0.0,0.0
14.331,3697.679,0.00027,0.0,0.0
14.337,3703.923,0.00027,0.0,0.0
14.344,3711.143,0.00027,0.0,0.0
14.35,3688.316,0.00027,0.0,0.0
14.356,3680.693,0.00027,0.0,0.0
14.363,3676.687,0.00027,0.0,0.0
14.369,3692.737,0.00027,0.0,0.0
14.375,3679.915,0.00027,0.0,0.0
14.382,3681.532,0.00027,0.0,0.0
14.388,3670.516,0.00027,0.0,0.0
14.394,3670.963,0.00027,0.0,0.0
14.401,3677.284,0.00027,0.0,0.0
14.407,3667.019,0.00027,0.0,0.0
14.413,3667.051,0.00027,0.0,0.0
14.42,3669.152,0.00027,0.0,0.0
14.426,3658.115,0.00027,0.0,0.0
14.432,3678.579,0.00027,0.0,0.0
14.439,3688.635,0.00027,0.0,0.0
14.445,3696.329,0.00027,0.0,0.0
14.451,3739.92,0.00027,0.0,0.0
14.458,3721.834,0.00027,0.0,0.0
14.464,3811.985,0.00026,0.0,0.0
14.47,3792.394,0.00026,0.0,0.0
14.476,3829.864,0.00026,0.0,0.0
14.483,3819.0,0.00026,0.0,0.0
14.489,3732.551,0.00027,0.0,0.0
14.495,3805.343,0.00026,0.0,0.0
14.502,3736.09,0.00027,0.0,0.0
14.508,3713.029,0.00027,0.0,0.0
14.514,3684.705,0.00027,0.0,0.0
14.521,3651.406,0.00027,0.0,0.0
14.527,3645.991,0.00027,0.0,0.0
14.533,3623.11,0.00028,0.0,0.0
14.54,3626.969,0.00028,0.0,0.0
14.546,3626.414,0.00028,0.0,0.0
14.552,3622.817,0.00028,0.0,0.0
14.559,3621.307,0.00028,0.0,0.0
14.565,3615.02,0.00028,0.0,0.0
14.571,3620.194,0.00028,0.0,0.0
14.578,3605.197,0.00028,0.0,0.0
14.584,3598.884,0.00028,0.0,0.0
14.59,3611.212,0.00028,0.0,0.0
14.597,3602.8,0.00028,0.0,0.0
14.603,3598.632,0.00028,0.0,0.0
14.609,3604.015,0.00028,0.0,0.0
14.616,3592.337,0.00028,0.0,0.0
14.622,3593.039,0.00028,0.0,0.0
14.628,3585.972,0.00028,0.0,0.0
14.634,3593.716,0.00028,0.0,0.0
14.641,3596.949,0.00028,0.0,0.0
14.647,3593.878,0.00028,0.0,0.0
14.653,3582.39,0.00028,0.0,0.0
14.66,3593.838,0.00028,0.0,0.0
14.666,3581.183,0.00028,0.0,0.0
14.672,3589.398,0.00028,0.0,0.0
14.679,3569.777,0.00028,0.0,0.0
14.685,3567.003,0.00028,0.0,0.0
14.691,3579.98,0.00028,0.0,0.0
14.698,3571.778,0.00028,0.0,0.0
14.704,3570.149,0.00028,0.0,0.0
14.71,3558.914,0.00028,0.0,0.0
14.717,3567.636,0.00028,0.0,0.0
14.723,3551.296,0.00028,0.0,0.0
14.729,3549.146,0.00028,0.0,0.0
14.736,3544.25,0.00028,0.0,0.0
14.742,3541.459,0.00028,0.0,0.0
14.748,3556.69,0.00028,0.0,0.0
14.755,3548.125,0.00028,0.0,0.0
14.761,3540.456,0.00028,0.0,0.0
14.767,3539.105,0.00028,0.0,0.0
14.774,3539.869,0.00028,0.0,0.0
14.78,3545.111,0.00028,0.0,0.0
14.786,3532.888,0.00028,0.0,0.0
14.792,3521.013,0.00028,0.0,0.0
14.799,3525.332,0.00028,0.0,0.0
14.805,3532.378,0.00028,0.0,0.0
14.811,3526.479,0.00028,0.0,0.0
14.818,3520.219,0.00028,0.0,0.0
14.824,3522.226,0.00028,0.0,0.0
14.83,3509.599,0.00028,0.0,0.0
14.837,3516.381,0.00028,0.0,0.0
14.843,3522.837,0.00028,0.0,0.0
14.849,3514.823,0.00028,0.0,0.0
14.856,3504.657,0.00029,0.0,0.0
14.862,3512.456,0.00028,0.0,0.0
14.868,3511.949,0.00028,0.0,0.0
14.875,3506.427,0.00029,0.0,0.0
14.881,3508.127,0.00029,0.0,0.0
14.887,3507.116,0.00029,0.0,0.0
14.894,3506.488,0.00029,0.0,0.0
14.9,3510.054,0.00028,0.0,0.0
14.906,3493.663,0.00029,0.0,0.0
14.913,3488.18,0.00029,0.0,0.0
14.919,3504.303,0.00029,0.0,0.0
14.925,3486.582,0.00029,0.0,0.0
14.932,3490.491,0.00029,0.0,0.0
14.938,3483.184,0.00029,0.0,0.0
14.944,3478.194,0.00029,0.0,0.0
14.95,3482.193,0.00029,0.0,0.0
14.957,3482.554,0.00029,0.0,0.0
14.963,3469.09,0.00029,0.0,0.0
14.969,3473.755,0.00029,0.0,0.0
14.976,3475.952,0.00029,0.0,0.0
14.982,3476.876,0.00029,0.0,0.0
14.988,3471.971,0.00029,0.0,0.0
14.995,3469.146,0.00029,0.0,0.0
15.001,3462.531,0.00029,0.0,0.0
15.007,3466.206,0.00029,0.0,0.0
15.014,3468.719,0.00029,0.0,0.0
15.02,3465.016,0.00029,0.0,0.0
15.026,3459.011,0.00029,0.0,0.0
15.033,3460.889,0.00029,0.0,0.0
15.039,3461.293,0.00029,0.0,0.0
15.045,3453.839,0.00029,0.0,0.0
15.052,3461.031,0.00029,0.0,0.0
15.058,3458.925,0.00029,0.0,0.0
15.064,3453.523,0.00029,0.0,0.0
15.071,3459.03,0.00029,0.0,0.0
15.077,3453.986,0.00029,0.0,0.0
15.083,3447.764,0.00029,0.0,0.0
15.09,3449.82,0.00029,0.0,0.0
15.096,3443.478,0.00029,0.0,0.0
15.102,3443.76,0.00029,0.0,0.0
15.108,3441.943,0.00029,0.0,0.0
15.115,3438.569,0.00029,0.0,0.0
15.121,3434.586,0.00029,0.0,0.0
15.127,3447.175,0.00029,0.0,0.0
15.134,3439.612,0.00029,0.0,0.0
15.14,3456.508,0.00029,0.0,0.0
15.146,3453.025,0.00029,0.0,0.0
15.153,3439.993,0.00029,0.0,0.0
15.159,3445.097,0.00029,0.0,0.0
15.165,3450.607,0.00029,0.0,0.0
15.172,3453.557,0.00029,0.0,0.0
15.178,3448.257,0.00029,0.0,0.0
15.184,3457.225,0.00029,0.0,0.0
15.191,3442.494,0.00029,0.0,0.0
15.197,3455.199,0.00029,0.0,0.0
15.203,3436.954,0.00029,0.0,0.0
15.21,3447.429,0.00029,0.0,0.0
15.216,3445.592,0.00029,0.0,0.0
15.222,3442.756,0.00029,0.0,0.0
15.229,3441.507,0.00029,0.0,0.0
15.235,3447.712,0.00029,0.0,0.0
15.241,3444.711,0.00029,0.0,0.0
15.248,3443.554,0.00029,0.0,0.0
15.254,3459.777,0.00029,0.0,0.0
15.26,3482.471,0.00029,0.0,0.0
15.266,3514.996,0.00028,0.0,0.0
15.273,3545.134,0.00028,0.0,0.0
15.279,3624.353,0.00028,0.0,0.0
15.285,3728.873,0.00027,0.0,0.0
15.292,3958.495,0.00025,0.0,0.0
15.298,4209.605,0.00024,0.0,0.0
15.304,4641.789,0.00022,0.0,0.0
15.311,5165.359,0.00019,0.0,0.0
15.317,5556.792,0.00018,0.0,0.0
15.323,6018.683,0.00017,0.0,0.0
15.33,5851.44,0.00017,0.0,0.0
15.336,5503.66,0.00018,0.0,0.0
15.342,5308.032,0.00019,0.0,0.0
15.349,4561.43,0.00022,0.0,0.0
15.355,4257.51,0.00023,0.0,0.0
15.361,3904.692,0.00026,0.0,0.0
15.368,3703.881,0.00027,0.0,0.0
15.374,3588.657,0.00028,0.0,0.0
15.38,3510.363,0.00028,0.0,0.0
15.387,3473.404,0.00029,0.0,0.0
15.393,3440.715,0.00029,0.0,0.0
15.399,3419.507,0.00029,0.0,0.0
15.406,3410.328,0.00029,0.0,0.0
15.412,3394.608,0.00029,0.0,0.0
15.418,3397.267,0.00029,0.0,0.0
15.424,3396.4,0.00029,0.0,0.0
15.431,3383.421,0.0003,0.0,0.0
15.437,3386.394,0.0003,0.0,0.0
15.443,3378.011,0.0003,0.0,0.0
15.45,3371.45,0.0003,0.0,0.0
15.456,3379.377,0.0003,0.0,0.0
15.462,3366.711,0.0003,0.0,0.0
15.469,3368.729,0.0003,0.0,0.0
15.475,3370.917,0.0003,0.0,0.0
15.481,3366.098,0.0003,0.0,0.0
15.488,3367.033,0.0003,0.0,0.0
15.494,3357.587,0.0003,0.0,0.0
15.5,3358.595,0.0003,0.0,0.0
15.507,3357.344,0.0003,0.0,0.0
15.513,3356.597,0.0003,0.0,0.0
15.519,3347.813,0.0003,0.0,0.0
15.526,3352.92,0.0003,0.0,0.0
15.532,3355.896,0.0003,0.0,0.0
15.538,3331.53,0.0003,0.0,0.0
15.545,3336.326,0.0003,0.0,0.0
15.551,3339.182,0.0003,0.0,0.0
15.557,3335.752,0.0003,0.0,0.0
15.564,3331.923,0.0003,0.0,0.0
15.57,3327.933,0.0003,0.0,0.0
15.576,3336.683,0.0003,0.0,0.0
15.582,3331.91,0.0003,0.0,0.0
15.589,3329.04,0.0003,0.0,0.0
15.595,3324.099,0.0003,0.0,0.0
15.601,3327.841,0.0003,0.0,0.0
15.608,3319.371,0.0003,0.0,0.0
15.614,3316.134,0.0003,0.0,0.0
15.62,3311.686,0.0003,0.0,0.0
15.627,3305.021,0.0003,0.0,0.0
15.633,3315.093,0.0003,0.0,0.0
15.639,3330.281,0.0003,0.0,0.0
15.646,3322.107,0.0003,0.0,0.0
15.652,3311.393,0.0003,0.0,0.0
15.658,3314.202,0.0003,0.0,0.0
15.665,3305.152,0.0003,0.0,0.0
15.671,3305.509,0.0003,0.0,0.0
15.677,3310.28,0.0003,0.0,0.0
15.684,3300.137,0.0003,0.0,0.0
15.69,3297.745,0.0003,0.0,0.0
15.696,3288.841,0.0003,0.0,0.0
15.703,3295.421,0.0003,0.0,0.0
15.709,3292.025,0.0003,0.0,0.0
15.715,3282.644,0.0003,0.0,0.0
15.722,3294.187,0.0003,0.0,0.0
15.728,3286.562,0.0003,0.0,0.0
15.734,3282.96,0.0003,0.0,0.0
15.74,3288.718,0.0003,0.0,0.0
15.747,3266.722,0.00031,0.0,0.0
15.753,3272.373,0.00031,0.0,0.0
15.759,3274.155,0.00031,0.0,0.0
15.766,3271.824,0.00031,0.0,0.0
15.772,3287.284,0.0003,0.0,0.0
15.778,3278.602,0.00031,0.0,0.0
15.785,3273.613,0.00031,0.0,0.0
15.791,3273.321,0.00031,0.0,0.0
15.797,3275.465,0.00031,0.0,0.0
15.804,3274.628,0.00031,0.0,0.0
15.81,3273.201,0.00031,0.0,0.0
15.816,3279.676,0.0003,0.0,0.0
15.823,3273.027,0.00031,0.0,0.0
15.829,3273.07,0.00031,0.0,0.0
15.835,3277.333,0.00031,0.0,0.0
15.842,3268.845,0.00031,0.0,0.0
15.848,3262.151,0.00031,0.0,0.0
15.854,3268.446,0.00031,0.0,0.0
15.861,3269.786,0.00031,0.0,0.0
15.867,3272.841,0.00031,0.0,0.0
15.873,3272.648,0.00031,0.0,0.0
15.88,3259.813,0.00031,0.0,0.0
15.886,3262.693,0.00031,0.0,0.0
15.892,3252.33,0.00031,0.0,0.0
15.898,3251.256,0.00031,0.0,0.0
15.905,3242.629,0.00031,0.0,0.0
15.911,3262.354,0.00031,0.0,0.0
15.917,3251.227,0.00031,0.0,0.0
15.924,3251.029,0.00031,0.0,0.0
15.93,3246.862,0.00031,0.0,0.0
15.936,3244.069,0.00031,0.0,0.0
15.943,3245.301,0.00031,0.0,0.0
15.949,3239.876,0.00031,0.0,0.0
15.955,3240.293,0.00031,0.0,0.0
15.962,3243.862,0.00031,0.0,0.0
15.968,3236.541,0.00031,0.0,0.0
15.974,3248.908,0.00031,0.0,0.0
15.981,3231.845,0.00031,0.0,0.0
15.987,3231.966,0.00031,0.0,0.0
15.993,3240.088,0.00031,0.0,0.0
16.0,3231.096,0.00031,0.0,0.0
16.006,3234.616,0.00031,0.0,0.0
16.012,3237.006,0.00031,0.0,0.0
16.019,3231.095,0.00031,0.0,0.0
16.025,3222.202,0.00031,0.0,0.0
16.031,3224.26,0.00031,0.0,0.0
16.038,3212.371,0.00031,0.0,0.0
16.044,3221.69,0.00031,0.0,0.0
16.05,3221.604,0.00031,0.0,0.0
16.056,3224.777,0.00031,0.0,0.0
16.063,3219.228,0.00031,0.0,0.0
16.069,3223.682,0.00031,0.0,0.0
16.075,3223.891,0.00031,0.0,0.0
16.082,3222.082,0.00031,0.0,0.0
16.088,3222.409,0.00031,0.0,0.0
16.094,3213.685,0.00031,0.0,0.0
16.101,3211.625,0.00031,0.0,0.0
16.107,3216.506,0.00031,0.0,0.0
16.113,3207.903,0.00031,0.0,0.0
16.12,3211.372,0.00031,0.0,0.0
16.126,3212.579,0.00031,0.0,0.0
16.132,3217.769,0.00031,0.0,0.0
16.139,3205.905,0.00031,0.0,0.0
16.145,3209.584,0.00031,0.0,0.0
16.151,3216.444,0.00031,0.0,0.0
16.158,3200.961,0.00031,0.0,0.0
16.164,3211.155,0.00031,0.0,0.0
16.17,3209.154,0.00031,0.0,0.0
16.177,3209.355,0.00031,0.0,0.0
16.183,3209.714,0.00031,0.0,0.0
16.189,3212.25,0.00031,0.0,0.0
16.196,3203.63,0.00031,0.0,0.0
16.202,3200.801,0.00031,0.0,0.0
16.208,3194.835,0.00031,0.0,0.0
16.214,3203.544,0.00031,0.0,0.0
16.221,3209.334,0.00031,0.0,0.0
16.227,3202.899,0.00031,0.0,0.0
16.233,3197.96,0.00031,0.0,0.0
16.24,3191.886,0.00031,0.0,0.0
16.246,3193.402,0.00031,0.0,0.0
16.252,3190.616,0.00031,0.0,0.0
16.259,3197.172,0.00031,0.0,0.0
16.265,3198.942,0.00031,0.0,0.0
16.271,3201.218,0.00031,0.0,0.0
16.278,3194.568,0.00031,0.0,0.0
16.284,3209.05,0.00031,0.0,0.0
16.29,3197.766,0.00031,0.0,0.0
16.297,3201.495,0.00031,0.0,0.0
16.303,3200.637,0.00031,0.0,0.0
16.309,3209.405,0.00031,0.0,0.0
16.316,3197.233,0.00031,0.0,0.0
16.322,3205.003,0.00031,0.0,0.0
16.328,3193.928,0.00031,0.0,0.0
16.335,3199.414,0.00031,0.0,0.0
16.341,3197.98,0.00031,0.0,0.0
16.347,3203.188,0.00031,0.0,0.0
16.354,3210.529,0.00031,0.0,0.0
16.36,3191.05,0.00031,0.0,0.0
16.366,3189.886,0.00031,0.0,0.0
16.372,3204.249,0.00031,0.0,0.0
16.379,3197.724,0.00031,0.0,0.0
16.385,3204.827,0.00031,0.0,0.0
16.391,3194.857,0.00031,0.0,0.0
16.398,3194.595,0.00031,0.0,0.0
16.404,3195.313,0.00031,0.0,0.0
16.41,3196.488,0.00031,0.0,0.0
16.417,3198.649,0.00031,0.0,0.0
16.423,3198.209,0.00031,0.0,0.0
16.429,3210.16,0.00031,0.0,0.0
16.436,3194.653,0.00031,0.0,0.0
16.442,3197.309,0.00031,0.0,0.0
16.448,3194.228,0.00031,0.0,0.0
16.455,3200.58,0.00031,0.0,0.0
16.461,3198.842,0.00031,0.0,0.0
16.467,3207.805,0.00031,0.0,0.0
16.474,3207.349,0.00031,0.0,0.0
16.48,3213.978,0.00031,0.0,0.0
16.486,3224.44,0.00031,0.0,0.0
16.493,3232.083,0.00031,0.0,0.0
16.499,3252.288,0.00031,0.0,0.0
16.505,3288.943,0.0003,0.0,0.0
16.512,3277.735,0.00031,0.0,0.0
16.518,3305.275,0.0003,0.0,0.0
16.524,3307.432,0.0003,0.0,0.0
16.53,3256.432,0.00031,0.0,0.0
16.537,3261.28,0.00031,0.0,0.0
16.543,3238.381,0.00031,0.0,0.0
16.549,3227.808,0.00031,0.0,0.0
16.556,3222.971,0.00031,0.0,0.0
16.562,3222.347,0.00031,0.0,0.0
16.568,3215.073,0.00031,0.0,0.0
16.575,3208.457,0.00031,0.0,0.0
16.581,3217.887,0.00031,0.0,0.0
16.587,3221.072,0.00031,0.0,0.0
16.594,3233.259,0.00031,0.0,0.0
