"x","y_obs","weight","y_calc","y_bkg"
0.8,2870.083,0.00035,0.0,0.0
0.806,3222.355,0.00031,0.0,0.0
0.813,3373.41,0.0003,0.0,0.0
0.819,3266.878,0.00031,0.0,0.0
0.825,3864.16,0.00026,0.0,0.0
0.832,3636.189,0.00028,0.0,0.0
0.838,3936.365,0.00025,0.0,0.0
0.844,4220.822,0.00024,0.0,0.0
0.851,4114.693,0.00024,0.0,0.0
0.857,4555.751,0.00022,0.0,0.0
0.863,4887.38,0.0002,0.0,0.0
0.87,4557.23,0.00022,0.0,0.0
0.876,5274.993,0.00019,0.0,0.0
0.882,5148.461,0.00019,0.0,0.0
0.888,5323.367,0.00019,0.0,0.0
0.895,5617.564,0.00018,0.0,0.0
0.901,5552.868,0.00018,0.0,0.0
0.907,6056.229,0.00017,0.0,0.0
0.914,6205.542,0.00016,0.0,0.0
0.92,5864.357,0.00017,0.0,0.0
0.926,6442.46,0.00016,0.0,0.0
0.933,6480.911,0.00015,0.0,0.0
0.939,6310.887,0.00016,0.0,0.0
0.945,6830.437,0.00015,0.0,0.0
0.952,6467.423,0.00015,0.0,0.0
0.958,6851.923,0.00015,0.0,0.0
0.964,6856.96,0.00015,0.0,0.0
0.971,6619.744,0.00015,0.0,0.0
0.977,7061.035,0.00014,0.0,0.0
0.983,6975.359,0.00014,0.0,0.0
0.99,6876.04,0.00015,0.0,0.0
0.996,7151.215,0.00014,0.0,0.0
1.002,6857.374,0.00015,0.0,0.0
1.009,7059.096,0.00014,0.0,0.0
1.015,7186.437,0.00014,0.0,0.0
1.021,6944.691,0.00014,0.0,0.0
1.028,7169.311,0.00014,0.0,0.0
1.034,7069.9,0.00014,0.0,0.0
1.04,7022.273,0.00014,0.0,0.0
1.046,7078.471,0.00014,0.0,0.0
1.053,7108.765,0.00014,0.0,0.0
1.059,6976.532,0.00014,0.0,0.0
1.065,7191.543,0.00014,0.0,0.0
1.072,6880.446,0.00015,0.0,0.0
1.078,7043.524,0.00014,0.0,0.0
1.084,6924.445,0.00014,0.0,0.0
1.091,6939.412,0.00014,0.0,0.0
1.097,6966.744,0.00014,0.0,0.0
1.103,6921.039,0.00014,0.0,0.0
1.11,6869.954,0.00015,0.0,0.0
1.116,6856.572,0.00015,0.0,0.0
1.122,6766.122,0.00015,0.0,0.0
1.129,6791.49,0.00015,0.0,0.0
1.135,6721.555,0.00015,0.0,0.0
1.141,6689.404,0.00015,0.0,0.0
1.148,6683.83,0.00015,0.0,0.0
1.154,6571.237,0.00015,0.0,0.0
1.16,6530.05,0.00015,0.0,0.0
1.167,6525.052,0.00015,0.0,0.0
1.173,6483.983,0.00015,0.0,0.0
1.179,6467.649,0.00015,0.0,0.0
1.186,6385.069,0.00016,0.0,0.0
1.192,6363.025,0.00016,0.0,0.0
1.198,6363.993,0.00016,0.0,0.0
1.204,6260.82,0.00016,0.0,0.0
1.211,6281.711,0.00016,0.0,0.0
1.217,6259.154,0.00016,0.0,0.0
1.223,6193.994,0.00016,0.0,0.0
1.23,6140.109,0.00016,0.0,0.0
1.236,6098.318,0.00016,0.0,0.0
1.242,6103.694,0.00016,0.0,0.0
1.249,6061.324,0.00016,0.0,0.0
1.255,6055.012,0.00017,0.0,0.0
1.261,5954.135,0.00017,0.0,0.0
1.268,5968.586,0.00017,0.0,0.0
1.274,5937.454,0.00017,0.0,0.0
1.28,5930.728,0.00017,0.0,0.0
1.287,5896.945,0.00017,0.0,0.0
1.293,5859.125,0.00017,0.0,0.0
1.299,5852.908,0.00017,0.0,0.0
1.306,5823.028,0.00017,0.0,0.0
1.312,5790.556,0.00017,0.0,0.0
1.318,5784.959,0.00017,0.0,0.0
1.325,5730.086,0.00017,0.0,0.0
1.331,5775.52,0.00017,0.0,0.0
1.337,5715.54,0.00017,0.0,0.0
1.344,5709.453,0.00018,0.0,0.0
1.35,5692.149,0.00018,0.0,0.0
1.356,5674.621,0.00018,0.0,0.0
1.362,5672.584,0.00018,0.0,0.0
1.369,5668.996,0.00018,0.0,0.0
1.375,5609.538,0.00018,0.0,0.0
1.381,5642.114,0.00018,0.0,0.0
1.388,5643.3,0.00018,0.0,0.0
1.394,5591.182,0.00018,0.0,0.0
1.4,5636.472,0.00018,0.0,0.0
1.407,5586.523,0.00018,0.0,0.0
1.413,5591.458,0.00018,0.0,0.0
1.419,5543.352,0.00018,0.0,0.0
1.426,5560.737,0.00018,0.0,0.0
1.432,5536.421,0.00018,0.0,0.0
1.438,5562.661,0.00018,0.0,0.0
1.445,5514.108,0.00018,0.0,0.0
1.451,5521.65,0.00018,0.0,0.0
1.457,5500.764,0.00018,0.0,0.0
1.464,5504.243,0.00018,0.0,0.0
1.47,5486.389,0.00018,0.0,0.0
1.476,5501.663,0.00018,0.0,0.0
1.483,5522.006,0.00018,0.0,0.0
1.489,5529.852,0.00018,0.0,0.0
1.495,5539.115,0.00018,0.0,0.0
1.502,5504.255,0.00018,0.0,0.0
1.508,5529.19,0.00018,0.0,0.0
1.514,5500.665,0.00018,0.0,0.0
1.52,5513.048,0.00018,0.0,0.0
1.527,5507.35,0.00018,0.0,0.0
1.533,5536.366,0.00018,0.0,0.0
1.539,5536.462,0.00018,0.0,0.0
1.546,5502.762,0.00018,0.0,0.0
1.552,5547.985,0.00018,0.0,0.0
1.558,5543.295,0.00018,0.0,0.0
1.565,5573.984,0.00018,0.0,0.0
1.571,5548.439,0.00018,0.0,0.0
1.577,5533.96,0.00018,0.0,0.0
1.584,5548.672,0.00018,0.0,0.0
1.59,5591.99,0.00018,0.0,0.0
1.596,5549.428,0.00018,0.0,0.0
1.603,5657.177,0.00018,0.0,0.0
1.609,5604.751,0.00018,0.0,0.0
1.615,5621.306,0.00018,0.0,0.0
1.622,5613.499,0.00018,0.0,0.0
1.628,5626.643,0.00018,0.0,0.0
1.634,5661.041,0.00018,0.0,0.0
1.641,5609.887,0.00018,0.0,0.0
1.647,5706.308,0.00018,0.0,0.0
1.653,5677.447,0.00018,0.0,0.0
1.66,5692.771,0.00018,0.0,0.0
1.666,5702.89,0.00018,0.0,0.0
1.672,5720.69,0.00017,0.0,0.0
1.678,5701.328,0.00018,0.0,0.0
1.685,5780.692,0.00017,0.0,0.0
1.691,5756.577,0.00017,0.0,0.0
1.697,5744.809,0.00017,0.0,0.0
1.704,5778.06,0.00017,0.0,0.0
1.71,5778.991,0.00017,0.0,0.0
1.716,5830.996,0.00017,0.0,0.0
1.723,5820.483,0.00017,0.0,0.0
1.729,5837.392,0.00017,0.0,0.0
1.735,5822.865,0.00017,0.0,0.0
1.742,5850.794,0.00017,0.0,0.0
1.748,5842.557,0.00017,0.0,0.0
1.754,5868.655,0.00017,0.0,0.0
1.761,5870.704,0.00017,0.0,0.0
1.767,5892.987,0.00017,0.0,0.0
1.773,5905.184,0.00017,0.0,0.0
1.78,5905.663,0.00017,0.0,0.0
1.786,5929.001,0.00017,0.0,0.0
1.792,5896.565,0.00017,0.0,0.0
1.799,5945.093,0.00017,0.0,0.0
1.805,5915.347,0.00017,0.0,0.0
1.811,5910.928,0.00017,0.0,0.0
1.818,5951.953,0.00017,0.0,0.0
1.824,5941.37,0.00017,0.0,0.0
1.83,5942.204,0.00017,0.0,0.0
1.836,5939.764,0.00017,0.0,0.0
1.843,5972.885,0.00017,0.0,0.0
1.849,5916.105,0.00017,0.0,0.0
1.855,5926.237,0.00017,0.0,0.0
1.862,5980.835,0.00017,0.0,0.0
1.868,5941.981,0.00017,0.0,0.0
1.874,5938.479,0.00017,0.0,0.0
1.881,5962.333,0.00017,0.0,0.0
1.887,5939.597,0.00017,0.0,0.0
1.893,5948.619,0.00017,0.0,0.0
1.9,5968.973,0.00017,0.0,0.0
1.906,5929.099,0.00017,0.0,0.0
1.912,5961.792,0.00017,0.0,0.0
1.919,5942.217,0.00017,0.0,0.0
1.925,5990.379,0.00017,0.0,0.0
1.931,5974.195,0.00017,0.0,0.0
1.938,5940.477,0.00017,0.0,0.0
1.944,5963.717,0.00017,0.0,0.0
1.95,5933.404,0.00017,0.0,0.0
1.957,5915.709,0.00017,0.0,0.0
1.963,5933.221,0.00017,0.0,0.0
1.969,5952.093,0.00017,0.0,0.0
1.976,5936.598,0.00017,0.0,0.0
1.982,5944.94,0.00017,0.0,0.0
1.988,5945.474,0.00017,0.0,0.0
1.994,5940.374,0.00017,0.0,0.0
2.001,5930.412,0.00017,0.0,0.0
2.007,5962.547,0.00017,0.0,0.0
2.013,5960.43,0.00017,0.0,0.0
2.02,5926.362,0.00017,0.0,0.0
2.026,5985.207,0.00017,0.0,0.0
2.032,5961.735,0.00017,0.0,0.0
2.039,5964.109,0.00017,0.0,0.0
2.045,5967.793,0.00017,0.0,0.0
2.051,5929.009,0.00017,0.0,0.0
2.058,5993.032,0.00017,0.0,0.0
2.064,5995.929,0.00017,0.0,0.0
2.07,5976.087,0.00017,0.0,0.0
2.077,5992.511,0.00017,0.0,0.0
2.083,5939.362,0.00017,0.0,0.0
2.089,5970.666,0.00017,0.0,0.0
2.096,5945.768,0.00017,0.0,0.0
2.102,6010.329,0.00017,0.0,0.0
2.108,5997.373,0.00017,0.0,0.0
2.115,6013.866,0.00017,0.0,0.0
2.121,5994.498,0.00017,0.0,0.0
2.127,6029.183,0.00017,0.0,0.0
2.134,6015.07,0.00017,0.0,0.0
2.14,6013.814,0.00017,0.0,0.0
2.146,6030.063,0.00017,0.0,0.0
2.152,6087.42,0.00016,0.0,0.0
2.159,6035.077,0.00017,0.0,0.0
2.165,6081.195,0.00016,0.0,0.0
2.171,6088.294,0.00016,0.0,0.0
2.178,6090.361,0.00016,0.0,0.0
2.184,6086.074,0.00016,0.0,0.0
2.19,6116.843,0.00016,0.0,0.0
2.197,6162.812,0.00016,0.0,0.0
2.203,6119.499,0.00016,0.0,0.0
2.209,6113.263,0.00016,0.0,0.0
2.216,6151.989,0.00016,0.0,0.0
2.222,6152.954,0.00016,0.0,0.0
2.228,6148.502,0.00016,0.0,0.0
2.235,6165.015,0.00016,0.0,0.0
2.241,6184.443,0.00016,0.0,0.0
2.247,6238.86,0.00016,0.0,0.0
2.254,6213.236,0.00016,0.0,0.0
2.26,6226.654,0.00016,0.0,0.0
2.266,6259.106,0.00016,0.0,0.0
2.273,6288.458,0.00016,0.0,0.0
2.279,6284.989,0.00016,0.0,0.0
2.285,6323.449,0.00016,0.0,0.0
2.292,6312.325,0.00016,0.0,0.0
2.298,6340.703,0.00016,0.0,0.0
2.304,6346.6,0.00016,0.0,0.0
2.31,6371.815,0.00016,0.0,0.0
2.317,6375.166,0.00016,0.0,0.0
2.323,6395.771,0.00016,0.0,0.0
2.329,6413.941,0.00016,0.0,0.0
2.336,6442.891,0.00016,0.0,0.0
2.342,6496.715,0.00015,0.0,0.0
2.348,6477.847,0.00015,0.0,0.0
2.355,6529.212,0.00015,0.0,0.0
2.361,6549.02,0.00015,0.0,0.0
2.367,6569.987,0.00015,0.0,0.0
2.374,6560.291,0.00015,0.0,0.0
2.38,6636.891,0.00015,0.0,0.0
2.386,6646.741,0.00015,0.0,0.0
2.393,6707.558,0.00015,0.0,0.0
2.399,6754.739,0.00015,0.0,0.0
2.405,6829.832,0.00015,0.0,0.0
2.412,6973.606,0.00014,0.0,0.0
2.418,7075.774,0.00014,0.0,0.0
2.424,7155.465,0.00014,0.0,0.0
2.431,7201.143,0.00014,0.0,0.0
2.437,7167.836,0.00014,0.0,0.0
2.443,7080.631,0.00014,0.0,0.0
2.45,7019.718,0.00014,0.0,0.0
2.456,6961.706,0.00014,0.0,0.0
2.462,6922.081,0.00014,0.0,0.0
2.468,6925.467,0.00014,0.0,0.0
2.475,6920.5,0.00014,0.0,0.0
2.481,6946.405,0.00014,0.0,0.0
2.487,6941.343,0.00014,0.0,0.0
2.494,6965.428,0.00014,0.0,0.0
2.5,6996.746,0.00014,0.0,0.0
2.506,7019.52,0.00014,0.0,0.0
2.513,7047.19,0.00014,0.0,0.0
2.519,7064.164,0.00014,0.0,0.0
2.525,7103.962,0.00014,0.0,0.0
2.532,7129.66,0.00014,0.0,0.0
2.538,7172.068,0.00014,0.0,0.0
2.544,7167.007,0.00014,0.0,0.0
2.551,7183.351,0.00014,0.0,0.0
2.557,7222.939,0.00014,0.0,0.0
2.563,7236.904,0.00014,0.0,0.0
2.57,7278.203,0.00014,0.0,0.0
2.576,7283.802,0.00014,0.0,0.0
2.582,7306.355,0.00014,0.0,0.0
2.589,7344.443,0.00014,0.0,0.0
2.595,7351.303,0.00014,0.0,0.0
2.601,7381.564,0.00014,0.0,0.0
2.608,7426.506,0.00013,0.0,0.0
2.614,7436.468,0.00013,0.0,0.0
2.62,7466.624,0.00013,0.0,0.0
2.626,7494.69,0.00013,0.0,0.0
2.633,7516.151,0.00013,0.0,0.0
2.639,7536.98,0.00013,0.0,0.0
2.645,7556.81,0.00013,0.0,0.0
2.652,7574.313,0.00013,0.0,0.0
2.658,7604.893,0.00013,0.0,0.0
2.664,7625.378,0.00013,0.0,0.0
2.671,7652.102,0.00013,0.0,0.0
2.677,7689.802,0.00013,0.0,0.0
2.683,7715.52,0.00013,0.0,0.0
2.69,7716.333,0.00013,0.0,0.0
2.696,7770.136,0.00013,0.0,0.0
2.702,7779.255,0.00013,0.0,0.0
2.709,7807.225,0.00013,0.0,0.0
2.715,7826.321,0.00013,0.0,0.0
2.721,7826.295,0.00013,0.0,0.0
2.728,7884.79,0.00013,0.0,0.0
2.734,7943.111,0.00013,0.0,0.0
2.74,7935.034,0.00013,0.0,0.0
2.747,7967.188,0.00013,0.0,0.0
2.753,7987.525,0.00013,0.0,0.0
2.759,8019.601,0.00012,0.0,0.0
2.766,8024.923,0.00012,0.0,0.0
2.772,8080.518,0.00012,0.0,0.0
2.778,8095.741,0.00012,0.0,0.0
2.784,8119.695,0.00012,0.0,0.0
2.791,8159.494,0.00012,0.0,0.0
2.797,8165.109,0.00012,0.0,0.0
2.803,8172.045,0.00012,0.0,0.0
2.81,8225.839,0.00012,0.0,0.0
2.816,8254.134,0.00012,0.0,0.0
2.822,8259.252,0.00012,0.0,0.0
2.829,8295.301,0.00012,0.0,0.0
2.835,8323.743,0.00012,0.0,0.0
2.841,8319.805,0.00012,0.0,0.0
2.848,8363.366,0.00012,0.0,0.0
2.854,8377.479,0.00012,0.0,0.0
2.86,8431.843,0.00012,0.0,0.0
2.867,8443.5,0.00012,0.0,0.0
2.873,8453.995,0.00012,0.0,0.0
2.879,8476.822,0.00012,0.0,0.0
2.886,8536.97,0.00012,0.0,0.0
2.892,8529.29,0.00012,0.0,0.0
2.898,8559.717,0.00012,0.0,0.0
2.905,8583.148,0.00012,0.0,0.0
2.911,8595.618,0.00012,0.0,0.0
2.917,8613.524,0.00012,0.0,0.0
2.924,8644.666,0.00012,0.0,0.0
2.93,8659.708,0.00012,0.0,0.0
2.936,8715.105,0.00011,0.0,0.0
2.942,8688.076,0.00012,0.0,0.0
2.949,8732.783,0.00011,0.0,0.0
2.955,8756.397,0.00011,0.0,0.0
2.961,8770.692,0.00011,0.0,0.0
2.968,8785.605,0.00011,0.0,0.0
2.974,8821.02,0.00011,0.0,0.0
2.98,8807.688,0.00011,0.0,0.0
2.987,8812.16,0.00011,0.0,0.0
2.993,8852.578,0.00011,0.0,0.0
2.999,8863.34,0.00011,0.0,0.0
3.006,8859.963,0.00011,0.0,0.0
3.012,8874.872,0.00011,0.0,0.0
3.018,8890.46,0.00011,0.0,0.0
3.025,8910.164,0.00011,0.0,0.0
3.031,8902.943,0.00011,0.0,0.0
3.037,8926.706,0.00011,0.0,0.0
3.044,8931.282,0.00011,0.0,0.0
3.05,8958.816,0.00011,0.0,0.0
3.056,8969.979,0.00011,0.0,0.0
3.063,8989.62,0.00011,0.0,0.0
3.069,8977.686,0.00011,0.0,0.0
3.075,8976.937,0.00011,0.0,0.0
3.082,8982.85,0.00011,0.0,0.0
3.088,8979.487,0.00011,0.0,0.0
3.094,8989.992,0.00011,0.0,0.0
3.1,8992.783,0.00011,0.0,0.0
3.107,8976.78,0.00011,0.0,0.0
3.113,8982.508,0.00011,0.0,0.0
3.119,9001.298,0.00011,0.0,0.0
3.126,8960.178,0.00011,0.0,0.0
3.132,8987.67,0.00011,0.0,0.0
3.138,9006.559,0.00011,0.0,0.0
3.145,8975.793,0.00011,0.0,0.0
3.151,8977.332,0.00011,0.0,0.0
3.157,8968.98,0.00011,0.0,0.0
3.164,8949.475,0.00011,0.0,0.0
3.17,8960.399,0.00011,0.0,0.0
3.176,8920.995,0.00011,0.0,0.0
3.183,8934.872,0.00011,0.0,0.0
3.189,8895.271,0.00011,0.0,0.0
3.195,8913.72,0.00011,0.0,0.0
3.202,8922.801,0.00011,0.0,0.0
3.208,8868.948,0.00011,0.0,0.0
3.214,8924.77,0.00011,0.0,0.0
3.221,8873.406,0.00011,0.0,0.0
3.227,8853.827,0.00011,0.0,0.0
3.233,8814.488,0.00011,0.0,0.0
3.24,8821.152,0.00011,0.0,0.0
3.246,8819.147,0.00011,0.0,0.0
3.252,8835.772,0.00011,0.0,0.0
3.258,8803.84,0.00011,0.0,0.0
3.265,8775.882,0.00011,0.0,0.0
3.271,8758.38,0.00011,0.0,0.0
3.277,8759.019,0.00011,0.0,0.0
3.284,8755.15,0.00011,0.0,0.0
3.29,8713.084,0.00011,0.0,0.0
3.296,8709.404,0.00011,0.0,0.0
3.303,8727.618,0.00011,0.0,0.0
3.309,8701.822,0.00011,0.0,0.0
3.315,8693.698,0.00012,0.0,0.0
3.322,8647.857,0.00012,0.0,0.0
3.328,8637.033,0.00012,0.0,0.0
3.334,8636.429,0.00012,0.0,0.0
3.341,8600.248,0.00012,0.0,0.0
3.347,8594.261,0.00012,0.0,0.0
3.353,8565.861,0.00012,0.0,0.0
3.36,8572.396,0.00012,0.0,0.0
3.366,8550.467,0.00012,0.0,0.0
3.372,8569.462,0.00012,0.0,0.0
3.379,8520.864,0.00012,0.0,0.0
3.385,8516.317,0.00012,0.0,0.0
3.391,8500.047,0.00012,0.0,0.0
3.398,8502.486,0.00012,0.0,0.0
3.404,8480.952,0.00012,0.0,0.0
3.41,8468.573,0.00012,0.0,0.0
3.416,8461.287,0.00012,0.0,0.0
3.423,8454.253,0.00012,0.0,0.0
3.429,8477.076,0.00012,0.0,0.0
3.435,8469.361,0.00012,0.0,0.0
3.442,8460.086,0.00012,0.0,0.0
3.448,8434.355,0.00012,0.0,0.0
3.454,8431.346,0.00012,0.0,0.0
3.461,8370.39,0.00012,0.0,0.0
3.467,8361.989,0.00012,0.0,0.0
3.473,8343.317,0.00012,0.0,0.0
3.48,8356.947,0.00012,0.0,0.0
3.486,8318.292,0.00012,0.0,0.0
3.492,8320.25,0.00012,0.0,0.0
3.499,8294.165,0.00012,0.0,0.0
3.505,8322.158,0.00012,0.0,0.0
3.511,8290.869,0.00012,0.0,0.0
3.518,8269.366,0.00012,0.0,0.0
3.524,8280.859,0.00012,0.0,0.0
3.53,8260.184,0.00012,0.0,0.0
3.537,8240.287,0.00012,0.0,0.0
3.543,8266.081,0.00012,0.0,0.0
3.549,8236.056,0.00012,0.0,0.0
3.556,8240.58,0.00012,0.0,0.0
3.562,8235.064,0.00012,0.0,0.0
3.568,8235.33,0.00012,0.0,0.0
3.574,8208.609,0.00012,0.0,0.0
3.581,8222.429,0.00012,0.0,0.0
3.587,8222.576,0.00012,0.0,0.0
3.593,8235.278,0.00012,0.0,0.0
3.6,8217.165,0.00012,0.0,0.0
3.606,8236.856,0.00012,0.0,0.0
3.612,8231.36,0.00012,0.0,0.0
3.619,8238.988,0.00012,0.0,0.0
3.625,8264.042,0.00012,0.0,0.0
3.631,8255.616,0.00012,0.0,0.0
3.638,8239.222,0.00012,0.0,0.0
3.644,8240.132,0.00012,0.0,0.0
3.65,8263.26,0.00012,0.0,0.0
3.657,8274.569,0.00012,0.0,0.0
3.663,8290.494,0.00012,0.0,0.0
3.669,8285.894,0.00012,0.0,0.0
3.676,8287.859,0.00012,0.0,0.0
3.682,8307.284,0.00012,0.0,0.0
3.688,8307.127,0.00012,0.0,0.0
3.695,8335.108,0.00012,0.0,0.0
3.701,8342.699,0.00012,0.0,0.0
3.707,8332.352,0.00012,0.0,0.0
3.714,8383.422,0.00012,0.0,0.0
3.72,8383.385,0.00012,0.0,0.0
3.726,8389.135,0.00012,0.0,0.0
3.732,8379.919,0.00012,0.0,0.0
3.739,8421.67,0.00012,0.0,0.0
3.745,8413.195,0.00012,0.0,0.0
3.751,8404.628,0.00012,0.0,0.0
3.758,8435.052,0.00012,0.0,0.0
3.764,8412.858,0.00012,0.0,0.0
3.77,8424.145,0.00012,0.0,0.0
3.777,8450.23,0.00012,0.0,0.0
3.783,8449.363,0.00012,0.0,0.0
3.789,8455.937,0.00012,0.0,0.0
3.796,8463.942,0.00012,0.0,0.0
3.802,8465.607,0.00012,0.0,0.0
3.808,8486.841,0.00012,0.0,0.0
3.815,8484.101,0.00012,0.0,0.0
3.821,8485.621,0.00012,0.0,0.0
3.827,8479.975,0.00012,0.0,0.0
3.834,8489.82,0.00012,0.0,0.0
3.84,8462.367,0.00012,0.0,0.0
3.846,8501.322,0.00012,0.0,0.0
3.853,8471.708,0.00012,0.0,0.0
3.859,8495.185,0.00012,0.0,0.0
3.865,8465.121,0.00012,0.0,0.0
3.872,8470.857,0.00012,0.0,0.0
3.878,8484.329,0.00012,0.0,0.0
3.884,8431.102,0.00012,0.0,0.0
3.89,8453.894,0.00012,0.0,0.0
3.897,8427.636,0.00012,0.0,0.0
3.903,8417.046,0.00012,0.0,0.0
3.909,8396.125,0.00012,0.0,0.0
3.916,8395.044,0.00012,0.0,0.0
3.922,8386.682,0.00012,0.0,0.0
3.928,8389.987,0.00012,0.0,0.0
3.935,8385.57,0.00012,0.0,0.0
3.941,8374.572,0.00012,0.0,0.0
3.947,8396.574,0.00012,0.0,0.0
3.954,8450.207,0.00012,0.0,0.0
3.96,8459.312,0.00012,0.0,0.0
3.966,8449.167,0.00012,0.0,0.0
3.973,9167.985,0.00011,0.0,0.0
3.979,8415.913,0.00012,0.0,0.0
3.985,8500.638,0.00012,0.0,0.0
3.992,8380.636,0.00012,0.0,0.0
3.998,8342.835,0.00012,0.0,0.0
4.004,8313.459,0.00012,0.0,0.0
4.011,8292.734,0.00012,0.0,0.0
4.017,8254.425,0.00012,0.0,0.0
4.023,8300.946,0.00012,0.0,0.0
4.03,8279.999,0.00012,0.0,0.0
4.036,8275.718,0.00012,0.0,0.0
4.042,8291.356,0.00012,0.0,0.0
4.048,8276.93,0.00012,0.0,0.0
4.055,8242.068,0.00012,0.0,0.0
4.061,8270.661,0.00012,0.0,0.0
4.067,8241.13,0.00012,0.0,0.0
4.074,8278.598,0.00012,0.0,0.0
4.08,8276.878,0.00012,0.0,0.0
4.086,8268.399,0.00012,0.0,0.0
4.093,8264.945,0.00012,0.0,0.0
4.099,8291.369,0.00012,0.0,0.0
4.105,8300.787,0.00012,0.0,0.0
4.112,8322.261,0.00012,0.0,0.0
4.118,8294.563,0.00012,0.0,0.0
4.124,8328.088,0.00012,0.0,0.0
4.131,8342.008,0.00012,0.0,0.0
4.137,8359.242,0.00012,0.0,0.0
4.143,8369.283,0.00012,0.0,0.0
4.15,8380.173,0.00012,0.0,0.0
4.156,8354.265,0.00012,0.0,0.0
4.162,8400.184,0.00012,0.0,0.0
4.169,8385.534,0.00012,0.0,0.0
4.175,8428.843,0.00012,0.0,0.0
4.181,8440.674,0.00012,0.0,0.0
4.188,8458.039,0.00012,0.0,0.0
4.194,8503.785,0.00012,0.0,0.0
4.2,8497.082,0.00012,0.0,0.0
4.206,8518.739,0.00012,0.0,0.0
4.213,8588.788,0.00012,0.0,0.0
4.219,8559.68,0.00012,0.0,0.0
4.225,8629.037,0.00012,0.0,0.0
4.232,8626.42,0.00012,0.0,0.0
4.238,8610.561,0.00012,0.0,0.0
4.244,8691.742,0.00012,0.0,0.0
4.251,8674.967,0.00012,0.0,0.0
4.257,8686.822,0.00012,0.0,0.0
4.263,8799.514,0.00011,0.0,0.0
4.27,8766.087,0.00011,0.0,0.0
4.276,8910.934,0.00011,0.0,0.0
4.282,8870.948,0.00011,0.0,0.0
4.289,8888.238,0.00011,0.0,0.0
4.295,8997.916,0.00011,0.0,0.0
4.301,8917.13,0.00011,0.0,0.0
4.308,9008.88,0.00011,0.0,0.0
4.314,9067.925,0.00011,0.0,0.0
4.32,9047.23,0.00011,0.0,0.0
4.327,9161.202,0.00011,0.0,0.0
4.333,9130.63,0.00011,0.0,0.0
4.339,9187.287,0.00011,0.0,0.0
4.346,9343.805,0.00011,0.0,0.0
4.352,9268.433,0.00011,0.0,0.0
4.358,9455.239,0.00011,0.0,0.0
4.364,9473.937,0.00011,0.0,0.0
4.371,9371.154,0.00011,0.0,0.0
4.377,9769.277,0.0001,0.0,0.0
4.383,9613.464,0.0001,0.0,0.0
4.39,9769.169,0.0001,0.0,0.0
4.396,9895.732,0.0001,0.0,0.0
4.402,9815.662,0.0001,0.0,0.0
4.409,9960.526,0.0001,0.0,0.0
4.415,10114.067,0.0001,0.0,0.0
4.421,10100.036,0.0001,0.0,0.0
4.428,10463.32,0.0001,0.0,0.0
4.434,10364.628,0.0001,0.0,0.0
4.44,10451.31,0.0001,0.0,0.0
4.447,10751.862,0.00009,0.0,0.0
4.453,10684.812,0.00009,0.0,0.0
4.459,11211.047,0.00009,0.0,0.0
4.466,11295.877,0.00009,0.0,0.0
4.472,11295.977,0.00009,0.0,0.0
4.478,12043.568,0.00008,0.0,0.0
4.485,11880.488,0.00008,0.0,0.0
4.491,12440.745,0.00008,0.0,0.0
4.497,13854.831,0.00007,0.0,0.0
4.504,13333.283,0.00008,0.0,0.0
4.51,16578.969,0.00006,0.0,0.0
4.516,17425.373,0.00006,0.0,0.0
4.522,19443.57,0.00005,0.0,0.0
4.529,32662.404,0.00003,0.0,0.0
4.535,40279.956,0.00002,0.0,0.0
4.541,53873.154,0.00002,0.0,0.0
4.548,90662.898,0.00001,0.0,0.0
4.554,72046.524,0.00001,0.0,0.0
4.56,100363.106,0.00001,0.0,0.0
4.567,86605.302,0.00001,0.0,0.0
4.573,80645.87,0.00001,0.0,0.0
4.579,74183.403,0.00001,0.0,0.0
4.586,48847.422,0.00002,0.0,0.0
4.592,49315.866,0.00002,0.0,0.0
4.598,28170.386,0.00004,0.0,0.0
4.605,25345.043,0.00004,0.0,0.0
4.611,17958.166,0.00006,0.0,0.0
4.617,16510.184,0.00006,0.0,0.0
4.624,13968.337,0.00007,0.0,0.0
4.63,14083.507,0.00007,0.0,0.0
4.636,12427.374,0.00008,0.0,0.0
4.643,12408.921,0.00008,0.0,0.0
4.649,11920.183,0.00008,0.0,0.0
4.655,11479.153,0.00009,0.0,0.0
4.662,11684.672,0.00009,0.0,0.0
4.668,11090.541,0.00009,0.0,0.0
4.674,10809.053,0.00009,0.0,0.0
4.68,11044.513,0.00009,0.0,0.0
4.687,10487.84,0.0001,0.0,0.0
4.693,10574.832,0.00009,0.0,0.0
4.699,10461.028,0.0001,0.0,0.0
4.706,10127.387,0.0001,0.0,0.0
4.712,10324.0,0.0001,0.0,0.0
4.718,10005.755,0.0001,0.0,0.0
4.725,9827.632,0.0001,0.0,0.0
4.731,10083.201,0.0001,0.0,0.0
4.737,9643.115,0.0001,0.0,0.0
4.744,9772.331,0.0001,0.0,0.0
4.75,9659.551,0.0001,0.0,0.0
4.756,9517.036,0.00011,0.0,0.0
4.763,9513.207,0.00011,0.0,0.0
4.769,9349.713,0.00011,0.0,0.0
4.775,9314.977,0.00011,0.0,0.0
4.782,9316.599,0.00011,0.0,0.0
4.788,9132.614,0.00011,0.0,0.0
4.794,9097.295,0.00011,0.0,0.0
4.801,9091.282,0.00011,0.0,0.0
4.807,8905.034,0.00011,0.0,0.0
4.813,9017.472,0.00011,0.0,0.0
4.82,8878.74,0.00011,0.0,0.0
4.826,8881.962,0.00011,0.0,0.0
4.832,8908.76,0.00011,0.0,0.0
4.838,8864.807,0.00011,0.0,0.0
4.845,8895.703,0.00011,0.0,0.0
4.851,9040.88,0.00011,0.0,0.0
4.857,9013.936,0.00011,0.0,0.0
4.864,9031.824,0.00011,0.0,0.0
4.87,8932.702,0.00011,0.0,0.0
4.876,8745.287,0.00011,0.0,0.0
4.883,8684.174,0.00012,0.0,0.0
4.889,8445.709,0.00012,0.0,0.0
4.895,8389.646,0.00012,0.0,0.0
4.902,8320.439,0.00012,0.0,0.0
4.908,8213.389,0.00012,0.0,0.0
4.914,8168.044,0.00012,0.0,0.0
4.921,8108.006,0.00012,0.0,0.0
4.927,8043.818,0.00012,0.0,0.0
4.933,8077.177,0.00012,0.0,0.0
4.94,7994.029,0.00013,0.0,0.0
4.946,7968.811,0.00013,0.0,0.0
4.952,7976.025,0.00013,0.0,0.0
4.959,7861.967,0.00013,0.0,0.0
4.965,7860.931,0.00013,0.0,0.0
4.971,7805.553,0.00013,0.0,0.0
4.978,7779.502,0.00013,0.0,0.0
4.984,7766.769,0.00013,0.0,0.0
4.99,7692.618,0.00013,0.0,0.0
4.996,7661.674,0.00013,0.0,0.0
5.003,7663.794,0.00013,0.0,0.0
5.009,7603.739,0.00013,0.0,0.0
5.015,7631.377,0.00013,0.0,0.0
5.022,7550.234,0.00013,0.0,0.0
5.028,7544.013,0.00013,0.0,0.0
5.034,7522.749,0.00013,0.0,0.0
5.041,7457.912,0.00013,0.0,0.0
5.047,7433.975,0.00013,0.0,0.0
5.053,7428.932,0.00013,0.0,0.0
5.06,7373.623,0.00014,0.0,0.0
5.066,7407.109,0.00014,0.0,0.0
5.072,7349.976,0.00014,0.0,0.0
5.079,7303.357,0.00014,0.0,0.0
5.085,7339.348,0.00014,0.0,0.0
5.091,7257.84,0.00014,0.0,0.0
5.098,7259.408,0.00014,0.0,0.0
5.104,7223.743,0.00014,0.0,0.0
5.11,7196.118,0.00014,0.0,0.0
5.117,7214.666,0.00014,0.0,0.0
5.123,7157.645,0.00014,0.0,0.0
5.129,7131.436,0.00014,0.0,0.0
5.136,7146.572,0.00014,0.0,0.0
5.142,7094.054,0.00014,0.0,0.0
5.148,7080.885,0.00014,0.0,0.0
5.154,7071.377,0.00014,0.0,0.0
5.161,7026.916,0.00014,0.0,0.0
5.167,7057.372,0.00014,0.0,0.0
5.173,6992.171,0.00014,0.0,0.0
5.18,6982.98,0.00014,0.0,0.0
5.186,6972.274,0.00014,0.0,0.0
5.192,6936.836,0.00014,0.0,0.0
5.199,6927.124,0.00014,0.0,0.0
5.205,6926.904,0.00014,0.0,0.0
5.211,6911.886,0.00014,0.0,0.0
5.218,6890.665,0.00015,0.0,0.0
5.224,6873.322,0.00015,0.0,0.0
5.23,6835.912,0.00015,0.0,0.0
5.237,6865.165,0.00015,0.0,0.0
5.243,6812.118,0.00015,0.0,0.0
5.249,6810.822,0.00015,0.0,0.0
5.256,6783.183,0.00015,0.0,0.0
5.262,6765.743,0.00015,0.0,0.0
5.268,6794.245,0.00015,0.0,0.0
5.275,6735.949,0.00015,0.0,0.0
5.281,6716.796,0.00015,0.0,0.0
5.287,6689.61,0.00015,0.0,0.0
5.294,6674.351,0.00015,0.0,0.0
5.3,6712.713,0.00015,0.0,0.0
5.306,6635.205,0.00015,0.0,0.0
5.312,6627.629,0.00015,0.0,0.0
5.319,6625.219,0.00015,0.0,0.0
5.325,6613.958,0.00015,0.0,0.0
5.331,6609.686,0.00015,0.0,0.0
5.338,6621.365,0.00015,0.0,0.0
5.344,6595.247,0.00015,0.0,0.0
5.35,6578.484,0.00015,0.0,0.0
5.357,6584.249,0.00015,0.0,0.0
5.363,6535.663,0.00015,0.0,0.0
5.369,6569.083,0.00015,0.0,0.0
5.376,6515.692,0.00015,0.0,0.0
5.382,6538.674,0.00015,0.0,0.0
5.388,6540.981,0.00015,0.0,0.0
5.395,6511.428,0.00015,0.0,0.0
5.401,6504.887,0.00015,0.0,0.0
5.407,6486.047,0.00015,0.0,0.0
5.414,6485.933,0.00015,0.0,0.0
5.42,6483.53,0.00015,0.0,0.0
5.426,6491.43,0.00015,0.0,0.0
5.433,6475.845,0.00015,0.0,0.0
5.439,6480.092,0.00015,0.0,0.0
5.445,6457.903,0.00015,0.0,0.0
5.452,6462.19,0.00015,0.0,0.0
5.458,6433.088,0.00016,0.0,0.0
5.464,6433.256,0.00016,0.0,0.0
5.47,6444.308,0.00016,0.0,0.0
5.477,6416.049,0.00016,0.0,0.0
5.483,6400.67,0.00016,0.0,0.0
5.489,6413.497,0.00016,0.0,0.0
5.496,6412.925,0.00016,0.0,0.0
5.502,6393.055,0.00016,0.0,0.0
5.508,6396.952,0.00016,0.0,0.0
5.515,6391.587,0.00016,0.0,0.0
5.521,6379.329,0.00016,0.0,0.0
5.527,6379.847,0.00016,0.0,0.0
5.534,6400.779,0.00016,0.0,0.0
5.54,6356.573,0.00016,0.0,0.0
5.546,6370.485,0.00016,0.0,0.0
5.553,6369.258,0.00016,0.0,0.0
5.559,6363.015,0.00016,0.0,0.0
5.565,6354.921,0.00016,0.0,0.0
5.572,6339.364,0.00016,0.0,0.0
5.578,6328.916,0.00016,0.0,0.0
5.584,6342.608,0.00016,0.0,0.0
5.591,6333.766,0.00016,0.0,0.0
5.597,6325.793,0.00016,0.0,0.0
5.603,6332.183,0.00016,0.0,0.0
5.61,6295.103,0.00016,0.0,0.0
5.616,6308.674,0.00016,0.0,0.0
5.622,6316.723,0.00016,0.0,0.0
5.628,6310.949,0.00016,0.0,0.0
5.635,6311.256,0.00016,0.0,0.0
5.641,6290.616,0.00016,0.0,0.0
5.647,6293.812,0.00016,0.0,0.0
5.654,6280.329,0.00016,0.0,0.0
5.66,6279.628,0.00016,0.0,0.0
5.666,6269.309,0.00016,0.0,0.0
5.673,6272.625,0.00016,0.0,0.0
5.679,6257.733,0.00016,0.0,0.0
5.685,6254.305,0.00016,0.0,0.0
5.692,6233.822,0.00016,0.0,0.0
5.698,6270.67,0.00016,0.0,0.0
5.704,6247.692,0.00016,0.0,0.0
5.711,6242.039,0.00016,0.0,0.0
5.717,6221.159,0.00016,0.0,0.0
5.723,6250.347,0.00016,0.0,0.0
5.73,6222.121,0.00016,0.0,0.0
5.736,6223.129,0.00016,0.0,0.0
5.742,6235.821,0.00016,0.0,0.0
5.749,6237.391,0.00016,0.0,0.0
5.755,6251.476,0.00016,0.0,0.0
5.761,6238.021,0.00016,0.0,0.0
5.768,6243.524,0.00016,0.0,0.0
5.774,6227.506,0.00016,0.0,0.0
5.78,6257.769,0.00016,0.0,0.0
5.786,6240.065,0.00016,0.0,0.0
5.793,6251.341,0.00016,0.0,0.0
5.799,6268.437,0.00016,0.0,0.0
5.805,6269.594,0.00016,0.0,0.0
5.812,6260.047,0.00016,0.0,0.0
5.818,6290.108,0.00016,0.0,0.0
5.824,6320.351,0.00016,0.0,0.0
5.831,6340.99,0.00016,0.0,0.0
5.837,6395.991,0.00016,0.0,0.0
5.843,6473.321,0.00015,0.0,0.0
5.85,6601.518,0.00015,0.0,0.0
5.856,6789.604,0.00015,0.0,0.0
5.862,7048.817,0.00014,0.0,0.0
5.869,7386.233,0.00014,0.0,0.0
5.875,7697.617,0.00013,0.0,0.0
5.881,7912.149,0.00013,0.0,0.0
5.888,7940.483,0.00013,0.0,0.0
5.894,7735.186,0.00013,0.0,0.0
5.9,7484.492,0.00013,0.0,0.0
5.907,7139.583,0.00014,0.0,0.0
5.913,6835.793,0.00015,0.0,0.0
5.919,6626.507,0.00015,0.0,0.0
5.926,6479.476,0.00015,0.0,0.0
5.932,6392.301,0.00016,0.0,0.0
5.938,6336.98,0.00016,0.0,0.0
5.944,6291.495,0.00016,0.0,0.0
5.951,6309.747,0.00016,0.0,0.0
5.957,6270.472,0.00016,0.0,0.0
5.963,6272.252,0.00016,0.0,0.0
5.97,6262.398,0.00016,0.0,0.0
5.976,6246.186,0.00016,0.0,0.0
5.982,6267.158,0.00016,0.0,0.0
5.989,6238.215,0.00016,0.0,0.0
5.995,6238.012,0.00016,0.0,0.0
6.001,6242.065,0.00016,0.0,0.0
6.008,6240.729,0.00016,0.0,0.0
6.014,6224.595,0.00016,0.0,0.0
6.02,6231.349,0.00016,0.0,0.0
6.027,6209.881,0.00016,0.0,0.0
6.033,6236.781,0.00016,0.0,0.0
6.039,6237.218,0.00016,0.0,0.0
6.046,6224.715,0.00016,0.0,0.0
6.052,6216.05,0.00016,0.0,0.0
6.058,6174.543,0.00016,0.0,0.0
6.065,6182.069,0.00016,0.0,0.0
6.071,6188.149,0.00016,0.0,0.0
6.077,6193.275,0.00016,0.0,0.0
6.084,6162.783,0.00016,0.0,0.0
6.09,6175.949,0.00016,0.0,0.0
6.096,6130.477,0.00016,0.0,0.0
6.102,6158.831,0.00016,0.0,0.0
6.109,6170.368,0.00016,0.0,0.0
6.115,6160.11,0.00016,0.0,0.0
6.121,6158.694,0.00016,0.0,0.0
6.128,6153.066,0.00016,0.0,0.0
6.134,6152.292,0.00016,0.0,0.0
6.14,6128.432,0.00016,0.0,0.0
6.147,6152.13,0.00016,0.0,0.0
6.153,6115.838,0.00016,0.0,0.0
6.159,6146.376,0.00016,0.0,0.0
6.166,6124.75,0.00016,0.0,0.0
6.172,6132.469,0.00016,0.0,0.0
6.178,6167.367,0.00016,0.0,0.0
6.185,6126.665,0.00016,0.0,0.0
6.191,6127.294,0.00016,0.0,0.0
6.197,6168.946,0.00016,0.0,0.0
6.204,6115.612,0.00016,0.0,0.0
6.21,6159.298,0.00016,0.0,0.0
6.216,6140.421,0.00016,0.0,0.0
6.223,6189.117,0.00016,0.0,0.0
6.229,6172.001,0.00016,0.0,0.0
6.235,6177.976,0.00016,0.0,0.0
6.242,6195.058,0.00016,0.0,0.0
6.248,6169.124,0.00016,0.0,0.0
6.254,6183.63,0.00016,0.0,0.0
6.26,6202.858,0.00016,0.0,0.0
6.267,6219.855,0.00016,0.0,0.0
6.273,6199.749,0.00016,0.0,0.0
6.279,6209.999,0.00016,0.0,0.0
6.286,6190.661,0.00016,0.0,0.0
6.292,6231.318,0.00016,0.0,0.0
6.298,6240.268,0.00016,0.0,0.0
6.305,6255.703,0.00016,0.0,0.0
6.311,6295.807,0.00016,0.0,0.0
6.317,6261.252,0.00016,0.0,0.0
6.324,6352.815,0.00016,0.0,0.0
6.33,6316.011,0.00016,0.0,0.0
6.336,6329.181,0.00016,0.0,0.0
6.343,6342.633,0.00016,0.0,0.0
6.349,6402.848,0.00016,0.0,0.0
6.355,6391.822,0.00016,0.0,0.0
6.362,6422.953,0.00016,0.0,0.0
6.368,6483.956,0.00015,0.0,0.0
6.374,6494.401,0.00015,0.0,0.0
6.381,6563.022,0.00015,0.0,0.0
6.387,6677.732,0.00015,0.0,0.0
6.393,6624.074,0.00015,0.0,0.0
6.4,6937.468,0.00014,0.0,0.0
6.406,7030.677,0.00014,0.0,0.0
6.412,7463.815,0.00013,0.0,0.0
6.418,8240.165,0.00012,0.0,0.0
6.425,9151.912,0.00011,0.0,0.0
6.431,13036.767,0.00008,0.0,0.0
6.437,15803.537,0.00006,0.0,0.0
6.444,16340.827,0.00006,0.0,0.0
6.45,25572.124,0.00004,0.0,0.0
6.456,19990.624,0.00005,0.0,0.0
6.463,20700.115,0.00005,0.0,0.0
6.469,23872.016,0.00004,0.0,0.0
6.475,12000.728,0.00008,0.0,0.0
6.482,15894.553,0.00006,0.0,0.0
6.488,11331.65,0.00009,0.0,0.0
6.494,7747.701,0.00013,0.0,0.0
6.501,10334.434,0.0001,0.0,0.0
6.507,7430.435,0.00013,0.0,0.0
6.513,7274.635,0.00014,0.0,0.0
6.52,7378.367,0.00014,0.0,0.0
6.526,7029.254,0.00014,0.0,0.0
6.532,7141.429,0.00014,0.0,0.0
6.539,7191.751,0.00014,0.0,0.0
6.545,7308.743,0.00014,0.0,0.0
6.551,7525.844,0.00013,0.0,0.0
6.558,7956.624,0.00013,0.0,0.0
6.564,8553.569,0.00012,0.0,0.0
6.57,9685.84,0.0001,0.0,0.0
6.576,11721.102,0.00009,0.0,0.0
6.583,15026.828,0.00007,0.0,0.0
6.589,23075.839,0.00004,0.0,0.0
6.595,35843.696,0.00003,0.0,0.0
6.602,57615.62,0.00002,0.0,0.0
6.608,84700.057,0.00001,0.0,0.0
6.614,99366.711,0.00001,0.0,0.0
6.621,116667.037,0.00001,0.0,0.0
6.627,98101.302,0.00001,0.0,0.0
6.633,78999.951,0.00001,0.0,0.0
6.64,52446.453,0.00002,0.0,0.0
6.646,33570.707,0.00003,0.0,0.0
6.652,20292.137,0.00005,0.0,0.0
6.659,14900.228,0.00007,0.0,0.0
6.665,11031.541,0.00009,0.0,0.0
6.671,9377.852,0.00011,0.0,0.0
6.678,8305.763,0.00012,0.0,0.0
6.684,7618.673,0.00013,0.0,0.0
6.69,7259.955,0.00014,0.0,0.0
6.697,6976.083,0.00014,0.0,0.0
6.703,6776.847,0.00015,0.0,0.0
6.709,6670.313,0.00015,0.0,0.0
6.716,6579.372,0.00015,0.0,0.0
6.722,6484.371,0.00015,0.0,0.0
6.728,6441.984,0.00016,0.0,0.0
6.734,6393.37,0.00016,0.0,0.0
6.741,6363.149,0.00016,0.0,0.0
6.747,6305.537,0.00016,0.0,0.0
6.753,6294.53,0.00016,0.0,0.0
6.76,6278.896,0.00016,0.0,0.0
6.766,6273.101,0.00016,0.0,0.0
6.772,6242.286,0.00016,0.0,0.0
6.779,6241.63,0.00016,0.0,0.0
6.785,6238.315,0.00016,0.0,0.0
6.791,6198.695,0.00016,0.0,0.0
6.798,6247.443,0.00016,0.0,0.0
6.804,6230.205,0.00016,0.0,0.0
6.81,6253.467,0.00016,0.0,0.0
6.817,6250.88,0.00016,0.0,0.0
6.823,6222.087,0.00016,0.0,0.0
6.829,6194.163,0.00016,0.0,0.0
6.836,6197.272,0.00016,0.0,0.0
6.842,6134.963,0.00016,0.0,0.0
6.848,6137.639,0.00016,0.0,0.0
6.855,6095.906,0.00016,0.0,0.0
6.861,6077.386,0.00016,0.0,0.0
6.867,6088.247,0.00016,0.0,0.0
6.874,6029.988,0.00017,0.0,0.0
6.88,6053.969,0.00017,0.0,0.0
6.886,6037.999,0.00017,0.0,0.0
6.892,6031.741,0.00017,0.0,0.0
6.899,6024.89,0.00017,0.0,0.0
6.905,6014.347,0.00017,0.0,0.0
6.911,5998.711,0.00017,0.0,0.0
6.918,6001.103,0.00017,0.0,0.0
6.924,5967.993,0.00017,0.0,0.0
6.93,5989.12,0.00017,0.0,0.0
6.937,6006.719,0.00017,0.0,0.0
6.943,5984.583,0.00017,0.0,0.0
6.949,5972.296,0.00017,0.0,0.0
6.956,5973.577,0.00017,0.0,0.0
6.962,5956.573,0.00017,0.0,0.0
6.968,5967.655,0.00017,0.0,0.0
6.975,5951.227,0.00017,0.0,0.0
6.981,5952.537,0.00017,0.0,0.0
6.987,5952.9,0.00017,0.0,0.0
6.994,5963.933,0.00017,0.0,0.0
7.0,5947.882,0.00017,0.0,0.0
7.006,5926.143,0.00017,0.0,0.0
7.013,5925.63,0.00017,0.0,0.0
7.019,5923.468,0.00017,0.0,0.0
7.025,5914.317,0.00017,0.0,0.0
7.032,5905.159,0.00017,0.0,0.0
7.038,5891.351,0.00017,0.0,0.0
7.044,5889.664,0.00017,0.0,0.0
7.05,5866.68,0.00017,0.0,0.0
7.057,5884.175,0.00017,0.0,0.0
7.063,5876.159,0.00017,0.0,0.0
7.069,5898.185,0.00017,0.0,0.0
7.076,5872.883,0.00017,0.0,0.0
7.082,5880.073,0.00017,0.0,0.0
7.088,5863.486,0.00017,0.0,0.0
7.095,5853.235,0.00017,0.0,0.0
7.101,5846.584,0.00017,0.0,0.0
7.107,5834.871,0.00017,0.0,0.0
7.114,5824.903,0.00017,0.0,0.0
7.12,5831.903,0.00017,0.0,0.0
7.126,5817.659,0.00017,0.0,0.0
7.133,5803.905,0.00017,0.0,0.0
7.139,5821.467,0.00017,0.0,0.0
7.145,5819.192,0.00017,0.0,0.0
7.152,5811.667,0.00017,0.0,0.0
7.158,5807.021,0.00017,0.0,0.0
7.164,5793.357,0.00017,0.0,0.0
7.171,5767.665,0.00017,0.0,0.0
7.177,5781.888,0.00017,0.0,0.0
7.183,5775.877,0.00017,0.0,0.0
7.19,5771.335,0.00017,0.0,0.0
7.196,5772.841,0.00017,0.0,0.0
7.202,5766.724,0.00017,0.0,0.0
7.208,5750.286,0.00017,0.0,0.0
7.215,5755.597,0.00017,0.0,0.0
7.221,5737.119,0.00017,0.0,0.0
7.227,5737.473,0.00017,0.0,0.0
7.234,5757.348,0.00017,0.0,0.0
7.24,5726.337,0.00017,0.0,0.0
7.246,5721.872,0.00017,0.0,0.0
7.253,5726.82,0.00017,0.0,0.0
7.259,5714.506,0.00017,0.0,0.0
7.265,5732.813,0.00017,0.0,0.0
7.272,5752.047,0.00017,0.0,0.0
7.278,5772.941,0.00017,0.0,0.0
7.284,5769.232,0.00017,0.0,0.0
7.291,5808.557,0.00017,0.0,0.0
7.297,5808.836,0.00017,0.0,0.0
7.303,5808.712,0.00017,0.0,0.0
7.31,5819.919,0.00017,0.0,0.0
7.316,5754.899,0.00017,0.0,0.0
7.322,5731.418,0.00017,0.0,0.0
7.329,5728.309,0.00017,0.0,0.0
7.335,5709.032,0.00018,0.0,0.0
7.341,5696.697,0.00018,0.0,0.0
7.348,5693.345,0.00018,0.0,0.0
7.354,5691.534,0.00018,0.0,0.0
7.36,5684.27,0.00018,0.0,0.0
7.366,5697.23,0.00018,0.0,0.0
7.373,5690.715,0.00018,0.0,0.0
7.379,5700.672,0.00018,0.0,0.0
7.385,5716.082,0.00017,0.0,0.0
7.392,5682.87,0.00018,0.0,0.0
7.398,5712.942,0.00018,0.0,0.0
7.404,5698.639,0.00018,0.0,0.0
7.411,5701.449,0.00018,0.0,0.0
7.417,5699.327,0.00018,0.0,0.0
7.423,5706.843,0.00018,0.0,0.0
7.43,5703.87,0.00018,0.0,0.0
7.436,5738.778,0.00017,0.0,0.0
7.442,5731.546,0.00017,0.0,0.0
7.449,5732.493,0.00017,0.0,0.0
7.455,5740.991,0.00017,0.0,0.0
7.461,5742.229,0.00017,0.0,0.0
7.468,5771.194,0.00017,0.0,0.0
7.474,5745.301,0.00017,0.0,0.0
7.48,5784.175,0.00017,0.0,0.0
7.487,5779.211,0.00017,0.0,0.0
7.493,5793.086,0.00017,0.0,0.0
7.499,5822.181,0.00017,0.0,0.0
7.506,5824.319,0.00017,0.0,0.0
7.512,5844.574,0.00017,0.0,0.0
7.518,5858.508,0.00017,0.0,0.0
7.524,5873.202,0.00017,0.0,0.0
7.531,5900.146,0.00017,0.0,0.0
7.537,5960.129,0.00017,0.0,0.0
7.543,5967.571,0.00017,0.0,0.0
7.55,6023.097,0.00017,0.0,0.0
7.556,6070.628,0.00016,0.0,0.0
7.562,6174.564,0.00016,0.0,0.0
7.569,6299.366,0.00016,0.0,0.0
7.575,6468.134,0.00015,0.0,0.0
7.581,6696.189,0.00015,0.0,0.0
7.588,7074.068,0.00014,0.0,0.0
7.594,7723.026,0.00013,0.0,0.0
7.6,8907.669,0.00011,0.0,0.0
7.607,10635.802,0.00009,0.0,0.0
7.613,14825.772,0.00007,0.0,0.0
7.619,19906.603,0.00005,0.0,0.0
7.626,30755.562,0.00003,0.0,0.0
7.632,39339.799,0.00003,0.0,0.0
7.638,48401.038,0.00002,0.0,0.0
7.645,53373.419,0.00002,0.0,0.0
7.651,48678.472,0.00002,0.0,0.0
7.657,43955.196,0.00002,0.0,0.0
7.664,29645.907,0.00003,0.0,0.0
7.67,21440.857,0.00005,0.0,0.0
7.676,14567.278,0.00007,0.0,0.0
7.682,11238.65,0.00009,0.0,0.0
7.689,9097.192,0.00011,0.0,0.0
7.695,7922.804,0.00013,0.0,0.0
7.701,7332.855,0.00014,0.0,0.0
7.708,6898.253,0.00014,0.0,0.0
7.714,6675.864,0.00015,0.0,0.0
7.72,6529.747,0.00015,0.0,0.0
7.727,6446.221,0.00016,0.0,0.0
7.733,6413.135,0.00016,0.0,0.0
7.739,6321.211,0.00016,0.0,0.0
7.746,6337.781,0.00016,0.0,0.0
7.752,6337.545,0.00016,0.0,0.0
7.758,6310.743,0.00016,0.0,0.0
7.765,6338.395,0.00016,0.0,0.0
7.771,6326.509,0.00016,0.0,0.0
7.777,6358.907,0.00016,0.0,0.0
7.784,6371.522,0.00016,0.0,0.0
7.79,6362.75,0.00016,0.0,0.0
7.796,6389.58,0.00016,0.0,0.0
7.803,6432.147,0.00016,0.0,0.0
7.809,6438.12,0.00016,0.0,0.0
7.815,6495.335,0.00015,0.0,0.0
7.822,6498.227,0.00015,0.0,0.0
7.828,6591.101,0.00015,0.0,0.0
7.834,6591.347,0.00015,0.0,0.0
7.84,6626.22,0.00015,0.0,0.0
7.847,6755.892,0.00015,0.0,0.0
7.853,6822.164,0.00015,0.0,0.0
7.859,6940.29,0.00014,0.0,0.0
7.866,7088.125,0.00014,0.0,0.0
7.872,7565.391,0.00013,0.0,0.0
7.878,7810.676,0.00013,0.0,0.0
7.885,9807.267,0.0001,0.0,0.0
7.891,9788.467,0.0001,0.0,0.0
7.897,13410.506,0.00007,0.0,0.0
7.904,13639.7,0.00007,0.0,0.0
7.91,16666.011,0.00006,0.0,0.0
7.916,16111.349,0.00006,0.0,0.0
7.923,13932.421,0.00007,0.0,0.0
7.929,11281.292,0.00009,0.0,0.0
7.935,9282.416,0.00011,0.0,0.0
7.942,8450.6,0.00012,0.0,0.0
7.948,7678.812,0.00013,0.0,0.0
7.954,7296.786,0.00014,0.0,0.0
7.961,7103.031,0.00014,0.0,0.0
7.967,6978.44,0.00014,0.0,0.0
7.973,6845.81,0.00015,0.0,0.0
7.98,6847.841,0.00015,0.0,0.0
7.986,6737.63,0.00015,0.0,0.0
7.992,6738.558,0.00015,0.0,0.0
7.998,6727.036,0.00015,0.0,0.0
8.005,6666.059,0.00015,0.0,0.0
8.011,6601.812,0.00015,0.0,0.0
8.017,6636.233,0.00015,0.0,0.0
8.024,6611.175,0.00015,0.0,0.0
8.03,6610.897,0.00015,0.0,0.0
8.036,6601.642,0.00015,0.0,0.0
8.043,6552.711,0.00015,0.0,0.0
8.049,6577.242,0.00015,0.0,0.0
8.055,6517.853,0.00015,0.0,0.0
8.062,6579.812,0.00015,0.0,0.0
8.068,6542.426,0.00015,0.0,0.0
8.074,6550.974,0.00015,0.0,0.0
8.081,6527.793,0.00015,0.0,0.0
8.087,6530.762,0.00015,0.0,0.0
8.093,6531.973,0.00015,0.0,0.0
8.1,6520.355,0.00015,0.0,0.0
8.106,6544.542,0.00015,0.0,0.0
8.112,6559.152,0.00015,0.0,0.0
8.119,6594.209,0.00015,0.0,0.0
8.125,6641.837,0.00015,0.0,0.0
8.131,6712.941,0.00015,0.0,0.0
8.138,6732.679,0.00015,0.0,0.0
8.144,6793.178,0.00015,0.0,0.0
8.15,6832.566,0.00015,0.0,0.0
8.156,6749.931,0.00015,0.0,0.0
8.163,6712.013,0.00015,0.0,0.0
8.169,6618.833,0.00015,0.0,0.0
8.175,6559.205,0.00015,0.0,0.0
8.182,6512.746,0.00015,0.0,0.0
8.188,6462.469,0.00015,0.0,0.0
8.194,6446.444,0.00016,0.0,0.0
8.201,6438.457,0.00016,0.0,0.0
8.207,6406.783,0.00016,0.0,0.0
8.213,6429.982,0.00016,0.0,0.0
8.22,6373.778,0.00016,0.0,0.0
8.226,6394.143,0.00016,0.0,0.0
8.232,6385.01,0.00016,0.0,0.0
8.239,6359.122,0.00016,0.0,0.0
8.245,6372.687,0.00016,0.0,0.0
8.251,6355.957,0.00016,0.0,0.0
8.258,6373.027,0.00016,0.0,0.0
8.264,6338.919,0.00016,0.0,0.0
8.27,6339.004,0.00016,0.0,0.0
8.277,6346.67,0.00016,0.0,0.0
8.283,6340.317,0.00016,0.0,0.0
8.289,6319.123,0.00016,0.0,0.0
8.296,6333.199,0.00016,0.0,0.0
8.302,6299.85,0.00016,0.0,0.0
8.308,6311.959,0.00016,0.0,0.0
8.314,6322.42,0.00016,0.0,0.0
8.321,6287.892,0.00016,0.0,0.0
8.327,6299.522,0.00016,0.0,0.0
8.333,6333.579,0.00016,0.0,0.0
8.34,6347.479,0.00016,0.0,0.0
8.346,6346.52,0.00016,0.0,0.0
8.352,6383.355,0.00016,0.0,0.0
8.359,6434.803,0.00016,0.0,0.0
8.365,6484.243,0.00015,0.0,0.0
8.371,6499.754,0.00015,0.0,0.0
8.378,6528.061,0.00015,0.0,0.0
8.384,6508.359,0.00015,0.0,0.0
8.39,6524.729,0.00015,0.0,0.0
8.397,6458.912,0.00015,0.0,0.0
8.403,6390.184,0.00016,0.0,0.0
8.409,6358.279,0.00016,0.0,0.0
8.416,6322.059,0.00016,0.0,0.0
8.422,6287.285,0.00016,0.0,0.0
8.428,6244.508,0.00016,0.0,0.0
8.435,6220.118,0.00016,0.0,0.0
8.441,6213.099,0.00016,0.0,0.0
8.447,6212.458,0.00016,0.0,0.0
8.454,6211.637,0.00016,0.0,0.0
8.46,6202.376,0.00016,0.0,0.0
8.466,6197.687,0.00016,0.0,0.0
8.472,6210.802,0.00016,0.0,0.0
8.479,6182.794,0.00016,0.0,0.0
8.485,6193.07,0.00016,0.0,0.0
8.491,6197.885,0.00016,0.0,0.0
8.498,6207.19,0.00016,0.0,0.0
8.504,6218.019,0.00016,0.0,0.0
8.51,6204.48,0.00016,0.0,0.0
8.517,6204.054,0.00016,0.0,0.0
8.523,6182.77,0.00016,0.0,0.0
8.529,6171.302,0.00016,0.0,0.0
8.536,6170.269,0.00016,0.0,0.0
8.542,6151.685,0.00016,0.0,0.0
8.548,6158.222,0.00016,0.0,0.0
8.555,6133.277,0.00016,0.0,0.0
8.561,6143.915,0.00016,0.0,0.0
8.567,6140.301,0.00016,0.0,0.0
8.574,6145.455,0.00016,0.0,0.0
8.58,6129.663,0.00016,0.0,0.0
8.586,6142.542,0.00016,0.0,0.0
8.593,6122.489,0.00016,0.0,0.0
8.599,6112.659,0.00016,0.0,0.0
8.605,6116.276,0.00016,0.0,0.0
8.612,6117.766,0.00016,0.0,0.0
8.618,6120.193,0.00016,0.0,0.0
8.624,6103.46,0.00016,0.0,0.0
8.63,6109.746,0.00016,0.0,0.0
8.637,6120.424,0.00016,0.0,0.0
8.643,6108.698,0.00016,0.0,0.0
8.649,6094.916,0.00016,0.0,0.0
8.656,6103.543,0.00016,0.0,0.0
8.662,6116.844,0.00016,0.0,0.0
8.668,6108.485,0.00016,0.0,0.0
8.675,6114.444,0.00016,0.0,0.0
8.681,6106.792,0.00016,0.0,0.0
8.687,6096.688,0.00016,0.0,0.0
8.694,6105.756,0.00016,0.0,0.0
8.7,6101.241,0.00016,0.0,0.0
8.706,6091.928,0.00016,0.0,0.0
8.713,6106.811,0.00016,0.0,0.0
8.719,6105.039,0.00016,0.0,0.0
8.725,6097.696,0.00016,0.0,0.0
8.732,6111.86,0.00016,0.0,0.0
8.738,6106.102,0.00016,0.0,0.0
8.744,6119.453,0.00016,0.0,0.0
8.751,6106.625,0.00016,0.0,0.0
8.757,6103.514,0.00016,0.0,0.0
8.763,6121.493,0.00016,0.0,0.0
8.77,6103.637,0.00016,0.0,0.0
8.776,6121.405,0.00016,0.0,0.0
8.782,6104.084,0.00016,0.0,0.0
8.788,6108.09,0.00016,0.0,0.0
8.795,6114.765,0.00016,0.0,0.0
8.801,6116.783,0.00016,0.0,0.0
8.807,6132.152,0.00016,0.0,0.0
8.814,6107.459,0.00016,0.0,0.0
8.82,6108.975,0.00016,0.0,0.0
8.826,6116.542,0.00016,0.0,0.0
8.833,6135.81,0.00016,0.0,0.0
8.839,6120.604,0.00016,0.0,0.0
8.845,6148.86,0.00016,0.0,0.0
8.852,6147.462,0.00016,0.0,0.0
8.858,6146.51,0.00016,0.0,0.0
8.864,6141.459,0.00016,0.0,0.0
8.871,6142.371,0.00016,0.0,0.0
8.877,6138.409,0.00016,0.0,0.0
8.883,6149.906,0.00016,0.0,0.0
8.89,6158.424,0.00016,0.0,0.0
8.896,6166.114,0.00016,0.0,0.0
8.902,6178.358,0.00016,0.0,0.0
8.909,6172.68,0.00016,0.0,0.0
8.915,6182.553,0.00016,0.0,0.0
8.921,6181.837,0.00016,0.0,0.0
8.928,6183.223,0.00016,0.0,0.0
8.934,6174.629,0.00016,0.0,0.0
8.94,6209.321,0.00016,0.0,0.0
8.946,6184.995,0.00016,0.0,0.0
8.953,6192.13,0.00016,0.0,0.0
8.959,6231.597,0.00016,0.0,0.0
8.965,6192.136,0.00016,0.0,0.0
8.972,6222.619,0.00016,0.0,0.0
8.978,6226.829,0.00016,0.0,0.0
8.984,6209.789,0.00016,0.0,0.0
8.991,6240.13,0.00016,0.0,0.0
8.997,6234.204,0.00016,0.0,0.0
9.003,6243.769,0.00016,0.0,0.0
9.01,6247.394,0.00016,0.0,0.0
9.016,6229.416,0.00016,0.0,0.0
9.022,6293.117,0.00016,0.0,0.0
9.029,6254.239,0.00016,0.0,0.0
9.035,6291.821,0.00016,0.0,0.0
9.041,6301.46,0.00016,0.0,0.0
9.048,6280.42,0.00016,0.0,0.0
9.054,6349.102,0.00016,0.0,0.0
9.06,6325.28,0.00016,0.0,0.0
9.067,6329.36,0.00016,0.0,0.0
9.073,6412.497,0.00016,0.0,0.0
9.079,6388.784,0.00016,0.0,0.0
9.086,6437.611,0.00016,0.0,0.0
9.092,6514.255,0.00015,0.0,0.0
9.098,6545.967,0.00015,0.0,0.0
9.104,6805.093,0.00015,0.0,0.0
9.111,6965.186,0.00014,0.0,0.0
9.117,7942.635,0.00013,0.0,0.0
9.123,7904.555,0.00013,0.0,0.0
9.13,9810.092,0.0001,0.0,0.0
9.136,9795.465,0.0001,0.0,0.0
9.142,11088.975,0.00009,0.0,0.0
9.149,13043.937,0.00008,0.0,0.0
9.155,9048.068,0.00011,0.0,0.0
9.161,7669.669,0.00013,0.0,0.0
9.168,9433.634,0.00011,0.0,0.0
9.174,6706.382,0.00015,0.0,0.0
9.18,6745.594,0.00015,0.0,0.0
9.187,6649.465,0.00015,0.0,0.0
9.193,6359.822,0.00016,0.0,0.0
9.199,6395.086,0.00016,0.0,0.0
9.206,6329.927,0.00016,0.0,0.0
9.212,6259.55,0.00016,0.0,0.0
9.218,6290.058,0.00016,0.0,0.0
9.225,6219.04,0.00016,0.0,0.0
9.231,6197.966,0.00016,0.0,0.0
9.237,6207.364,0.00016,0.0,0.0
9.244,6152.077,0.00016,0.0,0.0
9.25,6161.587,0.00016,0.0,0.0
9.256,6141.063,0.00016,0.0,0.0
9.262,6102.067,0.00016,0.0,0.0
9.269,6143.206,0.00016,0.0,0.0
9.275,6079.765,0.00016,0.0,0.0
9.281,6087.507,0.00016,0.0,0.0
9.288,6081.723,0.00016,0.0,0.0
9.294,6044.765,0.00017,0.0,0.0
9.3,6036.719,0.00017,0.0,0.0
9.307,6035.994,0.00017,0.0,0.0
9.313,5991.176,0.00017,0.0,0.0
9.319,6010.717,0.00017,0.0,0.0
9.326,5976.597,0.00017,0.0,0.0
9.332,5949.219,0.00017,0.0,0.0
9.338,5989.254,0.00017,0.0,0.0
9.345,5923.434,0.00017,0.0,0.0
9.351,5948.264,0.00017,0.0,0.0
9.357,5921.993,0.00017,0.0,0.0
9.364,5902.911,0.00017,0.0,0.0
9.37,5881.239,0.00017,0.0,0.0
9.376,5875.807,0.00017,0.0,0.0
9.383,5878.013,0.00017,0.0,0.0
9.389,5840.048,0.00017,0.0,0.0
9.395,5843.21,0.00017,0.0,0.0
9.402,5833.535,0.00017,0.0,0.0
9.408,5820.013,0.00017,0.0,0.0
9.414,5813.274,0.00017,0.0,0.0
9.42,5803.458,0.00017,0.0,0.0
9.427,5787.53,0.00017,0.0,0.0
9.433,5804.781,0.00017,0.0,0.0
9.439,5790.737,0.00017,0.0,0.0
9.446,5765.373,0.00017,0.0,0.0
9.452,5773.74,0.00017,0.0,0.0
9.458,5766.406,0.00017,0.0,0.0
9.465,5776.73,0.00017,0.0,0.0
9.471,5782.095,0.00017,0.0,0.0
9.477,5783.186,0.00017,0.0,0.0
9.484,5791.968,0.00017,0.0,0.0
9.49,5799.02,0.00017,0.0,0.0
9.496,5801.12,0.00017,0.0,0.0
9.503,5794.195,0.00017,0.0,0.0
9.509,5768.747,0.00017,0.0,0.0
9.515,5738.874,0.00017,0.0,0.0
9.522,5709.46,0.00018,0.0,0.0
9.528,5679.744,0.00018,0.0,0.0
9.534,5668.364,0.00018,0.0,0.0
9.541,5648.809,0.00018,0.0,0.0
9.547,5630.408,0.00018,0.0,0.0
9.553,5615.691,0.00018,0.0,0.0
9.56,5605.474,0.00018,0.0,0.0
9.566,5599.691,0.00018,0.0,0.0
9.572,5593.161,0.00018,0.0,0.0
9.578,5589.927,0.00018,0.0,0.0
9.585,5574.443,0.00018,0.0,0.0
9.591,5571.105,0.00018,0.0,0.0
9.597,5561.158,0.00018,0.0,0.0
9.604,5557.329,0.00018,0.0,0.0
9.61,5546.796,0.00018,0.0,0.0
9.616,5537.447,0.00018,0.0,0.0
9.623,5539.508,0.00018,0.0,0.0
9.629,5532.969,0.00018,0.0,0.0
9.635,5526.633,0.00018,0.0,0.0
9.642,5520.955,0.00018,0.0,0.0
9.648,5506.314,0.00018,0.0,0.0
9.654,5517.531,0.00018,0.0,0.0
9.661,5498.792,0.00018,0.0,0.0
9.667,5505.796,0.00018,0.0,0.0
9.673,5500.324,0.00018,0.0,0.0
9.68,5512.447,0.00018,0.0,0.0
9.686,5498.358,0.00018,0.0,0.0
9.692,5482.784,0.00018,0.0,0.0
9.699,5476.946,0.00018,0.0,0.0
9.705,5502.844,0.00018,0.0,0.0
9.711,5473.978,0.00018,0.0,0.0
9.718,5480.591,0.00018,0.0,0.0
9.724,5476.06,0.00018,0.0,0.0
9.73,5479.294,0.00018,0.0,0.0
9.736,5477.006,0.00018,0.0,0.0
9.743,5468.603,0.00018,0.0,0.0
9.749,5474.037,0.00018,0.0,0.0
9.755,5458.379,0.00018,0.0,0.0
9.762,5457.554,0.00018,0.0,0.0
9.768,5458.662,0.00018,0.0,0.0
9.774,5450.487,0.00018,0.0,0.0
9.781,5432.662,0.00018,0.0,0.0
9.787,5457.172,0.00018,0.0,0.0
9.793,5450.571,0.00018,0.0,0.0
9.8,5451.675,0.00018,0.0,0.0
9.806,5445.154,0.00018,0.0,0.0
9.812,5440.995,0.00018,0.0,0.0
9.819,5453.009,0.00018,0.0,0.0
9.825,5440.031,0.00018,0.0,0.0
9.831,5440.381,0.00018,0.0,0.0
9.838,5441.034,0.00018,0.0,0.0
9.844,5442.761,0.00018,0.0,0.0
9.85,5448.999,0.00018,0.0,0.0
9.857,5451.256,0.00018,0.0,0.0
9.863,5426.874,0.00018,0.0,0.0
9.869,5447.802,0.00018,0.0,0.0
9.876,5428.68,0.00018,0.0,0.0
9.882,5437.968,0.00018,0.0,0.0
9.888,5430.84,0.00018,0.0,0.0
9.894,5419.814,0.00018,0.0,0.0
9.901,5438.222,0.00018,0.0,0.0
9.907,5425.685,0.00018,0.0,0.0
9.913,5426.908,0.00018,0.0,0.0
9.92,5423.106,0.00018,0.0,0.0
9.926,5417.162,0.00018,0.0,0.0
9.932,5461.486,0.00018,0.0,0.0
9.939,5416.047,0.00018,0.0,0.0
9.945,5429.561,0.00018,0.0,0.0
9.951,5446.666,0.00018,0.0,0.0
9.958,5436.828,0.00018,0.0,0.0
9.964,5439.616,0.00018,0.0,0.0
9.97,5441.51,0.00018,0.0,0.0
9.977,5436.214,0.00018,0.0,0.0
9.983,5476.743,0.00018,0.0,0.0
9.989,5459.454,0.00018,0.0,0.0
9.996,5451.453,0.00018,0.0,0.0
10.002,5475.812,0.00018,0.0,0.0
10.008,5437.558,0.00018,0.0,0.0
10.015,5488.23,0.00018,0.0,0.0
10.021,5462.447,0.00018,0.0,0.0
10.027,5486.893,0.00018,0.0,0.0
10.034,5485.497,0.00018,0.0,0.0
10.04,5474.76,0.00018,0.0,0.0
10.046,5523.865,0.00018,0.0,0.0
10.052,5490.667,0.00018,0.0,0.0
10.059,5480.468,0.00018,0.0,0.0
10.065,5533.626,0.00018,0.0,0.0
10.071,5526.997,0.00018,0.0,0.0
10.078,5527.159,0.00018,0.0,0.0
10.084,5562.822,0.00018,0.0,0.0
10.09,5520.106,0.00018,0.0,0.0
10.097,5581.5,0.00018,0.0,0.0
10.103,5520.09,0.00018,0.0,0.0
10.109,5607.314,0.00018,0.0,0.0
10.116,5638.048,0.00018,0.0,0.0
10.122,5610.193,0.00018,0.0,0.0
10.128,5687.908,0.00018,0.0,0.0
10.135,5654.001,0.00018,0.0,0.0
10.141,5704.601,0.00018,0.0,0.0
10.147,5735.841,0.00017,0.0,0.0
10.154,5751.945,0.00017,0.0,0.0
10.16,5882.595,0.00017,0.0,0.0
10.166,6177.992,0.00016,0.0,0.0
10.173,6377.534,0.00016,0.0,0.0
10.179,7204.033,0.00014,0.0,0.0
10.185,8692.063,0.00012,0.0,0.0
10.192,9321.057,0.00011,0.0,0.0
10.198,10011.335,0.0001,0.0,0.0
10.204,13940.571,0.00007,0.0,0.0
10.21,14625.545,0.00007,0.0,0.0
10.217,19556.016,0.00005,0.0,0.0
10.223,15490.886,0.00006,0.0,0.0
10.229,12676.463,0.00008,0.0,0.0
10.236,16727.517,0.00006,0.0,0.0
10.242,8355.314,0.00012,0.0,0.0
10.248,9074.384,0.00011,0.0,0.0
10.255,7092.204,0.00014,0.0,0.0
10.261,6353.322,0.00016,0.0,0.0
10.267,6250.201,0.00016,0.0,0.0
10.274,5775.459,0.00017,0.0,0.0
10.28,5831.902,0.00017,0.0,0.0
10.286,5637.966,0.00018,0.0,0.0
10.293,5661.343,0.00018,0.0,0.0
10.299,5596.043,0.00018,0.0,0.0
10.305,5555.125,0.00018,0.0,0.0
10.312,5569.827,0.00018,0.0,0.0
10.318,5529.431,0.00018,0.0,0.0
10.324,5542.301,0.00018,0.0,0.0
10.331,5458.056,0.00018,0.0,0.0
10.337,5441.369,0.00018,0.0,0.0
10.343,5466.814,0.00018,0.0,0.0
10.35,5435.999,0.00018,0.0,0.0
10.356,5438.402,0.00018,0.0,0.0
10.362,5404.497,0.00019,0.0,0.0
10.368,5373.194,0.00019,0.0,0.0
10.375,5433.426,0.00018,0.0,0.0
10.381,5348.849,0.00019,0.0,0.0
10.387,5351.266,0.00019,0.0,0.0
10.394,5364.252,0.00019,0.0,0.0
10.4,5314.859,0.00019,0.0,0.0
10.406,5353.323,0.00019,0.0,0.0
10.413,5313.927,0.00019,0.0,0.0
10.419,5298.995,0.00019,0.0,0.0
10.425,5325.321,0.00019,0.0,0.0
10.432,5293.798,0.00019,0.0,0.0
10.438,5291.129,0.00019,0.0,0.0
10.444,5305.278,0.00019,0.0,0.0
10.451,5266.967,0.00019,0.0,0.0
10.457,5320.282,0.00019,0.0,0.0
10.463,5266.81,0.00019,0.0,0.0
10.47,5271.897,0.00019,0.0,0.0
10.476,5263.859,0.00019,0.0,0.0
10.482,5243.385,0.00019,0.0,0.0
10.489,5271.366,0.00019,0.0,0.0
10.495,5220.578,0.00019,0.0,0.0
10.501,5217.144,0.00019,0.0,0.0
10.508,5248.177,0.00019,0.0,0.0
10.514,5203.752,0.00019,0.0,0.0
10.52,5221.58,0.00019,0.0,0.0
10.526,5201.994,0.00019,0.0,0.0
10.533,5177.954,0.00019,0.0,0.0
10.539,5205.099,0.00019,0.0,0.0
10.545,5194.928,0.00019,0.0,0.0
10.552,5196.755,0.00019,0.0,0.0
10.558,5195.445,0.00019,0.0,0.0
10.564,5171.497,0.00019,0.0,0.0
10.571,5210.841,0.00019,0.0,0.0
10.577,5173.402,0.00019,0.0,0.0
10.583,5181.083,0.00019,0.0,0.0
10.59,5188.959,0.00019,0.0,0.0
10.596,5165.525,0.00019,0.0,0.0
10.602,5189.097,0.00019,0.0,0.0
10.609,5165.43,0.00019,0.0,0.0
10.615,5155.919,0.00019,0.0,0.0
10.621,5179.455,0.00019,0.0,0.0
10.628,5161.759,0.00019,0.0,0.0
10.634,5167.553,0.00019,0.0,0.0
10.64,5158.816,0.00019,0.0,0.0
10.647,5149.51,0.00019,0.0,0.0
10.653,5176.469,0.00019,0.0,0.0
10.659,5169.088,0.00019,0.0,0.0
10.666,5182.495,0.00019,0.0,0.0
10.672,5180.264,0.00019,0.0,0.0
10.678,5157.535,0.00019,0.0,0.0
10.684,5192.917,0.00019,0.0,0.0
10.691,5172.793,0.00019,0.0,0.0
10.697,5186.573,0.00019,0.0,0.0
10.703,5213.401,0.00019,0.0,0.0
10.71,5199.569,0.00019,0.0,0.0
10.716,5237.251,0.00019,0.0,0.0
10.722,5224.183,0.00019,0.0,0.0
10.729,5250.589,0.00019,0.0,0.0
10.735,5296.088,0.00019,0.0,0.0
10.741,5321.826,0.00019,0.0,0.0
10.748,5387.921,0.00019,0.0,0.0
10.754,5486.136,0.00018,0.0,0.0
10.76,5613.546,0.00018,0.0,0.0
10.767,5886.633,0.00017,0.0,0.0
10.773,6230.254,0.00016,0.0,0.0
10.779,7085.147,0.00014,0.0,0.0
10.786,8406.672,0.00012,0.0,0.0
10.792,10713.661,0.00009,0.0,0.0
10.798,16276.496,0.00006,0.0,0.0
10.805,18625.112,0.00005,0.0,0.0
10.811,27640.441,0.00004,0.0,0.0
10.817,31422.235,0.00003,0.0,0.0
10.824,31112.512,0.00003,0.0,0.0
10.83,29956.306,0.00003,0.0,0.0
10.836,23642.158,0.00004,0.0,0.0
10.842,17238.966,0.00006,0.0,0.0
10.849,13113.892,0.00008,0.0,0.0
10.855,9342.729,0.00011,0.0,0.0
10.861,7718.699,0.00013,0.0,0.0
10.868,6688.956,0.00015,0.0,0.0
10.874,6025.302,0.00017,0.0,0.0
10.88,5751.224,0.00017,0.0,0.0
10.887,5504.652,0.00018,0.0,0.0
10.893,5388.861,0.00019,0.0,0.0
10.899,5312.399,0.00019,0.0,0.0
10.906,5237.198,0.00019,0.0,0.0
10.912,5200.409,0.00019,0.0,0.0
10.918,5182.948,0.00019,0.0,0.0
10.925,5156.041,0.00019,0.0,0.0
10.931,5153.968,0.00019,0.0,0.0
10.937,5133.897,0.00019,0.0,0.0
10.944,5129.48,0.00019,0.0,0.0
10.95,5122.861,0.0002,0.0,0.0
10.956,5103.382,0.0002,0.0,0.0
10.963,5100.277,0.0002,0.0,0.0
10.969,5081.073,0.0002,0.0,0.0
10.975,5065.441,0.0002,0.0,0.0
10.982,5047.05,0.0002,0.0,0.0
10.988,5030.046,0.0002,0.0,0.0
10.994,5025.66,0.0002,0.0,0.0
11.0,5002.677,0.0002,0.0,0.0
11.007,4983.915,0.0002,0.0,0.0
11.013,4983.951,0.0002,0.0,0.0
11.019,4982.093,0.0002,0.0,0.0
11.026,4975.266,0.0002,0.0,0.0
11.032,4966.968,0.0002,0.0,0.0
11.038,4950.23,0.0002,0.0,0.0
11.045,4943.902,0.0002,0.0,0.0
11.051,4936.073,0.0002,0.0,0.0
11.057,4945.016,0.0002,0.0,0.0
11.064,4927.294,0.0002,0.0,0.0
11.07,4935.673,0.0002,0.0,0.0
11.076,4922.039,0.0002,0.0,0.0
11.083,4928.846,0.0002,0.0,0.0
11.089,4925.815,0.0002,0.0,0.0
11.095,4908.32,0.0002,0.0,0.0
11.102,4921.855,0.0002,0.0,0.0
11.108,4894.763,0.0002,0.0,0.0
11.114,4900.357,0.0002,0.0,0.0
11.121,4896.684,0.0002,0.0,0.0
11.127,4880.17,0.0002,0.0,0.0
11.133,4888.065,0.0002,0.0,0.0
11.14,4884.813,0.0002,0.0,0.0
11.146,4878.539,0.0002,0.0,0.0
11.152,4882.391,0.0002,0.0,0.0
11.158,4880.65,0.0002,0.0,0.0
11.165,4882.021,0.0002,0.0,0.0
11.171,4873.31,0.00021,0.0,0.0
11.177,4873.203,0.00021,0.0,0.0
11.184,4900.26,0.0002,0.0,0.0
11.19,4894.145,0.0002,0.0,0.0
11.196,4912.255,0.0002,0.0,0.0
11.203,4893.823,0.0002,0.0,0.0
11.209,4939.97,0.0002,0.0,0.0
11.215,4893.126,0.0002,0.0,0.0
11.222,4960.614,0.0002,0.0,0.0
11.228,4860.611,0.00021,0.0,0.0
11.234,4898.966,0.0002,0.0,0.0
11.241,4840.362,0.00021,0.0,0.0
11.247,4843.701,0.00021,0.0,0.0
11.253,4832.951,0.00021,0.0,0.0
11.26,4837.041,0.00021,0.0,0.0
11.266,4826.98,0.00021,0.0,0.0
11.272,4841.587,0.00021,0.0,0.0
11.279,4828.718,0.00021,0.0,0.0
11.285,4821.601,0.00021,0.0,0.0
11.291,4811.892,0.00021,0.0,0.0
11.298,4813.215,0.00021,0.0,0.0
11.304,4802.06,0.00021,0.0,0.0
11.31,4807.997,0.00021,0.0,0.0
11.316,4805.19,0.00021,0.0,0.0
11.323,4796.513,0.00021,0.0,0.0
11.329,4799.447,0.00021,0.0,0.0
11.335,4787.674,0.00021,0.0,0.0
11.342,4801.727,0.00021,0.0,0.0
11.348,4787.798,0.00021,0.0,0.0
11.354,4784.606,0.00021,0.0,0.0
11.361,4788.058,0.00021,0.0,0.0
11.367,4777.807,0.00021,0.0,0.0
11.373,4796.529,0.00021,0.0,0.0
11.38,4771.196,0.00021,0.0,0.0
11.386,4779.162,0.00021,0.0,0.0
11.392,4779.27,0.00021,0.0,0.0
11.399,4765.431,0.00021,0.0,0.0
11.405,4765.494,0.00021,0.0,0.0
11.411,4759.249,0.00021,0.0,0.0
11.418,4765.422,0.00021,0.0,0.0
11.424,4785.434,0.00021,0.0,0.0
11.43,4762.574,0.00021,0.0,0.0
11.437,4761.837,0.00021,0.0,0.0
11.443,4761.645,0.00021,0.0,0.0
11.449,4757.731,0.00021,0.0,0.0
11.456,4766.379,0.00021,0.0,0.0
11.462,4755.774,0.00021,0.0,0.0
11.468,4765.823,0.00021,0.0,0.0
11.474,4747.553,0.00021,0.0,0.0
11.481,4758.837,0.00021,0.0,0.0
11.487,4754.621,0.00021,0.0,0.0
11.493,4750.841,0.00021,0.0,0.0
11.5,4765.103,0.00021,0.0,0.0
11.506,4769.837,0.00021,0.0,0.0
11.512,4771.818,0.00021,0.0,0.0
11.519,4789.832,0.00021,0.0,0.0
11.525,4814.374,0.00021,0.0,0.0
11.531,4798.581,0.00021,0.0,0.0
11.538,4813.517,0.00021,0.0,0.0
11.544,4806.55,0.00021,0.0,0.0
11.55,4788.228,0.00021,0.0,0.0
11.557,4777.214,0.00021,0.0,0.0
11.563,4766.459,0.00021,0.0,0.0
11.569,4750.568,0.00021,0.0,0.0
11.576,4746.281,0.00021,0.0,0.0
11.582,4742.307,0.00021,0.0,0.0
11.588,4724.176,0.00021,0.0,0.0
11.595,4750.909,0.00021,0.0,0.0
11.601,4748.397,0.00021,0.0,0.0
11.607,4736.125,0.00021,0.0,0.0
11.614,4742.708,0.00021,0.0,0.0
11.62,4710.929,0.00021,0.0,0.0
11.626,4725.883,0.00021,0.0,0.0
11.632,4713.704,0.00021,0.0,0.0
11.639,4723.667,0.00021,0.0,0.0
11.645,4717.356,0.00021,0.0,0.0
11.651,4717.757,0.00021,0.0,0.0
11.658,4703.353,0.00021,0.0,0.0
11.664,4724.742,0.00021,0.0,0.0
11.67,4713.433,0.00021,0.0,0.0
11.677,4705.668,0.00021,0.0,0.0
11.683,4720.539,0.00021,0.0,0.0
11.689,4710.184,0.00021,0.0,0.0
11.696,4705.187,0.00021,0.0,0.0
11.702,4714.092,0.00021,0.0,0.0
11.708,4714.863,0.00021,0.0,0.0
11.715,4711.45,0.00021,0.0,0.0
11.721,4701.051,0.00021,0.0,0.0
11.727,4712.199,0.00021,0.0,0.0
11.734,4697.55,0.00021,0.0,0.0
11.74,4706.948,0.00021,0.0,0.0
11.746,4698.768,0.00021,0.0,0.0
11.753,4702.292,0.00021,0.0,0.0
11.759,4702.693,0.00021,0.0,0.0
11.765,4709.901,0.00021,0.0,0.0
11.772,4703.137,0.00021,0.0,0.0
11.778,4703.193,0.00021,0.0,0.0
11.784,4713.416,0.00021,0.0,0.0
11.79,4693.276,0.00021,0.0,0.0
11.797,4703.159,0.00021,0.0,0.0
11.803,4693.654,0.00021,0.0,0.0
11.809,4691.361,0.00021,0.0,0.0
11.816,4693.377,0.00021,0.0,0.0
11.822,4688.232,0.00021,0.0,0.0
11.828,4687.903,0.00021,0.0,0.0
11.835,4675.964,0.00021,0.0,0.0
11.841,4690.763,0.00021,0.0,0.0
11.847,4681.619,0.00021,0.0,0.0
11.854,4683.734,0.00021,0.0,0.0
11.86,4681.821,0.00021,0.0,0.0
11.866,4684.765,0.00021,0.0,0.0
11.873,4672.72,0.00021,0.0,0.0
11.879,4691.184,0.00021,0.0,0.0
11.885,4676.882,0.00021,0.0,0.0
11.892,4678.026,0.00021,0.0,0.0
11.898,4694.272,0.00021,0.0,0.0
11.904,4686.78,0.00021,0.0,0.0
11.911,4672.734,0.00021,0.0,0.0
11.917,4688.972,0.00021,0.0,0.0
11.923,4699.562,0.00021,0.0,0.0
11.93,4683.59,0.00021,0.0,0.0
11.936,4685.535,0.00021,0.0,0.0
11.942,4694.245,0.00021,0.0,0.0
11.948,4687.953,0.00021,0.0,0.0
11.955,4702.491,0.00021,0.0,0.0
11.961,4691.643,0.00021,0.0,0.0
11.967,4698.345,0.00021,0.0,0.0
11.974,4692.253,0.00021,0.0,0.0
11.98,4703.239,0.00021,0.0,0.0
11.986,4700.846,0.00021,0.0,0.0
11.993,4702.448,0.00021,0.0,0.0
11.999,4707.601,0.00021,0.0,0.0
12.005,4713.311,0.00021,0.0,0.0
12.012,4719.904,0.00021,0.0,0.0
12.018,4732.995,0.00021,0.0,0.0
12.024,4729.814,0.00021,0.0,0.0
12.031,4734.893,0.00021,0.0,0.0
12.037,4806.478,0.00021,0.0,0.0
12.043,4764.011,0.00021,0.0,0.0
12.05,4944.633,0.0002,0.0,0.0
12.056,4849.172,0.00021,0.0,0.0
12.062,4888.649,0.0002,0.0,0.0
12.069,5707.947,0.00018,0.0,0.0
12.075,5177.228,0.00019,0.0,0.0
12.081,8460.468,0.00012,0.0,0.0
12.088,6391.628,0.00016,0.0,0.0
12.094,6687.435,0.00015,0.0,0.0
12.1,10361.209,0.0001,0.0,0.0
12.106,6454.17,0.00015,0.0,0.0
12.113,7174.325,0.00014,0.0,0.0
12.119,5483.556,0.00018,0.0,0.0
12.125,5299.407,0.00019,0.0,0.0
12.132,5165.879,0.00019,0.0,0.0
12.138,4907.466,0.0002,0.0,0.0
12.144,4831.703,0.00021,0.0,0.0
12.151,4802.548,0.00021,0.0,0.0
12.157,4743.677,0.00021,0.0,0.0
12.163,4732.927,0.00021,0.0,0.0
12.17,4693.857,0.00021,0.0,0.0
12.176,4686.745,0.00021,0.0,0.0
12.182,4682.302,0.00021,0.0,0.0
12.189,4672.766,0.00021,0.0,0.0
12.195,4644.123,0.00022,0.0,0.0
12.201,4636.546,0.00022,0.0,0.0
12.208,4632.581,0.00022,0.0,0.0
12.214,4625.988,0.00022,0.0,0.0
12.22,4624.127,0.00022,0.0,0.0
12.227,4583.095,0.00022,0.0,0.0
12.233,4597.542,0.00022,0.0,0.0
12.239,4591.819,0.00022,0.0,0.0
12.246,4586.718,0.00022,0.0,0.0
12.252,4585.226,0.00022,0.0,0.0
12.258,4563.372,0.00022,0.0,0.0
12.264,4597.337,0.00022,0.0,0.0
12.271,4569.624,0.00022,0.0,0.0
12.277,4570.005,0.00022,0.0,0.0
12.283,4566.792,0.00022,0.0,0.0
12.29,4557.501,0.00022,0.0,0.0
12.296,4555.084,0.00022,0.0,0.0
12.302,4535.441,0.00022,0.0,0.0
12.309,4541.54,0.00022,0.0,0.0
12.315,4550.83,0.00022,0.0,0.0
12.321,4540.15,0.00022,0.0,0.0
12.328,4533.83,0.00022,0.0,0.0
12.334,4542.656,0.00022,0.0,0.0
12.34,4530.666,0.00022,0.0,0.0
12.347,4525.959,0.00022,0.0,0.0
12.353,4514.587,0.00022,0.0,0.0
12.359,4508.132,0.00022,0.0,0.0
12.366,4513.34,0.00022,0.0,0.0
12.372,4515.806,0.00022,0.0,0.0
12.378,4510.237,0.00022,0.0,0.0
12.385,4508.422,0.00022,0.0,0.0
12.391,4516.463,0.00022,0.0,0.0
12.397,4512.809,0.00022,0.0,0.0
12.404,4509.587,0.00022,0.0,0.0
12.41,4501.235,0.00022,0.0,0.0
12.416,4494.757,0.00022,0.0,0.0
12.422,4493.865,0.00022,0.0,0.0
12.429,4493.96,0.00022,0.0,0.0
12.435,4501.002,0.00022,0.0,0.0
12.441,4487.023,0.00022,0.0,0.0
12.448,4497.255,0.00022,0.0,0.0
12.454,4479.001,0.00022,0.0,0.0
12.46,4490.667,0.00022,0.0,0.0
12.467,4491.068,0.00022,0.0,0.0
12.473,4480.08,0.00022,0.0,0.0
12.479,4486.221,0.00022,0.0,0.0
12.486,4483.288,0.00022,0.0,0.0
12.492,4483.095,0.00022,0.0,0.0
12.498,4503.091,0.00022,0.0,0.0
12.505,4501.965,0.00022,0.0,0.0
12.511,4513.851,0.00022,0.0,0.0
12.517,4530.271,0.00022,0.0,0.0
12.524,4519.469,0.00022,0.0,0.0
12.53,4525.527,0.00022,0.0,0.0
12.536,4524.834,0.00022,0.0,0.0
12.543,4525.576,0.00022,0.0,0.0
12.549,4516.338,0.00022,0.0,0.0
12.555,4530.748,0.00022,0.0,0.0
12.562,4528.469,0.00022,0.0,0.0
12.568,4530.788,0.00022,0.0,0.0
12.574,4522.342,0.00022,0.0,0.0
12.58,4532.998,0.00022,0.0,0.0
12.587,4549.564,0.00022,0.0,0.0
12.593,4562.737,0.00022,0.0,0.0
12.599,4590.781,0.00022,0.0,0.0
12.606,4611.218,0.00022,0.0,0.0
12.612,4650.504,0.00022,0.0,0.0
12.618,4732.422,0.00021,0.0,0.0
12.625,4795.638,0.00021,0.0,0.0
12.631,4921.71,0.0002,0.0,0.0
12.637,5142.556,0.00019,0.0,0.0
12.644,5451.223,0.00018,0.0,0.0
12.65,6055.006,0.00017,0.0,0.0
12.656,6976.409,0.00014,0.0,0.0
12.663,8777.247,0.00011,0.0,0.0
12.669,11809.401,0.00008,0.0,0.0
12.675,16717.113,0.00006,0.0,0.0
12.682,22536.032,0.00004,0.0,0.0
12.688,29623.606,0.00003,0.0,0.0
12.694,34191.515,0.00003,0.0,0.0
12.701,32743.003,0.00003,0.0,0.0
12.707,30929.245,0.00003,0.0,0.0
12.713,22791.593,0.00004,0.0,0.0
12.72,17576.731,0.00006,0.0,0.0
12.726,12166.259,0.00008,0.0,0.0
12.732,8964.617,0.00011,0.0,0.0
12.738,7131.587,0.00014,0.0,0.0
12.745,6042.498,0.00017,0.0,0.0
12.751,5470.77,0.00018,0.0,0.0
12.757,5071.678,0.0002,0.0,0.0
12.764,4879.688,0.0002,0.0,0.0
12.77,4749.414,0.00021,0.0,0.0
12.776,4656.409,0.00021,0.0,0.0
12.783,4594.967,0.00022,0.0,0.0
12.789,4544.627,0.00022,0.0,0.0
12.795,4494.393,0.00022,0.0,0.0
12.802,4494.239,0.00022,0.0,0.0
12.808,4448.459,0.00022,0.0,0.0
12.814,4444.462,0.00022,0.0,0.0
12.821,4424.467,0.00023,0.0,0.0
12.827,4424.406,0.00023,0.0,0.0
12.833,4410.212,0.00023,0.0,0.0
12.84,4395.268,0.00023,0.0,0.0
12.846,4386.594,0.00023,0.0,0.0
12.852,4378.481,0.00023,0.0,0.0
12.859,4362.005,0.00023,0.0,0.0
12.865,4363.152,0.00023,0.0,0.0
12.871,4366.957,0.00023,0.0,0.0
12.878,4364.1,0.00023,0.0,0.0
12.884,4353.265,0.00023,0.0,0.0
12.89,4355.462,0.00023,0.0,0.0
12.896,4359.184,0.00023,0.0,0.0
12.903,4355.914,0.00023,0.0,0.0
12.909,4392.993,0.00023,0.0,0.0
12.915,4430.093,0.00023,0.0,0.0
12.922,4429.07,0.00023,0.0,0.0
12.928,4563.666,0.00022,0.0,0.0
12.934,4708.929,0.00021,0.0,0.0
12.941,4634.238,0.00022,0.0,0.0
12.947,4764.14,0.00021,0.0,0.0
12.953,4555.172,0.00022,0.0,0.0
12.96,4552.969,0.00022,0.0,0.0
12.966,4463.835,0.00022,0.0,0.0
12.972,4391.409,0.00023,0.0,0.0
12.979,4353.511,0.00023,0.0,0.0
12.985,4334.041,0.00023,0.0,0.0
12.991,4306.612,0.00023,0.0,0.0
12.998,4304.503,0.00023,0.0,0.0
13.004,4272.018,0.00023,0.0,0.0
13.01,4274.176,0.00023,0.0,0.0
13.017,4266.29,0.00023,0.0,0.0
13.023,4262.353,0.00023,0.0,0.0
13.029,4251.251,0.00024,0.0,0.0
13.036,4244.718,0.00024,0.0,0.0
13.042,4244.134,0.00024,0.0,0.0
13.048,4236.21,0.00024,0.0,0.0
13.054,4246.931,0.00024,0.0,0.0
13.061,4242.185,0.00024,0.0,0.0
13.067,4233.88,0.00024,0.0,0.0
13.073,4231.486,0.00024,0.0,0.0
13.08,4230.379,0.00024,0.0,0.0
13.086,4220.448,0.00024,0.0,0.0
13.092,4222.959,0.00024,0.0,0.0
13.099,4215.337,0.00024,0.0,0.0
13.105,4215.65,0.00024,0.0,0.0
13.111,4228.299,0.00024,0.0,0.0
13.118,4215.171,0.00024,0.0,0.0
13.124,4209.66,0.00024,0.0,0.0
13.13,4214.808,0.00024,0.0,0.0
13.137,4203.323,0.00024,0.0,0.0
13.143,4210.517,0.00024,0.0,0.0
13.149,4197.721,0.00024,0.0,0.0
13.156,4223.46,0.00024,0.0,0.0
13.162,4221.526,0.00024,0.0,0.0
13.168,4210.366,0.00024,0.0,0.0
13.175,4224.885,0.00024,0.0,0.0
13.181,4220.41,0.00024,0.0,0.0
13.187,4255.183,0.00024,0.0,0.0
13.194,4257.232,0.00023,0.0,0.0
13.2,4293.812,0.00023,0.0,0.0
13.206,4350.011,0.00023,0.0,0.0
13.212,4407.452,0.00023,0.0,0.0
13.219,4576.555,0.00022,0.0,0.0
13.225,4806.765,0.00021,0.0,0.0
13.231,5216.058,0.00019,0.0,0.0
13.238,6178.64,0.00016,0.0,0.0
13.244,7349.781,0.00014,0.0,0.0
13.25,9231.065,0.00011,0.0,0.0
13.257,10864.483,0.00009,0.0,0.0
13.263,12631.142,0.00008,0.0,0.0
13.269,13141.06,0.00008,0.0,0.0
13.276,11271.508,0.00009,0.0,0.0
13.282,10170.913,0.0001,0.0,0.0
13.288,7753.639,0.00013,0.0,0.0
13.295,6462.322,0.00015,0.0,0.0
13.301,5451.065,0.00018,0.0,0.0
13.307,4861.639,0.00021,0.0,0.0
13.314,4570.435,0.00022,0.0,0.0
13.32,4386.084,0.00023,0.0,0.0
13.326,4287.656,0.00023,0.0,0.0
13.333,4240.715,0.00024,0.0,0.0
13.339,4186.62,0.00024,0.0,0.0
13.345,4159.987,0.00024,0.0,0.0
13.352,4149.629,0.00024,0.0,0.0
13.358,4141.614,0.00024,0.0,0.0
13.364,4126.015,0.00024,0.0,0.0
13.37,4109.625,0.00024,0.0,0.0
13.377,4092.11,0.00024,0.0,0.0
13.383,4103.026,0.00024,0.0,0.0
13.389,4101.846,0.00024,0.0,0.0
13.396,4092.758,0.00024,0.0,0.0
13.402,4097.083,0.00024,0.0,0.0
13.408,4088.665,0.00024,0.0,0.0
13.415,4085.984,0.00024,0.0,0.0
13.421,4076.54,0.00025,0.0,0.0
13.427,4071.912,0.00025,0.0,0.0
13.434,4055.297,0.00025,0.0,0.0
13.44,4075.884,0.00025,0.0,0.0
13.446,4054.747,0.00025,0.0,0.0
13.453,4059.78,0.00025,0.0,0.0
13.459,4043.906,0.00025,0.0,0.0
13.465,4042.142,0.00025,0.0,0.0
13.472,4034.778,0.00025,0.0,0.0
13.478,4036.321,0.00025,0.0,0.0
13.484,4043.343,0.00025,0.0,0.0
13.491,4015.747,0.00025,0.0,0.0
13.497,4023.324,0.00025,0.0,0.0
13.503,4021.043,0.00025,0.0,0.0
13.51,4020.777,0.00025,0.0,0.0
13.516,4011.799,0.00025,0.0,0.0
13.522,4016.424,0.00025,0.0,0.0
13.528,4008.101,0.00025,0.0,0.0
13.535,3990.047,0.00025,0.0,0.0
13.541,4006.854,0.00025,0.0,0.0
13.547,4005.067,0.00025,0.0,0.0
13.554,3987.837,0.00025,0.0,0.0
13.56,3997.907,0.00025,0.0,0.0
13.566,3992.102,0.00025,0.0,0.0
13.573,3998.758,0.00025,0.0,0.0
13.579,3988.33,0.00025,0.0,0.0
13.585,3993.569,0.00025,0.0,0.0
13.592,3983.497,0.00025,0.0,0.0
13.598,3984.269,0.00025,0.0,0.0
13.604,3977.933,0.00025,0.0,0.0
13.611,3978.034,0.00025,0.0,0.0
13.617,3982.811,0.00025,0.0,0.0
13.623,3982.238,0.00025,0.0,0.0
13.63,3982.581,0.00025,0.0,0.0
13.636,3983.69,0.00025,0.0,0.0
13.642,3984.49,0.00025,0.0,0.0
13.649,3981.199,0.00025,0.0,0.0
13.655,3986.107,0.00025,0.0,0.0
13.661,3992.239,0.00025,0.0,0.0
13.668,4001.592,0.00025,0.0,0.0
13.674,3996.553,0.00025,0.0,0.0
13.68,4001.216,0.00025,0.0,0.0
13.686,4007.29,0.00025,0.0,0.0
13.693,4041.683,0.00025,0.0,0.0
13.699,4073.235,0.00025,0.0,0.0
13.705,4133.698,0.00024,0.0,0.0
13.712,4333.724,0.00023,0.0,0.0
13.718,4272.093,0.00023,0.0,0.0
13.724,4460.065,0.00022,0.0,0.0
13.731,4344.81,0.00023,0.0,0.0
13.737,4256.606,0.00023,0.0,0.0
13.743,4280.021,0.00023,0.0,0.0
13.75,4180.484,0.00024,0.0,0.0
13.756,4050.314,0.00025,0.0,0.0
13.762,4005.11,0.00025,0.0,0.0
13.769,3978.715,0.00025,0.0,0.0
13.775,3946.34,0.00025,0.0,0.0
13.781,3940.029,0.00025,0.0,0.0
13.788,3919.829,0.00026,0.0,0.0
13.794,3916.702,0.00026,0.0,0.0
13.8,3918.215,0.00026,0.0,0.0
13.807,3909.015,0.00026,0.0,0.0
13.813,3907.828,0.00026,0.0,0.0
13.819,3901.495,0.00026,0.0,0.0
13.826,3894.751,0.00026,0.0,0.0
13.832,3890.047,0.00026,0.0,0.0
13.838,3878.966,0.00026,0.0,0.0
13.844,3891.772,0.00026,0.0,0.0
13.851,3895.531,0.00026,0.0,0.0
13.857,3875.17,0.00026,0.0,0.0
13.863,3884.943,0.00026,0.0,0.0
13.87,3868.416,0.00026,0.0,0.0
13.876,3862.514,0.00026,0.0,0.0
13.882,3870.169,0.00026,0.0,0.0
13.889,3857.145,0.00026,0.0,0.0
13.895,3848.005,0.00026,0.0,0.0
13.901,3849.619,0.00026,0.0,0.0
13.908,3850.771,0.00026,0.0,0.0
13.914,3848.227,0.00026,0.0,0.0
13.92,3843.884,0.00026,0.0,0.0
13.927,3840.597,0.00026,0.0,0.0
13.933,3829.614,0.00026,0.0,0.0
13.939,3842.683,0.00026,0.0,0.0
13.946,3829.126,0.00026,0.0,0.0
13.952,3831.843,0.00026,0.0,0.0
13.958,3827.584,0.00026,0.0,0.0
13.965,3826.701,0.00026,0.0,0.0
13.971,3827.296,0.00026,0.0,0.0
13.977,3816.302,0.00026,0.0,0.0
13.984,3804.42,0.00026,0.0,0.0
13.99,3806.715,0.00026,0.0,0.0
13.996,3812.638,0.00026,0.0,0.0
14.002,3809.16,0.00026,0.0,0.0
14.009,3803.755,0.00026,0.0,0.0
14.015,3800.863,0.00026,0.0,0.0
14.021,3798.56,0.00026,0.0,0.0
14.028,3794.985,0.00026,0.0,0.0
14.034,3793.4,0.00026,0.0,0.0
14.04,3786.449,0.00026,0.0,0.0
14.047,3782.29,0.00026,0.0,0.0
14.053,3785.622,0.00026,0.0,0.0
14.059,3762.872,0.00027,0.0,0.0
14.066,3775.739,0.00026,0.0,0.0
14.072,3766.387,0.00027,0.0,0.0
14.078,3764.524,0.00027,0.0,0.0
14.085,3762.665,0.00027,0.0,0.0
14.091,3759.114,0.00027,0.0,0.0
14.097,3753.523,0.00027,0.0,0.0
14.104,3755.359,0.00027,0.0,0.0
14.11,3753.666,0.00027,0.0,0.0
14.116,3748.229,0.00027,0.0,0.0
14.123,3743.912,0.00027,0.0,0.0
14.129,3749.201,0.00027,0.0,0.0
14.135,3741.467,0.00027,0.0,0.0
14.142,3740.108,0.00027,0.0,0.0
14.148,3745.008,0.00027,0.0,0.0
14.154,3735.929,0.00027,0.0,0.0
14.16,3734.332,0.00027,0.0,0.0
14.167,3726.454,0.00027,0.0,0.0
14.173,3730.83,0.00027,0.0,0.0
14.179,3727.714,0.00027,0.0,0.0
14.186,3718.158,0.00027,0.0,0.0
14.192,3730.841,0.00027,0.0,0.0
14.198,3712.121,0.00027,0.0,0.0
14.205,3714.739,0.00027,0.0,0.0
14.211,3721.124,0.00027,0.0,0.0
14.217,3722.25,0.00027,0.0,0.0
14.224,3715.237,0.00027,0.0,0.0
14.23,3722.467,0.00027,0.0,0.0
14.236,3720.476,0.00027,0.0,0.0
14.243,3715.064,0.00027,0.0,0.0
14.249,3728.432,0.00027,0.0,0.0
14.255,3736.467,0.00027,0.0,0.0
14.262,3729.773,0.00027,0.0,0.0
14.268,3726.727,0.00027,0.0,0.0
14.274,3741.099,0.00027,0.0,0.0
14.281,3733.753,0.00027,0.0,0.0
14.287,3720.43,0.00027,0.0,0.0
14.293,3721.103,0.00027,0.0,0.0
14.3,3700.602,0.00027,0.0,0.0
14.306,3697.273,0.00027,0.0,0.0
14.312,3700.225,0.00027,0.0,0.0
14.318,3693.659,0.00027,0.0,0.0
14.325,3679.25,0.00027,0.0,0.0
14.331,3691.772,0.00027,0.0,0.0
14.337,3680.496,0.00027,0.0,0.0
14.344,3662.842,0.00027,0.0,0.0
14.35,3682.05,0.00027,0.0,0.0
14.356,3666.404,0.00027,0.0,0.0
14.363,3655.115,0.00027,0.0,0.0
14.369,3659.228,0.00027,0.0,0.0
14.375,3652.061,0.00027,0.0,0.0
14.382,3658.884,0.00027,0.0,0.0
14.388,3650.396,0.00027,0.0,0.0
14.394,3654.11,0.00027,0.0,0.0
14.401,3652.926,0.00027,0.0,0.0
14.407,3651.637,0.00027,0.0,0.0
14.413,3650.463,0.00027,0.0,0.0
14.42,3645.066,0.00027,0.0,0.0
14.426,3647.828,0.00027,0.0,0.0
14.432,3653.068,0.00027,0.0,0.0
14.439,3667.753,0.00027,0.0,0.0
14.445,3679.021,0.00027,0.0,0.0
14.451,3703.681,0.00027,0.0,0.0
14.458,3699.529,0.00027,0.0,0.0
14.464,3775.199,0.00026,0.0,0.0
14.47,3778.346,0.00026,0.0,0.0
14.476,3805.966,0.00026,0.0,0.0
14.483,3815.258,0.00026,0.0,0.0
14.489,3696.758,0.00027,0.0,0.0
14.495,3697.449,0.00027,0.0,0.0
14.502,3643.607,0.00027,0.0,0.0
14.508,3629.765,0.00028,0.0,0.0
14.514,3623.559,0.00028,0.0,0.0
14.521,3610.008,0.00028,0.0,0.0
14.527,3606.933,0.00028,0.0,0.0
14.533,3607.776,0.00028,0.0,0.0
14.54,3593.619,0.00028,0.0,0.0
14.546,3592.885,0.00028,0.0,0.0
14.552,3602.352,0.00028,0.0,0.0
14.559,3597.213,0.00028,0.0,0.0
14.565,3596.758,0.00028,0.0,0.0
14.571,3578.135,0.00028,0.0,0.0
14.578,3586.554,0.00028,0.0,0.0
14.584,3591.87,0.00028,0.0,0.0
14.59,3580.174,0.00028,0.0,0.0
14.597,3585.24,0.00028,0.0,0.0
14.603,3581.226,0.00028,0.0,0.0
14.609,3586.132,0.00028,0.0,0.0
14.616,3562.039,0.00028,0.0,0.0
14.622,3568.98,0.00028,0.0,0.0
14.628,3571.278,0.00028,0.0,0.0
14.634,3562.211,0.00028,0.0,0.0
14.641,3570.649,0.00028,0.0,0.0
14.647,3555.621,0.00028,0.0,0.0
14.653,3562.358,0.00028,0.0,0.0
14.66,3570.47,0.00028,0.0,0.0
14.666,3564.156,0.00028,0.0,0.0
14.672,3556.169,0.00028,0.0,0.0
14.679,3557.057,0.00028,0.0,0.0
14.685,3562.084,0.00028,0.0,0.0
14.691,3546.592,0.00028,0.0,0.0
14.698,3547.399,0.00028,0.0,0.0
14.704,3564.321,0.00028,0.0,0.0
14.71,3539.317,0.00028,0.0,0.0
14.717,3541.385,0.00028,0.0,0.0
14.723,3531.463,0.00028,0.0,0.0
14.729,3525.179,0.00028,0.0,0.0
14.736,3530.957,0.00028,0.0,0.0
14.742,3523.526,0.00028,0.0,0.0
14.748,3536.248,0.00028,0.0,0.0
14.755,3521.099,0.00028,0.0,0.0
14.761,3533.483,0.00028,0.0,0.0
14.767,3513.099,0.00028,0.0,0.0
14.774,3525.939,0.00028,0.0,0.0
14.78,3513.367,0.00028,0.0,0.0
14.786,3511.554,0.00028,0.0,0.0
14.792,3510.142,0.00028,0.0,0.0
14.799,3513.824,0.00028,0.0,0.0
14.805,3503.669,0.00029,0.0,0.0
14.811,3497.177,0.00029,0.0,0.0
14.818,3501.052,0.00029,0.0,0.0
14.824,3500.476,0.00029,0.0,0.0
14.83,3496.61,0.00029,0.0,0.0
14.837,3487.169,0.00029,0.0,0.0
14.843,3502.068,0.00029,0.0,0.0
14.849,3497.302,0.00029,0.0,0.0
14.856,3489.584,0.00029,0.0,0.0
14.862,3486.699,0.00029,0.0,0.0
14.868,3491.528,0.00029,0.0,0.0
14.875,3483.888,0.00029,0.0,0.0
14.881,3481.262,0.00029,0.0,0.0
14.887,3484.1,0.00029,0.0,0.0
14.894,3491.071,0.00029,0.0,0.0
14.9,3478.013,0.00029,0.0,0.0
14.906,3475.23,0.00029,0.0,0.0
14.913,3476.005,0.00029,0.0,0.0
14.919,3475.439,0.00029,0.0,0.0
14.925,3476.541,0.00029,0.0,0.0
14.932,3477.839,0.00029,0.0,0.0
14.938,3468.753,0.00029,0.0,0.0
14.944,3455.934,0.00029,0.0,0.0
14.95,3465.302,0.00029,0.0,0.0
14.957,3455.755,0.00029,0.0,0.0
14.963,3451.504,0.00029,0.0,0.0
14.969,3471.246,0.00029,0.0,0.0
14.976,3451.071,0.00029,0.0,0.0
14.982,3461.255,0.00029,0.0,0.0
14.988,3452.402,0.00029,0.0,0.0
14.995,3458.997,0.00029,0.0,0.0
15.001,3446.13,0.00029,0.0,0.0
15.007,3437.48,0.00029,0.0,0.0
15.014,3450.84,0.00029,0.0,0.0
15.02,3446.014,0.00029,0.0,0.0
15.026,3442.926,0.00029,0.0,0.0
15.033,3447.6,0.00029,0.0,0.0
15.039,3439.952,0.00029,0.0,0.0
15.045,3444.571,0.00029,0.0,0.0
15.052,3434.344,0.00029,0.0,0.0
15.058,3442.129,0.00029,0.0,0.0
15.064,3434.209,0.00029,0.0,0.0
15.071,3432.842,0.00029,0.0,0.0
15.077,3436.229,0.00029,0.0,0.0
15.083,3423.022,0.00029,0.0,0.0
15.09,3426.28,0.00029,0.0,0.0
15.096,3427.244,0.00029,0.0,0.0
15.102,3421.092,0.00029,0.0,0.0
15.108,3427.893,0.00029,0.0,0.0
15.115,3420.404,0.00029,0.0,0.0
15.121,3426.451,0.00029,0.0,0.0
15.127,3417.889,0.00029,0.0,0.0
15.134,3428.166,0.00029,0.0,0.0
15.14,3432.324,0.00029,0.0,0.0
15.146,3413.377,0.00029,0.0,0.0
15.153,3422.783,0.00029,0.0,0.0
15.159,3423.971,0.00029,0.0,0.0
15.165,3428.763,0.00029,0.0,0.0
15.172,3437.378,0.00029,0.0,0.0
15.178,3434.37,0.00029,0.0,0.0
15.184,3442.177,0.00029,0.0,0.0
15.191,3424.164,0.00029,0.0,0.0
15.197,3448.15,0.00029,0.0,0.0
15.203,3430.986,0.00029,0.0,0.0
15.21,3430.157,0.00029,0.0,0.0
15.216,3423.73,0.00029,0.0,0.0
15.222,3412.687,0.00029,0.0,0.0
15.229,3422.385,0.00029,0.0,0.0
15.235,3424.471,0.00029,0.0,0.0
15.241,3426.324,0.00029,0.0,0.0
15.248,3434.885,0.00029,0.0,0.0
15.254,3449.609,0.00029,0.0,0.0
15.26,3461.489,0.00029,0.0,0.0
15.266,3495.183,0.00029,0.0,0.0
15.273,3523.539,0.00028,0.0,0.0
15.279,3585.764,0.00028,0.0,0.0
15.285,3694.04,0.00027,0.0,0.0
15.292,3907.055,0.00026,0.0,0.0
15.298,4189.91,0.00024,0.0,0.0
15.304,4613.589,0.00022,0.0,0.0
15.311,5207.894,0.00019,0.0,0.0
15.317,5663.097,0.00018,0.0,0.0
15.323,6179.489,0.00016,0.0,0.0
15.33,6125.256,0.00016,0.0,0.0
15.336,5625.194,0.00018,0.0,0.0
15.342,5441.72,0.00018,0.0,0.0
15.349,4674.889,0.00021,0.0,0.0
15.355,4308.91,0.00023,0.0,0.0
15.361,3953.38,0.00025,0.0,0.0
15.368,3726.236,0.00027,0.0,0.0
15.374,3601.271,0.00028,0.0,0.0
15.38,3512.118,0.00028,0.0,0.0
15.387,3465.676,0.00029,0.0,0.0
15.393,3436.689,0.00029,0.0,0.0
15.399,3415.015,0.00029,0.0,0.0
15.406,3404.518,0.00029,0.0,0.0
15.412,3400.241,0.00029,0.0,0.0
15.418,3397.374,0.00029,0.0,0.0
15.424,3378.583,0.0003,0.0,0.0
15.431,3352.77,0.0003,0.0,0.0
15.437,3379.09,0.0003,0.0,0.0
15.443,3356.353,0.0003,0.0,0.0
15.45,3362.702,0.0003,0.0,0.0
15.456,3355.745,0.0003,0.0,0.0
15.462,3363.576,0.0003,0.0,0.0
15.469,3358.976,0.0003,0.0,0.0
15.475,3361.197,0.0003,0.0,0.0
15.481,3361.361,0.0003,0.0,0.0
15.488,3360.584,0.0003,0.0,0.0
15.494,3341.956,0.0003,0.0,0.0
15.5,3349.129,0.0003,0.0,0.0
15.507,3344.889,0.0003,0.0,0.0
15.513,3346.011,0.0003,0.0,0.0
15.519,3331.83,0.0003,0.0,0.0
15.526,3337.556,0.0003,0.0,0.0
15.532,3327.352,0.0003,0.0,0.0
15.538,3330.693,0.0003,0.0,0.0
15.545,3330.644,0.0003,0.0,0.0
15.551,3333.227,0.0003,0.0,0.0
15.557,3322.332,0.0003,0.0,0.0
15.564,3317.532,0.0003,0.0,0.0
15.57,3324.066,0.0003,0.0,0.0
15.576,3325.603,0.0003,0.0,0.0
15.582,3314.399,0.0003,0.0,0.0
15.589,3309.346,0.0003,0.0,0.0
15.595,3311.653,0.0003,0.0,0.0
15.601,3305.462,0.0003,0.0,0.0
15.608,3300.077,0.0003,0.0,0.0
15.614,3308.704,0.0003,0.0,0.0
15.62,3300.74,0.0003,0.0,0.0
15.627,3303.28,0.0003,0.0,0.0
15.633,3297.597,0.0003,0.0,0.0
15.639,3294.201,0.0003,0.0,0.0
15.646,3298.491,0.0003,0.0,0.0
15.652,3294.8,0.0003,0.0,0.0
15.658,3293.995,0.0003,0.0,0.0
15.665,3298.75,0.0003,0.0,0.0
15.671,3290.958,0.0003,0.0,0.0
15.677,3278.615,0.00031,0.0,0.0
15.684,3281.398,0.0003,0.0,0.0
15.69,3284.139,0.0003,0.0,0.0
15.696,3286.05,0.0003,0.0,0.0
15.703,3271.43,0.00031,0.0,0.0
15.709,3278.006,0.00031,0.0,0.0
15.715,3287.746,0.0003,0.0,0.0
15.722,3277.803,0.00031,0.0,0.0
15.728,3266.839,0.00031,0.0,0.0
15.734,3274.23,0.00031,0.0,0.0
15.74,3263.806,0.00031,0.0,0.0
15.747,3269.455,0.00031,0.0,0.0
15.753,3266.137,0.00031,0.0,0.0
15.759,3265.063,0.00031,0.0,0.0
15.766,3255.256,0.00031,0.0,0.0
15.772,3256.727,0.00031,0.0,0.0
15.778,3266.652,0.00031,0.0,0.0
15.785,3251.451,0.00031,0.0,0.0
15.791,3261.588,0.00031,0.0,0.0
15.797,3257.403,0.00031,0.0,0.0
15.804,3251.446,0.00031,0.0,0.0
15.81,3252.338,0.00031,0.0,0.0
15.816,3245.517,0.00031,0.0,0.0
15.823,3246.275,0.00031,0.0,0.0
15.829,3249.22,0.00031,0.0,0.0
15.835,3249.954,0.00031,0.0,0.0
15.842,3260.957,0.00031,0.0,0.0
15.848,3249.054,0.00031,0.0,0.0
15.854,3307.054,0.0003,0.0,0.0
15.861,3272.051,0.00031,0.0,0.0
15.867,3298.838,0.0003,0.0,0.0
15.873,3360.884,0.0003,0.0,0.0
15.88,3289.395,0.0003,0.0,0.0
15.886,3353.591,0.0003,0.0,0.0
15.892,3243.368,0.00031,0.0,0.0
15.898,3269.2,0.00031,0.0,0.0
15.905,3240.266,0.00031,0.0,0.0
15.911,3249.866,0.00031,0.0,0.0
15.917,3225.612,0.00031,0.0,0.0
15.924,3232.478,0.00031,0.0,0.0
15.93,3223.547,0.00031,0.0,0.0
15.936,3229.213,0.00031,0.0,0.0
15.943,3220.952,0.00031,0.0,0.0
15.949,3214.196,0.00031,0.0,0.0
15.955,3222.656,0.00031,0.0,0.0
15.962,3231.673,0.00031,0.0,0.0
15.968,3223.426,0.00031,0.0,0.0
15.974,3213.931,0.00031,0.0,0.0
15.981,3218.976,0.00031,0.0,0.0
15.987,3211.479,0.00031,0.0,0.0
15.993,3217.333,0.00031,0.0,0.0
16.0,3225.88,0.00031,0.0,0.0
16.006,3209.29,0.00031,0.0,0.0
16.012,3212.993,0.00031,0.0,0.0
16.019,3208.479,0.00031,0.0,0.0
16.025,3208.712,0.00031,0.0,0.0
16.031,3211.553,0.00031,0.0,0.0
16.038,3202.445,0.00031,0.0,0.0
16.044,3204.089,0.00031,0.0,0.0
16.05,3203.765,0.00031,0.0,0.0
16.056,3197.906,0.00031,0.0,0.0
16.063,3195.745,0.00031,0.0,0.0
16.069,3195.489,0.00031,0.0,0.0
16.075,3197.908,0.00031,0.0,0.0
16.082,3185.987,0.00031,0.0,0.0
16.088,3202.786,0.00031,0.0,0.0
16.094,3191.346,0.00031,0.0,0.0
16.101,3193.957,0.00031,0.0,0.0
16.107,3199.596,0.00031,0.0,0.0
16.113,3205.298,0.00031,0.0,0.0
16.12,3197.486,0.00031,0.0,0.0
16.126,3191.362,0.00031,0.0,0.0
16.132,3203.491,0.00031,0.0,0.0
16.139,3198.04,0.00031,0.0,0.0
16.145,3191.935,0.00031,0.0,0.0
16.151,3194.908,0.00031,0.0,0.0
16.158,3191.064,0.00031,0.0,0.0
16.164,3192.716,0.00031,0.0,0.0
16.17,3194.767,0.00031,0.0,0.0
16.177,3196.203,0.00031,0.0,0.0
16.183,3180.752,0.00031,0.0,0.0
16.189,3189.245,0.00031,0.0,0.0
16.196,3193.924,0.00031,0.0,0.0
16.202,3196.08,0.00031,0.0,0.0
16.208,3177.187,0.00031,0.0,0.0
16.214,3185.859,0.00031,0.0,0.0
16.221,3192.975,0.00031,0.0,0.0
16.227,3176.7,0.00031,0.0,0.0
16.233,3194.259,0.00031,0.0,0.0
16.24,3176.239,0.00031,0.0,0.0
16.246,3194.358,0.00031,0.0,0.0
16.252,3182.494,0.00031,0.0,0.0
16.259,3185.231,0.00031,0.0,0.0
16.265,3190.954,0.00031,0.0,0.0
16.271,3179.613,0.00031,0.0,0.0
16.278,3186.402,0.00031,0.0,0.0
16.284,3180.737,0.00031,0.0,0.0
16.29,3177.094,0.00031,0.0,0.0
16.297,3190.828,0.00031,0.0,0.0
16.303,3180.1,0.00031,0.0,0.0
16.309,3186.007,0.00031,0.0,0.0
16.316,3173.904,0.00032,0.0,0.0
16.322,3186.412,0.00031,0.0,0.0
16.328,3195.264,0.00031,0.0,0.0
16.335,3180.055,0.00031,0.0,0.0
16.341,3185.133,0.00031,0.0,0.0
16.347,3171.671,0.00032,0.0,0.0
16.354,3176.558,0.00031,0.0,0.0
16.36,3183.543,0.00031,0.0,0.0
16.366,3188.432,0.00031,0.0,0.0
16.372,3182.557,0.00031,0.0,0.0
16.379,3169.167,0.00032,0.0,0.0
16.385,3183.196,0.00031,0.0,0.0
16.391,3179.444,0.00031,0.0,0.0
16.398,3173.325,0.00032,0.0,0.0
16.404,3171.701,0.00032,0.0,0.0
16.41,3178.468,0.00031,0.0,0.0
16.417,3183.961,0.00031,0.0,0.0
16.423,3182.807,0.00031,0.0,0.0
16.429,3176.266,0.00031,0.0,0.0
16.436,3180.267,0.00031,0.0,0.0
16.442,3183.96,0.00031,0.0,0.0
16.448,3185.219,0.00031,0.0,0.0
16.455,3192.21,0.00031,0.0,0.0
16.461,3179.706,0.00031,0.0,0.0
16.467,3189.942,0.00031,0.0,0.0
16.474,3198.587,0.00031,0.0,0.0
16.48,3192.646,0.00031,0.0,0.0
16.486,3213.42,0.00031,0.0,0.0
16.493,3215.217,0.00031,0.0,0.0
16.499,3229.774,0.00031,0.0,0.0
16.505,3267.492,0.00031,0.0,0.0
16.512,3263.81,0.00031,0.0,0.0
16.518,3296.176,0.0003,0.0,0.0
16.524,3302.417,0.0003,0.0,0.0
16.53,3230.149,0.00031,0.0,0.0
16.537,3254.062,0.00031,0.0,0.0
16.543,3223.232,0.00031,0.0,0.0
16.549,3210.944,0.00031,0.0,0.0
16.556,3199.639,0.00031,0.0,0.0
16.562,3201.157,0.00031,0.0,0.0
16.568,3195.029,0.00031,0.0,0.0
16.575,3208.392,0.00031,0.0,0.0
16.581,3196.376,0.00031,0.0,0.0
16.587,3196.91,0.00031,0.0,0.0
16.594,3203.256,0.00031,0.0,0.0
