"x","y_obs","weight","y_calc","y_bkg"
0.8,2872.95,0.00035,0.0,0.0
0.806,3253.677,0.00031,0.0,0.0
0.813,3357.486,0.0003,0.0,0.0
0.819,3233.274,0.00031,0.0,0.0
0.825,3890.545,0.00026,0.0,0.0
0.832,3673.938,0.00027,0.0,0.0
0.838,3954.571,0.00025,0.0,0.0
0.844,4291.847,0.00023,0.0,0.0
0.851,4135.74,0.00024,0.0,0.0
0.857,4480.949,0.00022,0.0,0.0
0.863,4910.775,0.0002,0.0,0.0
0.87,4490.937,0.00022,0.0,0.0
0.876,5280.732,0.00019,0.0,0.0
0.882,5175.055,0.00019,0.0,0.0
0.888,5383.997,0.00019,0.0,0.0
0.895,5596.378,0.00018,0.0,0.0
0.901,5614.132,0.00018,0.0,0.0
0.907,6074.929,0.00016,0.0,0.0
0.914,6210.269,0.00016,0.0,0.0
0.92,5902.005,0.00017,0.0,0.0
0.926,6448.444,0.00016,0.0,0.0
0.933,6524.738,0.00015,0.0,0.0
0.939,6319.919,0.00016,0.0,0.0
0.945,6873.825,0.00015,0.0,0.0
0.952,6511.265,0.00015,0.0,0.0
0.958,6824.534,0.00015,0.0,0.0
0.964,6883.087,0.00015,0.0,0.0
0.971,6651.351,0.00015,0.0,0.0
0.977,7077.252,0.00014,0.0,0.0
0.983,7024.716,0.00014,0.0,0.0
0.99,6876.144,0.00015,0.0,0.0
0.996,7164.249,0.00014,0.0,0.0
1.002,6882.515,0.00015,0.0,0.0
1.009,7082.567,0.00014,0.0,0.0
1.015,7200.645,0.00014,0.0,0.0
1.021,6923.564,0.00014,0.0,0.0
1.028,7221.365,0.00014,0.0,0.0
1.034,7042.423,0.00014,0.0,0.0
1.04,7054.239,0.00014,0.0,0.0
1.046,7098.733,0.00014,0.0,0.0
1.053,7116.433,0.00014,0.0,0.0
1.059,7033.396,0.00014,0.0,0.0
1.065,7157.323,0.00014,0.0,0.0
1.072,6945.174,0.00014,0.0,0.0
1.078,7071.287,0.00014,0.0,0.0
1.084,6931.009,0.00014,0.0,0.0
1.091,6919.09,0.00014,0.0,0.0
1.097,6978.333,0.00014,0.0,0.0
1.103,6930.297,0.00014,0.0,0.0
1.11,6903.649,0.00014,0.0,0.0
1.116,6913.412,0.00014,0.0,0.0
1.122,6783.441,0.00015,0.0,0.0
1.129,6854.018,0.00015,0.0,0.0
1.135,6761.524,0.00015,0.0,0.0
1.141,6743.121,0.00015,0.0,0.0
1.148,6754.951,0.00015,0.0,0.0
1.154,6618.689,0.00015,0.0,0.0
1.16,6647.996,0.00015,0.0,0.0
1.167,6567.582,0.00015,0.0,0.0
1.173,6499.834,0.00015,0.0,0.0
1.179,6521.912,0.00015,0.0,0.0
1.186,6402.83,0.00016,0.0,0.0
1.192,6315.25,0.00016,0.0,0.0
1.198,6354.974,0.00016,0.0,0.0
1.204,6258.981,0.00016,0.0,0.0
1.211,6303.311,0.00016,0.0,0.0
1.217,6218.457,0.00016,0.0,0.0
1.223,6158.789,0.00016,0.0,0.0
1.23,6156.321,0.00016,0.0,0.0
1.236,6110.872,0.00016,0.0,0.0
1.242,6077.072,0.00016,0.0,0.0
1.249,6113.14,0.00016,0.0,0.0
1.255,6045.506,0.00017,0.0,0.0
1.261,5967.072,0.00017,0.0,0.0
1.268,6011.74,0.00017,0.0,0.0
1.274,5926.883,0.00017,0.0,0.0
1.28,5915.407,0.00017,0.0,0.0
1.287,5892.966,0.00017,0.0,0.0
1.293,5884.978,0.00017,0.0,0.0
1.299,5852.079,0.00017,0.0,0.0
1.306,5864.387,0.00017,0.0,0.0
1.312,5808.252,0.00017,0.0,0.0
1.318,5800.54,0.00017,0.0,0.0
1.325,5731.708,0.00017,0.0,0.0
1.331,5786.855,0.00017,0.0,0.0
1.337,5723.76,0.00017,0.0,0.0
1.344,5735.943,0.00017,0.0,0.0
1.35,5727.503,0.00017,0.0,0.0
1.356,5667.996,0.00018,0.0,0.0
1.362,5679.704,0.00018,0.0,0.0
1.369,5669.603,0.00018,0.0,0.0
1.375,5615.59,0.00018,0.0,0.0
1.381,5641.135,0.00018,0.0,0.0
1.388,5665.974,0.00018,0.0,0.0
1.394,5584.554,0.00018,0.0,0.0
1.4,5631.04,0.00018,0.0,0.0
1.407,5585.092,0.00018,0.0,0.0
1.413,5581.773,0.00018,0.0,0.0
1.419,5601.716,0.00018,0.0,0.0
1.426,5580.306,0.00018,0.0,0.0
1.432,5573.599,0.00018,0.0,0.0
1.438,5567.561,0.00018,0.0,0.0
1.445,5571.851,0.00018,0.0,0.0
1.451,5536.231,0.00018,0.0,0.0
1.457,5576.068,0.00018,0.0,0.0
1.464,5532.712,0.00018,0.0,0.0
1.47,5570.743,0.00018,0.0,0.0
1.476,5526.125,0.00018,0.0,0.0
1.483,5507.731,0.00018,0.0,0.0
1.489,5559.361,0.00018,0.0,0.0
1.495,5549.319,0.00018,0.0,0.0
1.502,5528.213,0.00018,0.0,0.0
1.508,5516.347,0.00018,0.0,0.0
1.514,5495.151,0.00018,0.0,0.0
1.52,5541.793,0.00018,0.0,0.0
1.527,5526.999,0.00018,0.0,0.0
1.533,5556.216,0.00018,0.0,0.0
1.539,5562.812,0.00018,0.0,0.0
1.546,5535.945,0.00018,0.0,0.0
1.552,5580.573,0.00018,0.0,0.0
1.558,5556.437,0.00018,0.0,0.0
1.565,5604.692,0.00018,0.0,0.0
1.571,5579.469,0.00018,0.0,0.0
1.577,5576.322,0.00018,0.0,0.0
1.584,5573.859,0.00018,0.0,0.0
1.59,5582.379,0.00018,0.0,0.0
1.596,5606.999,0.00018,0.0,0.0
1.603,5626.354,0.00018,0.0,0.0
1.609,5605.944,0.00018,0.0,0.0
1.615,5637.978,0.00018,0.0,0.0
1.622,5626.235,0.00018,0.0,0.0
1.628,5681.486,0.00018,0.0,0.0
1.634,5701.055,0.00018,0.0,0.0
1.641,5704.145,0.00018,0.0,0.0
1.647,5693.474,0.00018,0.0,0.0
1.653,5679.563,0.00018,0.0,0.0
1.66,5701.128,0.00018,0.0,0.0
1.666,5728.289,0.00017,0.0,0.0
1.672,5720.234,0.00017,0.0,0.0
1.678,5757.56,0.00017,0.0,0.0
1.685,5764.624,0.00017,0.0,0.0
1.691,5742.269,0.00017,0.0,0.0
1.697,5781.718,0.00017,0.0,0.0
1.704,5794.759,0.00017,0.0,0.0
1.71,5820.69,0.00017,0.0,0.0
1.716,5860.84,0.00017,0.0,0.0
1.723,5850.64,0.00017,0.0,0.0
1.729,5868.215,0.00017,0.0,0.0
1.735,5871.396,0.00017,0.0,0.0
1.742,5892.324,0.00017,0.0,0.0
1.748,5896.356,0.00017,0.0,0.0
1.754,5881.795,0.00017,0.0,0.0
1.761,5924.729,0.00017,0.0,0.0
1.767,5899.642,0.00017,0.0,0.0
1.773,5955.705,0.00017,0.0,0.0
1.78,5928.76,0.00017,0.0,0.0
1.786,5939.523,0.00017,0.0,0.0
1.792,5927.938,0.00017,0.0,0.0
1.799,5942.061,0.00017,0.0,0.0
1.805,5931.816,0.00017,0.0,0.0
1.811,5967.425,0.00017,0.0,0.0
1.818,5932.584,0.00017,0.0,0.0
1.824,5952.096,0.00017,0.0,0.0
1.83,5940.632,0.00017,0.0,0.0
1.836,5946.297,0.00017,0.0,0.0
1.843,5975.126,0.00017,0.0,0.0
1.849,5942.183,0.00017,0.0,0.0
1.855,5979.007,0.00017,0.0,0.0
1.862,5964.198,0.00017,0.0,0.0
1.868,5985.103,0.00017,0.0,0.0
1.874,5984.823,0.00017,0.0,0.0
1.881,5975.704,0.00017,0.0,0.0
1.887,5976.194,0.00017,0.0,0.0
1.893,5982.451,0.00017,0.0,0.0
1.9,5982.332,0.00017,0.0,0.0
1.906,5968.65,0.00017,0.0,0.0
1.912,6000.223,0.00017,0.0,0.0
1.919,5964.219,0.00017,0.0,0.0
1.925,5976.536,0.00017,0.0,0.0
1.931,6002.502,0.00017,0.0,0.0
1.938,5967.799,0.00017,0.0,0.0
1.944,5947.36,0.00017,0.0,0.0
1.95,5978.019,0.00017,0.0,0.0
1.957,5961.623,0.00017,0.0,0.0
1.963,5947.489,0.00017,0.0,0.0
1.969,5964.732,0.00017,0.0,0.0
1.976,5947.272,0.00017,0.0,0.0
1.982,5968.055,0.00017,0.0,0.0
1.988,5985.159,0.00017,0.0,0.0
1.994,5948.409,0.00017,0.0,0.0
2.001,5982.792,0.00017,0.0,0.0
2.007,5971.804,0.00017,0.0,0.0
2.013,6004.198,0.00017,0.0,0.0
2.02,5995.139,0.00017,0.0,0.0
2.026,5971.927,0.00017,0.0,0.0
2.032,5976.936,0.00017,0.0,0.0
2.039,5965.429,0.00017,0.0,0.0
2.045,5996.275,0.00017,0.0,0.0
2.051,5980.487,0.00017,0.0,0.0
2.058,5962.371,0.00017,0.0,0.0
2.064,6016.307,0.00017,0.0,0.0
2.07,5987.102,0.00017,0.0,0.0
2.077,6027.227,0.00017,0.0,0.0
2.083,6006.095,0.00017,0.0,0.0
2.089,5998.093,0.00017,0.0,0.0
2.096,6025.176,0.00017,0.0,0.0
2.102,6030.603,0.00017,0.0,0.0
2.108,6042.247,0.00017,0.0,0.0
2.115,6060.282,0.00017,0.0,0.0
2.121,6020.638,0.00017,0.0,0.0
2.127,6020.047,0.00017,0.0,0.0
2.134,6042.343,0.00017,0.0,0.0
2.14,6027.477,0.00017,0.0,0.0
2.146,6073.582,0.00016,0.0,0.0
2.152,6094.336,0.00016,0.0,0.0
2.159,6064.848,0.00016,0.0,0.0
2.165,6095.659,0.00016,0.0,0.0
2.171,6125.825,0.00016,0.0,0.0
2.178,6151.901,0.00016,0.0,0.0
2.184,6119.433,0.00016,0.0,0.0
2.19,6157.967,0.00016,0.0,0.0
2.197,6143.47,0.00016,0.0,0.0
2.203,6160.353,0.00016,0.0,0.0
2.209,6168.489,0.00016,0.0,0.0
2.216,6192.76,0.00016,0.0,0.0
2.222,6184.22,0.00016,0.0,0.0
2.228,6186.529,0.00016,0.0,0.0
2.235,6238.354,0.00016,0.0,0.0
2.241,6210.248,0.00016,0.0,0.0
2.247,6265.02,0.00016,0.0,0.0
2.254,6268.888,0.00016,0.0,0.0
2.26,6292.467,0.00016,0.0,0.0
2.266,6291.631,0.00016,0.0,0.0
2.273,6314.845,0.00016,0.0,0.0
2.279,6305.186,0.00016,0.0,0.0
2.285,6314.153,0.00016,0.0,0.0
2.292,6342.907,0.00016,0.0,0.0
2.298,6384.969,0.00016,0.0,0.0
2.304,6376.326,0.00016,0.0,0.0
2.31,6421.025,0.00016,0.0,0.0
2.317,6416.435,0.00016,0.0,0.0
2.323,6447.719,0.00016,0.0,0.0
2.329,6450.717,0.00016,0.0,0.0
2.336,6452.504,0.00015,0.0,0.0
2.342,6490.728,0.00015,0.0,0.0
2.348,6531.305,0.00015,0.0,0.0
2.355,6517.038,0.00015,0.0,0.0
2.361,6550.925,0.00015,0.0,0.0
2.367,6582.091,0.00015,0.0,0.0
2.374,6609.943,0.00015,0.0,0.0
2.38,6651.544,0.00015,0.0,0.0
2.386,6679.397,0.00015,0.0,0.0
2.393,6723.316,0.00015,0.0,0.0
2.399,6752.154,0.00015,0.0,0.0
2.405,6883.752,0.00015,0.0,0.0
2.412,6983.524,0.00014,0.0,0.0
2.418,7100.91,0.00014,0.0,0.0
2.424,7167.686,0.00014,0.0,0.0
2.431,7212.019,0.00014,0.0,0.0
2.437,7194.907,0.00014,0.0,0.0
2.443,7091.55,0.00014,0.0,0.0
2.45,7083.314,0.00014,0.0,0.0
2.456,7019.97,0.00014,0.0,0.0
2.462,6960.81,0.00014,0.0,0.0
2.468,6972.885,0.00014,0.0,0.0
2.475,7004.222,0.00014,0.0,0.0
2.481,6981.523,0.00014,0.0,0.0
2.487,7011.337,0.00014,0.0,0.0
2.494,7010.618,0.00014,0.0,0.0
2.5,7051.005,0.00014,0.0,0.0
2.506,7052.466,0.00014,0.0,0.0
2.513,7059.742,0.00014,0.0,0.0
2.519,7144.521,0.00014,0.0,0.0
2.525,7156.121,0.00014,0.0,0.0
2.532,7167.755,0.00014,0.0,0.0
2.538,7202.575,0.00014,0.0,0.0
2.544,7222.22,0.00014,0.0,0.0
2.551,7248.024,0.00014,0.0,0.0
2.557,7250.381,0.00014,0.0,0.0
2.563,7270.437,0.00014,0.0,0.0
2.57,7298.123,0.00014,0.0,0.0
2.576,7326.076,0.00014,0.0,0.0
2.582,7332.83,0.00014,0.0,0.0
2.589,7384.245,0.00014,0.0,0.0
2.595,7415.572,0.00013,0.0,0.0
2.601,7389.021,0.00014,0.0,0.0
2.608,7443.238,0.00013,0.0,0.0
2.614,7500.179,0.00013,0.0,0.0
2.62,7477.817,0.00013,0.0,0.0
2.626,7524.711,0.00013,0.0,0.0
2.633,7548.229,0.00013,0.0,0.0
2.639,7549.678,0.00013,0.0,0.0
2.645,7588.143,0.00013,0.0,0.0
2.652,7628.005,0.00013,0.0,0.0
2.658,7658.396,0.00013,0.0,0.0
2.664,7667.873,0.00013,0.0,0.0
2.671,7684.404,0.00013,0.0,0.0
2.677,7741.76,0.00013,0.0,0.0
2.683,7746.629,0.00013,0.0,0.0
2.69,7797.599,0.00013,0.0,0.0
2.696,7787.674,0.00013,0.0,0.0
2.702,7837.062,0.00013,0.0,0.0
2.709,7863.352,0.00013,0.0,0.0
2.715,7866.372,0.00013,0.0,0.0
2.721,7899.049,0.00013,0.0,0.0
2.728,7939.203,0.00013,0.0,0.0
2.734,7956.175,0.00013,0.0,0.0
2.74,7973.605,0.00013,0.0,0.0
2.747,8005.151,0.00012,0.0,0.0
2.753,8024.267,0.00012,0.0,0.0
2.759,8059.216,0.00012,0.0,0.0
2.766,8076.247,0.00012,0.0,0.0
2.772,8118.333,0.00012,0.0,0.0
2.778,8133.193,0.00012,0.0,0.0
2.784,8167.345,0.00012,0.0,0.0
2.791,8178.717,0.00012,0.0,0.0
2.797,8208.783,0.00012,0.0,0.0
2.803,8224.256,0.00012,0.0,0.0
2.81,8262.606,0.00012,0.0,0.0
2.816,8291.831,0.00012,0.0,0.0
2.822,8313.472,0.00012,0.0,0.0
2.829,8331.458,0.00012,0.0,0.0
2.835,8365.832,0.00012,0.0,0.0
2.841,8421.502,0.00012,0.0,0.0
2.848,8429.472,0.00012,0.0,0.0
2.854,8443.597,0.00012,0.0,0.0
2.86,8469.015,0.00012,0.0,0.0
2.867,8495.156,0.00012,0.0,0.0
2.873,8518.127,0.00012,0.0,0.0
2.879,8528.296,0.00012,0.0,0.0
2.886,8547.402,0.00012,0.0,0.0
2.892,8566.092,0.00012,0.0,0.0
2.898,8604.416,0.00012,0.0,0.0
2.905,8617.852,0.00012,0.0,0.0
2.911,8680.141,0.00012,0.0,0.0
2.917,8668.341,0.00012,0.0,0.0
2.924,8695.341,0.00012,0.0,0.0
2.93,8743.303,0.00011,0.0,0.0
2.936,8738.924,0.00011,0.0,0.0
2.942,8767.807,0.00011,0.0,0.0
2.949,8782.749,0.00011,0.0,0.0
2.955,8798.543,0.00011,0.0,0.0
2.961,8825.497,0.00011,0.0,0.0
2.968,8828.752,0.00011,0.0,0.0
2.974,8843.025,0.00011,0.0,0.0
2.98,8857.234,0.00011,0.0,0.0
2.987,8886.632,0.00011,0.0,0.0
2.993,8900.656,0.00011,0.0,0.0
2.999,8955.084,0.00011,0.0,0.0
3.006,8927.946,0.00011,0.0,0.0
3.012,8950.085,0.00011,0.0,0.0
3.018,8951.544,0.00011,0.0,0.0
3.025,8955.681,0.00011,0.0,0.0
3.031,8987.305,0.00011,0.0,0.0
3.037,9006.166,0.00011,0.0,0.0
3.044,8979.161,0.00011,0.0,0.0
3.05,9017.399,0.00011,0.0,0.0
3.056,9025.305,0.00011,0.0,0.0
3.063,9019.996,0.00011,0.0,0.0
3.069,9032.392,0.00011,0.0,0.0
3.075,9016.807,0.00011,0.0,0.0
3.082,9029.439,0.00011,0.0,0.0
3.088,9050.301,0.00011,0.0,0.0
3.094,9003.75,0.00011,0.0,0.0
3.1,9054.924,0.00011,0.0,0.0
3.107,9025.133,0.00011,0.0,0.0
3.113,9046.569,0.00011,0.0,0.0
3.119,9028.085,0.00011,0.0,0.0
3.126,9007.517,0.00011,0.0,0.0
3.132,9028.014,0.00011,0.0,0.0
3.138,9028.486,0.00011,0.0,0.0
3.145,9018.012,0.00011,0.0,0.0
3.151,9052.726,0.00011,0.0,0.0
3.157,8980.712,0.00011,0.0,0.0
3.164,9002.616,0.00011,0.0,0.0
3.17,8991.349,0.00011,0.0,0.0
3.176,8961.891,0.00011,0.0,0.0
3.183,8976.82,0.00011,0.0,0.0
3.189,8972.216,0.00011,0.0,0.0
3.195,8958.245,0.00011,0.0,0.0
3.202,8946.716,0.00011,0.0,0.0
3.208,8902.228,0.00011,0.0,0.0
3.214,8909.224,0.00011,0.0,0.0
3.221,8914.818,0.00011,0.0,0.0
3.227,8908.772,0.00011,0.0,0.0
3.233,8883.555,0.00011,0.0,0.0
3.24,8880.468,0.00011,0.0,0.0
3.246,8864.845,0.00011,0.0,0.0
3.252,8863.98,0.00011,0.0,0.0
3.258,8837.983,0.00011,0.0,0.0
3.265,8844.361,0.00011,0.0,0.0
3.271,8829.687,0.00011,0.0,0.0
3.277,8790.173,0.00011,0.0,0.0
3.284,8804.332,0.00011,0.0,0.0
3.29,8773.705,0.00011,0.0,0.0
3.296,8741.944,0.00011,0.0,0.0
3.303,8750.128,0.00011,0.0,0.0
3.309,8745.403,0.00011,0.0,0.0
3.315,8718.692,0.00011,0.0,0.0
3.322,8686.308,0.00012,0.0,0.0
3.328,8647.263,0.00012,0.0,0.0
3.334,8681.953,0.00012,0.0,0.0
3.341,8660.972,0.00012,0.0,0.0
3.347,8637.479,0.00012,0.0,0.0
3.353,8644.227,0.00012,0.0,0.0
3.36,8603.314,0.00012,0.0,0.0
3.366,8590.221,0.00012,0.0,0.0
3.372,8614.392,0.00012,0.0,0.0
3.379,8575.417,0.00012,0.0,0.0
3.385,8587.181,0.00012,0.0,0.0
3.391,8514.557,0.00012,0.0,0.0
3.398,8533.552,0.00012,0.0,0.0
3.404,8512.044,0.00012,0.0,0.0
3.41,8517.339,0.00012,0.0,0.0
3.416,8483.723,0.00012,0.0,0.0
3.423,8479.083,0.00012,0.0,0.0
3.429,8477.126,0.00012,0.0,0.0
3.435,8470.047,0.00012,0.0,0.0
3.442,8480.883,0.00012,0.0,0.0
3.448,8421.311,0.00012,0.0,0.0
3.454,8437.749,0.00012,0.0,0.0
3.461,8402.251,0.00012,0.0,0.0
3.467,8395.872,0.00012,0.0,0.0
3.473,8379.312,0.00012,0.0,0.0
3.48,8376.213,0.00012,0.0,0.0
3.486,8336.693,0.00012,0.0,0.0
3.492,8356.127,0.00012,0.0,0.0
3.499,8342.438,0.00012,0.0,0.0
3.505,8341.579,0.00012,0.0,0.0
3.511,8307.408,0.00012,0.0,0.0
3.518,8320.095,0.00012,0.0,0.0
3.524,8315.178,0.00012,0.0,0.0
3.53,8321.892,0.00012,0.0,0.0
3.537,8267.992,0.00012,0.0,0.0
3.543,8282.221,0.00012,0.0,0.0
3.549,8286.066,0.00012,0.0,0.0
3.556,8270.134,0.00012,0.0,0.0
3.562,8271.911,0.00012,0.0,0.0
3.568,8272.209,0.00012,0.0,0.0
3.574,8266.476,0.00012,0.0,0.0
3.581,8285.5,0.00012,0.0,0.0
3.587,8249.921,0.00012,0.0,0.0
3.593,8237.26,0.00012,0.0,0.0
3.6,8261.542,0.00012,0.0,0.0
3.606,8258.799,0.00012,0.0,0.0
3.612,8249.365,0.00012,0.0,0.0
3.619,8257.009,0.00012,0.0,0.0
3.625,8283.048,0.00012,0.0,0.0
3.631,8270.927,0.00012,0.0,0.0
3.638,8292.889,0.00012,0.0,0.0
3.644,8299.725,0.00012,0.0,0.0
3.65,8307.542,0.00012,0.0,0.0
3.657,8317.929,0.00012,0.0,0.0
3.663,8325.232,0.00012,0.0,0.0
3.669,8346.167,0.00012,0.0,0.0
3.676,8331.854,0.00012,0.0,0.0
3.682,8353.479,0.00012,0.0,0.0
3.688,8383.617,0.00012,0.0,0.0
3.695,8384.697,0.00012,0.0,0.0
3.701,8402.68,0.00012,0.0,0.0
3.707,8414.28,0.00012,0.0,0.0
3.714,8426.841,0.00012,0.0,0.0
3.72,8400.197,0.00012,0.0,0.0
3.726,8446.138,0.00012,0.0,0.0
3.732,8458.365,0.00012,0.0,0.0
3.739,8483.98,0.00012,0.0,0.0
3.745,8485.751,0.00012,0.0,0.0
3.751,8494.75,0.00012,0.0,0.0
3.758,8541.32,0.00012,0.0,0.0
3.764,8558.231,0.00012,0.0,0.0
3.77,8523.276,0.00012,0.0,0.0
3.777,8567.561,0.00012,0.0,0.0
3.783,8551.79,0.00012,0.0,0.0
3.789,8584.654,0.00012,0.0,0.0
3.796,8580.157,0.00012,0.0,0.0
3.802,8619.159,0.00012,0.0,0.0
3.808,8626.144,0.00012,0.0,0.0
3.815,8626.224,0.00012,0.0,0.0
3.821,8641.084,0.00012,0.0,0.0
3.827,8643.832,0.00012,0.0,0.0
3.834,8642.904,0.00012,0.0,0.0
3.84,8619.877,0.00012,0.0,0.0
3.846,8646.393,0.00012,0.0,0.0
3.853,8646.244,0.00012,0.0,0.0
3.859,8620.35,0.00012,0.0,0.0
3.865,8636.322,0.00012,0.0,0.0
3.872,8620.441,0.00012,0.0,0.0
3.878,8607.692,0.00012,0.0,0.0
3.884,8593.586,0.00012,0.0,0.0
3.89,8606.105,0.00012,0.0,0.0
3.897,8593.722,0.00012,0.0,0.0
3.903,8586.433,0.00012,0.0,0.0
3.909,8574.133,0.00012,0.0,0.0
3.916,8571.885,0.00012,0.0,0.0
3.922,8551.107,0.00012,0.0,0.0
3.928,8508.626,0.00012,0.0,0.0
3.935,8503.72,0.00012,0.0,0.0
3.941,8526.256,0.00012,0.0,0.0
3.947,8613.135,0.00012,0.0,0.0
3.954,8507.838,0.00012,0.0,0.0
3.96,9037.469,0.00011,0.0,0.0
3.966,8705.589,0.00011,0.0,0.0
3.973,8643.028,0.00012,0.0,0.0
3.979,9374.057,0.00011,0.0,0.0
3.985,8482.936,0.00012,0.0,0.0
3.992,8517.939,0.00012,0.0,0.0
3.998,8479.978,0.00012,0.0,0.0
4.004,8396.698,0.00012,0.0,0.0
4.011,8399.622,0.00012,0.0,0.0
4.017,8385.151,0.00012,0.0,0.0
4.023,8346.947,0.00012,0.0,0.0
4.03,8375.413,0.00012,0.0,0.0
4.036,8363.222,0.00012,0.0,0.0
4.042,8355.985,0.00012,0.0,0.0
4.048,8338.862,0.00012,0.0,0.0
4.055,8319.143,0.00012,0.0,0.0
4.061,8354.102,0.00012,0.0,0.0
4.067,8335.233,0.00012,0.0,0.0
4.074,8379.771,0.00012,0.0,0.0
4.08,8369.657,0.00012,0.0,0.0
4.086,8335.904,0.00012,0.0,0.0
4.093,8364.814,0.00012,0.0,0.0
4.099,8345.376,0.00012,0.0,0.0
4.105,8364.061,0.00012,0.0,0.0
4.112,8392.791,0.00012,0.0,0.0
4.118,8383.556,0.00012,0.0,0.0
4.124,8399.751,0.00012,0.0,0.0
4.131,8391.181,0.00012,0.0,0.0
4.137,8387.871,0.00012,0.0,0.0
4.143,8425.572,0.00012,0.0,0.0
4.15,8419.764,0.00012,0.0,0.0
4.156,8451.035,0.00012,0.0,0.0
4.162,8478.503,0.00012,0.0,0.0
4.169,8464.571,0.00012,0.0,0.0
4.175,8481.326,0.00012,0.0,0.0
4.181,8534.898,0.00012,0.0,0.0
4.188,8509.292,0.00012,0.0,0.0
4.194,8562.27,0.00012,0.0,0.0
4.2,8578.81,0.00012,0.0,0.0
4.206,8587.871,0.00012,0.0,0.0
4.213,8641.078,0.00012,0.0,0.0
4.219,8636.105,0.00012,0.0,0.0
4.225,8681.727,0.00012,0.0,0.0
4.232,8685.669,0.00012,0.0,0.0
4.238,8668.57,0.00012,0.0,0.0
4.244,8759.388,0.00011,0.0,0.0
4.251,8725.886,0.00011,0.0,0.0
4.257,8743.366,0.00011,0.0,0.0
4.263,8861.951,0.00011,0.0,0.0
4.27,8810.288,0.00011,0.0,0.0
4.276,8938.143,0.00011,0.0,0.0
4.282,8931.96,0.00011,0.0,0.0
4.289,8892.061,0.00011,0.0,0.0
4.295,9047.059,0.00011,0.0,0.0
4.301,8990.56,0.00011,0.0,0.0
4.308,9070.625,0.00011,0.0,0.0
4.314,9121.356,0.00011,0.0,0.0
4.32,9104.986,0.00011,0.0,0.0
4.327,9222.83,0.00011,0.0,0.0
4.333,9208.309,0.00011,0.0,0.0
4.339,9261.927,0.00011,0.0,0.0
4.346,9419.188,0.00011,0.0,0.0
4.352,9336.871,0.00011,0.0,0.0
4.358,9501.336,0.00011,0.0,0.0
4.364,9562.278,0.0001,0.0,0.0
4.371,9407.615,0.00011,0.0,0.0
4.377,9829.596,0.0001,0.0,0.0
4.383,9668.662,0.0001,0.0,0.0
4.39,9855.369,0.0001,0.0,0.0
4.396,9986.714,0.0001,0.0,0.0
4.402,9882.954,0.0001,0.0,0.0
4.409,10010.2,0.0001,0.0,0.0
4.415,10196.774,0.0001,0.0,0.0
4.421,10196.746,0.0001,0.0,0.0
4.428,10559.207,0.00009,0.0,0.0
4.434,10423.405,0.0001,0.0,0.0
4.44,10555.389,0.00009,0.0,0.0
4.447,10844.62,0.00009,0.0,0.0
4.453,10739.462,0.00009,0.0,0.0
4.459,11287.116,0.00009,0.0,0.0
4.466,11379.659,0.00009,0.0,0.0
4.472,11353.49,0.00009,0.0,0.0
4.478,12159.032,0.00008,0.0,0.0
4.485,11999.029,0.00008,0.0,0.0
4.491,12564.673,0.00008,0.0,0.0
4.497,14025.609,0.00007,0.0,0.0
4.504,13445.715,0.00007,0.0,0.0
4.51,16917.4,0.00006,0.0,0.0
4.516,17513.572,0.00006,0.0,0.0
4.522,19885.386,0.00005,0.0,0.0
4.529,33724.041,0.00003,0.0,0.0
4.535,42126.959,0.00002,0.0,0.0
4.541,54680.033,0.00002,0.0,0.0
4.548,90100.626,0.00001,0.0,0.0
4.554,69223.891,0.00001,0.0,0.0
4.56,99793.457,0.00001,0.0,0.0
4.567,84330.235,0.00001,0.0,0.0
4.573,80488.446,0.00001,0.0,0.0
4.579,74965.767,0.00001,0.0,0.0
4.586,47296.297,0.00002,0.0,0.0
4.592,49897.803,0.00002,0.0,0.0
4.598,28167.985,0.00004,0.0,0.0
4.605,25498.392,0.00004,0.0,0.0
4.611,18054.871,0.00006,0.0,0.0
4.617,16659.83,0.00006,0.0,0.0
4.624,14084.121,0.00007,0.0,0.0
4.63,14202.787,0.00007,0.0,0.0
4.636,12523.799,0.00008,0.0,0.0
4.643,12485.868,0.00008,0.0,0.0
4.649,12016.478,0.00008,0.0,0.0
4.655,11547.146,0.00009,0.0,0.0
4.662,11764.534,0.00009,0.0,0.0
4.668,11177.976,0.00009,0.0,0.0
4.674,10871.043,0.00009,0.0,0.0
4.68,11127.003,0.00009,0.0,0.0
4.687,10544.575,0.00009,0.0,0.0
4.693,10626.568,0.00009,0.0,0.0
4.699,10523.579,0.0001,0.0,0.0
4.706,10181.796,0.0001,0.0,0.0
4.712,10404.431,0.0001,0.0,0.0
4.718,10085.665,0.0001,0.0,0.0
4.725,9868.179,0.0001,0.0,0.0
4.731,10160.589,0.0001,0.0,0.0
4.737,9722.64,0.0001,0.0,0.0
4.744,9824.771,0.0001,0.0,0.0
4.75,9683.76,0.0001,0.0,0.0
4.756,9548.981,0.0001,0.0,0.0
4.763,9552.89,0.0001,0.0,0.0
4.769,9374.861,0.00011,0.0,0.0
4.775,9330.944,0.00011,0.0,0.0
4.782,9378.406,0.00011,0.0,0.0
4.788,9196.242,0.00011,0.0,0.0
4.794,9131.895,0.00011,0.0,0.0
4.801,9156.926,0.00011,0.0,0.0
4.807,8950.584,0.00011,0.0,0.0
4.813,9039.755,0.00011,0.0,0.0
4.82,8910.009,0.00011,0.0,0.0
4.826,8917.585,0.00011,0.0,0.0
4.832,8954.81,0.00011,0.0,0.0
4.838,8882.198,0.00011,0.0,0.0
4.845,8937.155,0.00011,0.0,0.0
4.851,9070.951,0.00011,0.0,0.0
4.857,9062.536,0.00011,0.0,0.0
4.864,9058.238,0.00011,0.0,0.0
4.87,8966.369,0.00011,0.0,0.0
4.876,8763.016,0.00011,0.0,0.0
4.883,8712.693,0.00011,0.0,0.0
4.889,8471.457,0.00012,0.0,0.0
4.895,8434.535,0.00012,0.0,0.0
4.902,8337.209,0.00012,0.0,0.0
4.908,8251.815,0.00012,0.0,0.0
4.914,8242.784,0.00012,0.0,0.0
4.921,8164.904,0.00012,0.0,0.0
4.927,8100.822,0.00012,0.0,0.0
4.933,8102.445,0.00012,0.0,0.0
4.94,8010.692,0.00012,0.0,0.0
4.946,7980.741,0.00013,0.0,0.0
4.952,8004.816,0.00012,0.0,0.0
4.959,7895.367,0.00013,0.0,0.0
4.965,7903.249,0.00013,0.0,0.0
4.971,7813.179,0.00013,0.0,0.0
4.978,7821.796,0.00013,0.0,0.0
4.984,7801.422,0.00013,0.0,0.0
4.99,7728.424,0.00013,0.0,0.0
4.996,7713.105,0.00013,0.0,0.0
5.003,7701.749,0.00013,0.0,0.0
5.009,7633.047,0.00013,0.0,0.0
5.015,7697.222,0.00013,0.0,0.0
5.022,7584.255,0.00013,0.0,0.0
5.028,7582.418,0.00013,0.0,0.0
5.034,7566.678,0.00013,0.0,0.0
5.041,7489.199,0.00013,0.0,0.0
5.047,7466.61,0.00013,0.0,0.0
5.053,7479.673,0.00013,0.0,0.0
5.06,7415.34,0.00013,0.0,0.0
5.066,7431.015,0.00013,0.0,0.0
5.072,7400.713,0.00014,0.0,0.0
5.079,7320.166,0.00014,0.0,0.0
5.085,7358.556,0.00014,0.0,0.0
5.091,7290.632,0.00014,0.0,0.0
5.098,7286.526,0.00014,0.0,0.0
5.104,7248.872,0.00014,0.0,0.0
5.11,7234.298,0.00014,0.0,0.0
5.117,7231.668,0.00014,0.0,0.0
5.123,7175.348,0.00014,0.0,0.0
5.129,7159.66,0.00014,0.0,0.0
5.136,7174.582,0.00014,0.0,0.0
5.142,7122.608,0.00014,0.0,0.0
5.148,7096.682,0.00014,0.0,0.0
5.154,7099.413,0.00014,0.0,0.0
5.161,7044.947,0.00014,0.0,0.0
5.167,7062.674,0.00014,0.0,0.0
5.173,6985.309,0.00014,0.0,0.0
5.18,6985.994,0.00014,0.0,0.0
5.186,6998.157,0.00014,0.0,0.0
5.192,6965.986,0.00014,0.0,0.0
5.199,6940.701,0.00014,0.0,0.0
5.205,6929.886,0.00014,0.0,0.0
5.211,6910.603,0.00014,0.0,0.0
5.218,6908.926,0.00014,0.0,0.0
5.224,6891.989,0.00015,0.0,0.0
5.23,6870.222,0.00015,0.0,0.0
5.237,6863.884,0.00015,0.0,0.0
5.243,6813.159,0.00015,0.0,0.0
5.249,6834.776,0.00015,0.0,0.0
5.256,6800.121,0.00015,0.0,0.0
5.262,6789.667,0.00015,0.0,0.0
5.268,6785.014,0.00015,0.0,0.0
5.275,6741.229,0.00015,0.0,0.0
5.281,6727.784,0.00015,0.0,0.0
5.287,6734.395,0.00015,0.0,0.0
5.294,6687.4,0.00015,0.0,0.0
5.3,6715.159,0.00015,0.0,0.0
5.306,6683.632,0.00015,0.0,0.0
5.312,6648.848,0.00015,0.0,0.0
5.319,6666.748,0.00015,0.0,0.0
5.325,6638.372,0.00015,0.0,0.0
5.331,6627.305,0.00015,0.0,0.0
5.338,6642.668,0.00015,0.0,0.0
5.344,6605.897,0.00015,0.0,0.0
5.35,6591.408,0.00015,0.0,0.0
5.357,6600.915,0.00015,0.0,0.0
5.363,6553.713,0.00015,0.0,0.0
5.369,6582.346,0.00015,0.0,0.0
5.376,6537.405,0.00015,0.0,0.0
5.382,6552.259,0.00015,0.0,0.0
5.388,6562.09,0.00015,0.0,0.0
5.395,6546.44,0.00015,0.0,0.0
5.401,6529.24,0.00015,0.0,0.0
5.407,6503.948,0.00015,0.0,0.0
5.414,6506.159,0.00015,0.0,0.0
5.42,6510.251,0.00015,0.0,0.0
5.426,6498.794,0.00015,0.0,0.0
5.433,6461.873,0.00015,0.0,0.0
5.439,6495.898,0.00015,0.0,0.0
5.445,6449.206,0.00016,0.0,0.0
5.452,6473.102,0.00015,0.0,0.0
5.458,6443.928,0.00016,0.0,0.0
5.464,6451.085,0.00016,0.0,0.0
5.47,6445.43,0.00016,0.0,0.0
5.477,6423.428,0.00016,0.0,0.0
5.483,6430.972,0.00016,0.0,0.0
5.489,6429.193,0.00016,0.0,0.0
5.496,6429.97,0.00016,0.0,0.0
5.502,6405.189,0.00016,0.0,0.0
5.508,6399.819,0.00016,0.0,0.0
5.515,6384.704,0.00016,0.0,0.0
5.521,6393.472,0.00016,0.0,0.0
5.527,6395.976,0.00016,0.0,0.0
5.534,6398.429,0.00016,0.0,0.0
5.54,6368.22,0.00016,0.0,0.0
5.546,6377.113,0.00016,0.0,0.0
5.553,6364.862,0.00016,0.0,0.0
5.559,6364.322,0.00016,0.0,0.0
5.565,6349.358,0.00016,0.0,0.0
5.572,6377.116,0.00016,0.0,0.0
5.578,6334.371,0.00016,0.0,0.0
5.584,6348.059,0.00016,0.0,0.0
5.591,6337.328,0.00016,0.0,0.0
5.597,6325.441,0.00016,0.0,0.0
5.603,6359.84,0.00016,0.0,0.0
5.61,6340.212,0.00016,0.0,0.0
5.616,6337.273,0.00016,0.0,0.0
5.622,6348.597,0.00016,0.0,0.0
5.628,6332.279,0.00016,0.0,0.0
5.635,6342.582,0.00016,0.0,0.0
5.641,6320.225,0.00016,0.0,0.0
5.647,6305.017,0.00016,0.0,0.0
5.654,6338.799,0.00016,0.0,0.0
5.66,6292.776,0.00016,0.0,0.0
5.666,6310.226,0.00016,0.0,0.0
5.673,6317.552,0.00016,0.0,0.0
5.679,6303.192,0.00016,0.0,0.0
5.685,6306.345,0.00016,0.0,0.0
5.692,6293.036,0.00016,0.0,0.0
5.698,6276.402,0.00016,0.0,0.0
5.704,6295.216,0.00016,0.0,0.0
5.711,6286.453,0.00016,0.0,0.0
5.717,6264.487,0.00016,0.0,0.0
5.723,6301.71,0.00016,0.0,0.0
5.73,6259.425,0.00016,0.0,0.0
5.736,6284.366,0.00016,0.0,0.0
5.742,6293.403,0.00016,0.0,0.0
5.749,6283.697,0.00016,0.0,0.0
5.755,6304.073,0.00016,0.0,0.0
5.761,6265.852,0.00016,0.0,0.0
5.768,6255.564,0.00016,0.0,0.0
5.774,6294.882,0.00016,0.0,0.0
5.78,6296.851,0.00016,0.0,0.0
5.786,6305.983,0.00016,0.0,0.0
5.793,6321.837,0.00016,0.0,0.0
5.799,6292.701,0.00016,0.0,0.0
5.805,6350.77,0.00016,0.0,0.0
5.812,6335.727,0.00016,0.0,0.0
5.818,6356.344,0.00016,0.0,0.0
5.824,6377.083,0.00016,0.0,0.0
5.831,6429.227,0.00016,0.0,0.0
5.837,6477.175,0.00015,0.0,0.0
5.843,6533.848,0.00015,0.0,0.0
5.85,6682.839,0.00015,0.0,0.0
5.856,6842.163,0.00015,0.0,0.0
5.862,7125.437,0.00014,0.0,0.0
5.869,7452.558,0.00013,0.0,0.0
5.875,7782.054,0.00013,0.0,0.0
5.881,8005.493,0.00012,0.0,0.0
5.888,8019.779,0.00012,0.0,0.0
5.894,7794.869,0.00013,0.0,0.0
5.9,7529.448,0.00013,0.0,0.0
5.907,7180.816,0.00014,0.0,0.0
5.913,6883.49,0.00015,0.0,0.0
5.919,6664.121,0.00015,0.0,0.0
5.926,6509.107,0.00015,0.0,0.0
5.932,6444.265,0.00016,0.0,0.0
5.938,6410.765,0.00016,0.0,0.0
5.944,6357.541,0.00016,0.0,0.0
5.951,6369.91,0.00016,0.0,0.0
5.957,6334.93,0.00016,0.0,0.0
5.963,6295.456,0.00016,0.0,0.0
5.97,6304.903,0.00016,0.0,0.0
5.976,6260.311,0.00016,0.0,0.0
5.982,6290.285,0.00016,0.0,0.0
5.989,6240.506,0.00016,0.0,0.0
5.995,6237.262,0.00016,0.0,0.0
6.001,6229.782,0.00016,0.0,0.0
6.008,6232.833,0.00016,0.0,0.0
6.014,6218.243,0.00016,0.0,0.0
6.02,6235.2,0.00016,0.0,0.0
6.027,6201.357,0.00016,0.0,0.0
6.033,6237.247,0.00016,0.0,0.0
6.039,6204.97,0.00016,0.0,0.0
6.046,6180.666,0.00016,0.0,0.0
6.052,6208.44,0.00016,0.0,0.0
6.058,6169.802,0.00016,0.0,0.0
6.065,6166.249,0.00016,0.0,0.0
6.071,6176.844,0.00016,0.0,0.0
6.077,6169.912,0.00016,0.0,0.0
6.084,6173.325,0.00016,0.0,0.0
6.09,6151.532,0.00016,0.0,0.0
6.096,6122.322,0.00016,0.0,0.0
6.102,6167.731,0.00016,0.0,0.0
6.109,6152.74,0.00016,0.0,0.0
6.115,6152.736,0.00016,0.0,0.0
6.121,6157.635,0.00016,0.0,0.0
6.128,6144.204,0.00016,0.0,0.0
6.134,6155.371,0.00016,0.0,0.0
6.14,6136.144,0.00016,0.0,0.0
6.147,6154.225,0.00016,0.0,0.0
6.153,6135.345,0.00016,0.0,0.0
6.159,6162.07,0.00016,0.0,0.0
6.166,6113.472,0.00016,0.0,0.0
6.172,6142.38,0.00016,0.0,0.0
6.178,6140.942,0.00016,0.0,0.0
6.185,6139.137,0.00016,0.0,0.0
6.191,6128.993,0.00016,0.0,0.0
6.197,6173.749,0.00016,0.0,0.0
6.204,6121.579,0.00016,0.0,0.0
6.21,6177.853,0.00016,0.0,0.0
6.216,6143.709,0.00016,0.0,0.0
6.223,6198.281,0.00016,0.0,0.0
6.229,6172.795,0.00016,0.0,0.0
6.235,6178.618,0.00016,0.0,0.0
6.242,6186.207,0.00016,0.0,0.0
6.248,6171.554,0.00016,0.0,0.0
6.254,6175.081,0.00016,0.0,0.0
6.26,6172.636,0.00016,0.0,0.0
6.267,6208.42,0.00016,0.0,0.0
6.273,6195.072,0.00016,0.0,0.0
6.279,6213.028,0.00016,0.0,0.0
6.286,6196.42,0.00016,0.0,0.0
6.292,6245.073,0.00016,0.0,0.0
6.298,6240.401,0.00016,0.0,0.0
6.305,6251.414,0.00016,0.0,0.0
6.311,6292.513,0.00016,0.0,0.0
6.317,6276.942,0.00016,0.0,0.0
6.324,6335.843,0.00016,0.0,0.0
6.33,6318.687,0.00016,0.0,0.0
6.336,6325.891,0.00016,0.0,0.0
6.343,6342.741,0.00016,0.0,0.0
6.349,6406.546,0.00016,0.0,0.0
6.355,6393.5,0.00016,0.0,0.0
6.362,6457.57,0.00015,0.0,0.0
6.368,6492.796,0.00015,0.0,0.0
6.374,6505.24,0.00015,0.0,0.0
6.381,6588.299,0.00015,0.0,0.0
6.387,6705.584,0.00015,0.0,0.0
6.393,6643.518,0.00015,0.0,0.0
6.4,7048.83,0.00014,0.0,0.0
6.406,7094.512,0.00014,0.0,0.0
6.412,7562.554,0.00013,0.0,0.0
6.418,8781.597,0.00011,0.0,0.0
6.425,9234.795,0.00011,0.0,0.0
6.431,13816.852,0.00007,0.0,0.0
6.437,18158.097,0.00006,0.0,0.0
6.444,15566.054,0.00006,0.0,0.0
6.45,26286.107,0.00004,0.0,0.0
6.456,19436.939,0.00005,0.0,0.0
6.463,20845.242,0.00005,0.0,0.0
6.469,24508.19,0.00004,0.0,0.0
6.475,11994.075,0.00008,0.0,0.0
6.482,15550.454,0.00006,0.0,0.0
6.488,11123.657,0.00009,0.0,0.0
6.494,7712.246,0.00013,0.0,0.0
6.501,9066.859,0.00011,0.0,0.0
6.507,7366.458,0.00014,0.0,0.0
6.513,7207.951,0.00014,0.0,0.0
6.52,7246.534,0.00014,0.0,0.0
6.526,7029.053,0.00014,0.0,0.0
6.532,7090.238,0.00014,0.0,0.0
6.539,7174.724,0.00014,0.0,0.0
6.545,7308.941,0.00014,0.0,0.0
6.551,7531.268,0.00013,0.0,0.0
6.558,7959.451,0.00013,0.0,0.0
6.564,8560.093,0.00012,0.0,0.0
6.57,9716.588,0.0001,0.0,0.0
6.576,11932.094,0.00008,0.0,0.0
6.583,15384.936,0.00006,0.0,0.0
6.589,23439.057,0.00004,0.0,0.0
6.595,37440.41,0.00003,0.0,0.0
6.602,58739.424,0.00002,0.0,0.0
6.608,86793.794,0.00001,0.0,0.0
6.614,104903.136,0.00001,0.0,0.0
6.621,119626.932,0.00001,0.0,0.0
6.627,96711.318,0.00001,0.0,0.0
6.633,77721.217,0.00001,0.0,0.0
6.64,51526.321,0.00002,0.0,0.0
6.646,31652.545,0.00003,0.0,0.0
6.652,20120.472,0.00005,0.0,0.0
6.659,14658.585,0.00007,0.0,0.0
6.665,10977.417,0.00009,0.0,0.0
6.671,9355.591,0.00011,0.0,0.0
6.678,8233.389,0.00012,0.0,0.0
6.684,7610.88,0.00013,0.0,0.0
6.69,7234.752,0.00014,0.0,0.0
6.697,6939.111,0.00014,0.0,0.0
6.703,6768.716,0.00015,0.0,0.0
6.709,6655.946,0.00015,0.0,0.0
6.716,6557.187,0.00015,0.0,0.0
6.722,6498.898,0.00015,0.0,0.0
6.728,6426.396,0.00016,0.0,0.0
6.734,6364.383,0.00016,0.0,0.0
6.741,6363.767,0.00016,0.0,0.0
6.747,6300.883,0.00016,0.0,0.0
6.753,6300.515,0.00016,0.0,0.0
6.76,6279.561,0.00016,0.0,0.0
6.766,6248.466,0.00016,0.0,0.0
6.772,6248.516,0.00016,0.0,0.0
6.779,6262.132,0.00016,0.0,0.0
6.785,6260.187,0.00016,0.0,0.0
6.791,6206.466,0.00016,0.0,0.0
6.798,6253.901,0.00016,0.0,0.0
6.804,6237.699,0.00016,0.0,0.0
6.81,6255.961,0.00016,0.0,0.0
6.817,6231.761,0.00016,0.0,0.0
6.823,6240.041,0.00016,0.0,0.0
6.829,6206.903,0.00016,0.0,0.0
6.836,6227.289,0.00016,0.0,0.0
6.842,6152.83,0.00016,0.0,0.0
6.848,6159.265,0.00016,0.0,0.0
6.855,6115.902,0.00016,0.0,0.0
6.861,6113.348,0.00016,0.0,0.0
6.867,6113.669,0.00016,0.0,0.0
6.874,6076.301,0.00016,0.0,0.0
6.88,6081.723,0.00016,0.0,0.0
6.886,6074.35,0.00016,0.0,0.0
6.892,6055.427,0.00017,0.0,0.0
6.899,6056.083,0.00017,0.0,0.0
6.905,6062.198,0.00016,0.0,0.0
6.911,6021.417,0.00017,0.0,0.0
6.918,6036.224,0.00017,0.0,0.0
6.924,6020.779,0.00017,0.0,0.0
6.93,6025.044,0.00017,0.0,0.0
6.937,6043.502,0.00017,0.0,0.0
6.943,6020.128,0.00017,0.0,0.0
6.949,6009.075,0.00017,0.0,0.0
6.956,6005.558,0.00017,0.0,0.0
6.962,6002.164,0.00017,0.0,0.0
6.968,6003.044,0.00017,0.0,0.0
6.975,6012.658,0.00017,0.0,0.0
6.981,6004.329,0.00017,0.0,0.0
6.987,6020.859,0.00017,0.0,0.0
6.994,5997.3,0.00017,0.0,0.0
7.0,6005.879,0.00017,0.0,0.0
7.006,5967.335,0.00017,0.0,0.0
7.013,5992.65,0.00017,0.0,0.0
7.019,5966.972,0.00017,0.0,0.0
7.025,5975.439,0.00017,0.0,0.0
7.032,5949.081,0.00017,0.0,0.0
7.038,5951.218,0.00017,0.0,0.0
7.044,5946.076,0.00017,0.0,0.0
7.05,5941.852,0.00017,0.0,0.0
7.057,5951.803,0.00017,0.0,0.0
7.063,5939.169,0.00017,0.0,0.0
7.069,5941.422,0.00017,0.0,0.0
7.076,5929.506,0.00017,0.0,0.0
7.082,5942.686,0.00017,0.0,0.0
7.088,5931.496,0.00017,0.0,0.0
7.095,5931.121,0.00017,0.0,0.0
7.101,5911.307,0.00017,0.0,0.0
7.107,5908.569,0.00017,0.0,0.0
7.114,5905.166,0.00017,0.0,0.0
7.12,5904.948,0.00017,0.0,0.0
7.126,5880.37,0.00017,0.0,0.0
7.133,5884.92,0.00017,0.0,0.0
7.139,5876.007,0.00017,0.0,0.0
7.145,5898.881,0.00017,0.0,0.0
7.152,5867.342,0.00017,0.0,0.0
7.158,5863.434,0.00017,0.0,0.0
7.164,5866.652,0.00017,0.0,0.0
7.171,5846.586,0.00017,0.0,0.0
7.177,5838.132,0.00017,0.0,0.0
7.183,5840.267,0.00017,0.0,0.0
7.19,5842.259,0.00017,0.0,0.0
7.196,5822.814,0.00017,0.0,0.0
7.202,5821.613,0.00017,0.0,0.0
7.208,5806.822,0.00017,0.0,0.0
7.215,5789.718,0.00017,0.0,0.0
7.221,5796.063,0.00017,0.0,0.0
7.227,5799.129,0.00017,0.0,0.0
7.234,5786.076,0.00017,0.0,0.0
7.24,5794.084,0.00017,0.0,0.0
7.246,5790.588,0.00017,0.0,0.0
7.253,5778.549,0.00017,0.0,0.0
7.259,5772.331,0.00017,0.0,0.0
7.265,5789.612,0.00017,0.0,0.0
7.272,5802.041,0.00017,0.0,0.0
7.278,5815.63,0.00017,0.0,0.0
7.284,5824.863,0.00017,0.0,0.0
7.291,5846.138,0.00017,0.0,0.0
7.297,5855.92,0.00017,0.0,0.0
7.303,5851.829,0.00017,0.0,0.0
7.31,5823.664,0.00017,0.0,0.0
7.316,5794.334,0.00017,0.0,0.0
7.322,5777.782,0.00017,0.0,0.0
7.329,5759.847,0.00017,0.0,0.0
7.335,5755.539,0.00017,0.0,0.0
7.341,5735.35,0.00017,0.0,0.0
7.348,5745.075,0.00017,0.0,0.0
7.354,5731.047,0.00017,0.0,0.0
7.36,5729.332,0.00017,0.0,0.0
7.366,5728.619,0.00017,0.0,0.0
7.373,5739.035,0.00017,0.0,0.0
7.379,5720.893,0.00017,0.0,0.0
7.385,5724.286,0.00017,0.0,0.0
7.392,5720.546,0.00017,0.0,0.0
7.398,5735.452,0.00017,0.0,0.0
7.404,5710.692,0.00018,0.0,0.0
7.411,5746.662,0.00017,0.0,0.0
7.417,5749.261,0.00017,0.0,0.0
7.423,5740.805,0.00017,0.0,0.0
7.43,5758.352,0.00017,0.0,0.0
7.436,5754.89,0.00017,0.0,0.0
7.442,5756.097,0.00017,0.0,0.0
7.449,5767.305,0.00017,0.0,0.0
7.455,5775.846,0.00017,0.0,0.0
7.461,5776.695,0.00017,0.0,0.0
7.468,5788.289,0.00017,0.0,0.0
7.474,5785.476,0.00017,0.0,0.0
7.48,5809.545,0.00017,0.0,0.0
7.487,5796.064,0.00017,0.0,0.0
7.493,5833.491,0.00017,0.0,0.0
7.499,5832.75,0.00017,0.0,0.0
7.506,5829.562,0.00017,0.0,0.0
7.512,5888.337,0.00017,0.0,0.0
7.518,5882.016,0.00017,0.0,0.0
7.524,5899.377,0.00017,0.0,0.0
7.531,5924.407,0.00017,0.0,0.0
7.537,5956.411,0.00017,0.0,0.0
7.543,5995.9,0.00017,0.0,0.0
7.55,6051.09,0.00017,0.0,0.0
7.556,6099.53,0.00016,0.0,0.0
7.562,6190.043,0.00016,0.0,0.0
7.569,6328.105,0.00016,0.0,0.0
7.575,6484.268,0.00015,0.0,0.0
7.581,6705.369,0.00015,0.0,0.0
7.588,7104.473,0.00014,0.0,0.0
7.594,7706.459,0.00013,0.0,0.0
7.6,8973.974,0.00011,0.0,0.0
7.607,10651.337,0.00009,0.0,0.0
7.613,14815.511,0.00007,0.0,0.0
7.619,19962.081,0.00005,0.0,0.0
7.626,30467.554,0.00003,0.0,0.0
7.632,39129.363,0.00003,0.0,0.0
7.638,48008.236,0.00002,0.0,0.0
7.645,53910.397,0.00002,0.0,0.0
7.651,48906.465,0.00002,0.0,0.0
7.657,44597.398,0.00002,0.0,0.0
7.664,30829.007,0.00003,0.0,0.0
7.67,22963.8,0.00004,0.0,0.0
7.676,14813.42,0.00007,0.0,0.0
7.682,11678.244,0.00009,0.0,0.0
7.689,9194.606,0.00011,0.0,0.0
7.695,8065.402,0.00012,0.0,0.0
7.701,7412.005,0.00013,0.0,0.0
7.708,6944.657,0.00014,0.0,0.0
7.714,6720.241,0.00015,0.0,0.0
7.72,6574.82,0.00015,0.0,0.0
7.727,6490.69,0.00015,0.0,0.0
7.733,6424.494,0.00016,0.0,0.0
7.739,6348.999,0.00016,0.0,0.0
7.746,6351.918,0.00016,0.0,0.0
7.752,6342.579,0.00016,0.0,0.0
7.758,6333.415,0.00016,0.0,0.0
7.765,6345.977,0.00016,0.0,0.0
7.771,6368.924,0.00016,0.0,0.0
7.777,6365.952,0.00016,0.0,0.0
7.784,6399.303,0.00016,0.0,0.0
7.79,6378.355,0.00016,0.0,0.0
7.796,6406.323,0.00016,0.0,0.0
7.803,6449.034,0.00016,0.0,0.0
7.809,6478.194,0.00015,0.0,0.0
7.815,6526.984,0.00015,0.0,0.0
7.822,6542.103,0.00015,0.0,0.0
7.828,6628.032,0.00015,0.0,0.0
7.834,6629.321,0.00015,0.0,0.0
7.84,6677.413,0.00015,0.0,0.0
7.847,6776.524,0.00015,0.0,0.0
7.853,6835.865,0.00015,0.0,0.0
7.859,6979.415,0.00014,0.0,0.0
7.866,7124.086,0.00014,0.0,0.0
7.872,7548.444,0.00013,0.0,0.0
7.878,7877.232,0.00013,0.0,0.0
7.885,9431.428,0.00011,0.0,0.0
7.891,10041.671,0.0001,0.0,0.0
7.897,13129.159,0.00008,0.0,0.0
7.904,14311.959,0.00007,0.0,0.0
7.91,16379.594,0.00006,0.0,0.0
7.916,16407.241,0.00006,0.0,0.0
7.923,13719.183,0.00007,0.0,0.0
7.929,11382.329,0.00009,0.0,0.0
7.935,9227.017,0.00011,0.0,0.0
7.942,8459.293,0.00012,0.0,0.0
7.948,7707.531,0.00013,0.0,0.0
7.954,7341.579,0.00014,0.0,0.0
7.961,7173.196,0.00014,0.0,0.0
7.967,7023.43,0.00014,0.0,0.0
7.973,6887.428,0.00015,0.0,0.0
7.98,6894.551,0.00015,0.0,0.0
7.986,6803.463,0.00015,0.0,0.0
7.992,6781.789,0.00015,0.0,0.0
7.998,6780.945,0.00015,0.0,0.0
8.005,6713.586,0.00015,0.0,0.0
8.011,6680.056,0.00015,0.0,0.0
8.017,6691.185,0.00015,0.0,0.0
8.024,6661.694,0.00015,0.0,0.0
8.03,6658.047,0.00015,0.0,0.0
8.036,6655.424,0.00015,0.0,0.0
8.043,6621.939,0.00015,0.0,0.0
8.049,6634.825,0.00015,0.0,0.0
8.055,6580.597,0.00015,0.0,0.0
8.062,6622.521,0.00015,0.0,0.0
8.068,6603.046,0.00015,0.0,0.0
8.074,6604.089,0.00015,0.0,0.0
8.081,6592.205,0.00015,0.0,0.0
8.087,6600.484,0.00015,0.0,0.0
8.093,6584.014,0.00015,0.0,0.0
8.1,6580.866,0.00015,0.0,0.0
8.106,6595.059,0.00015,0.0,0.0
8.112,6624.433,0.00015,0.0,0.0
8.119,6669.596,0.00015,0.0,0.0
8.125,6707.753,0.00015,0.0,0.0
8.131,6765.805,0.00015,0.0,0.0
8.138,6793.99,0.00015,0.0,0.0
8.144,6860.119,0.00015,0.0,0.0
8.15,6891.083,0.00015,0.0,0.0
8.156,6829.453,0.00015,0.0,0.0
8.163,6770.371,0.00015,0.0,0.0
8.169,6701.448,0.00015,0.0,0.0
8.175,6635.192,0.00015,0.0,0.0
8.182,6562.465,0.00015,0.0,0.0
8.188,6541.261,0.00015,0.0,0.0
8.194,6528.569,0.00015,0.0,0.0
8.201,6495.945,0.00015,0.0,0.0
8.207,6465.595,0.00015,0.0,0.0
8.213,6478.868,0.00015,0.0,0.0
8.22,6434.349,0.00016,0.0,0.0
8.226,6439.847,0.00016,0.0,0.0
8.232,6433.355,0.00016,0.0,0.0
8.239,6431.23,0.00016,0.0,0.0
8.245,6437.015,0.00016,0.0,0.0
8.251,6390.885,0.00016,0.0,0.0
8.258,6411.245,0.00016,0.0,0.0
8.264,6376.101,0.00016,0.0,0.0
8.27,6399.919,0.00016,0.0,0.0
8.277,6379.659,0.00016,0.0,0.0
8.283,6372.726,0.00016,0.0,0.0
8.289,6356.783,0.00016,0.0,0.0
8.296,6363.053,0.00016,0.0,0.0
8.302,6357.752,0.00016,0.0,0.0
8.308,6350.639,0.00016,0.0,0.0
8.314,6359.342,0.00016,0.0,0.0
8.321,6340.792,0.00016,0.0,0.0
8.327,6358.274,0.00016,0.0,0.0
8.333,6375.561,0.00016,0.0,0.0
8.34,6369.949,0.00016,0.0,0.0
8.346,6383.257,0.00016,0.0,0.0
8.352,6426.55,0.00016,0.0,0.0
8.359,6453.487,0.00015,0.0,0.0
8.365,6524.124,0.00015,0.0,0.0
8.371,6540.865,0.00015,0.0,0.0
8.378,6570.279,0.00015,0.0,0.0
8.384,6541.039,0.00015,0.0,0.0
8.39,6534.953,0.00015,0.0,0.0
8.397,6479.298,0.00015,0.0,0.0
8.403,6421.031,0.00016,0.0,0.0
8.409,6386.716,0.00016,0.0,0.0
8.416,6323.339,0.00016,0.0,0.0
8.422,6304.399,0.00016,0.0,0.0
8.428,6275.002,0.00016,0.0,0.0
8.435,6270.584,0.00016,0.0,0.0
8.441,6256.197,0.00016,0.0,0.0
8.447,6234.5,0.00016,0.0,0.0
8.454,6241.211,0.00016,0.0,0.0
8.46,6219.825,0.00016,0.0,0.0
8.466,6233.911,0.00016,0.0,0.0
8.472,6205.405,0.00016,0.0,0.0
8.479,6213.747,0.00016,0.0,0.0
8.485,6217.636,0.00016,0.0,0.0
8.491,6235.119,0.00016,0.0,0.0
8.498,6227.468,0.00016,0.0,0.0
8.504,6224.948,0.00016,0.0,0.0
8.51,6229.459,0.00016,0.0,0.0
8.517,6208.982,0.00016,0.0,0.0
8.523,6200.111,0.00016,0.0,0.0
8.529,6192.453,0.00016,0.0,0.0
8.536,6181.514,0.00016,0.0,0.0
8.542,6178.048,0.00016,0.0,0.0
8.548,6171.141,0.00016,0.0,0.0
8.555,6166.692,0.00016,0.0,0.0
8.561,6150.884,0.00016,0.0,0.0
8.567,6164.778,0.00016,0.0,0.0
8.574,6143.905,0.00016,0.0,0.0
8.58,6145.393,0.00016,0.0,0.0
8.586,6139.74,0.00016,0.0,0.0
8.593,6142.3,0.00016,0.0,0.0
8.599,6136.364,0.00016,0.0,0.0
8.605,6126.486,0.00016,0.0,0.0
8.612,6141.958,0.00016,0.0,0.0
8.618,6138.209,0.00016,0.0,0.0
8.624,6129.419,0.00016,0.0,0.0
8.63,6141.545,0.00016,0.0,0.0
8.637,6134.015,0.00016,0.0,0.0
8.643,6134.381,0.00016,0.0,0.0
8.649,6124.042,0.00016,0.0,0.0
8.656,6112.151,0.00016,0.0,0.0
8.662,6113.966,0.00016,0.0,0.0
8.668,6122.905,0.00016,0.0,0.0
8.675,6123.911,0.00016,0.0,0.0
8.681,6113.507,0.00016,0.0,0.0
8.687,6121.977,0.00016,0.0,0.0
8.694,6136.161,0.00016,0.0,0.0
8.7,6115.618,0.00016,0.0,0.0
8.706,6119.12,0.00016,0.0,0.0
8.713,6124.823,0.00016,0.0,0.0
8.719,6121.155,0.00016,0.0,0.0
8.725,6125.478,0.00016,0.0,0.0
8.732,6120.407,0.00016,0.0,0.0
8.738,6116.816,0.00016,0.0,0.0
8.744,6104.595,0.00016,0.0,0.0
8.751,6120.401,0.00016,0.0,0.0
8.757,6132.362,0.00016,0.0,0.0
8.763,6114.547,0.00016,0.0,0.0
8.77,6118.519,0.00016,0.0,0.0
8.776,6122.887,0.00016,0.0,0.0
8.782,6133.652,0.00016,0.0,0.0
8.788,6108.896,0.00016,0.0,0.0
8.795,6128.357,0.00016,0.0,0.0
8.801,6121.558,0.00016,0.0,0.0
8.807,6131.164,0.00016,0.0,0.0
8.814,6142.988,0.00016,0.0,0.0
8.82,6131.082,0.00016,0.0,0.0
8.826,6122.355,0.00016,0.0,0.0
8.833,6141.531,0.00016,0.0,0.0
8.839,6154.36,0.00016,0.0,0.0
8.845,6138.533,0.00016,0.0,0.0
8.852,6139.454,0.00016,0.0,0.0
8.858,6146.577,0.00016,0.0,0.0
8.864,6151.436,0.00016,0.0,0.0
8.871,6155.743,0.00016,0.0,0.0
8.877,6132.639,0.00016,0.0,0.0
8.883,6146.627,0.00016,0.0,0.0
8.89,6160.489,0.00016,0.0,0.0
8.896,6164.512,0.00016,0.0,0.0
8.902,6156.88,0.00016,0.0,0.0
8.909,6177.818,0.00016,0.0,0.0
8.915,6183.995,0.00016,0.0,0.0
8.921,6190.129,0.00016,0.0,0.0
8.928,6190.678,0.00016,0.0,0.0
8.934,6177.157,0.00016,0.0,0.0
8.94,6211.937,0.00016,0.0,0.0
8.946,6211.828,0.00016,0.0,0.0
8.953,6204.855,0.00016,0.0,0.0
8.959,6217.3,0.00016,0.0,0.0
8.965,6201.592,0.00016,0.0,0.0
8.972,6223.683,0.00016,0.0,0.0
8.978,6233.437,0.00016,0.0,0.0
8.984,6224.684,0.00016,0.0,0.0
8.991,6252.214,0.00016,0.0,0.0
8.997,6222.274,0.00016,0.0,0.0
9.003,6242.412,0.00016,0.0,0.0
9.01,6264.356,0.00016,0.0,0.0
9.016,6232.321,0.00016,0.0,0.0
9.022,6309.77,0.00016,0.0,0.0
9.029,6280.194,0.00016,0.0,0.0
9.035,6298.634,0.00016,0.0,0.0
9.041,6316.268,0.00016,0.0,0.0
9.048,6299.884,0.00016,0.0,0.0
9.054,6364.477,0.00016,0.0,0.0
9.06,6344.44,0.00016,0.0,0.0
9.067,6331.542,0.00016,0.0,0.0
9.073,6429.122,0.00016,0.0,0.0
9.079,6415.029,0.00016,0.0,0.0
9.086,6462.003,0.00015,0.0,0.0
9.092,6523.401,0.00015,0.0,0.0
9.098,6562.533,0.00015,0.0,0.0
9.104,6841.005,0.00015,0.0,0.0
9.111,6976.247,0.00014,0.0,0.0
9.117,7974.163,0.00013,0.0,0.0
9.123,7970.819,0.00013,0.0,0.0
9.13,9974.392,0.0001,0.0,0.0
9.136,9861.3,0.0001,0.0,0.0
9.142,11098.422,0.00009,0.0,0.0
9.149,12904.296,0.00008,0.0,0.0
9.155,8985.059,0.00011,0.0,0.0
9.161,7572.064,0.00013,0.0,0.0
9.168,9448.098,0.00011,0.0,0.0
9.174,6734.743,0.00015,0.0,0.0
9.18,6756.204,0.00015,0.0,0.0
9.187,6694.229,0.00015,0.0,0.0
9.193,6401.258,0.00016,0.0,0.0
9.199,6441.949,0.00016,0.0,0.0
9.206,6373.756,0.00016,0.0,0.0
9.212,6298.156,0.00016,0.0,0.0
9.218,6328.476,0.00016,0.0,0.0
9.225,6253.445,0.00016,0.0,0.0
9.231,6245.202,0.00016,0.0,0.0
9.237,6267.672,0.00016,0.0,0.0
9.244,6206.57,0.00016,0.0,0.0
9.25,6192.175,0.00016,0.0,0.0
9.256,6171.166,0.00016,0.0,0.0
9.262,6117.836,0.00016,0.0,0.0
9.269,6180.311,0.00016,0.0,0.0
9.275,6120.948,0.00016,0.0,0.0
9.281,6128.016,0.00016,0.0,0.0
9.288,6095.438,0.00016,0.0,0.0
9.294,6095.107,0.00016,0.0,0.0
9.3,6072.39,0.00016,0.0,0.0
9.307,6056.505,0.00017,0.0,0.0
9.313,6012.11,0.00017,0.0,0.0
9.319,6042.211,0.00017,0.0,0.0
9.326,5987.342,0.00017,0.0,0.0
9.332,5993.656,0.00017,0.0,0.0
9.338,6001.983,0.00017,0.0,0.0
9.345,5935.21,0.00017,0.0,0.0
9.351,5967.85,0.00017,0.0,0.0
9.357,5938.031,0.00017,0.0,0.0
9.364,5938.001,0.00017,0.0,0.0
9.37,5911.334,0.00017,0.0,0.0
9.376,5890.577,0.00017,0.0,0.0
9.383,5910.165,0.00017,0.0,0.0
9.389,5874.504,0.00017,0.0,0.0
9.395,5864.56,0.00017,0.0,0.0
9.402,5844.443,0.00017,0.0,0.0
9.408,5859.078,0.00017,0.0,0.0
9.414,5823.115,0.00017,0.0,0.0
9.42,5823.244,0.00017,0.0,0.0
9.427,5821.523,0.00017,0.0,0.0
9.433,5819.674,0.00017,0.0,0.0
9.439,5812.047,0.00017,0.0,0.0
9.446,5796.718,0.00017,0.0,0.0
9.452,5777.236,0.00017,0.0,0.0
9.458,5799.197,0.00017,0.0,0.0
9.465,5787.159,0.00017,0.0,0.0
9.471,5794.23,0.00017,0.0,0.0
9.477,5802.532,0.00017,0.0,0.0
9.484,5825.578,0.00017,0.0,0.0
9.49,5831.619,0.00017,0.0,0.0
9.496,5832.069,0.00017,0.0,0.0
9.503,5813.648,0.00017,0.0,0.0
9.509,5780.13,0.00017,0.0,0.0
9.515,5755.587,0.00017,0.0,0.0
9.522,5733.588,0.00017,0.0,0.0
9.528,5703.958,0.00018,0.0,0.0
9.534,5677.936,0.00018,0.0,0.0
9.541,5666.367,0.00018,0.0,0.0
9.547,5646.668,0.00018,0.0,0.0
9.553,5638.478,0.00018,0.0,0.0
9.56,5609.205,0.00018,0.0,0.0
9.566,5612.284,0.00018,0.0,0.0
9.572,5630.524,0.00018,0.0,0.0
9.578,5605.44,0.00018,0.0,0.0
9.585,5586.771,0.00018,0.0,0.0
9.591,5590.391,0.00018,0.0,0.0
9.597,5589.826,0.00018,0.0,0.0
9.604,5591.398,0.00018,0.0,0.0
9.61,5581.023,0.00018,0.0,0.0
9.616,5563.406,0.00018,0.0,0.0
9.623,5574.665,0.00018,0.0,0.0
9.629,5555.988,0.00018,0.0,0.0
9.635,5544.357,0.00018,0.0,0.0
9.642,5530.165,0.00018,0.0,0.0
9.648,5530.855,0.00018,0.0,0.0
9.654,5545.824,0.00018,0.0,0.0
9.661,5538.537,0.00018,0.0,0.0
9.667,5519.181,0.00018,0.0,0.0
9.673,5523.503,0.00018,0.0,0.0
9.68,5520.903,0.00018,0.0,0.0
9.686,5520.191,0.00018,0.0,0.0
9.692,5516.21,0.00018,0.0,0.0
9.699,5506.522,0.00018,0.0,0.0
9.705,5512.577,0.00018,0.0,0.0
9.711,5508.644,0.00018,0.0,0.0
9.718,5512.4,0.00018,0.0,0.0
9.724,5495.147,0.00018,0.0,0.0
9.73,5482.157,0.00018,0.0,0.0
9.736,5489.531,0.00018,0.0,0.0
9.743,5488.587,0.00018,0.0,0.0
9.749,5495.023,0.00018,0.0,0.0
9.755,5496.871,0.00018,0.0,0.0
9.762,5481.076,0.00018,0.0,0.0
9.768,5486.61,0.00018,0.0,0.0
9.774,5485.608,0.00018,0.0,0.0
9.781,5469.544,0.00018,0.0,0.0
9.787,5492.052,0.00018,0.0,0.0
9.793,5470.016,0.00018,0.0,0.0
9.8,5491.444,0.00018,0.0,0.0
9.806,5469.178,0.00018,0.0,0.0
9.812,5464.291,0.00018,0.0,0.0
9.819,5489.433,0.00018,0.0,0.0
9.825,5467.077,0.00018,0.0,0.0
9.831,5467.814,0.00018,0.0,0.0
9.838,5485.913,0.00018,0.0,0.0
9.844,5468.869,0.00018,0.0,0.0
9.85,5470.868,0.00018,0.0,0.0
9.857,5470.472,0.00018,0.0,0.0
9.863,5458.991,0.00018,0.0,0.0
9.869,5448.624,0.00018,0.0,0.0
9.876,5434.951,0.00018,0.0,0.0
9.882,5450.867,0.00018,0.0,0.0
9.888,5458.263,0.00018,0.0,0.0
9.894,5448.331,0.00018,0.0,0.0
9.901,5467.42,0.00018,0.0,0.0
9.907,5456.244,0.00018,0.0,0.0
9.913,5457.683,0.00018,0.0,0.0
9.92,5463.7,0.00018,0.0,0.0
9.926,5459.939,0.00018,0.0,0.0
9.932,5489.052,0.00018,0.0,0.0
9.939,5443.605,0.00018,0.0,0.0
9.945,5450.223,0.00018,0.0,0.0
9.951,5468.442,0.00018,0.0,0.0
9.958,5463.541,0.00018,0.0,0.0
9.964,5452.365,0.00018,0.0,0.0
9.97,5462.539,0.00018,0.0,0.0
9.977,5458.662,0.00018,0.0,0.0
9.983,5511.173,0.00018,0.0,0.0
9.989,5505.567,0.00018,0.0,0.0
9.996,5488.048,0.00018,0.0,0.0
10.002,5508.597,0.00018,0.0,0.0
10.008,5465.524,0.00018,0.0,0.0
10.015,5524.624,0.00018,0.0,0.0
10.021,5495.424,0.00018,0.0,0.0
10.027,5513.904,0.00018,0.0,0.0
10.034,5518.448,0.00018,0.0,0.0
10.04,5511.775,0.00018,0.0,0.0
10.046,5544.421,0.00018,0.0,0.0
10.052,5529.424,0.00018,0.0,0.0
10.059,5511.506,0.00018,0.0,0.0
10.065,5581.406,0.00018,0.0,0.0
10.071,5573.423,0.00018,0.0,0.0
10.078,5567.397,0.00018,0.0,0.0
10.084,5607.852,0.00018,0.0,0.0
10.09,5561.916,0.00018,0.0,0.0
10.097,5611.394,0.00018,0.0,0.0
10.103,5559.988,0.00018,0.0,0.0
10.109,5635.566,0.00018,0.0,0.0
10.116,5664.412,0.00018,0.0,0.0
10.122,5659.32,0.00018,0.0,0.0
10.128,5693.529,0.00018,0.0,0.0
10.135,5710.985,0.00018,0.0,0.0
10.141,5767.023,0.00017,0.0,0.0
10.147,5771.158,0.00017,0.0,0.0
10.154,5810.784,0.00017,0.0,0.0
10.16,5945.561,0.00017,0.0,0.0
10.166,6240.915,0.00016,0.0,0.0
10.173,6465.529,0.00015,0.0,0.0
10.179,7258.898,0.00014,0.0,0.0
10.185,8827.701,0.00011,0.0,0.0
10.192,9399.744,0.00011,0.0,0.0
10.198,10305.798,0.0001,0.0,0.0
10.204,14736.237,0.00007,0.0,0.0
10.21,15001.265,0.00007,0.0,0.0
10.217,21113.06,0.00005,0.0,0.0
10.223,16128.275,0.00006,0.0,0.0
10.229,13005.003,0.00008,0.0,0.0
10.236,17912.744,0.00006,0.0,0.0
10.242,8698.303,0.00011,0.0,0.0
10.248,9406.394,0.00011,0.0,0.0
10.255,7444.343,0.00013,0.0,0.0
10.261,6419.587,0.00016,0.0,0.0
10.267,6396.231,0.00016,0.0,0.0
10.274,5823.0,0.00017,0.0,0.0
10.28,5896.497,0.00017,0.0,0.0
10.286,5691.239,0.00018,0.0,0.0
10.293,5693.319,0.00018,0.0,0.0
10.299,5643.987,0.00018,0.0,0.0
10.305,5593.191,0.00018,0.0,0.0
10.312,5618.706,0.00018,0.0,0.0
10.318,5562.381,0.00018,0.0,0.0
10.324,5553.024,0.00018,0.0,0.0
10.331,5479.502,0.00018,0.0,0.0
10.337,5460.357,0.00018,0.0,0.0
10.343,5492.955,0.00018,0.0,0.0
10.35,5448.579,0.00018,0.0,0.0
10.356,5468.495,0.00018,0.0,0.0
10.362,5449.181,0.00018,0.0,0.0
10.368,5391.428,0.00019,0.0,0.0
10.375,5456.684,0.00018,0.0,0.0
10.381,5365.991,0.00019,0.0,0.0
10.387,5378.316,0.00019,0.0,0.0
10.394,5395.963,0.00019,0.0,0.0
10.4,5340.464,0.00019,0.0,0.0
10.406,5391.313,0.00019,0.0,0.0
10.413,5327.543,0.00019,0.0,0.0
10.419,5320.473,0.00019,0.0,0.0
10.425,5346.661,0.00019,0.0,0.0
10.432,5316.246,0.00019,0.0,0.0
10.438,5325.761,0.00019,0.0,0.0
10.444,5329.463,0.00019,0.0,0.0
10.451,5281.293,0.00019,0.0,0.0
10.457,5320.932,0.00019,0.0,0.0
10.463,5282.453,0.00019,0.0,0.0
10.47,5270.287,0.00019,0.0,0.0
10.476,5274.578,0.00019,0.0,0.0
10.482,5250.553,0.00019,0.0,0.0
10.489,5289.396,0.00019,0.0,0.0
10.495,5261.989,0.00019,0.0,0.0
10.501,5244.714,0.00019,0.0,0.0
10.508,5275.94,0.00019,0.0,0.0
10.514,5236.56,0.00019,0.0,0.0
10.52,5261.251,0.00019,0.0,0.0
10.526,5216.72,0.00019,0.0,0.0
10.533,5212.069,0.00019,0.0,0.0
10.539,5242.404,0.00019,0.0,0.0
10.545,5214.072,0.00019,0.0,0.0
10.552,5223.118,0.00019,0.0,0.0
10.558,5206.014,0.00019,0.0,0.0
10.564,5182.783,0.00019,0.0,0.0
10.571,5228.732,0.00019,0.0,0.0
10.577,5187.051,0.00019,0.0,0.0
10.583,5200.06,0.00019,0.0,0.0
10.59,5217.451,0.00019,0.0,0.0
10.596,5196.279,0.00019,0.0,0.0
10.602,5210.742,0.00019,0.0,0.0
10.609,5181.777,0.00019,0.0,0.0
10.615,5171.455,0.00019,0.0,0.0
10.621,5198.553,0.00019,0.0,0.0
10.628,5189.375,0.00019,0.0,0.0
10.634,5183.405,0.00019,0.0,0.0
10.64,5196.974,0.00019,0.0,0.0
10.647,5178.531,0.00019,0.0,0.0
10.653,5208.893,0.00019,0.0,0.0
10.659,5202.892,0.00019,0.0,0.0
10.666,5201.755,0.00019,0.0,0.0
10.672,5195.011,0.00019,0.0,0.0
10.678,5195.266,0.00019,0.0,0.0
10.684,5223.838,0.00019,0.0,0.0
10.691,5194.539,0.00019,0.0,0.0
10.697,5207.425,0.00019,0.0,0.0
10.703,5238.757,0.00019,0.0,0.0
10.71,5224.88,0.00019,0.0,0.0
10.716,5246.93,0.00019,0.0,0.0
10.722,5252.836,0.00019,0.0,0.0
10.729,5277.161,0.00019,0.0,0.0
10.735,5332.799,0.00019,0.0,0.0
10.741,5353.613,0.00019,0.0,0.0
10.748,5407.175,0.00018,0.0,0.0
10.754,5514.271,0.00018,0.0,0.0
10.76,5624.88,0.00018,0.0,0.0
10.767,5892.423,0.00017,0.0,0.0
10.773,6230.94,0.00016,0.0,0.0
10.779,7039.708,0.00014,0.0,0.0
10.786,8341.919,0.00012,0.0,0.0
10.792,10493.152,0.0001,0.0,0.0
10.798,15645.707,0.00006,0.0,0.0
10.805,18377.883,0.00005,0.0,0.0
10.811,26974.158,0.00004,0.0,0.0
10.817,31627.74,0.00003,0.0,0.0
10.824,32000.058,0.00003,0.0,0.0
10.83,31094.814,0.00003,0.0,0.0
10.836,25223.398,0.00004,0.0,0.0
10.842,18028.805,0.00006,0.0,0.0
10.849,13501.67,0.00007,0.0,0.0
10.855,9559.99,0.0001,0.0,0.0
10.861,7904.204,0.00013,0.0,0.0
10.868,6765.282,0.00015,0.0,0.0
10.874,6093.916,0.00016,0.0,0.0
10.88,5799.523,0.00017,0.0,0.0
10.887,5554.684,0.00018,0.0,0.0
10.893,5438.08,0.00018,0.0,0.0
10.899,5335.792,0.00019,0.0,0.0
10.906,5295.677,0.00019,0.0,0.0
10.912,5242.02,0.00019,0.0,0.0
10.918,5223.839,0.00019,0.0,0.0
10.925,5189.576,0.00019,0.0,0.0
10.931,5190.423,0.00019,0.0,0.0
10.937,5166.832,0.00019,0.0,0.0
10.944,5145.189,0.00019,0.0,0.0
10.95,5157.023,0.00019,0.0,0.0
10.956,5118.531,0.0002,0.0,0.0
10.963,5120.156,0.0002,0.0,0.0
10.969,5100.755,0.0002,0.0,0.0
10.975,5082.189,0.0002,0.0,0.0
10.982,5074.565,0.0002,0.0,0.0
10.988,5035.765,0.0002,0.0,0.0
10.994,5048.515,0.0002,0.0,0.0
11.0,5025.883,0.0002,0.0,0.0
11.007,5035.828,0.0002,0.0,0.0
11.013,5009.279,0.0002,0.0,0.0
11.019,5008.02,0.0002,0.0,0.0
11.026,4995.797,0.0002,0.0,0.0
11.032,4988.283,0.0002,0.0,0.0
11.038,4980.727,0.0002,0.0,0.0
11.045,4984.433,0.0002,0.0,0.0
11.051,4975.537,0.0002,0.0,0.0
11.057,4962.816,0.0002,0.0,0.0
11.064,4967.793,0.0002,0.0,0.0
11.07,4958.684,0.0002,0.0,0.0
11.076,4960.235,0.0002,0.0,0.0
11.083,4940.242,0.0002,0.0,0.0
11.089,4943.63,0.0002,0.0,0.0
11.095,4930.618,0.0002,0.0,0.0
11.102,4940.718,0.0002,0.0,0.0
11.108,4923.625,0.0002,0.0,0.0
11.114,4929.739,0.0002,0.0,0.0
11.121,4916.064,0.0002,0.0,0.0
11.127,4912.839,0.0002,0.0,0.0
11.133,4905.209,0.0002,0.0,0.0
11.14,4914.397,0.0002,0.0,0.0
11.146,4904.84,0.0002,0.0,0.0
11.152,4888.616,0.0002,0.0,0.0
11.158,4886.202,0.0002,0.0,0.0
11.165,4893.162,0.0002,0.0,0.0
11.171,4902.764,0.0002,0.0,0.0
11.177,4891.859,0.0002,0.0,0.0
11.184,4922.599,0.0002,0.0,0.0
11.19,4916.134,0.0002,0.0,0.0
11.196,4924.738,0.0002,0.0,0.0
11.203,4911.001,0.0002,0.0,0.0
11.209,4963.878,0.0002,0.0,0.0
11.215,4893.925,0.0002,0.0,0.0
11.222,4994.527,0.0002,0.0,0.0
11.228,4887.122,0.0002,0.0,0.0
11.234,4918.977,0.0002,0.0,0.0
11.241,4878.216,0.0002,0.0,0.0
11.247,4868.438,0.00021,0.0,0.0
11.253,4838.115,0.00021,0.0,0.0
11.26,4848.811,0.00021,0.0,0.0
11.266,4852.508,0.00021,0.0,0.0
11.272,4843.509,0.00021,0.0,0.0
11.279,4826.937,0.00021,0.0,0.0
11.285,4839.979,0.00021,0.0,0.0
11.291,4843.487,0.00021,0.0,0.0
11.298,4815.505,0.00021,0.0,0.0
11.304,4833.152,0.00021,0.0,0.0
11.31,4830.108,0.00021,0.0,0.0
11.316,4812.363,0.00021,0.0,0.0
11.323,4823.695,0.00021,0.0,0.0
11.329,4805.866,0.00021,0.0,0.0
11.335,4817.959,0.00021,0.0,0.0
11.342,4818.478,0.00021,0.0,0.0
11.348,4799.157,0.00021,0.0,0.0
11.354,4814.669,0.00021,0.0,0.0
11.361,4801.856,0.00021,0.0,0.0
11.367,4801.499,0.00021,0.0,0.0
11.373,4801.998,0.00021,0.0,0.0
11.38,4805.983,0.00021,0.0,0.0
11.386,4787.829,0.00021,0.0,0.0
11.392,4801.209,0.00021,0.0,0.0
11.399,4792.531,0.00021,0.0,0.0
11.405,4788.777,0.00021,0.0,0.0
11.411,4780.435,0.00021,0.0,0.0
11.418,4785.605,0.00021,0.0,0.0
11.424,4782.08,0.00021,0.0,0.0
11.43,4783.748,0.00021,0.0,0.0
11.437,4777.204,0.00021,0.0,0.0
11.443,4780.629,0.00021,0.0,0.0
11.449,4767.018,0.00021,0.0,0.0
11.456,4784.392,0.00021,0.0,0.0
11.462,4787.7,0.00021,0.0,0.0
11.468,4792.216,0.00021,0.0,0.0
11.474,4774.899,0.00021,0.0,0.0
11.481,4784.308,0.00021,0.0,0.0
11.487,4779.165,0.00021,0.0,0.0
11.493,4779.308,0.00021,0.0,0.0
11.5,4772.923,0.00021,0.0,0.0
11.506,4791.01,0.00021,0.0,0.0
11.512,4806.793,0.00021,0.0,0.0
11.519,4826.341,0.00021,0.0,0.0
11.525,4844.132,0.00021,0.0,0.0
11.531,4831.92,0.00021,0.0,0.0
11.538,4847.133,0.00021,0.0,0.0
11.544,4820.4,0.00021,0.0,0.0
11.55,4819.22,0.00021,0.0,0.0
11.557,4798.85,0.00021,0.0,0.0
11.563,4784.044,0.00021,0.0,0.0
11.569,4780.649,0.00021,0.0,0.0
11.576,4773.39,0.00021,0.0,0.0
11.582,4765.516,0.00021,0.0,0.0
11.588,4757.783,0.00021,0.0,0.0
11.595,4757.633,0.00021,0.0,0.0
11.601,4765.426,0.00021,0.0,0.0
11.607,4763.408,0.00021,0.0,0.0
11.614,4748.236,0.00021,0.0,0.0
11.62,4749.499,0.00021,0.0,0.0
11.626,4756.797,0.00021,0.0,0.0
11.632,4754.458,0.00021,0.0,0.0
11.639,4749.485,0.00021,0.0,0.0
11.645,4741.331,0.00021,0.0,0.0
11.651,4742.676,0.00021,0.0,0.0
11.658,4743.318,0.00021,0.0,0.0
11.664,4750.51,0.00021,0.0,0.0
11.67,4746.282,0.00021,0.0,0.0
11.677,4743.542,0.00021,0.0,0.0
11.683,4747.562,0.00021,0.0,0.0
11.689,4751.581,0.00021,0.0,0.0
11.696,4746.916,0.00021,0.0,0.0
11.702,4738.115,0.00021,0.0,0.0
11.708,4749.338,0.00021,0.0,0.0
11.715,4747.619,0.00021,0.0,0.0
11.721,4724.344,0.00021,0.0,0.0
11.727,4733.587,0.00021,0.0,0.0
11.734,4746.974,0.00021,0.0,0.0
11.74,4730.176,0.00021,0.0,0.0
11.746,4730.833,0.00021,0.0,0.0
11.753,4730.101,0.00021,0.0,0.0
11.759,4733.502,0.00021,0.0,0.0
11.765,4739.723,0.00021,0.0,0.0
11.772,4731.806,0.00021,0.0,0.0
11.778,4725.545,0.00021,0.0,0.0
11.784,4733.833,0.00021,0.0,0.0
11.79,4729.958,0.00021,0.0,0.0
11.797,4736.652,0.00021,0.0,0.0
11.803,4734.139,0.00021,0.0,0.0
11.809,4729.875,0.00021,0.0,0.0
11.816,4721.739,0.00021,0.0,0.0
11.822,4743.731,0.00021,0.0,0.0
11.828,4730.476,0.00021,0.0,0.0
11.835,4729.437,0.00021,0.0,0.0
11.841,4723.843,0.00021,0.0,0.0
11.847,4714.749,0.00021,0.0,0.0
11.854,4712.666,0.00021,0.0,0.0
11.86,4713.634,0.00021,0.0,0.0
11.866,4714.754,0.00021,0.0,0.0
11.873,4708.228,0.00021,0.0,0.0
11.879,4713.972,0.00021,0.0,0.0
11.885,4711.068,0.00021,0.0,0.0
11.892,4723.552,0.00021,0.0,0.0
11.898,4706.069,0.00021,0.0,0.0
11.904,4713.94,0.00021,0.0,0.0
11.911,4710.979,0.00021,0.0,0.0
11.917,4707.267,0.00021,0.0,0.0
11.923,4740.346,0.00021,0.0,0.0
11.93,4722.486,0.00021,0.0,0.0
11.936,4707.392,0.00021,0.0,0.0
11.942,4718.873,0.00021,0.0,0.0
11.948,4725.232,0.00021,0.0,0.0
11.955,4728.746,0.00021,0.0,0.0
11.961,4724.394,0.00021,0.0,0.0
11.967,4731.894,0.00021,0.0,0.0
11.974,4722.13,0.00021,0.0,0.0
11.98,4721.969,0.00021,0.0,0.0
11.986,4732.938,0.00021,0.0,0.0
11.993,4722.952,0.00021,0.0,0.0
11.999,4733.321,0.00021,0.0,0.0
12.005,4749.912,0.00021,0.0,0.0
12.012,4747.088,0.00021,0.0,0.0
12.018,4752.439,0.00021,0.0,0.0
12.024,4755.827,0.00021,0.0,0.0
12.031,4756.226,0.00021,0.0,0.0
12.037,4833.022,0.00021,0.0,0.0
12.043,4783.601,0.00021,0.0,0.0
12.05,4971.938,0.0002,0.0,0.0
12.056,4858.433,0.00021,0.0,0.0
12.062,4885.208,0.0002,0.0,0.0
12.069,5762.39,0.00017,0.0,0.0
12.075,5158.959,0.00019,0.0,0.0
12.081,8406.116,0.00012,0.0,0.0
12.088,6017.346,0.00017,0.0,0.0
12.094,6814.959,0.00015,0.0,0.0
12.1,10517.551,0.0001,0.0,0.0
12.106,6601.209,0.00015,0.0,0.0
12.113,7743.712,0.00013,0.0,0.0
12.119,5542.095,0.00018,0.0,0.0
12.125,5395.749,0.00019,0.0,0.0
12.132,5267.643,0.00019,0.0,0.0
12.138,4938.507,0.0002,0.0,0.0
12.144,4846.749,0.00021,0.0,0.0
12.151,4837.045,0.00021,0.0,0.0
12.157,4749.026,0.00021,0.0,0.0
12.163,4754.03,0.00021,0.0,0.0
12.17,4723.826,0.00021,0.0,0.0
12.176,4707.35,0.00021,0.0,0.0
12.182,4700.652,0.00021,0.0,0.0
12.189,4703.138,0.00021,0.0,0.0
12.195,4674.297,0.00021,0.0,0.0
12.201,4665.085,0.00021,0.0,0.0
12.208,4663.404,0.00021,0.0,0.0
12.214,4654.144,0.00021,0.0,0.0
12.22,4650.354,0.00022,0.0,0.0
12.227,4621.856,0.00022,0.0,0.0
12.233,4628.5,0.00022,0.0,0.0
12.239,4621.601,0.00022,0.0,0.0
12.246,4612.446,0.00022,0.0,0.0
12.252,4619.339,0.00022,0.0,0.0
12.258,4603.075,0.00022,0.0,0.0
12.264,4608.178,0.00022,0.0,0.0
12.271,4602.928,0.00022,0.0,0.0
12.277,4577.018,0.00022,0.0,0.0
12.283,4578.457,0.00022,0.0,0.0
12.29,4575.954,0.00022,0.0,0.0
12.296,4577.493,0.00022,0.0,0.0
12.302,4572.462,0.00022,0.0,0.0
12.309,4563.228,0.00022,0.0,0.0
12.315,4553.96,0.00022,0.0,0.0
12.321,4550.911,0.00022,0.0,0.0
12.328,4552.236,0.00022,0.0,0.0
12.334,4555.145,0.00022,0.0,0.0
12.34,4541.023,0.00022,0.0,0.0
12.347,4542.635,0.00022,0.0,0.0
12.353,4547.672,0.00022,0.0,0.0
12.359,4533.564,0.00022,0.0,0.0
12.366,4532.47,0.00022,0.0,0.0
12.372,4537.269,0.00022,0.0,0.0
12.378,4540.802,0.00022,0.0,0.0
12.385,4531.941,0.00022,0.0,0.0
12.391,4535.772,0.00022,0.0,0.0
12.397,4537.81,0.00022,0.0,0.0
12.404,4521.443,0.00022,0.0,0.0
12.41,4513.232,0.00022,0.0,0.0
12.416,4514.858,0.00022,0.0,0.0
12.422,4520.327,0.00022,0.0,0.0
12.429,4509.742,0.00022,0.0,0.0
12.435,4514.474,0.00022,0.0,0.0
12.441,4513.453,0.00022,0.0,0.0
12.448,4511.046,0.00022,0.0,0.0
12.454,4517.323,0.00022,0.0,0.0
12.46,4505.171,0.00022,0.0,0.0
12.467,4513.6,0.00022,0.0,0.0
12.473,4505.017,0.00022,0.0,0.0
12.479,4515.193,0.00022,0.0,0.0
12.486,4510.826,0.00022,0.0,0.0
12.492,4512.959,0.00022,0.0,0.0
12.498,4527.42,0.00022,0.0,0.0
12.505,4522.274,0.00022,0.0,0.0
12.511,4544.369,0.00022,0.0,0.0
12.517,4544.358,0.00022,0.0,0.0
12.524,4552.953,0.00022,0.0,0.0
12.53,4561.34,0.00022,0.0,0.0
12.536,4541.734,0.00022,0.0,0.0
12.543,4541.555,0.00022,0.0,0.0
12.549,4535.535,0.00022,0.0,0.0
12.555,4536.316,0.00022,0.0,0.0
12.562,4528.165,0.00022,0.0,0.0
12.568,4519.611,0.00022,0.0,0.0
12.574,4554.797,0.00022,0.0,0.0
12.58,4549.435,0.00022,0.0,0.0
12.587,4563.248,0.00022,0.0,0.0
12.593,4584.784,0.00022,0.0,0.0
12.599,4610.543,0.00022,0.0,0.0
12.606,4640.53,0.00022,0.0,0.0
12.612,4658.418,0.00021,0.0,0.0
12.618,4728.571,0.00021,0.0,0.0
12.625,4815.559,0.00021,0.0,0.0
12.631,4956.407,0.0002,0.0,0.0
12.637,5138.965,0.00019,0.0,0.0
12.644,5434.393,0.00018,0.0,0.0
12.65,5978.261,0.00017,0.0,0.0
12.656,6874.703,0.00015,0.0,0.0
12.663,8643.48,0.00012,0.0,0.0
12.669,11422.709,0.00009,0.0,0.0
12.675,16168.542,0.00006,0.0,0.0
12.682,22617.481,0.00004,0.0,0.0
12.688,29298.794,0.00003,0.0,0.0
12.694,35056.035,0.00003,0.0,0.0
12.701,33616.848,0.00003,0.0,0.0
12.707,31993.862,0.00003,0.0,0.0
12.713,24704.969,0.00004,0.0,0.0
12.72,17918.244,0.00006,0.0,0.0
12.726,12824.982,0.00008,0.0,0.0
12.732,9093.032,0.00011,0.0,0.0
12.738,7191.358,0.00014,0.0,0.0
12.745,6164.778,0.00016,0.0,0.0
12.751,5518.818,0.00018,0.0,0.0
12.757,5129.963,0.00019,0.0,0.0
12.764,4911.14,0.0002,0.0,0.0
12.77,4774.749,0.00021,0.0,0.0
12.776,4686.144,0.00021,0.0,0.0
12.783,4630.944,0.00022,0.0,0.0
12.789,4560.242,0.00022,0.0,0.0
12.795,4529.948,0.00022,0.0,0.0
12.802,4500.259,0.00022,0.0,0.0
12.808,4472.858,0.00022,0.0,0.0
12.814,4469.993,0.00022,0.0,0.0
12.821,4445.184,0.00022,0.0,0.0
12.827,4435.017,0.00023,0.0,0.0
12.833,4436.07,0.00023,0.0,0.0
12.84,4422.759,0.00023,0.0,0.0
12.846,4404.407,0.00023,0.0,0.0
12.852,4398.246,0.00023,0.0,0.0
12.859,4402.32,0.00023,0.0,0.0
12.865,4390.448,0.00023,0.0,0.0
12.871,4384.131,0.00023,0.0,0.0
12.878,4377.037,0.00023,0.0,0.0
12.884,4381.757,0.00023,0.0,0.0
12.89,4373.423,0.00023,0.0,0.0
12.896,4384.348,0.00023,0.0,0.0
12.903,4391.263,0.00023,0.0,0.0
12.909,4407.59,0.00023,0.0,0.0
12.915,4446.91,0.00022,0.0,0.0
12.922,4453.232,0.00022,0.0,0.0
12.928,4601.407,0.00022,0.0,0.0
12.934,4718.309,0.00021,0.0,0.0
12.941,4646.086,0.00022,0.0,0.0
12.947,4796.005,0.00021,0.0,0.0
12.953,4581.796,0.00022,0.0,0.0
12.96,4569.261,0.00022,0.0,0.0
12.966,4487.353,0.00022,0.0,0.0
12.972,4428.232,0.00023,0.0,0.0
12.979,4386.341,0.00023,0.0,0.0
12.985,4360.087,0.00023,0.0,0.0
12.991,4322.289,0.00023,0.0,0.0
12.998,4312.317,0.00023,0.0,0.0
13.004,4295.372,0.00023,0.0,0.0
13.01,4293.015,0.00023,0.0,0.0
13.017,4286.853,0.00023,0.0,0.0
13.023,4281.982,0.00023,0.0,0.0
13.029,4267.648,0.00023,0.0,0.0
13.036,4271.653,0.00023,0.0,0.0
13.042,4263.921,0.00023,0.0,0.0
13.048,4260.831,0.00023,0.0,0.0
13.054,4257.388,0.00023,0.0,0.0
13.061,4258.558,0.00023,0.0,0.0
13.067,4252.491,0.00024,0.0,0.0
13.073,4257.005,0.00023,0.0,0.0
13.08,4249.953,0.00024,0.0,0.0
13.086,4243.554,0.00024,0.0,0.0
13.092,4234.061,0.00024,0.0,0.0
13.099,4236.483,0.00024,0.0,0.0
13.105,4239.632,0.00024,0.0,0.0
13.111,4236.893,0.00024,0.0,0.0
13.118,4242.542,0.00024,0.0,0.0
13.124,4232.42,0.00024,0.0,0.0
13.13,4229.607,0.00024,0.0,0.0
13.137,4232.6,0.00024,0.0,0.0
13.143,4234.954,0.00024,0.0,0.0
13.149,4223.75,0.00024,0.0,0.0
13.156,4240.373,0.00024,0.0,0.0
13.162,4232.854,0.00024,0.0,0.0
13.168,4241.785,0.00024,0.0,0.0
13.175,4235.328,0.00024,0.0,0.0
13.181,4240.319,0.00024,0.0,0.0
13.187,4264.335,0.00023,0.0,0.0
13.194,4280.241,0.00023,0.0,0.0
13.2,4306.018,0.00023,0.0,0.0
13.206,4360.942,0.00023,0.0,0.0
13.212,4420.501,0.00023,0.0,0.0
13.219,4567.32,0.00022,0.0,0.0
13.225,4789.93,0.00021,0.0,0.0
13.231,5196.567,0.00019,0.0,0.0
13.238,6098.778,0.00016,0.0,0.0
13.244,7220.687,0.00014,0.0,0.0
13.25,8980.324,0.00011,0.0,0.0
13.257,10642.758,0.00009,0.0,0.0
13.263,12253.433,0.00008,0.0,0.0
13.269,12949.034,0.00008,0.0,0.0
13.276,11216.109,0.00009,0.0,0.0
13.282,10203.345,0.0001,0.0,0.0
13.288,7868.923,0.00013,0.0,0.0
13.295,6438.643,0.00016,0.0,0.0
13.301,5542.878,0.00018,0.0,0.0
13.307,4867.411,0.00021,0.0,0.0
13.314,4587.94,0.00022,0.0,0.0
13.32,4414.675,0.00023,0.0,0.0
13.326,4315.489,0.00023,0.0,0.0
13.333,4258.537,0.00023,0.0,0.0
13.339,4215.86,0.00024,0.0,0.0
13.345,4192.629,0.00024,0.0,0.0
13.352,4172.244,0.00024,0.0,0.0
13.358,4148.956,0.00024,0.0,0.0
13.364,4143.144,0.00024,0.0,0.0
13.37,4133.497,0.00024,0.0,0.0
13.377,4106.768,0.00024,0.0,0.0
13.383,4121.869,0.00024,0.0,0.0
13.389,4108.999,0.00024,0.0,0.0
13.396,4081.837,0.00024,0.0,0.0
13.402,4104.255,0.00024,0.0,0.0
13.408,4099.517,0.00024,0.0,0.0
13.415,4092.977,0.00024,0.0,0.0
13.421,4085.691,0.00024,0.0,0.0
13.427,4072.538,0.00025,0.0,0.0
13.434,4069.003,0.00025,0.0,0.0
13.44,4071.639,0.00025,0.0,0.0
13.446,4062.292,0.00025,0.0,0.0
13.453,4077.66,0.00025,0.0,0.0
13.459,4054.491,0.00025,0.0,0.0
13.465,4064.28,0.00025,0.0,0.0
13.472,4056.853,0.00025,0.0,0.0
13.478,4053.621,0.00025,0.0,0.0
13.484,4043.769,0.00025,0.0,0.0
13.491,4028.192,0.00025,0.0,0.0
13.497,4042.886,0.00025,0.0,0.0
13.503,4027.338,0.00025,0.0,0.0
13.51,4028.464,0.00025,0.0,0.0
13.516,4020.51,0.00025,0.0,0.0
13.522,4018.597,0.00025,0.0,0.0
13.528,4041.658,0.00025,0.0,0.0
13.535,4023.981,0.00025,0.0,0.0
13.541,4020.057,0.00025,0.0,0.0
13.547,4034.736,0.00025,0.0,0.0
13.554,4012.987,0.00025,0.0,0.0
13.56,4020.516,0.00025,0.0,0.0
13.566,4012.197,0.00025,0.0,0.0
13.573,4002.649,0.00025,0.0,0.0
13.579,4006.186,0.00025,0.0,0.0
13.585,3999.512,0.00025,0.0,0.0
13.592,3996.407,0.00025,0.0,0.0
13.598,4010.363,0.00025,0.0,0.0
13.604,3998.269,0.00025,0.0,0.0
13.611,4005.959,0.00025,0.0,0.0
13.617,3987.946,0.00025,0.0,0.0
13.623,4002.394,0.00025,0.0,0.0
13.63,3990.72,0.00025,0.0,0.0
13.636,3995.098,0.00025,0.0,0.0
13.642,3997.457,0.00025,0.0,0.0
13.649,3997.822,0.00025,0.0,0.0
13.655,4004.393,0.00025,0.0,0.0
13.661,4009.504,0.00025,0.0,0.0
13.668,4018.779,0.00025,0.0,0.0
13.674,4007.564,0.00025,0.0,0.0
13.68,4015.227,0.00025,0.0,0.0
13.686,4040.088,0.00025,0.0,0.0
13.693,4051.863,0.00025,0.0,0.0
13.699,4113.848,0.00024,0.0,0.0
13.705,4204.53,0.00024,0.0,0.0
13.712,4402.334,0.00023,0.0,0.0
13.718,4384.517,0.00023,0.0,0.0
13.724,4910.255,0.0002,0.0,0.0
13.731,4435.304,0.00023,0.0,0.0
13.737,4377.111,0.00023,0.0,0.0
13.743,4479.301,0.00022,0.0,0.0
13.75,4244.441,0.00024,0.0,0.0
13.756,4113.161,0.00024,0.0,0.0
13.762,4077.114,0.00025,0.0,0.0
13.769,4017.936,0.00025,0.0,0.0
13.775,3972.666,0.00025,0.0,0.0
13.781,3959.781,0.00025,0.0,0.0
13.788,3951.213,0.00025,0.0,0.0
13.794,3934.339,0.00025,0.0,0.0
13.8,3933.694,0.00025,0.0,0.0
13.807,3927.502,0.00025,0.0,0.0
13.813,3925.747,0.00025,0.0,0.0
13.819,3916.573,0.00026,0.0,0.0
13.826,3912.699,0.00026,0.0,0.0
13.832,3902.662,0.00026,0.0,0.0
13.838,3907.549,0.00026,0.0,0.0
13.844,3902.25,0.00026,0.0,0.0
13.851,3903.101,0.00026,0.0,0.0
13.857,3896.424,0.00026,0.0,0.0
13.863,3889.225,0.00026,0.0,0.0
13.87,3888.628,0.00026,0.0,0.0
13.876,3889.239,0.00026,0.0,0.0
13.882,3878.503,0.00026,0.0,0.0
13.889,3874.28,0.00026,0.0,0.0
13.895,3878.063,0.00026,0.0,0.0
13.901,3861.833,0.00026,0.0,0.0
13.908,3874.564,0.00026,0.0,0.0
13.914,3867.628,0.00026,0.0,0.0
13.92,3852.755,0.00026,0.0,0.0
13.927,3855.72,0.00026,0.0,0.0
13.933,3849.239,0.00026,0.0,0.0
13.939,3855.539,0.00026,0.0,0.0
13.946,3840.305,0.00026,0.0,0.0
13.952,3839.062,0.00026,0.0,0.0
13.958,3837.015,0.00026,0.0,0.0
13.965,3832.992,0.00026,0.0,0.0
13.971,3834.27,0.00026,0.0,0.0
13.977,3823.122,0.00026,0.0,0.0
13.984,3825.009,0.00026,0.0,0.0
13.99,3829.33,0.00026,0.0,0.0
13.996,3825.376,0.00026,0.0,0.0
14.002,3822.627,0.00026,0.0,0.0
14.009,3809.936,0.00026,0.0,0.0
14.015,3810.068,0.00026,0.0,0.0
14.021,3807.379,0.00026,0.0,0.0
14.028,3796.509,0.00026,0.0,0.0
14.034,3806.093,0.00026,0.0,0.0
14.04,3799.927,0.00026,0.0,0.0
14.047,3797.831,0.00026,0.0,0.0
14.053,3793.28,0.00026,0.0,0.0
14.059,3792.31,0.00026,0.0,0.0
14.066,3793.656,0.00026,0.0,0.0
14.072,3786.099,0.00026,0.0,0.0
14.078,3787.517,0.00026,0.0,0.0
14.085,3781.509,0.00026,0.0,0.0
14.091,3773.965,0.00026,0.0,0.0
14.097,3779.27,0.00026,0.0,0.0
14.104,3776.892,0.00026,0.0,0.0
14.11,3771.136,0.00027,0.0,0.0
14.116,3754.824,0.00027,0.0,0.0
14.123,3766.818,0.00027,0.0,0.0
14.129,3753.556,0.00027,0.0,0.0
14.135,3758.021,0.00027,0.0,0.0
14.142,3764.86,0.00027,0.0,0.0
14.148,3754.565,0.00027,0.0,0.0
14.154,3744.651,0.00027,0.0,0.0
14.16,3738.975,0.00027,0.0,0.0
14.167,3754.903,0.00027,0.0,0.0
14.173,3741.017,0.00027,0.0,0.0
14.179,3744.952,0.00027,0.0,0.0
14.186,3744.174,0.00027,0.0,0.0
14.192,3741.396,0.00027,0.0,0.0
14.198,3738.738,0.00027,0.0,0.0
14.205,3731.992,0.00027,0.0,0.0
14.211,3755.263,0.00027,0.0,0.0
14.217,3723.132,0.00027,0.0,0.0
14.224,3741.641,0.00027,0.0,0.0
14.23,3712.604,0.00027,0.0,0.0
14.236,3736.072,0.00027,0.0,0.0
14.243,3729.991,0.00027,0.0,0.0
14.249,3733.864,0.00027,0.0,0.0
14.255,3745.232,0.00027,0.0,0.0
14.262,3748.767,0.00027,0.0,0.0
14.268,3756.125,0.00027,0.0,0.0
14.274,3749.758,0.00027,0.0,0.0
14.281,3737.71,0.00027,0.0,0.0
14.287,3738.402,0.00027,0.0,0.0
14.293,3731.846,0.00027,0.0,0.0
14.3,3731.277,0.00027,0.0,0.0
14.306,3722.992,0.00027,0.0,0.0
14.312,3714.998,0.00027,0.0,0.0
14.318,3718.299,0.00027,0.0,0.0
14.325,3699.23,0.00027,0.0,0.0
14.331,3688.441,0.00027,0.0,0.0
14.337,3698.645,0.00027,0.0,0.0
14.344,3690.382,0.00027,0.0,0.0
14.35,3696.982,0.00027,0.0,0.0
14.356,3673.535,0.00027,0.0,0.0
14.363,3676.685,0.00027,0.0,0.0
14.369,3695.051,0.00027,0.0,0.0
14.375,3673.022,0.00027,0.0,0.0
14.382,3681.871,0.00027,0.0,0.0
14.388,3683.255,0.00027,0.0,0.0
14.394,3669.182,0.00027,0.0,0.0
14.401,3672.172,0.00027,0.0,0.0
14.407,3668.377,0.00027,0.0,0.0
14.413,3658.143,0.00027,0.0,0.0
14.42,3661.239,0.00027,0.0,0.0
14.426,3668.137,0.00027,0.0,0.0
14.432,3651.275,0.00027,0.0,0.0
14.439,3661.535,0.00027,0.0,0.0
14.445,3685.359,0.00027,0.0,0.0
14.451,3690.064,0.00027,0.0,0.0
14.458,3711.77,0.00027,0.0,0.0
14.464,3746.491,0.00027,0.0,0.0
14.47,3746.708,0.00027,0.0,0.0
14.476,3748.837,0.00027,0.0,0.0
14.483,3722.702,0.00027,0.0,0.0
14.489,3684.597,0.00027,0.0,0.0
14.495,3672.135,0.00027,0.0,0.0
14.502,3646.395,0.00027,0.0,0.0
14.508,3649.974,0.00027,0.0,0.0
14.514,3628.666,0.00028,0.0,0.0
14.521,3628.171,0.00028,0.0,0.0
14.527,3622.731,0.00028,0.0,0.0
14.533,3617.538,0.00028,0.0,0.0
14.54,3613.459,0.00028,0.0,0.0
14.546,3599.863,0.00028,0.0,0.0
14.552,3602.094,0.00028,0.0,0.0
14.559,3606.083,0.00028,0.0,0.0
14.565,3607.2,0.00028,0.0,0.0
14.571,3610.742,0.00028,0.0,0.0
14.578,3601.063,0.00028,0.0,0.0
14.584,3609.79,0.00028,0.0,0.0
14.59,3608.449,0.00028,0.0,0.0
14.597,3592.734,0.00028,0.0,0.0
14.603,3604.263,0.00028,0.0,0.0
14.609,3595.307,0.00028,0.0,0.0
14.616,3594.621,0.00028,0.0,0.0
14.622,3585.626,0.00028,0.0,0.0
14.628,3578.233,0.00028,0.0,0.0
14.634,3589.864,0.00028,0.0,0.0
14.641,3570.319,0.00028,0.0,0.0
14.647,3582.665,0.00028,0.0,0.0
14.653,3575.27,0.00028,0.0,0.0
14.66,3582.318,0.00028,0.0,0.0
14.666,3576.724,0.00028,0.0,0.0
14.672,3569.801,0.00028,0.0,0.0
14.679,3576.995,0.00028,0.0,0.0
14.685,3560.641,0.00028,0.0,0.0
14.691,3562.683,0.00028,0.0,0.0
14.698,3561.784,0.00028,0.0,0.0
14.704,3560.957,0.00028,0.0,0.0
14.71,3559.297,0.00028,0.0,0.0
14.717,3553.399,0.00028,0.0,0.0
14.723,3552.86,0.00028,0.0,0.0
14.729,3536.844,0.00028,0.0,0.0
14.736,3541.317,0.00028,0.0,0.0
14.742,3542.224,0.00028,0.0,0.0
14.748,3549.929,0.00028,0.0,0.0
14.755,3538.967,0.00028,0.0,0.0
14.761,3529.999,0.00028,0.0,0.0
14.767,3541.833,0.00028,0.0,0.0
14.774,3539.573,0.00028,0.0,0.0
14.78,3534.452,0.00028,0.0,0.0
14.786,3532.978,0.00028,0.0,0.0
14.792,3522.212,0.00028,0.0,0.0
14.799,3530.842,0.00028,0.0,0.0
14.805,3513.738,0.00028,0.0,0.0
14.811,3516.284,0.00028,0.0,0.0
14.818,3526.742,0.00028,0.0,0.0
14.824,3530.444,0.00028,0.0,0.0
14.83,3517.71,0.00028,0.0,0.0
14.837,3514.56,0.00028,0.0,0.0
14.843,3517.083,0.00028,0.0,0.0
14.849,3508.574,0.00029,0.0,0.0
14.856,3505.167,0.00029,0.0,0.0
14.862,3505.762,0.00029,0.0,0.0
14.868,3503.828,0.00029,0.0,0.0
14.875,3505.213,0.00029,0.0,0.0
14.881,3507.291,0.00029,0.0,0.0
14.887,3495.899,0.00029,0.0,0.0
14.894,3493.442,0.00029,0.0,0.0
14.9,3494.375,0.00029,0.0,0.0
14.906,3493.536,0.00029,0.0,0.0
14.913,3497.211,0.00029,0.0,0.0
14.919,3495.875,0.00029,0.0,0.0
14.925,3484.584,0.00029,0.0,0.0
14.932,3482.237,0.00029,0.0,0.0
14.938,3487.691,0.00029,0.0,0.0
14.944,3481.755,0.00029,0.0,0.0
14.95,3480.098,0.00029,0.0,0.0
14.957,3485.957,0.00029,0.0,0.0
14.963,3473.53,0.00029,0.0,0.0
14.969,3474.808,0.00029,0.0,0.0
14.976,3469.316,0.00029,0.0,0.0
14.982,3465.956,0.00029,0.0,0.0
14.988,3469.97,0.00029,0.0,0.0
14.995,3479.758,0.00029,0.0,0.0
15.001,3467.048,0.00029,0.0,0.0
15.007,3466.002,0.00029,0.0,0.0
15.014,3474.364,0.00029,0.0,0.0
15.02,3459.641,0.00029,0.0,0.0
15.026,3473.104,0.00029,0.0,0.0
15.033,3473.317,0.00029,0.0,0.0
15.039,3459.944,0.00029,0.0,0.0
15.045,3471.426,0.00029,0.0,0.0
15.052,3458.956,0.00029,0.0,0.0
15.058,3454.971,0.00029,0.0,0.0
15.064,3450.8,0.00029,0.0,0.0
15.071,3454.517,0.00029,0.0,0.0
15.077,3448.11,0.00029,0.0,0.0
15.083,3439.922,0.00029,0.0,0.0
15.09,3447.604,0.00029,0.0,0.0
15.096,3459.254,0.00029,0.0,0.0
15.102,3439.913,0.00029,0.0,0.0
15.108,3448.356,0.00029,0.0,0.0
15.115,3431.052,0.00029,0.0,0.0
15.121,3449.7,0.00029,0.0,0.0
15.127,3445.686,0.00029,0.0,0.0
15.134,3426.477,0.00029,0.0,0.0
15.14,3431.563,0.00029,0.0,0.0
15.146,3435.137,0.00029,0.0,0.0
15.153,3443.9,0.00029,0.0,0.0
15.159,3436.48,0.00029,0.0,0.0
15.165,3446.702,0.00029,0.0,0.0
15.172,3444.65,0.00029,0.0,0.0
15.178,3462.597,0.00029,0.0,0.0
15.184,3462.255,0.00029,0.0,0.0
15.191,3454.54,0.00029,0.0,0.0
15.197,3459.975,0.00029,0.0,0.0
15.203,3448.445,0.00029,0.0,0.0
15.21,3447.001,0.00029,0.0,0.0
15.216,3440.927,0.00029,0.0,0.0
15.222,3436.784,0.00029,0.0,0.0
15.229,3447.781,0.00029,0.0,0.0
15.235,3446.605,0.00029,0.0,0.0
15.241,3435.37,0.00029,0.0,0.0
15.248,3437.914,0.00029,0.0,0.0
15.254,3455.773,0.00029,0.0,0.0
15.26,3470.754,0.00029,0.0,0.0
15.266,3508.234,0.00029,0.0,0.0
15.273,3549.015,0.00028,0.0,0.0
15.279,3608.887,0.00028,0.0,0.0
15.285,3712.299,0.00027,0.0,0.0
15.292,3922.086,0.00025,0.0,0.0
15.298,4249.407,0.00024,0.0,0.0
15.304,4619.311,0.00022,0.0,0.0
15.311,5312.677,0.00019,0.0,0.0
15.317,5787.402,0.00017,0.0,0.0
15.323,6344.671,0.00016,0.0,0.0
15.33,6117.751,0.00016,0.0,0.0
15.336,5886.893,0.00017,0.0,0.0
15.342,5550.09,0.00018,0.0,0.0
15.349,4728.223,0.00021,0.0,0.0
15.355,4400.336,0.00023,0.0,0.0
15.361,3993.931,0.00025,0.0,0.0
15.368,3764.564,0.00027,0.0,0.0
15.374,3624.327,0.00028,0.0,0.0
15.38,3535.63,0.00028,0.0,0.0
15.387,3486.388,0.00029,0.0,0.0
15.393,3451.22,0.00029,0.0,0.0
15.399,3426.64,0.00029,0.0,0.0
15.406,3416.151,0.00029,0.0,0.0
15.412,3411.26,0.00029,0.0,0.0
15.418,3395.342,0.00029,0.0,0.0
15.424,3402.049,0.00029,0.0,0.0
15.431,3392.48,0.00029,0.0,0.0
15.437,3392.909,0.00029,0.0,0.0
15.443,3387.459,0.0003,0.0,0.0
15.45,3378.82,0.0003,0.0,0.0
15.456,3374.481,0.0003,0.0,0.0
15.462,3383.847,0.0003,0.0,0.0
15.469,3377.714,0.0003,0.0,0.0
15.475,3370.758,0.0003,0.0,0.0
15.481,3382.707,0.0003,0.0,0.0
15.488,3378.879,0.0003,0.0,0.0
15.494,3359.363,0.0003,0.0,0.0
15.5,3367.941,0.0003,0.0,0.0
15.507,3356.608,0.0003,0.0,0.0
15.513,3358.232,0.0003,0.0,0.0
15.519,3363.673,0.0003,0.0,0.0
15.526,3364.314,0.0003,0.0,0.0
15.532,3352.656,0.0003,0.0,0.0
15.538,3361.765,0.0003,0.0,0.0
15.545,3349.532,0.0003,0.0,0.0
15.551,3353.111,0.0003,0.0,0.0
15.557,3349.14,0.0003,0.0,0.0
15.564,3339.575,0.0003,0.0,0.0
15.57,3340.464,0.0003,0.0,0.0
15.576,3336.14,0.0003,0.0,0.0
15.582,3334.613,0.0003,0.0,0.0
15.589,3335.02,0.0003,0.0,0.0
15.595,3341.832,0.0003,0.0,0.0
15.601,3330.844,0.0003,0.0,0.0
15.608,3314.947,0.0003,0.0,0.0
15.614,3329.345,0.0003,0.0,0.0
15.62,3323.713,0.0003,0.0,0.0
15.627,3320.305,0.0003,0.0,0.0
15.633,3322.938,0.0003,0.0,0.0
15.639,3318.485,0.0003,0.0,0.0
15.646,3318.263,0.0003,0.0,0.0
15.652,3312.116,0.0003,0.0,0.0
15.658,3309.874,0.0003,0.0,0.0
15.665,3312.786,0.0003,0.0,0.0
15.671,3309.899,0.0003,0.0,0.0
15.677,3308.862,0.0003,0.0,0.0
15.684,3305.073,0.0003,0.0,0.0
15.69,3296.497,0.0003,0.0,0.0
15.696,3300.196,0.0003,0.0,0.0
15.703,3288.182,0.0003,0.0,0.0
15.709,3291.521,0.0003,0.0,0.0
15.715,3294.737,0.0003,0.0,0.0
15.722,3295.072,0.0003,0.0,0.0
15.728,3290.398,0.0003,0.0,0.0
15.734,3285.495,0.0003,0.0,0.0
15.74,3288.08,0.0003,0.0,0.0
15.747,3279.336,0.0003,0.0,0.0
15.753,3284.948,0.0003,0.0,0.0
15.759,3283.355,0.0003,0.0,0.0
15.766,3277.906,0.00031,0.0,0.0
15.772,3276.007,0.00031,0.0,0.0
15.778,3274.457,0.00031,0.0,0.0
15.785,3271.725,0.00031,0.0,0.0
15.791,3279.172,0.0003,0.0,0.0
15.797,3269.675,0.00031,0.0,0.0
15.804,3265.678,0.00031,0.0,0.0
15.81,3270.913,0.00031,0.0,0.0
15.816,3265.657,0.00031,0.0,0.0
15.823,3265.139,0.00031,0.0,0.0
15.829,3263.771,0.00031,0.0,0.0
15.835,3274.851,0.00031,0.0,0.0
15.842,3262.205,0.00031,0.0,0.0
15.848,3278.914,0.0003,0.0,0.0
15.854,3277.068,0.00031,0.0,0.0
15.861,3277.726,0.00031,0.0,0.0
15.867,3291.441,0.0003,0.0,0.0
15.873,3327.178,0.0003,0.0,0.0
15.88,3270.687,0.00031,0.0,0.0
15.886,3348.472,0.0003,0.0,0.0
15.892,3250.506,0.00031,0.0,0.0
15.898,3290.728,0.0003,0.0,0.0
15.905,3254.461,0.00031,0.0,0.0
15.911,3265.54,0.00031,0.0,0.0
15.917,3241.796,0.00031,0.0,0.0
15.924,3251.319,0.00031,0.0,0.0
15.93,3242.649,0.00031,0.0,0.0
15.936,3234.792,0.00031,0.0,0.0
15.943,3236.273,0.00031,0.0,0.0
15.949,3260.689,0.00031,0.0,0.0
15.955,3238.867,0.00031,0.0,0.0
15.962,3239.962,0.00031,0.0,0.0
15.968,3243.513,0.00031,0.0,0.0
15.974,3244.799,0.00031,0.0,0.0
15.981,3241.97,0.00031,0.0,0.0
15.987,3234.686,0.00031,0.0,0.0
15.993,3220.07,0.00031,0.0,0.0
16.0,3229.104,0.00031,0.0,0.0
16.006,3225.13,0.00031,0.0,0.0
16.012,3232.45,0.00031,0.0,0.0
16.019,3223.274,0.00031,0.0,0.0
16.025,3223.517,0.00031,0.0,0.0
16.031,3221.849,0.00031,0.0,0.0
16.038,3222.257,0.00031,0.0,0.0
16.044,3217.409,0.00031,0.0,0.0
16.05,3222.689,0.00031,0.0,0.0
16.056,3210.324,0.00031,0.0,0.0
16.063,3221.484,0.00031,0.0,0.0
16.069,3216.524,0.00031,0.0,0.0
16.075,3218.598,0.00031,0.0,0.0
16.082,3211.123,0.00031,0.0,0.0
16.088,3210.87,0.00031,0.0,0.0
16.094,3208.351,0.00031,0.0,0.0
16.101,3211.599,0.00031,0.0,0.0
16.107,3214.953,0.00031,0.0,0.0
16.113,3214.378,0.00031,0.0,0.0
16.12,3208.252,0.00031,0.0,0.0
16.126,3204.23,0.00031,0.0,0.0
16.132,3212.826,0.00031,0.0,0.0
16.139,3201.605,0.00031,0.0,0.0
16.145,3207.591,0.00031,0.0,0.0
16.151,3214.927,0.00031,0.0,0.0
16.158,3204.943,0.00031,0.0,0.0
16.164,3208.154,0.00031,0.0,0.0
16.17,3208.986,0.00031,0.0,0.0
16.177,3211.966,0.00031,0.0,0.0
16.183,3207.002,0.00031,0.0,0.0
16.189,3206.371,0.00031,0.0,0.0
16.196,3202.488,0.00031,0.0,0.0
16.202,3195.76,0.00031,0.0,0.0
16.208,3204.028,0.00031,0.0,0.0
16.214,3198.891,0.00031,0.0,0.0
16.221,3203.459,0.00031,0.0,0.0
16.227,3189.991,0.00031,0.0,0.0
16.233,3202.221,0.00031,0.0,0.0
16.24,3199.215,0.00031,0.0,0.0
16.246,3196.3,0.00031,0.0,0.0
16.252,3196.965,0.00031,0.0,0.0
16.259,3192.265,0.00031,0.0,0.0
16.265,3189.184,0.00031,0.0,0.0
16.271,3202.28,0.00031,0.0,0.0
16.278,3195.976,0.00031,0.0,0.0
16.284,3197.766,0.00031,0.0,0.0
16.29,3184.118,0.00031,0.0,0.0
16.297,3191.154,0.00031,0.0,0.0
16.303,3192.724,0.00031,0.0,0.0
16.309,3202.109,0.00031,0.0,0.0
16.316,3189.497,0.00031,0.0,0.0
16.322,3202.93,0.00031,0.0,0.0
16.328,3197.457,0.00031,0.0,0.0
16.335,3194.653,0.00031,0.0,0.0
16.341,3196.471,0.00031,0.0,0.0
16.347,3194.062,0.00031,0.0,0.0
16.354,3205.557,0.00031,0.0,0.0
16.36,3201.75,0.00031,0.0,0.0
16.366,3202.366,0.00031,0.0,0.0
16.372,3195.933,0.00031,0.0,0.0
16.379,3195.989,0.00031,0.0,0.0
16.385,3195.241,0.00031,0.0,0.0
16.391,3198.743,0.00031,0.0,0.0
16.398,3199.828,0.00031,0.0,0.0
16.404,3197.967,0.00031,0.0,0.0
16.41,3186.701,0.00031,0.0,0.0
16.417,3203.32,0.00031,0.0,0.0
16.423,3200.979,0.00031,0.0,0.0
16.429,3205.836,0.00031,0.0,0.0
16.436,3197.515,0.00031,0.0,0.0
16.442,3200.435,0.00031,0.0,0.0
16.448,3197.235,0.00031,0.0,0.0
16.455,3203.712,0.00031,0.0,0.0
16.461,3199.07,0.00031,0.0,0.0
16.467,3207.791,0.00031,0.0,0.0
16.474,3216.511,0.00031,0.0,0.0
16.48,3204.418,0.00031,0.0,0.0
16.486,3232.417,0.00031,0.0,0.0
16.493,3230.986,0.00031,0.0,0.0
16.499,3246.754,0.00031,0.0,0.0
16.505,3325.422,0.0003,0.0,0.0
16.512,3284.559,0.0003,0.0,0.0
16.518,3364.785,0.0003,0.0,0.0
16.524,3342.205,0.0003,0.0,0.0
16.53,3287.526,0.0003,0.0,0.0
16.537,3284.148,0.0003,0.0,0.0
16.543,3258.001,0.00031,0.0,0.0
16.549,3235.53,0.00031,0.0,0.0
16.556,3231.983,0.00031,0.0,0.0
16.562,3225.799,0.00031,0.0,0.0
16.568,3217.93,0.00031,0.0,0.0
16.575,3230.015,0.00031,0.0,0.0
16.581,3220.815,0.00031,0.0,0.0
16.587,3222.445,0.00031,0.0,0.0
16.594,3224.566,0.00031,0.0,0.0
