"x","y_obs","weight","y_calc","y_bkg"
0.8,2854.702,0.00035,0.0,0.0
0.806,3252.453,0.00031,0.0,0.0
0.813,3315.682,0.0003,0.0,0.0
0.819,3208.955,0.00031,0.0,0.0
0.825,3890.283,0.00026,0.0,0.0
0.832,3635.474,0.00028,0.0,0.0
0.838,3904.272,0.00026,0.0,0.0
0.844,4198.251,0.00024,0.0,0.0
0.851,4082.357,0.00024,0.0,0.0
0.857,4503.604,0.00022,0.0,0.0
0.863,4848.018,0.00021,0.0,0.0
0.87,4437.29,0.00023,0.0,0.0
0.876,5280.88,0.00019,0.0,0.0
0.882,5094.082,0.0002,0.0,0.0
0.888,5399.111,0.00019,0.0,0.0
0.895,5541.67,0.00018,0.0,0.0
0.901,5527.198,0.00018,0.0,0.0
0.907,6032.278,0.00017,0.0,0.0
0.914,6136.801,0.00016,0.0,0.0
0.92,5798.216,0.00017,0.0,0.0
0.926,6380.964,0.00016,0.0,0.0
0.933,6467.752,0.00015,0.0,0.0
0.939,6230.828,0.00016,0.0,0.0
0.945,6802.117,0.00015,0.0,0.0
0.952,6478.26,0.00015,0.0,0.0
0.958,6787.293,0.00015,0.0,0.0
0.964,6833.183,0.00015,0.0,0.0
0.971,6575.288,0.00015,0.0,0.0
0.977,7019.486,0.00014,0.0,0.0
0.983,6968.715,0.00014,0.0,0.0
0.99,6811.188,0.00015,0.0,0.0
0.996,7135.699,0.00014,0.0,0.0
1.002,6852.078,0.00015,0.0,0.0
1.009,6973.033,0.00014,0.0,0.0
1.015,7128.46,0.00014,0.0,0.0
1.021,6924.754,0.00014,0.0,0.0
1.028,7138.408,0.00014,0.0,0.0
1.034,7012.821,0.00014,0.0,0.0
1.04,6991.349,0.00014,0.0,0.0
1.046,7070.981,0.00014,0.0,0.0
1.053,7021.688,0.00014,0.0,0.0
1.059,6992.179,0.00014,0.0,0.0
1.065,7076.771,0.00014,0.0,0.0
1.072,6906.328,0.00014,0.0,0.0
1.078,7011.264,0.00014,0.0,0.0
1.084,6926.203,0.00014,0.0,0.0
1.091,6918.254,0.00014,0.0,0.0
1.097,6942.576,0.00014,0.0,0.0
1.103,6855.236,0.00015,0.0,0.0
1.11,6835.367,0.00015,0.0,0.0
1.116,6806.469,0.00015,0.0,0.0
1.122,6736.998,0.00015,0.0,0.0
1.129,6766.846,0.00015,0.0,0.0
1.135,6723.183,0.00015,0.0,0.0
1.141,6672.999,0.00015,0.0,0.0
1.148,6652.783,0.00015,0.0,0.0
1.154,6551.352,0.00015,0.0,0.0
1.16,6556.778,0.00015,0.0,0.0
1.167,6469.033,0.00015,0.0,0.0
1.173,6464.552,0.00015,0.0,0.0
1.179,6433.021,0.00016,0.0,0.0
1.186,6372.993,0.00016,0.0,0.0
1.192,6359.222,0.00016,0.0,0.0
1.198,6296.234,0.00016,0.0,0.0
1.204,6244.445,0.00016,0.0,0.0
1.211,6242.455,0.00016,0.0,0.0
1.217,6232.857,0.00016,0.0,0.0
1.223,6183.647,0.00016,0.0,0.0
1.23,6133.621,0.00016,0.0,0.0
1.236,6043.905,0.00017,0.0,0.0
1.242,6034.154,0.00017,0.0,0.0
1.249,6046.045,0.00017,0.0,0.0
1.255,5996.118,0.00017,0.0,0.0
1.261,6003.411,0.00017,0.0,0.0
1.268,5968.399,0.00017,0.0,0.0
1.274,5915.965,0.00017,0.0,0.0
1.28,5912.061,0.00017,0.0,0.0
1.287,5850.642,0.00017,0.0,0.0
1.293,5825.243,0.00017,0.0,0.0
1.299,5796.364,0.00017,0.0,0.0
1.306,5805.647,0.00017,0.0,0.0
1.312,5730.708,0.00017,0.0,0.0
1.318,5741.182,0.00017,0.0,0.0
1.325,5743.062,0.00017,0.0,0.0
1.331,5736.937,0.00017,0.0,0.0
1.337,5739.776,0.00017,0.0,0.0
1.344,5644.962,0.00018,0.0,0.0
1.35,5668.399,0.00018,0.0,0.0
1.356,5671.199,0.00018,0.0,0.0
1.362,5629.976,0.00018,0.0,0.0
1.369,5638.138,0.00018,0.0,0.0
1.375,5639.833,0.00018,0.0,0.0
1.381,5599.311,0.00018,0.0,0.0
1.388,5620.232,0.00018,0.0,0.0
1.394,5575.479,0.00018,0.0,0.0
1.4,5616.857,0.00018,0.0,0.0
1.407,5535.598,0.00018,0.0,0.0
1.413,5537.428,0.00018,0.0,0.0
1.419,5558.062,0.00018,0.0,0.0
1.426,5569.966,0.00018,0.0,0.0
1.432,5522.847,0.00018,0.0,0.0
1.438,5550.282,0.00018,0.0,0.0
1.445,5478.968,0.00018,0.0,0.0
1.451,5511.341,0.00018,0.0,0.0
1.457,5474.929,0.00018,0.0,0.0
1.464,5510.872,0.00018,0.0,0.0
1.47,5460.512,0.00018,0.0,0.0
1.476,5461.343,0.00018,0.0,0.0
1.483,5519.757,0.00018,0.0,0.0
1.489,5476.728,0.00018,0.0,0.0
1.495,5490.907,0.00018,0.0,0.0
1.502,5522.118,0.00018,0.0,0.0
1.508,5507.366,0.00018,0.0,0.0
1.514,5464.937,0.00018,0.0,0.0
1.52,5534.504,0.00018,0.0,0.0
1.527,5525.534,0.00018,0.0,0.0
1.533,5551.409,0.00018,0.0,0.0
1.539,5490.763,0.00018,0.0,0.0
1.546,5491.65,0.00018,0.0,0.0
1.552,5540.42,0.00018,0.0,0.0
1.558,5556.044,0.00018,0.0,0.0
1.565,5534.728,0.00018,0.0,0.0
1.571,5566.97,0.00018,0.0,0.0
1.577,5546.579,0.00018,0.0,0.0
1.584,5527.527,0.00018,0.0,0.0
1.59,5570.853,0.00018,0.0,0.0
1.596,5528.783,0.00018,0.0,0.0
1.603,5605.554,0.00018,0.0,0.0
1.609,5532.396,0.00018,0.0,0.0
1.615,5587.911,0.00018,0.0,0.0
1.622,5618.17,0.00018,0.0,0.0
1.628,5607.754,0.00018,0.0,0.0
1.634,5630.577,0.00018,0.0,0.0
1.641,5633.972,0.00018,0.0,0.0
1.647,5627.57,0.00018,0.0,0.0
1.653,5673.47,0.00018,0.0,0.0
1.66,5659.177,0.00018,0.0,0.0
1.666,5697.495,0.00018,0.0,0.0
1.672,5706.744,0.00018,0.0,0.0
1.678,5691.822,0.00018,0.0,0.0
1.685,5717.739,0.00017,0.0,0.0
1.691,5701.644,0.00018,0.0,0.0
1.697,5754.777,0.00017,0.0,0.0
1.704,5759.549,0.00017,0.0,0.0
1.71,5801.44,0.00017,0.0,0.0
1.716,5776.482,0.00017,0.0,0.0
1.723,5777.784,0.00017,0.0,0.0
1.729,5827.924,0.00017,0.0,0.0
1.735,5802.216,0.00017,0.0,0.0
1.742,5848.29,0.00017,0.0,0.0
1.748,5828.664,0.00017,0.0,0.0
1.754,5870.524,0.00017,0.0,0.0
1.761,5838.49,0.00017,0.0,0.0
1.767,5868.204,0.00017,0.0,0.0
1.773,5880.943,0.00017,0.0,0.0
1.78,5861.513,0.00017,0.0,0.0
1.786,5905.026,0.00017,0.0,0.0
1.792,5868.269,0.00017,0.0,0.0
1.799,5910.204,0.00017,0.0,0.0
1.805,5910.583,0.00017,0.0,0.0
1.811,5888.371,0.00017,0.0,0.0
1.818,5929.387,0.00017,0.0,0.0
1.824,5930.792,0.00017,0.0,0.0
1.83,5889.648,0.00017,0.0,0.0
1.836,5927.034,0.00017,0.0,0.0
1.843,5930.145,0.00017,0.0,0.0
1.849,5907.588,0.00017,0.0,0.0
1.855,5932.285,0.00017,0.0,0.0
1.862,5939.196,0.00017,0.0,0.0
1.868,5964.171,0.00017,0.0,0.0
1.874,5958.489,0.00017,0.0,0.0
1.881,5963.504,0.00017,0.0,0.0
1.887,5935.824,0.00017,0.0,0.0
1.893,5927.377,0.00017,0.0,0.0
1.9,5928.211,0.00017,0.0,0.0
1.906,5955.311,0.00017,0.0,0.0
1.912,5917.027,0.00017,0.0,0.0
1.919,5921.006,0.00017,0.0,0.0
1.925,5926.21,0.00017,0.0,0.0
1.931,5940.47,0.00017,0.0,0.0
1.938,5921.016,0.00017,0.0,0.0
1.944,5907.767,0.00017,0.0,0.0
1.95,5912.32,0.00017,0.0,0.0
1.957,5921.046,0.00017,0.0,0.0
1.963,5925.927,0.00017,0.0,0.0
1.969,5908.65,0.00017,0.0,0.0
1.976,5929.709,0.00017,0.0,0.0
1.982,5942.378,0.00017,0.0,0.0
1.988,5902.894,0.00017,0.0,0.0
1.994,5891.026,0.00017,0.0,0.0
2.001,5924.629,0.00017,0.0,0.0
2.007,5929.348,0.00017,0.0,0.0
2.013,5910.849,0.00017,0.0,0.0
2.02,5926.167,0.00017,0.0,0.0
2.026,5943.685,0.00017,0.0,0.0
2.032,5951.02,0.00017,0.0,0.0
2.039,5947.914,0.00017,0.0,0.0
2.045,5959.001,0.00017,0.0,0.0
2.051,5961.054,0.00017,0.0,0.0
2.058,5944.693,0.00017,0.0,0.0
2.064,5936.615,0.00017,0.0,0.0
2.07,5929.266,0.00017,0.0,0.0
2.077,5969.444,0.00017,0.0,0.0
2.083,5978.253,0.00017,0.0,0.0
2.089,5951.252,0.00017,0.0,0.0
2.096,5975.151,0.00017,0.0,0.0
2.102,5968.589,0.00017,0.0,0.0
2.108,5960.248,0.00017,0.0,0.0
2.115,5994.854,0.00017,0.0,0.0
2.121,6006.479,0.00017,0.0,0.0
2.127,6026.3,0.00017,0.0,0.0
2.134,6009.671,0.00017,0.0,0.0
2.14,6003.655,0.00017,0.0,0.0
2.146,6048.334,0.00017,0.0,0.0
2.152,6041.034,0.00017,0.0,0.0
2.159,6041.017,0.00017,0.0,0.0
2.165,6067.056,0.00016,0.0,0.0
2.171,6082.173,0.00016,0.0,0.0
2.178,6064.932,0.00016,0.0,0.0
2.184,6084.028,0.00016,0.0,0.0
2.19,6110.992,0.00016,0.0,0.0
2.197,6126.024,0.00016,0.0,0.0
2.203,6128.137,0.00016,0.0,0.0
2.209,6141.582,0.00016,0.0,0.0
2.216,6145.588,0.00016,0.0,0.0
2.222,6159.857,0.00016,0.0,0.0
2.228,6149.646,0.00016,0.0,0.0
2.235,6179.315,0.00016,0.0,0.0
2.241,6157.302,0.00016,0.0,0.0
2.247,6188.179,0.00016,0.0,0.0
2.254,6213.295,0.00016,0.0,0.0
2.26,6206.853,0.00016,0.0,0.0
2.266,6239.529,0.00016,0.0,0.0
2.273,6270.91,0.00016,0.0,0.0
2.279,6243.936,0.00016,0.0,0.0
2.285,6273.949,0.00016,0.0,0.0
2.292,6313.001,0.00016,0.0,0.0
2.298,6347.609,0.00016,0.0,0.0
2.304,6345.982,0.00016,0.0,0.0
2.31,6350.11,0.00016,0.0,0.0
2.317,6399.102,0.00016,0.0,0.0
2.323,6390.462,0.00016,0.0,0.0
2.329,6397.458,0.00016,0.0,0.0
2.336,6410.969,0.00016,0.0,0.0
2.342,6433.115,0.00016,0.0,0.0
2.348,6461.435,0.00015,0.0,0.0
2.355,6482.485,0.00015,0.0,0.0
2.361,6515.416,0.00015,0.0,0.0
2.367,6543.209,0.00015,0.0,0.0
2.374,6573.611,0.00015,0.0,0.0
2.38,6620.937,0.00015,0.0,0.0
2.386,6641.483,0.00015,0.0,0.0
2.393,6708.604,0.00015,0.0,0.0
2.399,6746.086,0.00015,0.0,0.0
2.405,6818.231,0.00015,0.0,0.0
2.412,6948.42,0.00014,0.0,0.0
2.418,7052.703,0.00014,0.0,0.0
2.424,7139.683,0.00014,0.0,0.0
2.431,7214.404,0.00014,0.0,0.0
2.437,7147.259,0.00014,0.0,0.0
2.443,7097.943,0.00014,0.0,0.0
2.45,6987.54,0.00014,0.0,0.0
2.456,6964.12,0.00014,0.0,0.0
2.462,6952.609,0.00014,0.0,0.0
2.468,6910.897,0.00014,0.0,0.0
2.475,6933.948,0.00014,0.0,0.0
2.481,6927.056,0.00014,0.0,0.0
2.487,6969.281,0.00014,0.0,0.0
2.494,6981.668,0.00014,0.0,0.0
2.5,7004.303,0.00014,0.0,0.0
2.506,7021.284,0.00014,0.0,0.0
2.513,7036.631,0.00014,0.0,0.0
2.519,7069.678,0.00014,0.0,0.0
2.525,7084.643,0.00014,0.0,0.0
2.532,7130.181,0.00014,0.0,0.0
2.538,7129.676,0.00014,0.0,0.0
2.544,7172.223,0.00014,0.0,0.0
2.551,7188.224,0.00014,0.0,0.0
2.557,7243.056,0.00014,0.0,0.0
2.563,7232.776,0.00014,0.0,0.0
2.57,7255.761,0.00014,0.0,0.0
2.576,7265.279,0.00014,0.0,0.0
2.582,7331.942,0.00014,0.0,0.0
2.589,7334.512,0.00014,0.0,0.0
2.595,7374.826,0.00014,0.0,0.0
2.601,7356.648,0.00014,0.0,0.0
2.608,7423.244,0.00013,0.0,0.0
2.614,7391.892,0.00014,0.0,0.0
2.62,7450.103,0.00013,0.0,0.0
2.626,7501.909,0.00013,0.0,0.0
2.633,7544.924,0.00013,0.0,0.0
2.639,7525.688,0.00013,0.0,0.0
2.645,7544.543,0.00013,0.0,0.0
2.652,7573.624,0.00013,0.0,0.0
2.658,7568.067,0.00013,0.0,0.0
2.664,7625.806,0.00013,0.0,0.0
2.671,7663.777,0.00013,0.0,0.0
2.677,7666.099,0.00013,0.0,0.0
2.683,7698.227,0.00013,0.0,0.0
2.69,7712.649,0.00013,0.0,0.0
2.696,7751.713,0.00013,0.0,0.0
2.702,7764.537,0.00013,0.0,0.0
2.709,7776.04,0.00013,0.0,0.0
2.715,7829.796,0.00013,0.0,0.0
2.721,7833.851,0.00013,0.0,0.0
2.728,7910.991,0.00013,0.0,0.0
2.734,7888.124,0.00013,0.0,0.0
2.74,7892.961,0.00013,0.0,0.0
2.747,7942.459,0.00013,0.0,0.0
2.753,7984.91,0.00013,0.0,0.0
2.759,7986.61,0.00013,0.0,0.0
2.766,8038.156,0.00012,0.0,0.0
2.772,8062.784,0.00012,0.0,0.0
2.778,8071.329,0.00012,0.0,0.0
2.784,8077.964,0.00012,0.0,0.0
2.791,8106.149,0.00012,0.0,0.0
2.797,8151.854,0.00012,0.0,0.0
2.803,8195.796,0.00012,0.0,0.0
2.81,8223.412,0.00012,0.0,0.0
2.816,8239.037,0.00012,0.0,0.0
2.822,8242.698,0.00012,0.0,0.0
2.829,8265.352,0.00012,0.0,0.0
2.835,8290.362,0.00012,0.0,0.0
2.841,8350.964,0.00012,0.0,0.0
2.848,8352.394,0.00012,0.0,0.0
2.854,8386.277,0.00012,0.0,0.0
2.86,8411.462,0.00012,0.0,0.0
2.867,8455.155,0.00012,0.0,0.0
2.873,8460.699,0.00012,0.0,0.0
2.879,8486.766,0.00012,0.0,0.0
2.886,8512.619,0.00012,0.0,0.0
2.892,8526.366,0.00012,0.0,0.0
2.898,8543.708,0.00012,0.0,0.0
2.905,8573.796,0.00012,0.0,0.0
2.911,8593.896,0.00012,0.0,0.0
2.917,8622.885,0.00012,0.0,0.0
2.924,8638.608,0.00012,0.0,0.0
2.93,8660.177,0.00012,0.0,0.0
2.936,8706.417,0.00011,0.0,0.0
2.942,8734.443,0.00011,0.0,0.0
2.949,8739.028,0.00011,0.0,0.0
2.955,8741.806,0.00011,0.0,0.0
2.961,8770.719,0.00011,0.0,0.0
2.968,8784.21,0.00011,0.0,0.0
2.974,8802.003,0.00011,0.0,0.0
2.98,8804.764,0.00011,0.0,0.0
2.987,8834.566,0.00011,0.0,0.0
2.993,8825.046,0.00011,0.0,0.0
2.999,8863.635,0.00011,0.0,0.0
3.006,8856.549,0.00011,0.0,0.0
3.012,8916.539,0.00011,0.0,0.0
3.018,8897.789,0.00011,0.0,0.0
3.025,8909.325,0.00011,0.0,0.0
3.031,8922.446,0.00011,0.0,0.0
3.037,8946.661,0.00011,0.0,0.0
3.044,8923.013,0.00011,0.0,0.0
3.05,8955.999,0.00011,0.0,0.0
3.056,8944.685,0.00011,0.0,0.0
3.063,8959.343,0.00011,0.0,0.0
3.069,8961.393,0.00011,0.0,0.0
3.075,8949.973,0.00011,0.0,0.0
3.082,8959.922,0.00011,0.0,0.0
3.088,8987.564,0.00011,0.0,0.0
3.094,8977.865,0.00011,0.0,0.0
3.1,8959.219,0.00011,0.0,0.0
3.107,8974.165,0.00011,0.0,0.0
3.113,8978.069,0.00011,0.0,0.0
3.119,8957.735,0.00011,0.0,0.0
3.126,8966.868,0.00011,0.0,0.0
3.132,8955.384,0.00011,0.0,0.0
3.138,8958.981,0.00011,0.0,0.0
3.145,8965.645,0.00011,0.0,0.0
3.151,8960.259,0.00011,0.0,0.0
3.157,8960.213,0.00011,0.0,0.0
3.164,8958.368,0.00011,0.0,0.0
3.17,8932.483,0.00011,0.0,0.0
3.176,8929.892,0.00011,0.0,0.0
3.183,8931.527,0.00011,0.0,0.0
3.189,8892.677,0.00011,0.0,0.0
3.195,8902.511,0.00011,0.0,0.0
3.202,8928.325,0.00011,0.0,0.0
3.208,8876.726,0.00011,0.0,0.0
3.214,8885.38,0.00011,0.0,0.0
3.221,8875.636,0.00011,0.0,0.0
3.227,8853.172,0.00011,0.0,0.0
3.233,8836.423,0.00011,0.0,0.0
3.24,8852.354,0.00011,0.0,0.0
3.246,8818.666,0.00011,0.0,0.0
3.252,8778.776,0.00011,0.0,0.0
3.258,8773.57,0.00011,0.0,0.0
3.265,8777.092,0.00011,0.0,0.0
3.271,8738.147,0.00011,0.0,0.0
3.277,8765.307,0.00011,0.0,0.0
3.284,8736.485,0.00011,0.0,0.0
3.29,8721.59,0.00011,0.0,0.0
3.296,8696.8,0.00011,0.0,0.0
3.303,8708.215,0.00011,0.0,0.0
3.309,8685.171,0.00012,0.0,0.0
3.315,8634.022,0.00012,0.0,0.0
3.322,8644.928,0.00012,0.0,0.0
3.328,8613.917,0.00012,0.0,0.0
3.334,8592.891,0.00012,0.0,0.0
3.341,8562.186,0.00012,0.0,0.0
3.347,8588.554,0.00012,0.0,0.0
3.353,8557.515,0.00012,0.0,0.0
3.36,8556.678,0.00012,0.0,0.0
3.366,8526.198,0.00012,0.0,0.0
3.372,8524.007,0.00012,0.0,0.0
3.379,8517.102,0.00012,0.0,0.0
3.385,8482.851,0.00012,0.0,0.0
3.391,8496.432,0.00012,0.0,0.0
3.398,8462.798,0.00012,0.0,0.0
3.404,8466.998,0.00012,0.0,0.0
3.41,8445.304,0.00012,0.0,0.0
3.416,8427.303,0.00012,0.0,0.0
3.423,8423.789,0.00012,0.0,0.0
3.429,8422.152,0.00012,0.0,0.0
3.435,8382.361,0.00012,0.0,0.0
3.442,8433.51,0.00012,0.0,0.0
3.448,8386.179,0.00012,0.0,0.0
3.454,8402.837,0.00012,0.0,0.0
3.461,8341.125,0.00012,0.0,0.0
3.467,8342.06,0.00012,0.0,0.0
3.473,8335.091,0.00012,0.0,0.0
3.48,8323.091,0.00012,0.0,0.0
3.486,8289.027,0.00012,0.0,0.0
3.492,8295.129,0.00012,0.0,0.0
3.499,8255.105,0.00012,0.0,0.0
3.505,8248.877,0.00012,0.0,0.0
3.511,8234.266,0.00012,0.0,0.0
3.518,8244.604,0.00012,0.0,0.0
3.524,8254.47,0.00012,0.0,0.0
3.53,8221.289,0.00012,0.0,0.0
3.537,8223.429,0.00012,0.0,0.0
3.543,8231.76,0.00012,0.0,0.0
3.549,8235.354,0.00012,0.0,0.0
3.556,8226.998,0.00012,0.0,0.0
3.562,8201.737,0.00012,0.0,0.0
3.568,8217.727,0.00012,0.0,0.0
3.574,8226.721,0.00012,0.0,0.0
3.581,8188.756,0.00012,0.0,0.0
3.587,8201.341,0.00012,0.0,0.0
3.593,8202.207,0.00012,0.0,0.0
3.6,8217.084,0.00012,0.0,0.0
3.606,8192.082,0.00012,0.0,0.0
3.612,8195.499,0.00012,0.0,0.0
3.619,8192.076,0.00012,0.0,0.0
3.625,8208.804,0.00012,0.0,0.0
3.631,8182.151,0.00012,0.0,0.0
3.638,8226.375,0.00012,0.0,0.0
3.644,8232.083,0.00012,0.0,0.0
3.65,8223.055,0.00012,0.0,0.0
3.657,8245.42,0.00012,0.0,0.0
3.663,8265.024,0.00012,0.0,0.0
3.669,8236.076,0.00012,0.0,0.0
3.676,8278.363,0.00012,0.0,0.0
3.682,8271.29,0.00012,0.0,0.0
3.688,8323.189,0.00012,0.0,0.0
3.695,8316.869,0.00012,0.0,0.0
3.701,8348.997,0.00012,0.0,0.0
3.707,8367.192,0.00012,0.0,0.0
3.714,8372.66,0.00012,0.0,0.0
3.72,8407.132,0.00012,0.0,0.0
3.726,8408.416,0.00012,0.0,0.0
3.732,8409.677,0.00012,0.0,0.0
3.739,8441.416,0.00012,0.0,0.0
3.745,8456.584,0.00012,0.0,0.0
3.751,8459.105,0.00012,0.0,0.0
3.758,8482.602,0.00012,0.0,0.0
3.764,8514.53,0.00012,0.0,0.0
3.77,8534.989,0.00012,0.0,0.0
3.777,8532.124,0.00012,0.0,0.0
3.783,8561.689,0.00012,0.0,0.0
3.789,8551.105,0.00012,0.0,0.0
3.796,8570.633,0.00012,0.0,0.0
3.802,8576.933,0.00012,0.0,0.0
3.808,8605.606,0.00012,0.0,0.0
3.815,8613.487,0.00012,0.0,0.0
3.821,8627.127,0.00012,0.0,0.0
3.827,8647.685,0.00012,0.0,0.0
3.834,8627.447,0.00012,0.0,0.0
3.84,8632.436,0.00012,0.0,0.0
3.846,8679.278,0.00012,0.0,0.0
3.853,8668.144,0.00012,0.0,0.0
3.859,8662.4,0.00012,0.0,0.0
3.865,8660.699,0.00012,0.0,0.0
3.872,8627.289,0.00012,0.0,0.0
3.878,8626.04,0.00012,0.0,0.0
3.884,8600.3,0.00012,0.0,0.0
3.89,8569.623,0.00012,0.0,0.0
3.897,8594.733,0.00012,0.0,0.0
3.903,8560.79,0.00012,0.0,0.0
3.909,8558.85,0.00012,0.0,0.0
3.916,8522.319,0.00012,0.0,0.0
3.922,8512.895,0.00012,0.0,0.0
3.928,8503.707,0.00012,0.0,0.0
3.935,8482.025,0.00012,0.0,0.0
3.941,8474.721,0.00012,0.0,0.0
3.947,8481.151,0.00012,0.0,0.0
3.954,8456.837,0.00012,0.0,0.0
3.96,8472.896,0.00012,0.0,0.0
3.966,8456.076,0.00012,0.0,0.0
3.973,8450.447,0.00012,0.0,0.0
3.979,8401.298,0.00012,0.0,0.0
3.985,8392.642,0.00012,0.0,0.0
3.992,8400.663,0.00012,0.0,0.0
3.998,8374.122,0.00012,0.0,0.0
4.004,8343.663,0.00012,0.0,0.0
4.011,8359.445,0.00012,0.0,0.0
4.017,8337.926,0.00012,0.0,0.0
4.023,8364.758,0.00012,0.0,0.0
4.03,8331.378,0.00012,0.0,0.0
4.036,8326.896,0.00012,0.0,0.0
4.042,8311.479,0.00012,0.0,0.0
4.048,8322.385,0.00012,0.0,0.0
4.055,8293.244,0.00012,0.0,0.0
4.061,8299.834,0.00012,0.0,0.0
4.067,8355.45,0.00012,0.0,0.0
4.074,8310.466,0.00012,0.0,0.0
4.08,8340.848,0.00012,0.0,0.0
4.086,8302.311,0.00012,0.0,0.0
4.093,8320.061,0.00012,0.0,0.0
4.099,8311.824,0.00012,0.0,0.0
4.105,8322.427,0.00012,0.0,0.0
4.112,8321.598,0.00012,0.0,0.0
4.118,8324.573,0.00012,0.0,0.0
4.124,8364.995,0.00012,0.0,0.0
4.131,8350.149,0.00012,0.0,0.0
4.137,8370.404,0.00012,0.0,0.0
4.143,8382.732,0.00012,0.0,0.0
4.15,8395.038,0.00012,0.0,0.0
4.156,8418.053,0.00012,0.0,0.0
4.162,8463.298,0.00012,0.0,0.0
4.169,8417.496,0.00012,0.0,0.0
4.175,8451.686,0.00012,0.0,0.0
4.181,8486.029,0.00012,0.0,0.0
4.188,8484.792,0.00012,0.0,0.0
4.194,8524.673,0.00012,0.0,0.0
4.2,8534.722,0.00012,0.0,0.0
4.206,8527.536,0.00012,0.0,0.0
4.213,8574.122,0.00012,0.0,0.0
4.219,8586.441,0.00012,0.0,0.0
4.225,8644.339,0.00012,0.0,0.0
4.232,8641.359,0.00012,0.0,0.0
4.238,8641.989,0.00012,0.0,0.0
4.244,8715.849,0.00011,0.0,0.0
4.251,8714.677,0.00011,0.0,0.0
4.257,8716.593,0.00011,0.0,0.0
4.263,8824.689,0.00011,0.0,0.0
4.27,8749.804,0.00011,0.0,0.0
4.276,8905.964,0.00011,0.0,0.0
4.282,8885.741,0.00011,0.0,0.0
4.289,8865.285,0.00011,0.0,0.0
4.295,9027.633,0.00011,0.0,0.0
4.301,8963.564,0.00011,0.0,0.0
4.308,9043.828,0.00011,0.0,0.0
4.314,9097.564,0.00011,0.0,0.0
4.32,9082.687,0.00011,0.0,0.0
4.327,9179.862,0.00011,0.0,0.0
4.333,9149.873,0.00011,0.0,0.0
4.339,9195.81,0.00011,0.0,0.0
4.346,9331.548,0.00011,0.0,0.0
4.352,9261.482,0.00011,0.0,0.0
4.358,9465.928,0.00011,0.0,0.0
4.364,9499.347,0.00011,0.0,0.0
4.371,9393.348,0.00011,0.0,0.0
4.377,9764.862,0.0001,0.0,0.0
4.383,9615.343,0.0001,0.0,0.0
4.39,9788.019,0.0001,0.0,0.0
4.396,9895.697,0.0001,0.0,0.0
4.402,9835.986,0.0001,0.0,0.0
4.409,9946.651,0.0001,0.0,0.0
4.415,10155.507,0.0001,0.0,0.0
4.421,10106.9,0.0001,0.0,0.0
4.428,10504.104,0.0001,0.0,0.0
4.434,10398.122,0.0001,0.0,0.0
4.44,10501.796,0.0001,0.0,0.0
4.447,10765.442,0.00009,0.0,0.0
4.453,10694.652,0.00009,0.0,0.0
4.459,11259.763,0.00009,0.0,0.0
4.466,11352.727,0.00009,0.0,0.0
4.472,11345.521,0.00009,0.0,0.0
4.478,12135.164,0.00008,0.0,0.0
4.485,11981.2,0.00008,0.0,0.0
4.491,12561.348,0.00008,0.0,0.0
4.497,14133.548,0.00007,0.0,0.0
4.504,13488.193,0.00007,0.0,0.0
4.51,17215.036,0.00006,0.0,0.0
4.516,17724.929,0.00006,0.0,0.0
4.522,20618.858,0.00005,0.0,0.0
4.529,35076.774,0.00003,0.0,0.0
4.535,44500.575,0.00002,0.0,0.0
4.541,54057.678,0.00002,0.0,0.0
4.548,91534.551,0.00001,0.0,0.0
4.554,69950.942,0.00001,0.0,0.0
4.56,99387.322,0.00001,0.0,0.0
4.567,84827.399,0.00001,0.0,0.0
4.573,81884.66,0.00001,0.0,0.0
4.579,75264.747,0.00001,0.0,0.0
4.586,47592.985,0.00002,0.0,0.0
4.592,49099.349,0.00002,0.0,0.0
4.598,28149.529,0.00004,0.0,0.0
4.605,26169.115,0.00004,0.0,0.0
4.611,17994.828,0.00006,0.0,0.0
4.617,16853.928,0.00006,0.0,0.0
4.624,14148.465,0.00007,0.0,0.0
4.63,14248.082,0.00007,0.0,0.0
4.636,12573.283,0.00008,0.0,0.0
4.643,12491.088,0.00008,0.0,0.0
4.649,11984.78,0.00008,0.0,0.0
4.655,11546.679,0.00009,0.0,0.0
4.662,11736.825,0.00009,0.0,0.0
4.668,11127.708,0.00009,0.0,0.0
4.674,10815.587,0.00009,0.0,0.0
4.68,11100.42,0.00009,0.0,0.0
4.687,10483.026,0.0001,0.0,0.0
4.693,10604.887,0.00009,0.0,0.0
4.699,10485.949,0.0001,0.0,0.0
4.706,10139.283,0.0001,0.0,0.0
4.712,10363.953,0.0001,0.0,0.0
4.718,10017.732,0.0001,0.0,0.0
4.725,9832.411,0.0001,0.0,0.0
4.731,10097.074,0.0001,0.0,0.0
4.737,9686.3,0.0001,0.0,0.0
4.744,9764.199,0.0001,0.0,0.0
4.75,9642.849,0.0001,0.0,0.0
4.756,9518.889,0.00011,0.0,0.0
4.763,9508.866,0.00011,0.0,0.0
4.769,9367.268,0.00011,0.0,0.0
4.775,9312.999,0.00011,0.0,0.0
4.782,9317.904,0.00011,0.0,0.0
4.788,9167.27,0.00011,0.0,0.0
4.794,9100.824,0.00011,0.0,0.0
4.801,9097.934,0.00011,0.0,0.0
4.807,8903.098,0.00011,0.0,0.0
4.813,8985.0,0.00011,0.0,0.0
4.82,8872.406,0.00011,0.0,0.0
4.826,8864.769,0.00011,0.0,0.0
4.832,8884.625,0.00011,0.0,0.0
4.838,8858.353,0.00011,0.0,0.0
4.845,8886.259,0.00011,0.0,0.0
4.851,9021.665,0.00011,0.0,0.0
4.857,9015.91,0.00011,0.0,0.0
4.864,9017.421,0.00011,0.0,0.0
4.87,8929.782,0.00011,0.0,0.0
4.876,8743.164,0.00011,0.0,0.0
4.883,8680.536,0.00012,0.0,0.0
4.889,8453.539,0.00012,0.0,0.0
4.895,8378.65,0.00012,0.0,0.0
4.902,8284.191,0.00012,0.0,0.0
4.908,8208.97,0.00012,0.0,0.0
4.914,8200.776,0.00012,0.0,0.0
4.921,8118.132,0.00012,0.0,0.0
4.927,8043.582,0.00012,0.0,0.0
4.933,8046.567,0.00012,0.0,0.0
4.94,7959.125,0.00013,0.0,0.0
4.946,7935.924,0.00013,0.0,0.0
4.952,7944.307,0.00013,0.0,0.0
4.959,7856.662,0.00013,0.0,0.0
4.965,7855.884,0.00013,0.0,0.0
4.971,7774.287,0.00013,0.0,0.0
4.978,7764.608,0.00013,0.0,0.0
4.984,7764.697,0.00013,0.0,0.0
4.99,7677.509,0.00013,0.0,0.0
4.996,7651.087,0.00013,0.0,0.0
5.003,7634.079,0.00013,0.0,0.0
5.009,7571.46,0.00013,0.0,0.0
5.015,7629.574,0.00013,0.0,0.0
5.022,7527.122,0.00013,0.0,0.0
5.028,7518.064,0.00013,0.0,0.0
5.034,7494.302,0.00013,0.0,0.0
5.041,7459.869,0.00013,0.0,0.0
5.047,7424.435,0.00013,0.0,0.0
5.053,7435.292,0.00013,0.0,0.0
5.06,7353.891,0.00014,0.0,0.0
5.066,7389.376,0.00014,0.0,0.0
5.072,7334.369,0.00014,0.0,0.0
5.079,7273.031,0.00014,0.0,0.0
5.085,7306.939,0.00014,0.0,0.0
5.091,7208.368,0.00014,0.0,0.0
5.098,7215.849,0.00014,0.0,0.0
5.104,7190.249,0.00014,0.0,0.0
5.11,7180.308,0.00014,0.0,0.0
5.117,7181.888,0.00014,0.0,0.0
5.123,7140.893,0.00014,0.0,0.0
5.129,7115.799,0.00014,0.0,0.0
5.136,7118.614,0.00014,0.0,0.0
5.142,7083.859,0.00014,0.0,0.0
5.148,7051.431,0.00014,0.0,0.0
5.154,7047.818,0.00014,0.0,0.0
5.161,6993.084,0.00014,0.0,0.0
5.167,7033.296,0.00014,0.0,0.0
5.173,6950.496,0.00014,0.0,0.0
5.18,6972.149,0.00014,0.0,0.0
5.186,6965.163,0.00014,0.0,0.0
5.192,6899.63,0.00014,0.0,0.0
5.199,6915.081,0.00014,0.0,0.0
5.205,6904.739,0.00014,0.0,0.0
5.211,6861.481,0.00015,0.0,0.0
5.218,6869.62,0.00015,0.0,0.0
5.224,6856.037,0.00015,0.0,0.0
5.23,6812.011,0.00015,0.0,0.0
5.237,6836.114,0.00015,0.0,0.0
5.243,6762.808,0.00015,0.0,0.0
5.249,6792.557,0.00015,0.0,0.0
5.256,6752.022,0.00015,0.0,0.0
5.262,6729.191,0.00015,0.0,0.0
5.268,6745.591,0.00015,0.0,0.0
5.275,6697.56,0.00015,0.0,0.0
5.281,6681.027,0.00015,0.0,0.0
5.287,6682.641,0.00015,0.0,0.0
5.294,6648.364,0.00015,0.0,0.0
5.3,6674.492,0.00015,0.0,0.0
5.306,6642.447,0.00015,0.0,0.0
5.312,6599.023,0.00015,0.0,0.0
5.319,6631.441,0.00015,0.0,0.0
5.325,6594.892,0.00015,0.0,0.0
5.331,6571.881,0.00015,0.0,0.0
5.338,6583.746,0.00015,0.0,0.0
5.344,6563.28,0.00015,0.0,0.0
5.35,6547.193,0.00015,0.0,0.0
5.357,6560.027,0.00015,0.0,0.0
5.363,6495.426,0.00015,0.0,0.0
5.369,6520.259,0.00015,0.0,0.0
5.376,6493.179,0.00015,0.0,0.0
5.382,6497.022,0.00015,0.0,0.0
5.388,6512.629,0.00015,0.0,0.0
5.395,6480.449,0.00015,0.0,0.0
5.401,6484.984,0.00015,0.0,0.0
5.407,6444.28,0.00016,0.0,0.0
5.414,6468.75,0.00015,0.0,0.0
5.42,6466.822,0.00015,0.0,0.0
5.426,6448.339,0.00016,0.0,0.0
5.433,6423.891,0.00016,0.0,0.0
5.439,6442.218,0.00016,0.0,0.0
5.445,6402.967,0.00016,0.0,0.0
5.452,6403.766,0.00016,0.0,0.0
5.458,6403.12,0.00016,0.0,0.0
5.464,6413.058,0.00016,0.0,0.0
5.47,6413.782,0.00016,0.0,0.0
5.477,6368.441,0.00016,0.0,0.0
5.483,6376.27,0.00016,0.0,0.0
5.489,6364.762,0.00016,0.0,0.0
5.496,6355.064,0.00016,0.0,0.0
5.502,6365.845,0.00016,0.0,0.0
5.508,6335.604,0.00016,0.0,0.0
5.515,6356.089,0.00016,0.0,0.0
5.521,6364.053,0.00016,0.0,0.0
5.527,6321.141,0.00016,0.0,0.0
5.534,6348.103,0.00016,0.0,0.0
5.54,6328.473,0.00016,0.0,0.0
5.546,6318.73,0.00016,0.0,0.0
5.553,6329.809,0.00016,0.0,0.0
5.559,6297.127,0.00016,0.0,0.0
5.565,6277.785,0.00016,0.0,0.0
5.572,6303.216,0.00016,0.0,0.0
5.578,6289.537,0.00016,0.0,0.0
5.584,6284.966,0.00016,0.0,0.0
5.591,6294.244,0.00016,0.0,0.0
5.597,6291.453,0.00016,0.0,0.0
5.603,6282.411,0.00016,0.0,0.0
5.61,6279.036,0.00016,0.0,0.0
5.616,6287.525,0.00016,0.0,0.0
5.622,6274.776,0.00016,0.0,0.0
5.628,6282.996,0.00016,0.0,0.0
5.635,6280.944,0.00016,0.0,0.0
5.641,6261.036,0.00016,0.0,0.0
5.647,6275.22,0.00016,0.0,0.0
5.654,6283.123,0.00016,0.0,0.0
5.66,6263.337,0.00016,0.0,0.0
5.666,6269.343,0.00016,0.0,0.0
5.673,6280.453,0.00016,0.0,0.0
5.679,6260.28,0.00016,0.0,0.0
5.685,6268.517,0.00016,0.0,0.0
5.692,6256.223,0.00016,0.0,0.0
5.698,6261.208,0.00016,0.0,0.0
5.704,6261.363,0.00016,0.0,0.0
5.711,6237.631,0.00016,0.0,0.0
5.717,6227.27,0.00016,0.0,0.0
5.723,6261.671,0.00016,0.0,0.0
5.73,6223.499,0.00016,0.0,0.0
5.736,6249.85,0.00016,0.0,0.0
5.742,6242.127,0.00016,0.0,0.0
5.749,6244.699,0.00016,0.0,0.0
5.755,6243.601,0.00016,0.0,0.0
5.761,6254.762,0.00016,0.0,0.0
5.768,6236.243,0.00016,0.0,0.0
5.774,6249.767,0.00016,0.0,0.0
5.78,6248.303,0.00016,0.0,0.0
5.786,6257.968,0.00016,0.0,0.0
5.793,6329.175,0.00016,0.0,0.0
5.799,6296.892,0.00016,0.0,0.0
5.805,6312.832,0.00016,0.0,0.0
5.812,6293.963,0.00016,0.0,0.0
5.818,6350.989,0.00016,0.0,0.0
5.824,6355.498,0.00016,0.0,0.0
5.831,6397.8,0.00016,0.0,0.0
5.837,6438.994,0.00016,0.0,0.0
5.843,6498.901,0.00015,0.0,0.0
5.85,6639.925,0.00015,0.0,0.0
5.856,6804.469,0.00015,0.0,0.0
5.862,7084.172,0.00014,0.0,0.0
5.869,7414.828,0.00013,0.0,0.0
5.875,7737.158,0.00013,0.0,0.0
5.881,7942.129,0.00013,0.0,0.0
5.888,7986.434,0.00013,0.0,0.0
5.894,7750.658,0.00013,0.0,0.0
5.9,7483.173,0.00013,0.0,0.0
5.907,7144.985,0.00014,0.0,0.0
5.913,6846.789,0.00015,0.0,0.0
5.919,6631.326,0.00015,0.0,0.0
5.926,6484.245,0.00015,0.0,0.0
5.932,6367.631,0.00016,0.0,0.0
5.938,6336.814,0.00016,0.0,0.0
5.944,6297.086,0.00016,0.0,0.0
5.951,6315.11,0.00016,0.0,0.0
5.957,6258.051,0.00016,0.0,0.0
5.963,6242.0,0.00016,0.0,0.0
5.97,6244.66,0.00016,0.0,0.0
5.976,6201.927,0.00016,0.0,0.0
5.982,6233.403,0.00016,0.0,0.0
5.989,6196.245,0.00016,0.0,0.0
5.995,6180.265,0.00016,0.0,0.0
6.001,6178.035,0.00016,0.0,0.0
6.008,6182.45,0.00016,0.0,0.0
6.014,6149.983,0.00016,0.0,0.0
6.02,6183.133,0.00016,0.0,0.0
6.027,6160.157,0.00016,0.0,0.0
6.033,6163.41,0.00016,0.0,0.0
6.039,6160.684,0.00016,0.0,0.0
6.046,6129.913,0.00016,0.0,0.0
6.052,6144.655,0.00016,0.0,0.0
6.058,6119.1,0.00016,0.0,0.0
6.065,6109.254,0.00016,0.0,0.0
6.071,6124.532,0.00016,0.0,0.0
6.077,6123.753,0.00016,0.0,0.0
6.084,6102.551,0.00016,0.0,0.0
6.09,6107.258,0.00016,0.0,0.0
6.096,6056.74,0.00017,0.0,0.0
6.102,6107.986,0.00016,0.0,0.0
6.109,6095.886,0.00016,0.0,0.0
6.115,6093.879,0.00016,0.0,0.0
6.121,6086.899,0.00016,0.0,0.0
6.128,6070.216,0.00016,0.0,0.0
6.134,6081.393,0.00016,0.0,0.0
6.14,6065.933,0.00016,0.0,0.0
6.147,6115.849,0.00016,0.0,0.0
6.153,6042.963,0.00017,0.0,0.0
6.159,6095.057,0.00016,0.0,0.0
6.166,6064.538,0.00016,0.0,0.0
6.172,6066.648,0.00016,0.0,0.0
6.178,6089.141,0.00016,0.0,0.0
6.185,6083.915,0.00016,0.0,0.0
6.191,6075.228,0.00016,0.0,0.0
6.197,6106.723,0.00016,0.0,0.0
6.204,6060.112,0.00017,0.0,0.0
6.21,6096.587,0.00016,0.0,0.0
6.216,6073.18,0.00016,0.0,0.0
6.223,6112.322,0.00016,0.0,0.0
6.229,6099.755,0.00016,0.0,0.0
6.235,6111.561,0.00016,0.0,0.0
6.242,6136.015,0.00016,0.0,0.0
6.248,6120.185,0.00016,0.0,0.0
6.254,6119.212,0.00016,0.0,0.0
6.26,6134.097,0.00016,0.0,0.0
6.267,6168.644,0.00016,0.0,0.0
6.273,6140.97,0.00016,0.0,0.0
6.279,6150.047,0.00016,0.0,0.0
6.286,6141.118,0.00016,0.0,0.0
6.292,6160.982,0.00016,0.0,0.0
6.298,6161.425,0.00016,0.0,0.0
6.305,6200.967,0.00016,0.0,0.0
6.311,6203.136,0.00016,0.0,0.0
6.317,6176.688,0.00016,0.0,0.0
6.324,6265.442,0.00016,0.0,0.0
6.33,6234.907,0.00016,0.0,0.0
6.336,6258.761,0.00016,0.0,0.0
6.343,6270.805,0.00016,0.0,0.0
6.349,6326.762,0.00016,0.0,0.0
6.355,6314.401,0.00016,0.0,0.0
6.362,6356.281,0.00016,0.0,0.0
6.368,6391.037,0.00016,0.0,0.0
6.374,6402.888,0.00016,0.0,0.0
6.381,6467.462,0.00015,0.0,0.0
6.387,6561.788,0.00015,0.0,0.0
6.393,6539.384,0.00015,0.0,0.0
6.4,6778.039,0.00015,0.0,0.0
6.406,6889.069,0.00015,0.0,0.0
6.412,7281.715,0.00014,0.0,0.0
6.418,7851.286,0.00013,0.0,0.0
6.425,8987.744,0.00011,0.0,0.0
6.431,12005.486,0.00008,0.0,0.0
6.437,15299.624,0.00007,0.0,0.0
6.444,15302.383,0.00007,0.0,0.0
6.45,25149.628,0.00004,0.0,0.0
6.456,17376.653,0.00006,0.0,0.0
6.463,19723.787,0.00005,0.0,0.0
6.469,23195.351,0.00004,0.0,0.0
6.475,11593.112,0.00009,0.0,0.0
6.482,13146.583,0.00008,0.0,0.0
6.488,9110.078,0.00011,0.0,0.0
6.494,7502.008,0.00013,0.0,0.0
6.501,7808.754,0.00013,0.0,0.0
6.507,7086.029,0.00014,0.0,0.0
6.513,6933.321,0.00014,0.0,0.0
6.52,6917.221,0.00014,0.0,0.0
6.526,6899.258,0.00014,0.0,0.0
6.532,6918.152,0.00014,0.0,0.0
6.539,7039.594,0.00014,0.0,0.0
6.545,7173.118,0.00014,0.0,0.0
6.551,7398.966,0.00014,0.0,0.0
6.558,7868.66,0.00013,0.0,0.0
6.564,8451.822,0.00012,0.0,0.0
6.57,9538.375,0.0001,0.0,0.0
6.576,11826.308,0.00008,0.0,0.0
6.583,15148.946,0.00007,0.0,0.0
6.589,23148.844,0.00004,0.0,0.0
6.595,37341.975,0.00003,0.0,0.0
6.602,55849.144,0.00002,0.0,0.0
6.608,85839.228,0.00001,0.0,0.0
6.614,104043.343,0.00001,0.0,0.0
6.621,118258.563,0.00001,0.0,0.0
6.627,95404.615,0.00001,0.0,0.0
6.633,76786.867,0.00001,0.0,0.0
6.64,50991.729,0.00002,0.0,0.0
6.646,31424.2,0.00003,0.0,0.0
6.652,20113.946,0.00005,0.0,0.0
6.659,14600.391,0.00007,0.0,0.0
6.665,10882.236,0.00009,0.0,0.0
6.671,9282.178,0.00011,0.0,0.0
6.678,8170.634,0.00012,0.0,0.0
6.684,7505.639,0.00013,0.0,0.0
6.69,7171.146,0.00014,0.0,0.0
6.697,6887.506,0.00015,0.0,0.0
6.703,6691.137,0.00015,0.0,0.0
6.709,6578.105,0.00015,0.0,0.0
6.716,6466.587,0.00015,0.0,0.0
6.722,6413.274,0.00016,0.0,0.0
6.728,6350.75,0.00016,0.0,0.0
6.734,6296.99,0.00016,0.0,0.0
6.741,6286.592,0.00016,0.0,0.0
6.747,6227.02,0.00016,0.0,0.0
6.753,6233.134,0.00016,0.0,0.0
6.76,6203.437,0.00016,0.0,0.0
6.766,6206.778,0.00016,0.0,0.0
6.772,6171.28,0.00016,0.0,0.0
6.779,6200.795,0.00016,0.0,0.0
6.785,6190.898,0.00016,0.0,0.0
6.791,6155.232,0.00016,0.0,0.0
6.798,6196.047,0.00016,0.0,0.0
6.804,6162.233,0.00016,0.0,0.0
6.81,6193.616,0.00016,0.0,0.0
6.817,6181.249,0.00016,0.0,0.0
6.823,6180.416,0.00016,0.0,0.0
6.829,6138.721,0.00016,0.0,0.0
6.836,6155.631,0.00016,0.0,0.0
6.842,6081.479,0.00016,0.0,0.0
6.848,6116.332,0.00016,0.0,0.0
6.855,6072.877,0.00016,0.0,0.0
6.861,6058.205,0.00017,0.0,0.0
6.867,6059.982,0.00017,0.0,0.0
6.874,6006.822,0.00017,0.0,0.0
6.88,6033.075,0.00017,0.0,0.0
6.886,6010.333,0.00017,0.0,0.0
6.892,6012.839,0.00017,0.0,0.0
6.899,6023.275,0.00017,0.0,0.0
6.905,5991.273,0.00017,0.0,0.0
6.911,5973.303,0.00017,0.0,0.0
6.918,5977.181,0.00017,0.0,0.0
6.924,5962.377,0.00017,0.0,0.0
6.93,5989.998,0.00017,0.0,0.0
6.937,5993.506,0.00017,0.0,0.0
6.943,5974.578,0.00017,0.0,0.0
6.949,5962.777,0.00017,0.0,0.0
6.956,5948.728,0.00017,0.0,0.0
6.962,5971.906,0.00017,0.0,0.0
6.968,5969.381,0.00017,0.0,0.0
6.975,5965.357,0.00017,0.0,0.0
6.981,5965.98,0.00017,0.0,0.0
6.987,5968.852,0.00017,0.0,0.0
6.994,5969.602,0.00017,0.0,0.0
7.0,5976.843,0.00017,0.0,0.0
7.006,5932.037,0.00017,0.0,0.0
7.013,5958.963,0.00017,0.0,0.0
7.019,5942.109,0.00017,0.0,0.0
7.025,5933.513,0.00017,0.0,0.0
7.032,5932.393,0.00017,0.0,0.0
7.038,5929.326,0.00017,0.0,0.0
7.044,5948.964,0.00017,0.0,0.0
7.05,5897.887,0.00017,0.0,0.0
7.057,5924.734,0.00017,0.0,0.0
7.063,5911.2,0.00017,0.0,0.0
7.069,5910.23,0.00017,0.0,0.0
7.076,5901.485,0.00017,0.0,0.0
7.082,5905.549,0.00017,0.0,0.0
7.088,5883.546,0.00017,0.0,0.0
7.095,5888.44,0.00017,0.0,0.0
7.101,5890.468,0.00017,0.0,0.0
7.107,5867.221,0.00017,0.0,0.0
7.114,5879.428,0.00017,0.0,0.0
7.12,5881.224,0.00017,0.0,0.0
7.126,5880.057,0.00017,0.0,0.0
7.133,5838.995,0.00017,0.0,0.0
7.139,5852.169,0.00017,0.0,0.0
7.145,5841.523,0.00017,0.0,0.0
7.152,5842.719,0.00017,0.0,0.0
7.158,5821.975,0.00017,0.0,0.0
7.164,5812.81,0.00017,0.0,0.0
7.171,5812.138,0.00017,0.0,0.0
7.177,5822.142,0.00017,0.0,0.0
7.183,5816.626,0.00017,0.0,0.0
7.19,5818.864,0.00017,0.0,0.0
7.196,5780.928,0.00017,0.0,0.0
7.202,5801.352,0.00017,0.0,0.0
7.208,5782.387,0.00017,0.0,0.0
7.215,5773.174,0.00017,0.0,0.0
7.221,5772.515,0.00017,0.0,0.0
7.227,5768.526,0.00017,0.0,0.0
7.234,5762.848,0.00017,0.0,0.0
7.24,5756.347,0.00017,0.0,0.0
7.246,5754.258,0.00017,0.0,0.0
7.253,5741.411,0.00017,0.0,0.0
7.259,5738.272,0.00017,0.0,0.0
7.265,5757.995,0.00017,0.0,0.0
7.272,5772.64,0.00017,0.0,0.0
7.278,5769.958,0.00017,0.0,0.0
7.284,5796.449,0.00017,0.0,0.0
7.291,5810.18,0.00017,0.0,0.0
7.297,5789.762,0.00017,0.0,0.0
7.303,5802.661,0.00017,0.0,0.0
7.31,5788.264,0.00017,0.0,0.0
7.316,5776.698,0.00017,0.0,0.0
7.322,5729.273,0.00017,0.0,0.0
7.329,5726.314,0.00017,0.0,0.0
7.335,5708.087,0.00018,0.0,0.0
7.341,5696.843,0.00018,0.0,0.0
7.348,5689.669,0.00018,0.0,0.0
7.354,5688.515,0.00018,0.0,0.0
7.36,5694.239,0.00018,0.0,0.0
7.366,5704.422,0.00018,0.0,0.0
7.373,5678.016,0.00018,0.0,0.0
7.379,5667.996,0.00018,0.0,0.0
7.385,5679.342,0.00018,0.0,0.0
7.392,5673.047,0.00018,0.0,0.0
7.398,5676.113,0.00018,0.0,0.0
7.404,5681.681,0.00018,0.0,0.0
7.411,5702.705,0.00018,0.0,0.0
7.417,5705.467,0.00018,0.0,0.0
7.423,5690.735,0.00018,0.0,0.0
7.43,5708.812,0.00018,0.0,0.0
7.436,5711.457,0.00018,0.0,0.0
7.442,5710.54,0.00018,0.0,0.0
7.449,5732.702,0.00017,0.0,0.0
7.455,5721.109,0.00017,0.0,0.0
7.461,5745.449,0.00017,0.0,0.0
7.468,5748.598,0.00017,0.0,0.0
7.474,5750.269,0.00017,0.0,0.0
7.48,5755.186,0.00017,0.0,0.0
7.487,5768.549,0.00017,0.0,0.0
7.493,5773.998,0.00017,0.0,0.0
7.499,5793.131,0.00017,0.0,0.0
7.506,5803.151,0.00017,0.0,0.0
7.512,5831.328,0.00017,0.0,0.0
7.518,5852.033,0.00017,0.0,0.0
7.524,5869.063,0.00017,0.0,0.0
7.531,5880.36,0.00017,0.0,0.0
7.537,5920.123,0.00017,0.0,0.0
7.543,5947.54,0.00017,0.0,0.0
7.55,6005.237,0.00017,0.0,0.0
7.556,6035.758,0.00017,0.0,0.0
7.562,6149.748,0.00016,0.0,0.0
7.569,6266.279,0.00016,0.0,0.0
7.575,6420.573,0.00016,0.0,0.0
7.581,6641.481,0.00015,0.0,0.0
7.588,7024.076,0.00014,0.0,0.0
7.594,7618.923,0.00013,0.0,0.0
7.6,8833.878,0.00011,0.0,0.0
7.607,10532.413,0.00009,0.0,0.0
7.613,14321.531,0.00007,0.0,0.0
7.619,19629.215,0.00005,0.0,0.0
7.626,29659.723,0.00003,0.0,0.0
7.632,38550.709,0.00003,0.0,0.0
7.638,46860.048,0.00002,0.0,0.0
7.645,52191.091,0.00002,0.0,0.0
7.651,48085.827,0.00002,0.0,0.0
7.657,43830.649,0.00002,0.0,0.0
7.664,30215.513,0.00003,0.0,0.0
7.67,22930.536,0.00004,0.0,0.0
7.676,14777.932,0.00007,0.0,0.0
7.682,11577.653,0.00009,0.0,0.0
7.689,9140.252,0.00011,0.0,0.0
7.695,8027.267,0.00012,0.0,0.0
7.701,7333.543,0.00014,0.0,0.0
7.708,6912.264,0.00014,0.0,0.0
7.714,6681.805,0.00015,0.0,0.0
7.72,6524.897,0.00015,0.0,0.0
7.727,6448.754,0.00016,0.0,0.0
7.733,6385.536,0.00016,0.0,0.0
7.739,6319.53,0.00016,0.0,0.0
7.746,6333.656,0.00016,0.0,0.0
7.752,6305.876,0.00016,0.0,0.0
7.758,6289.685,0.00016,0.0,0.0
7.765,6312.516,0.00016,0.0,0.0
7.771,6319.449,0.00016,0.0,0.0
7.777,6326.418,0.00016,0.0,0.0
7.784,6330.831,0.00016,0.0,0.0
7.79,6331.262,0.00016,0.0,0.0
7.796,6378.609,0.00016,0.0,0.0
7.803,6420.344,0.00016,0.0,0.0
7.809,6430.623,0.00016,0.0,0.0
7.815,6472.941,0.00015,0.0,0.0
7.822,6473.618,0.00015,0.0,0.0
7.828,6571.11,0.00015,0.0,0.0
7.834,6568.528,0.00015,0.0,0.0
7.84,6632.252,0.00015,0.0,0.0
7.847,6722.854,0.00015,0.0,0.0
7.853,6813.811,0.00015,0.0,0.0
7.859,6935.144,0.00014,0.0,0.0
7.866,7059.816,0.00014,0.0,0.0
7.872,7475.362,0.00013,0.0,0.0
7.878,7861.018,0.00013,0.0,0.0
7.885,9218.886,0.00011,0.0,0.0
7.891,10162.341,0.0001,0.0,0.0
7.897,13174.854,0.00008,0.0,0.0
7.904,15041.52,0.00007,0.0,0.0
7.91,16367.074,0.00006,0.0,0.0
7.916,16711.28,0.00006,0.0,0.0
7.923,13895.571,0.00007,0.0,0.0
7.929,11400.44,0.00009,0.0,0.0
7.935,9220.071,0.00011,0.0,0.0
7.942,8462.387,0.00012,0.0,0.0
7.948,7684.617,0.00013,0.0,0.0
7.954,7317.226,0.00014,0.0,0.0
7.961,7125.6,0.00014,0.0,0.0
7.967,6969.024,0.00014,0.0,0.0
7.973,6865.268,0.00015,0.0,0.0
7.98,6849.302,0.00015,0.0,0.0
7.986,6763.213,0.00015,0.0,0.0
7.992,6742.818,0.00015,0.0,0.0
7.998,6729.735,0.00015,0.0,0.0
8.005,6676.416,0.00015,0.0,0.0
8.011,6651.515,0.00015,0.0,0.0
8.017,6663.612,0.00015,0.0,0.0
8.024,6643.834,0.00015,0.0,0.0
8.03,6639.61,0.00015,0.0,0.0
8.036,6621.536,0.00015,0.0,0.0
8.043,6589.359,0.00015,0.0,0.0
8.049,6585.703,0.00015,0.0,0.0
8.055,6554.907,0.00015,0.0,0.0
8.062,6594.602,0.00015,0.0,0.0
8.068,6561.498,0.00015,0.0,0.0
8.074,6562.498,0.00015,0.0,0.0
8.081,6565.618,0.00015,0.0,0.0
8.087,6557.502,0.00015,0.0,0.0
8.093,6563.838,0.00015,0.0,0.0
8.1,6550.986,0.00015,0.0,0.0
8.106,6569.058,0.00015,0.0,0.0
8.112,6612.122,0.00015,0.0,0.0
8.119,6621.998,0.00015,0.0,0.0
8.125,6671.623,0.00015,0.0,0.0
8.131,6749.014,0.00015,0.0,0.0
8.138,6769.143,0.00015,0.0,0.0
8.144,6808.534,0.00015,0.0,0.0
8.15,6842.804,0.00015,0.0,0.0
8.156,6786.556,0.00015,0.0,0.0
8.163,6744.232,0.00015,0.0,0.0
8.169,6662.71,0.00015,0.0,0.0
8.175,6609.85,0.00015,0.0,0.0
8.182,6570.139,0.00015,0.0,0.0
8.188,6493.753,0.00015,0.0,0.0
8.194,6487.371,0.00015,0.0,0.0
8.201,6472.976,0.00015,0.0,0.0
8.207,6451.522,0.00016,0.0,0.0
8.213,6445.055,0.00016,0.0,0.0
8.22,6417.889,0.00016,0.0,0.0
8.226,6424.27,0.00016,0.0,0.0
8.232,6389.56,0.00016,0.0,0.0
8.239,6396.99,0.00016,0.0,0.0
8.245,6384.241,0.00016,0.0,0.0
8.251,6366.898,0.00016,0.0,0.0
8.258,6363.862,0.00016,0.0,0.0
8.264,6340.157,0.00016,0.0,0.0
8.27,6342.05,0.00016,0.0,0.0
8.277,6337.732,0.00016,0.0,0.0
8.283,6341.867,0.00016,0.0,0.0
8.289,6313.778,0.00016,0.0,0.0
8.296,6328.946,0.00016,0.0,0.0
8.302,6329.875,0.00016,0.0,0.0
8.308,6316.639,0.00016,0.0,0.0
8.314,6319.415,0.00016,0.0,0.0
8.321,6312.68,0.00016,0.0,0.0
8.327,6289.008,0.00016,0.0,0.0
8.333,6324.168,0.00016,0.0,0.0
8.34,6320.227,0.00016,0.0,0.0
8.346,6340.673,0.00016,0.0,0.0
8.352,6380.216,0.00016,0.0,0.0
8.359,6422.807,0.00016,0.0,0.0
8.365,6462.326,0.00015,0.0,0.0
8.371,6491.144,0.00015,0.0,0.0
8.378,6522.24,0.00015,0.0,0.0
8.384,6499.901,0.00015,0.0,0.0
8.39,6476.297,0.00015,0.0,0.0
8.397,6434.862,0.00016,0.0,0.0
8.403,6380.638,0.00016,0.0,0.0
8.409,6338.526,0.00016,0.0,0.0
8.416,6292.242,0.00016,0.0,0.0
8.422,6241.936,0.00016,0.0,0.0
8.428,6224.596,0.00016,0.0,0.0
8.435,6210.767,0.00016,0.0,0.0
8.441,6201.965,0.00016,0.0,0.0
8.447,6189.64,0.00016,0.0,0.0
8.454,6196.511,0.00016,0.0,0.0
8.46,6185.325,0.00016,0.0,0.0
8.466,6158.762,0.00016,0.0,0.0
8.472,6171.621,0.00016,0.0,0.0
8.479,6168.163,0.00016,0.0,0.0
8.485,6166.466,0.00016,0.0,0.0
8.491,6177.875,0.00016,0.0,0.0
8.498,6175.343,0.00016,0.0,0.0
8.504,6173.717,0.00016,0.0,0.0
8.51,6174.043,0.00016,0.0,0.0
8.517,6166.527,0.00016,0.0,0.0
8.523,6146.543,0.00016,0.0,0.0
8.529,6129.05,0.00016,0.0,0.0
8.536,6130.78,0.00016,0.0,0.0
8.542,6127.688,0.00016,0.0,0.0
8.548,6140.971,0.00016,0.0,0.0
8.555,6112.09,0.00016,0.0,0.0
8.561,6109.513,0.00016,0.0,0.0
8.567,6111.875,0.00016,0.0,0.0
8.574,6127.432,0.00016,0.0,0.0
8.58,6112.104,0.00016,0.0,0.0
8.586,6105.892,0.00016,0.0,0.0
8.593,6101.896,0.00016,0.0,0.0
8.599,6100.518,0.00016,0.0,0.0
8.605,6090.089,0.00016,0.0,0.0
8.612,6096.307,0.00016,0.0,0.0
8.618,6084.573,0.00016,0.0,0.0
8.624,6084.175,0.00016,0.0,0.0
8.63,6088.85,0.00016,0.0,0.0
8.637,6089.645,0.00016,0.0,0.0
8.643,6089.294,0.00016,0.0,0.0
8.649,6063.384,0.00016,0.0,0.0
8.656,6075.217,0.00016,0.0,0.0
8.662,6092.541,0.00016,0.0,0.0
8.668,6083.417,0.00016,0.0,0.0
8.675,6073.607,0.00016,0.0,0.0
8.681,6066.266,0.00016,0.0,0.0
8.687,6083.537,0.00016,0.0,0.0
8.694,6081.119,0.00016,0.0,0.0
8.7,6064.334,0.00016,0.0,0.0
8.706,6070.508,0.00016,0.0,0.0
8.713,6071.756,0.00016,0.0,0.0
8.719,6077.489,0.00016,0.0,0.0
8.725,6086.14,0.00016,0.0,0.0
8.732,6077.323,0.00016,0.0,0.0
8.738,6066.664,0.00016,0.0,0.0
8.744,6082.196,0.00016,0.0,0.0
8.751,6071.807,0.00016,0.0,0.0
8.757,6071.598,0.00016,0.0,0.0
8.763,6074.244,0.00016,0.0,0.0
8.77,6079.398,0.00016,0.0,0.0
8.776,6077.178,0.00016,0.0,0.0
8.782,6066.647,0.00016,0.0,0.0
8.788,6074.356,0.00016,0.0,0.0
8.795,6081.361,0.00016,0.0,0.0
8.801,6074.84,0.00016,0.0,0.0
8.807,6073.911,0.00016,0.0,0.0
8.814,6078.325,0.00016,0.0,0.0
8.82,6076.853,0.00016,0.0,0.0
8.826,6073.747,0.00016,0.0,0.0
8.833,6063.324,0.00016,0.0,0.0
8.839,6088.74,0.00016,0.0,0.0
8.845,6072.237,0.00016,0.0,0.0
8.852,6075.157,0.00016,0.0,0.0
8.858,6103.443,0.00016,0.0,0.0
8.864,6086.117,0.00016,0.0,0.0
8.871,6102.097,0.00016,0.0,0.0
8.877,6108.106,0.00016,0.0,0.0
8.883,6089.222,0.00016,0.0,0.0
8.89,6108.679,0.00016,0.0,0.0
8.896,6104.185,0.00016,0.0,0.0
8.902,6106.405,0.00016,0.0,0.0
8.909,6134.472,0.00016,0.0,0.0
8.915,6113.279,0.00016,0.0,0.0
8.921,6120.292,0.00016,0.0,0.0
8.928,6138.582,0.00016,0.0,0.0
8.934,6125.576,0.00016,0.0,0.0
8.94,6156.094,0.00016,0.0,0.0
8.946,6132.387,0.00016,0.0,0.0
8.953,6173.49,0.00016,0.0,0.0
8.959,6162.902,0.00016,0.0,0.0
8.965,6158.461,0.00016,0.0,0.0
8.972,6197.872,0.00016,0.0,0.0
8.978,6193.77,0.00016,0.0,0.0
8.984,6171.585,0.00016,0.0,0.0
8.991,6191.26,0.00016,0.0,0.0
8.997,6178.178,0.00016,0.0,0.0
9.003,6217.957,0.00016,0.0,0.0
9.01,6186.56,0.00016,0.0,0.0
9.016,6180.025,0.00016,0.0,0.0
9.022,6253.767,0.00016,0.0,0.0
9.029,6223.12,0.00016,0.0,0.0
9.035,6260.744,0.00016,0.0,0.0
9.041,6254.226,0.00016,0.0,0.0
9.048,6273.914,0.00016,0.0,0.0
9.054,6300.267,0.00016,0.0,0.0
9.06,6293.746,0.00016,0.0,0.0
9.067,6288.109,0.00016,0.0,0.0
9.073,6378.996,0.00016,0.0,0.0
9.079,6353.08,0.00016,0.0,0.0
9.086,6389.249,0.00016,0.0,0.0
9.092,6478.287,0.00015,0.0,0.0
9.098,6493.452,0.00015,0.0,0.0
9.104,6770.337,0.00015,0.0,0.0
9.111,6899.452,0.00014,0.0,0.0
9.117,7780.936,0.00013,0.0,0.0
9.123,7908.114,0.00013,0.0,0.0
9.13,9580.624,0.0001,0.0,0.0
9.136,9751.691,0.0001,0.0,0.0
9.142,10772.543,0.00009,0.0,0.0
9.149,12807.185,0.00008,0.0,0.0
9.155,8915.961,0.00011,0.0,0.0
9.161,7527.116,0.00013,0.0,0.0
9.168,9394.063,0.00011,0.0,0.0
9.174,6684.337,0.00015,0.0,0.0
9.18,6715.951,0.00015,0.0,0.0
9.187,6651.338,0.00015,0.0,0.0
9.193,6363.679,0.00016,0.0,0.0
9.199,6418.207,0.00016,0.0,0.0
9.206,6339.626,0.00016,0.0,0.0
9.212,6263.196,0.00016,0.0,0.0
9.218,6289.985,0.00016,0.0,0.0
9.225,6222.284,0.00016,0.0,0.0
9.231,6189.919,0.00016,0.0,0.0
9.237,6209.722,0.00016,0.0,0.0
9.244,6174.867,0.00016,0.0,0.0
9.25,6148.963,0.00016,0.0,0.0
9.256,6133.911,0.00016,0.0,0.0
9.262,6070.218,0.00016,0.0,0.0
9.269,6131.853,0.00016,0.0,0.0
9.275,6085.502,0.00016,0.0,0.0
9.281,6067.583,0.00016,0.0,0.0
9.288,6082.568,0.00016,0.0,0.0
9.294,6026.512,0.00017,0.0,0.0
9.3,6040.14,0.00017,0.0,0.0
9.307,6002.169,0.00017,0.0,0.0
9.313,5992.63,0.00017,0.0,0.0
9.319,6006.557,0.00017,0.0,0.0
9.326,5957.276,0.00017,0.0,0.0
9.332,5951.866,0.00017,0.0,0.0
9.338,5946.95,0.00017,0.0,0.0
9.345,5910.901,0.00017,0.0,0.0
9.351,5940.165,0.00017,0.0,0.0
9.357,5894.133,0.00017,0.0,0.0
9.364,5876.083,0.00017,0.0,0.0
9.37,5869.226,0.00017,0.0,0.0
9.376,5857.044,0.00017,0.0,0.0
9.383,5837.543,0.00017,0.0,0.0
9.389,5845.789,0.00017,0.0,0.0
9.395,5818.425,0.00017,0.0,0.0
9.402,5798.826,0.00017,0.0,0.0
9.408,5817.177,0.00017,0.0,0.0
9.414,5787.716,0.00017,0.0,0.0
9.42,5813.045,0.00017,0.0,0.0
9.427,5778.459,0.00017,0.0,0.0
9.433,5784.312,0.00017,0.0,0.0
9.439,5760.928,0.00017,0.0,0.0
9.446,5746.734,0.00017,0.0,0.0
9.452,5744.889,0.00017,0.0,0.0
9.458,5751.611,0.00017,0.0,0.0
9.465,5751.961,0.00017,0.0,0.0
9.471,5770.351,0.00017,0.0,0.0
9.477,5775.48,0.00017,0.0,0.0
9.484,5773.143,0.00017,0.0,0.0
9.49,5777.923,0.00017,0.0,0.0
9.496,5790.93,0.00017,0.0,0.0
9.503,5774.519,0.00017,0.0,0.0
9.509,5738.894,0.00017,0.0,0.0
9.515,5712.624,0.00018,0.0,0.0
9.522,5703.181,0.00018,0.0,0.0
9.528,5648.177,0.00018,0.0,0.0
9.534,5645.587,0.00018,0.0,0.0
9.541,5633.956,0.00018,0.0,0.0
9.547,5604.809,0.00018,0.0,0.0
9.553,5598.556,0.00018,0.0,0.0
9.56,5588.083,0.00018,0.0,0.0
9.566,5583.523,0.00018,0.0,0.0
9.572,5589.702,0.00018,0.0,0.0
9.578,5570.623,0.00018,0.0,0.0
9.585,5543.078,0.00018,0.0,0.0
9.591,5545.529,0.00018,0.0,0.0
9.597,5552.095,0.00018,0.0,0.0
9.604,5531.589,0.00018,0.0,0.0
9.61,5528.207,0.00018,0.0,0.0
9.616,5524.291,0.00018,0.0,0.0
9.623,5504.001,0.00018,0.0,0.0
9.629,5513.197,0.00018,0.0,0.0
9.635,5514.764,0.00018,0.0,0.0
9.642,5491.483,0.00018,0.0,0.0
9.648,5497.736,0.00018,0.0,0.0
9.654,5513.926,0.00018,0.0,0.0
9.661,5484.849,0.00018,0.0,0.0
9.667,5488.611,0.00018,0.0,0.0
9.673,5487.735,0.00018,0.0,0.0
9.68,5481.042,0.00018,0.0,0.0
9.686,5474.252,0.00018,0.0,0.0
9.692,5462.87,0.00018,0.0,0.0
9.699,5461.718,0.00018,0.0,0.0
9.705,5476.455,0.00018,0.0,0.0
9.711,5456.667,0.00018,0.0,0.0
9.718,5457.427,0.00018,0.0,0.0
9.724,5463.967,0.00018,0.0,0.0
9.73,5458.262,0.00018,0.0,0.0
9.736,5454.337,0.00018,0.0,0.0
9.743,5457.937,0.00018,0.0,0.0
9.749,5440.07,0.00018,0.0,0.0
9.755,5459.938,0.00018,0.0,0.0
9.762,5432.102,0.00018,0.0,0.0
9.768,5442.022,0.00018,0.0,0.0
9.774,5439.406,0.00018,0.0,0.0
9.781,5433.432,0.00018,0.0,0.0
9.787,5444.722,0.00018,0.0,0.0
9.793,5430.082,0.00018,0.0,0.0
9.8,5448.54,0.00018,0.0,0.0
9.806,5441.377,0.00018,0.0,0.0
9.812,5427.034,0.00018,0.0,0.0
9.819,5423.479,0.00018,0.0,0.0
9.825,5429.105,0.00018,0.0,0.0
9.831,5443.766,0.00018,0.0,0.0
9.838,5440.281,0.00018,0.0,0.0
9.844,5444.672,0.00018,0.0,0.0
9.85,5432.686,0.00018,0.0,0.0
9.857,5420.2,0.00018,0.0,0.0
9.863,5414.539,0.00018,0.0,0.0
9.869,5432.033,0.00018,0.0,0.0
9.876,5412.12,0.00018,0.0,0.0
9.882,5430.59,0.00018,0.0,0.0
9.888,5425.149,0.00018,0.0,0.0
9.894,5406.327,0.00018,0.0,0.0
9.901,5434.283,0.00018,0.0,0.0
9.907,5425.822,0.00018,0.0,0.0
9.913,5421.71,0.00018,0.0,0.0
9.92,5419.977,0.00018,0.0,0.0
9.926,5411.743,0.00018,0.0,0.0
9.932,5437.584,0.00018,0.0,0.0
9.939,5402.059,0.00019,0.0,0.0
9.945,5410.928,0.00018,0.0,0.0
9.951,5447.578,0.00018,0.0,0.0
9.958,5429.116,0.00018,0.0,0.0
9.964,5429.139,0.00018,0.0,0.0
9.97,5439.569,0.00018,0.0,0.0
9.977,5449.565,0.00018,0.0,0.0
9.983,5473.376,0.00018,0.0,0.0
9.989,5451.362,0.00018,0.0,0.0
9.996,5464.325,0.00018,0.0,0.0
10.002,5478.218,0.00018,0.0,0.0
10.008,5438.942,0.00018,0.0,0.0
10.015,5477.609,0.00018,0.0,0.0
10.021,5449.533,0.00018,0.0,0.0
10.027,5491.923,0.00018,0.0,0.0
10.034,5477.123,0.00018,0.0,0.0
10.04,5476.382,0.00018,0.0,0.0
10.046,5526.005,0.00018,0.0,0.0
10.052,5499.871,0.00018,0.0,0.0
10.059,5500.581,0.00018,0.0,0.0
10.065,5546.945,0.00018,0.0,0.0
10.071,5540.29,0.00018,0.0,0.0
10.078,5526.603,0.00018,0.0,0.0
10.084,5571.047,0.00018,0.0,0.0
10.09,5538.393,0.00018,0.0,0.0
10.097,5591.972,0.00018,0.0,0.0
10.103,5538.81,0.00018,0.0,0.0
10.109,5586.943,0.00018,0.0,0.0
10.116,5632.989,0.00018,0.0,0.0
10.122,5618.783,0.00018,0.0,0.0
10.128,5670.613,0.00018,0.0,0.0
10.135,5667.199,0.00018,0.0,0.0
10.141,5712.321,0.00018,0.0,0.0
10.147,5737.859,0.00017,0.0,0.0
10.154,5773.846,0.00017,0.0,0.0
10.16,5891.246,0.00017,0.0,0.0
10.166,6167.762,0.00016,0.0,0.0
10.173,6351.292,0.00016,0.0,0.0
10.179,7071.611,0.00014,0.0,0.0
10.185,8738.451,0.00011,0.0,0.0
10.192,9258.507,0.00011,0.0,0.0
10.198,10268.074,0.0001,0.0,0.0
10.204,14293.984,0.00007,0.0,0.0
10.21,15090.215,0.00007,0.0,0.0
10.217,20322.856,0.00005,0.0,0.0
10.223,15528.695,0.00006,0.0,0.0
10.229,12793.92,0.00008,0.0,0.0
10.236,16851.974,0.00006,0.0,0.0
10.242,9007.079,0.00011,0.0,0.0
10.248,9315.873,0.00011,0.0,0.0
10.255,7077.443,0.00014,0.0,0.0
10.261,6377.445,0.00016,0.0,0.0
10.267,6271.894,0.00016,0.0,0.0
10.274,5773.777,0.00017,0.0,0.0
10.28,5844.919,0.00017,0.0,0.0
10.286,5650.026,0.00018,0.0,0.0
10.293,5654.142,0.00018,0.0,0.0
10.299,5598.787,0.00018,0.0,0.0
10.305,5561.808,0.00018,0.0,0.0
10.312,5551.431,0.00018,0.0,0.0
10.318,5519.413,0.00018,0.0,0.0
10.324,5522.938,0.00018,0.0,0.0
10.331,5445.617,0.00018,0.0,0.0
10.337,5434.633,0.00018,0.0,0.0
10.343,5453.719,0.00018,0.0,0.0
10.35,5433.275,0.00018,0.0,0.0
10.356,5423.894,0.00018,0.0,0.0
10.362,5395.277,0.00019,0.0,0.0
10.368,5335.148,0.00019,0.0,0.0
10.375,5404.439,0.00019,0.0,0.0
10.381,5338.122,0.00019,0.0,0.0
10.387,5344.103,0.00019,0.0,0.0
10.394,5359.202,0.00019,0.0,0.0
10.4,5315.75,0.00019,0.0,0.0
10.406,5339.747,0.00019,0.0,0.0
10.413,5294.171,0.00019,0.0,0.0
10.419,5283.394,0.00019,0.0,0.0
10.425,5324.268,0.00019,0.0,0.0
10.432,5276.397,0.00019,0.0,0.0
10.438,5278.416,0.00019,0.0,0.0
10.444,5274.387,0.00019,0.0,0.0
10.451,5240.871,0.00019,0.0,0.0
10.457,5288.214,0.00019,0.0,0.0
10.463,5233.07,0.00019,0.0,0.0
10.47,5227.885,0.00019,0.0,0.0
10.476,5242.883,0.00019,0.0,0.0
10.482,5197.045,0.00019,0.0,0.0
10.489,5236.018,0.00019,0.0,0.0
10.495,5207.304,0.00019,0.0,0.0
10.501,5214.861,0.00019,0.0,0.0
10.508,5228.789,0.00019,0.0,0.0
10.514,5182.972,0.00019,0.0,0.0
10.52,5207.424,0.00019,0.0,0.0
10.526,5185.592,0.00019,0.0,0.0
10.533,5156.5,0.00019,0.0,0.0
10.539,5199.642,0.00019,0.0,0.0
10.545,5177.234,0.00019,0.0,0.0
10.552,5190.96,0.00019,0.0,0.0
10.558,5191.241,0.00019,0.0,0.0
10.564,5141.85,0.00019,0.0,0.0
10.571,5191.452,0.00019,0.0,0.0
10.577,5166.352,0.00019,0.0,0.0
10.583,5169.144,0.00019,0.0,0.0
10.59,5177.287,0.00019,0.0,0.0
10.596,5159.893,0.00019,0.0,0.0
10.602,5169.541,0.00019,0.0,0.0
10.609,5156.553,0.00019,0.0,0.0
10.615,5139.615,0.00019,0.0,0.0
10.621,5168.279,0.00019,0.0,0.0
10.628,5158.943,0.00019,0.0,0.0
10.634,5164.542,0.00019,0.0,0.0
10.64,5160.192,0.00019,0.0,0.0
10.647,5142.774,0.00019,0.0,0.0
10.653,5166.311,0.00019,0.0,0.0
10.659,5148.494,0.00019,0.0,0.0
10.666,5149.673,0.00019,0.0,0.0
10.672,5155.46,0.00019,0.0,0.0
10.678,5156.088,0.00019,0.0,0.0
10.684,5176.757,0.00019,0.0,0.0
10.691,5162.8,0.00019,0.0,0.0
10.697,5147.873,0.00019,0.0,0.0
10.703,5179.065,0.00019,0.0,0.0
10.71,5194.296,0.00019,0.0,0.0
10.716,5230.999,0.00019,0.0,0.0
10.722,5219.526,0.00019,0.0,0.0
10.729,5237.867,0.00019,0.0,0.0
10.735,5277.756,0.00019,0.0,0.0
10.741,5322.691,0.00019,0.0,0.0
10.748,5380.301,0.00019,0.0,0.0
10.754,5462.168,0.00018,0.0,0.0
10.76,5588.264,0.00018,0.0,0.0
10.767,5837.957,0.00017,0.0,0.0
10.773,6158.244,0.00016,0.0,0.0
10.779,6946.338,0.00014,0.0,0.0
10.786,8200.639,0.00012,0.0,0.0
10.792,10297.11,0.0001,0.0,0.0
10.798,15370.641,0.00007,0.0,0.0
10.805,17718.355,0.00006,0.0,0.0
10.811,26864.925,0.00004,0.0,0.0
10.817,31486.671,0.00003,0.0,0.0
10.824,31812.119,0.00003,0.0,0.0
10.83,31491.771,0.00003,0.0,0.0
10.836,25593.799,0.00004,0.0,0.0
10.842,18302.266,0.00005,0.0,0.0
10.849,13731.867,0.00007,0.0,0.0
10.855,9625.221,0.0001,0.0,0.0
10.861,7906.621,0.00013,0.0,0.0
10.868,6749.052,0.00015,0.0,0.0
10.874,6058.238,0.00017,0.0,0.0
10.88,5779.445,0.00017,0.0,0.0
10.887,5536.83,0.00018,0.0,0.0
10.893,5399.73,0.00019,0.0,0.0
10.899,5321.442,0.00019,0.0,0.0
10.906,5250.753,0.00019,0.0,0.0
10.912,5218.22,0.00019,0.0,0.0
10.918,5175.483,0.00019,0.0,0.0
10.925,5161.065,0.00019,0.0,0.0
10.931,5150.28,0.00019,0.0,0.0
10.937,5129.422,0.00019,0.0,0.0
10.944,5123.946,0.0002,0.0,0.0
10.95,5113.451,0.0002,0.0,0.0
10.956,5099.062,0.0002,0.0,0.0
10.963,5101.415,0.0002,0.0,0.0
10.969,5059.894,0.0002,0.0,0.0
10.975,5051.005,0.0002,0.0,0.0
10.982,5039.591,0.0002,0.0,0.0
10.988,5001.719,0.0002,0.0,0.0
10.994,5008.68,0.0002,0.0,0.0
11.0,4979.957,0.0002,0.0,0.0
11.007,4977.733,0.0002,0.0,0.0
11.013,4978.164,0.0002,0.0,0.0
11.019,4973.017,0.0002,0.0,0.0
11.026,4972.956,0.0002,0.0,0.0
11.032,4952.405,0.0002,0.0,0.0
11.038,4943.325,0.0002,0.0,0.0
11.045,4938.892,0.0002,0.0,0.0
11.051,4927.33,0.0002,0.0,0.0
11.057,4929.278,0.0002,0.0,0.0
11.064,4915.174,0.0002,0.0,0.0
11.07,4908.98,0.0002,0.0,0.0
11.076,4915.117,0.0002,0.0,0.0
11.083,4899.496,0.0002,0.0,0.0
11.089,4882.272,0.0002,0.0,0.0
11.095,4886.155,0.0002,0.0,0.0
11.102,4891.003,0.0002,0.0,0.0
11.108,4876.284,0.00021,0.0,0.0
11.114,4886.404,0.0002,0.0,0.0
11.121,4873.856,0.00021,0.0,0.0
11.127,4875.606,0.00021,0.0,0.0
11.133,4871.544,0.00021,0.0,0.0
11.14,4878.957,0.0002,0.0,0.0
11.146,4864.985,0.00021,0.0,0.0
11.152,4865.306,0.00021,0.0,0.0
11.158,4862.972,0.00021,0.0,0.0
11.165,4870.294,0.00021,0.0,0.0
11.171,4875.195,0.00021,0.0,0.0
11.177,4848.795,0.00021,0.0,0.0
11.184,4872.897,0.00021,0.0,0.0
11.19,4886.661,0.0002,0.0,0.0
11.196,4867.89,0.00021,0.0,0.0
11.203,4875.106,0.00021,0.0,0.0
11.209,4918.082,0.0002,0.0,0.0
11.215,4868.309,0.00021,0.0,0.0
11.222,4951.075,0.0002,0.0,0.0
11.228,4841.985,0.00021,0.0,0.0
11.234,4872.003,0.00021,0.0,0.0
11.241,4819.126,0.00021,0.0,0.0
11.247,4822.898,0.00021,0.0,0.0
11.253,4800.603,0.00021,0.0,0.0
11.26,4808.789,0.00021,0.0,0.0
11.266,4807.416,0.00021,0.0,0.0
11.272,4801.711,0.00021,0.0,0.0
11.279,4788.976,0.00021,0.0,0.0
11.285,4800.753,0.00021,0.0,0.0
11.291,4795.153,0.00021,0.0,0.0
11.298,4787.105,0.00021,0.0,0.0
11.304,4780.943,0.00021,0.0,0.0
11.31,4791.902,0.00021,0.0,0.0
11.316,4775.217,0.00021,0.0,0.0
11.323,4778.884,0.00021,0.0,0.0
11.329,4785.524,0.00021,0.0,0.0
11.335,4786.075,0.00021,0.0,0.0
11.342,4775.763,0.00021,0.0,0.0
11.348,4769.848,0.00021,0.0,0.0
11.354,4776.632,0.00021,0.0,0.0
11.361,4770.181,0.00021,0.0,0.0
11.367,4758.611,0.00021,0.0,0.0
11.373,4759.767,0.00021,0.0,0.0
11.38,4759.905,0.00021,0.0,0.0
11.386,4760.361,0.00021,0.0,0.0
11.392,4749.743,0.00021,0.0,0.0
11.399,4751.789,0.00021,0.0,0.0
11.405,4743.547,0.00021,0.0,0.0
11.411,4762.058,0.00021,0.0,0.0
11.418,4747.179,0.00021,0.0,0.0
11.424,4756.88,0.00021,0.0,0.0
11.43,4742.703,0.00021,0.0,0.0
11.437,4762.307,0.00021,0.0,0.0
11.443,4746.482,0.00021,0.0,0.0
11.449,4755.253,0.00021,0.0,0.0
11.456,4754.2,0.00021,0.0,0.0
11.462,4752.201,0.00021,0.0,0.0
11.468,4747.131,0.00021,0.0,0.0
11.474,4737.27,0.00021,0.0,0.0
11.481,4746.855,0.00021,0.0,0.0
11.487,4750.114,0.00021,0.0,0.0
11.493,4756.147,0.00021,0.0,0.0
11.5,4769.1,0.00021,0.0,0.0
11.506,4761.476,0.00021,0.0,0.0
11.512,4772.602,0.00021,0.0,0.0
11.519,4773.694,0.00021,0.0,0.0
11.525,4796.814,0.00021,0.0,0.0
11.531,4802.903,0.00021,0.0,0.0
11.538,4804.903,0.00021,0.0,0.0
11.544,4802.033,0.00021,0.0,0.0
11.55,4787.371,0.00021,0.0,0.0
11.557,4760.752,0.00021,0.0,0.0
11.563,4755.069,0.00021,0.0,0.0
11.569,4752.461,0.00021,0.0,0.0
11.576,4748.266,0.00021,0.0,0.0
11.582,4729.041,0.00021,0.0,0.0
11.588,4733.444,0.00021,0.0,0.0
11.595,4724.831,0.00021,0.0,0.0
11.601,4730.298,0.00021,0.0,0.0
11.607,4727.28,0.00021,0.0,0.0
11.614,4717.296,0.00021,0.0,0.0
11.62,4722.648,0.00021,0.0,0.0
11.626,4725.056,0.00021,0.0,0.0
11.632,4715.963,0.00021,0.0,0.0
11.639,4726.326,0.00021,0.0,0.0
11.645,4709.74,0.00021,0.0,0.0
11.651,4713.453,0.00021,0.0,0.0
11.658,4727.111,0.00021,0.0,0.0
11.664,4730.297,0.00021,0.0,0.0
11.67,4715.429,0.00021,0.0,0.0
11.677,4708.052,0.00021,0.0,0.0
11.683,4732.877,0.00021,0.0,0.0
11.689,4714.213,0.00021,0.0,0.0
11.696,4720.646,0.00021,0.0,0.0
11.702,4719.135,0.00021,0.0,0.0
11.708,4706.815,0.00021,0.0,0.0
11.715,4718.96,0.00021,0.0,0.0
11.721,4717.104,0.00021,0.0,0.0
11.727,4715.545,0.00021,0.0,0.0
11.734,4704.421,0.00021,0.0,0.0
11.74,4709.504,0.00021,0.0,0.0
11.746,4701.174,0.00021,0.0,0.0
11.753,4705.552,0.00021,0.0,0.0
11.759,4695.875,0.00021,0.0,0.0
11.765,4704.001,0.00021,0.0,0.0
11.772,4698.913,0.00021,0.0,0.0
11.778,4700.426,0.00021,0.0,0.0
11.784,4712.502,0.00021,0.0,0.0
11.79,4709.993,0.00021,0.0,0.0
11.797,4704.536,0.00021,0.0,0.0
11.803,4697.925,0.00021,0.0,0.0
11.809,4705.501,0.00021,0.0,0.0
11.816,4688.128,0.00021,0.0,0.0
11.822,4684.258,0.00021,0.0,0.0
11.828,4680.345,0.00021,0.0,0.0
11.835,4689.03,0.00021,0.0,0.0
11.841,4701.769,0.00021,0.0,0.0
11.847,4685.866,0.00021,0.0,0.0
11.854,4682.172,0.00021,0.0,0.0
11.86,4675.608,0.00021,0.0,0.0
11.866,4687.0,0.00021,0.0,0.0
11.873,4682.458,0.00021,0.0,0.0
11.879,4688.269,0.00021,0.0,0.0
11.885,4679.148,0.00021,0.0,0.0
11.892,4678.775,0.00021,0.0,0.0
11.898,4699.197,0.00021,0.0,0.0
11.904,4689.419,0.00021,0.0,0.0
11.911,4689.907,0.00021,0.0,0.0
11.917,4668.462,0.00021,0.0,0.0
11.923,4696.818,0.00021,0.0,0.0
11.93,4679.841,0.00021,0.0,0.0
11.936,4686.348,0.00021,0.0,0.0
11.942,4678.857,0.00021,0.0,0.0
11.948,4701.855,0.00021,0.0,0.0
11.955,4698.266,0.00021,0.0,0.0
11.961,4676.656,0.00021,0.0,0.0
11.967,4690.681,0.00021,0.0,0.0
11.974,4681.94,0.00021,0.0,0.0
11.98,4699.594,0.00021,0.0,0.0
11.986,4700.274,0.00021,0.0,0.0
11.993,4681.093,0.00021,0.0,0.0
11.999,4700.819,0.00021,0.0,0.0
12.005,4700.387,0.00021,0.0,0.0
12.012,4717.69,0.00021,0.0,0.0
12.018,4715.871,0.00021,0.0,0.0
12.024,4726.509,0.00021,0.0,0.0
12.031,4719.874,0.00021,0.0,0.0
12.037,4805.055,0.00021,0.0,0.0
12.043,4743.893,0.00021,0.0,0.0
12.05,4931.729,0.0002,0.0,0.0
12.056,4824.851,0.00021,0.0,0.0
12.062,4851.018,0.00021,0.0,0.0
12.069,5740.577,0.00017,0.0,0.0
12.075,5103.041,0.0002,0.0,0.0
12.081,8380.609,0.00012,0.0,0.0
12.088,5901.833,0.00017,0.0,0.0
12.094,6783.644,0.00015,0.0,0.0
12.1,10596.297,0.00009,0.0,0.0
12.106,6600.474,0.00015,0.0,0.0
12.113,7938.687,0.00013,0.0,0.0
12.119,5511.747,0.00018,0.0,0.0
12.125,5359.418,0.00019,0.0,0.0
12.132,5270.735,0.00019,0.0,0.0
12.138,4915.645,0.0002,0.0,0.0
12.144,4831.528,0.00021,0.0,0.0
12.151,4815.765,0.00021,0.0,0.0
12.157,4726.406,0.00021,0.0,0.0
12.163,4740.924,0.00021,0.0,0.0
12.17,4685.927,0.00021,0.0,0.0
12.176,4675.319,0.00021,0.0,0.0
12.182,4674.358,0.00021,0.0,0.0
12.189,4670.582,0.00021,0.0,0.0
12.195,4632.865,0.00022,0.0,0.0
12.201,4629.317,0.00022,0.0,0.0
12.208,4625.364,0.00022,0.0,0.0
12.214,4607.891,0.00022,0.0,0.0
12.22,4598.609,0.00022,0.0,0.0
12.227,4594.025,0.00022,0.0,0.0
12.233,4593.21,0.00022,0.0,0.0
12.239,4587.694,0.00022,0.0,0.0
12.246,4575.231,0.00022,0.0,0.0
12.252,4586.265,0.00022,0.0,0.0
12.258,4564.171,0.00022,0.0,0.0
12.264,4570.909,0.00022,0.0,0.0
12.271,4552.919,0.00022,0.0,0.0
12.277,4548.62,0.00022,0.0,0.0
12.283,4552.264,0.00022,0.0,0.0
12.29,4541.325,0.00022,0.0,0.0
12.296,4546.346,0.00022,0.0,0.0
12.302,4529.4,0.00022,0.0,0.0
12.309,4519.381,0.00022,0.0,0.0
12.315,4525.194,0.00022,0.0,0.0
12.321,4522.816,0.00022,0.0,0.0
12.328,4516.013,0.00022,0.0,0.0
12.334,4520.917,0.00022,0.0,0.0
12.34,4499.714,0.00022,0.0,0.0
12.347,4527.304,0.00022,0.0,0.0
12.353,4513.148,0.00022,0.0,0.0
12.359,4503.621,0.00022,0.0,0.0
12.366,4514.529,0.00022,0.0,0.0
12.372,4498.023,0.00022,0.0,0.0
12.378,4502.441,0.00022,0.0,0.0
12.385,4498.144,0.00022,0.0,0.0
12.391,4503.468,0.00022,0.0,0.0
12.397,4497.618,0.00022,0.0,0.0
12.404,4489.878,0.00022,0.0,0.0
12.41,4479.053,0.00022,0.0,0.0
12.416,4484.999,0.00022,0.0,0.0
12.422,4479.628,0.00022,0.0,0.0
12.429,4479.64,0.00022,0.0,0.0
12.435,4472.65,0.00022,0.0,0.0
12.441,4477.542,0.00022,0.0,0.0
12.448,4484.225,0.00022,0.0,0.0
12.454,4464.406,0.00022,0.0,0.0
12.46,4474.514,0.00022,0.0,0.0
12.467,4474.967,0.00022,0.0,0.0
12.473,4481.66,0.00022,0.0,0.0
12.479,4480.28,0.00022,0.0,0.0
12.486,4470.619,0.00022,0.0,0.0
12.492,4492.306,0.00022,0.0,0.0
12.498,4483.42,0.00022,0.0,0.0
12.505,4489.244,0.00022,0.0,0.0
12.511,4499.872,0.00022,0.0,0.0
12.517,4504.287,0.00022,0.0,0.0
12.524,4508.595,0.00022,0.0,0.0
12.53,4512.303,0.00022,0.0,0.0
12.536,4507.941,0.00022,0.0,0.0
12.543,4510.963,0.00022,0.0,0.0
12.549,4495.926,0.00022,0.0,0.0
12.555,4520.336,0.00022,0.0,0.0
12.562,4502.884,0.00022,0.0,0.0
12.568,4510.851,0.00022,0.0,0.0
12.574,4524.749,0.00022,0.0,0.0
12.58,4530.488,0.00022,0.0,0.0
12.587,4521.951,0.00022,0.0,0.0
12.593,4552.788,0.00022,0.0,0.0
12.599,4567.787,0.00022,0.0,0.0
12.606,4600.002,0.00022,0.0,0.0
12.612,4638.666,0.00022,0.0,0.0
12.618,4697.677,0.00021,0.0,0.0
12.625,4774.208,0.00021,0.0,0.0
12.631,4910.264,0.0002,0.0,0.0
12.637,5080.437,0.0002,0.0,0.0
12.644,5374.542,0.00019,0.0,0.0
12.65,5876.667,0.00017,0.0,0.0
12.656,6758.873,0.00015,0.0,0.0
12.663,8421.909,0.00012,0.0,0.0
12.669,11078.365,0.00009,0.0,0.0
12.675,15877.753,0.00006,0.0,0.0
12.682,21679.592,0.00005,0.0,0.0
12.688,29001.723,0.00003,0.0,0.0
12.694,34418.886,0.00003,0.0,0.0
12.701,33351.194,0.00003,0.0,0.0
12.707,32442.387,0.00003,0.0,0.0
12.713,25313.684,0.00004,0.0,0.0
12.72,18091.242,0.00006,0.0,0.0
12.726,13062.913,0.00008,0.0,0.0
12.732,9139.236,0.00011,0.0,0.0
12.738,7181.014,0.00014,0.0,0.0
12.745,6193.927,0.00016,0.0,0.0
12.751,5475.27,0.00018,0.0,0.0
12.757,5121.421,0.0002,0.0,0.0
12.764,4883.322,0.0002,0.0,0.0
12.77,4741.324,0.00021,0.0,0.0
12.776,4648.658,0.00022,0.0,0.0
12.783,4589.05,0.00022,0.0,0.0
12.789,4535.159,0.00022,0.0,0.0
12.795,4507.06,0.00022,0.0,0.0
12.802,4471.083,0.00022,0.0,0.0
12.808,4450.763,0.00022,0.0,0.0
12.814,4440.313,0.00023,0.0,0.0
12.821,4422.145,0.00023,0.0,0.0
12.827,4394.842,0.00023,0.0,0.0
12.833,4399.645,0.00023,0.0,0.0
12.84,4381.525,0.00023,0.0,0.0
12.846,4382.337,0.00023,0.0,0.0
12.852,4378.362,0.00023,0.0,0.0
12.859,4372.805,0.00023,0.0,0.0
12.865,4356.905,0.00023,0.0,0.0
12.871,4356.058,0.00023,0.0,0.0
12.878,4360.804,0.00023,0.0,0.0
12.884,4341.13,0.00023,0.0,0.0
12.89,4349.184,0.00023,0.0,0.0
12.896,4358.056,0.00023,0.0,0.0
12.903,4356.822,0.00023,0.0,0.0
12.909,4363.766,0.00023,0.0,0.0
12.915,4422.898,0.00023,0.0,0.0
12.922,4425.379,0.00023,0.0,0.0
12.928,4548.883,0.00022,0.0,0.0
12.934,4695.844,0.00021,0.0,0.0
12.941,4585.17,0.00022,0.0,0.0
12.947,4762.037,0.00021,0.0,0.0
12.953,4536.871,0.00022,0.0,0.0
12.96,4514.458,0.00022,0.0,0.0
12.966,4460.577,0.00022,0.0,0.0
12.972,4389.738,0.00023,0.0,0.0
12.979,4354.897,0.00023,0.0,0.0
12.985,4324.536,0.00023,0.0,0.0
12.991,4308.356,0.00023,0.0,0.0
12.998,4298.828,0.00023,0.0,0.0
13.004,4276.41,0.00023,0.0,0.0
13.01,4269.447,0.00023,0.0,0.0
13.017,4256.631,0.00023,0.0,0.0
13.023,4239.177,0.00024,0.0,0.0
13.029,4256.505,0.00023,0.0,0.0
13.036,4237.072,0.00024,0.0,0.0
13.042,4243.703,0.00024,0.0,0.0
13.048,4223.649,0.00024,0.0,0.0
13.054,4227.708,0.00024,0.0,0.0
13.061,4224.652,0.00024,0.0,0.0
13.067,4222.014,0.00024,0.0,0.0
13.073,4222.545,0.00024,0.0,0.0
13.08,4223.643,0.00024,0.0,0.0
13.086,4234.239,0.00024,0.0,0.0
13.092,4211.624,0.00024,0.0,0.0
13.099,4209.156,0.00024,0.0,0.0
13.105,4221.167,0.00024,0.0,0.0
13.111,4212.054,0.00024,0.0,0.0
13.118,4198.824,0.00024,0.0,0.0
13.124,4203.598,0.00024,0.0,0.0
13.13,4206.407,0.00024,0.0,0.0
13.137,4193.228,0.00024,0.0,0.0
13.143,4213.384,0.00024,0.0,0.0
13.149,4187.886,0.00024,0.0,0.0
13.156,4207.205,0.00024,0.0,0.0
13.162,4205.845,0.00024,0.0,0.0
13.168,4201.751,0.00024,0.0,0.0
13.175,4213.017,0.00024,0.0,0.0
13.181,4197.89,0.00024,0.0,0.0
13.187,4232.476,0.00024,0.0,0.0
13.194,4251.706,0.00024,0.0,0.0
13.2,4273.064,0.00023,0.0,0.0
13.206,4308.001,0.00023,0.0,0.0
13.212,4388.414,0.00023,0.0,0.0
13.219,4526.573,0.00022,0.0,0.0
13.225,4732.138,0.00021,0.0,0.0
13.231,5120.962,0.0002,0.0,0.0
13.238,5985.493,0.00017,0.0,0.0
13.244,7086.612,0.00014,0.0,0.0
13.25,8795.801,0.00011,0.0,0.0
13.257,10550.89,0.00009,0.0,0.0
13.263,12124.067,0.00008,0.0,0.0
13.269,12619.655,0.00008,0.0,0.0
13.276,11181.721,0.00009,0.0,0.0
13.282,10148.408,0.0001,0.0,0.0
13.288,7879.41,0.00013,0.0,0.0
13.295,6392.847,0.00016,0.0,0.0
13.301,5487.53,0.00018,0.0,0.0
13.307,4836.566,0.00021,0.0,0.0
13.314,4568.842,0.00022,0.0,0.0
13.32,4378.816,0.00023,0.0,0.0
13.326,4300.653,0.00023,0.0,0.0
13.333,4227.433,0.00024,0.0,0.0
13.339,4192.727,0.00024,0.0,0.0
13.345,4152.295,0.00024,0.0,0.0
13.352,4129.224,0.00024,0.0,0.0
13.358,4128.2,0.00024,0.0,0.0
13.364,4109.672,0.00024,0.0,0.0
13.37,4102.509,0.00024,0.0,0.0
13.377,4097.521,0.00024,0.0,0.0
13.383,4097.052,0.00024,0.0,0.0
13.389,4088.061,0.00024,0.0,0.0
13.396,4069.529,0.00025,0.0,0.0
13.402,4065.152,0.00025,0.0,0.0
13.408,4077.105,0.00025,0.0,0.0
13.415,4066.848,0.00025,0.0,0.0
13.421,4059.369,0.00025,0.0,0.0
13.427,4051.614,0.00025,0.0,0.0
13.434,4059.848,0.00025,0.0,0.0
13.44,4049.356,0.00025,0.0,0.0
13.446,4042.437,0.00025,0.0,0.0
13.453,4034.915,0.00025,0.0,0.0
13.459,4040.838,0.00025,0.0,0.0
13.465,4025.625,0.00025,0.0,0.0
13.472,4024.451,0.00025,0.0,0.0
13.478,4021.787,0.00025,0.0,0.0
13.484,4017.755,0.00025,0.0,0.0
13.491,4005.235,0.00025,0.0,0.0
13.497,4018.914,0.00025,0.0,0.0
13.503,3992.3,0.00025,0.0,0.0
13.51,3999.731,0.00025,0.0,0.0
13.516,4006.008,0.00025,0.0,0.0
13.522,3996.699,0.00025,0.0,0.0
13.528,4008.439,0.00025,0.0,0.0
13.535,3976.577,0.00025,0.0,0.0
13.541,3992.991,0.00025,0.0,0.0
13.547,3995.377,0.00025,0.0,0.0
13.554,4003.072,0.00025,0.0,0.0
13.56,3990.357,0.00025,0.0,0.0
13.566,3970.198,0.00025,0.0,0.0
13.573,3986.657,0.00025,0.0,0.0
13.579,3978.346,0.00025,0.0,0.0
13.585,3962.542,0.00025,0.0,0.0
13.592,3982.664,0.00025,0.0,0.0
13.598,3966.37,0.00025,0.0,0.0
13.604,3969.74,0.00025,0.0,0.0
13.611,3990.796,0.00025,0.0,0.0
13.617,3966.726,0.00025,0.0,0.0
13.623,3978.017,0.00025,0.0,0.0
13.63,3983.244,0.00025,0.0,0.0
13.636,3977.355,0.00025,0.0,0.0
13.642,3984.599,0.00025,0.0,0.0
13.649,3986.083,0.00025,0.0,0.0
13.655,3985.828,0.00025,0.0,0.0
13.661,3979.295,0.00025,0.0,0.0
13.668,3986.336,0.00025,0.0,0.0
13.674,3979.431,0.00025,0.0,0.0
13.68,3986.311,0.00025,0.0,0.0
13.686,4004.38,0.00025,0.0,0.0
13.693,4023.494,0.00025,0.0,0.0
13.699,4084.587,0.00024,0.0,0.0
13.705,4192.472,0.00024,0.0,0.0
13.712,4378.748,0.00023,0.0,0.0
13.718,4395.199,0.00023,0.0,0.0
13.724,5167.952,0.00019,0.0,0.0
13.731,4436.326,0.00023,0.0,0.0
13.737,4428.052,0.00023,0.0,0.0
13.743,4596.139,0.00022,0.0,0.0
13.75,4226.154,0.00024,0.0,0.0
13.756,4114.123,0.00024,0.0,0.0
13.762,4032.95,0.00025,0.0,0.0
13.769,3985.049,0.00025,0.0,0.0
13.775,3956.273,0.00025,0.0,0.0
13.781,3937.19,0.00025,0.0,0.0
13.788,3922.649,0.00025,0.0,0.0
13.794,3910.551,0.00026,0.0,0.0
13.8,3914.536,0.00026,0.0,0.0
13.807,3894.918,0.00026,0.0,0.0
13.813,3891.633,0.00026,0.0,0.0
13.819,3886.008,0.00026,0.0,0.0
13.826,3893.225,0.00026,0.0,0.0
13.832,3885.808,0.00026,0.0,0.0
13.838,3877.244,0.00026,0.0,0.0
13.844,3865.121,0.00026,0.0,0.0
13.851,3872.424,0.00026,0.0,0.0
13.857,3877.636,0.00026,0.0,0.0
13.863,3859.048,0.00026,0.0,0.0
13.87,3857.134,0.00026,0.0,0.0
13.876,3849.824,0.00026,0.0,0.0
13.882,3853.651,0.00026,0.0,0.0
13.889,3851.124,0.00026,0.0,0.0
13.895,3841.422,0.00026,0.0,0.0
13.901,3839.456,0.00026,0.0,0.0
13.908,3833.2,0.00026,0.0,0.0
13.914,3824.33,0.00026,0.0,0.0
13.92,3844.782,0.00026,0.0,0.0
13.927,3826.743,0.00026,0.0,0.0
13.933,3814.749,0.00026,0.0,0.0
13.939,3818.597,0.00026,0.0,0.0
13.946,3811.619,0.00026,0.0,0.0
13.952,3805.028,0.00026,0.0,0.0
13.958,3812.449,0.00026,0.0,0.0
13.965,3805.626,0.00026,0.0,0.0
13.971,3815.225,0.00026,0.0,0.0
13.977,3798.165,0.00026,0.0,0.0
13.984,3789.472,0.00026,0.0,0.0
13.99,3793.012,0.00026,0.0,0.0
13.996,3793.382,0.00026,0.0,0.0
14.002,3792.897,0.00026,0.0,0.0
14.009,3793.806,0.00026,0.0,0.0
14.015,3786.977,0.00026,0.0,0.0
14.021,3788.598,0.00026,0.0,0.0
14.028,3780.146,0.00026,0.0,0.0
14.034,3771.718,0.00027,0.0,0.0
14.04,3773.213,0.00027,0.0,0.0
14.047,3765.073,0.00027,0.0,0.0
14.053,3774.44,0.00026,0.0,0.0
14.059,3763.633,0.00027,0.0,0.0
14.066,3762.809,0.00027,0.0,0.0
14.072,3754.018,0.00027,0.0,0.0
14.078,3752.644,0.00027,0.0,0.0
14.085,3760.482,0.00027,0.0,0.0
14.091,3738.686,0.00027,0.0,0.0
14.097,3750.229,0.00027,0.0,0.0
14.104,3747.628,0.00027,0.0,0.0
14.11,3730.195,0.00027,0.0,0.0
14.116,3745.577,0.00027,0.0,0.0
14.123,3741.019,0.00027,0.0,0.0
14.129,3731.527,0.00027,0.0,0.0
14.135,3720.626,0.00027,0.0,0.0
14.142,3719.076,0.00027,0.0,0.0
14.148,3731.97,0.00027,0.0,0.0
14.154,3713.354,0.00027,0.0,0.0
14.16,3731.722,0.00027,0.0,0.0
14.167,3722.909,0.00027,0.0,0.0
14.173,3712.406,0.00027,0.0,0.0
14.179,3732.039,0.00027,0.0,0.0
14.186,3699.084,0.00027,0.0,0.0
14.192,3708.788,0.00027,0.0,0.0
14.198,3700.58,0.00027,0.0,0.0
14.205,3699.487,0.00027,0.0,0.0
14.211,3709.84,0.00027,0.0,0.0
14.217,3702.648,0.00027,0.0,0.0
14.224,3716.489,0.00027,0.0,0.0
14.23,3700.036,0.00027,0.0,0.0
14.236,3704.224,0.00027,0.0,0.0
14.243,3707.164,0.00027,0.0,0.0
14.249,3712.756,0.00027,0.0,0.0
14.255,3716.285,0.00027,0.0,0.0
14.262,3718.963,0.00027,0.0,0.0
14.268,3731.024,0.00027,0.0,0.0
14.274,3720.958,0.00027,0.0,0.0
14.281,3710.701,0.00027,0.0,0.0
14.287,3705.659,0.00027,0.0,0.0
14.293,3710.502,0.00027,0.0,0.0
14.3,3705.741,0.00027,0.0,0.0
14.306,3687.684,0.00027,0.0,0.0
14.312,3684.344,0.00027,0.0,0.0
14.318,3681.869,0.00027,0.0,0.0
14.325,3679.619,0.00027,0.0,0.0
14.331,3672.74,0.00027,0.0,0.0
14.337,3664.229,0.00027,0.0,0.0
14.344,3670.962,0.00027,0.0,0.0
14.35,3660.919,0.00027,0.0,0.0
14.356,3662.756,0.00027,0.0,0.0
14.363,3659.32,0.00027,0.0,0.0
14.369,3658.957,0.00027,0.0,0.0
14.375,3646.569,0.00027,0.0,0.0
14.382,3659.359,0.00027,0.0,0.0
14.388,3655.008,0.00027,0.0,0.0
14.394,3640.773,0.00027,0.0,0.0
14.401,3652.391,0.00027,0.0,0.0
14.407,3637.702,0.00027,0.0,0.0
14.413,3624.113,0.00028,0.0,0.0
14.42,3630.294,0.00028,0.0,0.0
14.426,3626.375,0.00028,0.0,0.0
14.432,3639.138,0.00027,0.0,0.0
14.439,3642.66,0.00027,0.0,0.0
14.445,3647.492,0.00027,0.0,0.0
14.451,3673.22,0.00027,0.0,0.0
14.458,3684.935,0.00027,0.0,0.0
14.464,3706.063,0.00027,0.0,0.0
14.47,3702.19,0.00027,0.0,0.0
14.476,3698.252,0.00027,0.0,0.0
14.483,3695.973,0.00027,0.0,0.0
14.489,3651.026,0.00027,0.0,0.0
14.495,3641.812,0.00027,0.0,0.0
14.502,3621.22,0.00028,0.0,0.0
14.508,3612.038,0.00028,0.0,0.0
14.514,3595.305,0.00028,0.0,0.0
14.521,3599.442,0.00028,0.0,0.0
14.527,3595.206,0.00028,0.0,0.0
14.533,3591.166,0.00028,0.0,0.0
14.54,3592.613,0.00028,0.0,0.0
14.546,3594.123,0.00028,0.0,0.0
14.552,3588.171,0.00028,0.0,0.0
14.559,3585.566,0.00028,0.0,0.0
14.565,3574.613,0.00028,0.0,0.0
14.571,3587.874,0.00028,0.0,0.0
14.578,3573.258,0.00028,0.0,0.0
14.584,3573.97,0.00028,0.0,0.0
14.59,3570.851,0.00028,0.0,0.0
14.597,3567.536,0.00028,0.0,0.0
14.603,3579.455,0.00028,0.0,0.0
14.609,3563.303,0.00028,0.0,0.0
14.616,3565.746,0.00028,0.0,0.0
14.622,3565.286,0.00028,0.0,0.0
14.628,3553.086,0.00028,0.0,0.0
14.634,3554.496,0.00028,0.0,0.0
14.641,3564.407,0.00028,0.0,0.0
14.647,3556.037,0.00028,0.0,0.0
14.653,3556.453,0.00028,0.0,0.0
14.66,3553.759,0.00028,0.0,0.0
14.666,3554.057,0.00028,0.0,0.0
14.672,3544.837,0.00028,0.0,0.0
14.679,3555.204,0.00028,0.0,0.0
14.685,3541.781,0.00028,0.0,0.0
14.691,3548.047,0.00028,0.0,0.0
14.698,3537.679,0.00028,0.0,0.0
14.704,3546.499,0.00028,0.0,0.0
14.71,3535.386,0.00028,0.0,0.0
14.717,3522.942,0.00028,0.0,0.0
14.723,3519.322,0.00028,0.0,0.0
14.729,3523.197,0.00028,0.0,0.0
14.736,3517.863,0.00028,0.0,0.0
14.742,3514.364,0.00028,0.0,0.0
14.748,3515.09,0.00028,0.0,0.0
14.755,3516.998,0.00028,0.0,0.0
14.761,3507.094,0.00029,0.0,0.0
14.767,3510.57,0.00028,0.0,0.0
14.774,3503.632,0.00029,0.0,0.0
14.78,3507.174,0.00029,0.0,0.0
14.786,3504.397,0.00029,0.0,0.0
14.792,3506.651,0.00029,0.0,0.0
14.799,3494.05,0.00029,0.0,0.0
14.805,3490.929,0.00029,0.0,0.0
14.811,3510.53,0.00028,0.0,0.0
14.818,3494.514,0.00029,0.0,0.0
14.824,3499.375,0.00029,0.0,0.0
14.83,3490.37,0.00029,0.0,0.0
14.837,3488.454,0.00029,0.0,0.0
14.843,3491.222,0.00029,0.0,0.0
14.849,3477.657,0.00029,0.0,0.0
14.856,3490.072,0.00029,0.0,0.0
14.862,3485.715,0.00029,0.0,0.0
14.868,3481.376,0.00029,0.0,0.0
14.875,3483.107,0.00029,0.0,0.0
14.881,3476.561,0.00029,0.0,0.0
14.887,3477.224,0.00029,0.0,0.0
14.894,3481.053,0.00029,0.0,0.0
14.9,3476.463,0.00029,0.0,0.0
14.906,3466.934,0.00029,0.0,0.0
14.913,3469.441,0.00029,0.0,0.0
14.919,3462.388,0.00029,0.0,0.0
14.925,3451.942,0.00029,0.0,0.0
14.932,3460.643,0.00029,0.0,0.0
14.938,3458.389,0.00029,0.0,0.0
14.944,3456.677,0.00029,0.0,0.0
14.95,3465.192,0.00029,0.0,0.0
14.957,3458.546,0.00029,0.0,0.0
14.963,3454.376,0.00029,0.0,0.0
14.969,3454.36,0.00029,0.0,0.0
14.976,3449.795,0.00029,0.0,0.0
14.982,3454.247,0.00029,0.0,0.0
14.988,3438.281,0.00029,0.0,0.0
14.995,3438.145,0.00029,0.0,0.0
15.001,3442.561,0.00029,0.0,0.0
15.007,3436.316,0.00029,0.0,0.0
15.014,3430.44,0.00029,0.0,0.0
15.02,3437.404,0.00029,0.0,0.0
15.026,3435.934,0.00029,0.0,0.0
15.033,3437.825,0.00029,0.0,0.0
15.039,3430.507,0.00029,0.0,0.0
15.045,3443.257,0.00029,0.0,0.0
15.052,3425.544,0.00029,0.0,0.0
15.058,3438.123,0.00029,0.0,0.0
15.064,3423.579,0.00029,0.0,0.0
15.071,3432.958,0.00029,0.0,0.0
15.077,3424.782,0.00029,0.0,0.0
15.083,3429.751,0.00029,0.0,0.0
15.09,3416.19,0.00029,0.0,0.0
15.096,3428.774,0.00029,0.0,0.0
15.102,3412.336,0.00029,0.0,0.0
15.108,3429.497,0.00029,0.0,0.0
15.115,3421.494,0.00029,0.0,0.0
15.121,3419.481,0.00029,0.0,0.0
15.127,3411.395,0.00029,0.0,0.0
15.134,3413.475,0.00029,0.0,0.0
15.14,3408.992,0.00029,0.0,0.0
15.146,3418.048,0.00029,0.0,0.0
15.153,3412.136,0.00029,0.0,0.0
15.159,3416.244,0.00029,0.0,0.0
15.165,3423.968,0.00029,0.0,0.0
15.172,3421.567,0.00029,0.0,0.0
15.178,3425.714,0.00029,0.0,0.0
15.184,3419.883,0.00029,0.0,0.0
15.191,3433.56,0.00029,0.0,0.0
15.197,3429.548,0.00029,0.0,0.0
15.203,3420.102,0.00029,0.0,0.0
15.21,3424.183,0.00029,0.0,0.0
15.216,3416.592,0.00029,0.0,0.0
15.222,3416.992,0.00029,0.0,0.0
15.229,3411.315,0.00029,0.0,0.0
15.235,3414.488,0.00029,0.0,0.0
15.241,3422.699,0.00029,0.0,0.0
15.248,3432.445,0.00029,0.0,0.0
15.254,3439.546,0.00029,0.0,0.0
15.26,3455.377,0.00029,0.0,0.0
15.266,3468.004,0.00029,0.0,0.0
15.273,3512.34,0.00028,0.0,0.0
15.279,3579.425,0.00028,0.0,0.0
15.285,3680.337,0.00027,0.0,0.0
15.292,3875.608,0.00026,0.0,0.0
15.298,4192.522,0.00024,0.0,0.0
15.304,4546.736,0.00022,0.0,0.0
15.311,5234.502,0.00019,0.0,0.0
15.317,5754.958,0.00017,0.0,0.0
15.323,6301.53,0.00016,0.0,0.0
15.33,6070.701,0.00016,0.0,0.0
15.336,5922.709,0.00017,0.0,0.0
15.342,5560.182,0.00018,0.0,0.0
15.349,4738.461,0.00021,0.0,0.0
15.355,4423.987,0.00023,0.0,0.0
15.361,3990.281,0.00025,0.0,0.0
15.368,3744.434,0.00027,0.0,0.0
15.374,3609.921,0.00028,0.0,0.0
15.38,3530.888,0.00028,0.0,0.0
15.387,3467.937,0.00029,0.0,0.0
15.393,3436.263,0.00029,0.0,0.0
15.399,3416.799,0.00029,0.0,0.0
15.406,3399.953,0.00029,0.0,0.0
15.412,3391.572,0.00029,0.0,0.0
15.418,3375.777,0.0003,0.0,0.0
15.424,3371.217,0.0003,0.0,0.0
15.431,3366.89,0.0003,0.0,0.0
15.437,3377.496,0.0003,0.0,0.0
15.443,3361.362,0.0003,0.0,0.0
15.45,3373.747,0.0003,0.0,0.0
15.456,3362.597,0.0003,0.0,0.0
15.462,3361.568,0.0003,0.0,0.0
15.469,3355.467,0.0003,0.0,0.0
15.475,3351.582,0.0003,0.0,0.0
15.481,3352.304,0.0003,0.0,0.0
15.488,3342.31,0.0003,0.0,0.0
15.494,3342.462,0.0003,0.0,0.0
15.5,3329.28,0.0003,0.0,0.0
15.507,3355.001,0.0003,0.0,0.0
15.513,3344.421,0.0003,0.0,0.0
15.519,3344.282,0.0003,0.0,0.0
15.526,3337.243,0.0003,0.0,0.0
15.532,3321.79,0.0003,0.0,0.0
15.538,3326.767,0.0003,0.0,0.0
15.545,3323.833,0.0003,0.0,0.0
15.551,3321.772,0.0003,0.0,0.0
15.557,3330.416,0.0003,0.0,0.0
15.564,3327.6,0.0003,0.0,0.0
15.57,3311.806,0.0003,0.0,0.0
15.576,3322.507,0.0003,0.0,0.0
15.582,3323.208,0.0003,0.0,0.0
15.589,3305.519,0.0003,0.0,0.0
15.595,3302.115,0.0003,0.0,0.0
15.601,3311.224,0.0003,0.0,0.0
15.608,3306.852,0.0003,0.0,0.0
15.614,3304.872,0.0003,0.0,0.0
15.62,3293.715,0.0003,0.0,0.0
15.627,3303.904,0.0003,0.0,0.0
15.633,3293.902,0.0003,0.0,0.0
15.639,3297.996,0.0003,0.0,0.0
15.646,3300.533,0.0003,0.0,0.0
15.652,3289.145,0.0003,0.0,0.0
15.658,3289.451,0.0003,0.0,0.0
15.665,3279.287,0.0003,0.0,0.0
15.671,3280.88,0.0003,0.0,0.0
15.677,3276.92,0.00031,0.0,0.0
15.684,3274.283,0.00031,0.0,0.0
15.69,3280.807,0.0003,0.0,0.0
15.696,3268.44,0.00031,0.0,0.0
15.703,3273.413,0.00031,0.0,0.0
15.709,3282.304,0.0003,0.0,0.0
15.715,3264.027,0.00031,0.0,0.0
15.722,3252.09,0.00031,0.0,0.0
15.728,3267.355,0.00031,0.0,0.0
15.734,3257.206,0.00031,0.0,0.0
15.74,3265.951,0.00031,0.0,0.0
15.747,3255.374,0.00031,0.0,0.0
15.753,3258.612,0.00031,0.0,0.0
15.759,3255.502,0.00031,0.0,0.0
15.766,3254.292,0.00031,0.0,0.0
15.772,3270.195,0.00031,0.0,0.0
15.778,3251.695,0.00031,0.0,0.0
15.785,3248.917,0.00031,0.0,0.0
15.791,3251.431,0.00031,0.0,0.0
15.797,3258.49,0.00031,0.0,0.0
15.804,3248.194,0.00031,0.0,0.0
15.81,3245.677,0.00031,0.0,0.0
15.816,3243.619,0.00031,0.0,0.0
15.823,3251.173,0.00031,0.0,0.0
15.829,3241.641,0.00031,0.0,0.0
15.835,3255.353,0.00031,0.0,0.0
15.842,3262.062,0.00031,0.0,0.0
15.848,3250.45,0.00031,0.0,0.0
15.854,3241.7,0.00031,0.0,0.0
15.861,3250.921,0.00031,0.0,0.0
15.867,3254.706,0.00031,0.0,0.0
15.873,3279.426,0.0003,0.0,0.0
15.88,3246.668,0.00031,0.0,0.0
15.886,3290.106,0.0003,0.0,0.0
15.892,3225.459,0.00031,0.0,0.0
15.898,3263.411,0.00031,0.0,0.0
15.905,3216.033,0.00031,0.0,0.0
15.911,3247.299,0.00031,0.0,0.0
15.917,3218.057,0.00031,0.0,0.0
15.924,3233.543,0.00031,0.0,0.0
15.93,3213.478,0.00031,0.0,0.0
15.936,3225.484,0.00031,0.0,0.0
15.943,3220.3,0.00031,0.0,0.0
15.949,3210.83,0.00031,0.0,0.0
15.955,3216.016,0.00031,0.0,0.0
15.962,3229.636,0.00031,0.0,0.0
15.968,3208.062,0.00031,0.0,0.0
15.974,3200.07,0.00031,0.0,0.0
15.981,3210.66,0.00031,0.0,0.0
15.987,3203.311,0.00031,0.0,0.0
15.993,3206.929,0.00031,0.0,0.0
16.0,3200.461,0.00031,0.0,0.0
16.006,3196.005,0.00031,0.0,0.0
16.012,3198.734,0.00031,0.0,0.0
16.019,3202.627,0.00031,0.0,0.0
16.025,3191.919,0.00031,0.0,0.0
16.031,3195.843,0.00031,0.0,0.0
16.038,3200.327,0.00031,0.0,0.0
16.044,3192.754,0.00031,0.0,0.0
16.05,3194.848,0.00031,0.0,0.0
16.056,3194.32,0.00031,0.0,0.0
16.063,3182.872,0.00031,0.0,0.0
16.069,3198.836,0.00031,0.0,0.0
16.075,3199.697,0.00031,0.0,0.0
16.082,3187.479,0.00031,0.0,0.0
16.088,3190.392,0.00031,0.0,0.0
16.094,3194.606,0.00031,0.0,0.0
16.101,3176.762,0.00031,0.0,0.0
16.107,3184.393,0.00031,0.0,0.0
16.113,3181.564,0.00031,0.0,0.0
16.12,3176.643,0.00031,0.0,0.0
16.126,3175.691,0.00031,0.0,0.0
16.132,3185.703,0.00031,0.0,0.0
16.139,3183.13,0.00031,0.0,0.0
16.145,3178.263,0.00031,0.0,0.0
16.151,3189.436,0.00031,0.0,0.0
16.158,3185.356,0.00031,0.0,0.0
16.164,3189.001,0.00031,0.0,0.0
16.17,3180.149,0.00031,0.0,0.0
16.177,3178.911,0.00031,0.0,0.0
16.183,3178.747,0.00031,0.0,0.0
16.189,3179.028,0.00031,0.0,0.0
16.196,3168.046,0.00032,0.0,0.0
16.202,3177.065,0.00031,0.0,0.0
16.208,3176.312,0.00031,0.0,0.0
16.214,3169.415,0.00032,0.0,0.0
16.221,3165.956,0.00032,0.0,0.0
16.227,3178.073,0.00031,0.0,0.0
16.233,3181.504,0.00031,0.0,0.0
16.24,3177.982,0.00031,0.0,0.0
16.246,3175.026,0.00031,0.0,0.0
16.252,3176.661,0.00031,0.0,0.0
16.259,3174.205,0.00032,0.0,0.0
16.265,3168.949,0.00032,0.0,0.0
16.271,3175.082,0.00031,0.0,0.0
16.278,3163.632,0.00032,0.0,0.0
16.284,3185.078,0.00031,0.0,0.0
16.29,3167.514,0.00032,0.0,0.0
16.297,3172.808,0.00032,0.0,0.0
16.303,3168.57,0.00032,0.0,0.0
16.309,3164.424,0.00032,0.0,0.0
16.316,3169.347,0.00032,0.0,0.0
16.322,3179.04,0.00031,0.0,0.0
16.328,3174.406,0.00032,0.0,0.0
16.335,3169.403,0.00032,0.0,0.0
16.341,3167.26,0.00032,0.0,0.0
16.347,3178.391,0.00031,0.0,0.0
16.354,3184.555,0.00031,0.0,0.0
16.36,3183.827,0.00031,0.0,0.0
16.366,3166.078,0.00032,0.0,0.0
16.372,3173.517,0.00032,0.0,0.0
16.379,3174.013,0.00032,0.0,0.0
16.385,3174.809,0.00031,0.0,0.0
16.391,3167.691,0.00032,0.0,0.0
16.398,3175.27,0.00031,0.0,0.0
16.404,3174.216,0.00032,0.0,0.0
16.41,3168.249,0.00032,0.0,0.0
16.417,3179.831,0.00031,0.0,0.0
16.423,3176.046,0.00031,0.0,0.0
16.429,3176.843,0.00031,0.0,0.0
16.436,3168.31,0.00032,0.0,0.0
16.442,3186.765,0.00031,0.0,0.0
16.448,3183.097,0.00031,0.0,0.0
16.455,3183.707,0.00031,0.0,0.0
16.461,3174.381,0.00032,0.0,0.0
16.467,3187.885,0.00031,0.0,0.0
16.474,3192.37,0.00031,0.0,0.0
16.48,3181.833,0.00031,0.0,0.0
16.486,3195.034,0.00031,0.0,0.0
16.493,3207.584,0.00031,0.0,0.0
16.499,3233.142,0.00031,0.0,0.0
16.505,3299.883,0.0003,0.0,0.0
16.512,3260.425,0.00031,0.0,0.0
16.518,3314.693,0.0003,0.0,0.0
16.524,3295.81,0.0003,0.0,0.0
16.53,3249.725,0.00031,0.0,0.0
16.537,3243.896,0.00031,0.0,0.0
16.543,3228.862,0.00031,0.0,0.0
16.549,3210.523,0.00031,0.0,0.0
16.556,3195.169,0.00031,0.0,0.0
16.562,3202.409,0.00031,0.0,0.0
16.568,3185.339,0.00031,0.0,0.0
16.575,3184.656,0.00031,0.0,0.0
16.581,3194.604,0.00031,0.0,0.0
16.587,3194.354,0.00031,0.0,0.0
16.594,3203.114,0.00031,0.0,0.0
