"x","y_obs","weight","y_calc","y_bkg"
0.8,2861.801,0.00035,0.0,0.0
0.806,3279.625,0.0003,0.0,0.0
0.813,3421.358,0.00029,0.0,0.0
0.819,3262.201,0.00031,0.0,0.0
0.825,3897.03,0.00026,0.0,0.0
0.832,3672.603,0.00027,0.0,0.0
0.838,3942.057,0.00025,0.0,0.0
0.844,4263.431,0.00023,0.0,0.0
0.851,4121.86,0.00024,0.0,0.0
0.857,4572.8,0.00022,0.0,0.0
0.863,4841.924,0.00021,0.0,0.0
0.87,4465.527,0.00022,0.0,0.0
0.876,5287.88,0.00019,0.0,0.0
0.882,5149.443,0.00019,0.0,0.0
0.888,5401.606,0.00019,0.0,0.0
0.895,5610.486,0.00018,0.0,0.0
0.901,5602.754,0.00018,0.0,0.0
0.907,6052.153,0.00017,0.0,0.0
0.914,6176.447,0.00016,0.0,0.0
0.92,5868.884,0.00017,0.0,0.0
0.926,6424.571,0.00016,0.0,0.0
0.933,6517.209,0.00015,0.0,0.0
0.939,6308.884,0.00016,0.0,0.0
0.945,6876.794,0.00015,0.0,0.0
0.952,6485.277,0.00015,0.0,0.0
0.958,6864.053,0.00015,0.0,0.0
0.964,6846.242,0.00015,0.0,0.0
0.971,6647.506,0.00015,0.0,0.0
0.977,7022.757,0.00014,0.0,0.0
0.983,7038.903,0.00014,0.0,0.0
0.99,6870.65,0.00015,0.0,0.0
0.996,7169.91,0.00014,0.0,0.0
1.002,6895.701,0.00015,0.0,0.0
1.009,7060.712,0.00014,0.0,0.0
1.015,7150.129,0.00014,0.0,0.0
1.021,6940.578,0.00014,0.0,0.0
1.028,7201.117,0.00014,0.0,0.0
1.034,7040.098,0.00014,0.0,0.0
1.04,7023.581,0.00014,0.0,0.0
1.046,7078.735,0.00014,0.0,0.0
1.053,7091.381,0.00014,0.0,0.0
1.059,7023.202,0.00014,0.0,0.0
1.065,7158.867,0.00014,0.0,0.0
1.072,6983.728,0.00014,0.0,0.0
1.078,7075.807,0.00014,0.0,0.0
1.084,6982.915,0.00014,0.0,0.0
1.091,7062.808,0.00014,0.0,0.0
1.097,7006.977,0.00014,0.0,0.0
1.103,6870.67,0.00015,0.0,0.0
1.11,6872.599,0.00015,0.0,0.0
1.116,6856.051,0.00015,0.0,0.0
1.122,6791.614,0.00015,0.0,0.0
1.129,6772.79,0.00015,0.0,0.0
1.135,6731.466,0.00015,0.0,0.0
1.141,6717.126,0.00015,0.0,0.0
1.148,6751.628,0.00015,0.0,0.0
1.154,6629.45,0.00015,0.0,0.0
1.16,6633.506,0.00015,0.0,0.0
1.167,6528.238,0.00015,0.0,0.0
1.173,6519.191,0.00015,0.0,0.0
1.179,6497.956,0.00015,0.0,0.0
1.186,6440.208,0.00016,0.0,0.0
1.192,6446.922,0.00016,0.0,0.0
1.198,6399.967,0.00016,0.0,0.0
1.204,6260.422,0.00016,0.0,0.0
1.211,6310.921,0.00016,0.0,0.0
1.217,6224.483,0.00016,0.0,0.0
1.223,6203.459,0.00016,0.0,0.0
1.23,6179.542,0.00016,0.0,0.0
1.236,6085.355,0.00016,0.0,0.0
1.242,6081.779,0.00016,0.0,0.0
1.249,6098.372,0.00016,0.0,0.0
1.255,6049.399,0.00017,0.0,0.0
1.261,6025.06,0.00017,0.0,0.0
1.268,5980.963,0.00017,0.0,0.0
1.274,5982.742,0.00017,0.0,0.0
1.28,5945.26,0.00017,0.0,0.0
1.287,5942.862,0.00017,0.0,0.0
1.293,5880.905,0.00017,0.0,0.0
1.299,5861.689,0.00017,0.0,0.0
1.306,5863.166,0.00017,0.0,0.0
1.312,5802.558,0.00017,0.0,0.0
1.318,5771.522,0.00017,0.0,0.0
1.325,5771.12,0.00017,0.0,0.0
1.331,5817.299,0.00017,0.0,0.0
1.337,5730.287,0.00017,0.0,0.0
1.344,5694.923,0.00018,0.0,0.0
1.35,5708.221,0.00018,0.0,0.0
1.356,5654.791,0.00018,0.0,0.0
1.362,5688.753,0.00018,0.0,0.0
1.369,5667.254,0.00018,0.0,0.0
1.375,5619.544,0.00018,0.0,0.0
1.381,5640.172,0.00018,0.0,0.0
1.388,5651.814,0.00018,0.0,0.0
1.394,5601.61,0.00018,0.0,0.0
1.4,5656.69,0.00018,0.0,0.0
1.407,5612.217,0.00018,0.0,0.0
1.413,5612.443,0.00018,0.0,0.0
1.419,5568.77,0.00018,0.0,0.0
1.426,5561.098,0.00018,0.0,0.0
1.432,5543.821,0.00018,0.0,0.0
1.438,5578.861,0.00018,0.0,0.0
1.445,5557.289,0.00018,0.0,0.0
1.451,5552.358,0.00018,0.0,0.0
1.457,5558.904,0.00018,0.0,0.0
1.464,5545.725,0.00018,0.0,0.0
1.47,5585.559,0.00018,0.0,0.0
1.476,5547.138,0.00018,0.0,0.0
1.483,5581.797,0.00018,0.0,0.0
1.489,5517.343,0.00018,0.0,0.0
1.495,5538.901,0.00018,0.0,0.0
1.502,5491.745,0.00018,0.0,0.0
1.508,5517.683,0.00018,0.0,0.0
1.514,5506.669,0.00018,0.0,0.0
1.52,5577.436,0.00018,0.0,0.0
1.527,5529.593,0.00018,0.0,0.0
1.533,5555.859,0.00018,0.0,0.0
1.539,5560.087,0.00018,0.0,0.0
1.546,5551.035,0.00018,0.0,0.0
1.552,5584.086,0.00018,0.0,0.0
1.558,5561.92,0.00018,0.0,0.0
1.565,5568.161,0.00018,0.0,0.0
1.571,5565.582,0.00018,0.0,0.0
1.577,5580.384,0.00018,0.0,0.0
1.584,5584.41,0.00018,0.0,0.0
1.59,5601.046,0.00018,0.0,0.0
1.596,5566.917,0.00018,0.0,0.0
1.603,5648.793,0.00018,0.0,0.0
1.609,5573.073,0.00018,0.0,0.0
1.615,5640.55,0.00018,0.0,0.0
1.622,5643.193,0.00018,0.0,0.0
1.628,5632.808,0.00018,0.0,0.0
1.634,5649.639,0.00018,0.0,0.0
1.641,5676.436,0.00018,0.0,0.0
1.647,5677.863,0.00018,0.0,0.0
1.653,5719.634,0.00017,0.0,0.0
1.66,5748.769,0.00017,0.0,0.0
1.666,5738.663,0.00017,0.0,0.0
1.672,5747.747,0.00017,0.0,0.0
1.678,5716.713,0.00017,0.0,0.0
1.685,5795.966,0.00017,0.0,0.0
1.691,5773.32,0.00017,0.0,0.0
1.697,5765.095,0.00017,0.0,0.0
1.704,5803.817,0.00017,0.0,0.0
1.71,5845.657,0.00017,0.0,0.0
1.716,5844.189,0.00017,0.0,0.0
1.723,5840.549,0.00017,0.0,0.0
1.729,5881.416,0.00017,0.0,0.0
1.735,5855.136,0.00017,0.0,0.0
1.742,5835.414,0.00017,0.0,0.0
1.748,5843.411,0.00017,0.0,0.0
1.754,5905.401,0.00017,0.0,0.0
1.761,5926.189,0.00017,0.0,0.0
1.767,5897.524,0.00017,0.0,0.0
1.773,5923.424,0.00017,0.0,0.0
1.78,5915.395,0.00017,0.0,0.0
1.786,5895.689,0.00017,0.0,0.0
1.792,5971.969,0.00017,0.0,0.0
1.799,5976.311,0.00017,0.0,0.0
1.805,5964.747,0.00017,0.0,0.0
1.811,5943.309,0.00017,0.0,0.0
1.818,5963.458,0.00017,0.0,0.0
1.824,5954.21,0.00017,0.0,0.0
1.83,5951.252,0.00017,0.0,0.0
1.836,5958.977,0.00017,0.0,0.0
1.843,6013.157,0.00017,0.0,0.0
1.849,5994.768,0.00017,0.0,0.0
1.855,5986.221,0.00017,0.0,0.0
1.862,6010.333,0.00017,0.0,0.0
1.868,6002.323,0.00017,0.0,0.0
1.874,5985.639,0.00017,0.0,0.0
1.881,5999.12,0.00017,0.0,0.0
1.887,6009.536,0.00017,0.0,0.0
1.893,6010.205,0.00017,0.0,0.0
1.9,5975.545,0.00017,0.0,0.0
1.906,5975.01,0.00017,0.0,0.0
1.912,5989.7,0.00017,0.0,0.0
1.919,5931.144,0.00017,0.0,0.0
1.925,5995.935,0.00017,0.0,0.0
1.931,5975.251,0.00017,0.0,0.0
1.938,6014.248,0.00017,0.0,0.0
1.944,5967.512,0.00017,0.0,0.0
1.95,5971.07,0.00017,0.0,0.0
1.957,5965.054,0.00017,0.0,0.0
1.963,5971.147,0.00017,0.0,0.0
1.969,5962.141,0.00017,0.0,0.0
1.976,6005.076,0.00017,0.0,0.0
1.982,5978.582,0.00017,0.0,0.0
1.988,5988.265,0.00017,0.0,0.0
1.994,5992.23,0.00017,0.0,0.0
2.001,5980.595,0.00017,0.0,0.0
2.007,5967.208,0.00017,0.0,0.0
2.013,5949.831,0.00017,0.0,0.0
2.02,6002.36,0.00017,0.0,0.0
2.026,5980.015,0.00017,0.0,0.0
2.032,5994.73,0.00017,0.0,0.0
2.039,6035.892,0.00017,0.0,0.0
2.045,5985.027,0.00017,0.0,0.0
2.051,5965.203,0.00017,0.0,0.0
2.058,6003.886,0.00017,0.0,0.0
2.064,5997.033,0.00017,0.0,0.0
2.07,6006.76,0.00017,0.0,0.0
2.077,6023.378,0.00017,0.0,0.0
2.083,5981.402,0.00017,0.0,0.0
2.089,6004.903,0.00017,0.0,0.0
2.096,6032.353,0.00017,0.0,0.0
2.102,6037.947,0.00017,0.0,0.0
2.108,6030.176,0.00017,0.0,0.0
2.115,6053.617,0.00017,0.0,0.0
2.121,6061.72,0.00016,0.0,0.0
2.127,6062.839,0.00016,0.0,0.0
2.134,6067.818,0.00016,0.0,0.0
2.14,6078.421,0.00016,0.0,0.0
2.146,6068.24,0.00016,0.0,0.0
2.152,6096.53,0.00016,0.0,0.0
2.159,6077.71,0.00016,0.0,0.0
2.165,6081.893,0.00016,0.0,0.0
2.171,6116.393,0.00016,0.0,0.0
2.178,6122.577,0.00016,0.0,0.0
2.184,6152.667,0.00016,0.0,0.0
2.19,6108.632,0.00016,0.0,0.0
2.197,6170.265,0.00016,0.0,0.0
2.203,6154.234,0.00016,0.0,0.0
2.209,6150.912,0.00016,0.0,0.0
2.216,6206.064,0.00016,0.0,0.0
2.222,6228.131,0.00016,0.0,0.0
2.228,6195.716,0.00016,0.0,0.0
2.235,6227.34,0.00016,0.0,0.0
2.241,6231.329,0.00016,0.0,0.0
2.247,6244.346,0.00016,0.0,0.0
2.254,6271.347,0.00016,0.0,0.0
2.26,6275.398,0.00016,0.0,0.0
2.266,6295.403,0.00016,0.0,0.0
2.273,6315.897,0.00016,0.0,0.0
2.279,6327.371,0.00016,0.0,0.0
2.285,6355.442,0.00016,0.0,0.0
2.292,6339.223,0.00016,0.0,0.0
2.298,6380.469,0.00016,0.0,0.0
2.304,6353.3,0.00016,0.0,0.0
2.31,6399.053,0.00016,0.0,0.0
2.317,6425.658,0.00016,0.0,0.0
2.323,6445.455,0.00016,0.0,0.0
2.329,6461.711,0.00015,0.0,0.0
2.336,6486.096,0.00015,0.0,0.0
2.342,6477.489,0.00015,0.0,0.0
2.348,6499.454,0.00015,0.0,0.0
2.355,6545.434,0.00015,0.0,0.0
2.361,6543.591,0.00015,0.0,0.0
2.367,6595.44,0.00015,0.0,0.0
2.374,6591.297,0.00015,0.0,0.0
2.38,6689.157,0.00015,0.0,0.0
2.386,6684.835,0.00015,0.0,0.0
2.393,6722.036,0.00015,0.0,0.0
2.399,6804.786,0.00015,0.0,0.0
2.405,6873.369,0.00015,0.0,0.0
2.412,6971.058,0.00014,0.0,0.0
2.418,7124.296,0.00014,0.0,0.0
2.424,7200.233,0.00014,0.0,0.0
2.431,7232.419,0.00014,0.0,0.0
2.437,7198.212,0.00014,0.0,0.0
2.443,7124.029,0.00014,0.0,0.0
2.45,7063.768,0.00014,0.0,0.0
2.456,7020.369,0.00014,0.0,0.0
2.462,6991.398,0.00014,0.0,0.0
2.468,6948.461,0.00014,0.0,0.0
2.475,6983.759,0.00014,0.0,0.0
2.481,7007.844,0.00014,0.0,0.0
2.487,7014.575,0.00014,0.0,0.0
2.494,7010.281,0.00014,0.0,0.0
2.5,7050.746,0.00014,0.0,0.0
2.506,7075.342,0.00014,0.0,0.0
2.513,7121.005,0.00014,0.0,0.0
2.519,7143.637,0.00014,0.0,0.0
2.525,7161.677,0.00014,0.0,0.0
2.532,7163.046,0.00014,0.0,0.0
2.538,7194.104,0.00014,0.0,0.0
2.544,7229.833,0.00014,0.0,0.0
2.551,7242.165,0.00014,0.0,0.0
2.557,7268.163,0.00014,0.0,0.0
2.563,7310.775,0.00014,0.0,0.0
2.57,7332.21,0.00014,0.0,0.0
2.576,7330.201,0.00014,0.0,0.0
2.582,7380.026,0.00014,0.0,0.0
2.589,7380.089,0.00014,0.0,0.0
2.595,7431.107,0.00013,0.0,0.0
2.601,7387.243,0.00014,0.0,0.0
2.608,7475.678,0.00013,0.0,0.0
2.614,7495.585,0.00013,0.0,0.0
2.62,7513.43,0.00013,0.0,0.0
2.626,7519.185,0.00013,0.0,0.0
2.633,7566.434,0.00013,0.0,0.0
2.639,7601.304,0.00013,0.0,0.0
2.645,7622.411,0.00013,0.0,0.0
2.652,7641.312,0.00013,0.0,0.0
2.658,7671.367,0.00013,0.0,0.0
2.664,7667.618,0.00013,0.0,0.0
2.671,7668.232,0.00013,0.0,0.0
2.677,7736.521,0.00013,0.0,0.0
2.683,7761.043,0.00013,0.0,0.0
2.69,7768.94,0.00013,0.0,0.0
2.696,7817.328,0.00013,0.0,0.0
2.702,7806.162,0.00013,0.0,0.0
2.709,7847.03,0.00013,0.0,0.0
2.715,7856.581,0.00013,0.0,0.0
2.721,7868.821,0.00013,0.0,0.0
2.728,7930.92,0.00013,0.0,0.0
2.734,7962.135,0.00013,0.0,0.0
2.74,7965.309,0.00013,0.0,0.0
2.747,8015.025,0.00012,0.0,0.0
2.753,8032.421,0.00012,0.0,0.0
2.759,8071.572,0.00012,0.0,0.0
2.766,8091.442,0.00012,0.0,0.0
2.772,8139.817,0.00012,0.0,0.0
2.778,8143.989,0.00012,0.0,0.0
2.784,8171.716,0.00012,0.0,0.0
2.791,8175.542,0.00012,0.0,0.0
2.797,8209.615,0.00012,0.0,0.0
2.803,8242.758,0.00012,0.0,0.0
2.81,8262.134,0.00012,0.0,0.0
2.816,8305.72,0.00012,0.0,0.0
2.822,8324.254,0.00012,0.0,0.0
2.829,8366.767,0.00012,0.0,0.0
2.835,8398.152,0.00012,0.0,0.0
2.841,8432.714,0.00012,0.0,0.0
2.848,8456.244,0.00012,0.0,0.0
2.854,8447.731,0.00012,0.0,0.0
2.86,8505.885,0.00012,0.0,0.0
2.867,8507.531,0.00012,0.0,0.0
2.873,8509.401,0.00012,0.0,0.0
2.879,8561.477,0.00012,0.0,0.0
2.886,8589.319,0.00012,0.0,0.0
2.892,8585.414,0.00012,0.0,0.0
2.898,8634.183,0.00012,0.0,0.0
2.905,8643.465,0.00012,0.0,0.0
2.911,8654.57,0.00012,0.0,0.0
2.917,8676.916,0.00012,0.0,0.0
2.924,8698.698,0.00011,0.0,0.0
2.93,8735.516,0.00011,0.0,0.0
2.936,8743.511,0.00011,0.0,0.0
2.942,8765.012,0.00011,0.0,0.0
2.949,8783.07,0.00011,0.0,0.0
2.955,8810.019,0.00011,0.0,0.0
2.961,8794.49,0.00011,0.0,0.0
2.968,8845.892,0.00011,0.0,0.0
2.974,8855.278,0.00011,0.0,0.0
2.98,8875.657,0.00011,0.0,0.0
2.987,8874.889,0.00011,0.0,0.0
2.993,8900.451,0.00011,0.0,0.0
2.999,8935.529,0.00011,0.0,0.0
3.006,8956.011,0.00011,0.0,0.0
3.012,8921.912,0.00011,0.0,0.0
3.018,8970.019,0.00011,0.0,0.0
3.025,8983.507,0.00011,0.0,0.0
3.031,9019.829,0.00011,0.0,0.0
3.037,8992.445,0.00011,0.0,0.0
3.044,9006.642,0.00011,0.0,0.0
3.05,9022.931,0.00011,0.0,0.0
3.056,9002.316,0.00011,0.0,0.0
3.063,9043.659,0.00011,0.0,0.0
3.069,9033.958,0.00011,0.0,0.0
3.075,9040.301,0.00011,0.0,0.0
3.082,9035.838,0.00011,0.0,0.0
3.088,9021.969,0.00011,0.0,0.0
3.094,9011.013,0.00011,0.0,0.0
3.1,9041.742,0.00011,0.0,0.0
3.107,9073.58,0.00011,0.0,0.0
3.113,9051.05,0.00011,0.0,0.0
3.119,9036.729,0.00011,0.0,0.0
3.126,9015.698,0.00011,0.0,0.0
3.132,9053.699,0.00011,0.0,0.0
3.138,9060.251,0.00011,0.0,0.0
3.145,9016.243,0.00011,0.0,0.0
3.151,9016.776,0.00011,0.0,0.0
3.157,9032.34,0.00011,0.0,0.0
3.164,8999.238,0.00011,0.0,0.0
3.17,9034.651,0.00011,0.0,0.0
3.176,9002.31,0.00011,0.0,0.0
3.183,8980.057,0.00011,0.0,0.0
3.189,8964.097,0.00011,0.0,0.0
3.195,8956.659,0.00011,0.0,0.0
3.202,8991.119,0.00011,0.0,0.0
3.208,8941.796,0.00011,0.0,0.0
3.214,8941.435,0.00011,0.0,0.0
3.221,8922.624,0.00011,0.0,0.0
3.227,8933.357,0.00011,0.0,0.0
3.233,8903.902,0.00011,0.0,0.0
3.24,8902.693,0.00011,0.0,0.0
3.246,8874.47,0.00011,0.0,0.0
3.252,8844.595,0.00011,0.0,0.0
3.258,8831.8,0.00011,0.0,0.0
3.265,8842.281,0.00011,0.0,0.0
3.271,8834.421,0.00011,0.0,0.0
3.277,8788.669,0.00011,0.0,0.0
3.284,8778.508,0.00011,0.0,0.0
3.29,8768.794,0.00011,0.0,0.0
3.296,8741.393,0.00011,0.0,0.0
3.303,8752.279,0.00011,0.0,0.0
3.309,8727.918,0.00011,0.0,0.0
3.315,8739.954,0.00011,0.0,0.0
3.322,8701.645,0.00011,0.0,0.0
3.328,8698.809,0.00011,0.0,0.0
3.334,8697.067,0.00011,0.0,0.0
3.341,8692.71,0.00012,0.0,0.0
3.347,8658.784,0.00012,0.0,0.0
3.353,8660.645,0.00012,0.0,0.0
3.36,8597.31,0.00012,0.0,0.0
3.366,8609.199,0.00012,0.0,0.0
3.372,8582.732,0.00012,0.0,0.0
3.379,8585.944,0.00012,0.0,0.0
3.385,8577.765,0.00012,0.0,0.0
3.391,8535.335,0.00012,0.0,0.0
3.398,8524.174,0.00012,0.0,0.0
3.404,8526.348,0.00012,0.0,0.0
3.41,8512.691,0.00012,0.0,0.0
3.416,8501.888,0.00012,0.0,0.0
3.423,8533.281,0.00012,0.0,0.0
3.429,8502.279,0.00012,0.0,0.0
3.435,8488.681,0.00012,0.0,0.0
3.442,8637.317,0.00012,0.0,0.0
3.448,8477.965,0.00012,0.0,0.0
3.454,8479.234,0.00012,0.0,0.0
3.461,8468.729,0.00012,0.0,0.0
3.467,8414.226,0.00012,0.0,0.0
3.473,8391.167,0.00012,0.0,0.0
3.48,8367.059,0.00012,0.0,0.0
3.486,8345.82,0.00012,0.0,0.0
3.492,8339.748,0.00012,0.0,0.0
3.499,8334.661,0.00012,0.0,0.0
3.505,8318.837,0.00012,0.0,0.0
3.511,8293.907,0.00012,0.0,0.0
3.518,8295.389,0.00012,0.0,0.0
3.524,8292.609,0.00012,0.0,0.0
3.53,8270.119,0.00012,0.0,0.0
3.537,8280.822,0.00012,0.0,0.0
3.543,8279.916,0.00012,0.0,0.0
3.549,8284.636,0.00012,0.0,0.0
3.556,8270.673,0.00012,0.0,0.0
3.562,8263.224,0.00012,0.0,0.0
3.568,8247.29,0.00012,0.0,0.0
3.574,8259.227,0.00012,0.0,0.0
3.581,8242.58,0.00012,0.0,0.0
3.587,8257.049,0.00012,0.0,0.0
3.593,8252.196,0.00012,0.0,0.0
3.6,8244.647,0.00012,0.0,0.0
3.606,8241.129,0.00012,0.0,0.0
3.612,8261.262,0.00012,0.0,0.0
3.619,8250.186,0.00012,0.0,0.0
3.625,8250.484,0.00012,0.0,0.0
3.631,8272.428,0.00012,0.0,0.0
3.638,8292.933,0.00012,0.0,0.0
3.644,8294.691,0.00012,0.0,0.0
3.65,8308.688,0.00012,0.0,0.0
3.657,8285.884,0.00012,0.0,0.0
3.663,8317.034,0.00012,0.0,0.0
3.669,8334.436,0.00012,0.0,0.0
3.676,8343.577,0.00012,0.0,0.0
3.682,8340.9,0.00012,0.0,0.0
3.688,8377.73,0.00012,0.0,0.0
3.695,8391.793,0.00012,0.0,0.0
3.701,8391.572,0.00012,0.0,0.0
3.707,8414.531,0.00012,0.0,0.0
3.714,8449.941,0.00012,0.0,0.0
3.72,8450.043,0.00012,0.0,0.0
3.726,8468.378,0.00012,0.0,0.0
3.732,8504.763,0.00012,0.0,0.0
3.739,8532.584,0.00012,0.0,0.0
3.745,8535.128,0.00012,0.0,0.0
3.751,8550.781,0.00012,0.0,0.0
3.758,8571.353,0.00012,0.0,0.0
3.764,8587.137,0.00012,0.0,0.0
3.77,8582.904,0.00012,0.0,0.0
3.777,8626.212,0.00012,0.0,0.0
3.783,8647.543,0.00012,0.0,0.0
3.789,8635.956,0.00012,0.0,0.0
3.796,8652.198,0.00012,0.0,0.0
3.802,8683.464,0.00012,0.0,0.0
3.808,8694.444,0.00012,0.0,0.0
3.815,8688.922,0.00012,0.0,0.0
3.821,8714.156,0.00011,0.0,0.0
3.827,8732.755,0.00011,0.0,0.0
3.834,8733.961,0.00011,0.0,0.0
3.84,8737.745,0.00011,0.0,0.0
3.846,8759.962,0.00011,0.0,0.0
3.853,8730.891,0.00011,0.0,0.0
3.859,8715.536,0.00011,0.0,0.0
3.865,8728.548,0.00011,0.0,0.0
3.872,8689.818,0.00012,0.0,0.0
3.878,8718.618,0.00011,0.0,0.0
3.884,8695.338,0.00012,0.0,0.0
3.89,8682.438,0.00012,0.0,0.0
3.897,8675.064,0.00012,0.0,0.0
3.903,8642.892,0.00012,0.0,0.0
3.909,8648.931,0.00012,0.0,0.0
3.916,8624.273,0.00012,0.0,0.0
3.922,8586.655,0.00012,0.0,0.0
3.928,8610.38,0.00012,0.0,0.0
3.935,8586.92,0.00012,0.0,0.0
3.941,8565.665,0.00012,0.0,0.0
3.947,8561.757,0.00012,0.0,0.0
3.954,8538.692,0.00012,0.0,0.0
3.96,8535.449,0.00012,0.0,0.0
3.966,8540.885,0.00012,0.0,0.0
3.973,8481.602,0.00012,0.0,0.0
3.979,8530.495,0.00012,0.0,0.0
3.985,8481.06,0.00012,0.0,0.0
3.992,8445.179,0.00012,0.0,0.0
3.998,8469.108,0.00012,0.0,0.0
4.004,8422.53,0.00012,0.0,0.0
4.011,8450.511,0.00012,0.0,0.0
4.017,8436.729,0.00012,0.0,0.0
4.023,8418.204,0.00012,0.0,0.0
4.03,8407.636,0.00012,0.0,0.0
4.036,8380.732,0.00012,0.0,0.0
4.042,8403.875,0.00012,0.0,0.0
4.048,8382.821,0.00012,0.0,0.0
4.055,8347.362,0.00012,0.0,0.0
4.061,8390.206,0.00012,0.0,0.0
4.067,8398.955,0.00012,0.0,0.0
4.074,8396.281,0.00012,0.0,0.0
4.08,8399.754,0.00012,0.0,0.0
4.086,8383.171,0.00012,0.0,0.0
4.093,8417.059,0.00012,0.0,0.0
4.099,8402.725,0.00012,0.0,0.0
4.105,8388.931,0.00012,0.0,0.0
4.112,8423.122,0.00012,0.0,0.0
4.118,8410.423,0.00012,0.0,0.0
4.124,8410.31,0.00012,0.0,0.0
4.131,8429.334,0.00012,0.0,0.0
4.137,8414.614,0.00012,0.0,0.0
4.143,8470.965,0.00012,0.0,0.0
4.15,8465.126,0.00012,0.0,0.0
4.156,8487.066,0.00012,0.0,0.0
4.162,8512.457,0.00012,0.0,0.0
4.169,8491.329,0.00012,0.0,0.0
4.175,8559.803,0.00012,0.0,0.0
4.181,8543.611,0.00012,0.0,0.0
4.188,8529.692,0.00012,0.0,0.0
4.194,8604.161,0.00012,0.0,0.0
4.2,8607.857,0.00012,0.0,0.0
4.206,8603.333,0.00012,0.0,0.0
4.213,8681.897,0.00012,0.0,0.0
4.219,8641.351,0.00012,0.0,0.0
4.225,8705.912,0.00011,0.0,0.0
4.232,8695.797,0.00011,0.0,0.0
4.238,8712.137,0.00011,0.0,0.0
4.244,8771.473,0.00011,0.0,0.0
4.251,8770.825,0.00011,0.0,0.0
4.257,8789.38,0.00011,0.0,0.0
4.263,8897.747,0.00011,0.0,0.0
4.27,8842.996,0.00011,0.0,0.0
4.276,8992.614,0.00011,0.0,0.0
4.282,8946.043,0.00011,0.0,0.0
4.289,8937.402,0.00011,0.0,0.0
4.295,9087.716,0.00011,0.0,0.0
4.301,9036.919,0.00011,0.0,0.0
4.308,9082.412,0.00011,0.0,0.0
4.314,9136.047,0.00011,0.0,0.0
4.32,9129.932,0.00011,0.0,0.0
4.327,9234.866,0.00011,0.0,0.0
4.333,9240.033,0.00011,0.0,0.0
4.339,9292.732,0.00011,0.0,0.0
4.346,9456.533,0.00011,0.0,0.0
4.352,9358.375,0.00011,0.0,0.0
4.358,9526.936,0.0001,0.0,0.0
4.364,9579.882,0.0001,0.0,0.0
4.371,9471.804,0.00011,0.0,0.0
4.377,9873.468,0.0001,0.0,0.0
4.383,9707.386,0.0001,0.0,0.0
4.39,9904.362,0.0001,0.0,0.0
4.396,9963.101,0.0001,0.0,0.0
4.402,9907.101,0.0001,0.0,0.0
4.409,10058.955,0.0001,0.0,0.0
4.415,10248.88,0.0001,0.0,0.0
4.421,10177.756,0.0001,0.0,0.0
4.428,10586.299,0.00009,0.0,0.0
4.434,10476.835,0.0001,0.0,0.0
4.44,10561.645,0.00009,0.0,0.0
4.447,10880.948,0.00009,0.0,0.0
4.453,10796.0,0.00009,0.0,0.0
4.459,11356.553,0.00009,0.0,0.0
4.466,11436.81,0.00009,0.0,0.0
4.472,11431.951,0.00009,0.0,0.0
4.478,12236.927,0.00008,0.0,0.0
4.485,12080.897,0.00008,0.0,0.0
4.491,12624.059,0.00008,0.0,0.0
4.497,14191.044,0.00007,0.0,0.0
4.504,13593.102,0.00007,0.0,0.0
4.51,17167.168,0.00006,0.0,0.0
4.516,17858.425,0.00006,0.0,0.0
4.522,20561.554,0.00005,0.0,0.0
4.529,34522.115,0.00003,0.0,0.0
4.535,44512.116,0.00002,0.0,0.0
4.541,52933.876,0.00002,0.0,0.0
4.548,91339.626,0.00001,0.0,0.0
4.554,70509.961,0.00001,0.0,0.0
4.56,98416.499,0.00001,0.0,0.0
4.567,84070.926,0.00001,0.0,0.0
4.573,82505.071,0.00001,0.0,0.0
4.579,75139.407,0.00001,0.0,0.0
4.586,47831.693,0.00002,0.0,0.0
4.592,49053.521,0.00002,0.0,0.0
4.598,28100.582,0.00004,0.0,0.0
4.605,26264.651,0.00004,0.0,0.0
4.611,18159.88,0.00006,0.0,0.0
4.617,16959.589,0.00006,0.0,0.0
4.624,14245.343,0.00007,0.0,0.0
4.63,14341.676,0.00007,0.0,0.0
4.636,12650.065,0.00008,0.0,0.0
4.643,12568.205,0.00008,0.0,0.0
4.649,12074.629,0.00008,0.0,0.0
4.655,11618.851,0.00009,0.0,0.0
4.662,11798.392,0.00008,0.0,0.0
4.668,11238.505,0.00009,0.0,0.0
4.674,10919.217,0.00009,0.0,0.0
4.68,11160.973,0.00009,0.0,0.0
4.687,10595.997,0.00009,0.0,0.0
4.693,10683.502,0.00009,0.0,0.0
4.699,10568.903,0.00009,0.0,0.0
4.706,10209.281,0.0001,0.0,0.0
4.712,10434.125,0.0001,0.0,0.0
4.718,10126.368,0.0001,0.0,0.0
4.725,9873.848,0.0001,0.0,0.0
4.731,10173.557,0.0001,0.0,0.0
4.737,9771.551,0.0001,0.0,0.0
4.744,9854.415,0.0001,0.0,0.0
4.75,9732.78,0.0001,0.0,0.0
4.756,9589.12,0.0001,0.0,0.0
4.763,9574.623,0.0001,0.0,0.0
4.769,9403.286,0.00011,0.0,0.0
4.775,9390.324,0.00011,0.0,0.0
4.782,9379.506,0.00011,0.0,0.0
4.788,9229.987,0.00011,0.0,0.0
4.794,9147.599,0.00011,0.0,0.0
4.801,9153.189,0.00011,0.0,0.0
4.807,8992.626,0.00011,0.0,0.0
4.813,9083.0,0.00011,0.0,0.0
4.82,8935.183,0.00011,0.0,0.0
4.826,8946.087,0.00011,0.0,0.0
4.832,8967.684,0.00011,0.0,0.0
4.838,8929.814,0.00011,0.0,0.0
4.845,8949.542,0.00011,0.0,0.0
4.851,9099.698,0.00011,0.0,0.0
4.857,9084.963,0.00011,0.0,0.0
4.864,9103.149,0.00011,0.0,0.0
4.87,8961.986,0.00011,0.0,0.0
4.876,8794.881,0.00011,0.0,0.0
4.883,8745.158,0.00011,0.0,0.0
4.889,8497.007,0.00012,0.0,0.0
4.895,8440.184,0.00012,0.0,0.0
4.902,8366.577,0.00012,0.0,0.0
4.908,8295.21,0.00012,0.0,0.0
4.914,8270.265,0.00012,0.0,0.0
4.921,8145.053,0.00012,0.0,0.0
4.927,8095.974,0.00012,0.0,0.0
4.933,8106.704,0.00012,0.0,0.0
4.94,8014.08,0.00012,0.0,0.0
4.946,7990.155,0.00013,0.0,0.0
4.952,7996.766,0.00013,0.0,0.0
4.959,7916.332,0.00013,0.0,0.0
4.965,7920.376,0.00013,0.0,0.0
4.971,7858.714,0.00013,0.0,0.0
4.978,7820.795,0.00013,0.0,0.0
4.984,7798.491,0.00013,0.0,0.0
4.99,7729.092,0.00013,0.0,0.0
4.996,7714.282,0.00013,0.0,0.0
5.003,7702.686,0.00013,0.0,0.0
5.009,7622.78,0.00013,0.0,0.0
5.015,7709.162,0.00013,0.0,0.0
5.022,7580.23,0.00013,0.0,0.0
5.028,7569.648,0.00013,0.0,0.0
5.034,7568.71,0.00013,0.0,0.0
5.041,7497.215,0.00013,0.0,0.0
5.047,7489.107,0.00013,0.0,0.0
5.053,7499.532,0.00013,0.0,0.0
5.06,7421.611,0.00013,0.0,0.0
5.066,7417.348,0.00013,0.0,0.0
5.072,7408.332,0.00013,0.0,0.0
5.079,7335.456,0.00014,0.0,0.0
5.085,7366.856,0.00014,0.0,0.0
5.091,7283.82,0.00014,0.0,0.0
5.098,7304.415,0.00014,0.0,0.0
5.104,7273.301,0.00014,0.0,0.0
5.11,7220.52,0.00014,0.0,0.0
5.117,7239.487,0.00014,0.0,0.0
5.123,7188.652,0.00014,0.0,0.0
5.129,7171.051,0.00014,0.0,0.0
5.136,7155.306,0.00014,0.0,0.0
5.142,7129.431,0.00014,0.0,0.0
5.148,7121.123,0.00014,0.0,0.0
5.154,7111.105,0.00014,0.0,0.0
5.161,7047.291,0.00014,0.0,0.0
5.167,7065.821,0.00014,0.0,0.0
5.173,7022.652,0.00014,0.0,0.0
5.18,7007.981,0.00014,0.0,0.0
5.186,6992.065,0.00014,0.0,0.0
5.192,6964.112,0.00014,0.0,0.0
5.199,6953.912,0.00014,0.0,0.0
5.205,6943.439,0.00014,0.0,0.0
5.211,6921.068,0.00014,0.0,0.0
5.218,6895.46,0.00015,0.0,0.0
5.224,6892.14,0.00015,0.0,0.0
5.23,6876.36,0.00015,0.0,0.0
5.237,6879.284,0.00015,0.0,0.0
5.243,6834.96,0.00015,0.0,0.0
5.249,6828.631,0.00015,0.0,0.0
5.256,6814.743,0.00015,0.0,0.0
5.262,6775.487,0.00015,0.0,0.0
5.268,6773.935,0.00015,0.0,0.0
5.275,6747.447,0.00015,0.0,0.0
5.281,6721.613,0.00015,0.0,0.0
5.287,6740.039,0.00015,0.0,0.0
5.294,6677.884,0.00015,0.0,0.0
5.3,6712.303,0.00015,0.0,0.0
5.306,6676.461,0.00015,0.0,0.0
5.312,6679.196,0.00015,0.0,0.0
5.319,6674.033,0.00015,0.0,0.0
5.325,6647.669,0.00015,0.0,0.0
5.331,6644.324,0.00015,0.0,0.0
5.338,6639.278,0.00015,0.0,0.0
5.344,6638.778,0.00015,0.0,0.0
5.35,6628.477,0.00015,0.0,0.0
5.357,6599.742,0.00015,0.0,0.0
5.363,6581.721,0.00015,0.0,0.0
5.369,6576.576,0.00015,0.0,0.0
5.376,6548.607,0.00015,0.0,0.0
5.382,6558.513,0.00015,0.0,0.0
5.388,6544.366,0.00015,0.0,0.0
5.395,6515.222,0.00015,0.0,0.0
5.401,6518.096,0.00015,0.0,0.0
5.407,6509.446,0.00015,0.0,0.0
5.414,6507.382,0.00015,0.0,0.0
5.42,6501.516,0.00015,0.0,0.0
5.426,6473.561,0.00015,0.0,0.0
5.433,6479.556,0.00015,0.0,0.0
5.439,6484.06,0.00015,0.0,0.0
5.445,6459.278,0.00015,0.0,0.0
5.452,6457.979,0.00015,0.0,0.0
5.458,6423.053,0.00016,0.0,0.0
5.464,6450.978,0.00016,0.0,0.0
5.47,6446.502,0.00016,0.0,0.0
5.477,6430.595,0.00016,0.0,0.0
5.483,6428.784,0.00016,0.0,0.0
5.489,6440.911,0.00016,0.0,0.0
5.496,6411.862,0.00016,0.0,0.0
5.502,6419.559,0.00016,0.0,0.0
5.508,6387.905,0.00016,0.0,0.0
5.515,6392.442,0.00016,0.0,0.0
5.521,6394.869,0.00016,0.0,0.0
5.527,6379.662,0.00016,0.0,0.0
5.534,6393.367,0.00016,0.0,0.0
5.54,6368.578,0.00016,0.0,0.0
5.546,6376.637,0.00016,0.0,0.0
5.553,6365.37,0.00016,0.0,0.0
5.559,6378.693,0.00016,0.0,0.0
5.565,6342.782,0.00016,0.0,0.0
5.572,6366.637,0.00016,0.0,0.0
5.578,6342.494,0.00016,0.0,0.0
5.584,6324.556,0.00016,0.0,0.0
5.591,6337.039,0.00016,0.0,0.0
5.597,6329.246,0.00016,0.0,0.0
5.603,6350.747,0.00016,0.0,0.0
5.61,6327.65,0.00016,0.0,0.0
5.616,6350.007,0.00016,0.0,0.0
5.622,6332.239,0.00016,0.0,0.0
5.628,6335.77,0.00016,0.0,0.0
5.635,6359.819,0.00016,0.0,0.0
5.641,6327.346,0.00016,0.0,0.0
5.647,6315.741,0.00016,0.0,0.0
5.654,6348.528,0.00016,0.0,0.0
5.66,6311.725,0.00016,0.0,0.0
5.666,6310.324,0.00016,0.0,0.0
5.673,6312.919,0.00016,0.0,0.0
5.679,6307.366,0.00016,0.0,0.0
5.685,6303.962,0.00016,0.0,0.0
5.692,6318.869,0.00016,0.0,0.0
5.698,6298.686,0.00016,0.0,0.0
5.704,6303.311,0.00016,0.0,0.0
5.711,6280.762,0.00016,0.0,0.0
5.717,6293.006,0.00016,0.0,0.0
5.723,6319.8,0.00016,0.0,0.0
5.73,6287.175,0.00016,0.0,0.0
5.736,6297.074,0.00016,0.0,0.0
5.742,6300.65,0.00016,0.0,0.0
5.749,6308.477,0.00016,0.0,0.0
5.755,6325.669,0.00016,0.0,0.0
5.761,6307.791,0.00016,0.0,0.0
5.768,6317.163,0.00016,0.0,0.0
5.774,6328.788,0.00016,0.0,0.0
5.78,6336.221,0.00016,0.0,0.0
5.786,6345.899,0.00016,0.0,0.0
5.793,6341.116,0.00016,0.0,0.0
5.799,6338.701,0.00016,0.0,0.0
5.805,6371.228,0.00016,0.0,0.0
5.812,6351.165,0.00016,0.0,0.0
5.818,6397.282,0.00016,0.0,0.0
5.824,6406.845,0.00016,0.0,0.0
5.831,6447.923,0.00016,0.0,0.0
5.837,6476.289,0.00015,0.0,0.0
5.843,6549.932,0.00015,0.0,0.0
5.85,6681.851,0.00015,0.0,0.0
5.856,6886.11,0.00015,0.0,0.0
5.862,7149.098,0.00014,0.0,0.0
5.869,7478.834,0.00013,0.0,0.0
5.875,7809.69,0.00013,0.0,0.0
5.881,8009.645,0.00012,0.0,0.0
5.888,8027.939,0.00012,0.0,0.0
5.894,7813.971,0.00013,0.0,0.0
5.9,7542.529,0.00013,0.0,0.0
5.907,7182.507,0.00014,0.0,0.0
5.913,6884.265,0.00015,0.0,0.0
5.919,6685.523,0.00015,0.0,0.0
5.926,6520.357,0.00015,0.0,0.0
5.932,6443.644,0.00016,0.0,0.0
5.938,6415.778,0.00016,0.0,0.0
5.944,6344.456,0.00016,0.0,0.0
5.951,6369.762,0.00016,0.0,0.0
5.957,6336.572,0.00016,0.0,0.0
5.963,6282.05,0.00016,0.0,0.0
5.97,6302.857,0.00016,0.0,0.0
5.976,6269.216,0.00016,0.0,0.0
5.982,6276.176,0.00016,0.0,0.0
5.989,6246.896,0.00016,0.0,0.0
5.995,6222.85,0.00016,0.0,0.0
6.001,6227.821,0.00016,0.0,0.0
6.008,6219.231,0.00016,0.0,0.0
6.014,6224.054,0.00016,0.0,0.0
6.02,6212.806,0.00016,0.0,0.0
6.027,6179.904,0.00016,0.0,0.0
6.033,6198.908,0.00016,0.0,0.0
6.039,6201.531,0.00016,0.0,0.0
6.046,6163.994,0.00016,0.0,0.0
6.052,6197.836,0.00016,0.0,0.0
6.058,6161.495,0.00016,0.0,0.0
6.065,6170.934,0.00016,0.0,0.0
6.071,6161.519,0.00016,0.0,0.0
6.077,6153.981,0.00016,0.0,0.0
6.084,6150.636,0.00016,0.0,0.0
6.09,6141.596,0.00016,0.0,0.0
6.096,6106.999,0.00016,0.0,0.0
6.102,6146.026,0.00016,0.0,0.0
6.109,6154.215,0.00016,0.0,0.0
6.115,6129.438,0.00016,0.0,0.0
6.121,6131.938,0.00016,0.0,0.0
6.128,6119.585,0.00016,0.0,0.0
6.134,6141.838,0.00016,0.0,0.0
6.14,6126.149,0.00016,0.0,0.0
6.147,6134.121,0.00016,0.0,0.0
6.153,6092.051,0.00016,0.0,0.0
6.159,6141.577,0.00016,0.0,0.0
6.166,6113.469,0.00016,0.0,0.0
6.172,6131.067,0.00016,0.0,0.0
6.178,6145.848,0.00016,0.0,0.0
6.185,6153.674,0.00016,0.0,0.0
6.191,6113.001,0.00016,0.0,0.0
6.197,6168.181,0.00016,0.0,0.0
6.204,6118.834,0.00016,0.0,0.0
6.21,6155.403,0.00016,0.0,0.0
6.216,6126.442,0.00016,0.0,0.0
6.223,6167.256,0.00016,0.0,0.0
6.229,6162.093,0.00016,0.0,0.0
6.235,6153.771,0.00016,0.0,0.0
6.242,6194.167,0.00016,0.0,0.0
6.248,6176.412,0.00016,0.0,0.0
6.254,6168.671,0.00016,0.0,0.0
6.26,6165.852,0.00016,0.0,0.0
6.267,6189.606,0.00016,0.0,0.0
6.273,6183.502,0.00016,0.0,0.0
6.279,6184.405,0.00016,0.0,0.0
6.286,6180.162,0.00016,0.0,0.0
6.292,6224.505,0.00016,0.0,0.0
6.298,6215.923,0.00016,0.0,0.0
6.305,6249.047,0.00016,0.0,0.0
6.311,6238.973,0.00016,0.0,0.0
6.317,6225.601,0.00016,0.0,0.0
6.324,6297.803,0.00016,0.0,0.0
6.33,6287.467,0.00016,0.0,0.0
6.336,6290.445,0.00016,0.0,0.0
6.343,6313.806,0.00016,0.0,0.0
6.349,6376.528,0.00016,0.0,0.0
6.355,6375.515,0.00016,0.0,0.0
6.362,6393.293,0.00016,0.0,0.0
6.368,6439.228,0.00016,0.0,0.0
6.374,6470.896,0.00015,0.0,0.0
6.381,6488.643,0.00015,0.0,0.0
6.387,6600.985,0.00015,0.0,0.0
6.393,6582.491,0.00015,0.0,0.0
6.4,6810.142,0.00015,0.0,0.0
6.406,6915.157,0.00014,0.0,0.0
6.412,7279.563,0.00014,0.0,0.0
6.418,7785.105,0.00013,0.0,0.0
6.425,9011.417,0.00011,0.0,0.0
6.431,11869.087,0.00008,0.0,0.0
6.437,14917.239,0.00007,0.0,0.0
6.444,15299.031,0.00007,0.0,0.0
6.45,24078.005,0.00004,0.0,0.0
6.456,16877.193,0.00006,0.0,0.0
6.463,19427.222,0.00005,0.0,0.0
6.469,22781.557,0.00004,0.0,0.0
6.475,11570.962,0.00009,0.0,0.0
6.482,12636.462,0.00008,0.0,0.0
6.488,9000.53,0.00011,0.0,0.0
6.494,7520.216,0.00013,0.0,0.0
6.501,7717.637,0.00013,0.0,0.0
6.507,7105.56,0.00014,0.0,0.0
6.513,6973.413,0.00014,0.0,0.0
6.52,6944.839,0.00014,0.0,0.0
6.526,6943.346,0.00014,0.0,0.0
6.532,6951.894,0.00014,0.0,0.0
6.539,7081.032,0.00014,0.0,0.0
6.545,7232.387,0.00014,0.0,0.0
6.551,7436.341,0.00013,0.0,0.0
6.558,7920.077,0.00013,0.0,0.0
6.564,8523.525,0.00012,0.0,0.0
6.57,9584.633,0.0001,0.0,0.0
6.576,11938.876,0.00008,0.0,0.0
6.583,15250.47,0.00007,0.0,0.0
6.589,23291.288,0.00004,0.0,0.0
6.595,37929.092,0.00003,0.0,0.0
6.602,55821.616,0.00002,0.0,0.0
6.608,87093.809,0.00001,0.0,0.0
6.614,104571.844,0.00001,0.0,0.0
6.621,119304.101,0.00001,0.0,0.0
6.627,95904.814,0.00001,0.0,0.0
6.633,77218.798,0.00001,0.0,0.0
6.64,51248.951,0.00002,0.0,0.0
6.646,31845.72,0.00003,0.0,0.0
6.652,20222.71,0.00005,0.0,0.0
6.659,14762.232,0.00007,0.0,0.0
6.665,10973.506,0.00009,0.0,0.0
6.671,9328.992,0.00011,0.0,0.0
6.678,8230.612,0.00012,0.0,0.0
6.684,7578.48,0.00013,0.0,0.0
6.69,7229.975,0.00014,0.0,0.0
6.697,6946.169,0.00014,0.0,0.0
6.703,6750.595,0.00015,0.0,0.0
6.709,6641.011,0.00015,0.0,0.0
6.716,6514.147,0.00015,0.0,0.0
6.722,6457.124,0.00015,0.0,0.0
6.728,6396.05,0.00016,0.0,0.0
6.734,6341.129,0.00016,0.0,0.0
6.741,6329.881,0.00016,0.0,0.0
6.747,6279.627,0.00016,0.0,0.0
6.753,6282.478,0.00016,0.0,0.0
6.76,6254.358,0.00016,0.0,0.0
6.766,6260.001,0.00016,0.0,0.0
6.772,6244.925,0.00016,0.0,0.0
6.779,6229.62,0.00016,0.0,0.0
6.785,6225.373,0.00016,0.0,0.0
6.791,6192.791,0.00016,0.0,0.0
6.798,6235.135,0.00016,0.0,0.0
6.804,6226.443,0.00016,0.0,0.0
6.81,6244.318,0.00016,0.0,0.0
6.817,6256.584,0.00016,0.0,0.0
6.823,6209.018,0.00016,0.0,0.0
6.829,6191.2,0.00016,0.0,0.0
6.836,6196.78,0.00016,0.0,0.0
6.842,6142.322,0.00016,0.0,0.0
6.848,6152.146,0.00016,0.0,0.0
6.855,6103.48,0.00016,0.0,0.0
6.861,6108.947,0.00016,0.0,0.0
6.867,6100.54,0.00016,0.0,0.0
6.874,6070.761,0.00016,0.0,0.0
6.88,6074.966,0.00016,0.0,0.0
6.886,6058.027,0.00017,0.0,0.0
6.892,6057.731,0.00017,0.0,0.0
6.899,6051.017,0.00017,0.0,0.0
6.905,6060.331,0.00017,0.0,0.0
6.911,6051.021,0.00017,0.0,0.0
6.918,6049.795,0.00017,0.0,0.0
6.924,6013.512,0.00017,0.0,0.0
6.93,6024.067,0.00017,0.0,0.0
6.937,6045.552,0.00017,0.0,0.0
6.943,6034.364,0.00017,0.0,0.0
6.949,6019.088,0.00017,0.0,0.0
6.956,6017.932,0.00017,0.0,0.0
6.962,6024.712,0.00017,0.0,0.0
6.968,6025.942,0.00017,0.0,0.0
6.975,6019.812,0.00017,0.0,0.0
6.981,6023.042,0.00017,0.0,0.0
6.987,6018.25,0.00017,0.0,0.0
6.994,6016.36,0.00017,0.0,0.0
7.0,6030.94,0.00017,0.0,0.0
7.006,5996.214,0.00017,0.0,0.0
7.013,6020.405,0.00017,0.0,0.0
7.019,5987.257,0.00017,0.0,0.0
7.025,6009.392,0.00017,0.0,0.0
7.032,5964.985,0.00017,0.0,0.0
7.038,5987.177,0.00017,0.0,0.0
7.044,5982.572,0.00017,0.0,0.0
7.05,5963.402,0.00017,0.0,0.0
7.057,5976.784,0.00017,0.0,0.0
7.063,5997.785,0.00017,0.0,0.0
7.069,5963.312,0.00017,0.0,0.0
7.076,5980.571,0.00017,0.0,0.0
7.082,5970.428,0.00017,0.0,0.0
7.088,5982.593,0.00017,0.0,0.0
7.095,5951.538,0.00017,0.0,0.0
7.101,5952.341,0.00017,0.0,0.0
7.107,5927.902,0.00017,0.0,0.0
7.114,5921.716,0.00017,0.0,0.0
7.12,5935.213,0.00017,0.0,0.0
7.126,5906.016,0.00017,0.0,0.0
7.133,5902.681,0.00017,0.0,0.0
7.139,5925.694,0.00017,0.0,0.0
7.145,5915.581,0.00017,0.0,0.0
7.152,5891.558,0.00017,0.0,0.0
7.158,5869.019,0.00017,0.0,0.0
7.164,5874.166,0.00017,0.0,0.0
7.171,5865.863,0.00017,0.0,0.0
7.177,5859.628,0.00017,0.0,0.0
7.183,5851.198,0.00017,0.0,0.0
7.19,5859.988,0.00017,0.0,0.0
7.196,5855.394,0.00017,0.0,0.0
7.202,5848.421,0.00017,0.0,0.0
7.208,5832.982,0.00017,0.0,0.0
7.215,5812.942,0.00017,0.0,0.0
7.221,5822.607,0.00017,0.0,0.0
7.227,5810.125,0.00017,0.0,0.0
7.234,5805.405,0.00017,0.0,0.0
7.24,5806.649,0.00017,0.0,0.0
7.246,5802.356,0.00017,0.0,0.0
7.253,5784.24,0.00017,0.0,0.0
7.259,5803.91,0.00017,0.0,0.0
7.265,5823.366,0.00017,0.0,0.0
7.272,5803.069,0.00017,0.0,0.0
7.278,5834.671,0.00017,0.0,0.0
7.284,5857.406,0.00017,0.0,0.0
7.291,5869.193,0.00017,0.0,0.0
7.297,5862.772,0.00017,0.0,0.0
7.303,5858.339,0.00017,0.0,0.0
7.31,5851.522,0.00017,0.0,0.0
7.316,5832.221,0.00017,0.0,0.0
7.322,5800.055,0.00017,0.0,0.0
7.329,5788.182,0.00017,0.0,0.0
7.335,5751.897,0.00017,0.0,0.0
7.341,5751.19,0.00017,0.0,0.0
7.348,5751.169,0.00017,0.0,0.0
7.354,5742.477,0.00017,0.0,0.0
7.36,5748.707,0.00017,0.0,0.0
7.366,5725.176,0.00017,0.0,0.0
7.373,5719.818,0.00017,0.0,0.0
7.379,5730.505,0.00017,0.0,0.0
7.385,5733.546,0.00017,0.0,0.0
7.392,5728.12,0.00017,0.0,0.0
7.398,5742.133,0.00017,0.0,0.0
7.404,5713.614,0.00018,0.0,0.0
7.411,5748.747,0.00017,0.0,0.0
7.417,5744.036,0.00017,0.0,0.0
7.423,5743.874,0.00017,0.0,0.0
7.43,5752.725,0.00017,0.0,0.0
7.436,5774.313,0.00017,0.0,0.0
7.442,5743.552,0.00017,0.0,0.0
7.449,5780.17,0.00017,0.0,0.0
7.455,5783.374,0.00017,0.0,0.0
7.461,5790.541,0.00017,0.0,0.0
7.468,5801.365,0.00017,0.0,0.0
7.474,5783.368,0.00017,0.0,0.0
7.48,5811.251,0.00017,0.0,0.0
7.487,5818.58,0.00017,0.0,0.0
7.493,5828.833,0.00017,0.0,0.0
7.499,5841.683,0.00017,0.0,0.0
7.506,5867.091,0.00017,0.0,0.0
7.512,5878.636,0.00017,0.0,0.0
7.518,5871.711,0.00017,0.0,0.0
7.524,5903.332,0.00017,0.0,0.0
7.531,5927.577,0.00017,0.0,0.0
7.537,5967.228,0.00017,0.0,0.0
7.543,6003.368,0.00017,0.0,0.0
7.55,6054.143,0.00017,0.0,0.0
7.556,6101.554,0.00016,0.0,0.0
7.562,6214.792,0.00016,0.0,0.0
7.569,6307.28,0.00016,0.0,0.0
7.575,6472.722,0.00015,0.0,0.0
7.581,6689.29,0.00015,0.0,0.0
7.588,7063.424,0.00014,0.0,0.0
7.594,7642.419,0.00013,0.0,0.0
7.6,8862.299,0.00011,0.0,0.0
7.607,10556.107,0.00009,0.0,0.0
7.613,14274.395,0.00007,0.0,0.0
7.619,19530.062,0.00005,0.0,0.0
7.626,29435.653,0.00003,0.0,0.0
7.632,38715.939,0.00003,0.0,0.0
7.638,46648.404,0.00002,0.0,0.0
7.645,52281.232,0.00002,0.0,0.0
7.651,48112.086,0.00002,0.0,0.0
7.657,43867.025,0.00002,0.0,0.0
7.664,30319.531,0.00003,0.0,0.0
7.67,23068.322,0.00004,0.0,0.0
7.676,14847.489,0.00007,0.0,0.0
7.682,11628.863,0.00009,0.0,0.0
7.689,9214.3,0.00011,0.0,0.0
7.695,8086.401,0.00012,0.0,0.0
7.701,7382.341,0.00014,0.0,0.0
7.708,6938.68,0.00014,0.0,0.0
7.714,6731.815,0.00015,0.0,0.0
7.72,6567.493,0.00015,0.0,0.0
7.727,6503.629,0.00015,0.0,0.0
7.733,6420.266,0.00016,0.0,0.0
7.739,6366.942,0.00016,0.0,0.0
7.746,6370.831,0.00016,0.0,0.0
7.752,6367.812,0.00016,0.0,0.0
7.758,6331.764,0.00016,0.0,0.0
7.765,6381.797,0.00016,0.0,0.0
7.771,6381.195,0.00016,0.0,0.0
7.777,6382.904,0.00016,0.0,0.0
7.784,6403.904,0.00016,0.0,0.0
7.79,6405.745,0.00016,0.0,0.0
7.796,6439.543,0.00016,0.0,0.0
7.803,6464.414,0.00015,0.0,0.0
7.809,6475.169,0.00015,0.0,0.0
7.815,6528.949,0.00015,0.0,0.0
7.822,6549.749,0.00015,0.0,0.0
7.828,6619.233,0.00015,0.0,0.0
7.834,6634.758,0.00015,0.0,0.0
7.84,6678.679,0.00015,0.0,0.0
7.847,6785.038,0.00015,0.0,0.0
7.853,6861.821,0.00015,0.0,0.0
7.859,6972.23,0.00014,0.0,0.0
7.866,7125.59,0.00014,0.0,0.0
7.872,7515.21,0.00013,0.0,0.0
7.878,7938.466,0.00013,0.0,0.0
7.885,9185.604,0.00011,0.0,0.0
7.891,10295.479,0.0001,0.0,0.0
7.897,13260.255,0.00008,0.0,0.0
7.904,15433.071,0.00006,0.0,0.0
7.91,16551.901,0.00006,0.0,0.0
7.916,16928.947,0.00006,0.0,0.0
7.923,14156.947,0.00007,0.0,0.0
7.929,11523.726,0.00009,0.0,0.0
7.935,9319.397,0.00011,0.0,0.0
7.942,8567.45,0.00012,0.0,0.0
7.948,7752.195,0.00013,0.0,0.0
7.954,7386.698,0.00014,0.0,0.0
7.961,7210.005,0.00014,0.0,0.0
7.967,7049.204,0.00014,0.0,0.0
7.973,6915.282,0.00014,0.0,0.0
7.98,6930.073,0.00014,0.0,0.0
7.986,6809.455,0.00015,0.0,0.0
7.992,6804.426,0.00015,0.0,0.0
7.998,6812.801,0.00015,0.0,0.0
8.005,6740.913,0.00015,0.0,0.0
8.011,6696.191,0.00015,0.0,0.0
8.017,6721.195,0.00015,0.0,0.0
8.024,6699.242,0.00015,0.0,0.0
8.03,6695.529,0.00015,0.0,0.0
8.036,6698.023,0.00015,0.0,0.0
8.043,6666.412,0.00015,0.0,0.0
8.049,6637.552,0.00015,0.0,0.0
8.055,6616.389,0.00015,0.0,0.0
8.062,6624.17,0.00015,0.0,0.0
8.068,6636.961,0.00015,0.0,0.0
8.074,6631.48,0.00015,0.0,0.0
8.081,6636.834,0.00015,0.0,0.0
8.087,6637.797,0.00015,0.0,0.0
8.093,6625.362,0.00015,0.0,0.0
8.1,6632.061,0.00015,0.0,0.0
8.106,6634.1,0.00015,0.0,0.0
8.112,6662.906,0.00015,0.0,0.0
8.119,6699.954,0.00015,0.0,0.0
8.125,6740.446,0.00015,0.0,0.0
8.131,6803.926,0.00015,0.0,0.0
8.138,6843.173,0.00015,0.0,0.0
8.144,6883.081,0.00015,0.0,0.0
8.15,6909.461,0.00014,0.0,0.0
8.156,6855.486,0.00015,0.0,0.0
8.163,6799.741,0.00015,0.0,0.0
8.169,6728.91,0.00015,0.0,0.0
8.175,6666.183,0.00015,0.0,0.0
8.182,6625.971,0.00015,0.0,0.0
8.188,6566.863,0.00015,0.0,0.0
8.194,6557.372,0.00015,0.0,0.0
8.201,6533.299,0.00015,0.0,0.0
8.207,6501.442,0.00015,0.0,0.0
8.213,6510.385,0.00015,0.0,0.0
8.22,6476.321,0.00015,0.0,0.0
8.226,6478.407,0.00015,0.0,0.0
8.232,6463.369,0.00015,0.0,0.0
8.239,6457.397,0.00015,0.0,0.0
8.245,6447.15,0.00016,0.0,0.0
8.251,6440.628,0.00016,0.0,0.0
8.258,6450.472,0.00016,0.0,0.0
8.264,6409.776,0.00016,0.0,0.0
8.27,6419.096,0.00016,0.0,0.0
8.277,6411.964,0.00016,0.0,0.0
8.283,6400.735,0.00016,0.0,0.0
8.289,6391.438,0.00016,0.0,0.0
8.296,6367.965,0.00016,0.0,0.0
8.302,6372.07,0.00016,0.0,0.0
8.308,6376.076,0.00016,0.0,0.0
8.314,6372.064,0.00016,0.0,0.0
8.321,6366.475,0.00016,0.0,0.0
8.327,6370.965,0.00016,0.0,0.0
8.333,6379.035,0.00016,0.0,0.0
8.34,6397.708,0.00016,0.0,0.0
8.346,6411.194,0.00016,0.0,0.0
8.352,6425.475,0.00016,0.0,0.0
8.359,6482.846,0.00015,0.0,0.0
8.365,6526.951,0.00015,0.0,0.0
8.371,6554.692,0.00015,0.0,0.0
8.378,6572.189,0.00015,0.0,0.0
8.384,6567.691,0.00015,0.0,0.0
8.39,6551.954,0.00015,0.0,0.0
8.397,6502.631,0.00015,0.0,0.0
8.403,6432.663,0.00016,0.0,0.0
8.409,6400.317,0.00016,0.0,0.0
8.416,6344.261,0.00016,0.0,0.0
8.422,6311.353,0.00016,0.0,0.0
8.428,6278.807,0.00016,0.0,0.0
8.435,6261.533,0.00016,0.0,0.0
8.441,6256.468,0.00016,0.0,0.0
8.447,6257.085,0.00016,0.0,0.0
8.454,6230.2,0.00016,0.0,0.0
8.46,6225.719,0.00016,0.0,0.0
8.466,6230.819,0.00016,0.0,0.0
8.472,6232.009,0.00016,0.0,0.0
8.479,6226.883,0.00016,0.0,0.0
8.485,6224.922,0.00016,0.0,0.0
8.491,6220.784,0.00016,0.0,0.0
8.498,6226.67,0.00016,0.0,0.0
8.504,6227.209,0.00016,0.0,0.0
8.51,6220.369,0.00016,0.0,0.0
8.517,6214.935,0.00016,0.0,0.0
8.523,6207.829,0.00016,0.0,0.0
8.529,6200.269,0.00016,0.0,0.0
8.536,6192.549,0.00016,0.0,0.0
8.542,6182.046,0.00016,0.0,0.0
8.548,6164.457,0.00016,0.0,0.0
8.555,6185.196,0.00016,0.0,0.0
8.561,6159.609,0.00016,0.0,0.0
8.567,6171.169,0.00016,0.0,0.0
8.574,6143.882,0.00016,0.0,0.0
8.58,6156.884,0.00016,0.0,0.0
8.586,6146.099,0.00016,0.0,0.0
8.593,6143.145,0.00016,0.0,0.0
8.599,6137.32,0.00016,0.0,0.0
8.605,6137.904,0.00016,0.0,0.0
8.612,6139.694,0.00016,0.0,0.0
8.618,6127.444,0.00016,0.0,0.0
8.624,6127.601,0.00016,0.0,0.0
8.63,6146.902,0.00016,0.0,0.0
8.637,6126.363,0.00016,0.0,0.0
8.643,6127.417,0.00016,0.0,0.0
8.649,6131.693,0.00016,0.0,0.0
8.656,6122.919,0.00016,0.0,0.0
8.662,6127.63,0.00016,0.0,0.0
8.668,6142.81,0.00016,0.0,0.0
8.675,6120.798,0.00016,0.0,0.0
8.681,6135.462,0.00016,0.0,0.0
8.687,6118.429,0.00016,0.0,0.0
8.694,6119.548,0.00016,0.0,0.0
8.7,6104.529,0.00016,0.0,0.0
8.706,6119.459,0.00016,0.0,0.0
8.713,6116.07,0.00016,0.0,0.0
8.719,6139.822,0.00016,0.0,0.0
8.725,6110.966,0.00016,0.0,0.0
8.732,6119.191,0.00016,0.0,0.0
8.738,6120.469,0.00016,0.0,0.0
8.744,6128.673,0.00016,0.0,0.0
8.751,6128.297,0.00016,0.0,0.0
8.757,6117.58,0.00016,0.0,0.0
8.763,6120.648,0.00016,0.0,0.0
8.77,6125.687,0.00016,0.0,0.0
8.776,6140.493,0.00016,0.0,0.0
8.782,6116.441,0.00016,0.0,0.0
8.788,6121.177,0.00016,0.0,0.0
8.795,6113.735,0.00016,0.0,0.0
8.801,6124.167,0.00016,0.0,0.0
8.807,6122.269,0.00016,0.0,0.0
8.814,6113.392,0.00016,0.0,0.0
8.82,6142.92,0.00016,0.0,0.0
8.826,6121.803,0.00016,0.0,0.0
8.833,6120.134,0.00016,0.0,0.0
8.839,6137.602,0.00016,0.0,0.0
8.845,6124.462,0.00016,0.0,0.0
8.852,6129.118,0.00016,0.0,0.0
8.858,6150.705,0.00016,0.0,0.0
8.864,6131.982,0.00016,0.0,0.0
8.871,6146.663,0.00016,0.0,0.0
8.877,6142.586,0.00016,0.0,0.0
8.883,6148.216,0.00016,0.0,0.0
8.89,6163.637,0.00016,0.0,0.0
8.896,6154.319,0.00016,0.0,0.0
8.902,6146.75,0.00016,0.0,0.0
8.909,6176.984,0.00016,0.0,0.0
8.915,6169.43,0.00016,0.0,0.0
8.921,6174.748,0.00016,0.0,0.0
8.928,6168.506,0.00016,0.0,0.0
8.934,6161.392,0.00016,0.0,0.0
8.94,6211.231,0.00016,0.0,0.0
8.946,6187.112,0.00016,0.0,0.0
8.953,6207.145,0.00016,0.0,0.0
8.959,6207.174,0.00016,0.0,0.0
8.965,6181.279,0.00016,0.0,0.0
8.972,6214.686,0.00016,0.0,0.0
8.978,6232.127,0.00016,0.0,0.0
8.984,6220.634,0.00016,0.0,0.0
8.991,6253.514,0.00016,0.0,0.0
8.997,6235.773,0.00016,0.0,0.0
9.003,6248.78,0.00016,0.0,0.0
9.01,6260.274,0.00016,0.0,0.0
9.016,6240.513,0.00016,0.0,0.0
9.022,6298.707,0.00016,0.0,0.0
9.029,6262.841,0.00016,0.0,0.0
9.035,6293.397,0.00016,0.0,0.0
9.041,6299.77,0.00016,0.0,0.0
9.048,6303.794,0.00016,0.0,0.0
9.054,6348.99,0.00016,0.0,0.0
9.06,6351.485,0.00016,0.0,0.0
9.067,6336.243,0.00016,0.0,0.0
9.073,6435.648,0.00016,0.0,0.0
9.079,6392.761,0.00016,0.0,0.0
9.086,6436.824,0.00016,0.0,0.0
9.092,6524.859,0.00015,0.0,0.0
9.098,6537.854,0.00015,0.0,0.0
9.104,6822.592,0.00015,0.0,0.0
9.111,6957.507,0.00014,0.0,0.0
9.117,7855.483,0.00013,0.0,0.0
9.123,7990.847,0.00013,0.0,0.0
9.13,9672.184,0.0001,0.0,0.0
9.136,9904.385,0.0001,0.0,0.0
9.142,10934.195,0.00009,0.0,0.0
9.149,12995.05,0.00008,0.0,0.0
9.155,9048.168,0.00011,0.0,0.0
9.161,7649.317,0.00013,0.0,0.0
9.168,9481.18,0.00011,0.0,0.0
9.174,6760.937,0.00015,0.0,0.0
9.18,6777.237,0.00015,0.0,0.0
9.187,6715.321,0.00015,0.0,0.0
9.193,6415.717,0.00016,0.0,0.0
9.199,6452.588,0.00015,0.0,0.0
9.206,6383.726,0.00016,0.0,0.0
9.212,6316.612,0.00016,0.0,0.0
9.218,6351.669,0.00016,0.0,0.0
9.225,6266.768,0.00016,0.0,0.0
9.231,6250.207,0.00016,0.0,0.0
9.237,6270.248,0.00016,0.0,0.0
9.244,6222.912,0.00016,0.0,0.0
9.25,6196.969,0.00016,0.0,0.0
9.256,6209.451,0.00016,0.0,0.0
9.262,6144.905,0.00016,0.0,0.0
9.269,6191.729,0.00016,0.0,0.0
9.275,6128.997,0.00016,0.0,0.0
9.281,6117.975,0.00016,0.0,0.0
9.288,6111.643,0.00016,0.0,0.0
9.294,6090.053,0.00016,0.0,0.0
9.3,6098.185,0.00016,0.0,0.0
9.307,6079.726,0.00016,0.0,0.0
9.313,6047.825,0.00017,0.0,0.0
9.319,6057.571,0.00017,0.0,0.0
9.326,6015.229,0.00017,0.0,0.0
9.332,5993.916,0.00017,0.0,0.0
9.338,6025.214,0.00017,0.0,0.0
9.345,5975.147,0.00017,0.0,0.0
9.351,5983.821,0.00017,0.0,0.0
9.357,5950.86,0.00017,0.0,0.0
9.364,5941.263,0.00017,0.0,0.0
9.37,5931.695,0.00017,0.0,0.0
9.376,5904.52,0.00017,0.0,0.0
9.383,5892.498,0.00017,0.0,0.0
9.389,5876.945,0.00017,0.0,0.0
9.395,5869.832,0.00017,0.0,0.0
9.402,5863.594,0.00017,0.0,0.0
9.408,5871.077,0.00017,0.0,0.0
9.414,5850.83,0.00017,0.0,0.0
9.42,5840.755,0.00017,0.0,0.0
9.427,5815.345,0.00017,0.0,0.0
9.433,5835.047,0.00017,0.0,0.0
9.439,5815.464,0.00017,0.0,0.0
9.446,5795.011,0.00017,0.0,0.0
9.452,5787.928,0.00017,0.0,0.0
9.458,5802.196,0.00017,0.0,0.0
9.465,5791.402,0.00017,0.0,0.0
9.471,5805.244,0.00017,0.0,0.0
9.477,5804.934,0.00017,0.0,0.0
9.484,5831.573,0.00017,0.0,0.0
9.49,5813.641,0.00017,0.0,0.0
9.496,5813.996,0.00017,0.0,0.0
9.503,5819.95,0.00017,0.0,0.0
9.509,5770.212,0.00017,0.0,0.0
9.515,5762.657,0.00017,0.0,0.0
9.522,5743.836,0.00017,0.0,0.0
9.528,5712.655,0.00018,0.0,0.0
9.534,5681.987,0.00018,0.0,0.0
9.541,5667.007,0.00018,0.0,0.0
9.547,5654.417,0.00018,0.0,0.0
9.553,5634.519,0.00018,0.0,0.0
9.56,5620.398,0.00018,0.0,0.0
9.566,5622.517,0.00018,0.0,0.0
9.572,5615.965,0.00018,0.0,0.0
9.578,5605.904,0.00018,0.0,0.0
9.585,5602.484,0.00018,0.0,0.0
9.591,5582.767,0.00018,0.0,0.0
9.597,5569.872,0.00018,0.0,0.0
9.604,5579.035,0.00018,0.0,0.0
9.61,5574.238,0.00018,0.0,0.0
9.616,5572.463,0.00018,0.0,0.0
9.623,5564.255,0.00018,0.0,0.0
9.629,5561.507,0.00018,0.0,0.0
9.635,5556.315,0.00018,0.0,0.0
9.642,5540.388,0.00018,0.0,0.0
9.648,5528.132,0.00018,0.0,0.0
9.654,5547.732,0.00018,0.0,0.0
9.661,5523.222,0.00018,0.0,0.0
9.667,5519.314,0.00018,0.0,0.0
9.673,5510.532,0.00018,0.0,0.0
9.68,5505.696,0.00018,0.0,0.0
9.686,5520.654,0.00018,0.0,0.0
9.692,5501.787,0.00018,0.0,0.0
9.699,5525.583,0.00018,0.0,0.0
9.705,5526.62,0.00018,0.0,0.0
9.711,5505.676,0.00018,0.0,0.0
9.718,5515.437,0.00018,0.0,0.0
9.724,5496.899,0.00018,0.0,0.0
9.73,5498.349,0.00018,0.0,0.0
9.736,5506.528,0.00018,0.0,0.0
9.743,5493.505,0.00018,0.0,0.0
9.749,5490.073,0.00018,0.0,0.0
9.755,5489.109,0.00018,0.0,0.0
9.762,5481.933,0.00018,0.0,0.0
9.768,5501.955,0.00018,0.0,0.0
9.774,5486.6,0.00018,0.0,0.0
9.781,5488.804,0.00018,0.0,0.0
9.787,5508.242,0.00018,0.0,0.0
9.793,5479.649,0.00018,0.0,0.0
9.8,5497.423,0.00018,0.0,0.0
9.806,5488.779,0.00018,0.0,0.0
9.812,5467.366,0.00018,0.0,0.0
9.819,5495.555,0.00018,0.0,0.0
9.825,5464.307,0.00018,0.0,0.0
9.831,5482.087,0.00018,0.0,0.0
9.838,5479.96,0.00018,0.0,0.0
9.844,5460.248,0.00018,0.0,0.0
9.85,5471.926,0.00018,0.0,0.0
9.857,5484.168,0.00018,0.0,0.0
9.863,5441.694,0.00018,0.0,0.0
9.869,5480.756,0.00018,0.0,0.0
9.876,5465.692,0.00018,0.0,0.0
9.882,5480.762,0.00018,0.0,0.0
9.888,5468.451,0.00018,0.0,0.0
9.894,5456.224,0.00018,0.0,0.0
9.901,5468.27,0.00018,0.0,0.0
9.907,5466.151,0.00018,0.0,0.0
9.913,5464.414,0.00018,0.0,0.0
9.92,5472.318,0.00018,0.0,0.0
9.926,5461.701,0.00018,0.0,0.0
9.932,5500.015,0.00018,0.0,0.0
9.939,5445.291,0.00018,0.0,0.0
9.945,5469.152,0.00018,0.0,0.0
9.951,5488.922,0.00018,0.0,0.0
9.958,5464.738,0.00018,0.0,0.0
9.964,5470.685,0.00018,0.0,0.0
9.97,5469.752,0.00018,0.0,0.0
9.977,5476.676,0.00018,0.0,0.0
9.983,5509.289,0.00018,0.0,0.0
9.989,5497.297,0.00018,0.0,0.0
9.996,5490.087,0.00018,0.0,0.0
10.002,5498.799,0.00018,0.0,0.0
10.008,5469.059,0.00018,0.0,0.0
10.015,5525.012,0.00018,0.0,0.0
10.021,5514.26,0.00018,0.0,0.0
10.027,5527.193,0.00018,0.0,0.0
10.034,5540.221,0.00018,0.0,0.0
10.04,5536.59,0.00018,0.0,0.0
10.046,5547.933,0.00018,0.0,0.0
10.052,5537.902,0.00018,0.0,0.0
10.059,5541.268,0.00018,0.0,0.0
10.065,5571.372,0.00018,0.0,0.0
10.071,5573.742,0.00018,0.0,0.0
10.078,5572.161,0.00018,0.0,0.0
10.084,5619.297,0.00018,0.0,0.0
10.09,5571.182,0.00018,0.0,0.0
10.097,5648.26,0.00018,0.0,0.0
10.103,5578.208,0.00018,0.0,0.0
10.109,5644.003,0.00018,0.0,0.0
10.116,5674.806,0.00018,0.0,0.0
10.122,5668.768,0.00018,0.0,0.0
10.128,5744.223,0.00017,0.0,0.0
10.135,5697.944,0.00018,0.0,0.0
10.141,5752.106,0.00017,0.0,0.0
10.147,5783.771,0.00017,0.0,0.0
10.154,5811.79,0.00017,0.0,0.0
10.16,5927.51,0.00017,0.0,0.0
10.166,6216.344,0.00016,0.0,0.0
10.173,6365.978,0.00016,0.0,0.0
10.179,7100.622,0.00014,0.0,0.0
10.185,8777.574,0.00011,0.0,0.0
10.192,9275.724,0.00011,0.0,0.0
10.198,10288.518,0.0001,0.0,0.0
10.204,14363.412,0.00007,0.0,0.0
10.21,15098.403,0.00007,0.0,0.0
10.217,20474.857,0.00005,0.0,0.0
10.223,15939.047,0.00006,0.0,0.0
10.229,12832.873,0.00008,0.0,0.0
10.236,16417.504,0.00006,0.0,0.0
10.242,9102.413,0.00011,0.0,0.0
10.248,9265.58,0.00011,0.0,0.0
10.255,7162.937,0.00014,0.0,0.0
10.261,6414.284,0.00016,0.0,0.0
10.267,6320.492,0.00016,0.0,0.0
10.274,5827.488,0.00017,0.0,0.0
10.28,5892.872,0.00017,0.0,0.0
10.286,5681.708,0.00018,0.0,0.0
10.293,5700.938,0.00018,0.0,0.0
10.299,5645.118,0.00018,0.0,0.0
10.305,5601.688,0.00018,0.0,0.0
10.312,5609.693,0.00018,0.0,0.0
10.318,5570.455,0.00018,0.0,0.0
10.324,5567.644,0.00018,0.0,0.0
10.331,5496.361,0.00018,0.0,0.0
10.337,5475.0,0.00018,0.0,0.0
10.343,5509.785,0.00018,0.0,0.0
10.35,5474.645,0.00018,0.0,0.0
10.356,5468.517,0.00018,0.0,0.0
10.362,5467.93,0.00018,0.0,0.0
10.368,5389.291,0.00019,0.0,0.0
10.375,5461.083,0.00018,0.0,0.0
10.381,5378.729,0.00019,0.0,0.0
10.387,5400.64,0.00019,0.0,0.0
10.394,5395.821,0.00019,0.0,0.0
10.4,5369.76,0.00019,0.0,0.0
10.406,5396.346,0.00019,0.0,0.0
10.413,5353.55,0.00019,0.0,0.0
10.419,5324.547,0.00019,0.0,0.0
10.425,5355.57,0.00019,0.0,0.0
10.432,5337.757,0.00019,0.0,0.0
10.438,5325.666,0.00019,0.0,0.0
10.444,5327.428,0.00019,0.0,0.0
10.451,5286.744,0.00019,0.0,0.0
10.457,5333.643,0.00019,0.0,0.0
10.463,5288.13,0.00019,0.0,0.0
10.47,5284.837,0.00019,0.0,0.0
10.476,5285.61,0.00019,0.0,0.0
10.482,5246.776,0.00019,0.0,0.0
10.489,5292.974,0.00019,0.0,0.0
10.495,5253.491,0.00019,0.0,0.0
10.501,5252.971,0.00019,0.0,0.0
10.508,5270.474,0.00019,0.0,0.0
10.514,5249.898,0.00019,0.0,0.0
10.52,5254.381,0.00019,0.0,0.0
10.526,5226.252,0.00019,0.0,0.0
10.533,5210.742,0.00019,0.0,0.0
10.539,5252.024,0.00019,0.0,0.0
10.545,5223.415,0.00019,0.0,0.0
10.552,5217.209,0.00019,0.0,0.0
10.558,5221.301,0.00019,0.0,0.0
10.564,5195.453,0.00019,0.0,0.0
10.571,5230.257,0.00019,0.0,0.0
10.577,5204.359,0.00019,0.0,0.0
10.583,5201.899,0.00019,0.0,0.0
10.59,5209.758,0.00019,0.0,0.0
10.596,5190.685,0.00019,0.0,0.0
10.602,5202.484,0.00019,0.0,0.0
10.609,5200.18,0.00019,0.0,0.0
10.615,5183.602,0.00019,0.0,0.0
10.621,5207.306,0.00019,0.0,0.0
10.628,5179.38,0.00019,0.0,0.0
10.634,5195.222,0.00019,0.0,0.0
10.64,5195.549,0.00019,0.0,0.0
10.647,5195.724,0.00019,0.0,0.0
10.653,5203.871,0.00019,0.0,0.0
10.659,5186.788,0.00019,0.0,0.0
10.666,5204.576,0.00019,0.0,0.0
10.672,5204.033,0.00019,0.0,0.0
10.678,5195.533,0.00019,0.0,0.0
10.684,5219.246,0.00019,0.0,0.0
10.691,5207.106,0.00019,0.0,0.0
10.697,5217.236,0.00019,0.0,0.0
10.703,5233.211,0.00019,0.0,0.0
10.71,5237.274,0.00019,0.0,0.0
10.716,5250.338,0.00019,0.0,0.0
10.722,5264.932,0.00019,0.0,0.0
10.729,5281.274,0.00019,0.0,0.0
10.735,5325.999,0.00019,0.0,0.0
10.741,5356.166,0.00019,0.0,0.0
10.748,5432.4,0.00018,0.0,0.0
10.754,5508.375,0.00018,0.0,0.0
10.76,5636.547,0.00018,0.0,0.0
10.767,5876.351,0.00017,0.0,0.0
10.773,6191.39,0.00016,0.0,0.0
10.779,6975.369,0.00014,0.0,0.0
10.786,8206.969,0.00012,0.0,0.0
10.792,10328.334,0.0001,0.0,0.0
10.798,15338.403,0.00007,0.0,0.0
10.805,17665.621,0.00006,0.0,0.0
10.811,27025.003,0.00004,0.0,0.0
10.817,31491.808,0.00003,0.0,0.0
10.824,32009.953,0.00003,0.0,0.0
10.83,31729.776,0.00003,0.0,0.0
10.836,25784.265,0.00004,0.0,0.0
10.842,18483.575,0.00005,0.0,0.0
10.849,13923.154,0.00007,0.0,0.0
10.855,9708.925,0.0001,0.0,0.0
10.861,7980.127,0.00013,0.0,0.0
10.868,6822.939,0.00015,0.0,0.0
10.874,6115.894,0.00016,0.0,0.0
10.88,5816.127,0.00017,0.0,0.0
10.887,5585.561,0.00018,0.0,0.0
10.893,5432.05,0.00018,0.0,0.0
10.899,5355.612,0.00019,0.0,0.0
10.906,5286.245,0.00019,0.0,0.0
10.912,5261.91,0.00019,0.0,0.0
10.918,5212.672,0.00019,0.0,0.0
10.925,5197.912,0.00019,0.0,0.0
10.931,5197.119,0.00019,0.0,0.0
10.937,5177.68,0.00019,0.0,0.0
10.944,5172.947,0.00019,0.0,0.0
10.95,5161.968,0.00019,0.0,0.0
10.956,5145.786,0.00019,0.0,0.0
10.963,5140.337,0.00019,0.0,0.0
10.969,5111.142,0.0002,0.0,0.0
10.975,5096.487,0.0002,0.0,0.0
10.982,5087.143,0.0002,0.0,0.0
10.988,5064.459,0.0002,0.0,0.0
10.994,5051.988,0.0002,0.0,0.0
11.0,5046.036,0.0002,0.0,0.0
11.007,5025.75,0.0002,0.0,0.0
11.013,5013.626,0.0002,0.0,0.0
11.019,4997.95,0.0002,0.0,0.0
11.026,5000.458,0.0002,0.0,0.0
11.032,5000.42,0.0002,0.0,0.0
11.038,4980.862,0.0002,0.0,0.0
11.045,4971.988,0.0002,0.0,0.0
11.051,4959.333,0.0002,0.0,0.0
11.057,4970.046,0.0002,0.0,0.0
11.064,4965.882,0.0002,0.0,0.0
11.07,4960.51,0.0002,0.0,0.0
11.076,4947.006,0.0002,0.0,0.0
11.083,4937.172,0.0002,0.0,0.0
11.089,4936.704,0.0002,0.0,0.0
11.095,4926.687,0.0002,0.0,0.0
11.102,4925.992,0.0002,0.0,0.0
11.108,4929.054,0.0002,0.0,0.0
11.114,4920.972,0.0002,0.0,0.0
11.121,4924.956,0.0002,0.0,0.0
11.127,4907.468,0.0002,0.0,0.0
11.133,4917.615,0.0002,0.0,0.0
11.14,4900.76,0.0002,0.0,0.0
11.146,4909.916,0.0002,0.0,0.0
11.152,4900.414,0.0002,0.0,0.0
11.158,4889.658,0.0002,0.0,0.0
11.165,4902.366,0.0002,0.0,0.0
11.171,4900.05,0.0002,0.0,0.0
11.177,4900.892,0.0002,0.0,0.0
11.184,4913.194,0.0002,0.0,0.0
11.19,4902.5,0.0002,0.0,0.0
11.196,4933.434,0.0002,0.0,0.0
11.203,4920.31,0.0002,0.0,0.0
11.209,4948.869,0.0002,0.0,0.0
11.215,4893.606,0.0002,0.0,0.0
11.222,4988.151,0.0002,0.0,0.0
11.228,4886.534,0.0002,0.0,0.0
11.234,4897.684,0.0002,0.0,0.0
11.241,4864.7,0.00021,0.0,0.0
11.247,4869.307,0.00021,0.0,0.0
11.253,4845.273,0.00021,0.0,0.0
11.26,4862.248,0.00021,0.0,0.0
11.266,4836.861,0.00021,0.0,0.0
11.272,4838.795,0.00021,0.0,0.0
11.279,4843.781,0.00021,0.0,0.0
11.285,4837.069,0.00021,0.0,0.0
11.291,4837.138,0.00021,0.0,0.0
11.298,4831.66,0.00021,0.0,0.0
11.304,4830.121,0.00021,0.0,0.0
11.31,4823.504,0.00021,0.0,0.0
11.316,4812.955,0.00021,0.0,0.0
11.323,4826.065,0.00021,0.0,0.0
11.329,4809.712,0.00021,0.0,0.0
11.335,4827.175,0.00021,0.0,0.0
11.342,4807.632,0.00021,0.0,0.0
11.348,4811.829,0.00021,0.0,0.0
11.354,4813.117,0.00021,0.0,0.0
11.361,4801.98,0.00021,0.0,0.0
11.367,4807.662,0.00021,0.0,0.0
11.373,4810.541,0.00021,0.0,0.0
11.38,4788.879,0.00021,0.0,0.0
11.386,4807.109,0.00021,0.0,0.0
11.392,4781.607,0.00021,0.0,0.0
11.399,4787.732,0.00021,0.0,0.0
11.405,4784.505,0.00021,0.0,0.0
11.411,4793.621,0.00021,0.0,0.0
11.418,4781.404,0.00021,0.0,0.0
11.424,4793.232,0.00021,0.0,0.0
11.43,4797.971,0.00021,0.0,0.0
11.437,4778.048,0.00021,0.0,0.0
11.443,4794.507,0.00021,0.0,0.0
11.449,4775.923,0.00021,0.0,0.0
11.456,4786.509,0.00021,0.0,0.0
11.462,4771.311,0.00021,0.0,0.0
11.468,4781.309,0.00021,0.0,0.0
11.474,4772.702,0.00021,0.0,0.0
11.481,4776.859,0.00021,0.0,0.0
11.487,4789.226,0.00021,0.0,0.0
11.493,4801.497,0.00021,0.0,0.0
11.5,4797.575,0.00021,0.0,0.0
11.506,4809.672,0.00021,0.0,0.0
11.512,4836.509,0.00021,0.0,0.0
11.519,4827.631,0.00021,0.0,0.0
11.525,4845.667,0.00021,0.0,0.0
11.531,4835.68,0.00021,0.0,0.0
11.538,4858.434,0.00021,0.0,0.0
11.544,4836.298,0.00021,0.0,0.0
11.55,4827.924,0.00021,0.0,0.0
11.557,4817.553,0.00021,0.0,0.0
11.563,4803.105,0.00021,0.0,0.0
11.569,4781.811,0.00021,0.0,0.0
11.576,4784.11,0.00021,0.0,0.0
11.582,4778.784,0.00021,0.0,0.0
11.588,4784.056,0.00021,0.0,0.0
11.595,4766.127,0.00021,0.0,0.0
11.601,4779.057,0.00021,0.0,0.0
11.607,4754.145,0.00021,0.0,0.0
11.614,4759.873,0.00021,0.0,0.0
11.62,4765.688,0.00021,0.0,0.0
11.626,4768.241,0.00021,0.0,0.0
11.632,4761.411,0.00021,0.0,0.0
11.639,4762.288,0.00021,0.0,0.0
11.645,4757.664,0.00021,0.0,0.0
11.651,4763.29,0.00021,0.0,0.0
11.658,4750.256,0.00021,0.0,0.0
11.664,4757.136,0.00021,0.0,0.0
11.67,4761.492,0.00021,0.0,0.0
11.677,4751.178,0.00021,0.0,0.0
11.683,4760.651,0.00021,0.0,0.0
11.689,4748.928,0.00021,0.0,0.0
11.696,4755.857,0.00021,0.0,0.0
11.702,4750.631,0.00021,0.0,0.0
11.708,4750.174,0.00021,0.0,0.0
11.715,4747.225,0.00021,0.0,0.0
11.721,4743.572,0.00021,0.0,0.0
11.727,4747.079,0.00021,0.0,0.0
11.734,4753.546,0.00021,0.0,0.0
11.74,4747.931,0.00021,0.0,0.0
11.746,4727.07,0.00021,0.0,0.0
11.753,4763.972,0.00021,0.0,0.0
11.759,4746.846,0.00021,0.0,0.0
11.765,4751.565,0.00021,0.0,0.0
11.772,4738.273,0.00021,0.0,0.0
11.778,4749.716,0.00021,0.0,0.0
11.784,4753.91,0.00021,0.0,0.0
11.79,4748.289,0.00021,0.0,0.0
11.797,4749.78,0.00021,0.0,0.0
11.803,4732.175,0.00021,0.0,0.0
11.809,4743.429,0.00021,0.0,0.0
11.816,4735.561,0.00021,0.0,0.0
11.822,4731.157,0.00021,0.0,0.0
11.828,4742.465,0.00021,0.0,0.0
11.835,4727.053,0.00021,0.0,0.0
11.841,4736.449,0.00021,0.0,0.0
11.847,4716.601,0.00021,0.0,0.0
11.854,4716.892,0.00021,0.0,0.0
11.86,4726.468,0.00021,0.0,0.0
11.866,4728.373,0.00021,0.0,0.0
11.873,4729.656,0.00021,0.0,0.0
11.879,4729.282,0.00021,0.0,0.0
11.885,4720.853,0.00021,0.0,0.0
11.892,4722.916,0.00021,0.0,0.0
11.898,4733.061,0.00021,0.0,0.0
11.904,4726.83,0.00021,0.0,0.0
11.911,4741.537,0.00021,0.0,0.0
11.917,4728.142,0.00021,0.0,0.0
11.923,4734.056,0.00021,0.0,0.0
11.93,4727.864,0.00021,0.0,0.0
11.936,4737.143,0.00021,0.0,0.0
11.942,4719.728,0.00021,0.0,0.0
11.948,4741.075,0.00021,0.0,0.0
11.955,4728.39,0.00021,0.0,0.0
11.961,4733.59,0.00021,0.0,0.0
11.967,4741.943,0.00021,0.0,0.0
11.974,4729.344,0.00021,0.0,0.0
11.98,4731.149,0.00021,0.0,0.0
11.986,4743.461,0.00021,0.0,0.0
11.993,4733.406,0.00021,0.0,0.0
11.999,4748.986,0.00021,0.0,0.0
12.005,4740.94,0.00021,0.0,0.0
12.012,4749.542,0.00021,0.0,0.0
12.018,4765.57,0.00021,0.0,0.0
12.024,4752.944,0.00021,0.0,0.0
12.031,4770.648,0.00021,0.0,0.0
12.037,4833.862,0.00021,0.0,0.0
12.043,4792.559,0.00021,0.0,0.0
12.05,4995.976,0.0002,0.0,0.0
12.056,4871.649,0.00021,0.0,0.0
12.062,4906.299,0.0002,0.0,0.0
12.069,5794.098,0.00017,0.0,0.0
12.075,5202.124,0.00019,0.0,0.0
12.081,8628.015,0.00012,0.0,0.0
12.088,6231.355,0.00016,0.0,0.0
12.094,7045.11,0.00014,0.0,0.0
12.1,10757.11,0.00009,0.0,0.0
12.106,6654.512,0.00015,0.0,0.0
12.113,7793.284,0.00013,0.0,0.0
12.119,5599.137,0.00018,0.0,0.0
12.125,5370.964,0.00019,0.0,0.0
12.132,5316.413,0.00019,0.0,0.0
12.138,4947.101,0.0002,0.0,0.0
12.144,4863.711,0.00021,0.0,0.0
12.151,4849.349,0.00021,0.0,0.0
12.157,4764.394,0.00021,0.0,0.0
12.163,4770.955,0.00021,0.0,0.0
12.17,4725.904,0.00021,0.0,0.0
12.176,4706.29,0.00021,0.0,0.0
12.182,4717.058,0.00021,0.0,0.0
12.189,4702.094,0.00021,0.0,0.0
12.195,4685.983,0.00021,0.0,0.0
12.201,4666.755,0.00021,0.0,0.0
12.208,4645.913,0.00022,0.0,0.0
12.214,4650.46,0.00022,0.0,0.0
12.22,4642.371,0.00022,0.0,0.0
12.227,4625.884,0.00022,0.0,0.0
12.233,4632.87,0.00022,0.0,0.0
12.239,4627.432,0.00022,0.0,0.0
12.246,4618.276,0.00022,0.0,0.0
12.252,4617.998,0.00022,0.0,0.0
12.258,4599.467,0.00022,0.0,0.0
12.264,4617.894,0.00022,0.0,0.0
12.271,4589.135,0.00022,0.0,0.0
12.277,4590.03,0.00022,0.0,0.0
12.283,4592.375,0.00022,0.0,0.0
12.29,4581.714,0.00022,0.0,0.0
12.296,4583.605,0.00022,0.0,0.0
12.302,4582.001,0.00022,0.0,0.0
12.309,4564.479,0.00022,0.0,0.0
12.315,4564.542,0.00022,0.0,0.0
12.321,4562.437,0.00022,0.0,0.0
12.328,4557.459,0.00022,0.0,0.0
12.334,4561.264,0.00022,0.0,0.0
12.34,4556.527,0.00022,0.0,0.0
12.347,4553.761,0.00022,0.0,0.0
12.353,4534.441,0.00022,0.0,0.0
12.359,4534.576,0.00022,0.0,0.0
12.366,4539.776,0.00022,0.0,0.0
12.372,4534.746,0.00022,0.0,0.0
12.378,4536.386,0.00022,0.0,0.0
12.385,4540.433,0.00022,0.0,0.0
12.391,4536.155,0.00022,0.0,0.0
12.397,4536.597,0.00022,0.0,0.0
12.404,4527.054,0.00022,0.0,0.0
12.41,4514.637,0.00022,0.0,0.0
12.416,4522.163,0.00022,0.0,0.0
12.422,4522.985,0.00022,0.0,0.0
12.429,4519.682,0.00022,0.0,0.0
12.435,4524.0,0.00022,0.0,0.0
12.441,4518.122,0.00022,0.0,0.0
12.448,4525.767,0.00022,0.0,0.0
12.454,4509.379,0.00022,0.0,0.0
12.46,4507.741,0.00022,0.0,0.0
12.467,4500.06,0.00022,0.0,0.0
12.473,4514.145,0.00022,0.0,0.0
12.479,4516.426,0.00022,0.0,0.0
12.486,4508.361,0.00022,0.0,0.0
12.492,4525.665,0.00022,0.0,0.0
12.498,4538.054,0.00022,0.0,0.0
12.505,4526.359,0.00022,0.0,0.0
12.511,4543.432,0.00022,0.0,0.0
12.517,4543.184,0.00022,0.0,0.0
12.524,4539.986,0.00022,0.0,0.0
12.53,4551.463,0.00022,0.0,0.0
12.536,4549.895,0.00022,0.0,0.0
12.543,4548.48,0.00022,0.0,0.0
12.549,4547.81,0.00022,0.0,0.0
12.555,4544.056,0.00022,0.0,0.0
12.562,4531.119,0.00022,0.0,0.0
12.568,4544.394,0.00022,0.0,0.0
12.574,4545.304,0.00022,0.0,0.0
12.58,4566.077,0.00022,0.0,0.0
12.587,4565.206,0.00022,0.0,0.0
12.593,4577.456,0.00022,0.0,0.0
12.599,4603.03,0.00022,0.0,0.0
12.606,4634.361,0.00022,0.0,0.0
12.612,4674.96,0.00021,0.0,0.0
12.618,4722.784,0.00021,0.0,0.0
12.625,4809.502,0.00021,0.0,0.0
12.631,4943.25,0.0002,0.0,0.0
12.637,5116.974,0.0002,0.0,0.0
12.644,5415.551,0.00018,0.0,0.0
12.65,5924.466,0.00017,0.0,0.0
12.656,6776.327,0.00015,0.0,0.0
12.663,8400.946,0.00012,0.0,0.0
12.669,11058.931,0.00009,0.0,0.0
12.675,15781.15,0.00006,0.0,0.0
12.682,21472.542,0.00005,0.0,0.0
12.688,29197.053,0.00003,0.0,0.0
12.694,34392.695,0.00003,0.0,0.0
12.701,33771.652,0.00003,0.0,0.0
12.707,32917.698,0.00003,0.0,0.0
12.713,25776.949,0.00004,0.0,0.0
12.72,18354.624,0.00005,0.0,0.0
12.726,13245.1,0.00008,0.0,0.0
12.732,9263.97,0.00011,0.0,0.0
12.738,7227.0,0.00014,0.0,0.0
12.745,6247.356,0.00016,0.0,0.0
12.751,5535.03,0.00018,0.0,0.0
12.757,5167.921,0.00019,0.0,0.0
12.764,4923.788,0.0002,0.0,0.0
12.77,4771.921,0.00021,0.0,0.0
12.776,4692.492,0.00021,0.0,0.0
12.783,4629.323,0.00022,0.0,0.0
12.789,4570.507,0.00022,0.0,0.0
12.795,4533.836,0.00022,0.0,0.0
12.802,4507.064,0.00022,0.0,0.0
12.808,4484.908,0.00022,0.0,0.0
12.814,4478.409,0.00022,0.0,0.0
12.821,4455.7,0.00022,0.0,0.0
12.827,4450.434,0.00022,0.0,0.0
12.833,4434.436,0.00023,0.0,0.0
12.84,4422.552,0.00023,0.0,0.0
12.846,4414.869,0.00023,0.0,0.0
12.852,4405.277,0.00023,0.0,0.0
12.859,4406.27,0.00023,0.0,0.0
12.865,4393.776,0.00023,0.0,0.0
12.871,4392.4,0.00023,0.0,0.0
12.878,4382.264,0.00023,0.0,0.0
12.884,4380.464,0.00023,0.0,0.0
12.89,4367.132,0.00023,0.0,0.0
12.896,4371.551,0.00023,0.0,0.0
12.903,4385.376,0.00023,0.0,0.0
12.909,4418.347,0.00023,0.0,0.0
12.915,4452.003,0.00022,0.0,0.0
12.922,4464.03,0.00022,0.0,0.0
12.928,4607.081,0.00022,0.0,0.0
12.934,4740.045,0.00021,0.0,0.0
12.941,4647.567,0.00022,0.0,0.0
12.947,4800.346,0.00021,0.0,0.0
12.953,4596.881,0.00022,0.0,0.0
12.96,4575.465,0.00022,0.0,0.0
12.966,4507.543,0.00022,0.0,0.0
12.972,4421.797,0.00023,0.0,0.0
12.979,4395.662,0.00023,0.0,0.0
12.985,4366.658,0.00023,0.0,0.0
12.991,4348.062,0.00023,0.0,0.0
12.998,4324.661,0.00023,0.0,0.0
13.004,4305.717,0.00023,0.0,0.0
13.01,4292.294,0.00023,0.0,0.0
13.017,4296.968,0.00023,0.0,0.0
13.023,4285.018,0.00023,0.0,0.0
13.029,4280.639,0.00023,0.0,0.0
13.036,4269.723,0.00023,0.0,0.0
13.042,4264.606,0.00023,0.0,0.0
13.048,4258.94,0.00023,0.0,0.0
13.054,4267.272,0.00023,0.0,0.0
13.061,4259.947,0.00023,0.0,0.0
13.067,4264.319,0.00023,0.0,0.0
13.073,4263.576,0.00023,0.0,0.0
13.08,4256.351,0.00023,0.0,0.0
13.086,4258.066,0.00023,0.0,0.0
13.092,4254.445,0.00024,0.0,0.0
13.099,4254.143,0.00024,0.0,0.0
13.105,4244.869,0.00024,0.0,0.0
13.111,4243.31,0.00024,0.0,0.0
13.118,4233.646,0.00024,0.0,0.0
13.124,4236.043,0.00024,0.0,0.0
13.13,4250.797,0.00024,0.0,0.0
13.137,4228.713,0.00024,0.0,0.0
13.143,4230.376,0.00024,0.0,0.0
13.149,4223.74,0.00024,0.0,0.0
13.156,4234.47,0.00024,0.0,0.0
13.162,4244.086,0.00024,0.0,0.0
13.168,4231.494,0.00024,0.0,0.0
13.175,4244.531,0.00024,0.0,0.0
13.181,4255.519,0.00023,0.0,0.0
13.187,4270.811,0.00023,0.0,0.0
13.194,4284.965,0.00023,0.0,0.0
13.2,4307.715,0.00023,0.0,0.0
13.206,4358.278,0.00023,0.0,0.0
13.212,4420.898,0.00023,0.0,0.0
13.219,4562.703,0.00022,0.0,0.0
13.225,4773.381,0.00021,0.0,0.0
13.231,5162.906,0.00019,0.0,0.0
13.238,6002.827,0.00017,0.0,0.0
13.244,7135.6,0.00014,0.0,0.0
13.25,8843.382,0.00011,0.0,0.0
13.257,10633.32,0.00009,0.0,0.0
13.263,12214.919,0.00008,0.0,0.0
13.269,12693.672,0.00008,0.0,0.0
13.276,11320.624,0.00009,0.0,0.0
13.282,10238.874,0.0001,0.0,0.0
13.288,7964.912,0.00013,0.0,0.0
13.295,6433.416,0.00016,0.0,0.0
13.301,5539.029,0.00018,0.0,0.0
13.307,4881.616,0.0002,0.0,0.0
13.314,4606.873,0.00022,0.0,0.0
13.32,4413.665,0.00023,0.0,0.0
13.326,4321.401,0.00023,0.0,0.0
13.333,4247.082,0.00024,0.0,0.0
13.339,4219.51,0.00024,0.0,0.0
13.345,4179.631,0.00024,0.0,0.0
13.352,4168.195,0.00024,0.0,0.0
13.358,4150.231,0.00024,0.0,0.0
13.364,4144.343,0.00024,0.0,0.0
13.37,4130.83,0.00024,0.0,0.0
13.377,4124.669,0.00024,0.0,0.0
13.383,4122.669,0.00024,0.0,0.0
13.389,4104.688,0.00024,0.0,0.0
13.396,4103.162,0.00024,0.0,0.0
13.402,4112.09,0.00024,0.0,0.0
13.408,4101.642,0.00024,0.0,0.0
13.415,4092.82,0.00024,0.0,0.0
13.421,4087.691,0.00024,0.0,0.0
13.427,4084.948,0.00024,0.0,0.0
13.434,4067.19,0.00025,0.0,0.0
13.44,4068.677,0.00025,0.0,0.0
13.446,4072.975,0.00025,0.0,0.0
13.453,4073.65,0.00025,0.0,0.0
13.459,4063.673,0.00025,0.0,0.0
13.465,4045.494,0.00025,0.0,0.0
13.472,4054.576,0.00025,0.0,0.0
13.478,4055.718,0.00025,0.0,0.0
13.484,4058.561,0.00025,0.0,0.0
13.491,4044.404,0.00025,0.0,0.0
13.497,4040.773,0.00025,0.0,0.0
13.503,4038.179,0.00025,0.0,0.0
13.51,4043.833,0.00025,0.0,0.0
13.516,4021.563,0.00025,0.0,0.0
13.522,4017.279,0.00025,0.0,0.0
13.528,4041.708,0.00025,0.0,0.0
13.535,4009.005,0.00025,0.0,0.0
13.541,4012.793,0.00025,0.0,0.0
13.547,4017.057,0.00025,0.0,0.0
13.554,4012.792,0.00025,0.0,0.0
13.56,4016.528,0.00025,0.0,0.0
13.566,4023.349,0.00025,0.0,0.0
13.573,4007.612,0.00025,0.0,0.0
13.579,4007.994,0.00025,0.0,0.0
13.585,4008.659,0.00025,0.0,0.0
13.592,4022.335,0.00025,0.0,0.0
13.598,4009.441,0.00025,0.0,0.0
13.604,4013.086,0.00025,0.0,0.0
13.611,4008.3,0.00025,0.0,0.0
13.617,4003.888,0.00025,0.0,0.0
13.623,4005.941,0.00025,0.0,0.0
13.63,4004.21,0.00025,0.0,0.0
13.636,3997.004,0.00025,0.0,0.0
13.642,4011.637,0.00025,0.0,0.0
13.649,4019.501,0.00025,0.0,0.0
13.655,4009.778,0.00025,0.0,0.0
13.661,4021.783,0.00025,0.0,0.0
13.668,4027.051,0.00025,0.0,0.0
13.674,4023.176,0.00025,0.0,0.0
13.68,4026.005,0.00025,0.0,0.0
13.686,4043.509,0.00025,0.0,0.0
13.693,4057.875,0.00025,0.0,0.0
13.699,4121.107,0.00024,0.0,0.0
13.705,4228.218,0.00024,0.0,0.0
13.712,4392.497,0.00023,0.0,0.0
13.718,4417.023,0.00023,0.0,0.0
13.724,5234.315,0.00019,0.0,0.0
13.731,4476.78,0.00022,0.0,0.0
13.737,4518.749,0.00022,0.0,0.0
13.743,4714.409,0.00021,0.0,0.0
13.75,4260.72,0.00023,0.0,0.0
13.756,4151.685,0.00024,0.0,0.0
13.762,4052.335,0.00025,0.0,0.0
13.769,4013.449,0.00025,0.0,0.0
13.775,3987.58,0.00025,0.0,0.0
13.781,3951.448,0.00025,0.0,0.0
13.788,3954.351,0.00025,0.0,0.0
13.794,3953.957,0.00025,0.0,0.0
13.8,3931.132,0.00025,0.0,0.0
13.807,3935.329,0.00025,0.0,0.0
13.813,3933.894,0.00025,0.0,0.0
13.819,3932.402,0.00025,0.0,0.0
13.826,3916.899,0.00026,0.0,0.0
13.832,3919.516,0.00026,0.0,0.0
13.838,3905.108,0.00026,0.0,0.0
13.844,3907.146,0.00026,0.0,0.0
13.851,3900.002,0.00026,0.0,0.0
13.857,3906.919,0.00026,0.0,0.0
13.863,3892.038,0.00026,0.0,0.0
13.87,3888.596,0.00026,0.0,0.0
13.876,3892.367,0.00026,0.0,0.0
13.882,3876.476,0.00026,0.0,0.0
13.889,3884.936,0.00026,0.0,0.0
13.895,3878.905,0.00026,0.0,0.0
13.901,3870.965,0.00026,0.0,0.0
13.908,3866.238,0.00026,0.0,0.0
13.914,3870.931,0.00026,0.0,0.0
13.92,3857.325,0.00026,0.0,0.0
13.927,3866.493,0.00026,0.0,0.0
13.933,3855.196,0.00026,0.0,0.0
13.939,3853.663,0.00026,0.0,0.0
13.946,3853.053,0.00026,0.0,0.0
13.952,3837.835,0.00026,0.0,0.0
13.958,3835.641,0.00026,0.0,0.0
13.965,3835.558,0.00026,0.0,0.0
13.971,3833.791,0.00026,0.0,0.0
13.977,3840.298,0.00026,0.0,0.0
13.984,3828.132,0.00026,0.0,0.0
13.99,3835.277,0.00026,0.0,0.0
13.996,3805.959,0.00026,0.0,0.0
14.002,3825.362,0.00026,0.0,0.0
14.009,3820.258,0.00026,0.0,0.0
14.015,3812.394,0.00026,0.0,0.0
14.021,3802.204,0.00026,0.0,0.0
14.028,3794.308,0.00026,0.0,0.0
14.034,3799.4,0.00026,0.0,0.0
14.04,3786.531,0.00026,0.0,0.0
14.047,3794.619,0.00026,0.0,0.0
14.053,3806.064,0.00026,0.0,0.0
14.059,3789.261,0.00026,0.0,0.0
14.066,3781.473,0.00026,0.0,0.0
14.072,3782.817,0.00026,0.0,0.0
14.078,3787.104,0.00026,0.0,0.0
14.085,3779.194,0.00026,0.0,0.0
14.091,3776.25,0.00026,0.0,0.0
14.097,3777.314,0.00026,0.0,0.0
14.104,3771.191,0.00027,0.0,0.0
14.11,3765.917,0.00027,0.0,0.0
14.116,3775.57,0.00026,0.0,0.0
14.123,3776.451,0.00026,0.0,0.0
14.129,3771.193,0.00027,0.0,0.0
14.135,3763.629,0.00027,0.0,0.0
14.142,3756.827,0.00027,0.0,0.0
14.148,3748.133,0.00027,0.0,0.0
14.154,3751.319,0.00027,0.0,0.0
14.16,3751.532,0.00027,0.0,0.0
14.167,3756.241,0.00027,0.0,0.0
14.173,3736.658,0.00027,0.0,0.0
14.179,3749.77,0.00027,0.0,0.0
14.186,3740.765,0.00027,0.0,0.0
14.192,3733.824,0.00027,0.0,0.0
14.198,3741.551,0.00027,0.0,0.0
14.205,3738.341,0.00027,0.0,0.0
14.211,3737.599,0.00027,0.0,0.0
14.217,3732.971,0.00027,0.0,0.0
14.224,3734.146,0.00027,0.0,0.0
14.23,3736.035,0.00027,0.0,0.0
14.236,3729.69,0.00027,0.0,0.0
14.243,3754.931,0.00027,0.0,0.0
14.249,3744.59,0.00027,0.0,0.0
14.255,3754.712,0.00027,0.0,0.0
14.262,3747.618,0.00027,0.0,0.0
14.268,3755.98,0.00027,0.0,0.0
14.274,3745.762,0.00027,0.0,0.0
14.281,3743.84,0.00027,0.0,0.0
14.287,3744.725,0.00027,0.0,0.0
14.293,3737.755,0.00027,0.0,0.0
14.3,3735.995,0.00027,0.0,0.0
14.306,3724.286,0.00027,0.0,0.0
14.312,3711.756,0.00027,0.0,0.0
14.318,3722.641,0.00027,0.0,0.0
14.325,3708.747,0.00027,0.0,0.0
14.331,3692.856,0.00027,0.0,0.0
14.337,3712.948,0.00027,0.0,0.0
14.344,3709.402,0.00027,0.0,0.0
14.35,3693.327,0.00027,0.0,0.0
14.356,3696.748,0.00027,0.0,0.0
14.363,3688.972,0.00027,0.0,0.0
14.369,3696.766,0.00027,0.0,0.0
14.375,3691.056,0.00027,0.0,0.0
14.382,3690.028,0.00027,0.0,0.0
14.388,3666.787,0.00027,0.0,0.0
14.394,3676.366,0.00027,0.0,0.0
14.401,3674.011,0.00027,0.0,0.0
14.407,3666.706,0.00027,0.0,0.0
14.413,3670.831,0.00027,0.0,0.0
14.42,3664.93,0.00027,0.0,0.0
14.426,3677.973,0.00027,0.0,0.0
14.432,3671.891,0.00027,0.0,0.0
14.439,3664.2,0.00027,0.0,0.0
14.445,3697.297,0.00027,0.0,0.0
14.451,3696.664,0.00027,0.0,0.0
14.458,3703.426,0.00027,0.0,0.0
14.464,3728.105,0.00027,0.0,0.0
14.47,3740.134,0.00027,0.0,0.0
14.476,3730.844,0.00027,0.0,0.0
14.483,3730.603,0.00027,0.0,0.0
14.489,3677.788,0.00027,0.0,0.0
14.495,3676.554,0.00027,0.0,0.0
14.502,3653.331,0.00027,0.0,0.0
14.508,3656.129,0.00027,0.0,0.0
14.514,3643.196,0.00027,0.0,0.0
14.521,3644.163,0.00027,0.0,0.0
14.527,3631.456,0.00028,0.0,0.0
14.533,3625.598,0.00028,0.0,0.0
14.54,3612.872,0.00028,0.0,0.0
14.546,3618.602,0.00028,0.0,0.0
14.552,3610.876,0.00028,0.0,0.0
14.559,3619.72,0.00028,0.0,0.0
14.565,3613.485,0.00028,0.0,0.0
14.571,3609.805,0.00028,0.0,0.0
14.578,3613.717,0.00028,0.0,0.0
14.584,3598.977,0.00028,0.0,0.0
14.59,3602.494,0.00028,0.0,0.0
14.597,3594.758,0.00028,0.0,0.0
14.603,3605.72,0.00028,0.0,0.0
14.609,3599.097,0.00028,0.0,0.0
14.616,3595.106,0.00028,0.0,0.0
14.622,3599.006,0.00028,0.0,0.0
14.628,3582.961,0.00028,0.0,0.0
14.634,3590.528,0.00028,0.0,0.0
14.641,3582.739,0.00028,0.0,0.0
14.647,3576.328,0.00028,0.0,0.0
14.653,3582.412,0.00028,0.0,0.0
14.66,3588.366,0.00028,0.0,0.0
14.666,3583.984,0.00028,0.0,0.0
14.672,3580.74,0.00028,0.0,0.0
14.679,3573.68,0.00028,0.0,0.0
14.685,3573.252,0.00028,0.0,0.0
14.691,3583.332,0.00028,0.0,0.0
14.698,3569.926,0.00028,0.0,0.0
14.704,3569.38,0.00028,0.0,0.0
14.71,3558.906,0.00028,0.0,0.0
14.717,3561.476,0.00028,0.0,0.0
14.723,3560.578,0.00028,0.0,0.0
14.729,3569.384,0.00028,0.0,0.0
14.736,3548.298,0.00028,0.0,0.0
14.742,3552.788,0.00028,0.0,0.0
14.748,3544.179,0.00028,0.0,0.0
14.755,3532.726,0.00028,0.0,0.0
14.761,3556.395,0.00028,0.0,0.0
14.767,3548.012,0.00028,0.0,0.0
14.774,3538.699,0.00028,0.0,0.0
14.78,3533.053,0.00028,0.0,0.0
14.786,3525.368,0.00028,0.0,0.0
14.792,3533.086,0.00028,0.0,0.0
14.799,3525.712,0.00028,0.0,0.0
14.805,3534.708,0.00028,0.0,0.0
14.811,3541.754,0.00028,0.0,0.0
14.818,3528.375,0.00028,0.0,0.0
14.824,3522.375,0.00028,0.0,0.0
14.83,3516.239,0.00028,0.0,0.0
14.837,3524.167,0.00028,0.0,0.0
14.843,3510.982,0.00028,0.0,0.0
14.849,3512.93,0.00028,0.0,0.0
14.856,3514.998,0.00028,0.0,0.0
14.862,3504.968,0.00029,0.0,0.0
14.868,3509.301,0.00028,0.0,0.0
14.875,3511.291,0.00028,0.0,0.0
14.881,3508.167,0.00029,0.0,0.0
14.887,3514.565,0.00028,0.0,0.0
14.894,3502.187,0.00029,0.0,0.0
14.9,3501.853,0.00029,0.0,0.0
14.906,3505.923,0.00029,0.0,0.0
14.913,3498.288,0.00029,0.0,0.0
14.919,3497.239,0.00029,0.0,0.0
14.925,3487.028,0.00029,0.0,0.0
14.932,3490.904,0.00029,0.0,0.0
14.938,3485.048,0.00029,0.0,0.0
14.944,3485.442,0.00029,0.0,0.0
14.95,3487.537,0.00029,0.0,0.0
14.957,3495.84,0.00029,0.0,0.0
14.963,3482.904,0.00029,0.0,0.0
14.969,3473.922,0.00029,0.0,0.0
14.976,3488.569,0.00029,0.0,0.0
14.982,3478.311,0.00029,0.0,0.0
14.988,3484.387,0.00029,0.0,0.0
14.995,3477.471,0.00029,0.0,0.0
15.001,3474.428,0.00029,0.0,0.0
15.007,3480.078,0.00029,0.0,0.0
15.014,3480.268,0.00029,0.0,0.0
15.02,3455.723,0.00029,0.0,0.0
15.026,3473.478,0.00029,0.0,0.0
15.033,3466.37,0.00029,0.0,0.0
15.039,3463.06,0.00029,0.0,0.0
15.045,3464.055,0.00029,0.0,0.0
15.052,3452.69,0.00029,0.0,0.0
15.058,3458.694,0.00029,0.0,0.0
15.064,3461.111,0.00029,0.0,0.0
15.071,3468.806,0.00029,0.0,0.0
15.077,3468.494,0.00029,0.0,0.0
15.083,3457.441,0.00029,0.0,0.0
15.09,3445.422,0.00029,0.0,0.0
15.096,3450.926,0.00029,0.0,0.0
15.102,3443.234,0.00029,0.0,0.0
15.108,3456.74,0.00029,0.0,0.0
15.115,3445.41,0.00029,0.0,0.0
15.121,3440.092,0.00029,0.0,0.0
15.127,3447.954,0.00029,0.0,0.0
15.134,3446.237,0.00029,0.0,0.0
15.14,3445.841,0.00029,0.0,0.0
15.146,3443.073,0.00029,0.0,0.0
15.153,3448.08,0.00029,0.0,0.0
15.159,3442.226,0.00029,0.0,0.0
15.165,3453.9,0.00029,0.0,0.0
15.172,3452.794,0.00029,0.0,0.0
15.178,3455.708,0.00029,0.0,0.0
15.184,3458.187,0.00029,0.0,0.0
15.191,3453.838,0.00029,0.0,0.0
15.197,3455.733,0.00029,0.0,0.0
15.203,3443.73,0.00029,0.0,0.0
15.21,3439.83,0.00029,0.0,0.0
15.216,3440.347,0.00029,0.0,0.0
15.222,3447.382,0.00029,0.0,0.0
15.229,3439.351,0.00029,0.0,0.0
15.235,3450.034,0.00029,0.0,0.0
15.241,3449.07,0.00029,0.0,0.0
15.248,3446.838,0.00029,0.0,0.0
15.254,3463.957,0.00029,0.0,0.0
15.26,3483.394,0.00029,0.0,0.0
15.266,3500.594,0.00029,0.0,0.0
15.273,3541.312,0.00028,0.0,0.0
15.279,3609.006,0.00028,0.0,0.0
15.285,3713.928,0.00027,0.0,0.0
15.292,3899.647,0.00026,0.0,0.0
15.298,4226.284,0.00024,0.0,0.0
15.304,4594.07,0.00022,0.0,0.0
15.311,5270.914,0.00019,0.0,0.0
15.317,5814.166,0.00017,0.0,0.0
15.323,6398.505,0.00016,0.0,0.0
15.33,6128.969,0.00016,0.0,0.0
15.336,6021.526,0.00017,0.0,0.0
15.342,5607.895,0.00018,0.0,0.0
15.349,4789.066,0.00021,0.0,0.0
15.355,4478.349,0.00022,0.0,0.0
15.361,4033.876,0.00025,0.0,0.0
15.368,3782.744,0.00026,0.0,0.0
15.374,3667.431,0.00027,0.0,0.0
15.38,3547.821,0.00028,0.0,0.0
15.387,3501.132,0.00029,0.0,0.0
15.393,3470.112,0.00029,0.0,0.0
15.399,3446.278,0.00029,0.0,0.0
15.406,3430.402,0.00029,0.0,0.0
15.412,3415.218,0.00029,0.0,0.0
15.418,3402.887,0.00029,0.0,0.0
15.424,3404.28,0.00029,0.0,0.0
15.431,3403.013,0.00029,0.0,0.0
15.437,3406.609,0.00029,0.0,0.0
15.443,3382.352,0.0003,0.0,0.0
15.45,3406.224,0.00029,0.0,0.0
15.456,3395.322,0.00029,0.0,0.0
15.462,3389.624,0.0003,0.0,0.0
15.469,3382.102,0.0003,0.0,0.0
15.475,3382.146,0.0003,0.0,0.0
15.481,3371.939,0.0003,0.0,0.0
15.488,3364.833,0.0003,0.0,0.0
15.494,3374.155,0.0003,0.0,0.0
15.5,3374.499,0.0003,0.0,0.0
15.507,3372.272,0.0003,0.0,0.0
15.513,3373.453,0.0003,0.0,0.0
15.519,3363.175,0.0003,0.0,0.0
15.526,3372.774,0.0003,0.0,0.0
15.532,3367.955,0.0003,0.0,0.0
15.538,3363.511,0.0003,0.0,0.0
15.545,3349.954,0.0003,0.0,0.0
15.551,3346.358,0.0003,0.0,0.0
15.557,3350.408,0.0003,0.0,0.0
15.564,3347.052,0.0003,0.0,0.0
15.57,3344.615,0.0003,0.0,0.0
15.576,3350.464,0.0003,0.0,0.0
15.582,3344.125,0.0003,0.0,0.0
15.589,3336.194,0.0003,0.0,0.0
15.595,3339.03,0.0003,0.0,0.0
15.601,3331.11,0.0003,0.0,0.0
15.608,3340.323,0.0003,0.0,0.0
15.614,3326.283,0.0003,0.0,0.0
15.62,3327.903,0.0003,0.0,0.0
15.627,3314.896,0.0003,0.0,0.0
15.633,3317.549,0.0003,0.0,0.0
15.639,3321.349,0.0003,0.0,0.0
15.646,3310.117,0.0003,0.0,0.0
15.652,3325.182,0.0003,0.0,0.0
15.658,3313.194,0.0003,0.0,0.0
15.665,3310.691,0.0003,0.0,0.0
15.671,3316.698,0.0003,0.0,0.0
15.677,3309.246,0.0003,0.0,0.0
15.684,3307.776,0.0003,0.0,0.0
15.69,3298.476,0.0003,0.0,0.0
15.696,3299.664,0.0003,0.0,0.0
15.703,3307.096,0.0003,0.0,0.0
15.709,3295.52,0.0003,0.0,0.0
15.715,3301.292,0.0003,0.0,0.0
15.722,3292.638,0.0003,0.0,0.0
15.728,3293.932,0.0003,0.0,0.0
15.734,3293.269,0.0003,0.0,0.0
15.74,3282.813,0.0003,0.0,0.0
15.747,3292.626,0.0003,0.0,0.0
15.753,3281.922,0.0003,0.0,0.0
15.759,3286.01,0.0003,0.0,0.0
15.766,3281.962,0.0003,0.0,0.0
15.772,3291.494,0.0003,0.0,0.0
15.778,3272.179,0.00031,0.0,0.0
15.785,3274.896,0.00031,0.0,0.0
15.791,3274.464,0.00031,0.0,0.0
15.797,3266.558,0.00031,0.0,0.0
15.804,3272.279,0.00031,0.0,0.0
15.81,3270.236,0.00031,0.0,0.0
15.816,3275.03,0.00031,0.0,0.0
15.823,3274.422,0.00031,0.0,0.0
15.829,3271.345,0.00031,0.0,0.0
15.835,3280.559,0.0003,0.0,0.0
15.842,3277.447,0.00031,0.0,0.0
15.848,3287.571,0.0003,0.0,0.0
15.854,3280.437,0.0003,0.0,0.0
15.861,3267.961,0.00031,0.0,0.0
15.867,3279.666,0.0003,0.0,0.0
15.873,3288.767,0.0003,0.0,0.0
15.88,3273.89,0.00031,0.0,0.0
15.886,3299.115,0.0003,0.0,0.0
15.892,3256.486,0.00031,0.0,0.0
15.898,3282.925,0.0003,0.0,0.0
15.905,3251.773,0.00031,0.0,0.0
15.911,3253.087,0.00031,0.0,0.0
15.917,3252.221,0.00031,0.0,0.0
15.924,3247.202,0.00031,0.0,0.0
15.93,3245.727,0.00031,0.0,0.0
15.936,3254.244,0.00031,0.0,0.0
15.943,3249.316,0.00031,0.0,0.0
15.949,3258.165,0.00031,0.0,0.0
15.955,3243.919,0.00031,0.0,0.0
15.962,3242.654,0.00031,0.0,0.0
15.968,3229.648,0.00031,0.0,0.0
15.974,3237.187,0.00031,0.0,0.0
15.981,3236.362,0.00031,0.0,0.0
15.987,3225.805,0.00031,0.0,0.0
15.993,3233.219,0.00031,0.0,0.0
16.0,3237.18,0.00031,0.0,0.0
16.006,3219.869,0.00031,0.0,0.0
16.012,3230.169,0.00031,0.0,0.0
16.019,3228.13,0.00031,0.0,0.0
16.025,3239.976,0.00031,0.0,0.0
16.031,3228.289,0.00031,0.0,0.0
16.038,3221.781,0.00031,0.0,0.0
16.044,3218.979,0.00031,0.0,0.0
16.05,3211.587,0.00031,0.0,0.0
16.056,3224.836,0.00031,0.0,0.0
16.063,3217.471,0.00031,0.0,0.0
16.069,3210.648,0.00031,0.0,0.0
16.075,3220.116,0.00031,0.0,0.0
16.082,3227.358,0.00031,0.0,0.0
16.088,3209.134,0.00031,0.0,0.0
16.094,3215.061,0.00031,0.0,0.0
16.101,3218.313,0.00031,0.0,0.0
16.107,3216.967,0.00031,0.0,0.0
16.113,3214.815,0.00031,0.0,0.0
16.12,3213.112,0.00031,0.0,0.0
16.126,3217.512,0.00031,0.0,0.0
16.132,3211.677,0.00031,0.0,0.0
16.139,3218.99,0.00031,0.0,0.0
16.145,3208.161,0.00031,0.0,0.0
16.151,3215.592,0.00031,0.0,0.0
16.158,3209.396,0.00031,0.0,0.0
16.164,3203.758,0.00031,0.0,0.0
16.17,3214.964,0.00031,0.0,0.0
16.177,3207.071,0.00031,0.0,0.0
16.183,3207.933,0.00031,0.0,0.0
16.189,3219.254,0.00031,0.0,0.0
16.196,3214.962,0.00031,0.0,0.0
16.202,3210.984,0.00031,0.0,0.0
16.208,3201.304,0.00031,0.0,0.0
16.214,3217.395,0.00031,0.0,0.0
16.221,3197.395,0.00031,0.0,0.0
16.227,3204.752,0.00031,0.0,0.0
16.233,3204.732,0.00031,0.0,0.0
16.24,3194.3,0.00031,0.0,0.0
16.246,3193.692,0.00031,0.0,0.0
16.252,3203.689,0.00031,0.0,0.0
16.259,3203.739,0.00031,0.0,0.0
16.265,3198.569,0.00031,0.0,0.0
16.271,3205.216,0.00031,0.0,0.0
16.278,3199.689,0.00031,0.0,0.0
16.284,3204.74,0.00031,0.0,0.0
16.29,3207.963,0.00031,0.0,0.0
16.297,3213.564,0.00031,0.0,0.0
16.303,3203.16,0.00031,0.0,0.0
16.309,3209.83,0.00031,0.0,0.0
16.316,3195.093,0.00031,0.0,0.0
16.322,3205.092,0.00031,0.0,0.0
16.328,3209.099,0.00031,0.0,0.0
16.335,3204.304,0.00031,0.0,0.0
16.341,3210.585,0.00031,0.0,0.0
16.347,3201.177,0.00031,0.0,0.0
16.354,3197.461,0.00031,0.0,0.0
16.36,3205.914,0.00031,0.0,0.0
16.366,3198.86,0.00031,0.0,0.0
16.372,3187.568,0.00031,0.0,0.0
16.379,3203.596,0.00031,0.0,0.0
16.385,3207.726,0.00031,0.0,0.0
16.391,3197.445,0.00031,0.0,0.0
16.398,3196.292,0.00031,0.0,0.0
16.404,3194.777,0.00031,0.0,0.0
16.41,3190.943,0.00031,0.0,0.0
16.417,3196.942,0.00031,0.0,0.0
16.423,3194.734,0.00031,0.0,0.0
16.429,3197.985,0.00031,0.0,0.0
16.436,3199.54,0.00031,0.0,0.0
16.442,3203.545,0.00031,0.0,0.0
16.448,3201.915,0.00031,0.0,0.0
16.455,3199.957,0.00031,0.0,0.0
16.461,3198.752,0.00031,0.0,0.0
16.467,3208.765,0.00031,0.0,0.0
16.474,3217.476,0.00031,0.0,0.0
16.48,3211.868,0.00031,0.0,0.0
16.486,3231.779,0.00031,0.0,0.0
16.493,3240.135,0.00031,0.0,0.0
16.499,3268.891,0.00031,0.0,0.0
16.505,3336.516,0.0003,0.0,0.0
16.512,3289.697,0.0003,0.0,0.0
16.518,3358.573,0.0003,0.0,0.0
16.524,3335.686,0.0003,0.0,0.0
16.53,3270.107,0.00031,0.0,0.0
16.537,3272.02,0.00031,0.0,0.0
16.543,3258.141,0.00031,0.0,0.0
16.549,3231.908,0.00031,0.0,0.0
16.556,3234.805,0.00031,0.0,0.0
16.562,3224.905,0.00031,0.0,0.0
16.568,3231.881,0.00031,0.0,0.0
16.575,3230.97,0.00031,0.0,0.0
16.581,3211.963,0.00031,0.0,0.0
16.587,3225.754,0.00031,0.0,0.0
16.594,3231.959,0.00031,0.0,0.0
