"x","y_obs","weight","y_calc","y_bkg"
0.8,2802.251,0.00036,0.0,0.0
0.806,3253.31,0.00031,0.0,0.0
0.813,3362.319,0.0003,0.0,0.0
0.819,3227.573,0.00031,0.0,0.0
0.825,3909.095,0.00026,0.0,0.0
0.832,3622.487,0.00028,0.0,0.0
0.838,3960.649,0.00025,0.0,0.0
0.844,4232.84,0.00024,0.0,0.0
0.851,4060.9,0.00025,0.0,0.0
0.857,4540.859,0.00022,0.0,0.0
0.863,4907.275,0.0002,0.0,0.0
0.87,4454.313,0.00022,0.0,0.0
0.876,5280.449,0.00019,0.0,0.0
0.882,5151.627,0.00019,0.0,0.0
0.888,5357.314,0.00019,0.0,0.0
0.895,5561.21,0.00018,0.0,0.0
0.901,5582.407,0.00018,0.0,0.0
0.907,5991.397,0.00017,0.0,0.0
0.914,6159.261,0.00016,0.0,0.0
0.92,5861.927,0.00017,0.0,0.0
0.926,6452.769,0.00015,0.0,0.0
0.933,6560.484,0.00015,0.0,0.0
0.939,6299.489,0.00016,0.0,0.0
0.945,6881.068,0.00015,0.0,0.0
0.952,6438.536,0.00016,0.0,0.0
0.958,6844.238,0.00015,0.0,0.0
0.964,6919.925,0.00014,0.0,0.0
0.971,6579.262,0.00015,0.0,0.0
0.977,7069.158,0.00014,0.0,0.0
0.983,6986.816,0.00014,0.0,0.0
0.99,6832.164,0.00015,0.0,0.0
0.996,7158.277,0.00014,0.0,0.0
1.002,6872.719,0.00015,0.0,0.0
1.009,7089.264,0.00014,0.0,0.0
1.015,7202.264,0.00014,0.0,0.0
1.021,6940.005,0.00014,0.0,0.0
1.028,7212.674,0.00014,0.0,0.0
1.034,7092.443,0.00014,0.0,0.0
1.04,7057.676,0.00014,0.0,0.0
1.046,7121.863,0.00014,0.0,0.0
1.053,7139.692,0.00014,0.0,0.0
1.059,7036.138,0.00014,0.0,0.0
1.065,7164.061,0.00014,0.0,0.0
1.072,6985.379,0.00014,0.0,0.0
1.078,7111.661,0.00014,0.0,0.0
1.084,6946.856,0.00014,0.0,0.0
1.091,7000.73,0.00014,0.0,0.0
1.097,6976.87,0.00014,0.0,0.0
1.103,6889.627,0.00015,0.0,0.0
1.11,6869.352,0.00015,0.0,0.0
1.116,6863.522,0.00015,0.0,0.0
1.122,6782.778,0.00015,0.0,0.0
1.129,6798.598,0.00015,0.0,0.0
1.135,6765.424,0.00015,0.0,0.0
1.141,6718.69,0.00015,0.0,0.0
1.148,6710.381,0.00015,0.0,0.0
1.154,6620.51,0.00015,0.0,0.0
1.16,6614.183,0.00015,0.0,0.0
1.167,6545.826,0.00015,0.0,0.0
1.173,6470.374,0.00015,0.0,0.0
1.179,6505.916,0.00015,0.0,0.0
1.186,6440.096,0.00016,0.0,0.0
1.192,6360.957,0.00016,0.0,0.0
1.198,6348.889,0.00016,0.0,0.0
1.204,6242.227,0.00016,0.0,0.0
1.211,6295.106,0.00016,0.0,0.0
1.217,6234.524,0.00016,0.0,0.0
1.223,6191.902,0.00016,0.0,0.0
1.23,6176.064,0.00016,0.0,0.0
1.236,6094.981,0.00016,0.0,0.0
1.242,6107.637,0.00016,0.0,0.0
1.249,6076.049,0.00016,0.0,0.0
1.255,6053.068,0.00017,0.0,0.0
1.261,6026.864,0.00017,0.0,0.0
1.268,6010.643,0.00017,0.0,0.0
1.274,5919.028,0.00017,0.0,0.0
1.28,5937.181,0.00017,0.0,0.0
1.287,5916.506,0.00017,0.0,0.0
1.293,5905.594,0.00017,0.0,0.0
1.299,5859.972,0.00017,0.0,0.0
1.306,5823.975,0.00017,0.0,0.0
1.312,5779.575,0.00017,0.0,0.0
1.318,5840.556,0.00017,0.0,0.0
1.325,5776.195,0.00017,0.0,0.0
1.331,5760.559,0.00017,0.0,0.0
1.337,5760.001,0.00017,0.0,0.0
1.344,5705.106,0.00018,0.0,0.0
1.35,5684.228,0.00018,0.0,0.0
1.356,5656.564,0.00018,0.0,0.0
1.362,5684.207,0.00018,0.0,0.0
1.369,5667.809,0.00018,0.0,0.0
1.375,5650.223,0.00018,0.0,0.0
1.381,5614.378,0.00018,0.0,0.0
1.388,5638.599,0.00018,0.0,0.0
1.394,5574.267,0.00018,0.0,0.0
1.4,5622.786,0.00018,0.0,0.0
1.407,5552.312,0.00018,0.0,0.0
1.413,5585.996,0.00018,0.0,0.0
1.419,5507.851,0.00018,0.0,0.0
1.426,5576.52,0.00018,0.0,0.0
1.432,5525.048,0.00018,0.0,0.0
1.438,5519.266,0.00018,0.0,0.0
1.445,5528.943,0.00018,0.0,0.0
1.451,5583.063,0.00018,0.0,0.0
1.457,5547.547,0.00018,0.0,0.0
1.464,5521.59,0.00018,0.0,0.0
1.47,5505.985,0.00018,0.0,0.0
1.476,5496.166,0.00018,0.0,0.0
1.483,5554.271,0.00018,0.0,0.0
1.489,5494.806,0.00018,0.0,0.0
1.495,5551.953,0.00018,0.0,0.0
1.502,5519.929,0.00018,0.0,0.0
1.508,5525.198,0.00018,0.0,0.0
1.514,5523.009,0.00018,0.0,0.0
1.52,5534.749,0.00018,0.0,0.0
1.527,5544.45,0.00018,0.0,0.0
1.533,5582.048,0.00018,0.0,0.0
1.539,5519.247,0.00018,0.0,0.0
1.546,5558.334,0.00018,0.0,0.0
1.552,5558.691,0.00018,0.0,0.0
1.558,5523.27,0.00018,0.0,0.0
1.565,5575.473,0.00018,0.0,0.0
1.571,5555.034,0.00018,0.0,0.0
1.577,5547.759,0.00018,0.0,0.0
1.584,5596.332,0.00018,0.0,0.0
1.59,5602.836,0.00018,0.0,0.0
1.596,5584.603,0.00018,0.0,0.0
1.603,5637.568,0.00018,0.0,0.0
1.609,5632.574,0.00018,0.0,0.0
1.615,5639.349,0.00018,0.0,0.0
1.622,5670.33,0.00018,0.0,0.0
1.628,5665.48,0.00018,0.0,0.0
1.634,5688.497,0.00018,0.0,0.0
1.641,5671.821,0.00018,0.0,0.0
1.647,5651.676,0.00018,0.0,0.0
1.653,5715.978,0.00017,0.0,0.0
1.66,5673.723,0.00018,0.0,0.0
1.666,5685.419,0.00018,0.0,0.0
1.672,5742.3,0.00017,0.0,0.0
1.678,5706.269,0.00018,0.0,0.0
1.685,5758.859,0.00017,0.0,0.0
1.691,5759.402,0.00017,0.0,0.0
1.697,5782.772,0.00017,0.0,0.0
1.704,5770.963,0.00017,0.0,0.0
1.71,5793.295,0.00017,0.0,0.0
1.716,5802.659,0.00017,0.0,0.0
1.723,5810.917,0.00017,0.0,0.0
1.729,5835.053,0.00017,0.0,0.0
1.735,5817.774,0.00017,0.0,0.0
1.742,5823.032,0.00017,0.0,0.0
1.748,5859.913,0.00017,0.0,0.0
1.754,5835.494,0.00017,0.0,0.0
1.761,5893.792,0.00017,0.0,0.0
1.767,5895.348,0.00017,0.0,0.0
1.773,5867.758,0.00017,0.0,0.0
1.78,5887.093,0.00017,0.0,0.0
1.786,5928.521,0.00017,0.0,0.0
1.792,5873.094,0.00017,0.0,0.0
1.799,5916.566,0.00017,0.0,0.0
1.805,5923.597,0.00017,0.0,0.0
1.811,5905.821,0.00017,0.0,0.0
1.818,5901.002,0.00017,0.0,0.0
1.824,5951.74,0.00017,0.0,0.0
1.83,5948.256,0.00017,0.0,0.0
1.836,5920.011,0.00017,0.0,0.0
1.843,5976.387,0.00017,0.0,0.0
1.849,5897.195,0.00017,0.0,0.0
1.855,5914.29,0.00017,0.0,0.0
1.862,5935.174,0.00017,0.0,0.0
1.868,5955.057,0.00017,0.0,0.0
1.874,5954.089,0.00017,0.0,0.0
1.881,5958.773,0.00017,0.0,0.0
1.887,5922.453,0.00017,0.0,0.0
1.893,5931.027,0.00017,0.0,0.0
1.9,5919.241,0.00017,0.0,0.0
1.906,5915.808,0.00017,0.0,0.0
1.912,5920.38,0.00017,0.0,0.0
1.919,5950.208,0.00017,0.0,0.0
1.925,5940.376,0.00017,0.0,0.0
1.931,5925.619,0.00017,0.0,0.0
1.938,5934.569,0.00017,0.0,0.0
1.944,5899.723,0.00017,0.0,0.0
1.95,5910.086,0.00017,0.0,0.0
1.957,5909.761,0.00017,0.0,0.0
1.963,5950.495,0.00017,0.0,0.0
1.969,5916.45,0.00017,0.0,0.0
1.976,5924.927,0.00017,0.0,0.0
1.982,5913.472,0.00017,0.0,0.0
1.988,5871.675,0.00017,0.0,0.0
1.994,5903.899,0.00017,0.0,0.0
2.001,5910.403,0.00017,0.0,0.0
2.007,5917.598,0.00017,0.0,0.0
2.013,5911.871,0.00017,0.0,0.0
2.02,5920.692,0.00017,0.0,0.0
2.026,5918.32,0.00017,0.0,0.0
2.032,5923.369,0.00017,0.0,0.0
2.039,5953.238,0.00017,0.0,0.0
2.045,5923.635,0.00017,0.0,0.0
2.051,5955.931,0.00017,0.0,0.0
2.058,5978.889,0.00017,0.0,0.0
2.064,5991.868,0.00017,0.0,0.0
2.07,6004.67,0.00017,0.0,0.0
2.077,5949.489,0.00017,0.0,0.0
2.083,5939.563,0.00017,0.0,0.0
2.089,5973.247,0.00017,0.0,0.0
2.096,5985.517,0.00017,0.0,0.0
2.102,5956.458,0.00017,0.0,0.0
2.108,5976.956,0.00017,0.0,0.0
2.115,5985.355,0.00017,0.0,0.0
2.121,5987.246,0.00017,0.0,0.0
2.127,5999.147,0.00017,0.0,0.0
2.134,5985.755,0.00017,0.0,0.0
2.14,6033.124,0.00017,0.0,0.0
2.146,6034.462,0.00017,0.0,0.0
2.152,6055.549,0.00017,0.0,0.0
2.159,6051.216,0.00017,0.0,0.0
2.165,6052.159,0.00017,0.0,0.0
2.171,6092.4,0.00016,0.0,0.0
2.178,6079.151,0.00016,0.0,0.0
2.184,6086.003,0.00016,0.0,0.0
2.19,6079.31,0.00016,0.0,0.0
2.197,6086.338,0.00016,0.0,0.0
2.203,6125.214,0.00016,0.0,0.0
2.209,6118.243,0.00016,0.0,0.0
2.216,6140.852,0.00016,0.0,0.0
2.222,6157.29,0.00016,0.0,0.0
2.228,6149.176,0.00016,0.0,0.0
2.235,6171.892,0.00016,0.0,0.0
2.241,6167.096,0.00016,0.0,0.0
2.247,6206.432,0.00016,0.0,0.0
2.254,6230.311,0.00016,0.0,0.0
2.26,6218.131,0.00016,0.0,0.0
2.266,6229.173,0.00016,0.0,0.0
2.273,6253.481,0.00016,0.0,0.0
2.279,6247.8,0.00016,0.0,0.0
2.285,6284.923,0.00016,0.0,0.0
2.292,6307.749,0.00016,0.0,0.0
2.298,6333.386,0.00016,0.0,0.0
2.304,6326.471,0.00016,0.0,0.0
2.31,6365.195,0.00016,0.0,0.0
2.317,6393.858,0.00016,0.0,0.0
2.323,6411.932,0.00016,0.0,0.0
2.329,6428.4,0.00016,0.0,0.0
2.336,6431.127,0.00016,0.0,0.0
2.342,6495.492,0.00015,0.0,0.0
2.348,6471.97,0.00015,0.0,0.0
2.355,6528.657,0.00015,0.0,0.0
2.361,6522.22,0.00015,0.0,0.0
2.367,6532.823,0.00015,0.0,0.0
2.374,6545.693,0.00015,0.0,0.0
2.38,6609.051,0.00015,0.0,0.0
2.386,6649.311,0.00015,0.0,0.0
2.393,6685.781,0.00015,0.0,0.0
2.399,6740.798,0.00015,0.0,0.0
2.405,6846.329,0.00015,0.0,0.0
2.412,6953.462,0.00014,0.0,0.0
2.418,7048.262,0.00014,0.0,0.0
2.424,7152.433,0.00014,0.0,0.0
2.431,7168.41,0.00014,0.0,0.0
2.437,7142.553,0.00014,0.0,0.0
2.443,7089.088,0.00014,0.0,0.0
2.45,7024.141,0.00014,0.0,0.0
2.456,6951.272,0.00014,0.0,0.0
2.462,6921.404,0.00014,0.0,0.0
2.468,6929.959,0.00014,0.0,0.0
2.475,6954.852,0.00014,0.0,0.0
2.481,6930.604,0.00014,0.0,0.0
2.487,6964.271,0.00014,0.0,0.0
2.494,6957.345,0.00014,0.0,0.0
2.5,6999.88,0.00014,0.0,0.0
2.506,7015.265,0.00014,0.0,0.0
2.513,7037.593,0.00014,0.0,0.0
2.519,7057.276,0.00014,0.0,0.0
2.525,7071.009,0.00014,0.0,0.0
2.532,7130.198,0.00014,0.0,0.0
2.538,7135.267,0.00014,0.0,0.0
2.544,7173.803,0.00014,0.0,0.0
2.551,7181.854,0.00014,0.0,0.0
2.557,7221.75,0.00014,0.0,0.0
2.563,7233.516,0.00014,0.0,0.0
2.57,7250.343,0.00014,0.0,0.0
2.576,7317.757,0.00014,0.0,0.0
2.582,7319.66,0.00014,0.0,0.0
2.589,7343.972,0.00014,0.0,0.0
2.595,7352.778,0.00014,0.0,0.0
2.601,7384.277,0.00014,0.0,0.0
2.608,7412.551,0.00013,0.0,0.0
2.614,7451.818,0.00013,0.0,0.0
2.62,7463.821,0.00013,0.0,0.0
2.626,7448.124,0.00013,0.0,0.0
2.633,7522.282,0.00013,0.0,0.0
2.639,7524.62,0.00013,0.0,0.0
2.645,7568.24,0.00013,0.0,0.0
2.652,7550.762,0.00013,0.0,0.0
2.658,7610.64,0.00013,0.0,0.0
2.664,7614.306,0.00013,0.0,0.0
2.671,7612.099,0.00013,0.0,0.0
2.677,7619.15,0.00013,0.0,0.0
2.683,7713.159,0.00013,0.0,0.0
2.69,7709.502,0.00013,0.0,0.0
2.696,7740.745,0.00013,0.0,0.0
2.702,7803.622,0.00013,0.0,0.0
2.709,7795.38,0.00013,0.0,0.0
2.715,7824.966,0.00013,0.0,0.0
2.721,7841.476,0.00013,0.0,0.0
2.728,7849.399,0.00013,0.0,0.0
2.734,7900.356,0.00013,0.0,0.0
2.74,7913.015,0.00013,0.0,0.0
2.747,7958.197,0.00013,0.0,0.0
2.753,7970.521,0.00013,0.0,0.0
2.759,7997.235,0.00013,0.0,0.0
2.766,8006.847,0.00012,0.0,0.0
2.772,8073.271,0.00012,0.0,0.0
2.778,8079.621,0.00012,0.0,0.0
2.784,8091.127,0.00012,0.0,0.0
2.791,8129.337,0.00012,0.0,0.0
2.797,8151.237,0.00012,0.0,0.0
2.803,8184.383,0.00012,0.0,0.0
2.81,8216.934,0.00012,0.0,0.0
2.816,8212.686,0.00012,0.0,0.0
2.822,8257.504,0.00012,0.0,0.0
2.829,8263.863,0.00012,0.0,0.0
2.835,8295.479,0.00012,0.0,0.0
2.841,8331.875,0.00012,0.0,0.0
2.848,8345.921,0.00012,0.0,0.0
2.854,8385.833,0.00012,0.0,0.0
2.86,8390.075,0.00012,0.0,0.0
2.867,8436.891,0.00012,0.0,0.0
2.873,8435.709,0.00012,0.0,0.0
2.879,8474.588,0.00012,0.0,0.0
2.886,8492.859,0.00012,0.0,0.0
2.892,8519.856,0.00012,0.0,0.0
2.898,8562.208,0.00012,0.0,0.0
2.905,8568.021,0.00012,0.0,0.0
2.911,8578.767,0.00012,0.0,0.0
2.917,8641.976,0.00012,0.0,0.0
2.924,8646.78,0.00012,0.0,0.0
2.93,8665.387,0.00012,0.0,0.0
2.936,8684.197,0.00012,0.0,0.0
2.942,8703.718,0.00011,0.0,0.0
2.949,8726.716,0.00011,0.0,0.0
2.955,8746.663,0.00011,0.0,0.0
2.961,8743.303,0.00011,0.0,0.0
2.968,8782.674,0.00011,0.0,0.0
2.974,8773.261,0.00011,0.0,0.0
2.98,8828.045,0.00011,0.0,0.0
2.987,8845.722,0.00011,0.0,0.0
2.993,8811.791,0.00011,0.0,0.0
2.999,8853.249,0.00011,0.0,0.0
3.006,8890.691,0.00011,0.0,0.0
3.012,8869.786,0.00011,0.0,0.0
3.018,8917.672,0.00011,0.0,0.0
3.025,8904.689,0.00011,0.0,0.0
3.031,8927.826,0.00011,0.0,0.0
3.037,8939.97,0.00011,0.0,0.0
3.044,8910.271,0.00011,0.0,0.0
3.05,8955.69,0.00011,0.0,0.0
3.056,8965.255,0.00011,0.0,0.0
3.063,8974.169,0.00011,0.0,0.0
3.069,8960.98,0.00011,0.0,0.0
3.075,8970.366,0.00011,0.0,0.0
3.082,9006.772,0.00011,0.0,0.0
3.088,9007.549,0.00011,0.0,0.0
3.094,8999.624,0.00011,0.0,0.0
3.1,8997.392,0.00011,0.0,0.0
3.107,8987.236,0.00011,0.0,0.0
3.113,8979.763,0.00011,0.0,0.0
3.119,8980.602,0.00011,0.0,0.0
3.126,8994.246,0.00011,0.0,0.0
3.132,8978.806,0.00011,0.0,0.0
3.138,9001.012,0.00011,0.0,0.0
3.145,8983.791,0.00011,0.0,0.0
3.151,8974.377,0.00011,0.0,0.0
3.157,8977.425,0.00011,0.0,0.0
3.164,8957.83,0.00011,0.0,0.0
3.17,8943.66,0.00011,0.0,0.0
3.176,8924.87,0.00011,0.0,0.0
3.183,8929.181,0.00011,0.0,0.0
3.189,8920.642,0.00011,0.0,0.0
3.195,8899.201,0.00011,0.0,0.0
3.202,8932.683,0.00011,0.0,0.0
3.208,8873.147,0.00011,0.0,0.0
3.214,8896.922,0.00011,0.0,0.0
3.221,8865.107,0.00011,0.0,0.0
3.227,8864.887,0.00011,0.0,0.0
3.233,8853.377,0.00011,0.0,0.0
3.24,8849.695,0.00011,0.0,0.0
3.246,8830.858,0.00011,0.0,0.0
3.252,8817.733,0.00011,0.0,0.0
3.258,8833.304,0.00011,0.0,0.0
3.265,8796.596,0.00011,0.0,0.0
3.271,8801.546,0.00011,0.0,0.0
3.277,8770.229,0.00011,0.0,0.0
3.284,8743.551,0.00011,0.0,0.0
3.29,8721.864,0.00011,0.0,0.0
3.296,8732.543,0.00011,0.0,0.0
3.303,8715.648,0.00011,0.0,0.0
3.309,8670.842,0.00012,0.0,0.0
3.315,8697.942,0.00011,0.0,0.0
3.322,8678.826,0.00012,0.0,0.0
3.328,8659.73,0.00012,0.0,0.0
3.334,8646.582,0.00012,0.0,0.0
3.341,8618.333,0.00012,0.0,0.0
3.347,8602.139,0.00012,0.0,0.0
3.353,8599.891,0.00012,0.0,0.0
3.36,8555.634,0.00012,0.0,0.0
3.366,8553.954,0.00012,0.0,0.0
3.372,8543.379,0.00012,0.0,0.0
3.379,8532.672,0.00012,0.0,0.0
3.385,8511.377,0.00012,0.0,0.0
3.391,8491.519,0.00012,0.0,0.0
3.398,8464.437,0.00012,0.0,0.0
3.404,8485.484,0.00012,0.0,0.0
3.41,8459.716,0.00012,0.0,0.0
3.416,8408.51,0.00012,0.0,0.0
3.423,8472.56,0.00012,0.0,0.0
3.429,8423.339,0.00012,0.0,0.0
3.435,8422.165,0.00012,0.0,0.0
3.442,8406.631,0.00012,0.0,0.0
3.448,8407.66,0.00012,0.0,0.0
3.454,8387.122,0.00012,0.0,0.0
3.461,8376.726,0.00012,0.0,0.0
3.467,8335.028,0.00012,0.0,0.0
3.473,8351.33,0.00012,0.0,0.0
3.48,8304.372,0.00012,0.0,0.0
3.486,8308.575,0.00012,0.0,0.0
3.492,8291.374,0.00012,0.0,0.0
3.499,8288.637,0.00012,0.0,0.0
3.505,8272.807,0.00012,0.0,0.0
3.511,8252.139,0.00012,0.0,0.0
3.518,8238.195,0.00012,0.0,0.0
3.524,8252.68,0.00012,0.0,0.0
3.53,8259.929,0.00012,0.0,0.0
3.537,8247.709,0.00012,0.0,0.0
3.543,8232.158,0.00012,0.0,0.0
3.549,8231.867,0.00012,0.0,0.0
3.556,8225.357,0.00012,0.0,0.0
3.562,8197.944,0.00012,0.0,0.0
3.568,8189.439,0.00012,0.0,0.0
3.574,8206.753,0.00012,0.0,0.0
3.581,8161.259,0.00012,0.0,0.0
3.587,8199.829,0.00012,0.0,0.0
3.593,8179.786,0.00012,0.0,0.0
3.6,8180.398,0.00012,0.0,0.0
3.606,8173.803,0.00012,0.0,0.0
3.612,8192.865,0.00012,0.0,0.0
3.619,8166.385,0.00012,0.0,0.0
3.625,8173.769,0.00012,0.0,0.0
3.631,8175.249,0.00012,0.0,0.0
3.638,8182.55,0.00012,0.0,0.0
3.644,8172.86,0.00012,0.0,0.0
3.65,8202.887,0.00012,0.0,0.0
3.657,8176.645,0.00012,0.0,0.0
3.663,8186.4,0.00012,0.0,0.0
3.669,8180.747,0.00012,0.0,0.0
3.676,8169.517,0.00012,0.0,0.0
3.682,8154.208,0.00012,0.0,0.0
3.688,8175.462,0.00012,0.0,0.0
3.695,8174.246,0.00012,0.0,0.0
3.701,8170.616,0.00012,0.0,0.0
3.707,8211.393,0.00012,0.0,0.0
3.714,8188.821,0.00012,0.0,0.0
3.72,8181.042,0.00012,0.0,0.0
3.726,8212.29,0.00012,0.0,0.0
3.732,8148.73,0.00012,0.0,0.0
3.739,8180.462,0.00012,0.0,0.0
3.745,8175.403,0.00012,0.0,0.0
3.751,8161.794,0.00012,0.0,0.0
3.758,8169.541,0.00012,0.0,0.0
3.764,8189.915,0.00012,0.0,0.0
3.77,8160.649,0.00012,0.0,0.0
3.777,8198.112,0.00012,0.0,0.0
3.783,8170.428,0.00012,0.0,0.0
3.789,8189.118,0.00012,0.0,0.0
3.796,8197.894,0.00012,0.0,0.0
3.802,8169.64,0.00012,0.0,0.0
3.808,8220.314,0.00012,0.0,0.0
3.815,8168.439,0.00012,0.0,0.0
3.821,8210.747,0.00012,0.0,0.0
3.827,8213.13,0.00012,0.0,0.0
3.834,8204.589,0.00012,0.0,0.0
3.84,8196.034,0.00012,0.0,0.0
3.846,8229.634,0.00012,0.0,0.0
3.853,8196.116,0.00012,0.0,0.0
3.859,8186.671,0.00012,0.0,0.0
3.865,8209.843,0.00012,0.0,0.0
3.872,8210.177,0.00012,0.0,0.0
3.878,8206.061,0.00012,0.0,0.0
3.884,8188.515,0.00012,0.0,0.0
3.89,8185.705,0.00012,0.0,0.0
3.897,8203.785,0.00012,0.0,0.0
3.903,8186.558,0.00012,0.0,0.0
3.909,8186.754,0.00012,0.0,0.0
3.916,8177.243,0.00012,0.0,0.0
3.922,8160.39,0.00012,0.0,0.0
3.928,8175.188,0.00012,0.0,0.0
3.935,8159.069,0.00012,0.0,0.0
3.941,8176.64,0.00012,0.0,0.0
3.947,8178.774,0.00012,0.0,0.0
3.954,8181.357,0.00012,0.0,0.0
3.96,8196.087,0.00012,0.0,0.0
3.966,8179.347,0.00012,0.0,0.0
3.973,8242.021,0.00012,0.0,0.0
3.979,8178.586,0.00012,0.0,0.0
3.985,8199.556,0.00012,0.0,0.0
3.992,8166.181,0.00012,0.0,0.0
3.998,8180.889,0.00012,0.0,0.0
4.004,8148.134,0.00012,0.0,0.0
4.011,8159.097,0.00012,0.0,0.0
4.017,8175.253,0.00012,0.0,0.0
4.023,8185.419,0.00012,0.0,0.0
4.03,8163.881,0.00012,0.0,0.0
4.036,8153.565,0.00012,0.0,0.0
4.042,8181.295,0.00012,0.0,0.0
4.048,8191.251,0.00012,0.0,0.0
4.055,8162.478,0.00012,0.0,0.0
4.061,8186.012,0.00012,0.0,0.0
4.067,8175.978,0.00012,0.0,0.0
4.074,8193.017,0.00012,0.0,0.0
4.08,8213.057,0.00012,0.0,0.0
4.086,8192.818,0.00012,0.0,0.0
4.093,8236.983,0.00012,0.0,0.0
4.099,8212.061,0.00012,0.0,0.0
4.105,8235.4,0.00012,0.0,0.0
4.112,8243.45,0.00012,0.0,0.0
4.118,8245.451,0.00012,0.0,0.0
4.124,8268.447,0.00012,0.0,0.0
4.131,8276.936,0.00012,0.0,0.0
4.137,8273.528,0.00012,0.0,0.0
4.143,8331.627,0.00012,0.0,0.0
4.15,8305.315,0.00012,0.0,0.0
4.156,8327.357,0.00012,0.0,0.0
4.162,8370.003,0.00012,0.0,0.0
4.169,8339.974,0.00012,0.0,0.0
4.175,8403.585,0.00012,0.0,0.0
4.181,8411.992,0.00012,0.0,0.0
4.188,8406.809,0.00012,0.0,0.0
4.194,8476.292,0.00012,0.0,0.0
4.2,8461.602,0.00012,0.0,0.0
4.206,8498.993,0.00012,0.0,0.0
4.213,8553.49,0.00012,0.0,0.0
4.219,8497.432,0.00012,0.0,0.0
4.225,8572.227,0.00012,0.0,0.0
4.232,8594.249,0.00012,0.0,0.0
4.238,8580.602,0.00012,0.0,0.0
4.244,8622.623,0.00012,0.0,0.0
4.251,8657.18,0.00012,0.0,0.0
4.257,8639.955,0.00012,0.0,0.0
4.263,8772.951,0.00011,0.0,0.0
4.27,8727.455,0.00011,0.0,0.0
4.276,8816.654,0.00011,0.0,0.0
4.282,8819.706,0.00011,0.0,0.0
4.289,8808.811,0.00011,0.0,0.0
4.295,8943.385,0.00011,0.0,0.0
4.301,8878.49,0.00011,0.0,0.0
4.308,8951.958,0.00011,0.0,0.0
4.314,9024.882,0.00011,0.0,0.0
4.32,9050.686,0.00011,0.0,0.0
4.327,9105.376,0.00011,0.0,0.0
4.333,9113.844,0.00011,0.0,0.0
4.339,9168.294,0.00011,0.0,0.0
4.346,9307.181,0.00011,0.0,0.0
4.352,9236.754,0.00011,0.0,0.0
4.358,9394.944,0.00011,0.0,0.0
4.364,9434.951,0.00011,0.0,0.0
4.371,9313.159,0.00011,0.0,0.0
4.377,9703.988,0.0001,0.0,0.0
4.383,9592.02,0.0001,0.0,0.0
4.39,9720.803,0.0001,0.0,0.0
4.396,9834.021,0.0001,0.0,0.0
4.402,9787.452,0.0001,0.0,0.0
4.409,9889.294,0.0001,0.0,0.0
4.415,10108.138,0.0001,0.0,0.0
4.421,10083.742,0.0001,0.0,0.0
4.428,10408.262,0.0001,0.0,0.0
4.434,10337.317,0.0001,0.0,0.0
4.44,10434.975,0.0001,0.0,0.0
4.447,10715.577,0.00009,0.0,0.0
4.453,10651.743,0.00009,0.0,0.0
4.459,11162.291,0.00009,0.0,0.0
4.466,11258.462,0.00009,0.0,0.0
4.472,11291.285,0.00009,0.0,0.0
4.478,11974.343,0.00008,0.0,0.0
4.485,11914.423,0.00008,0.0,0.0
4.491,12467.186,0.00008,0.0,0.0
4.497,13697.923,0.00007,0.0,0.0
4.504,13497.605,0.00007,0.0,0.0
4.51,16645.951,0.00006,0.0,0.0
4.516,17528.087,0.00006,0.0,0.0
4.522,20417.496,0.00005,0.0,0.0
4.529,29157.921,0.00003,0.0,0.0
4.535,41434.016,0.00002,0.0,0.0
4.541,58032.79,0.00002,0.0,0.0
4.548,88883.837,0.00001,0.0,0.0
4.554,74880.291,0.00001,0.0,0.0
4.56,101297.382,0.00001,0.0,0.0
4.567,85376.209,0.00001,0.0,0.0
4.573,83625.381,0.00001,0.0,0.0
4.579,73613.674,0.00001,0.0,0.0
4.586,50206.921,0.00002,0.0,0.0
4.592,48912.961,0.00002,0.0,0.0
4.598,30397.462,0.00003,0.0,0.0
4.605,26460.833,0.00004,0.0,0.0
4.611,19429.972,0.00005,0.0,0.0
4.617,16757.103,0.00006,0.0,0.0
4.624,14374.379,0.00007,0.0,0.0
4.63,14162.766,0.00007,0.0,0.0
4.636,12489.191,0.00008,0.0,0.0
4.643,12520.787,0.00008,0.0,0.0
4.649,11935.107,0.00008,0.0,0.0
4.655,11471.823,0.00009,0.0,0.0
4.662,11686.95,0.00009,0.0,0.0
4.668,11074.67,0.00009,0.0,0.0
4.674,10804.39,0.00009,0.0,0.0
4.68,11047.827,0.00009,0.0,0.0
4.687,10437.799,0.0001,0.0,0.0
4.693,10553.898,0.00009,0.0,0.0
4.699,10434.402,0.0001,0.0,0.0
4.706,10116.543,0.0001,0.0,0.0
4.712,10293.027,0.0001,0.0,0.0
4.718,10003.407,0.0001,0.0,0.0
4.725,9767.792,0.0001,0.0,0.0
4.731,10038.562,0.0001,0.0,0.0
4.737,9626.906,0.0001,0.0,0.0
4.744,9731.455,0.0001,0.0,0.0
4.75,9618.376,0.0001,0.0,0.0
4.756,9466.619,0.00011,0.0,0.0
4.763,9471.458,0.00011,0.0,0.0
4.769,9324.143,0.00011,0.0,0.0
4.775,9273.043,0.00011,0.0,0.0
4.782,9276.141,0.00011,0.0,0.0
4.788,9121.336,0.00011,0.0,0.0
4.794,9048.852,0.00011,0.0,0.0
4.801,9073.025,0.00011,0.0,0.0
4.807,8909.177,0.00011,0.0,0.0
4.813,8985.353,0.00011,0.0,0.0
4.82,8866.879,0.00011,0.0,0.0
4.826,8857.734,0.00011,0.0,0.0
4.832,8884.949,0.00011,0.0,0.0
4.838,8856.01,0.00011,0.0,0.0
4.845,8885.494,0.00011,0.0,0.0
4.851,9000.492,0.00011,0.0,0.0
4.857,8994.084,0.00011,0.0,0.0
4.864,8999.217,0.00011,0.0,0.0
4.87,8900.11,0.00011,0.0,0.0
4.876,8715.797,0.00011,0.0,0.0
4.883,8662.281,0.00012,0.0,0.0
4.889,8430.261,0.00012,0.0,0.0
4.895,8351.166,0.00012,0.0,0.0
4.902,8290.776,0.00012,0.0,0.0
4.908,8202.408,0.00012,0.0,0.0
4.914,8185.411,0.00012,0.0,0.0
4.921,8111.641,0.00012,0.0,0.0
4.927,8030.066,0.00012,0.0,0.0
4.933,8038.859,0.00012,0.0,0.0
4.94,7953.613,0.00013,0.0,0.0
4.946,7928.7,0.00013,0.0,0.0
4.952,7930.272,0.00013,0.0,0.0
4.959,7859.725,0.00013,0.0,0.0
4.965,7841.537,0.00013,0.0,0.0
4.971,7772.214,0.00013,0.0,0.0
4.978,7753.258,0.00013,0.0,0.0
4.984,7748.913,0.00013,0.0,0.0
4.99,7684.461,0.00013,0.0,0.0
4.996,7669.599,0.00013,0.0,0.0
5.003,7628.17,0.00013,0.0,0.0
5.009,7569.678,0.00013,0.0,0.0
5.015,7596.196,0.00013,0.0,0.0
5.022,7541.766,0.00013,0.0,0.0
5.028,7521.801,0.00013,0.0,0.0
5.034,7511.408,0.00013,0.0,0.0
5.041,7448.782,0.00013,0.0,0.0
5.047,7433.711,0.00013,0.0,0.0
5.053,7427.999,0.00013,0.0,0.0
5.06,7372.252,0.00014,0.0,0.0
5.066,7381.368,0.00014,0.0,0.0
5.072,7311.724,0.00014,0.0,0.0
5.079,7276.737,0.00014,0.0,0.0
5.085,7311.682,0.00014,0.0,0.0
5.091,7223.148,0.00014,0.0,0.0
5.098,7254.178,0.00014,0.0,0.0
5.104,7207.964,0.00014,0.0,0.0
5.11,7181.079,0.00014,0.0,0.0
5.117,7182.156,0.00014,0.0,0.0
5.123,7133.59,0.00014,0.0,0.0
5.129,7100.354,0.00014,0.0,0.0
5.136,7104.038,0.00014,0.0,0.0
5.142,7041.48,0.00014,0.0,0.0
5.148,7060.29,0.00014,0.0,0.0
5.154,7023.724,0.00014,0.0,0.0
5.161,6998.183,0.00014,0.0,0.0
5.167,7020.085,0.00014,0.0,0.0
5.173,6956.622,0.00014,0.0,0.0
5.18,6951.991,0.00014,0.0,0.0
5.186,6940.359,0.00014,0.0,0.0
5.192,6930.383,0.00014,0.0,0.0
5.199,6885.324,0.00015,0.0,0.0
5.205,6903.719,0.00014,0.0,0.0
5.211,6861.428,0.00015,0.0,0.0
5.218,6859.134,0.00015,0.0,0.0
5.224,6827.448,0.00015,0.0,0.0
5.23,6794.693,0.00015,0.0,0.0
5.237,6820.817,0.00015,0.0,0.0
5.243,6780.963,0.00015,0.0,0.0
5.249,6789.89,0.00015,0.0,0.0
5.256,6733.182,0.00015,0.0,0.0
5.262,6728.257,0.00015,0.0,0.0
5.268,6727.91,0.00015,0.0,0.0
5.275,6716.573,0.00015,0.0,0.0
5.281,6657.977,0.00015,0.0,0.0
5.287,6689.567,0.00015,0.0,0.0
5.294,6656.409,0.00015,0.0,0.0
5.3,6642.532,0.00015,0.0,0.0
5.306,6619.75,0.00015,0.0,0.0
5.312,6594.586,0.00015,0.0,0.0
5.319,6604.126,0.00015,0.0,0.0
5.325,6585.322,0.00015,0.0,0.0
5.331,6620.956,0.00015,0.0,0.0
5.338,6572.776,0.00015,0.0,0.0
5.344,6553.645,0.00015,0.0,0.0
5.35,6552.343,0.00015,0.0,0.0
5.357,6509.557,0.00015,0.0,0.0
5.363,6508.655,0.00015,0.0,0.0
5.369,6531.698,0.00015,0.0,0.0
5.376,6476.63,0.00015,0.0,0.0
5.382,6479.881,0.00015,0.0,0.0
5.388,6494.355,0.00015,0.0,0.0
5.395,6454.125,0.00015,0.0,0.0
5.401,6472.978,0.00015,0.0,0.0
5.407,6447.755,0.00016,0.0,0.0
5.414,6437.779,0.00016,0.0,0.0
5.42,6440.946,0.00016,0.0,0.0
5.426,6437.828,0.00016,0.0,0.0
5.433,6414.289,0.00016,0.0,0.0
5.439,6402.309,0.00016,0.0,0.0
5.445,6394.589,0.00016,0.0,0.0
5.452,6416.135,0.00016,0.0,0.0
5.458,6383.847,0.00016,0.0,0.0
5.464,6399.681,0.00016,0.0,0.0
5.47,6407.876,0.00016,0.0,0.0
5.477,6379.435,0.00016,0.0,0.0
5.483,6364.582,0.00016,0.0,0.0
5.489,6378.26,0.00016,0.0,0.0
5.496,6372.708,0.00016,0.0,0.0
5.502,6349.804,0.00016,0.0,0.0
5.508,6355.219,0.00016,0.0,0.0
5.515,6341.671,0.00016,0.0,0.0
5.521,6340.618,0.00016,0.0,0.0
5.527,6321.18,0.00016,0.0,0.0
5.534,6337.941,0.00016,0.0,0.0
5.54,6311.157,0.00016,0.0,0.0
5.546,6308.253,0.00016,0.0,0.0
5.553,6331.295,0.00016,0.0,0.0
5.559,6298.764,0.00016,0.0,0.0
5.565,6280.049,0.00016,0.0,0.0
5.572,6293.676,0.00016,0.0,0.0
5.578,6254.749,0.00016,0.0,0.0
5.584,6278.201,0.00016,0.0,0.0
5.591,6256.406,0.00016,0.0,0.0
5.597,6253.153,0.00016,0.0,0.0
5.603,6246.427,0.00016,0.0,0.0
5.61,6231.051,0.00016,0.0,0.0
5.616,6243.87,0.00016,0.0,0.0
5.622,6253.738,0.00016,0.0,0.0
5.628,6230.097,0.00016,0.0,0.0
5.635,6244.493,0.00016,0.0,0.0
5.641,6206.023,0.00016,0.0,0.0
5.647,6202.644,0.00016,0.0,0.0
5.654,6233.84,0.00016,0.0,0.0
5.66,6203.484,0.00016,0.0,0.0
5.666,6197.482,0.00016,0.0,0.0
5.673,6185.387,0.00016,0.0,0.0
5.679,6173.86,0.00016,0.0,0.0
5.685,6160.965,0.00016,0.0,0.0
5.692,6167.614,0.00016,0.0,0.0
5.698,6159.199,0.00016,0.0,0.0
5.704,6153.124,0.00016,0.0,0.0
5.711,6149.207,0.00016,0.0,0.0
5.717,6141.145,0.00016,0.0,0.0
5.723,6171.212,0.00016,0.0,0.0
5.73,6123.311,0.00016,0.0,0.0
5.736,6154.735,0.00016,0.0,0.0
5.742,6104.309,0.00016,0.0,0.0
5.749,6122.314,0.00016,0.0,0.0
5.755,6109.054,0.00016,0.0,0.0
5.761,6096.61,0.00016,0.0,0.0
5.768,6119.418,0.00016,0.0,0.0
5.774,6113.061,0.00016,0.0,0.0
5.78,6107.837,0.00016,0.0,0.0
5.786,6120.718,0.00016,0.0,0.0
5.793,6093.735,0.00016,0.0,0.0
5.799,6115.964,0.00016,0.0,0.0
5.805,6130.951,0.00016,0.0,0.0
5.812,6101.659,0.00016,0.0,0.0
5.818,6151.697,0.00016,0.0,0.0
5.824,6162.023,0.00016,0.0,0.0
5.831,6184.252,0.00016,0.0,0.0
5.837,6206.462,0.00016,0.0,0.0
5.843,6291.49,0.00016,0.0,0.0
5.85,6438.854,0.00016,0.0,0.0
5.856,6583.925,0.00015,0.0,0.0
5.862,6870.401,0.00015,0.0,0.0
5.869,7198.091,0.00014,0.0,0.0
5.875,7542.965,0.00013,0.0,0.0
5.881,7744.889,0.00013,0.0,0.0
5.888,7785.948,0.00013,0.0,0.0
5.894,7593.218,0.00013,0.0,0.0
5.9,7324.597,0.00014,0.0,0.0
5.907,6953.62,0.00014,0.0,0.0
5.913,6675.8,0.00015,0.0,0.0
5.919,6465.646,0.00015,0.0,0.0
5.926,6319.791,0.00016,0.0,0.0
5.932,6212.931,0.00016,0.0,0.0
5.938,6203.154,0.00016,0.0,0.0
5.944,6129.916,0.00016,0.0,0.0
5.951,6158.413,0.00016,0.0,0.0
5.957,6123.723,0.00016,0.0,0.0
5.963,6111.311,0.00016,0.0,0.0
5.97,6115.182,0.00016,0.0,0.0
5.976,6109.724,0.00016,0.0,0.0
5.982,6136.19,0.00016,0.0,0.0
5.989,6088.362,0.00016,0.0,0.0
5.995,6120.145,0.00016,0.0,0.0
6.001,6111.872,0.00016,0.0,0.0
6.008,6114.358,0.00016,0.0,0.0
6.014,6101.688,0.00016,0.0,0.0
6.02,6133.917,0.00016,0.0,0.0
6.027,6119.936,0.00016,0.0,0.0
6.033,6146.25,0.00016,0.0,0.0
6.039,6205.602,0.00016,0.0,0.0
6.046,6140.433,0.00016,0.0,0.0
6.052,6174.755,0.00016,0.0,0.0
6.058,6155.388,0.00016,0.0,0.0
6.065,6135.985,0.00016,0.0,0.0
6.071,6159.472,0.00016,0.0,0.0
6.077,6155.39,0.00016,0.0,0.0
6.084,6134.705,0.00016,0.0,0.0
6.09,6154.964,0.00016,0.0,0.0
6.096,6098.881,0.00016,0.0,0.0
6.102,6165.597,0.00016,0.0,0.0
6.109,6148.583,0.00016,0.0,0.0
6.115,6165.48,0.00016,0.0,0.0
6.121,6156.173,0.00016,0.0,0.0
6.128,6125.774,0.00016,0.0,0.0
6.134,6159.245,0.00016,0.0,0.0
6.14,6121.071,0.00016,0.0,0.0
6.147,6158.262,0.00016,0.0,0.0
6.153,6119.581,0.00016,0.0,0.0
6.159,6139.502,0.00016,0.0,0.0
6.166,6134.296,0.00016,0.0,0.0
6.172,6112.869,0.00016,0.0,0.0
6.178,6129.21,0.00016,0.0,0.0
6.185,6124.742,0.00016,0.0,0.0
6.191,6122.91,0.00016,0.0,0.0
6.197,6162.311,0.00016,0.0,0.0
6.204,6105.121,0.00016,0.0,0.0
6.21,6141.84,0.00016,0.0,0.0
6.216,6114.669,0.00016,0.0,0.0
6.223,6151.657,0.00016,0.0,0.0
6.229,6128.03,0.00016,0.0,0.0
6.235,6140.51,0.00016,0.0,0.0
6.242,6155.5,0.00016,0.0,0.0
6.248,6149.747,0.00016,0.0,0.0
6.254,6133.006,0.00016,0.0,0.0
6.26,6139.21,0.00016,0.0,0.0
6.267,6189.964,0.00016,0.0,0.0
6.273,6165.254,0.00016,0.0,0.0
6.279,6165.06,0.00016,0.0,0.0
6.286,6165.629,0.00016,0.0,0.0
6.292,6183.845,0.00016,0.0,0.0
6.298,6198.056,0.00016,0.0,0.0
6.305,6231.838,0.00016,0.0,0.0
6.311,6221.48,0.00016,0.0,0.0
6.317,6211.544,0.00016,0.0,0.0
6.324,6283.624,0.00016,0.0,0.0
6.33,6251.739,0.00016,0.0,0.0
6.336,6285.278,0.00016,0.0,0.0
6.343,6294.349,0.00016,0.0,0.0
6.349,6361.768,0.00016,0.0,0.0
6.355,6329.707,0.00016,0.0,0.0
6.362,6379.993,0.00016,0.0,0.0
6.368,6412.262,0.00016,0.0,0.0
6.374,6430.124,0.00016,0.0,0.0
6.381,6494.79,0.00015,0.0,0.0
6.387,6630.066,0.00015,0.0,0.0
6.393,6580.756,0.00015,0.0,0.0
6.4,6842.647,0.00015,0.0,0.0
6.406,7018.005,0.00014,0.0,0.0
6.412,7495.164,0.00013,0.0,0.0
6.418,8301.36,0.00012,0.0,0.0
6.425,9826.8,0.0001,0.0,0.0
6.431,14316.549,0.00007,0.0,0.0
6.437,16097.233,0.00006,0.0,0.0
6.444,21260.894,0.00005,0.0,0.0
6.45,24347.647,0.00004,0.0,0.0
6.456,19724.009,0.00005,0.0,0.0
6.463,20585.642,0.00005,0.0,0.0
6.469,20109.129,0.00005,0.0,0.0
6.475,12872.282,0.00008,0.0,0.0
6.482,12149.391,0.00008,0.0,0.0
6.488,8745.552,0.00011,0.0,0.0
6.494,7653.592,0.00013,0.0,0.0
6.501,7555.968,0.00013,0.0,0.0
6.507,7089.587,0.00014,0.0,0.0
6.513,6961.67,0.00014,0.0,0.0
6.52,6938.808,0.00014,0.0,0.0
6.526,6936.969,0.00014,0.0,0.0
6.532,6957.141,0.00014,0.0,0.0
6.539,7070.143,0.00014,0.0,0.0
6.545,7176.879,0.00014,0.0,0.0
6.551,7393.567,0.00014,0.0,0.0
6.558,7762.076,0.00013,0.0,0.0
6.564,8362.233,0.00012,0.0,0.0
6.57,9217.266,0.00011,0.0,0.0
6.576,11230.74,0.00009,0.0,0.0
6.583,14024.549,0.00007,0.0,0.0
6.589,20515.885,0.00005,0.0,0.0
6.595,34420.906,0.00003,0.0,0.0
6.602,49196.259,0.00002,0.0,0.0
6.608,79671.627,0.00001,0.0,0.0
6.614,96539.561,0.00001,0.0,0.0
6.621,110819.93,0.00001,0.0,0.0
6.627,103510.582,0.00001,0.0,0.0
6.633,79601.136,0.00001,0.0,0.0
6.64,54500.734,0.00002,0.0,0.0
6.646,38497.698,0.00003,0.0,0.0
6.652,21749.19,0.00005,0.0,0.0
6.659,16206.078,0.00006,0.0,0.0
6.665,11534.416,0.00009,0.0,0.0
6.671,9617.203,0.0001,0.0,0.0
6.678,8457.605,0.00012,0.0,0.0
6.684,7690.081,0.00013,0.0,0.0
6.69,7297.144,0.00014,0.0,0.0
6.697,6995.75,0.00014,0.0,0.0
6.703,6781.804,0.00015,0.0,0.0
6.709,6671.412,0.00015,0.0,0.0
6.716,6566.111,0.00015,0.0,0.0
6.722,6466.133,0.00015,0.0,0.0
6.728,6417.279,0.00016,0.0,0.0
6.734,6353.48,0.00016,0.0,0.0
6.741,6349.599,0.00016,0.0,0.0
6.747,6292.063,0.00016,0.0,0.0
6.753,6259.971,0.00016,0.0,0.0
6.76,6240.822,0.00016,0.0,0.0
6.766,6237.719,0.00016,0.0,0.0
6.772,6224.547,0.00016,0.0,0.0
6.779,6208.467,0.00016,0.0,0.0
6.785,6197.69,0.00016,0.0,0.0
6.791,6153.634,0.00016,0.0,0.0
6.798,6189.495,0.00016,0.0,0.0
6.804,6171.579,0.00016,0.0,0.0
6.81,6189.724,0.00016,0.0,0.0
6.817,6193.182,0.00016,0.0,0.0
6.823,6172.086,0.00016,0.0,0.0
6.829,6132.135,0.00016,0.0,0.0
6.836,6129.673,0.00016,0.0,0.0
6.842,6065.927,0.00016,0.0,0.0
6.848,6080.056,0.00016,0.0,0.0
6.855,6024.644,0.00017,0.0,0.0
6.861,5993.845,0.00017,0.0,0.0
6.867,6018.234,0.00017,0.0,0.0
6.874,5931.325,0.00017,0.0,0.0
6.88,5960.96,0.00017,0.0,0.0
6.886,5952.516,0.00017,0.0,0.0
6.892,5937.786,0.00017,0.0,0.0
6.899,5932.663,0.00017,0.0,0.0
6.905,5943.129,0.00017,0.0,0.0
6.911,5900.61,0.00017,0.0,0.0
6.918,5900.444,0.00017,0.0,0.0
6.924,5882.071,0.00017,0.0,0.0
6.93,5893.509,0.00017,0.0,0.0
6.937,5887.161,0.00017,0.0,0.0
6.943,5869.115,0.00017,0.0,0.0
6.949,5858.721,0.00017,0.0,0.0
6.956,5857.487,0.00017,0.0,0.0
6.962,5853.453,0.00017,0.0,0.0
6.968,5862.888,0.00017,0.0,0.0
6.975,5844.554,0.00017,0.0,0.0
6.981,5831.985,0.00017,0.0,0.0
6.987,5846.365,0.00017,0.0,0.0
6.994,5815.144,0.00017,0.0,0.0
7.0,5822.58,0.00017,0.0,0.0
7.006,5804.878,0.00017,0.0,0.0
7.013,5821.014,0.00017,0.0,0.0
7.019,5806.118,0.00017,0.0,0.0
7.025,5803.176,0.00017,0.0,0.0
7.032,5773.728,0.00017,0.0,0.0
7.038,5787.4,0.00017,0.0,0.0
7.044,5781.378,0.00017,0.0,0.0
7.05,5756.476,0.00017,0.0,0.0
7.057,5771.714,0.00017,0.0,0.0
7.063,5769.089,0.00017,0.0,0.0
7.069,5764.735,0.00017,0.0,0.0
7.076,5774.266,0.00017,0.0,0.0
7.082,5760.941,0.00017,0.0,0.0
7.088,5729.758,0.00017,0.0,0.0
7.095,5756.775,0.00017,0.0,0.0
7.101,5742.361,0.00017,0.0,0.0
7.107,5721.212,0.00017,0.0,0.0
7.114,5738.202,0.00017,0.0,0.0
7.12,5715.007,0.00017,0.0,0.0
7.126,5721.373,0.00017,0.0,0.0
7.133,5697.849,0.00018,0.0,0.0
7.139,5713.427,0.00018,0.0,0.0
7.145,5696.602,0.00018,0.0,0.0
7.152,5698.344,0.00018,0.0,0.0
7.158,5705.896,0.00018,0.0,0.0
7.164,5683.707,0.00018,0.0,0.0
7.171,5661.701,0.00018,0.0,0.0
7.177,5687.303,0.00018,0.0,0.0
7.183,5681.43,0.00018,0.0,0.0
7.19,5685.735,0.00018,0.0,0.0
7.196,5671.692,0.00018,0.0,0.0
7.202,5682.583,0.00018,0.0,0.0
7.208,5654.844,0.00018,0.0,0.0
7.215,5653.582,0.00018,0.0,0.0
7.221,5672.007,0.00018,0.0,0.0
7.227,5644.774,0.00018,0.0,0.0
7.234,5674.288,0.00018,0.0,0.0
7.24,5656.719,0.00018,0.0,0.0
7.246,5655.481,0.00018,0.0,0.0
7.253,5633.144,0.00018,0.0,0.0
7.259,5648.601,0.00018,0.0,0.0
7.265,5656.562,0.00018,0.0,0.0
7.272,5665.172,0.00018,0.0,0.0
7.278,5688.011,0.00018,0.0,0.0
7.284,5725.617,0.00017,0.0,0.0
7.291,5734.403,0.00017,0.0,0.0
7.297,5746.843,0.00017,0.0,0.0
7.303,5755.96,0.00017,0.0,0.0
7.31,5722.976,0.00017,0.0,0.0
7.316,5702.191,0.00018,0.0,0.0
7.322,5701.037,0.00018,0.0,0.0
7.329,5655.764,0.00018,0.0,0.0
7.335,5650.049,0.00018,0.0,0.0
7.341,5629.758,0.00018,0.0,0.0
7.348,5643.574,0.00018,0.0,0.0
7.354,5637.17,0.00018,0.0,0.0
7.36,5646.43,0.00018,0.0,0.0
7.366,5640.831,0.00018,0.0,0.0
7.373,5632.37,0.00018,0.0,0.0
7.379,5649.056,0.00018,0.0,0.0
7.385,5646.483,0.00018,0.0,0.0
7.392,5631.198,0.00018,0.0,0.0
7.398,5643.394,0.00018,0.0,0.0
7.404,5629.621,0.00018,0.0,0.0
7.411,5652.296,0.00018,0.0,0.0
7.417,5651.778,0.00018,0.0,0.0
7.423,5661.697,0.00018,0.0,0.0
7.43,5673.776,0.00018,0.0,0.0
7.436,5682.721,0.00018,0.0,0.0
7.442,5668.569,0.00018,0.0,0.0
7.449,5677.761,0.00018,0.0,0.0
7.455,5688.826,0.00018,0.0,0.0
7.461,5698.99,0.00018,0.0,0.0
7.468,5713.812,0.00018,0.0,0.0
7.474,5705.345,0.00018,0.0,0.0
7.48,5740.52,0.00017,0.0,0.0
7.487,5735.797,0.00017,0.0,0.0
7.493,5740.704,0.00017,0.0,0.0
7.499,5765.393,0.00017,0.0,0.0
7.506,5759.699,0.00017,0.0,0.0
7.512,5793.08,0.00017,0.0,0.0
7.518,5809.472,0.00017,0.0,0.0
7.524,5830.014,0.00017,0.0,0.0
7.531,5826.126,0.00017,0.0,0.0
7.537,5889.355,0.00017,0.0,0.0
7.543,5906.521,0.00017,0.0,0.0
7.55,5942.868,0.00017,0.0,0.0
7.556,6003.348,0.00017,0.0,0.0
7.562,6094.278,0.00016,0.0,0.0
7.569,6190.005,0.00016,0.0,0.0
7.575,6318.031,0.00016,0.0,0.0
7.581,6529.695,0.00015,0.0,0.0
7.588,6800.661,0.00015,0.0,0.0
7.594,7323.454,0.00014,0.0,0.0
7.6,8135.513,0.00012,0.0,0.0
7.607,9607.757,0.0001,0.0,0.0
7.613,11962.21,0.00008,0.0,0.0
7.619,16590.364,0.00006,0.0,0.0
7.626,25318.976,0.00004,0.0,0.0
7.632,33830.233,0.00003,0.0,0.0
7.638,40378.786,0.00002,0.0,0.0
7.645,53191.724,0.00002,0.0,0.0
7.651,50399.633,0.00002,0.0,0.0
7.657,42702.585,0.00002,0.0,0.0
7.664,35754.044,0.00003,0.0,0.0
7.67,21559.001,0.00005,0.0,0.0
7.676,16112.528,0.00006,0.0,0.0
7.682,11768.014,0.00008,0.0,0.0
7.689,9318.753,0.00011,0.0,0.0
7.695,8120.194,0.00012,0.0,0.0
7.701,7377.622,0.00014,0.0,0.0
7.708,6912.491,0.00014,0.0,0.0
7.714,6700.858,0.00015,0.0,0.0
7.72,6488.823,0.00015,0.0,0.0
7.727,6419.915,0.00016,0.0,0.0
7.733,6362.306,0.00016,0.0,0.0
7.739,6283.532,0.00016,0.0,0.0
7.746,6298.467,0.00016,0.0,0.0
7.752,6273.986,0.00016,0.0,0.0
7.758,6267.594,0.00016,0.0,0.0
7.765,6268.93,0.00016,0.0,0.0
7.771,6270.564,0.00016,0.0,0.0
7.777,6285.508,0.00016,0.0,0.0
7.784,6310.389,0.00016,0.0,0.0
7.79,6292.051,0.00016,0.0,0.0
7.796,6335.791,0.00016,0.0,0.0
7.803,6367.102,0.00016,0.0,0.0
7.809,6375.233,0.00016,0.0,0.0
7.815,6437.471,0.00016,0.0,0.0
7.822,6442.131,0.00016,0.0,0.0
7.828,6529.637,0.00015,0.0,0.0
7.834,6538.734,0.00015,0.0,0.0
7.84,6597.327,0.00015,0.0,0.0
7.847,6698.513,0.00015,0.0,0.0
7.853,6801.689,0.00015,0.0,0.0
7.859,6986.154,0.00014,0.0,0.0
7.866,7152.858,0.00014,0.0,0.0
7.872,8008.823,0.00012,0.0,0.0
7.878,8109.578,0.00012,0.0,0.0
7.885,11184.937,0.00009,0.0,0.0
7.891,10234.692,0.0001,0.0,0.0
7.897,15482.552,0.00006,0.0,0.0
7.904,13062.931,0.00008,0.0,0.0
7.91,20829.891,0.00005,0.0,0.0
7.916,15962.168,0.00006,0.0,0.0
7.923,14590.08,0.00007,0.0,0.0
7.929,11611.616,0.00009,0.0,0.0
7.935,9473.242,0.00011,0.0,0.0
7.942,8320.125,0.00012,0.0,0.0
7.948,7695.411,0.00013,0.0,0.0
7.954,7216.568,0.00014,0.0,0.0
7.961,7043.697,0.00014,0.0,0.0
7.967,6887.845,0.00015,0.0,0.0
7.973,6755.399,0.00015,0.0,0.0
7.98,6758.471,0.00015,0.0,0.0
7.986,6641.06,0.00015,0.0,0.0
7.992,6619.39,0.00015,0.0,0.0
7.998,6618.542,0.00015,0.0,0.0
8.005,6558.744,0.00015,0.0,0.0
8.011,6502.322,0.00015,0.0,0.0
8.017,6531.185,0.00015,0.0,0.0
8.024,6495.473,0.00015,0.0,0.0
8.03,6489.453,0.00015,0.0,0.0
8.036,6480.367,0.00015,0.0,0.0
8.043,6453.929,0.00015,0.0,0.0
8.049,6423.105,0.00016,0.0,0.0
8.055,6429.563,0.00016,0.0,0.0
8.062,6432.611,0.00016,0.0,0.0
8.068,6410.813,0.00016,0.0,0.0
8.074,6417.04,0.00016,0.0,0.0
8.081,6409.983,0.00016,0.0,0.0
8.087,6394.642,0.00016,0.0,0.0
8.093,6397.851,0.00016,0.0,0.0
8.1,6374.28,0.00016,0.0,0.0
8.106,6392.698,0.00016,0.0,0.0
8.112,6419.869,0.00016,0.0,0.0
8.119,6453.61,0.00015,0.0,0.0
8.125,6509.469,0.00015,0.0,0.0
8.131,6558.655,0.00015,0.0,0.0
8.138,6608.083,0.00015,0.0,0.0
8.144,6648.216,0.00015,0.0,0.0
8.15,6666.955,0.00015,0.0,0.0
8.156,6632.345,0.00015,0.0,0.0
8.163,6564.376,0.00015,0.0,0.0
8.169,6493.365,0.00015,0.0,0.0
8.175,6448.117,0.00016,0.0,0.0
8.182,6388.611,0.00016,0.0,0.0
8.188,6338.705,0.00016,0.0,0.0
8.194,6320.355,0.00016,0.0,0.0
8.201,6322.835,0.00016,0.0,0.0
8.207,6287.677,0.00016,0.0,0.0
8.213,6288.449,0.00016,0.0,0.0
8.22,6263.061,0.00016,0.0,0.0
8.226,6282.352,0.00016,0.0,0.0
8.232,6264.876,0.00016,0.0,0.0
8.239,6267.836,0.00016,0.0,0.0
8.245,6271.619,0.00016,0.0,0.0
8.251,6239.24,0.00016,0.0,0.0
8.258,6260.181,0.00016,0.0,0.0
8.264,6238.268,0.00016,0.0,0.0
8.27,6240.151,0.00016,0.0,0.0
8.277,6245.223,0.00016,0.0,0.0
8.283,6235.447,0.00016,0.0,0.0
8.289,6228.892,0.00016,0.0,0.0
8.296,6230.304,0.00016,0.0,0.0
8.302,6245.078,0.00016,0.0,0.0
8.308,6243.808,0.00016,0.0,0.0
8.314,6238.558,0.00016,0.0,0.0
8.321,6232.269,0.00016,0.0,0.0
8.327,6256.956,0.00016,0.0,0.0
8.333,6245.4,0.00016,0.0,0.0
8.34,6276.464,0.00016,0.0,0.0
8.346,6279.631,0.00016,0.0,0.0
8.352,6322.668,0.00016,0.0,0.0
8.359,6376.837,0.00016,0.0,0.0
8.365,6424.758,0.00016,0.0,0.0
8.371,6451.206,0.00016,0.0,0.0
8.378,6483.512,0.00015,0.0,0.0
8.384,6471.175,0.00015,0.0,0.0
8.39,6458.633,0.00015,0.0,0.0
8.397,6393.763,0.00016,0.0,0.0
8.403,6334.374,0.00016,0.0,0.0
8.409,6303.998,0.00016,0.0,0.0
8.416,6253.175,0.00016,0.0,0.0
8.422,6232.08,0.00016,0.0,0.0
8.428,6215.205,0.00016,0.0,0.0
8.435,6181.58,0.00016,0.0,0.0
8.441,6162.306,0.00016,0.0,0.0
8.447,6173.398,0.00016,0.0,0.0
8.454,6162.886,0.00016,0.0,0.0
8.46,6158.713,0.00016,0.0,0.0
8.466,6150.645,0.00016,0.0,0.0
8.472,6156.323,0.00016,0.0,0.0
8.479,6146.429,0.00016,0.0,0.0
8.485,6156.028,0.00016,0.0,0.0
8.491,6152.613,0.00016,0.0,0.0
8.498,6162.416,0.00016,0.0,0.0
8.504,6172.917,0.00016,0.0,0.0
8.51,6142.765,0.00016,0.0,0.0
8.517,6158.193,0.00016,0.0,0.0
8.523,6134.592,0.00016,0.0,0.0
8.529,6120.088,0.00016,0.0,0.0
8.536,6114.795,0.00016,0.0,0.0
8.542,6116.678,0.00016,0.0,0.0
8.548,6116.284,0.00016,0.0,0.0
8.555,6106.294,0.00016,0.0,0.0
8.561,6093.95,0.00016,0.0,0.0
8.567,6102.806,0.00016,0.0,0.0
8.574,6096.532,0.00016,0.0,0.0
8.58,6098.516,0.00016,0.0,0.0
8.586,6103.113,0.00016,0.0,0.0
8.593,6077.946,0.00016,0.0,0.0
8.599,6087.111,0.00016,0.0,0.0
8.605,6071.123,0.00016,0.0,0.0
8.612,6083.623,0.00016,0.0,0.0
8.618,6071.807,0.00016,0.0,0.0
8.624,6070.355,0.00016,0.0,0.0
8.63,6086.045,0.00016,0.0,0.0
8.637,6087.674,0.00016,0.0,0.0
8.643,6076.272,0.00016,0.0,0.0
8.649,6066.328,0.00016,0.0,0.0
8.656,6070.438,0.00016,0.0,0.0
8.662,6078.723,0.00016,0.0,0.0
8.668,6070.984,0.00016,0.0,0.0
8.675,6063.864,0.00016,0.0,0.0
8.681,6059.113,0.00017,0.0,0.0
8.687,6062.06,0.00016,0.0,0.0
8.694,6072.394,0.00016,0.0,0.0
8.7,6059.344,0.00017,0.0,0.0
8.706,6054.226,0.00017,0.0,0.0
8.713,6049.953,0.00017,0.0,0.0
8.719,6069.24,0.00016,0.0,0.0
8.725,6075.517,0.00016,0.0,0.0
8.732,6061.376,0.00016,0.0,0.0
8.738,6069.666,0.00016,0.0,0.0
8.744,6071.258,0.00016,0.0,0.0
8.751,6061.414,0.00016,0.0,0.0
8.757,6076.567,0.00016,0.0,0.0
8.763,6068.728,0.00016,0.0,0.0
8.77,6052.399,0.00017,0.0,0.0
8.776,6075.203,0.00016,0.0,0.0
8.782,6068.533,0.00016,0.0,0.0
8.788,6076.254,0.00016,0.0,0.0
8.795,6070.249,0.00016,0.0,0.0
8.801,6084.231,0.00016,0.0,0.0
8.807,6099.21,0.00016,0.0,0.0
8.814,6070.351,0.00016,0.0,0.0
8.82,6071.632,0.00016,0.0,0.0
8.826,6083.505,0.00016,0.0,0.0
8.833,6075.704,0.00016,0.0,0.0
8.839,6080.702,0.00016,0.0,0.0
8.845,6098.174,0.00016,0.0,0.0
8.852,6081.957,0.00016,0.0,0.0
8.858,6084.608,0.00016,0.0,0.0
8.864,6081.78,0.00016,0.0,0.0
8.871,6109.046,0.00016,0.0,0.0
8.877,6102.434,0.00016,0.0,0.0
8.883,6090.916,0.00016,0.0,0.0
8.89,6108.088,0.00016,0.0,0.0
8.896,6121.672,0.00016,0.0,0.0
8.902,6108.183,0.00016,0.0,0.0
8.909,6139.461,0.00016,0.0,0.0
8.915,6110.989,0.00016,0.0,0.0
8.921,6128.465,0.00016,0.0,0.0
8.928,6155.049,0.00016,0.0,0.0
8.934,6130.02,0.00016,0.0,0.0
8.94,6172.769,0.00016,0.0,0.0
8.946,6154.32,0.00016,0.0,0.0
8.953,6163.527,0.00016,0.0,0.0
8.959,6179.341,0.00016,0.0,0.0
8.965,6161.682,0.00016,0.0,0.0
8.972,6174.525,0.00016,0.0,0.0
8.978,6177.491,0.00016,0.0,0.0
8.984,6193.626,0.00016,0.0,0.0
8.991,6210.646,0.00016,0.0,0.0
8.997,6192.634,0.00016,0.0,0.0
9.003,6217.399,0.00016,0.0,0.0
9.01,6210.311,0.00016,0.0,0.0
9.016,6190.213,0.00016,0.0,0.0
9.022,6262.14,0.00016,0.0,0.0
9.029,6216.821,0.00016,0.0,0.0
9.035,6261.12,0.00016,0.0,0.0
9.041,6267.714,0.00016,0.0,0.0
9.048,6235.866,0.00016,0.0,0.0
9.054,6296.99,0.00016,0.0,0.0
9.06,6293.892,0.00016,0.0,0.0
9.067,6263.906,0.00016,0.0,0.0
9.073,6359.015,0.00016,0.0,0.0
9.079,6344.362,0.00016,0.0,0.0
9.086,6398.241,0.00016,0.0,0.0
9.092,6433.181,0.00016,0.0,0.0
9.098,6553.805,0.00015,0.0,0.0
9.104,6801.139,0.00015,0.0,0.0
9.111,6840.571,0.00015,0.0,0.0
9.117,8577.013,0.00012,0.0,0.0
9.123,7710.887,0.00013,0.0,0.0
9.13,9659.851,0.0001,0.0,0.0
9.136,9793.345,0.0001,0.0,0.0
9.142,9265.843,0.00011,0.0,0.0
9.149,12590.633,0.00008,0.0,0.0
9.155,8881.65,0.00011,0.0,0.0
9.161,7216.315,0.00014,0.0,0.0
9.168,9503.767,0.00011,0.0,0.0
9.174,6549.284,0.00015,0.0,0.0
9.18,6661.714,0.00015,0.0,0.0
9.187,6600.439,0.00015,0.0,0.0
9.193,6304.762,0.00016,0.0,0.0
9.199,6330.671,0.00016,0.0,0.0
9.206,6269.484,0.00016,0.0,0.0
9.212,6203.01,0.00016,0.0,0.0
9.218,6243.523,0.00016,0.0,0.0
9.225,6147.766,0.00016,0.0,0.0
9.231,6120.344,0.00016,0.0,0.0
9.237,6148.558,0.00016,0.0,0.0
9.244,6102.88,0.00016,0.0,0.0
9.25,6095.856,0.00016,0.0,0.0
9.256,6081.692,0.00016,0.0,0.0
9.262,6033.995,0.00017,0.0,0.0
9.269,6079.495,0.00016,0.0,0.0
9.275,6029.725,0.00017,0.0,0.0
9.281,6028.533,0.00017,0.0,0.0
9.288,6037.91,0.00017,0.0,0.0
9.294,5989.824,0.00017,0.0,0.0
9.3,5986.247,0.00017,0.0,0.0
9.307,5978.995,0.00017,0.0,0.0
9.313,5941.904,0.00017,0.0,0.0
9.319,5948.753,0.00017,0.0,0.0
9.326,5921.25,0.00017,0.0,0.0
9.332,5924.44,0.00017,0.0,0.0
9.338,5925.906,0.00017,0.0,0.0
9.345,5900.371,0.00017,0.0,0.0
9.351,5886.821,0.00017,0.0,0.0
9.357,5862.386,0.00017,0.0,0.0
9.364,5874.939,0.00017,0.0,0.0
9.37,5847.013,0.00017,0.0,0.0
9.376,5838.465,0.00017,0.0,0.0
9.383,5844.875,0.00017,0.0,0.0
9.389,5827.329,0.00017,0.0,0.0
9.395,5820.161,0.00017,0.0,0.0
9.402,5796.397,0.00017,0.0,0.0
9.408,5802.608,0.00017,0.0,0.0
9.414,5779.899,0.00017,0.0,0.0
9.42,5770.232,0.00017,0.0,0.0
9.427,5777.236,0.00017,0.0,0.0
9.433,5739.677,0.00017,0.0,0.0
9.439,5747.198,0.00017,0.0,0.0
9.446,5750.922,0.00017,0.0,0.0
9.452,5737.465,0.00017,0.0,0.0
9.458,5736.873,0.00017,0.0,0.0
9.465,5758.641,0.00017,0.0,0.0
9.471,5762.689,0.00017,0.0,0.0
9.477,5765.015,0.00017,0.0,0.0
9.484,5782.218,0.00017,0.0,0.0
9.49,5785.012,0.00017,0.0,0.0
9.496,5804.765,0.00017,0.0,0.0
9.503,5772.04,0.00017,0.0,0.0
9.509,5749.781,0.00017,0.0,0.0
9.515,5729.46,0.00017,0.0,0.0
9.522,5712.774,0.00018,0.0,0.0
9.528,5663.574,0.00018,0.0,0.0
9.534,5643.547,0.00018,0.0,0.0
9.541,5621.947,0.00018,0.0,0.0
9.547,5600.024,0.00018,0.0,0.0
9.553,5587.755,0.00018,0.0,0.0
9.56,5572.195,0.00018,0.0,0.0
9.566,5560.765,0.00018,0.0,0.0
9.572,5566.794,0.00018,0.0,0.0
9.578,5560.94,0.00018,0.0,0.0
9.585,5548.329,0.00018,0.0,0.0
9.591,5539.345,0.00018,0.0,0.0
9.597,5529.153,0.00018,0.0,0.0
9.604,5531.083,0.00018,0.0,0.0
9.61,5507.274,0.00018,0.0,0.0
9.616,5527.327,0.00018,0.0,0.0
9.623,5502.257,0.00018,0.0,0.0
9.629,5507.581,0.00018,0.0,0.0
9.635,5494.766,0.00018,0.0,0.0
9.642,5492.108,0.00018,0.0,0.0
9.648,5455.941,0.00018,0.0,0.0
9.654,5485.527,0.00018,0.0,0.0
9.661,5473.148,0.00018,0.0,0.0
9.667,5462.44,0.00018,0.0,0.0
9.673,5465.957,0.00018,0.0,0.0
9.68,5454.08,0.00018,0.0,0.0
9.686,5454.082,0.00018,0.0,0.0
9.692,5441.062,0.00018,0.0,0.0
9.699,5441.5,0.00018,0.0,0.0
9.705,5454.658,0.00018,0.0,0.0
9.711,5428.6,0.00018,0.0,0.0
9.718,5446.088,0.00018,0.0,0.0
9.724,5429.14,0.00018,0.0,0.0
9.73,5426.072,0.00018,0.0,0.0
9.736,5431.93,0.00018,0.0,0.0
9.743,5422.083,0.00018,0.0,0.0
9.749,5432.441,0.00018,0.0,0.0
9.755,5405.49,0.00018,0.0,0.0
9.762,5398.432,0.00019,0.0,0.0
9.768,5407.514,0.00018,0.0,0.0
9.774,5402.411,0.00019,0.0,0.0
9.781,5385.467,0.00019,0.0,0.0
9.787,5427.597,0.00018,0.0,0.0
9.793,5407.497,0.00018,0.0,0.0
9.8,5409.313,0.00018,0.0,0.0
9.806,5413.665,0.00018,0.0,0.0
9.812,5391.585,0.00019,0.0,0.0
9.819,5430.318,0.00018,0.0,0.0
9.825,5390.227,0.00019,0.0,0.0
9.831,5399.412,0.00019,0.0,0.0
9.838,5398.852,0.00019,0.0,0.0
9.844,5387.759,0.00019,0.0,0.0
9.85,5410.933,0.00018,0.0,0.0
9.857,5383.843,0.00019,0.0,0.0
9.863,5366.373,0.00019,0.0,0.0
9.869,5391.862,0.00019,0.0,0.0
9.876,5375.924,0.00019,0.0,0.0
9.882,5384.354,0.00019,0.0,0.0
9.888,5370.884,0.00019,0.0,0.0
9.894,5349.829,0.00019,0.0,0.0
9.901,5399.359,0.00019,0.0,0.0
9.907,5352.602,0.00019,0.0,0.0
9.913,5377.493,0.00019,0.0,0.0
9.92,5375.355,0.00019,0.0,0.0
9.926,5368.323,0.00019,0.0,0.0
9.932,5410.861,0.00018,0.0,0.0
9.939,5358.369,0.00019,0.0,0.0
9.945,5385.969,0.00019,0.0,0.0
9.951,5405.4,0.00019,0.0,0.0
9.958,5386.619,0.00019,0.0,0.0
9.964,5372.841,0.00019,0.0,0.0
9.97,5395.903,0.00019,0.0,0.0
9.977,5391.421,0.00019,0.0,0.0
9.983,5413.751,0.00018,0.0,0.0
9.989,5403.449,0.00019,0.0,0.0
9.996,5402.743,0.00019,0.0,0.0
10.002,5414.245,0.00018,0.0,0.0
10.008,5385.645,0.00019,0.0,0.0
10.015,5421.659,0.00018,0.0,0.0
10.021,5418.817,0.00018,0.0,0.0
10.027,5433.094,0.00018,0.0,0.0
10.034,5428.898,0.00018,0.0,0.0
10.04,5439.823,0.00018,0.0,0.0
10.046,5451.897,0.00018,0.0,0.0
10.052,5443.783,0.00018,0.0,0.0
10.059,5443.213,0.00018,0.0,0.0
10.065,5466.271,0.00018,0.0,0.0
10.071,5481.611,0.00018,0.0,0.0
10.078,5467.224,0.00018,0.0,0.0
10.084,5480.277,0.00018,0.0,0.0
10.09,5467.925,0.00018,0.0,0.0
10.097,5539.379,0.00018,0.0,0.0
10.103,5455.205,0.00018,0.0,0.0
10.109,5551.619,0.00018,0.0,0.0
10.116,5574.494,0.00018,0.0,0.0
10.122,5554.29,0.00018,0.0,0.0
10.128,5634.947,0.00018,0.0,0.0
10.135,5620.659,0.00018,0.0,0.0
10.141,5714.745,0.00017,0.0,0.0
10.147,5705.827,0.00018,0.0,0.0
10.154,5819.277,0.00017,0.0,0.0
10.16,5877.818,0.00017,0.0,0.0
10.166,6369.01,0.00016,0.0,0.0
10.173,6459.672,0.00015,0.0,0.0
10.179,7672.337,0.00013,0.0,0.0
10.185,10582.699,0.00009,0.0,0.0
10.192,10549.895,0.00009,0.0,0.0
10.198,13572.489,0.00007,0.0,0.0
10.204,17055.244,0.00006,0.0,0.0
10.21,20530.819,0.00005,0.0,0.0
10.217,20697.756,0.00005,0.0,0.0
10.223,19966.388,0.00005,0.0,0.0
10.229,13565.537,0.00007,0.0,0.0
10.236,18005.863,0.00006,0.0,0.0
10.242,8369.033,0.00012,0.0,0.0
10.248,9467.76,0.00011,0.0,0.0
10.255,6942.044,0.00014,0.0,0.0
10.261,6319.073,0.00016,0.0,0.0
10.267,6238.06,0.00016,0.0,0.0
10.274,5769.961,0.00017,0.0,0.0
10.28,5855.456,0.00017,0.0,0.0
10.286,5583.939,0.00018,0.0,0.0
10.293,5658.729,0.00018,0.0,0.0
10.299,5553.203,0.00018,0.0,0.0
10.305,5532.631,0.00018,0.0,0.0
10.312,5533.179,0.00018,0.0,0.0
10.318,5493.45,0.00018,0.0,0.0
10.324,5483.694,0.00018,0.0,0.0
10.331,5432.436,0.00018,0.0,0.0
10.337,5415.625,0.00018,0.0,0.0
10.343,5434.219,0.00018,0.0,0.0
10.35,5398.207,0.00019,0.0,0.0
10.356,5386.988,0.00019,0.0,0.0
10.362,5381.356,0.00019,0.0,0.0
10.368,5328.538,0.00019,0.0,0.0
10.375,5384.066,0.00019,0.0,0.0
10.381,5295.811,0.00019,0.0,0.0
10.387,5317.948,0.00019,0.0,0.0
10.394,5334.446,0.00019,0.0,0.0
10.4,5281.781,0.00019,0.0,0.0
10.406,5323.282,0.00019,0.0,0.0
10.413,5261.927,0.00019,0.0,0.0
10.419,5261.64,0.00019,0.0,0.0
10.425,5269.955,0.00019,0.0,0.0
10.432,5230.045,0.00019,0.0,0.0
10.438,5253.472,0.00019,0.0,0.0
10.444,5253.083,0.00019,0.0,0.0
10.451,5211.76,0.00019,0.0,0.0
10.457,5257.234,0.00019,0.0,0.0
10.463,5215.384,0.00019,0.0,0.0
10.47,5214.237,0.00019,0.0,0.0
10.476,5212.182,0.00019,0.0,0.0
10.482,5175.798,0.00019,0.0,0.0
10.489,5224.716,0.00019,0.0,0.0
10.495,5187.602,0.00019,0.0,0.0
10.501,5164.085,0.00019,0.0,0.0
10.508,5195.401,0.00019,0.0,0.0
10.514,5160.392,0.00019,0.0,0.0
10.52,5182.926,0.00019,0.0,0.0
10.526,5152.965,0.00019,0.0,0.0
10.533,5144.876,0.00019,0.0,0.0
10.539,5158.189,0.00019,0.0,0.0
10.545,5149.225,0.00019,0.0,0.0
10.552,5143.604,0.00019,0.0,0.0
10.558,5144.857,0.00019,0.0,0.0
10.564,5097.355,0.0002,0.0,0.0
10.571,5145.154,0.00019,0.0,0.0
10.577,5120.87,0.0002,0.0,0.0
10.583,5125.655,0.0002,0.0,0.0
10.59,5115.608,0.0002,0.0,0.0
10.596,5099.836,0.0002,0.0,0.0
10.602,5134.803,0.00019,0.0,0.0
10.609,5100.946,0.0002,0.0,0.0
10.615,5106.12,0.0002,0.0,0.0
10.621,5122.215,0.0002,0.0,0.0
10.628,5109.78,0.0002,0.0,0.0
10.634,5107.374,0.0002,0.0,0.0
10.64,5111.653,0.0002,0.0,0.0
10.647,5089.368,0.0002,0.0,0.0
10.653,5106.045,0.0002,0.0,0.0
10.659,5099.334,0.0002,0.0,0.0
10.666,5102.184,0.0002,0.0,0.0
10.672,5110.178,0.0002,0.0,0.0
10.678,5087.165,0.0002,0.0,0.0
10.684,5118.149,0.0002,0.0,0.0
10.691,5101.662,0.0002,0.0,0.0
10.697,5111.973,0.0002,0.0,0.0
10.703,5128.79,0.00019,0.0,0.0
10.71,5125.875,0.0002,0.0,0.0
10.716,5127.276,0.0002,0.0,0.0
10.722,5141.824,0.00019,0.0,0.0
10.729,5164.097,0.00019,0.0,0.0
10.735,5193.259,0.00019,0.0,0.0
10.741,5226.905,0.00019,0.0,0.0
10.748,5262.277,0.00019,0.0,0.0
10.754,5347.384,0.00019,0.0,0.0
10.76,5436.215,0.00018,0.0,0.0
10.767,5628.383,0.00018,0.0,0.0
10.773,5855.591,0.00017,0.0,0.0
10.779,6324.566,0.00016,0.0,0.0
10.786,7176.28,0.00014,0.0,0.0
10.792,8867.68,0.00011,0.0,0.0
10.798,11567.234,0.00009,0.0,0.0
10.805,15634.986,0.00006,0.0,0.0
10.811,22203.828,0.00005,0.0,0.0
10.817,26959.557,0.00004,0.0,0.0
10.824,32320.949,0.00003,0.0,0.0
10.83,33836.873,0.00003,0.0,0.0
10.836,27799.468,0.00004,0.0,0.0
10.842,23982.033,0.00004,0.0,0.0
10.849,16790.088,0.00006,0.0,0.0
10.855,11102.205,0.00009,0.0,0.0
10.861,8909.018,0.00011,0.0,0.0
10.868,7204.078,0.00014,0.0,0.0
10.874,6296.498,0.00016,0.0,0.0
10.88,5847.001,0.00017,0.0,0.0
10.887,5534.867,0.00018,0.0,0.0
10.893,5381.771,0.00019,0.0,0.0
10.899,5280.591,0.00019,0.0,0.0
10.906,5200.99,0.00019,0.0,0.0
10.912,5157.917,0.00019,0.0,0.0
10.918,5110.647,0.0002,0.0,0.0
10.925,5095.871,0.0002,0.0,0.0
10.931,5102.847,0.0002,0.0,0.0
10.937,5081.105,0.0002,0.0,0.0
10.944,5076.175,0.0002,0.0,0.0
10.95,5060.833,0.0002,0.0,0.0
10.956,5026.042,0.0002,0.0,0.0
10.963,5037.458,0.0002,0.0,0.0
10.969,5002.028,0.0002,0.0,0.0
10.975,5001.032,0.0002,0.0,0.0
10.982,4996.91,0.0002,0.0,0.0
10.988,4960.92,0.0002,0.0,0.0
10.994,4950.809,0.0002,0.0,0.0
11.0,4936.897,0.0002,0.0,0.0
11.007,4949.243,0.0002,0.0,0.0
11.013,4944.097,0.0002,0.0,0.0
11.019,4917.283,0.0002,0.0,0.0
11.026,4910.043,0.0002,0.0,0.0
11.032,4908.902,0.0002,0.0,0.0
11.038,4907.467,0.0002,0.0,0.0
11.045,4882.787,0.0002,0.0,0.0
11.051,4882.351,0.0002,0.0,0.0
11.057,4880.753,0.0002,0.0,0.0
11.064,4895.362,0.0002,0.0,0.0
11.07,4870.91,0.00021,0.0,0.0
11.076,4876.479,0.00021,0.0,0.0
11.083,4871.578,0.00021,0.0,0.0
11.089,4860.298,0.00021,0.0,0.0
11.095,4853.164,0.00021,0.0,0.0
11.102,4849.522,0.00021,0.0,0.0
11.108,4851.888,0.00021,0.0,0.0
11.114,4846.376,0.00021,0.0,0.0
11.121,4835.776,0.00021,0.0,0.0
11.127,4833.026,0.00021,0.0,0.0
11.133,4833.608,0.00021,0.0,0.0
11.14,4837.708,0.00021,0.0,0.0
11.146,4833.179,0.00021,0.0,0.0
11.152,4822.901,0.00021,0.0,0.0
11.158,4822.286,0.00021,0.0,0.0
11.165,4831.49,0.00021,0.0,0.0
11.171,4843.589,0.00021,0.0,0.0
11.177,4843.565,0.00021,0.0,0.0
11.184,4869.004,0.00021,0.0,0.0
11.19,4870.545,0.00021,0.0,0.0
11.196,4932.616,0.0002,0.0,0.0
11.203,4888.435,0.0002,0.0,0.0
11.209,4938.913,0.0002,0.0,0.0
11.215,4839.674,0.00021,0.0,0.0
11.222,4958.496,0.0002,0.0,0.0
11.228,4828.806,0.00021,0.0,0.0
11.234,4866.399,0.00021,0.0,0.0
11.241,4807.947,0.00021,0.0,0.0
11.247,4800.896,0.00021,0.0,0.0
11.253,4782.011,0.00021,0.0,0.0
11.26,4777.626,0.00021,0.0,0.0
11.266,4778.625,0.00021,0.0,0.0
11.272,4776.003,0.00021,0.0,0.0
11.279,4769.767,0.00021,0.0,0.0
11.285,4770.598,0.00021,0.0,0.0
11.291,4763.39,0.00021,0.0,0.0
11.298,4760.798,0.00021,0.0,0.0
11.304,4753.066,0.00021,0.0,0.0
11.31,4756.74,0.00021,0.0,0.0
11.316,4747.36,0.00021,0.0,0.0
11.323,4767.037,0.00021,0.0,0.0
11.329,4751.589,0.00021,0.0,0.0
11.335,4737.516,0.00021,0.0,0.0
11.342,4745.065,0.00021,0.0,0.0
11.348,4727.883,0.00021,0.0,0.0
11.354,4727.715,0.00021,0.0,0.0
11.361,4740.364,0.00021,0.0,0.0
11.367,4724.816,0.00021,0.0,0.0
11.373,4720.079,0.00021,0.0,0.0
11.38,4749.289,0.00021,0.0,0.0
11.386,4724.382,0.00021,0.0,0.0
11.392,4731.044,0.00021,0.0,0.0
11.399,4726.619,0.00021,0.0,0.0
11.405,4715.254,0.00021,0.0,0.0
11.411,4720.181,0.00021,0.0,0.0
11.418,4712.8,0.00021,0.0,0.0
11.424,4714.396,0.00021,0.0,0.0
11.43,4698.611,0.00021,0.0,0.0
11.437,4703.625,0.00021,0.0,0.0
11.443,4705.692,0.00021,0.0,0.0
11.449,4692.809,0.00021,0.0,0.0
11.456,4709.556,0.00021,0.0,0.0
11.462,4703.427,0.00021,0.0,0.0
11.468,4700.384,0.00021,0.0,0.0
11.474,4703.874,0.00021,0.0,0.0
11.481,4700.745,0.00021,0.0,0.0
11.487,4698.296,0.00021,0.0,0.0
11.493,4710.091,0.00021,0.0,0.0
11.5,4720.564,0.00021,0.0,0.0
11.506,4714.816,0.00021,0.0,0.0
11.512,4727.99,0.00021,0.0,0.0
11.519,4741.335,0.00021,0.0,0.0
11.525,4748.096,0.00021,0.0,0.0
11.531,4746.998,0.00021,0.0,0.0
11.538,4769.527,0.00021,0.0,0.0
11.544,4744.031,0.00021,0.0,0.0
11.55,4747.283,0.00021,0.0,0.0
11.557,4715.002,0.00021,0.0,0.0
11.563,4714.018,0.00021,0.0,0.0
11.569,4706.392,0.00021,0.0,0.0
11.576,4687.86,0.00021,0.0,0.0
11.582,4682.427,0.00021,0.0,0.0
11.588,4675.879,0.00021,0.0,0.0
11.595,4664.225,0.00021,0.0,0.0
11.601,4661.905,0.00021,0.0,0.0
11.607,4663.172,0.00021,0.0,0.0
11.614,4667.033,0.00021,0.0,0.0
11.62,4665.773,0.00021,0.0,0.0
11.626,4661.468,0.00021,0.0,0.0
11.632,4652.762,0.00021,0.0,0.0
11.639,4661.765,0.00021,0.0,0.0
11.645,4647.518,0.00022,0.0,0.0
11.651,4656.637,0.00021,0.0,0.0
11.658,4654.051,0.00021,0.0,0.0
11.664,4650.783,0.00022,0.0,0.0
11.67,4651.002,0.00022,0.0,0.0
11.677,4650.311,0.00022,0.0,0.0
11.683,4660.704,0.00021,0.0,0.0
11.689,4639.594,0.00022,0.0,0.0
11.696,4645.616,0.00022,0.0,0.0
11.702,4644.568,0.00022,0.0,0.0
11.708,4648.379,0.00022,0.0,0.0
11.715,4646.356,0.00022,0.0,0.0
11.721,4653.618,0.00021,0.0,0.0
11.727,4635.789,0.00022,0.0,0.0
11.734,4644.255,0.00022,0.0,0.0
11.74,4635.349,0.00022,0.0,0.0
11.746,4635.72,0.00022,0.0,0.0
11.753,4640.43,0.00022,0.0,0.0
11.759,4627.961,0.00022,0.0,0.0
11.765,4638.117,0.00022,0.0,0.0
11.772,4650.861,0.00022,0.0,0.0
11.778,4649.747,0.00022,0.0,0.0
11.784,4642.86,0.00022,0.0,0.0
11.79,4653.906,0.00021,0.0,0.0
11.797,4642.79,0.00022,0.0,0.0
11.803,4637.291,0.00022,0.0,0.0
11.809,4637.885,0.00022,0.0,0.0
11.816,4634.697,0.00022,0.0,0.0
11.822,4642.07,0.00022,0.0,0.0
11.828,4651.09,0.00022,0.0,0.0
11.835,4640.029,0.00022,0.0,0.0
11.841,4635.97,0.00022,0.0,0.0
11.847,4636.042,0.00022,0.0,0.0
11.854,4631.463,0.00022,0.0,0.0
11.86,4622.145,0.00022,0.0,0.0
11.866,4632.039,0.00022,0.0,0.0
11.873,4626.066,0.00022,0.0,0.0
11.879,4627.591,0.00022,0.0,0.0
11.885,4641.363,0.00022,0.0,0.0
11.892,4622.405,0.00022,0.0,0.0
11.898,4636.697,0.00022,0.0,0.0
11.904,4634.363,0.00022,0.0,0.0
11.911,4632.926,0.00022,0.0,0.0
11.917,4627.901,0.00022,0.0,0.0
11.923,4644.761,0.00022,0.0,0.0
11.93,4629.667,0.00022,0.0,0.0
11.936,4641.73,0.00022,0.0,0.0
11.942,4646.22,0.00022,0.0,0.0
11.948,4651.003,0.00022,0.0,0.0
11.955,4642.036,0.00022,0.0,0.0
11.961,4657.381,0.00021,0.0,0.0
11.967,4643.262,0.00022,0.0,0.0
11.974,4655.002,0.00021,0.0,0.0
11.98,4654.794,0.00021,0.0,0.0
11.986,4632.708,0.00022,0.0,0.0
11.993,4650.474,0.00022,0.0,0.0
11.999,4665.173,0.00021,0.0,0.0
12.005,4654.625,0.00021,0.0,0.0
12.012,4660.657,0.00021,0.0,0.0
12.018,4661.03,0.00021,0.0,0.0
12.024,4669.777,0.00021,0.0,0.0
12.031,4666.922,0.00021,0.0,0.0
12.037,4713.889,0.00021,0.0,0.0
12.043,4704.868,0.00021,0.0,0.0
12.05,4772.871,0.00021,0.0,0.0
12.056,4760.501,0.00021,0.0,0.0
12.062,4796.627,0.00021,0.0,0.0
12.069,5249.978,0.00019,0.0,0.0
12.075,5082.779,0.0002,0.0,0.0
12.081,6578.837,0.00015,0.0,0.0
12.088,6218.315,0.00016,0.0,0.0
12.094,6110.827,0.00016,0.0,0.0
12.1,7960.381,0.00013,0.0,0.0
12.106,6149.34,0.00016,0.0,0.0
12.113,6464.644,0.00015,0.0,0.0
12.119,5453.078,0.00018,0.0,0.0
12.125,5230.73,0.00019,0.0,0.0
12.132,5021.292,0.0002,0.0,0.0
12.138,4849.004,0.00021,0.0,0.0
12.144,4754.732,0.00021,0.0,0.0
12.151,4737.923,0.00021,0.0,0.0
12.157,4683.736,0.00021,0.0,0.0
12.163,4682.492,0.00021,0.0,0.0
12.17,4658.356,0.00021,0.0,0.0
12.176,4641.897,0.00022,0.0,0.0
12.182,4632.727,0.00022,0.0,0.0
12.189,4638.74,0.00022,0.0,0.0
12.195,4615.831,0.00022,0.0,0.0
12.201,4586.546,0.00022,0.0,0.0
12.208,4591.436,0.00022,0.0,0.0
12.214,4576.659,0.00022,0.0,0.0
12.22,4574.443,0.00022,0.0,0.0
12.227,4565.385,0.00022,0.0,0.0
12.233,4566.764,0.00022,0.0,0.0
12.239,4562.22,0.00022,0.0,0.0
12.246,4544.046,0.00022,0.0,0.0
12.252,4552.409,0.00022,0.0,0.0
12.258,4534.528,0.00022,0.0,0.0
12.264,4524.697,0.00022,0.0,0.0
12.271,4539.483,0.00022,0.0,0.0
12.277,4526.823,0.00022,0.0,0.0
12.283,4519.97,0.00022,0.0,0.0
12.29,4515.46,0.00022,0.0,0.0
12.296,4514.528,0.00022,0.0,0.0
12.302,4521.224,0.00022,0.0,0.0
12.309,4477.11,0.00022,0.0,0.0
12.315,4507.176,0.00022,0.0,0.0
12.321,4505.608,0.00022,0.0,0.0
12.328,4486.42,0.00022,0.0,0.0
12.334,4488.034,0.00022,0.0,0.0
12.34,4482.878,0.00022,0.0,0.0
12.347,4491.428,0.00022,0.0,0.0
12.353,4476.363,0.00022,0.0,0.0
12.359,4468.1,0.00022,0.0,0.0
12.366,4460.439,0.00022,0.0,0.0
12.372,4455.511,0.00022,0.0,0.0
12.378,4474.895,0.00022,0.0,0.0
12.385,4468.398,0.00022,0.0,0.0
12.391,4476.877,0.00022,0.0,0.0
12.397,4469.713,0.00022,0.0,0.0
12.404,4463.652,0.00022,0.0,0.0
12.41,4460.072,0.00022,0.0,0.0
12.416,4461.257,0.00022,0.0,0.0
12.422,4452.322,0.00022,0.0,0.0
12.429,4452.426,0.00022,0.0,0.0
12.435,4460.479,0.00022,0.0,0.0
12.441,4448.051,0.00022,0.0,0.0
12.448,4451.81,0.00022,0.0,0.0
12.454,4446.495,0.00022,0.0,0.0
12.46,4453.027,0.00022,0.0,0.0
12.467,4449.368,0.00022,0.0,0.0
12.473,4450.277,0.00022,0.0,0.0
12.479,4448.729,0.00022,0.0,0.0
12.486,4448.881,0.00022,0.0,0.0
12.492,4457.163,0.00022,0.0,0.0
12.498,4449.831,0.00022,0.0,0.0
12.505,4446.364,0.00022,0.0,0.0
12.511,4465.071,0.00022,0.0,0.0
12.517,4466.97,0.00022,0.0,0.0
12.524,4479.165,0.00022,0.0,0.0
12.53,4477.13,0.00022,0.0,0.0
12.536,4474.48,0.00022,0.0,0.0
12.543,4475.851,0.00022,0.0,0.0
12.549,4463.791,0.00022,0.0,0.0
12.555,4466.906,0.00022,0.0,0.0
12.562,4471.279,0.00022,0.0,0.0
12.568,4465.065,0.00022,0.0,0.0
12.574,4468.784,0.00022,0.0,0.0
12.58,4479.991,0.00022,0.0,0.0
12.587,4499.355,0.00022,0.0,0.0
12.593,4505.954,0.00022,0.0,0.0
12.599,4514.462,0.00022,0.0,0.0
12.606,4555.667,0.00022,0.0,0.0
12.612,4574.879,0.00022,0.0,0.0
12.618,4606.207,0.00022,0.0,0.0
12.625,4682.291,0.00021,0.0,0.0
12.631,4770.84,0.00021,0.0,0.0
12.637,4933.183,0.0002,0.0,0.0
12.644,5141.695,0.00019,0.0,0.0
12.65,5517.737,0.00018,0.0,0.0
12.656,6136.994,0.00016,0.0,0.0
12.663,7295.326,0.00014,0.0,0.0
12.669,9202.081,0.00011,0.0,0.0
12.675,12908.697,0.00008,0.0,0.0
12.682,17459.626,0.00006,0.0,0.0
12.688,24657.436,0.00004,0.0,0.0
12.694,29387.666,0.00003,0.0,0.0
12.701,32873.987,0.00003,0.0,0.0
12.707,31602.626,0.00003,0.0,0.0
12.713,25669.958,0.00004,0.0,0.0
12.72,20119.788,0.00005,0.0,0.0
12.726,13863.926,0.00007,0.0,0.0
12.732,10129.3,0.0001,0.0,0.0
12.738,7734.51,0.00013,0.0,0.0
12.745,6386.224,0.00016,0.0,0.0
12.751,5667.41,0.00018,0.0,0.0
12.757,5159.15,0.00019,0.0,0.0
12.764,4910.419,0.0002,0.0,0.0
12.77,4746.429,0.00021,0.0,0.0
12.776,4639.673,0.00022,0.0,0.0
12.783,4558.818,0.00022,0.0,0.0
12.789,4505.435,0.00022,0.0,0.0
12.795,4468.383,0.00022,0.0,0.0
12.802,4433.91,0.00023,0.0,0.0
12.808,4411.282,0.00023,0.0,0.0
12.814,4408.695,0.00023,0.0,0.0
12.821,4378.878,0.00023,0.0,0.0
12.827,4378.837,0.00023,0.0,0.0
12.833,4361.971,0.00023,0.0,0.0
12.84,4348.888,0.00023,0.0,0.0
12.846,4348.459,0.00023,0.0,0.0
12.852,4338.884,0.00023,0.0,0.0
12.859,4323.219,0.00023,0.0,0.0
12.865,4318.7,0.00023,0.0,0.0
12.871,4302.361,0.00023,0.0,0.0
12.878,4306.254,0.00023,0.0,0.0
12.884,4310.934,0.00023,0.0,0.0
12.89,4296.706,0.00023,0.0,0.0
12.896,4306.173,0.00023,0.0,0.0
12.903,4302.774,0.00023,0.0,0.0
12.909,4326.74,0.00023,0.0,0.0
12.915,4364.261,0.00023,0.0,0.0
12.922,4349.842,0.00023,0.0,0.0
12.928,4487.616,0.00022,0.0,0.0
12.934,4480.494,0.00022,0.0,0.0
12.941,4472.286,0.00022,0.0,0.0
12.947,4695.426,0.00021,0.0,0.0
12.953,4469.866,0.00022,0.0,0.0
12.96,4447.869,0.00022,0.0,0.0
12.966,4414.745,0.00023,0.0,0.0
12.972,4340.12,0.00023,0.0,0.0
12.979,4308.588,0.00023,0.0,0.0
12.985,4291.087,0.00023,0.0,0.0
12.991,4263.646,0.00023,0.0,0.0
12.998,4239.786,0.00024,0.0,0.0
13.004,4237.508,0.00024,0.0,0.0
13.01,4225.235,0.00024,0.0,0.0
13.017,4216.797,0.00024,0.0,0.0
13.023,4218.237,0.00024,0.0,0.0
13.029,4201.821,0.00024,0.0,0.0
13.036,4197.526,0.00024,0.0,0.0
13.042,4209.983,0.00024,0.0,0.0
13.048,4193.88,0.00024,0.0,0.0
13.054,4192.31,0.00024,0.0,0.0
13.061,4188.654,0.00024,0.0,0.0
13.067,4190.573,0.00024,0.0,0.0
13.073,4185.737,0.00024,0.0,0.0
13.08,4185.024,0.00024,0.0,0.0
13.086,4175.947,0.00024,0.0,0.0
13.092,4168.628,0.00024,0.0,0.0
13.099,4171.526,0.00024,0.0,0.0
13.105,4182.307,0.00024,0.0,0.0
13.111,4173.235,0.00024,0.0,0.0
13.118,4160.955,0.00024,0.0,0.0
13.124,4178.057,0.00024,0.0,0.0
13.13,4172.401,0.00024,0.0,0.0
13.137,4167.529,0.00024,0.0,0.0
13.143,4159.889,0.00024,0.0,0.0
13.149,4158.948,0.00024,0.0,0.0
13.156,4171.714,0.00024,0.0,0.0
13.162,4175.088,0.00024,0.0,0.0
13.168,4169.037,0.00024,0.0,0.0
13.175,4183.36,0.00024,0.0,0.0
13.181,4179.877,0.00024,0.0,0.0
13.187,4200.622,0.00024,0.0,0.0
13.194,4212.578,0.00024,0.0,0.0
13.2,4244.939,0.00024,0.0,0.0
13.206,4276.279,0.00023,0.0,0.0
13.212,4352.921,0.00023,0.0,0.0
13.219,4434.607,0.00023,0.0,0.0
13.225,4633.973,0.00022,0.0,0.0
13.231,4979.518,0.0002,0.0,0.0
13.238,5678.519,0.00018,0.0,0.0
13.244,6746.227,0.00015,0.0,0.0
13.25,8344.363,0.00012,0.0,0.0
13.257,10234.798,0.0001,0.0,0.0
13.263,12516.907,0.00008,0.0,0.0
13.269,12749.016,0.00008,0.0,0.0
13.276,12563.992,0.00008,0.0,0.0
13.282,10902.244,0.00009,0.0,0.0
13.288,8403.157,0.00012,0.0,0.0
13.295,7321.428,0.00014,0.0,0.0
13.301,5661.102,0.00018,0.0,0.0
13.307,5070.823,0.0002,0.0,0.0
13.314,4639.317,0.00022,0.0,0.0
13.32,4414.872,0.00023,0.0,0.0
13.326,4305.944,0.00023,0.0,0.0
13.333,4220.981,0.00024,0.0,0.0
13.339,4179.057,0.00024,0.0,0.0
13.345,4144.802,0.00024,0.0,0.0
13.352,4124.037,0.00024,0.0,0.0
13.358,4102.779,0.00024,0.0,0.0
13.364,4092.432,0.00024,0.0,0.0
13.37,4069.287,0.00025,0.0,0.0
13.377,4084.071,0.00024,0.0,0.0
13.383,4061.33,0.00025,0.0,0.0
13.389,4062.762,0.00025,0.0,0.0
13.396,4042.684,0.00025,0.0,0.0
13.402,4046.338,0.00025,0.0,0.0
13.408,4036.327,0.00025,0.0,0.0
13.415,4040.757,0.00025,0.0,0.0
13.421,4028.879,0.00025,0.0,0.0
13.427,4028.958,0.00025,0.0,0.0
13.434,4029.306,0.00025,0.0,0.0
13.44,4030.42,0.00025,0.0,0.0
13.446,4006.788,0.00025,0.0,0.0
13.453,4012.395,0.00025,0.0,0.0
13.459,3996.194,0.00025,0.0,0.0
13.465,3999.491,0.00025,0.0,0.0
13.472,4008.104,0.00025,0.0,0.0
13.478,3993.014,0.00025,0.0,0.0
13.484,3995.313,0.00025,0.0,0.0
13.491,3985.981,0.00025,0.0,0.0
13.497,3994.535,0.00025,0.0,0.0
13.503,3976.592,0.00025,0.0,0.0
13.51,3977.222,0.00025,0.0,0.0
13.516,3974.44,0.00025,0.0,0.0
13.522,3976.887,0.00025,0.0,0.0
13.528,3975.702,0.00025,0.0,0.0
13.535,3953.468,0.00025,0.0,0.0
13.541,3957.297,0.00025,0.0,0.0
13.547,3965.814,0.00025,0.0,0.0
13.554,3937.043,0.00025,0.0,0.0
13.56,3951.14,0.00025,0.0,0.0
13.566,3959.522,0.00025,0.0,0.0
13.573,3953.597,0.00025,0.0,0.0
13.579,3956.609,0.00025,0.0,0.0
13.585,3949.027,0.00025,0.0,0.0
13.592,3949.019,0.00025,0.0,0.0
13.598,3944.589,0.00025,0.0,0.0
13.604,3944.137,0.00025,0.0,0.0
13.611,3943.201,0.00025,0.0,0.0
13.617,3952.812,0.00025,0.0,0.0
13.623,3936.691,0.00025,0.0,0.0
13.63,3943.855,0.00025,0.0,0.0
13.636,3950.665,0.00025,0.0,0.0
13.642,3955.728,0.00025,0.0,0.0
13.649,3941.713,0.00025,0.0,0.0
13.655,3959.068,0.00025,0.0,0.0
13.661,3944.438,0.00025,0.0,0.0
13.668,3955.385,0.00025,0.0,0.0
13.674,3947.152,0.00025,0.0,0.0
13.68,3946.577,0.00025,0.0,0.0
13.686,3962.776,0.00025,0.0,0.0
13.693,3968.117,0.00025,0.0,0.0
13.699,4008.368,0.00025,0.0,0.0
13.705,4051.611,0.00025,0.0,0.0
13.712,4183.068,0.00024,0.0,0.0
13.718,4189.988,0.00024,0.0,0.0
13.724,4241.752,0.00024,0.0,0.0
13.731,4260.456,0.00023,0.0,0.0
13.737,4204.392,0.00024,0.0,0.0
13.743,4164.76,0.00024,0.0,0.0
13.75,4077.834,0.00025,0.0,0.0
13.756,3998.56,0.00025,0.0,0.0
13.762,3949.755,0.00025,0.0,0.0
13.769,3918.905,0.00026,0.0,0.0
13.775,3891.186,0.00026,0.0,0.0
13.781,3878.979,0.00026,0.0,0.0
13.788,3867.28,0.00026,0.0,0.0
13.794,3873.852,0.00026,0.0,0.0
13.8,3878.713,0.00026,0.0,0.0
13.807,3864.819,0.00026,0.0,0.0
13.813,3857.804,0.00026,0.0,0.0
13.819,3846.248,0.00026,0.0,0.0
13.826,3845.74,0.00026,0.0,0.0
13.832,3843.524,0.00026,0.0,0.0
13.838,3840.657,0.00026,0.0,0.0
13.844,3836.606,0.00026,0.0,0.0
13.851,3833.354,0.00026,0.0,0.0
13.857,3823.666,0.00026,0.0,0.0
13.863,3826.316,0.00026,0.0,0.0
13.87,3819.809,0.00026,0.0,0.0
13.876,3822.587,0.00026,0.0,0.0
13.882,3817.526,0.00026,0.0,0.0
13.889,3815.976,0.00026,0.0,0.0
13.895,3811.145,0.00026,0.0,0.0
13.901,3805.807,0.00026,0.0,0.0
13.908,3811.464,0.00026,0.0,0.0
13.914,3795.013,0.00026,0.0,0.0
13.92,3793.693,0.00026,0.0,0.0
13.927,3783.355,0.00026,0.0,0.0
13.933,3790.808,0.00026,0.0,0.0
13.939,3791.103,0.00026,0.0,0.0
13.946,3776.498,0.00026,0.0,0.0
13.952,3788.225,0.00026,0.0,0.0
13.958,3784.29,0.00026,0.0,0.0
13.965,3775.594,0.00026,0.0,0.0
13.971,3775.171,0.00026,0.0,0.0
13.977,3774.985,0.00026,0.0,0.0
13.984,3783.228,0.00026,0.0,0.0
13.99,3771.611,0.00027,0.0,0.0
13.996,3773.316,0.00027,0.0,0.0
14.002,3765.784,0.00027,0.0,0.0
14.009,3760.751,0.00027,0.0,0.0
14.015,3763.015,0.00027,0.0,0.0
14.021,3765.284,0.00027,0.0,0.0
14.028,3743.322,0.00027,0.0,0.0
14.034,3755.396,0.00027,0.0,0.0
14.04,3744.862,0.00027,0.0,0.0
14.047,3744.85,0.00027,0.0,0.0
14.053,3741.124,0.00027,0.0,0.0
14.059,3733.432,0.00027,0.0,0.0
14.066,3730.402,0.00027,0.0,0.0
14.072,3728.076,0.00027,0.0,0.0
14.078,3724.004,0.00027,0.0,0.0
14.085,3722.02,0.00027,0.0,0.0
14.091,3726.765,0.00027,0.0,0.0
14.097,3714.875,0.00027,0.0,0.0
14.104,3726.52,0.00027,0.0,0.0
14.11,3720.78,0.00027,0.0,0.0
14.116,3710.669,0.00027,0.0,0.0
14.123,3705.94,0.00027,0.0,0.0
14.129,3703.737,0.00027,0.0,0.0
14.135,3697.714,0.00027,0.0,0.0
14.142,3692.812,0.00027,0.0,0.0
14.148,3702.548,0.00027,0.0,0.0
14.154,3692.013,0.00027,0.0,0.0
14.16,3694.32,0.00027,0.0,0.0
14.167,3690.275,0.00027,0.0,0.0
14.173,3686.228,0.00027,0.0,0.0
14.179,3699.429,0.00027,0.0,0.0
14.186,3696.759,0.00027,0.0,0.0
14.192,3681.938,0.00027,0.0,0.0
14.198,3674.062,0.00027,0.0,0.0
14.205,3689.304,0.00027,0.0,0.0
14.211,3686.032,0.00027,0.0,0.0
14.217,3668.424,0.00027,0.0,0.0
14.224,3678.217,0.00027,0.0,0.0
14.23,3676.259,0.00027,0.0,0.0
14.236,3673.38,0.00027,0.0,0.0
14.243,3680.193,0.00027,0.0,0.0
14.249,3693.365,0.00027,0.0,0.0
14.255,3691.502,0.00027,0.0,0.0
14.262,3693.054,0.00027,0.0,0.0
14.268,3692.121,0.00027,0.0,0.0
14.274,3704.945,0.00027,0.0,0.0
14.281,3691.142,0.00027,0.0,0.0
14.287,3701.437,0.00027,0.0,0.0
14.293,3691.567,0.00027,0.0,0.0
14.3,3665.855,0.00027,0.0,0.0
14.306,3660.444,0.00027,0.0,0.0
14.312,3659.692,0.00027,0.0,0.0
14.318,3648.847,0.00027,0.0,0.0
14.325,3640.329,0.00027,0.0,0.0
14.331,3646.564,0.00027,0.0,0.0
14.337,3646.972,0.00027,0.0,0.0
14.344,3640.714,0.00027,0.0,0.0
14.35,3632.984,0.00028,0.0,0.0
14.356,3624.138,0.00028,0.0,0.0
14.363,3614.605,0.00028,0.0,0.0
14.369,3624.078,0.00028,0.0,0.0
14.375,3612.986,0.00028,0.0,0.0
14.382,3624.693,0.00028,0.0,0.0
14.388,3614.494,0.00028,0.0,0.0
14.394,3615.914,0.00028,0.0,0.0
14.401,3608.122,0.00028,0.0,0.0
14.407,3613.262,0.00028,0.0,0.0
14.413,3608.752,0.00028,0.0,0.0
14.42,3606.323,0.00028,0.0,0.0
14.426,3600.8,0.00028,0.0,0.0
14.432,3603.465,0.00028,0.0,0.0
14.439,3607.172,0.00028,0.0,0.0
14.445,3627.168,0.00028,0.0,0.0
14.451,3631.771,0.00028,0.0,0.0
14.458,3638.96,0.00027,0.0,0.0
14.464,3676.566,0.00027,0.0,0.0
14.47,3726.505,0.00027,0.0,0.0
14.476,3697.823,0.00027,0.0,0.0
14.483,3732.301,0.00027,0.0,0.0
14.489,3646.453,0.00027,0.0,0.0
14.495,3640.612,0.00027,0.0,0.0
14.502,3613.479,0.00028,0.0,0.0
14.508,3593.548,0.00028,0.0,0.0
14.514,3583.061,0.00028,0.0,0.0
14.521,3567.738,0.00028,0.0,0.0
14.527,3570.858,0.00028,0.0,0.0
14.533,3565.453,0.00028,0.0,0.0
14.54,3563.315,0.00028,0.0,0.0
14.546,3557.55,0.00028,0.0,0.0
14.552,3554.506,0.00028,0.0,0.0
14.559,3555.607,0.00028,0.0,0.0
14.565,3553.492,0.00028,0.0,0.0
14.571,3551.712,0.00028,0.0,0.0
14.578,3550.928,0.00028,0.0,0.0
14.584,3547.464,0.00028,0.0,0.0
14.59,3547.125,0.00028,0.0,0.0
14.597,3544.963,0.00028,0.0,0.0
14.603,3547.374,0.00028,0.0,0.0
14.609,3548.909,0.00028,0.0,0.0
14.616,3538.78,0.00028,0.0,0.0
14.622,3535.885,0.00028,0.0,0.0
14.628,3537.699,0.00028,0.0,0.0
14.634,3543.649,0.00028,0.0,0.0
14.641,3532.164,0.00028,0.0,0.0
14.647,3541.362,0.00028,0.0,0.0
14.653,3527.726,0.00028,0.0,0.0
14.66,3515.809,0.00028,0.0,0.0
14.666,3533.936,0.00028,0.0,0.0
14.672,3520.63,0.00028,0.0,0.0
14.679,3518.99,0.00028,0.0,0.0
14.685,3508.614,0.00029,0.0,0.0
14.691,3520.897,0.00028,0.0,0.0
14.698,3508.167,0.00029,0.0,0.0
14.704,3517.378,0.00028,0.0,0.0
14.71,3496.197,0.00029,0.0,0.0
14.717,3508.053,0.00029,0.0,0.0
14.723,3490.987,0.00029,0.0,0.0
14.729,3503.508,0.00029,0.0,0.0
14.736,3493.364,0.00029,0.0,0.0
14.742,3485.423,0.00029,0.0,0.0
14.748,3488.598,0.00029,0.0,0.0
14.755,3491.172,0.00029,0.0,0.0
14.761,3491.256,0.00029,0.0,0.0
14.767,3472.632,0.00029,0.0,0.0
14.774,3471.021,0.00029,0.0,0.0
14.78,3482.894,0.00029,0.0,0.0
14.786,3465.637,0.00029,0.0,0.0
14.792,3480.186,0.00029,0.0,0.0
14.799,3472.206,0.00029,0.0,0.0
14.805,3472.459,0.00029,0.0,0.0
14.811,3473.921,0.00029,0.0,0.0
14.818,3469.847,0.00029,0.0,0.0
14.824,3463.854,0.00029,0.0,0.0
14.83,3456.573,0.00029,0.0,0.0
14.837,3449.813,0.00029,0.0,0.0
14.843,3450.895,0.00029,0.0,0.0
14.849,3441.316,0.00029,0.0,0.0
14.856,3445.375,0.00029,0.0,0.0
14.862,3455.634,0.00029,0.0,0.0
14.868,3454.096,0.00029,0.0,0.0
14.875,3460.877,0.00029,0.0,0.0
14.881,3439.997,0.00029,0.0,0.0
14.887,3450.515,0.00029,0.0,0.0
14.894,3453.769,0.00029,0.0,0.0
14.9,3432.026,0.00029,0.0,0.0
14.906,3441.192,0.00029,0.0,0.0
14.913,3437.508,0.00029,0.0,0.0
14.919,3436.767,0.00029,0.0,0.0
14.925,3425.165,0.00029,0.0,0.0
14.932,3423.685,0.00029,0.0,0.0
14.938,3430.966,0.00029,0.0,0.0
14.944,3420.818,0.00029,0.0,0.0
14.95,3419.747,0.00029,0.0,0.0
14.957,3427.615,0.00029,0.0,0.0
14.963,3415.849,0.00029,0.0,0.0
14.969,3419.091,0.00029,0.0,0.0
14.976,3406.838,0.00029,0.0,0.0
14.982,3422.41,0.00029,0.0,0.0
14.988,3423.346,0.00029,0.0,0.0
14.995,3412.374,0.00029,0.0,0.0
15.001,3410.034,0.00029,0.0,0.0
15.007,3411.34,0.00029,0.0,0.0
15.014,3418.702,0.00029,0.0,0.0
15.02,3397.577,0.00029,0.0,0.0
15.026,3394.885,0.00029,0.0,0.0
15.033,3398.728,0.00029,0.0,0.0
15.039,3402.766,0.00029,0.0,0.0
15.045,3403.622,0.00029,0.0,0.0
15.052,3392.436,0.00029,0.0,0.0
15.058,3398.473,0.00029,0.0,0.0
15.064,3391.357,0.00029,0.0,0.0
15.071,3396.899,0.00029,0.0,0.0
15.077,3397.527,0.00029,0.0,0.0
15.083,3386.941,0.0003,0.0,0.0
15.09,3387.798,0.0003,0.0,0.0
15.096,3394.769,0.00029,0.0,0.0
15.102,3380.326,0.0003,0.0,0.0
15.108,3397.301,0.00029,0.0,0.0
15.115,3382.776,0.0003,0.0,0.0
15.121,3391.604,0.00029,0.0,0.0
15.127,3387.086,0.0003,0.0,0.0
15.134,3388.766,0.0003,0.0,0.0
15.14,3396.335,0.00029,0.0,0.0
15.146,3379.952,0.0003,0.0,0.0
15.153,3388.289,0.0003,0.0,0.0
15.159,3387.432,0.0003,0.0,0.0
15.165,3383.125,0.0003,0.0,0.0
15.172,3386.896,0.0003,0.0,0.0
15.178,3395.555,0.00029,0.0,0.0
15.184,3409.157,0.00029,0.0,0.0
15.191,3398.331,0.00029,0.0,0.0
15.197,3404.102,0.00029,0.0,0.0
15.203,3387.483,0.0003,0.0,0.0
15.21,3384.254,0.0003,0.0,0.0
15.216,3369.228,0.0003,0.0,0.0
15.222,3377.269,0.0003,0.0,0.0
15.229,3376.317,0.0003,0.0,0.0
15.235,3385.854,0.0003,0.0,0.0
15.241,3365.638,0.0003,0.0,0.0
15.248,3383.513,0.0003,0.0,0.0
15.254,3398.95,0.00029,0.0,0.0
15.26,3404.219,0.00029,0.0,0.0
15.266,3427.698,0.00029,0.0,0.0
15.273,3455.397,0.00029,0.0,0.0
15.279,3498.835,0.00029,0.0,0.0
15.285,3576.668,0.00028,0.0,0.0
15.292,3759.503,0.00027,0.0,0.0
15.298,3942.726,0.00025,0.0,0.0
15.304,4290.281,0.00023,0.0,0.0
15.311,4861.656,0.00021,0.0,0.0
15.317,5474.361,0.00018,0.0,0.0
15.323,6210.32,0.00016,0.0,0.0
15.33,6144.307,0.00016,0.0,0.0
15.336,6340.96,0.00016,0.0,0.0
15.342,5961.863,0.00017,0.0,0.0
15.349,5251.929,0.00019,0.0,0.0
15.355,4817.101,0.00021,0.0,0.0
15.361,4199.236,0.00024,0.0,0.0
15.368,3888.085,0.00026,0.0,0.0
15.374,3653.875,0.00027,0.0,0.0
15.38,3542.702,0.00028,0.0,0.0
15.387,3462.765,0.00029,0.0,0.0
15.393,3412.755,0.00029,0.0,0.0
15.399,3380.201,0.0003,0.0,0.0
15.406,3366.436,0.0003,0.0,0.0
15.412,3350.093,0.0003,0.0,0.0
15.418,3343.4,0.0003,0.0,0.0
15.424,3339.938,0.0003,0.0,0.0
15.431,3323.151,0.0003,0.0,0.0
15.437,3318.951,0.0003,0.0,0.0
15.443,3324.135,0.0003,0.0,0.0
15.45,3319.808,0.0003,0.0,0.0
15.456,3306.647,0.0003,0.0,0.0
15.462,3314.445,0.0003,0.0,0.0
15.469,3300.576,0.0003,0.0,0.0
15.475,3315.48,0.0003,0.0,0.0
15.481,3307.756,0.0003,0.0,0.0
15.488,3300.171,0.0003,0.0,0.0
15.494,3300.776,0.0003,0.0,0.0
15.5,3310.157,0.0003,0.0,0.0
15.507,3299.573,0.0003,0.0,0.0
15.513,3288.517,0.0003,0.0,0.0
15.519,3289.658,0.0003,0.0,0.0
15.526,3284.699,0.0003,0.0,0.0
15.532,3285.741,0.0003,0.0,0.0
15.538,3284.844,0.0003,0.0,0.0
15.545,3277.516,0.00031,0.0,0.0
15.551,3279.851,0.0003,0.0,0.0
15.557,3273.426,0.00031,0.0,0.0
15.564,3269.978,0.00031,0.0,0.0
15.57,3276.462,0.00031,0.0,0.0
15.576,3265.737,0.00031,0.0,0.0
15.582,3274.229,0.00031,0.0,0.0
15.589,3270.763,0.00031,0.0,0.0
15.595,3264.06,0.00031,0.0,0.0
15.601,3259.016,0.00031,0.0,0.0
15.608,3268.013,0.00031,0.0,0.0
15.614,3268.499,0.00031,0.0,0.0
15.62,3261.58,0.00031,0.0,0.0
15.627,3268.566,0.00031,0.0,0.0
15.633,3245.87,0.00031,0.0,0.0
15.639,3260.922,0.00031,0.0,0.0
15.646,3254.683,0.00031,0.0,0.0
15.652,3243.625,0.00031,0.0,0.0
15.658,3247.789,0.00031,0.0,0.0
15.665,3247.475,0.00031,0.0,0.0
15.671,3257.288,0.00031,0.0,0.0
15.677,3247.309,0.00031,0.0,0.0
15.684,3239.147,0.00031,0.0,0.0
15.69,3245.99,0.00031,0.0,0.0
15.696,3249.454,0.00031,0.0,0.0
15.703,3231.776,0.00031,0.0,0.0
15.709,3241.871,0.00031,0.0,0.0
15.715,3234.476,0.00031,0.0,0.0
15.722,3229.981,0.00031,0.0,0.0
15.728,3226.793,0.00031,0.0,0.0
15.734,3223.462,0.00031,0.0,0.0
15.74,3228.652,0.00031,0.0,0.0
15.747,3229.562,0.00031,0.0,0.0
15.753,3227.94,0.00031,0.0,0.0
15.759,3221.215,0.00031,0.0,0.0
15.766,3238.242,0.00031,0.0,0.0
15.772,3231.183,0.00031,0.0,0.0
15.778,3214.788,0.00031,0.0,0.0
15.785,3221.73,0.00031,0.0,0.0
15.791,3208.338,0.00031,0.0,0.0
15.797,3215.279,0.00031,0.0,0.0
15.804,3224.649,0.00031,0.0,0.0
15.81,3217.518,0.00031,0.0,0.0
15.816,3214.038,0.00031,0.0,0.0
15.823,3213.517,0.00031,0.0,0.0
15.829,3203.515,0.00031,0.0,0.0
15.835,3220.982,0.00031,0.0,0.0
15.842,3226.253,0.00031,0.0,0.0
15.848,3212.179,0.00031,0.0,0.0
15.854,3217.872,0.00031,0.0,0.0
15.861,3217.774,0.00031,0.0,0.0
15.867,3221.477,0.00031,0.0,0.0
15.873,3222.808,0.00031,0.0,0.0
15.88,3206.493,0.00031,0.0,0.0
15.886,3200.528,0.00031,0.0,0.0
15.892,3200.869,0.00031,0.0,0.0
15.898,3205.441,0.00031,0.0,0.0
15.905,3201.17,0.00031,0.0,0.0
15.911,3192.376,0.00031,0.0,0.0
15.917,3190.29,0.00031,0.0,0.0
15.924,3193.041,0.00031,0.0,0.0
15.93,3190.486,0.00031,0.0,0.0
15.936,3192.108,0.00031,0.0,0.0
15.943,3190.581,0.00031,0.0,0.0
15.949,3193.487,0.00031,0.0,0.0
15.955,3187.825,0.00031,0.0,0.0
15.962,3193.364,0.00031,0.0,0.0
15.968,3187.016,0.00031,0.0,0.0
15.974,3179.258,0.00031,0.0,0.0
15.981,3179.278,0.00031,0.0,0.0
15.987,3186.903,0.00031,0.0,0.0
15.993,3184.605,0.00031,0.0,0.0
16.0,3183.298,0.00031,0.0,0.0
16.006,3176.525,0.00031,0.0,0.0
16.012,3177.106,0.00031,0.0,0.0
16.019,3178.16,0.00031,0.0,0.0
16.025,3176.022,0.00031,0.0,0.0
16.031,3177.087,0.00031,0.0,0.0
16.038,3173.823,0.00032,0.0,0.0
16.044,3182.04,0.00031,0.0,0.0
16.05,3181.522,0.00031,0.0,0.0
16.056,3161.985,0.00032,0.0,0.0
16.063,3172.552,0.00032,0.0,0.0
16.069,3171.345,0.00032,0.0,0.0
16.075,3171.669,0.00032,0.0,0.0
16.082,3169.759,0.00032,0.0,0.0
16.088,3164.753,0.00032,0.0,0.0
16.094,3164.257,0.00032,0.0,0.0
16.101,3159.098,0.00032,0.0,0.0
16.107,3172.447,0.00032,0.0,0.0
16.113,3169.877,0.00032,0.0,0.0
16.12,3164.217,0.00032,0.0,0.0
16.126,3160.1,0.00032,0.0,0.0
16.132,3153.437,0.00032,0.0,0.0
16.139,3162.829,0.00032,0.0,0.0
16.145,3163.896,0.00032,0.0,0.0
16.151,3155.527,0.00032,0.0,0.0
16.158,3154.898,0.00032,0.0,0.0
16.164,3153.606,0.00032,0.0,0.0
16.17,3155.654,0.00032,0.0,0.0
16.177,3165.002,0.00032,0.0,0.0
16.183,3159.863,0.00032,0.0,0.0
16.189,3156.473,0.00032,0.0,0.0
16.196,3166.486,0.00032,0.0,0.0
16.202,3156.531,0.00032,0.0,0.0
16.208,3148.237,0.00032,0.0,0.0
16.214,3149.594,0.00032,0.0,0.0
16.221,3146.058,0.00032,0.0,0.0
16.227,3149.167,0.00032,0.0,0.0
16.233,3145.57,0.00032,0.0,0.0
16.24,3151.896,0.00032,0.0,0.0
16.246,3160.957,0.00032,0.0,0.0
16.252,3157.535,0.00032,0.0,0.0
16.259,3152.784,0.00032,0.0,0.0
16.265,3149.253,0.00032,0.0,0.0
16.271,3146.473,0.00032,0.0,0.0
16.278,3152.228,0.00032,0.0,0.0
16.284,3160.835,0.00032,0.0,0.0
16.29,3148.797,0.00032,0.0,0.0
16.297,3152.181,0.00032,0.0,0.0
16.303,3143.704,0.00032,0.0,0.0
16.309,3146.353,0.00032,0.0,0.0
16.316,3160.443,0.00032,0.0,0.0
16.322,3153.406,0.00032,0.0,0.0
16.328,3147.74,0.00032,0.0,0.0
16.335,3153.98,0.00032,0.0,0.0
16.341,3157.876,0.00032,0.0,0.0
16.347,3158.026,0.00032,0.0,0.0
16.354,3156.324,0.00032,0.0,0.0
16.36,3147.203,0.00032,0.0,0.0
16.366,3146.552,0.00032,0.0,0.0
16.372,3148.296,0.00032,0.0,0.0
16.379,3154.8,0.00032,0.0,0.0
16.385,3138.584,0.00032,0.0,0.0
16.391,3147.776,0.00032,0.0,0.0
16.398,3153.155,0.00032,0.0,0.0
16.404,3140.428,0.00032,0.0,0.0
16.41,3152.923,0.00032,0.0,0.0
16.417,3140.034,0.00032,0.0,0.0
16.423,3152.056,0.00032,0.0,0.0
16.429,3147.416,0.00032,0.0,0.0
16.436,3146.84,0.00032,0.0,0.0
16.442,3143.382,0.00032,0.0,0.0
16.448,3143.549,0.00032,0.0,0.0
16.455,3151.29,0.00032,0.0,0.0
16.461,3149.399,0.00032,0.0,0.0
16.467,3149.047,0.00032,0.0,0.0
16.474,3152.731,0.00032,0.0,0.0
16.48,3151.24,0.00032,0.0,0.0
16.486,3162.311,0.00032,0.0,0.0
16.493,3185.614,0.00031,0.0,0.0
16.499,3193.293,0.00031,0.0,0.0
16.505,3215.497,0.00031,0.0,0.0
16.512,3198.284,0.00031,0.0,0.0
16.518,3230.497,0.00031,0.0,0.0
16.524,3226.715,0.00031,0.0,0.0
16.53,3197.801,0.00031,0.0,0.0
16.537,3207.178,0.00031,0.0,0.0
16.543,3175.327,0.00031,0.0,0.0
16.549,3169.657,0.00032,0.0,0.0
16.556,3169.292,0.00032,0.0,0.0
16.562,3178.64,0.00031,0.0,0.0
16.568,3159.796,0.00032,0.0,0.0
16.575,3163.244,0.00032,0.0,0.0
16.581,3176.613,0.00031,0.0,0.0
16.587,3149.161,0.00032,0.0,0.0
16.594,3173.697,0.00032,0.0,0.0
