"x","y_obs","weight","y_calc","y_bkg"
0.8,2862.071,0.00035,0.0,0.0
0.806,3238.954,0.00031,0.0,0.0
0.813,3436.723,0.00029,0.0,0.0
0.819,3244.885,0.00031,0.0,0.0
0.825,3866.907,0.00026,0.0,0.0
0.832,3677.71,0.00027,0.0,0.0
0.838,3935.635,0.00025,0.0,0.0
0.844,4261.49,0.00023,0.0,0.0
0.851,4134.681,0.00024,0.0,0.0
0.857,4561.891,0.00022,0.0,0.0
0.863,4899.154,0.0002,0.0,0.0
0.87,4511.205,0.00022,0.0,0.0
0.876,5335.072,0.00019,0.0,0.0
0.882,5135.205,0.00019,0.0,0.0
0.888,5406.227,0.00018,0.0,0.0
0.895,5563.015,0.00018,0.0,0.0
0.901,5626.746,0.00018,0.0,0.0
0.907,6037.078,0.00017,0.0,0.0
0.914,6186.059,0.00016,0.0,0.0
0.92,5918.152,0.00017,0.0,0.0
0.926,6490.604,0.00015,0.0,0.0
0.933,6546.702,0.00015,0.0,0.0
0.939,6313.359,0.00016,0.0,0.0
0.945,6888.029,0.00015,0.0,0.0
0.952,6517.683,0.00015,0.0,0.0
0.958,6874.285,0.00015,0.0,0.0
0.964,6923.095,0.00014,0.0,0.0
0.971,6724.588,0.00015,0.0,0.0
0.977,7136.426,0.00014,0.0,0.0
0.983,7091.704,0.00014,0.0,0.0
0.99,6898.387,0.00014,0.0,0.0
0.996,7244.778,0.00014,0.0,0.0
1.002,6951.813,0.00014,0.0,0.0
1.009,7148.92,0.00014,0.0,0.0
1.015,7261.405,0.00014,0.0,0.0
1.021,7013.809,0.00014,0.0,0.0
1.028,7250.802,0.00014,0.0,0.0
1.034,7127.666,0.00014,0.0,0.0
1.04,7046.791,0.00014,0.0,0.0
1.046,7168.212,0.00014,0.0,0.0
1.053,7156.437,0.00014,0.0,0.0
1.059,7092.104,0.00014,0.0,0.0
1.065,7186.037,0.00014,0.0,0.0
1.072,6977.351,0.00014,0.0,0.0
1.078,7101.982,0.00014,0.0,0.0
1.084,7018.526,0.00014,0.0,0.0
1.091,7017.533,0.00014,0.0,0.0
1.097,7047.747,0.00014,0.0,0.0
1.103,6972.603,0.00014,0.0,0.0
1.11,6894.285,0.00015,0.0,0.0
1.116,6945.374,0.00014,0.0,0.0
1.122,6822.168,0.00015,0.0,0.0
1.129,6835.403,0.00015,0.0,0.0
1.135,6761.826,0.00015,0.0,0.0
1.141,6770.429,0.00015,0.0,0.0
1.148,6738.234,0.00015,0.0,0.0
1.154,6643.581,0.00015,0.0,0.0
1.16,6650.959,0.00015,0.0,0.0
1.167,6589.996,0.00015,0.0,0.0
1.173,6547.986,0.00015,0.0,0.0
1.179,6531.554,0.00015,0.0,0.0
1.186,6445.59,0.00016,0.0,0.0
1.192,6411.813,0.00016,0.0,0.0
1.198,6356.023,0.00016,0.0,0.0
1.204,6297.212,0.00016,0.0,0.0
1.211,6311.598,0.00016,0.0,0.0
1.217,6253.29,0.00016,0.0,0.0
1.223,6217.373,0.00016,0.0,0.0
1.23,6169.116,0.00016,0.0,0.0
1.236,6124.327,0.00016,0.0,0.0
1.242,6080.904,0.00016,0.0,0.0
1.249,6125.746,0.00016,0.0,0.0
1.255,6065.69,0.00016,0.0,0.0
1.261,6058.287,0.00017,0.0,0.0
1.268,6053.378,0.00017,0.0,0.0
1.274,5933.194,0.00017,0.0,0.0
1.28,5947.729,0.00017,0.0,0.0
1.287,5896.543,0.00017,0.0,0.0
1.293,5864.091,0.00017,0.0,0.0
1.299,5929.054,0.00017,0.0,0.0
1.306,5871.374,0.00017,0.0,0.0
1.312,5828.302,0.00017,0.0,0.0
1.318,5824.23,0.00017,0.0,0.0
1.325,5783.644,0.00017,0.0,0.0
1.331,5783.63,0.00017,0.0,0.0
1.337,5727.913,0.00017,0.0,0.0
1.344,5799.944,0.00017,0.0,0.0
1.35,5738.149,0.00017,0.0,0.0
1.356,5689.346,0.00018,0.0,0.0
1.362,5708.486,0.00018,0.0,0.0
1.369,5667.265,0.00018,0.0,0.0
1.375,5677.497,0.00018,0.0,0.0
1.381,5624.779,0.00018,0.0,0.0
1.388,5654.378,0.00018,0.0,0.0
1.394,5598.665,0.00018,0.0,0.0
1.4,5632.425,0.00018,0.0,0.0
1.407,5605.417,0.00018,0.0,0.0
1.413,5616.519,0.00018,0.0,0.0
1.419,5582.03,0.00018,0.0,0.0
1.426,5588.998,0.00018,0.0,0.0
1.432,5540.407,0.00018,0.0,0.0
1.438,5572.854,0.00018,0.0,0.0
1.445,5578.061,0.00018,0.0,0.0
1.451,5584.529,0.00018,0.0,0.0
1.457,5565.653,0.00018,0.0,0.0
1.464,5574.28,0.00018,0.0,0.0
1.47,5553.343,0.00018,0.0,0.0
1.476,5533.952,0.00018,0.0,0.0
1.483,5558.745,0.00018,0.0,0.0
1.489,5540.103,0.00018,0.0,0.0
1.495,5524.924,0.00018,0.0,0.0
1.502,5563.586,0.00018,0.0,0.0
1.508,5533.404,0.00018,0.0,0.0
1.514,5542.745,0.00018,0.0,0.0
1.52,5534.095,0.00018,0.0,0.0
1.527,5558.222,0.00018,0.0,0.0
1.533,5560.84,0.00018,0.0,0.0
1.539,5537.738,0.00018,0.0,0.0
1.546,5550.611,0.00018,0.0,0.0
1.552,5554.038,0.00018,0.0,0.0
1.558,5583.807,0.00018,0.0,0.0
1.565,5625.033,0.00018,0.0,0.0
1.571,5553.751,0.00018,0.0,0.0
1.577,5552.676,0.00018,0.0,0.0
1.584,5595.053,0.00018,0.0,0.0
1.59,5604.262,0.00018,0.0,0.0
1.596,5607.274,0.00018,0.0,0.0
1.603,5615.442,0.00018,0.0,0.0
1.609,5590.063,0.00018,0.0,0.0
1.615,5605.237,0.00018,0.0,0.0
1.622,5605.021,0.00018,0.0,0.0
1.628,5620.973,0.00018,0.0,0.0
1.634,5656.539,0.00018,0.0,0.0
1.641,5673.418,0.00018,0.0,0.0
1.647,5690.668,0.00018,0.0,0.0
1.653,5700.526,0.00018,0.0,0.0
1.66,5683.662,0.00018,0.0,0.0
1.666,5709.609,0.00018,0.0,0.0
1.672,5703.696,0.00018,0.0,0.0
1.678,5715.298,0.00017,0.0,0.0
1.685,5750.192,0.00017,0.0,0.0
1.691,5737.909,0.00017,0.0,0.0
1.697,5774.502,0.00017,0.0,0.0
1.704,5759.527,0.00017,0.0,0.0
1.71,5745.821,0.00017,0.0,0.0
1.716,5793.477,0.00017,0.0,0.0
1.723,5783.658,0.00017,0.0,0.0
1.729,5842.739,0.00017,0.0,0.0
1.735,5817.315,0.00017,0.0,0.0
1.742,5846.782,0.00017,0.0,0.0
1.748,5886.484,0.00017,0.0,0.0
1.754,5901.537,0.00017,0.0,0.0
1.761,5848.351,0.00017,0.0,0.0
1.767,5902.796,0.00017,0.0,0.0
1.773,5899.227,0.00017,0.0,0.0
1.78,5897.368,0.00017,0.0,0.0
1.786,5915.103,0.00017,0.0,0.0
1.792,5921.521,0.00017,0.0,0.0
1.799,5940.564,0.00017,0.0,0.0
1.805,5943.492,0.00017,0.0,0.0
1.811,5916.205,0.00017,0.0,0.0
1.818,5941.949,0.00017,0.0,0.0
1.824,5934.731,0.00017,0.0,0.0
1.83,5937.794,0.00017,0.0,0.0
1.836,5955.773,0.00017,0.0,0.0
1.843,5950.363,0.00017,0.0,0.0
1.849,5947.202,0.00017,0.0,0.0
1.855,5958.546,0.00017,0.0,0.0
1.862,5943.39,0.00017,0.0,0.0
1.868,5974.261,0.00017,0.0,0.0
1.874,5964.161,0.00017,0.0,0.0
1.881,5953.97,0.00017,0.0,0.0
1.887,5910.176,0.00017,0.0,0.0
1.893,5965.241,0.00017,0.0,0.0
1.9,5961.253,0.00017,0.0,0.0
1.906,5945.796,0.00017,0.0,0.0
1.912,5973.121,0.00017,0.0,0.0
1.919,5928.963,0.00017,0.0,0.0
1.925,5958.396,0.00017,0.0,0.0
1.931,5933.232,0.00017,0.0,0.0
1.938,5945.098,0.00017,0.0,0.0
1.944,5928.211,0.00017,0.0,0.0
1.95,5933.085,0.00017,0.0,0.0
1.957,5927.074,0.00017,0.0,0.0
1.963,5948.624,0.00017,0.0,0.0
1.969,5929.929,0.00017,0.0,0.0
1.976,5909.236,0.00017,0.0,0.0
1.982,5951.285,0.00017,0.0,0.0
1.988,5911.512,0.00017,0.0,0.0
1.994,5934.998,0.00017,0.0,0.0
2.001,5897.496,0.00017,0.0,0.0
2.007,5938.895,0.00017,0.0,0.0
2.013,5925.599,0.00017,0.0,0.0
2.02,5923.688,0.00017,0.0,0.0
2.026,5941.733,0.00017,0.0,0.0
2.032,5950.251,0.00017,0.0,0.0
2.039,5915.472,0.00017,0.0,0.0
2.045,5928.886,0.00017,0.0,0.0
2.051,5931.942,0.00017,0.0,0.0
2.058,5968.147,0.00017,0.0,0.0
2.064,5961.741,0.00017,0.0,0.0
2.07,5959.715,0.00017,0.0,0.0
2.077,5975.679,0.00017,0.0,0.0
2.083,6005.673,0.00017,0.0,0.0
2.089,5934.421,0.00017,0.0,0.0
2.096,5991.619,0.00017,0.0,0.0
2.102,5976.697,0.00017,0.0,0.0
2.108,5991.504,0.00017,0.0,0.0
2.115,5988.249,0.00017,0.0,0.0
2.121,6002.819,0.00017,0.0,0.0
2.127,6024.521,0.00017,0.0,0.0
2.134,6018.81,0.00017,0.0,0.0
2.14,6015.144,0.00017,0.0,0.0
2.146,6046.353,0.00017,0.0,0.0
2.152,6039.14,0.00017,0.0,0.0
2.159,6033.766,0.00017,0.0,0.0
2.165,6034.693,0.00017,0.0,0.0
2.171,6019.656,0.00017,0.0,0.0
2.178,6097.621,0.00016,0.0,0.0
2.184,6079.144,0.00016,0.0,0.0
2.19,6097.411,0.00016,0.0,0.0
2.197,6110.291,0.00016,0.0,0.0
2.203,6106.213,0.00016,0.0,0.0
2.209,6070.458,0.00016,0.0,0.0
2.216,6148.908,0.00016,0.0,0.0
2.222,6108.224,0.00016,0.0,0.0
2.228,6609.992,0.00015,0.0,0.0
2.235,6145.724,0.00016,0.0,0.0
2.241,6179.821,0.00016,0.0,0.0
2.247,6208.99,0.00016,0.0,0.0
2.254,6213.485,0.00016,0.0,0.0
2.26,6247.245,0.00016,0.0,0.0
2.266,6216.775,0.00016,0.0,0.0
2.273,6267.656,0.00016,0.0,0.0
2.279,6266.031,0.00016,0.0,0.0
2.285,6287.728,0.00016,0.0,0.0
2.292,6305.74,0.00016,0.0,0.0
2.298,6316.406,0.00016,0.0,0.0
2.304,6364.535,0.00016,0.0,0.0
2.31,6371.037,0.00016,0.0,0.0
2.317,6359.256,0.00016,0.0,0.0
2.323,6382.656,0.00016,0.0,0.0
2.329,6390.601,0.00016,0.0,0.0
2.336,6439.627,0.00016,0.0,0.0
2.342,6445.787,0.00016,0.0,0.0
2.348,6457.623,0.00015,0.0,0.0
2.355,6492.761,0.00015,0.0,0.0
2.361,6502.313,0.00015,0.0,0.0
2.367,6511.557,0.00015,0.0,0.0
2.374,6545.018,0.00015,0.0,0.0
2.38,6604.286,0.00015,0.0,0.0
2.386,6639.459,0.00015,0.0,0.0
2.393,6692.252,0.00015,0.0,0.0
2.399,6728.012,0.00015,0.0,0.0
2.405,6806.482,0.00015,0.0,0.0
2.412,6964.838,0.00014,0.0,0.0
2.418,7060.96,0.00014,0.0,0.0
2.424,7115.73,0.00014,0.0,0.0
2.431,7183.275,0.00014,0.0,0.0
2.437,7151.897,0.00014,0.0,0.0
2.443,7079.388,0.00014,0.0,0.0
2.45,6992.955,0.00014,0.0,0.0
2.456,6930.764,0.00014,0.0,0.0
2.462,6929.526,0.00014,0.0,0.0
2.468,6909.238,0.00014,0.0,0.0
2.475,6932.773,0.00014,0.0,0.0
2.481,6920.609,0.00014,0.0,0.0
2.487,6963.858,0.00014,0.0,0.0
2.494,6948.415,0.00014,0.0,0.0
2.5,6992.26,0.00014,0.0,0.0
2.506,7001.79,0.00014,0.0,0.0
2.513,6997.422,0.00014,0.0,0.0
2.519,7030.563,0.00014,0.0,0.0
2.525,7065.598,0.00014,0.0,0.0
2.532,7094.956,0.00014,0.0,0.0
2.538,7116.7,0.00014,0.0,0.0
2.544,7133.983,0.00014,0.0,0.0
2.551,7171.334,0.00014,0.0,0.0
2.557,7192.79,0.00014,0.0,0.0
2.563,7211.432,0.00014,0.0,0.0
2.57,7236.145,0.00014,0.0,0.0
2.576,7243.239,0.00014,0.0,0.0
2.582,7289.705,0.00014,0.0,0.0
2.589,7318.872,0.00014,0.0,0.0
2.595,7342.754,0.00014,0.0,0.0
2.601,7339.55,0.00014,0.0,0.0
2.608,7380.713,0.00014,0.0,0.0
2.614,7402.799,0.00014,0.0,0.0
2.62,7429.79,0.00013,0.0,0.0
2.626,7466.44,0.00013,0.0,0.0
2.633,7457.601,0.00013,0.0,0.0
2.639,7499.23,0.00013,0.0,0.0
2.645,7520.252,0.00013,0.0,0.0
2.652,7534.347,0.00013,0.0,0.0
2.658,7649.935,0.00013,0.0,0.0
2.664,7591.192,0.00013,0.0,0.0
2.671,7634.518,0.00013,0.0,0.0
2.677,7652.248,0.00013,0.0,0.0
2.683,7673.852,0.00013,0.0,0.0
2.69,7697.076,0.00013,0.0,0.0
2.696,7707.938,0.00013,0.0,0.0
2.702,7730.812,0.00013,0.0,0.0
2.709,7783.724,0.00013,0.0,0.0
2.715,7802.631,0.00013,0.0,0.0
2.721,7804.059,0.00013,0.0,0.0
2.728,7847.861,0.00013,0.0,0.0
2.734,7870.372,0.00013,0.0,0.0
2.74,7883.687,0.00013,0.0,0.0
2.747,7926.981,0.00013,0.0,0.0
2.753,7960.185,0.00013,0.0,0.0
2.759,7990.613,0.00013,0.0,0.0
2.766,7990.586,0.00013,0.0,0.0
2.772,8019.022,0.00012,0.0,0.0
2.778,8026.238,0.00012,0.0,0.0
2.784,8063.432,0.00012,0.0,0.0
2.791,8095.748,0.00012,0.0,0.0
2.797,8157.378,0.00012,0.0,0.0
2.803,8139.841,0.00012,0.0,0.0
2.81,8201.967,0.00012,0.0,0.0
2.816,8185.892,0.00012,0.0,0.0
2.822,8251.761,0.00012,0.0,0.0
2.829,8248.629,0.00012,0.0,0.0
2.835,8277.998,0.00012,0.0,0.0
2.841,8328.796,0.00012,0.0,0.0
2.848,8314.178,0.00012,0.0,0.0
2.854,8373.901,0.00012,0.0,0.0
2.86,8371.463,0.00012,0.0,0.0
2.867,8385.732,0.00012,0.0,0.0
2.873,8434.293,0.00012,0.0,0.0
2.879,8459.716,0.00012,0.0,0.0
2.886,8460.015,0.00012,0.0,0.0
2.892,8482.135,0.00012,0.0,0.0
2.898,8525.934,0.00012,0.0,0.0
2.905,8544.693,0.00012,0.0,0.0
2.911,8526.305,0.00012,0.0,0.0
2.917,8597.876,0.00012,0.0,0.0
2.924,8612.422,0.00012,0.0,0.0
2.93,8607.576,0.00012,0.0,0.0
2.936,8642.283,0.00012,0.0,0.0
2.942,8665.273,0.00012,0.0,0.0
2.949,8684.835,0.00012,0.0,0.0
2.955,8694.261,0.00012,0.0,0.0
2.961,8731.922,0.00011,0.0,0.0
2.968,8737.827,0.00011,0.0,0.0
2.974,8776.57,0.00011,0.0,0.0
2.98,8787.557,0.00011,0.0,0.0
2.987,8781.854,0.00011,0.0,0.0
2.993,8827.014,0.00011,0.0,0.0
2.999,8834.339,0.00011,0.0,0.0
3.006,8829.347,0.00011,0.0,0.0
3.012,8830.143,0.00011,0.0,0.0
3.018,8866.973,0.00011,0.0,0.0
3.025,8867.679,0.00011,0.0,0.0
3.031,8886.028,0.00011,0.0,0.0
3.037,8890.638,0.00011,0.0,0.0
3.044,8882.027,0.00011,0.0,0.0
3.05,8923.777,0.00011,0.0,0.0
3.056,8925.984,0.00011,0.0,0.0
3.063,8940.941,0.00011,0.0,0.0
3.069,8923.465,0.00011,0.0,0.0
3.075,8936.101,0.00011,0.0,0.0
3.082,8957.738,0.00011,0.0,0.0
3.088,8946.288,0.00011,0.0,0.0
3.094,8946.442,0.00011,0.0,0.0
3.1,8937.864,0.00011,0.0,0.0
3.107,8948.017,0.00011,0.0,0.0
3.113,8950.791,0.00011,0.0,0.0
3.119,8956.922,0.00011,0.0,0.0
3.126,8933.733,0.00011,0.0,0.0
3.132,8930.571,0.00011,0.0,0.0
3.138,8947.437,0.00011,0.0,0.0
3.145,8956.675,0.00011,0.0,0.0
3.151,8951.024,0.00011,0.0,0.0
3.157,8923.984,0.00011,0.0,0.0
3.164,8911.053,0.00011,0.0,0.0
3.17,8939.976,0.00011,0.0,0.0
3.176,8889.48,0.00011,0.0,0.0
3.183,8885.853,0.00011,0.0,0.0
3.189,8880.464,0.00011,0.0,0.0
3.195,8884.323,0.00011,0.0,0.0
3.202,8868.95,0.00011,0.0,0.0
3.208,8851.505,0.00011,0.0,0.0
3.214,8859.793,0.00011,0.0,0.0
3.221,8848.856,0.00011,0.0,0.0
3.227,8827.454,0.00011,0.0,0.0
3.233,8831.799,0.00011,0.0,0.0
3.24,8812.734,0.00011,0.0,0.0
3.246,8796.119,0.00011,0.0,0.0
3.252,8779.419,0.00011,0.0,0.0
3.258,8787.848,0.00011,0.0,0.0
3.265,8749.223,0.00011,0.0,0.0
3.271,8738.213,0.00011,0.0,0.0
3.277,8709.624,0.00011,0.0,0.0
3.284,8689.469,0.00012,0.0,0.0
3.29,8695.363,0.00012,0.0,0.0
3.296,8653.993,0.00012,0.0,0.0
3.303,8666.557,0.00012,0.0,0.0
3.309,8619.081,0.00012,0.0,0.0
3.315,8649.302,0.00012,0.0,0.0
3.322,8624.498,0.00012,0.0,0.0
3.328,8621.321,0.00012,0.0,0.0
3.334,8605.56,0.00012,0.0,0.0
3.341,8589.164,0.00012,0.0,0.0
3.347,8595.861,0.00012,0.0,0.0
3.353,8558.738,0.00012,0.0,0.0
3.36,8554.38,0.00012,0.0,0.0
3.366,8524.513,0.00012,0.0,0.0
3.372,8511.789,0.00012,0.0,0.0
3.379,8483.437,0.00012,0.0,0.0
3.385,8482.218,0.00012,0.0,0.0
3.391,8475.323,0.00012,0.0,0.0
3.398,8457.037,0.00012,0.0,0.0
3.404,8451.108,0.00012,0.0,0.0
3.41,8445.59,0.00012,0.0,0.0
3.416,8436.38,0.00012,0.0,0.0
3.423,8457.652,0.00012,0.0,0.0
3.429,8458.891,0.00012,0.0,0.0
3.435,8442.119,0.00012,0.0,0.0
3.442,8426.596,0.00012,0.0,0.0
3.448,8404.597,0.00012,0.0,0.0
3.454,8415.906,0.00012,0.0,0.0
3.461,8367.283,0.00012,0.0,0.0
3.467,8345.752,0.00012,0.0,0.0
3.473,8351.14,0.00012,0.0,0.0
3.48,8332.282,0.00012,0.0,0.0
3.486,8304.373,0.00012,0.0,0.0
3.492,8337.022,0.00012,0.0,0.0
3.499,8319.846,0.00012,0.0,0.0
3.505,8296.716,0.00012,0.0,0.0
3.511,8288.309,0.00012,0.0,0.0
3.518,8302.764,0.00012,0.0,0.0
3.524,8305.903,0.00012,0.0,0.0
3.53,8276.076,0.00012,0.0,0.0
3.537,8280.188,0.00012,0.0,0.0
3.543,8286.727,0.00012,0.0,0.0
3.549,8278.866,0.00012,0.0,0.0
3.556,8277.512,0.00012,0.0,0.0
3.562,8260.02,0.00012,0.0,0.0
3.568,8256.446,0.00012,0.0,0.0
3.574,8237.647,0.00012,0.0,0.0
3.581,8253.128,0.00012,0.0,0.0
3.587,8210.792,0.00012,0.0,0.0
3.593,8232.146,0.00012,0.0,0.0
3.6,8227.73,0.00012,0.0,0.0
3.606,8243.708,0.00012,0.0,0.0
3.612,8208.66,0.00012,0.0,0.0
3.619,8228.636,0.00012,0.0,0.0
3.625,8238.102,0.00012,0.0,0.0
3.631,8220.891,0.00012,0.0,0.0
3.638,8202.559,0.00012,0.0,0.0
3.644,8207.557,0.00012,0.0,0.0
3.65,8197.04,0.00012,0.0,0.0
3.657,8179.33,0.00012,0.0,0.0
3.663,8203.761,0.00012,0.0,0.0
3.669,8171.889,0.00012,0.0,0.0
3.676,8199.874,0.00012,0.0,0.0
3.682,8167.033,0.00012,0.0,0.0
3.688,8178.13,0.00012,0.0,0.0
3.695,8192.619,0.00012,0.0,0.0
3.701,8189.255,0.00012,0.0,0.0
3.707,8185.671,0.00012,0.0,0.0
3.714,8175.316,0.00012,0.0,0.0
3.72,8172.372,0.00012,0.0,0.0
3.726,8170.813,0.00012,0.0,0.0
3.732,8135.999,0.00012,0.0,0.0
3.739,8160.45,0.00012,0.0,0.0
3.745,8177.547,0.00012,0.0,0.0
3.751,8143.095,0.00012,0.0,0.0
3.758,8147.312,0.00012,0.0,0.0
3.764,8147.144,0.00012,0.0,0.0
3.77,8149.184,0.00012,0.0,0.0
3.777,8144.52,0.00012,0.0,0.0
3.783,8137.141,0.00012,0.0,0.0
3.789,8148.497,0.00012,0.0,0.0
3.796,8160.689,0.00012,0.0,0.0
3.802,8178.866,0.00012,0.0,0.0
3.808,8188.329,0.00012,0.0,0.0
3.815,8161.842,0.00012,0.0,0.0
3.821,8152.088,0.00012,0.0,0.0
3.827,8167.407,0.00012,0.0,0.0
3.834,8136.543,0.00012,0.0,0.0
3.84,8156.973,0.00012,0.0,0.0
3.846,8147.123,0.00012,0.0,0.0
3.853,8129.585,0.00012,0.0,0.0
3.859,8138.87,0.00012,0.0,0.0
3.865,8150.383,0.00012,0.0,0.0
3.872,8138.28,0.00012,0.0,0.0
3.878,8145.415,0.00012,0.0,0.0
3.884,8123.95,0.00012,0.0,0.0
3.89,8143.744,0.00012,0.0,0.0
3.897,8138.795,0.00012,0.0,0.0
3.903,8109.395,0.00012,0.0,0.0
3.909,8140.433,0.00012,0.0,0.0
3.916,8125.016,0.00012,0.0,0.0
3.922,8135.979,0.00012,0.0,0.0
3.928,8135.086,0.00012,0.0,0.0
3.935,8137.885,0.00012,0.0,0.0
3.941,8124.291,0.00012,0.0,0.0
3.947,8174.689,0.00012,0.0,0.0
3.954,8149.588,0.00012,0.0,0.0
3.96,8163.32,0.00012,0.0,0.0
3.966,8154.428,0.00012,0.0,0.0
3.973,8177.075,0.00012,0.0,0.0
3.979,8150.753,0.00012,0.0,0.0
3.985,8152.118,0.00012,0.0,0.0
3.992,8135.07,0.00012,0.0,0.0
3.998,8130.681,0.00012,0.0,0.0
4.004,8112.665,0.00012,0.0,0.0
4.011,8162.713,0.00012,0.0,0.0
4.017,8128.003,0.00012,0.0,0.0
4.023,8140.428,0.00012,0.0,0.0
4.03,8144.752,0.00012,0.0,0.0
4.036,8122.523,0.00012,0.0,0.0
4.042,8178.23,0.00012,0.0,0.0
4.048,8167.385,0.00012,0.0,0.0
4.055,8149.672,0.00012,0.0,0.0
4.061,8153.211,0.00012,0.0,0.0
4.067,8265.75,0.00012,0.0,0.0
4.074,8190.162,0.00012,0.0,0.0
4.08,8248.808,0.00012,0.0,0.0
4.086,8210.679,0.00012,0.0,0.0
4.093,8252.284,0.00012,0.0,0.0
4.099,8228.389,0.00012,0.0,0.0
4.105,8243.157,0.00012,0.0,0.0
4.112,8276.582,0.00012,0.0,0.0
4.118,8257.597,0.00012,0.0,0.0
4.124,8300.733,0.00012,0.0,0.0
4.131,8285.045,0.00012,0.0,0.0
4.137,8311.092,0.00012,0.0,0.0
4.143,8318.144,0.00012,0.0,0.0
4.15,8331.305,0.00012,0.0,0.0
4.156,8331.29,0.00012,0.0,0.0
4.162,8381.286,0.00012,0.0,0.0
4.169,8370.391,0.00012,0.0,0.0
4.175,8427.711,0.00012,0.0,0.0
4.181,8422.294,0.00012,0.0,0.0
4.188,8449.449,0.00012,0.0,0.0
4.194,8507.174,0.00012,0.0,0.0
4.2,8507.804,0.00012,0.0,0.0
4.206,8547.361,0.00012,0.0,0.0
4.213,8579.245,0.00012,0.0,0.0
4.219,8581.06,0.00012,0.0,0.0
4.225,8618.665,0.00012,0.0,0.0
4.232,8647.01,0.00012,0.0,0.0
4.238,8655.017,0.00012,0.0,0.0
4.244,8725.341,0.00011,0.0,0.0
4.251,8723.109,0.00011,0.0,0.0
4.257,8752.21,0.00011,0.0,0.0
4.263,8837.572,0.00011,0.0,0.0
4.27,8817.334,0.00011,0.0,0.0
4.276,8904.151,0.00011,0.0,0.0
4.282,8933.289,0.00011,0.0,0.0
4.289,8902.04,0.00011,0.0,0.0
4.295,9048.914,0.00011,0.0,0.0
4.301,8971.525,0.00011,0.0,0.0
4.308,9064.757,0.00011,0.0,0.0
4.314,9152.15,0.00011,0.0,0.0
4.32,9137.557,0.00011,0.0,0.0
4.327,9237.252,0.00011,0.0,0.0
4.333,9236.725,0.00011,0.0,0.0
4.339,9316.83,0.00011,0.0,0.0
4.346,9465.117,0.00011,0.0,0.0
4.352,9372.801,0.00011,0.0,0.0
4.358,9586.488,0.0001,0.0,0.0
4.364,9617.913,0.0001,0.0,0.0
4.371,9503.641,0.00011,0.0,0.0
4.377,9945.388,0.0001,0.0,0.0
4.383,9792.798,0.0001,0.0,0.0
4.39,9979.952,0.0001,0.0,0.0
4.396,10071.672,0.0001,0.0,0.0
4.402,10039.209,0.0001,0.0,0.0
4.409,10189.646,0.0001,0.0,0.0
4.415,10315.724,0.0001,0.0,0.0
4.421,10313.581,0.0001,0.0,0.0
4.428,10729.57,0.00009,0.0,0.0
4.434,10637.581,0.00009,0.0,0.0
4.44,10723.016,0.00009,0.0,0.0
4.447,11096.702,0.00009,0.0,0.0
4.453,10970.222,0.00009,0.0,0.0
4.459,11508.555,0.00009,0.0,0.0
4.466,11660.378,0.00009,0.0,0.0
4.472,11625.836,0.00009,0.0,0.0
4.478,12353.326,0.00008,0.0,0.0
4.485,12412.47,0.00008,0.0,0.0
4.491,12974.785,0.00008,0.0,0.0
4.497,14439.229,0.00007,0.0,0.0
4.504,14295.022,0.00007,0.0,0.0
4.51,17204.648,0.00006,0.0,0.0
4.516,19186.502,0.00005,0.0,0.0
4.522,20393.217,0.00005,0.0,0.0
4.529,32382.812,0.00003,0.0,0.0
4.535,41500.476,0.00002,0.0,0.0
4.541,54144.619,0.00002,0.0,0.0
4.548,101397.922,0.00001,0.0,0.0
4.554,75544.688,0.00001,0.0,0.0
4.56,102970.751,0.00001,0.0,0.0
4.567,94098.528,0.00001,0.0,0.0
4.573,86028.757,0.00001,0.0,0.0
4.579,81154.879,0.00001,0.0,0.0
4.586,52612.042,0.00002,0.0,0.0
4.592,48579.608,0.00002,0.0,0.0
4.598,36335.811,0.00003,0.0,0.0
4.605,30056.461,0.00003,0.0,0.0
4.611,25081.745,0.00004,0.0,0.0
4.617,23102.956,0.00004,0.0,0.0
4.624,20377.921,0.00005,0.0,0.0
4.63,18024.341,0.00006,0.0,0.0
4.636,15370.368,0.00007,0.0,0.0
4.643,15300.045,0.00007,0.0,0.0
4.649,14028.504,0.00007,0.0,0.0
4.655,12819.811,0.00008,0.0,0.0
4.662,12874.546,0.00008,0.0,0.0
4.668,11852.806,0.00008,0.0,0.0
4.674,11508.26,0.00009,0.0,0.0
4.68,11530.18,0.00009,0.0,0.0
4.687,10920.757,0.00009,0.0,0.0
4.693,11009.848,0.00009,0.0,0.0
4.699,10854.108,0.00009,0.0,0.0
4.706,10458.816,0.0001,0.0,0.0
4.712,10685.629,0.00009,0.0,0.0
4.718,10321.66,0.0001,0.0,0.0
4.725,10066.458,0.0001,0.0,0.0
4.731,10361.554,0.0001,0.0,0.0
4.737,9883.653,0.0001,0.0,0.0
4.744,9986.548,0.0001,0.0,0.0
4.75,9889.851,0.0001,0.0,0.0
4.756,9756.143,0.0001,0.0,0.0
4.763,9713.118,0.0001,0.0,0.0
4.769,9565.668,0.0001,0.0,0.0
4.775,9476.435,0.00011,0.0,0.0
4.782,9473.3,0.00011,0.0,0.0
4.788,9300.124,0.00011,0.0,0.0
4.794,9216.087,0.00011,0.0,0.0
4.801,9264.922,0.00011,0.0,0.0
4.807,9069.444,0.00011,0.0,0.0
4.813,9103.706,0.00011,0.0,0.0
4.82,9029.402,0.00011,0.0,0.0
4.826,9000.671,0.00011,0.0,0.0
4.832,9024.605,0.00011,0.0,0.0
4.838,8987.006,0.00011,0.0,0.0
4.845,9006.077,0.00011,0.0,0.0
4.851,9130.029,0.00011,0.0,0.0
4.857,9139.413,0.00011,0.0,0.0
4.864,9106.007,0.00011,0.0,0.0
4.87,9001.419,0.00011,0.0,0.0
4.876,8812.263,0.00011,0.0,0.0
4.883,8731.504,0.00011,0.0,0.0
4.889,8529.915,0.00012,0.0,0.0
4.895,8446.813,0.00012,0.0,0.0
4.902,8381.007,0.00012,0.0,0.0
4.908,8304.649,0.00012,0.0,0.0
4.914,8230.945,0.00012,0.0,0.0
4.921,8163.22,0.00012,0.0,0.0
4.927,8141.917,0.00012,0.0,0.0
4.933,8106.97,0.00012,0.0,0.0
4.94,8021.122,0.00012,0.0,0.0
4.946,7998.482,0.00013,0.0,0.0
4.952,8001.486,0.00012,0.0,0.0
4.959,7937.857,0.00013,0.0,0.0
4.965,7882.014,0.00013,0.0,0.0
4.971,7831.661,0.00013,0.0,0.0
4.978,7854.976,0.00013,0.0,0.0
4.984,7805.446,0.00013,0.0,0.0
4.99,7744.87,0.00013,0.0,0.0
4.996,7720.323,0.00013,0.0,0.0
5.003,7693.015,0.00013,0.0,0.0
5.009,7623.419,0.00013,0.0,0.0
5.015,7665.898,0.00013,0.0,0.0
5.022,7576.886,0.00013,0.0,0.0
5.028,7581.438,0.00013,0.0,0.0
5.034,7579.973,0.00013,0.0,0.0
5.041,7483.179,0.00013,0.0,0.0
5.047,7469.476,0.00013,0.0,0.0
5.053,7470.698,0.00013,0.0,0.0
5.06,7406.725,0.00014,0.0,0.0
5.066,7414.276,0.00013,0.0,0.0
5.072,7382.314,0.00014,0.0,0.0
5.079,7345.626,0.00014,0.0,0.0
5.085,7343.788,0.00014,0.0,0.0
5.091,7298.257,0.00014,0.0,0.0
5.098,7310.855,0.00014,0.0,0.0
5.104,7235.735,0.00014,0.0,0.0
5.11,7233.444,0.00014,0.0,0.0
5.117,7229.459,0.00014,0.0,0.0
5.123,7185.626,0.00014,0.0,0.0
5.129,7159.934,0.00014,0.0,0.0
5.136,7169.077,0.00014,0.0,0.0
5.142,7129.361,0.00014,0.0,0.0
5.148,7102.534,0.00014,0.0,0.0
5.154,7087.544,0.00014,0.0,0.0
5.161,7054.143,0.00014,0.0,0.0
5.167,7081.182,0.00014,0.0,0.0
5.173,7028.659,0.00014,0.0,0.0
5.18,7008.93,0.00014,0.0,0.0
5.186,7003.605,0.00014,0.0,0.0
5.192,6960.957,0.00014,0.0,0.0
5.199,6960.635,0.00014,0.0,0.0
5.205,6940.106,0.00014,0.0,0.0
5.211,6910.057,0.00014,0.0,0.0
5.218,6902.705,0.00014,0.0,0.0
5.224,6879.255,0.00015,0.0,0.0
5.23,6868.679,0.00015,0.0,0.0
5.237,6863.486,0.00015,0.0,0.0
5.243,6823.029,0.00015,0.0,0.0
5.249,6815.963,0.00015,0.0,0.0
5.256,6808.549,0.00015,0.0,0.0
5.262,6778.309,0.00015,0.0,0.0
5.268,6792.258,0.00015,0.0,0.0
5.275,6765.108,0.00015,0.0,0.0
5.281,6739.328,0.00015,0.0,0.0
5.287,6728.34,0.00015,0.0,0.0
5.294,6695.84,0.00015,0.0,0.0
5.3,6726.812,0.00015,0.0,0.0
5.306,6681.773,0.00015,0.0,0.0
5.312,6683.68,0.00015,0.0,0.0
5.319,6681.746,0.00015,0.0,0.0
5.325,6649.994,0.00015,0.0,0.0
5.331,6635.105,0.00015,0.0,0.0
5.338,6652.686,0.00015,0.0,0.0
5.344,6646.945,0.00015,0.0,0.0
5.35,6627.29,0.00015,0.0,0.0
5.357,6620.823,0.00015,0.0,0.0
5.363,6592.3,0.00015,0.0,0.0
5.369,6637.296,0.00015,0.0,0.0
5.376,6582.001,0.00015,0.0,0.0
5.382,6581.773,0.00015,0.0,0.0
5.388,6579.832,0.00015,0.0,0.0
5.395,6578.874,0.00015,0.0,0.0
5.401,6595.349,0.00015,0.0,0.0
5.407,6568.961,0.00015,0.0,0.0
5.414,6555.006,0.00015,0.0,0.0
5.42,6541.194,0.00015,0.0,0.0
5.426,6534.721,0.00015,0.0,0.0
5.433,6508.241,0.00015,0.0,0.0
5.439,6544.506,0.00015,0.0,0.0
5.445,6525.455,0.00015,0.0,0.0
5.452,6544.659,0.00015,0.0,0.0
5.458,6516.73,0.00015,0.0,0.0
5.464,6543.788,0.00015,0.0,0.0
5.47,6530.888,0.00015,0.0,0.0
5.477,6507.86,0.00015,0.0,0.0
5.483,6506.292,0.00015,0.0,0.0
5.489,6507.85,0.00015,0.0,0.0
5.496,6494.633,0.00015,0.0,0.0
5.502,6493.313,0.00015,0.0,0.0
5.508,6463.014,0.00015,0.0,0.0
5.515,6457.271,0.00015,0.0,0.0
5.521,6441.455,0.00016,0.0,0.0
5.527,6439.343,0.00016,0.0,0.0
5.534,6444.94,0.00016,0.0,0.0
5.54,6433.644,0.00016,0.0,0.0
5.546,6405.572,0.00016,0.0,0.0
5.553,6418.195,0.00016,0.0,0.0
5.559,6383.103,0.00016,0.0,0.0
5.565,6377.687,0.00016,0.0,0.0
5.572,6396.09,0.00016,0.0,0.0
5.578,6354.077,0.00016,0.0,0.0
5.584,6363.765,0.00016,0.0,0.0
5.591,6343.838,0.00016,0.0,0.0
5.597,6341.685,0.00016,0.0,0.0
5.603,6335.059,0.00016,0.0,0.0
5.61,6320.657,0.00016,0.0,0.0
5.616,6304.859,0.00016,0.0,0.0
5.622,6321.061,0.00016,0.0,0.0
5.628,6284.345,0.00016,0.0,0.0
5.635,6301.52,0.00016,0.0,0.0
5.641,6259.12,0.00016,0.0,0.0
5.647,6229.915,0.00016,0.0,0.0
5.654,6250.812,0.00016,0.0,0.0
5.66,6232.838,0.00016,0.0,0.0
5.666,6235.085,0.00016,0.0,0.0
5.673,6244.484,0.00016,0.0,0.0
5.679,6205.946,0.00016,0.0,0.0
5.685,6223.921,0.00016,0.0,0.0
5.692,6206.971,0.00016,0.0,0.0
5.698,6188.48,0.00016,0.0,0.0
5.704,6196.263,0.00016,0.0,0.0
5.711,6176.177,0.00016,0.0,0.0
5.717,6167.333,0.00016,0.0,0.0
5.723,6188.379,0.00016,0.0,0.0
5.73,6154.974,0.00016,0.0,0.0
5.736,6175.792,0.00016,0.0,0.0
5.742,6166.777,0.00016,0.0,0.0
5.749,6172.533,0.00016,0.0,0.0
5.755,6183.436,0.00016,0.0,0.0
5.761,6169.195,0.00016,0.0,0.0
5.768,6138.988,0.00016,0.0,0.0
5.774,6168.935,0.00016,0.0,0.0
5.78,6132.961,0.00016,0.0,0.0
5.786,6152.941,0.00016,0.0,0.0
5.793,6164.107,0.00016,0.0,0.0
5.799,6155.193,0.00016,0.0,0.0
5.805,6180.594,0.00016,0.0,0.0
5.812,6165.243,0.00016,0.0,0.0
5.818,6201.746,0.00016,0.0,0.0
5.824,6209.898,0.00016,0.0,0.0
5.831,6232.265,0.00016,0.0,0.0
5.837,6279.774,0.00016,0.0,0.0
5.843,6342.308,0.00016,0.0,0.0
5.85,6473.301,0.00015,0.0,0.0
5.856,6668.179,0.00015,0.0,0.0
5.862,6944.27,0.00014,0.0,0.0
5.869,7267.783,0.00014,0.0,0.0
5.875,7623.268,0.00013,0.0,0.0
5.881,7830.05,0.00013,0.0,0.0
5.888,7868.177,0.00013,0.0,0.0
5.894,7650.855,0.00013,0.0,0.0
5.9,7359.073,0.00014,0.0,0.0
5.907,7032.273,0.00014,0.0,0.0
5.913,6750.263,0.00015,0.0,0.0
5.919,6533.606,0.00015,0.0,0.0
5.926,6400.375,0.00016,0.0,0.0
5.932,6315.942,0.00016,0.0,0.0
5.938,6272.646,0.00016,0.0,0.0
5.944,6211.935,0.00016,0.0,0.0
5.951,6256.686,0.00016,0.0,0.0
5.957,6219.707,0.00016,0.0,0.0
5.963,6208.776,0.00016,0.0,0.0
5.97,6234.79,0.00016,0.0,0.0
5.976,6219.263,0.00016,0.0,0.0
5.982,6227.488,0.00016,0.0,0.0
5.989,6234.13,0.00016,0.0,0.0
5.995,6237.602,0.00016,0.0,0.0
6.001,6231.675,0.00016,0.0,0.0
6.008,6235.793,0.00016,0.0,0.0
6.014,6244.155,0.00016,0.0,0.0
6.02,6276.28,0.00016,0.0,0.0
6.027,6234.019,0.00016,0.0,0.0
6.033,6289.993,0.00016,0.0,0.0
6.039,6291.219,0.00016,0.0,0.0
6.046,6290.494,0.00016,0.0,0.0
6.052,6305.414,0.00016,0.0,0.0
6.058,6283.256,0.00016,0.0,0.0
6.065,6290.562,0.00016,0.0,0.0
6.071,6303.138,0.00016,0.0,0.0
6.077,6315.833,0.00016,0.0,0.0
6.084,6302.222,0.00016,0.0,0.0
6.09,6314.381,0.00016,0.0,0.0
6.096,6287.407,0.00016,0.0,0.0
6.102,6330.827,0.00016,0.0,0.0
6.109,6324.722,0.00016,0.0,0.0
6.115,6305.019,0.00016,0.0,0.0
6.121,6309.178,0.00016,0.0,0.0
6.128,6299.868,0.00016,0.0,0.0
6.134,6308.068,0.00016,0.0,0.0
6.14,6304.806,0.00016,0.0,0.0
6.147,6305.834,0.00016,0.0,0.0
6.153,6287.376,0.00016,0.0,0.0
6.159,6305.847,0.00016,0.0,0.0
6.166,6260.208,0.00016,0.0,0.0
6.172,6285.399,0.00016,0.0,0.0
6.178,6286.493,0.00016,0.0,0.0
6.185,6297.151,0.00016,0.0,0.0
6.191,6270.383,0.00016,0.0,0.0
6.197,6310.548,0.00016,0.0,0.0
6.204,6256.812,0.00016,0.0,0.0
6.21,6290.742,0.00016,0.0,0.0
6.216,6244.675,0.00016,0.0,0.0
6.223,6313.673,0.00016,0.0,0.0
6.229,6277.036,0.00016,0.0,0.0
6.235,6309.166,0.00016,0.0,0.0
6.242,6330.336,0.00016,0.0,0.0
6.248,6305.461,0.00016,0.0,0.0
6.254,6328.023,0.00016,0.0,0.0
6.26,6296.314,0.00016,0.0,0.0
6.267,6359.336,0.00016,0.0,0.0
6.273,6332.397,0.00016,0.0,0.0
6.279,6355.783,0.00016,0.0,0.0
6.286,6318.8,0.00016,0.0,0.0
6.292,6377.973,0.00016,0.0,0.0
6.298,6361.163,0.00016,0.0,0.0
6.305,6421.545,0.00016,0.0,0.0
6.311,6387.103,0.00016,0.0,0.0
6.317,6406.19,0.00016,0.0,0.0
6.324,6449.308,0.00016,0.0,0.0
6.33,6458.998,0.00015,0.0,0.0
6.336,6479.989,0.00015,0.0,0.0
6.343,6507.93,0.00015,0.0,0.0
6.349,6595.629,0.00015,0.0,0.0
6.355,6535.736,0.00015,0.0,0.0
6.362,6713.25,0.00015,0.0,0.0
6.368,6596.863,0.00015,0.0,0.0
6.374,6870.669,0.00015,0.0,0.0
6.381,6679.846,0.00015,0.0,0.0
6.387,7253.173,0.00014,0.0,0.0
6.393,6781.306,0.00015,0.0,0.0
6.4,8020.18,0.00012,0.0,0.0
6.406,7374.712,0.00014,0.0,0.0
6.412,10096.051,0.0001,0.0,0.0
6.418,13076.157,0.00008,0.0,0.0
6.425,10139.465,0.0001,0.0,0.0
6.431,19515.113,0.00005,0.0,0.0
6.437,15743.144,0.00006,0.0,0.0
6.444,23635.096,0.00004,0.0,0.0
6.45,23214.502,0.00004,0.0,0.0
6.456,23660.091,0.00004,0.0,0.0
6.463,20066.138,0.00005,0.0,0.0
6.469,26237.643,0.00004,0.0,0.0
6.475,12650.066,0.00008,0.0,0.0
6.482,14792.694,0.00007,0.0,0.0
6.488,9015.279,0.00011,0.0,0.0
6.494,8808.264,0.00011,0.0,0.0
6.501,7981.487,0.00013,0.0,0.0
6.507,7601.319,0.00013,0.0,0.0
6.513,7439.165,0.00013,0.0,0.0
6.52,7221.956,0.00014,0.0,0.0
6.526,7310.427,0.00014,0.0,0.0
6.532,7236.658,0.00014,0.0,0.0
6.539,7412.898,0.00013,0.0,0.0
6.545,7491.096,0.00013,0.0,0.0
6.551,7770.476,0.00013,0.0,0.0
6.558,8118.83,0.00012,0.0,0.0
6.564,8911.433,0.00011,0.0,0.0
6.57,9841.241,0.0001,0.0,0.0
6.576,12215.705,0.00008,0.0,0.0
6.583,15993.227,0.00006,0.0,0.0
6.589,23649.195,0.00004,0.0,0.0
6.595,40892.849,0.00002,0.0,0.0
6.602,57052.996,0.00002,0.0,0.0
6.608,87138.294,0.00001,0.0,0.0
6.614,105083.099,0.00001,0.0,0.0
6.621,112581.758,0.00001,0.0,0.0
6.627,99718.882,0.00001,0.0,0.0
6.633,76073.86,0.00001,0.0,0.0
6.64,49101.73,0.00002,0.0,0.0
6.646,32561.51,0.00003,0.0,0.0
6.652,20447.9,0.00005,0.0,0.0
6.659,14800.091,0.00007,0.0,0.0
6.665,11022.206,0.00009,0.0,0.0
6.671,9355.111,0.00011,0.0,0.0
6.678,8329.3,0.00012,0.0,0.0
6.684,7679.122,0.00013,0.0,0.0
6.69,7265.498,0.00014,0.0,0.0
6.697,7014.808,0.00014,0.0,0.0
6.703,6812.329,0.00015,0.0,0.0
6.709,6684.078,0.00015,0.0,0.0
6.716,6589.565,0.00015,0.0,0.0
6.722,6497.768,0.00015,0.0,0.0
6.728,6467.503,0.00015,0.0,0.0
6.734,6373.574,0.00016,0.0,0.0
6.741,6362.254,0.00016,0.0,0.0
6.747,6304.572,0.00016,0.0,0.0
6.753,6289.721,0.00016,0.0,0.0
6.76,6253.791,0.00016,0.0,0.0
6.766,6252.101,0.00016,0.0,0.0
6.772,6224.822,0.00016,0.0,0.0
6.779,6222.021,0.00016,0.0,0.0
6.785,6211.76,0.00016,0.0,0.0
6.791,6167.875,0.00016,0.0,0.0
6.798,6200.753,0.00016,0.0,0.0
6.804,6161.622,0.00016,0.0,0.0
6.81,6209.425,0.00016,0.0,0.0
6.817,6183.61,0.00016,0.0,0.0
6.823,6176.191,0.00016,0.0,0.0
6.829,6134.877,0.00016,0.0,0.0
6.836,6133.481,0.00016,0.0,0.0
6.842,6072.619,0.00016,0.0,0.0
6.848,6071.569,0.00016,0.0,0.0
6.855,6023.733,0.00017,0.0,0.0
6.861,6015.521,0.00017,0.0,0.0
6.867,6016.809,0.00017,0.0,0.0
6.874,5959.477,0.00017,0.0,0.0
6.88,5978.131,0.00017,0.0,0.0
6.886,5950.871,0.00017,0.0,0.0
6.892,5954.665,0.00017,0.0,0.0
6.899,5938.606,0.00017,0.0,0.0
6.905,5917.473,0.00017,0.0,0.0
6.911,5913.443,0.00017,0.0,0.0
6.918,5917.293,0.00017,0.0,0.0
6.924,5879.501,0.00017,0.0,0.0
6.93,5897.311,0.00017,0.0,0.0
6.937,5893.858,0.00017,0.0,0.0
6.943,5876.243,0.00017,0.0,0.0
6.949,5877.892,0.00017,0.0,0.0
6.956,5849.797,0.00017,0.0,0.0
6.962,5848.184,0.00017,0.0,0.0
6.968,5854.607,0.00017,0.0,0.0
6.975,5841.608,0.00017,0.0,0.0
6.981,5838.326,0.00017,0.0,0.0
6.987,5837.965,0.00017,0.0,0.0
6.994,5831.551,0.00017,0.0,0.0
7.0,5840.634,0.00017,0.0,0.0
7.006,5798.355,0.00017,0.0,0.0
7.013,5807.388,0.00017,0.0,0.0
7.019,5787.517,0.00017,0.0,0.0
7.025,5783.538,0.00017,0.0,0.0
7.032,5792.889,0.00017,0.0,0.0
7.038,5773.408,0.00017,0.0,0.0
7.044,5744.903,0.00017,0.0,0.0
7.05,5766.043,0.00017,0.0,0.0
7.057,5778.922,0.00017,0.0,0.0
7.063,5768.721,0.00017,0.0,0.0
7.069,5763.003,0.00017,0.0,0.0
7.076,5748.008,0.00017,0.0,0.0
7.082,5749.913,0.00017,0.0,0.0
7.088,5720.415,0.00017,0.0,0.0
7.095,5731.504,0.00017,0.0,0.0
7.101,5738.709,0.00017,0.0,0.0
7.107,5707.405,0.00018,0.0,0.0
7.114,5718.336,0.00017,0.0,0.0
7.12,5702.72,0.00018,0.0,0.0
7.126,5700.733,0.00018,0.0,0.0
7.133,5714.437,0.00017,0.0,0.0
7.139,5704.014,0.00018,0.0,0.0
7.145,5674.937,0.00018,0.0,0.0
7.152,5687.419,0.00018,0.0,0.0
7.158,5680.816,0.00018,0.0,0.0
7.164,5690.684,0.00018,0.0,0.0
7.171,5661.145,0.00018,0.0,0.0
7.177,5673.327,0.00018,0.0,0.0
7.183,5658.938,0.00018,0.0,0.0
7.19,5672.149,0.00018,0.0,0.0
7.196,5655.5,0.00018,0.0,0.0
7.202,5639.047,0.00018,0.0,0.0
7.208,5645.86,0.00018,0.0,0.0
7.215,5643.559,0.00018,0.0,0.0
7.221,5654.446,0.00018,0.0,0.0
7.227,5645.64,0.00018,0.0,0.0
7.234,5644.604,0.00018,0.0,0.0
7.24,5635.648,0.00018,0.0,0.0
7.246,5657.521,0.00018,0.0,0.0
7.253,5627.538,0.00018,0.0,0.0
7.259,5646.086,0.00018,0.0,0.0
7.265,5662.399,0.00018,0.0,0.0
7.272,5666.937,0.00018,0.0,0.0
7.278,5690.103,0.00018,0.0,0.0
7.284,5688.627,0.00018,0.0,0.0
7.291,5710.125,0.00018,0.0,0.0
7.297,5722.011,0.00017,0.0,0.0
7.303,5731.678,0.00017,0.0,0.0
7.31,5714.628,0.00017,0.0,0.0
7.316,5715.475,0.00017,0.0,0.0
7.322,5690.92,0.00018,0.0,0.0
7.329,5672.325,0.00018,0.0,0.0
7.335,5675.299,0.00018,0.0,0.0
7.341,5642.44,0.00018,0.0,0.0
7.348,5654.961,0.00018,0.0,0.0
7.354,5627.306,0.00018,0.0,0.0
7.36,5633.379,0.00018,0.0,0.0
7.366,5642.707,0.00018,0.0,0.0
7.373,5636.516,0.00018,0.0,0.0
7.379,5662.933,0.00018,0.0,0.0
7.385,5640.31,0.00018,0.0,0.0
7.392,5639.328,0.00018,0.0,0.0
7.398,5661.916,0.00018,0.0,0.0
7.404,5651.084,0.00018,0.0,0.0
7.411,5666.436,0.00018,0.0,0.0
7.417,5665.522,0.00018,0.0,0.0
7.423,5661.464,0.00018,0.0,0.0
7.43,5676.528,0.00018,0.0,0.0
7.436,5685.324,0.00018,0.0,0.0
7.442,5677.498,0.00018,0.0,0.0
7.449,5704.407,0.00018,0.0,0.0
7.455,5698.276,0.00018,0.0,0.0
7.461,5718.031,0.00017,0.0,0.0
7.468,5728.561,0.00017,0.0,0.0
7.474,5715.215,0.00017,0.0,0.0
7.48,5732.839,0.00017,0.0,0.0
7.487,5733.636,0.00017,0.0,0.0
7.493,5763.443,0.00017,0.0,0.0
7.499,5791.065,0.00017,0.0,0.0
7.506,5790.071,0.00017,0.0,0.0
7.512,5792.359,0.00017,0.0,0.0
7.518,5813.999,0.00017,0.0,0.0
7.524,5840.589,0.00017,0.0,0.0
7.531,5841.648,0.00017,0.0,0.0
7.537,5900.446,0.00017,0.0,0.0
7.543,5938.248,0.00017,0.0,0.0
7.55,6008.208,0.00017,0.0,0.0
7.556,6016.407,0.00017,0.0,0.0
7.562,6127.082,0.00016,0.0,0.0
7.569,6218.966,0.00016,0.0,0.0
7.575,6377.486,0.00016,0.0,0.0
7.581,6613.951,0.00015,0.0,0.0
7.588,6956.474,0.00014,0.0,0.0
7.594,7541.266,0.00013,0.0,0.0
7.6,8660.93,0.00012,0.0,0.0
7.607,10411.1,0.0001,0.0,0.0
7.613,13651.057,0.00007,0.0,0.0
7.619,18964.028,0.00005,0.0,0.0
7.626,28880.673,0.00003,0.0,0.0
7.632,36122.076,0.00003,0.0,0.0
7.638,42697.935,0.00002,0.0,0.0
7.645,48221.966,0.00002,0.0,0.0
7.651,41855.579,0.00002,0.0,0.0
7.657,35309.472,0.00003,0.0,0.0
7.664,25802.637,0.00004,0.0,0.0
7.67,18492.603,0.00005,0.0,0.0
7.676,13199.99,0.00008,0.0,0.0
7.682,10354.624,0.0001,0.0,0.0
7.689,8566.132,0.00012,0.0,0.0
7.695,7653.678,0.00013,0.0,0.0
7.701,7117.018,0.00014,0.0,0.0
7.708,6768.9,0.00015,0.0,0.0
7.714,6566.56,0.00015,0.0,0.0
7.72,6420.53,0.00016,0.0,0.0
7.727,6380.215,0.00016,0.0,0.0
7.733,6320.82,0.00016,0.0,0.0
7.739,6268.03,0.00016,0.0,0.0
7.746,6293.15,0.00016,0.0,0.0
7.752,6262.113,0.00016,0.0,0.0
7.758,6256.475,0.00016,0.0,0.0
7.765,6285.524,0.00016,0.0,0.0
7.771,6283.712,0.00016,0.0,0.0
7.777,6288.25,0.00016,0.0,0.0
7.784,6311.34,0.00016,0.0,0.0
7.79,6300.88,0.00016,0.0,0.0
7.796,6343.162,0.00016,0.0,0.0
7.803,6367.352,0.00016,0.0,0.0
7.809,6382.646,0.00016,0.0,0.0
7.815,6449.246,0.00016,0.0,0.0
7.822,6459.478,0.00015,0.0,0.0
7.828,6543.436,0.00015,0.0,0.0
7.834,6553.072,0.00015,0.0,0.0
7.84,6604.696,0.00015,0.0,0.0
7.847,6700.167,0.00015,0.0,0.0
7.853,6800.587,0.00015,0.0,0.0
7.859,6986.422,0.00014,0.0,0.0
7.866,7118.43,0.00014,0.0,0.0
7.872,7921.893,0.00013,0.0,0.0
7.878,8029.731,0.00012,0.0,0.0
7.885,10955.797,0.00009,0.0,0.0
7.891,10262.047,0.0001,0.0,0.0
7.897,15130.71,0.00007,0.0,0.0
7.904,12858.719,0.00008,0.0,0.0
7.91,20555.143,0.00005,0.0,0.0
7.916,15342.797,0.00007,0.0,0.0
7.923,14234.778,0.00007,0.0,0.0
7.929,11329.712,0.00009,0.0,0.0
7.935,9309.796,0.00011,0.0,0.0
7.942,8259.521,0.00012,0.0,0.0
7.948,7654.349,0.00013,0.0,0.0
7.954,7181.545,0.00014,0.0,0.0
7.961,7057.67,0.00014,0.0,0.0
7.967,6880.398,0.00015,0.0,0.0
7.973,6763.226,0.00015,0.0,0.0
7.98,6744.449,0.00015,0.0,0.0
7.986,6677.958,0.00015,0.0,0.0
7.992,6628.511,0.00015,0.0,0.0
7.998,6643.344,0.00015,0.0,0.0
8.005,6573.807,0.00015,0.0,0.0
8.011,6518.568,0.00015,0.0,0.0
8.017,6556.466,0.00015,0.0,0.0
8.024,6509.232,0.00015,0.0,0.0
8.03,6502.812,0.00015,0.0,0.0
8.036,6490.732,0.00015,0.0,0.0
8.043,6458.505,0.00015,0.0,0.0
8.049,6455.853,0.00015,0.0,0.0
8.055,6405.596,0.00016,0.0,0.0
8.062,6444.382,0.00016,0.0,0.0
8.068,6429.622,0.00016,0.0,0.0
8.074,6414.9,0.00016,0.0,0.0
8.081,6412.521,0.00016,0.0,0.0
8.087,6401.197,0.00016,0.0,0.0
8.093,6394.656,0.00016,0.0,0.0
8.1,6415.977,0.00016,0.0,0.0
8.106,6424.956,0.00016,0.0,0.0
8.112,6426.494,0.00016,0.0,0.0
8.119,6467.024,0.00015,0.0,0.0
8.125,6493.824,0.00015,0.0,0.0
8.131,6578.065,0.00015,0.0,0.0
8.138,6606.777,0.00015,0.0,0.0
8.144,6673.57,0.00015,0.0,0.0
8.15,6671.121,0.00015,0.0,0.0
8.156,6632.973,0.00015,0.0,0.0
8.163,6589.945,0.00015,0.0,0.0
8.169,6484.964,0.00015,0.0,0.0
8.175,6439.376,0.00016,0.0,0.0
8.182,6405.648,0.00016,0.0,0.0
8.188,6341.659,0.00016,0.0,0.0
8.194,6331.554,0.00016,0.0,0.0
8.201,6322.302,0.00016,0.0,0.0
8.207,6284.596,0.00016,0.0,0.0
8.213,6296.304,0.00016,0.0,0.0
8.22,6268.388,0.00016,0.0,0.0
8.226,6310.434,0.00016,0.0,0.0
8.232,6271.999,0.00016,0.0,0.0
8.239,6275.225,0.00016,0.0,0.0
8.245,6276.278,0.00016,0.0,0.0
8.251,6276.395,0.00016,0.0,0.0
8.258,6274.119,0.00016,0.0,0.0
8.264,6240.886,0.00016,0.0,0.0
8.27,6252.672,0.00016,0.0,0.0
8.277,6261.06,0.00016,0.0,0.0
8.283,6271.921,0.00016,0.0,0.0
8.289,6232.977,0.00016,0.0,0.0
8.296,6241.487,0.00016,0.0,0.0
8.302,6241.784,0.00016,0.0,0.0
8.308,6229.514,0.00016,0.0,0.0
8.314,6244.739,0.00016,0.0,0.0
8.321,6256.289,0.00016,0.0,0.0
8.327,6263.369,0.00016,0.0,0.0
8.333,6272.807,0.00016,0.0,0.0
8.34,6300.239,0.00016,0.0,0.0
8.346,6297.988,0.00016,0.0,0.0
8.352,6329.333,0.00016,0.0,0.0
8.359,6386.188,0.00016,0.0,0.0
8.365,6441.598,0.00016,0.0,0.0
8.371,6462.969,0.00015,0.0,0.0
8.378,6507.364,0.00015,0.0,0.0
8.384,6470.869,0.00015,0.0,0.0
8.39,6474.156,0.00015,0.0,0.0
8.397,6412.993,0.00016,0.0,0.0
8.403,6353.602,0.00016,0.0,0.0
8.409,6313.015,0.00016,0.0,0.0
8.416,6264.307,0.00016,0.0,0.0
8.422,6237.343,0.00016,0.0,0.0
8.428,6226.627,0.00016,0.0,0.0
8.435,6192.638,0.00016,0.0,0.0
8.441,6203.659,0.00016,0.0,0.0
8.447,6179.699,0.00016,0.0,0.0
8.454,6191.438,0.00016,0.0,0.0
8.46,6172.497,0.00016,0.0,0.0
8.466,6172.867,0.00016,0.0,0.0
8.472,6182.954,0.00016,0.0,0.0
8.479,6155.542,0.00016,0.0,0.0
8.485,6181.173,0.00016,0.0,0.0
8.491,6185.652,0.00016,0.0,0.0
8.498,6187.79,0.00016,0.0,0.0
8.504,6185.942,0.00016,0.0,0.0
8.51,6185.017,0.00016,0.0,0.0
8.517,6175.113,0.00016,0.0,0.0
8.523,6148.352,0.00016,0.0,0.0
8.529,6165.404,0.00016,0.0,0.0
8.536,6137.685,0.00016,0.0,0.0
8.542,6142.498,0.00016,0.0,0.0
8.548,6137.245,0.00016,0.0,0.0
8.555,6135.251,0.00016,0.0,0.0
8.561,6126.693,0.00016,0.0,0.0
8.567,6114.555,0.00016,0.0,0.0
8.574,6117.21,0.00016,0.0,0.0
8.58,6130.897,0.00016,0.0,0.0
8.586,6131.156,0.00016,0.0,0.0
8.593,6109.425,0.00016,0.0,0.0
8.599,6111.807,0.00016,0.0,0.0
8.605,6098.341,0.00016,0.0,0.0
8.612,6124.295,0.00016,0.0,0.0
8.618,6108.742,0.00016,0.0,0.0
8.624,6114.084,0.00016,0.0,0.0
8.63,6110.41,0.00016,0.0,0.0
8.637,6108.968,0.00016,0.0,0.0
8.643,6098.807,0.00016,0.0,0.0
8.649,6097.953,0.00016,0.0,0.0
8.656,6103.628,0.00016,0.0,0.0
8.662,6123.428,0.00016,0.0,0.0
8.668,6131.79,0.00016,0.0,0.0
8.675,6110.246,0.00016,0.0,0.0
8.681,6116.421,0.00016,0.0,0.0
8.687,6120.311,0.00016,0.0,0.0
8.694,6111.893,0.00016,0.0,0.0
8.7,6093.176,0.00016,0.0,0.0
8.706,6117.457,0.00016,0.0,0.0
8.713,6123.531,0.00016,0.0,0.0
8.719,6125.716,0.00016,0.0,0.0
8.725,6121.297,0.00016,0.0,0.0
8.732,6135.634,0.00016,0.0,0.0
8.738,6128.218,0.00016,0.0,0.0
8.744,6139.064,0.00016,0.0,0.0
8.751,6130.178,0.00016,0.0,0.0
8.757,6147.396,0.00016,0.0,0.0
8.763,6140.022,0.00016,0.0,0.0
8.77,6136.65,0.00016,0.0,0.0
8.776,6152.709,0.00016,0.0,0.0
8.782,6138.365,0.00016,0.0,0.0
8.788,6154.417,0.00016,0.0,0.0
8.795,6156.896,0.00016,0.0,0.0
8.801,6148.104,0.00016,0.0,0.0
8.807,6166.35,0.00016,0.0,0.0
8.814,6172.94,0.00016,0.0,0.0
8.82,6169.662,0.00016,0.0,0.0
8.826,6179.977,0.00016,0.0,0.0
8.833,6176.621,0.00016,0.0,0.0
8.839,6180.119,0.00016,0.0,0.0
8.845,6189.923,0.00016,0.0,0.0
8.852,6186.848,0.00016,0.0,0.0
8.858,6210.631,0.00016,0.0,0.0
8.864,6203.591,0.00016,0.0,0.0
8.871,6212.407,0.00016,0.0,0.0
8.877,6218.687,0.00016,0.0,0.0
8.883,6205.804,0.00016,0.0,0.0
8.89,6231.858,0.00016,0.0,0.0
8.896,6223.299,0.00016,0.0,0.0
8.902,6240.258,0.00016,0.0,0.0
8.909,6254.141,0.00016,0.0,0.0
8.915,6228.087,0.00016,0.0,0.0
8.921,6242.23,0.00016,0.0,0.0
8.928,6249.234,0.00016,0.0,0.0
8.934,6247.853,0.00016,0.0,0.0
8.94,6272.583,0.00016,0.0,0.0
8.946,6253.904,0.00016,0.0,0.0
8.953,6259.172,0.00016,0.0,0.0
8.959,6269.685,0.00016,0.0,0.0
8.965,6257.54,0.00016,0.0,0.0
8.972,6270.135,0.00016,0.0,0.0
8.978,6290.802,0.00016,0.0,0.0
8.984,6275.151,0.00016,0.0,0.0
8.991,6293.558,0.00016,0.0,0.0
8.997,6276.3,0.00016,0.0,0.0
9.003,6317.374,0.00016,0.0,0.0
9.01,6288.745,0.00016,0.0,0.0
9.016,6295.318,0.00016,0.0,0.0
9.022,6342.085,0.00016,0.0,0.0
9.029,6300.434,0.00016,0.0,0.0
9.035,6333.629,0.00016,0.0,0.0
9.041,6344.037,0.00016,0.0,0.0
9.048,6307.315,0.00016,0.0,0.0
9.054,6361.935,0.00016,0.0,0.0
9.06,6349.264,0.00016,0.0,0.0
9.067,6327.173,0.00016,0.0,0.0
9.073,6414.921,0.00016,0.0,0.0
9.079,6378.495,0.00016,0.0,0.0
9.086,6427.348,0.00016,0.0,0.0
9.092,6489.579,0.00015,0.0,0.0
9.098,6546.702,0.00015,0.0,0.0
9.104,6784.139,0.00015,0.0,0.0
9.111,6904.41,0.00014,0.0,0.0
9.117,7936.978,0.00013,0.0,0.0
9.123,7659.52,0.00013,0.0,0.0
9.13,9360.416,0.00011,0.0,0.0
9.136,9682.452,0.0001,0.0,0.0
9.142,9797.348,0.0001,0.0,0.0
9.149,12468.459,0.00008,0.0,0.0
9.155,9115.799,0.00011,0.0,0.0
9.161,7222.509,0.00014,0.0,0.0
9.168,9375.981,0.00011,0.0,0.0
9.174,6622.89,0.00015,0.0,0.0
9.18,6689.264,0.00015,0.0,0.0
9.187,6627.599,0.00015,0.0,0.0
9.193,6353.77,0.00016,0.0,0.0
9.199,6369.557,0.00016,0.0,0.0
9.206,6313.849,0.00016,0.0,0.0
9.212,6228.655,0.00016,0.0,0.0
9.218,6264.111,0.00016,0.0,0.0
9.225,6180.238,0.00016,0.0,0.0
9.231,6171.749,0.00016,0.0,0.0
9.237,6189.098,0.00016,0.0,0.0
9.244,6141.203,0.00016,0.0,0.0
9.25,6136.879,0.00016,0.0,0.0
9.256,6123.109,0.00016,0.0,0.0
9.262,6077.661,0.00016,0.0,0.0
9.269,6101.842,0.00016,0.0,0.0
9.275,6042.949,0.00017,0.0,0.0
9.281,6042.924,0.00017,0.0,0.0
9.288,6028.036,0.00017,0.0,0.0
9.294,5980.008,0.00017,0.0,0.0
9.3,6006.623,0.00017,0.0,0.0
9.307,5974.875,0.00017,0.0,0.0
9.313,5943.761,0.00017,0.0,0.0
9.319,5963.15,0.00017,0.0,0.0
9.326,5922.103,0.00017,0.0,0.0
9.332,5911.38,0.00017,0.0,0.0
9.338,5918.814,0.00017,0.0,0.0
9.345,5895.259,0.00017,0.0,0.0
9.351,5907.491,0.00017,0.0,0.0
9.357,5871.331,0.00017,0.0,0.0
9.364,5852.82,0.00017,0.0,0.0
9.37,5864.406,0.00017,0.0,0.0
9.376,5817.683,0.00017,0.0,0.0
9.383,5827.337,0.00017,0.0,0.0
9.389,5820.073,0.00017,0.0,0.0
9.395,5797.55,0.00017,0.0,0.0
9.402,5801.541,0.00017,0.0,0.0
9.408,5794.43,0.00017,0.0,0.0
9.414,5764.295,0.00017,0.0,0.0
9.42,5756.679,0.00017,0.0,0.0
9.427,5754.968,0.00017,0.0,0.0
9.433,5768.044,0.00017,0.0,0.0
9.439,5734.552,0.00017,0.0,0.0
9.446,5741.155,0.00017,0.0,0.0
9.452,5729.987,0.00017,0.0,0.0
9.458,5732.159,0.00017,0.0,0.0
9.465,5750.398,0.00017,0.0,0.0
9.471,5736.709,0.00017,0.0,0.0
9.477,5758.792,0.00017,0.0,0.0
9.484,5771.516,0.00017,0.0,0.0
9.49,5777.156,0.00017,0.0,0.0
9.496,5772.283,0.00017,0.0,0.0
9.503,5765.182,0.00017,0.0,0.0
9.509,5728.848,0.00017,0.0,0.0
9.515,5698.355,0.00018,0.0,0.0
9.522,5679.219,0.00018,0.0,0.0
9.528,5637.064,0.00018,0.0,0.0
9.534,5624.067,0.00018,0.0,0.0
9.541,5618.16,0.00018,0.0,0.0
9.547,5614.409,0.00018,0.0,0.0
9.553,5582.721,0.00018,0.0,0.0
9.56,5585.827,0.00018,0.0,0.0
9.566,5580.873,0.00018,0.0,0.0
9.572,5567.826,0.00018,0.0,0.0
9.578,5543.21,0.00018,0.0,0.0
9.585,5516.534,0.00018,0.0,0.0
9.591,5532.308,0.00018,0.0,0.0
9.597,5526.038,0.00018,0.0,0.0
9.604,5525.553,0.00018,0.0,0.0
9.61,5510.01,0.00018,0.0,0.0
9.616,5499.55,0.00018,0.0,0.0
9.623,5526.348,0.00018,0.0,0.0
9.629,5483.778,0.00018,0.0,0.0
9.635,5478.46,0.00018,0.0,0.0
9.642,5490.843,0.00018,0.0,0.0
9.648,5482.92,0.00018,0.0,0.0
9.654,5485.275,0.00018,0.0,0.0
9.661,5472.161,0.00018,0.0,0.0
9.667,5478.099,0.00018,0.0,0.0
9.673,5485.618,0.00018,0.0,0.0
9.68,5457.974,0.00018,0.0,0.0
9.686,5465.798,0.00018,0.0,0.0
9.692,5451.448,0.00018,0.0,0.0
9.699,5457.921,0.00018,0.0,0.0
9.705,5464.387,0.00018,0.0,0.0
9.711,5433.668,0.00018,0.0,0.0
9.718,5457.864,0.00018,0.0,0.0
9.724,5422.882,0.00018,0.0,0.0
9.73,5422.896,0.00018,0.0,0.0
9.736,5437.292,0.00018,0.0,0.0
9.743,5424.92,0.00018,0.0,0.0
9.749,5435.93,0.00018,0.0,0.0
9.755,5424.21,0.00018,0.0,0.0
9.762,5403.036,0.00019,0.0,0.0
9.768,5421.448,0.00018,0.0,0.0
9.774,5411.702,0.00018,0.0,0.0
9.781,5387.208,0.00019,0.0,0.0
9.787,5423.692,0.00018,0.0,0.0
9.793,5405.648,0.00018,0.0,0.0
9.8,5410.597,0.00018,0.0,0.0
9.806,5404.822,0.00019,0.0,0.0
9.812,5392.63,0.00019,0.0,0.0
9.819,5407.77,0.00018,0.0,0.0
9.825,5377.866,0.00019,0.0,0.0
9.831,5395.627,0.00019,0.0,0.0
9.838,5405.843,0.00018,0.0,0.0
9.844,5395.113,0.00019,0.0,0.0
9.85,5394.155,0.00019,0.0,0.0
9.857,5393.028,0.00019,0.0,0.0
9.863,5374.723,0.00019,0.0,0.0
9.869,5386.424,0.00019,0.0,0.0
9.876,5381.335,0.00019,0.0,0.0
9.882,5395.315,0.00019,0.0,0.0
9.888,5392.465,0.00019,0.0,0.0
9.894,5377.461,0.00019,0.0,0.0
9.901,5387.462,0.00019,0.0,0.0
9.907,5382.547,0.00019,0.0,0.0
9.913,5387.088,0.00019,0.0,0.0
9.92,5383.336,0.00019,0.0,0.0
9.926,5376.763,0.00019,0.0,0.0
9.932,5408.406,0.00018,0.0,0.0
9.939,5370.551,0.00019,0.0,0.0
9.945,5373.149,0.00019,0.0,0.0
9.951,5403.407,0.00019,0.0,0.0
9.958,5372.435,0.00019,0.0,0.0
9.964,5382.887,0.00019,0.0,0.0
9.97,5379.409,0.00019,0.0,0.0
9.977,5398.525,0.00019,0.0,0.0
9.983,5418.038,0.00018,0.0,0.0
9.989,5408.537,0.00018,0.0,0.0
9.996,5411.209,0.00018,0.0,0.0
10.002,5421.625,0.00018,0.0,0.0
10.008,5390.393,0.00019,0.0,0.0
10.015,5436.785,0.00018,0.0,0.0
10.021,5416.17,0.00018,0.0,0.0
10.027,5434.376,0.00018,0.0,0.0
10.034,5464.564,0.00018,0.0,0.0
10.04,5454.288,0.00018,0.0,0.0
10.046,5469.599,0.00018,0.0,0.0
10.052,5454.277,0.00018,0.0,0.0
10.059,5448.022,0.00018,0.0,0.0
10.065,5485.018,0.00018,0.0,0.0
10.071,5500.456,0.00018,0.0,0.0
10.078,5492.046,0.00018,0.0,0.0
10.084,5536.661,0.00018,0.0,0.0
10.09,5489.652,0.00018,0.0,0.0
10.097,5536.206,0.00018,0.0,0.0
10.103,5483.548,0.00018,0.0,0.0
10.109,5571.351,0.00018,0.0,0.0
10.116,5595.377,0.00018,0.0,0.0
10.122,5574.225,0.00018,0.0,0.0
10.128,5642.841,0.00018,0.0,0.0
10.135,5616.408,0.00018,0.0,0.0
10.141,5695.691,0.00018,0.0,0.0
10.147,5690.864,0.00018,0.0,0.0
10.154,5817.813,0.00017,0.0,0.0
10.16,5842.774,0.00017,0.0,0.0
10.166,6204.179,0.00016,0.0,0.0
10.173,6210.412,0.00016,0.0,0.0
10.179,7103.992,0.00014,0.0,0.0
10.185,9342.679,0.00011,0.0,0.0
10.192,9490.358,0.00011,0.0,0.0
10.198,12828.402,0.00008,0.0,0.0
10.204,16484.822,0.00006,0.0,0.0
10.21,19433.463,0.00005,0.0,0.0
10.217,20150.325,0.00005,0.0,0.0
10.223,19177.888,0.00005,0.0,0.0
10.229,13183.401,0.00008,0.0,0.0
10.236,19482.225,0.00005,0.0,0.0
10.242,8547.545,0.00012,0.0,0.0
10.248,9670.041,0.0001,0.0,0.0
10.255,7277.249,0.00014,0.0,0.0
10.261,6343.392,0.00016,0.0,0.0
10.267,6310.864,0.00016,0.0,0.0
10.274,5811.006,0.00017,0.0,0.0
10.28,5876.776,0.00017,0.0,0.0
10.286,5640.549,0.00018,0.0,0.0
10.293,5688.338,0.00018,0.0,0.0
10.299,5591.722,0.00018,0.0,0.0
10.305,5565.393,0.00018,0.0,0.0
10.312,5552.381,0.00018,0.0,0.0
10.318,5547.412,0.00018,0.0,0.0
10.324,5527.973,0.00018,0.0,0.0
10.331,5464.57,0.00018,0.0,0.0
10.337,5437.756,0.00018,0.0,0.0
10.343,5465.828,0.00018,0.0,0.0
10.35,5429.644,0.00018,0.0,0.0
10.356,5408.886,0.00018,0.0,0.0
10.362,5411.369,0.00018,0.0,0.0
10.368,5354.268,0.00019,0.0,0.0
10.375,5424.253,0.00018,0.0,0.0
10.381,5334.462,0.00019,0.0,0.0
10.387,5341.109,0.00019,0.0,0.0
10.394,5358.043,0.00019,0.0,0.0
10.4,5306.253,0.00019,0.0,0.0
10.406,5362.254,0.00019,0.0,0.0
10.413,5296.439,0.00019,0.0,0.0
10.419,5291.756,0.00019,0.0,0.0
10.425,5305.688,0.00019,0.0,0.0
10.432,5271.78,0.00019,0.0,0.0
10.438,5292.361,0.00019,0.0,0.0
10.444,5279.749,0.00019,0.0,0.0
10.451,5241.94,0.00019,0.0,0.0
10.457,5286.342,0.00019,0.0,0.0
10.463,5247.534,0.00019,0.0,0.0
10.47,5230.409,0.00019,0.0,0.0
10.476,5247.977,0.00019,0.0,0.0
10.482,5211.927,0.00019,0.0,0.0
10.489,5252.327,0.00019,0.0,0.0
10.495,5208.582,0.00019,0.0,0.0
10.501,5203.359,0.00019,0.0,0.0
10.508,5227.537,0.00019,0.0,0.0
10.514,5184.29,0.00019,0.0,0.0
10.52,5221.435,0.00019,0.0,0.0
10.526,5183.523,0.00019,0.0,0.0
10.533,5178.166,0.00019,0.0,0.0
10.539,5204.85,0.00019,0.0,0.0
10.545,5177.222,0.00019,0.0,0.0
10.552,5172.73,0.00019,0.0,0.0
10.558,5197.223,0.00019,0.0,0.0
10.564,5152.211,0.00019,0.0,0.0
10.571,5195.795,0.00019,0.0,0.0
10.577,5158.298,0.00019,0.0,0.0
10.583,5166.184,0.00019,0.0,0.0
10.59,5162.848,0.00019,0.0,0.0
10.596,5151.873,0.00019,0.0,0.0
10.602,5164.15,0.00019,0.0,0.0
10.609,5144.48,0.00019,0.0,0.0
10.615,5137.622,0.00019,0.0,0.0
10.621,5162.64,0.00019,0.0,0.0
10.628,5138.639,0.00019,0.0,0.0
10.634,5144.779,0.00019,0.0,0.0
10.64,5152.2,0.00019,0.0,0.0
10.647,5145.331,0.00019,0.0,0.0
10.653,5167.276,0.00019,0.0,0.0
10.659,5145.923,0.00019,0.0,0.0
10.666,5155.066,0.00019,0.0,0.0
10.672,5153.802,0.00019,0.0,0.0
10.678,5134.29,0.00019,0.0,0.0
10.684,5170.021,0.00019,0.0,0.0
10.691,5146.16,0.00019,0.0,0.0
10.697,5154.596,0.00019,0.0,0.0
10.703,5163.743,0.00019,0.0,0.0
10.71,5171.004,0.00019,0.0,0.0
10.716,5185.032,0.00019,0.0,0.0
10.722,5190.162,0.00019,0.0,0.0
10.729,5205.584,0.00019,0.0,0.0
10.735,5252.668,0.00019,0.0,0.0
10.741,5288.922,0.00019,0.0,0.0
10.748,5343.484,0.00019,0.0,0.0
10.754,5441.206,0.00018,0.0,0.0
10.76,5538.638,0.00018,0.0,0.0
10.767,5782.447,0.00017,0.0,0.0
10.773,6086.747,0.00016,0.0,0.0
10.779,6731.513,0.00015,0.0,0.0
10.786,7986.416,0.00013,0.0,0.0
10.792,10020.225,0.0001,0.0,0.0
10.798,14055.429,0.00007,0.0,0.0
10.805,17828.955,0.00006,0.0,0.0
10.811,24872.325,0.00004,0.0,0.0
10.817,29464.751,0.00003,0.0,0.0
10.824,30648.037,0.00003,0.0,0.0
10.83,27656.364,0.00004,0.0,0.0
10.836,23157.758,0.00004,0.0,0.0
10.842,17309.063,0.00006,0.0,0.0
10.849,13178.596,0.00008,0.0,0.0
10.855,9187.134,0.00011,0.0,0.0
10.861,7691.222,0.00013,0.0,0.0
10.868,6667.593,0.00015,0.0,0.0
10.874,6000.795,0.00017,0.0,0.0
10.88,5694.714,0.00018,0.0,0.0
10.887,5467.189,0.00018,0.0,0.0
10.893,5364.972,0.00019,0.0,0.0
10.899,5282.728,0.00019,0.0,0.0
10.906,5214.451,0.00019,0.0,0.0
10.912,5192.019,0.00019,0.0,0.0
10.918,5157.103,0.00019,0.0,0.0
10.925,5115.765,0.0002,0.0,0.0
10.931,5112.526,0.0002,0.0,0.0
10.937,5103.073,0.0002,0.0,0.0
10.944,5094.554,0.0002,0.0,0.0
10.95,5101.797,0.0002,0.0,0.0
10.956,5068.3,0.0002,0.0,0.0
10.963,5080.259,0.0002,0.0,0.0
10.969,5045.536,0.0002,0.0,0.0
10.975,5028.482,0.0002,0.0,0.0
10.982,5020.717,0.0002,0.0,0.0
10.988,4995.493,0.0002,0.0,0.0
10.994,4997.637,0.0002,0.0,0.0
11.0,4985.989,0.0002,0.0,0.0
11.007,4963.153,0.0002,0.0,0.0
11.013,4958.21,0.0002,0.0,0.0
11.019,4952.223,0.0002,0.0,0.0
11.026,4958.632,0.0002,0.0,0.0
11.032,4944.703,0.0002,0.0,0.0
11.038,4930.859,0.0002,0.0,0.0
11.045,4935.031,0.0002,0.0,0.0
11.051,4925.659,0.0002,0.0,0.0
11.057,4901.182,0.0002,0.0,0.0
11.064,4920.905,0.0002,0.0,0.0
11.07,4902.278,0.0002,0.0,0.0
11.076,4904.637,0.0002,0.0,0.0
11.083,4899.735,0.0002,0.0,0.0
11.089,4897.214,0.0002,0.0,0.0
11.095,4898.839,0.0002,0.0,0.0
11.102,4901.378,0.0002,0.0,0.0
11.108,4879.063,0.0002,0.0,0.0
11.114,4872.504,0.00021,0.0,0.0
11.121,4880.295,0.0002,0.0,0.0
11.127,4880.339,0.0002,0.0,0.0
11.133,4875.894,0.00021,0.0,0.0
11.14,4869.473,0.00021,0.0,0.0
11.146,4870.464,0.00021,0.0,0.0
11.152,4858.321,0.00021,0.0,0.0
11.158,4862.015,0.00021,0.0,0.0
11.165,4861.052,0.00021,0.0,0.0
11.171,4859.137,0.00021,0.0,0.0
11.177,4874.093,0.00021,0.0,0.0
11.184,4888.075,0.0002,0.0,0.0
11.19,4891.148,0.0002,0.0,0.0
11.196,4950.592,0.0002,0.0,0.0
11.203,4905.648,0.0002,0.0,0.0
11.209,4961.675,0.0002,0.0,0.0
11.215,4869.547,0.00021,0.0,0.0
11.222,4985.244,0.0002,0.0,0.0
11.228,4844.362,0.00021,0.0,0.0
11.234,4884.188,0.0002,0.0,0.0
11.241,4825.03,0.00021,0.0,0.0
11.247,4822.8,0.00021,0.0,0.0
11.253,4807.055,0.00021,0.0,0.0
11.26,4803.465,0.00021,0.0,0.0
11.266,4793.793,0.00021,0.0,0.0
11.272,4786.722,0.00021,0.0,0.0
11.279,4793.272,0.00021,0.0,0.0
11.285,4785.402,0.00021,0.0,0.0
11.291,4781.44,0.00021,0.0,0.0
11.298,4781.607,0.00021,0.0,0.0
11.304,4781.084,0.00021,0.0,0.0
11.31,4770.343,0.00021,0.0,0.0
11.316,4770.272,0.00021,0.0,0.0
11.323,4765.696,0.00021,0.0,0.0
11.329,4742.505,0.00021,0.0,0.0
11.335,4743.145,0.00021,0.0,0.0
11.342,4758.222,0.00021,0.0,0.0
11.348,4748.712,0.00021,0.0,0.0
11.354,4752.575,0.00021,0.0,0.0
11.361,4743.675,0.00021,0.0,0.0
11.367,4740.487,0.00021,0.0,0.0
11.373,4740.778,0.00021,0.0,0.0
11.38,4719.185,0.00021,0.0,0.0
11.386,4738.034,0.00021,0.0,0.0
11.392,4734.959,0.00021,0.0,0.0
11.399,4741.605,0.00021,0.0,0.0
11.405,4739.134,0.00021,0.0,0.0
11.411,4736.537,0.00021,0.0,0.0
11.418,4729.156,0.00021,0.0,0.0
11.424,4732.089,0.00021,0.0,0.0
11.43,4728.208,0.00021,0.0,0.0
11.437,4730.082,0.00021,0.0,0.0
11.443,4704.885,0.00021,0.0,0.0
11.449,4711.949,0.00021,0.0,0.0
11.456,4724.614,0.00021,0.0,0.0
11.462,4699.019,0.00021,0.0,0.0
11.468,4722.269,0.00021,0.0,0.0
11.474,4708.434,0.00021,0.0,0.0
11.481,4701.184,0.00021,0.0,0.0
11.487,4717.285,0.00021,0.0,0.0
11.493,4699.541,0.00021,0.0,0.0
11.5,4724.111,0.00021,0.0,0.0
11.506,4729.538,0.00021,0.0,0.0
11.512,4724.646,0.00021,0.0,0.0
11.519,4765.667,0.00021,0.0,0.0
11.525,4770.177,0.00021,0.0,0.0
11.531,4765.073,0.00021,0.0,0.0
11.538,4766.976,0.00021,0.0,0.0
11.544,4750.329,0.00021,0.0,0.0
11.55,4737.108,0.00021,0.0,0.0
11.557,4720.802,0.00021,0.0,0.0
11.563,4712.678,0.00021,0.0,0.0
11.569,4704.288,0.00021,0.0,0.0
11.576,4688.804,0.00021,0.0,0.0
11.582,4696.795,0.00021,0.0,0.0
11.588,4674.831,0.00021,0.0,0.0
11.595,4684.273,0.00021,0.0,0.0
11.601,4668.738,0.00021,0.0,0.0
11.607,4672.125,0.00021,0.0,0.0
11.614,4670.341,0.00021,0.0,0.0
11.62,4681.693,0.00021,0.0,0.0
11.626,4666.627,0.00021,0.0,0.0
11.632,4653.219,0.00021,0.0,0.0
11.639,4662.944,0.00021,0.0,0.0
11.645,4662.522,0.00021,0.0,0.0
11.651,4678.047,0.00021,0.0,0.0
11.658,4664.625,0.00021,0.0,0.0
11.664,4663.066,0.00021,0.0,0.0
11.67,4665.528,0.00021,0.0,0.0
11.677,4657.029,0.00021,0.0,0.0
11.683,4654.446,0.00021,0.0,0.0
11.689,4659.709,0.00021,0.0,0.0
11.696,4654.073,0.00021,0.0,0.0
11.702,4653.818,0.00021,0.0,0.0
11.708,4654.646,0.00021,0.0,0.0
11.715,4652.132,0.00021,0.0,0.0
11.721,4642.694,0.00022,0.0,0.0
11.727,4646.917,0.00022,0.0,0.0
11.734,4641.026,0.00022,0.0,0.0
11.74,4653.006,0.00021,0.0,0.0
11.746,4649.651,0.00022,0.0,0.0
11.753,4645.148,0.00022,0.0,0.0
11.759,4643.746,0.00022,0.0,0.0
11.765,4663.191,0.00021,0.0,0.0
11.772,4653.844,0.00021,0.0,0.0
11.778,4661.315,0.00021,0.0,0.0
11.784,4668.693,0.00021,0.0,0.0
11.79,4668.183,0.00021,0.0,0.0
11.797,4670.693,0.00021,0.0,0.0
11.803,4651.796,0.00021,0.0,0.0
11.809,4652.264,0.00021,0.0,0.0
11.816,4658.557,0.00021,0.0,0.0
11.822,4640.379,0.00022,0.0,0.0
11.828,4636.19,0.00022,0.0,0.0
11.835,4642.402,0.00022,0.0,0.0
11.841,4636.158,0.00022,0.0,0.0
11.847,4643.125,0.00022,0.0,0.0
11.854,4640.855,0.00022,0.0,0.0
11.86,4644.133,0.00022,0.0,0.0
11.866,4652.453,0.00021,0.0,0.0
11.873,4642.827,0.00022,0.0,0.0
11.879,4654.605,0.00021,0.0,0.0
11.885,4639.898,0.00022,0.0,0.0
11.892,4649.328,0.00022,0.0,0.0
11.898,4659.523,0.00021,0.0,0.0
11.904,4648.213,0.00022,0.0,0.0
11.911,4635.311,0.00022,0.0,0.0
11.917,4637.728,0.00022,0.0,0.0
11.923,4652.351,0.00021,0.0,0.0
11.93,4642.741,0.00022,0.0,0.0
11.936,4641.43,0.00022,0.0,0.0
11.942,4642.365,0.00022,0.0,0.0
11.948,4658.446,0.00021,0.0,0.0
11.955,4643.336,0.00022,0.0,0.0
11.961,4657.435,0.00021,0.0,0.0
11.967,4649.43,0.00022,0.0,0.0
11.974,4661.145,0.00021,0.0,0.0
11.98,4668.873,0.00021,0.0,0.0
11.986,4656.179,0.00021,0.0,0.0
11.993,4660.526,0.00021,0.0,0.0
11.999,4669.612,0.00021,0.0,0.0
12.005,4663.992,0.00021,0.0,0.0
12.012,4683.916,0.00021,0.0,0.0
12.018,4682.437,0.00021,0.0,0.0
12.024,4686.658,0.00021,0.0,0.0
12.031,4684.031,0.00021,0.0,0.0
12.037,4722.163,0.00021,0.0,0.0
12.043,4702.698,0.00021,0.0,0.0
12.05,4767.742,0.00021,0.0,0.0
12.056,4778.23,0.00021,0.0,0.0
12.062,4806.025,0.00021,0.0,0.0
12.069,5107.962,0.0002,0.0,0.0
12.075,5062.891,0.0002,0.0,0.0
12.081,6263.636,0.00016,0.0,0.0
12.088,5776.373,0.00017,0.0,0.0
12.094,6188.035,0.00016,0.0,0.0
12.1,7720.499,0.00013,0.0,0.0
12.106,6267.235,0.00016,0.0,0.0
12.113,6551.56,0.00015,0.0,0.0
12.119,5500.394,0.00018,0.0,0.0
12.125,5282.028,0.00019,0.0,0.0
12.132,5015.36,0.0002,0.0,0.0
12.138,4861.376,0.00021,0.0,0.0
12.144,4786.989,0.00021,0.0,0.0
12.151,4740.196,0.00021,0.0,0.0
12.157,4709.351,0.00021,0.0,0.0
12.163,4677.686,0.00021,0.0,0.0
12.17,4669.432,0.00021,0.0,0.0
12.176,4647.092,0.00022,0.0,0.0
12.182,4649.767,0.00022,0.0,0.0
12.189,4645.154,0.00022,0.0,0.0
12.195,4616.189,0.00022,0.0,0.0
12.201,4607.411,0.00022,0.0,0.0
12.208,4605.636,0.00022,0.0,0.0
12.214,4592.705,0.00022,0.0,0.0
12.22,4601.631,0.00022,0.0,0.0
12.227,4565.575,0.00022,0.0,0.0
12.233,4584.181,0.00022,0.0,0.0
12.239,4574.27,0.00022,0.0,0.0
12.246,4570.606,0.00022,0.0,0.0
12.252,4572.098,0.00022,0.0,0.0
12.258,4553.676,0.00022,0.0,0.0
12.264,4551.66,0.00022,0.0,0.0
12.271,4537.896,0.00022,0.0,0.0
12.277,4527.492,0.00022,0.0,0.0
12.283,4531.0,0.00022,0.0,0.0
12.29,4524.687,0.00022,0.0,0.0
12.296,4534.317,0.00022,0.0,0.0
12.302,4540.627,0.00022,0.0,0.0
12.309,4512.982,0.00022,0.0,0.0
12.315,4511.061,0.00022,0.0,0.0
12.321,4504.537,0.00022,0.0,0.0
12.328,4493.504,0.00022,0.0,0.0
12.334,4515.526,0.00022,0.0,0.0
12.34,4500.304,0.00022,0.0,0.0
12.347,4500.512,0.00022,0.0,0.0
12.353,4502.403,0.00022,0.0,0.0
12.359,4483.531,0.00022,0.0,0.0
12.366,4500.005,0.00022,0.0,0.0
12.372,4499.235,0.00022,0.0,0.0
12.378,4498.848,0.00022,0.0,0.0
12.385,4482.265,0.00022,0.0,0.0
12.391,4484.758,0.00022,0.0,0.0
12.397,4490.833,0.00022,0.0,0.0
12.404,4488.914,0.00022,0.0,0.0
12.41,4478.999,0.00022,0.0,0.0
12.416,4477.381,0.00022,0.0,0.0
12.422,4474.362,0.00022,0.0,0.0
12.429,4469.893,0.00022,0.0,0.0
12.435,4463.302,0.00022,0.0,0.0
12.441,4451.937,0.00022,0.0,0.0
12.448,4461.894,0.00022,0.0,0.0
12.454,4459.418,0.00022,0.0,0.0
12.46,4472.676,0.00022,0.0,0.0
12.467,4463.82,0.00022,0.0,0.0
12.473,4471.581,0.00022,0.0,0.0
12.479,4474.331,0.00022,0.0,0.0
12.486,4471.258,0.00022,0.0,0.0
12.492,4480.466,0.00022,0.0,0.0
12.498,4475.658,0.00022,0.0,0.0
12.505,4491.466,0.00022,0.0,0.0
12.511,4490.308,0.00022,0.0,0.0
12.517,4493.925,0.00022,0.0,0.0
12.524,4493.553,0.00022,0.0,0.0
12.53,4509.586,0.00022,0.0,0.0
12.536,4485.265,0.00022,0.0,0.0
12.543,4496.777,0.00022,0.0,0.0
12.549,4489.602,0.00022,0.0,0.0
12.555,4486.255,0.00022,0.0,0.0
12.562,4490.659,0.00022,0.0,0.0
12.568,4491.919,0.00022,0.0,0.0
12.574,4501.134,0.00022,0.0,0.0
12.58,4510.093,0.00022,0.0,0.0
12.587,4522.393,0.00022,0.0,0.0
12.593,4551.366,0.00022,0.0,0.0
12.599,4567.12,0.00022,0.0,0.0
12.606,4593.263,0.00022,0.0,0.0
12.612,4631.501,0.00022,0.0,0.0
12.618,4709.614,0.00021,0.0,0.0
12.625,4768.808,0.00021,0.0,0.0
12.631,4886.059,0.0002,0.0,0.0
12.637,5083.043,0.0002,0.0,0.0
12.644,5375.725,0.00019,0.0,0.0
12.65,5942.442,0.00017,0.0,0.0
12.656,6782.524,0.00015,0.0,0.0
12.663,8613.936,0.00012,0.0,0.0
12.669,11365.615,0.00009,0.0,0.0
12.675,15577.334,0.00006,0.0,0.0
12.682,21838.93,0.00005,0.0,0.0
12.688,27261.503,0.00004,0.0,0.0
12.694,31719.597,0.00003,0.0,0.0
12.701,31655.229,0.00003,0.0,0.0
12.707,27612.548,0.00004,0.0,0.0
12.713,22973.665,0.00004,0.0,0.0
12.72,15814.486,0.00006,0.0,0.0
12.726,11991.564,0.00008,0.0,0.0
12.732,8720.009,0.00011,0.0,0.0
12.738,6951.696,0.00014,0.0,0.0
12.745,6018.064,0.00017,0.0,0.0
12.751,5395.404,0.00019,0.0,0.0
12.757,5052.111,0.0002,0.0,0.0
12.764,4848.271,0.00021,0.0,0.0
12.77,4709.663,0.00021,0.0,0.0
12.776,4621.082,0.00022,0.0,0.0
12.783,4553.834,0.00022,0.0,0.0
12.789,4511.8,0.00022,0.0,0.0
12.795,4482.823,0.00022,0.0,0.0
12.802,4458.867,0.00022,0.0,0.0
12.808,4443.72,0.00023,0.0,0.0
12.814,4422.194,0.00023,0.0,0.0
12.821,4393.868,0.00023,0.0,0.0
12.827,4390.493,0.00023,0.0,0.0
12.833,4374.655,0.00023,0.0,0.0
12.84,4371.195,0.00023,0.0,0.0
12.846,4364.764,0.00023,0.0,0.0
12.852,4357.542,0.00023,0.0,0.0
12.859,4354.846,0.00023,0.0,0.0
12.865,4350.658,0.00023,0.0,0.0
12.871,4335.977,0.00023,0.0,0.0
12.878,4340.265,0.00023,0.0,0.0
12.884,4335.171,0.00023,0.0,0.0
12.89,4316.023,0.00023,0.0,0.0
12.896,4331.104,0.00023,0.0,0.0
12.903,4351.349,0.00023,0.0,0.0
12.909,4378.051,0.00023,0.0,0.0
12.915,4432.056,0.00023,0.0,0.0
12.922,4408.39,0.00023,0.0,0.0
12.928,5108.372,0.0002,0.0,0.0
12.934,4711.54,0.00021,0.0,0.0
12.941,4607.089,0.00022,0.0,0.0
12.947,5265.131,0.00019,0.0,0.0
12.953,4696.696,0.00021,0.0,0.0
12.96,4537.193,0.00022,0.0,0.0
12.966,4459.011,0.00022,0.0,0.0
12.972,4382.805,0.00023,0.0,0.0
12.979,4353.906,0.00023,0.0,0.0
12.985,4312.936,0.00023,0.0,0.0
12.991,4286.187,0.00023,0.0,0.0
12.998,4270.687,0.00023,0.0,0.0
13.004,4258.603,0.00023,0.0,0.0
13.01,4255.601,0.00023,0.0,0.0
13.017,4233.3,0.00024,0.0,0.0
13.023,4235.756,0.00024,0.0,0.0
13.029,4224.882,0.00024,0.0,0.0
13.036,4236.606,0.00024,0.0,0.0
13.042,4223.234,0.00024,0.0,0.0
13.048,4213.475,0.00024,0.0,0.0
13.054,4207.33,0.00024,0.0,0.0
13.061,4203.528,0.00024,0.0,0.0
13.067,4198.057,0.00024,0.0,0.0
13.073,4195.4,0.00024,0.0,0.0
13.08,4189.615,0.00024,0.0,0.0
13.086,4209.574,0.00024,0.0,0.0
13.092,4195.353,0.00024,0.0,0.0
13.099,4201.475,0.00024,0.0,0.0
13.105,4188.735,0.00024,0.0,0.0
13.111,4190.655,0.00024,0.0,0.0
13.118,4194.921,0.00024,0.0,0.0
13.124,4191.869,0.00024,0.0,0.0
13.13,4186.621,0.00024,0.0,0.0
13.137,4185.872,0.00024,0.0,0.0
13.143,4191.334,0.00024,0.0,0.0
13.149,4185.593,0.00024,0.0,0.0
13.156,4178.212,0.00024,0.0,0.0
13.162,4192.838,0.00024,0.0,0.0
13.168,4201.246,0.00024,0.0,0.0
13.175,4206.551,0.00024,0.0,0.0
13.181,4219.557,0.00024,0.0,0.0
13.187,4219.008,0.00024,0.0,0.0
13.194,4240.289,0.00024,0.0,0.0
13.2,4285.16,0.00023,0.0,0.0
13.206,4331.043,0.00023,0.0,0.0
13.212,4421.888,0.00023,0.0,0.0
13.219,4572.157,0.00022,0.0,0.0
13.225,4842.768,0.00021,0.0,0.0
13.231,5282.057,0.00019,0.0,0.0
13.238,6371.641,0.00016,0.0,0.0
13.244,7680.696,0.00013,0.0,0.0
13.25,9537.506,0.0001,0.0,0.0
13.257,11519.546,0.00009,0.0,0.0
13.263,12725.904,0.00008,0.0,0.0
13.269,12970.869,0.00008,0.0,0.0
13.276,11869.725,0.00008,0.0,0.0
13.282,9900.93,0.0001,0.0,0.0
13.288,7866.303,0.00013,0.0,0.0
13.295,6542.765,0.00015,0.0,0.0
13.301,5407.905,0.00018,0.0,0.0
13.307,4841.282,0.00021,0.0,0.0
13.314,4568.72,0.00022,0.0,0.0
13.32,4370.154,0.00023,0.0,0.0
13.326,4281.926,0.00023,0.0,0.0
13.333,4202.548,0.00024,0.0,0.0
13.339,4175.82,0.00024,0.0,0.0
13.345,4148.337,0.00024,0.0,0.0
13.352,4131.39,0.00024,0.0,0.0
13.358,4111.975,0.00024,0.0,0.0
13.364,4089.965,0.00024,0.0,0.0
13.37,4095.508,0.00024,0.0,0.0
13.377,4080.671,0.00025,0.0,0.0
13.383,4090.349,0.00024,0.0,0.0
13.389,4073.167,0.00025,0.0,0.0
13.396,4081.288,0.00025,0.0,0.0
13.402,4067.654,0.00025,0.0,0.0
13.408,4071.753,0.00025,0.0,0.0
13.415,4064.75,0.00025,0.0,0.0
13.421,4059.508,0.00025,0.0,0.0
13.427,4044.072,0.00025,0.0,0.0
13.434,4052.343,0.00025,0.0,0.0
13.44,4047.248,0.00025,0.0,0.0
13.446,4035.754,0.00025,0.0,0.0
13.453,4021.613,0.00025,0.0,0.0
13.459,4027.149,0.00025,0.0,0.0
13.465,4021.226,0.00025,0.0,0.0
13.472,4020.524,0.00025,0.0,0.0
13.478,4011.874,0.00025,0.0,0.0
13.484,4023.139,0.00025,0.0,0.0
13.491,3994.867,0.00025,0.0,0.0
13.497,4006.241,0.00025,0.0,0.0
13.503,3998.43,0.00025,0.0,0.0
13.51,3972.369,0.00025,0.0,0.0
13.516,3995.431,0.00025,0.0,0.0
13.522,3990.948,0.00025,0.0,0.0
13.528,3991.59,0.00025,0.0,0.0
13.535,3983.201,0.00025,0.0,0.0
13.541,3984.657,0.00025,0.0,0.0
13.547,3985.209,0.00025,0.0,0.0
13.554,3976.072,0.00025,0.0,0.0
13.56,3980.241,0.00025,0.0,0.0
13.566,3971.827,0.00025,0.0,0.0
13.573,3981.389,0.00025,0.0,0.0
13.579,3968.556,0.00025,0.0,0.0
13.585,3972.025,0.00025,0.0,0.0
13.592,3960.493,0.00025,0.0,0.0
13.598,3964.763,0.00025,0.0,0.0
13.604,3963.474,0.00025,0.0,0.0
13.611,3954.759,0.00025,0.0,0.0
13.617,3964.893,0.00025,0.0,0.0
13.623,3957.093,0.00025,0.0,0.0
13.63,3954.857,0.00025,0.0,0.0
13.636,3965.811,0.00025,0.0,0.0
13.642,3950.502,0.00025,0.0,0.0
13.649,3967.729,0.00025,0.0,0.0
13.655,3959.595,0.00025,0.0,0.0
13.661,3971.2,0.00025,0.0,0.0
13.668,3973.393,0.00025,0.0,0.0
13.674,3966.955,0.00025,0.0,0.0
13.68,3979.496,0.00025,0.0,0.0
13.686,3987.567,0.00025,0.0,0.0
13.693,3998.518,0.00025,0.0,0.0
13.699,4031.296,0.00025,0.0,0.0
13.705,4096.902,0.00024,0.0,0.0
13.712,4232.571,0.00024,0.0,0.0
13.718,4258.286,0.00023,0.0,0.0
13.724,4308.383,0.00023,0.0,0.0
13.731,4274.913,0.00023,0.0,0.0
13.737,4223.791,0.00024,0.0,0.0
13.743,4205.183,0.00024,0.0,0.0
13.75,4122.906,0.00024,0.0,0.0
13.756,4040.879,0.00025,0.0,0.0
13.762,3967.553,0.00025,0.0,0.0
13.769,3946.912,0.00025,0.0,0.0
13.775,3928.862,0.00025,0.0,0.0
13.781,3907.573,0.00026,0.0,0.0
13.788,3911.232,0.00026,0.0,0.0
13.794,3897.993,0.00026,0.0,0.0
13.8,3883.216,0.00026,0.0,0.0
13.807,3895.171,0.00026,0.0,0.0
13.813,3889.077,0.00026,0.0,0.0
13.819,3885.102,0.00026,0.0,0.0
13.826,3864.697,0.00026,0.0,0.0
13.832,3870.746,0.00026,0.0,0.0
13.838,3873.162,0.00026,0.0,0.0
13.844,3870.893,0.00026,0.0,0.0
13.851,3865.468,0.00026,0.0,0.0
13.857,3872.19,0.00026,0.0,0.0
13.863,3849.469,0.00026,0.0,0.0
13.87,3851.937,0.00026,0.0,0.0
13.876,3845.332,0.00026,0.0,0.0
13.882,3842.74,0.00026,0.0,0.0
13.889,3845.1,0.00026,0.0,0.0
13.895,3842.062,0.00026,0.0,0.0
13.901,3843.255,0.00026,0.0,0.0
13.908,3841.15,0.00026,0.0,0.0
13.914,3837.191,0.00026,0.0,0.0
13.92,3835.509,0.00026,0.0,0.0
13.927,3821.157,0.00026,0.0,0.0
13.933,3819.387,0.00026,0.0,0.0
13.939,3819.408,0.00026,0.0,0.0
13.946,3824.272,0.00026,0.0,0.0
13.952,3819.343,0.00026,0.0,0.0
13.958,3802.506,0.00026,0.0,0.0
13.965,3816.146,0.00026,0.0,0.0
13.971,3797.591,0.00026,0.0,0.0
13.977,3814.703,0.00026,0.0,0.0
13.984,3796.919,0.00026,0.0,0.0
13.99,3793.809,0.00026,0.0,0.0
13.996,3780.118,0.00026,0.0,0.0
14.002,3789.497,0.00026,0.0,0.0
14.009,3788.78,0.00026,0.0,0.0
14.015,3777.71,0.00026,0.0,0.0
14.021,3779.415,0.00026,0.0,0.0
14.028,3782.016,0.00026,0.0,0.0
14.034,3759.921,0.00027,0.0,0.0
14.04,3772.182,0.00027,0.0,0.0
14.047,3778.939,0.00026,0.0,0.0
14.053,3769.021,0.00027,0.0,0.0
14.059,3765.71,0.00027,0.0,0.0
14.066,3761.749,0.00027,0.0,0.0
14.072,3755.329,0.00027,0.0,0.0
14.078,3752.788,0.00027,0.0,0.0
14.085,3757.508,0.00027,0.0,0.0
14.091,3751.32,0.00027,0.0,0.0
14.097,3735.483,0.00027,0.0,0.0
14.104,3742.28,0.00027,0.0,0.0
14.11,3738.448,0.00027,0.0,0.0
14.116,3736.35,0.00027,0.0,0.0
14.123,3734.444,0.00027,0.0,0.0
14.129,3727.436,0.00027,0.0,0.0
14.135,3730.565,0.00027,0.0,0.0
14.142,3724.069,0.00027,0.0,0.0
14.148,3729.317,0.00027,0.0,0.0
14.154,3726.425,0.00027,0.0,0.0
14.16,3723.247,0.00027,0.0,0.0
14.167,3712.836,0.00027,0.0,0.0
14.173,3717.636,0.00027,0.0,0.0
14.179,3715.455,0.00027,0.0,0.0
14.186,3701.97,0.00027,0.0,0.0
14.192,3710.951,0.00027,0.0,0.0
14.198,3702.096,0.00027,0.0,0.0
14.205,3693.788,0.00027,0.0,0.0
14.211,3706.62,0.00027,0.0,0.0
14.217,3691.759,0.00027,0.0,0.0
14.224,3698.353,0.00027,0.0,0.0
14.23,3699.146,0.00027,0.0,0.0
14.236,3705.459,0.00027,0.0,0.0
14.243,3717.365,0.00027,0.0,0.0
14.249,3704.069,0.00027,0.0,0.0
14.255,3713.829,0.00027,0.0,0.0
14.262,3711.264,0.00027,0.0,0.0
14.268,3724.978,0.00027,0.0,0.0
14.274,3713.465,0.00027,0.0,0.0
14.281,3713.75,0.00027,0.0,0.0
14.287,3712.956,0.00027,0.0,0.0
14.293,3705.617,0.00027,0.0,0.0
14.3,3695.769,0.00027,0.0,0.0
14.306,3689.104,0.00027,0.0,0.0
14.312,3676.736,0.00027,0.0,0.0
14.318,3678.888,0.00027,0.0,0.0
14.325,3671.866,0.00027,0.0,0.0
14.331,3663.871,0.00027,0.0,0.0
14.337,3670.416,0.00027,0.0,0.0
14.344,3651.925,0.00027,0.0,0.0
14.35,3649.45,0.00027,0.0,0.0
14.356,3647.91,0.00027,0.0,0.0
14.363,3638.364,0.00027,0.0,0.0
14.369,3656.316,0.00027,0.0,0.0
14.375,3640.216,0.00027,0.0,0.0
14.382,3636.69,0.00027,0.0,0.0
14.388,3635.739,0.00028,0.0,0.0
14.394,3625.03,0.00028,0.0,0.0
14.401,3641.746,0.00027,0.0,0.0
14.407,3630.309,0.00028,0.0,0.0
14.413,3642.267,0.00027,0.0,0.0
14.42,3634.829,0.00028,0.0,0.0
14.426,3639.928,0.00027,0.0,0.0
14.432,3629.476,0.00028,0.0,0.0
14.439,3636.009,0.00028,0.0,0.0
14.445,3658.967,0.00027,0.0,0.0
14.451,3689.01,0.00027,0.0,0.0
14.458,3673.179,0.00027,0.0,0.0
14.464,3742.339,0.00027,0.0,0.0
14.47,3833.68,0.00026,0.0,0.0
14.476,3800.147,0.00026,0.0,0.0
14.483,3794.689,0.00026,0.0,0.0
14.489,3701.288,0.00027,0.0,0.0
14.495,3681.09,0.00027,0.0,0.0
14.502,3634.063,0.00028,0.0,0.0
14.508,3629.932,0.00028,0.0,0.0
14.514,3610.941,0.00028,0.0,0.0
14.521,3599.535,0.00028,0.0,0.0
14.527,3595.062,0.00028,0.0,0.0
14.533,3582.326,0.00028,0.0,0.0
14.54,3587.712,0.00028,0.0,0.0
14.546,3582.849,0.00028,0.0,0.0
14.552,3583.375,0.00028,0.0,0.0
14.559,3578.581,0.00028,0.0,0.0
14.565,3573.253,0.00028,0.0,0.0
14.571,3573.025,0.00028,0.0,0.0
14.578,3578.644,0.00028,0.0,0.0
14.584,3578.77,0.00028,0.0,0.0
14.59,3581.285,0.00028,0.0,0.0
14.597,3571.198,0.00028,0.0,0.0
14.603,3566.039,0.00028,0.0,0.0
14.609,3568.788,0.00028,0.0,0.0
14.616,3553.935,0.00028,0.0,0.0
14.622,3562.535,0.00028,0.0,0.0
14.628,3548.447,0.00028,0.0,0.0
14.634,3549.289,0.00028,0.0,0.0
14.641,3546.764,0.00028,0.0,0.0
14.647,3550.948,0.00028,0.0,0.0
14.653,3550.891,0.00028,0.0,0.0
14.66,3546.411,0.00028,0.0,0.0
14.666,3546.099,0.00028,0.0,0.0
14.672,3550.139,0.00028,0.0,0.0
14.679,3537.262,0.00028,0.0,0.0
14.685,3529.588,0.00028,0.0,0.0
14.691,3535.322,0.00028,0.0,0.0
14.698,3535.633,0.00028,0.0,0.0
14.704,3527.279,0.00028,0.0,0.0
14.71,3529.444,0.00028,0.0,0.0
14.717,3511.973,0.00028,0.0,0.0
14.723,3515.387,0.00028,0.0,0.0
14.729,3515.369,0.00028,0.0,0.0
14.736,3512.416,0.00028,0.0,0.0
14.742,3515.928,0.00028,0.0,0.0
14.748,3497.73,0.00029,0.0,0.0
14.755,3502.403,0.00029,0.0,0.0
14.761,3506.924,0.00029,0.0,0.0
14.767,3496.099,0.00029,0.0,0.0
14.774,3497.913,0.00029,0.0,0.0
14.78,3496.267,0.00029,0.0,0.0
14.786,3493.749,0.00029,0.0,0.0
14.792,3493.164,0.00029,0.0,0.0
14.799,3484.037,0.00029,0.0,0.0
14.805,3483.409,0.00029,0.0,0.0
14.811,3491.378,0.00029,0.0,0.0
14.818,3483.121,0.00029,0.0,0.0
14.824,3479.74,0.00029,0.0,0.0
14.83,3473.909,0.00029,0.0,0.0
14.837,3475.965,0.00029,0.0,0.0
14.843,3474.804,0.00029,0.0,0.0
14.849,3475.393,0.00029,0.0,0.0
14.856,3476.099,0.00029,0.0,0.0
14.862,3451.27,0.00029,0.0,0.0
14.868,3468.273,0.00029,0.0,0.0
14.875,3464.509,0.00029,0.0,0.0
14.881,3462.653,0.00029,0.0,0.0
14.887,3455.957,0.00029,0.0,0.0
14.894,3452.707,0.00029,0.0,0.0
14.9,3453.085,0.00029,0.0,0.0
14.906,3457.104,0.00029,0.0,0.0
14.913,3439.774,0.00029,0.0,0.0
14.919,3449.577,0.00029,0.0,0.0
14.925,3448.99,0.00029,0.0,0.0
14.932,3445.318,0.00029,0.0,0.0
14.938,3443.929,0.00029,0.0,0.0
14.944,3437.765,0.00029,0.0,0.0
14.95,3440.33,0.00029,0.0,0.0
14.957,3434.682,0.00029,0.0,0.0
14.963,3445.355,0.00029,0.0,0.0
14.969,3430.791,0.00029,0.0,0.0
14.976,3434.345,0.00029,0.0,0.0
14.982,3436.281,0.00029,0.0,0.0
14.988,3428.682,0.00029,0.0,0.0
14.995,3438.914,0.00029,0.0,0.0
15.001,3435.212,0.00029,0.0,0.0
15.007,3429.142,0.00029,0.0,0.0
15.014,3420.861,0.00029,0.0,0.0
15.02,3412.544,0.00029,0.0,0.0
15.026,3417.361,0.00029,0.0,0.0
15.033,3416.419,0.00029,0.0,0.0
15.039,3422.955,0.00029,0.0,0.0
15.045,3421.489,0.00029,0.0,0.0
15.052,3414.355,0.00029,0.0,0.0
15.058,3413.113,0.00029,0.0,0.0
15.064,3410.026,0.00029,0.0,0.0
15.071,3406.463,0.00029,0.0,0.0
15.077,3404.708,0.00029,0.0,0.0
15.083,3400.597,0.00029,0.0,0.0
15.09,3398.374,0.00029,0.0,0.0
15.096,3401.798,0.00029,0.0,0.0
15.102,3405.462,0.00029,0.0,0.0
15.108,3402.977,0.00029,0.0,0.0
15.115,3399.911,0.00029,0.0,0.0
15.121,3409.215,0.00029,0.0,0.0
15.127,3401.711,0.00029,0.0,0.0
15.134,3391.498,0.00029,0.0,0.0
15.14,3413.422,0.00029,0.0,0.0
15.146,3412.246,0.00029,0.0,0.0
15.153,3404.939,0.00029,0.0,0.0
15.159,3405.803,0.00029,0.0,0.0
15.165,3425.876,0.00029,0.0,0.0
15.172,3408.208,0.00029,0.0,0.0
15.178,3424.967,0.00029,0.0,0.0
15.184,3419.647,0.00029,0.0,0.0
15.191,3404.071,0.00029,0.0,0.0
15.197,3402.861,0.00029,0.0,0.0
15.203,3408.173,0.00029,0.0,0.0
15.21,3396.436,0.00029,0.0,0.0
15.216,3393.367,0.00029,0.0,0.0
15.222,3391.268,0.00029,0.0,0.0
15.229,3400.896,0.00029,0.0,0.0
15.235,3400.417,0.00029,0.0,0.0
15.241,3400.074,0.00029,0.0,0.0
15.248,3413.593,0.00029,0.0,0.0
15.254,3425.546,0.00029,0.0,0.0
15.26,3442.764,0.00029,0.0,0.0
15.266,3460.096,0.00029,0.0,0.0
15.273,3506.403,0.00029,0.0,0.0
15.279,3565.643,0.00028,0.0,0.0
15.285,3683.852,0.00027,0.0,0.0
15.292,3877.383,0.00026,0.0,0.0
15.298,4139.062,0.00024,0.0,0.0
15.304,4596.538,0.00022,0.0,0.0
15.311,5113.755,0.0002,0.0,0.0
15.317,5729.862,0.00017,0.0,0.0
15.323,6071.54,0.00016,0.0,0.0
15.33,6029.641,0.00017,0.0,0.0
15.336,6000.542,0.00017,0.0,0.0
15.342,5422.21,0.00018,0.0,0.0
15.349,4846.07,0.00021,0.0,0.0
15.355,4340.692,0.00023,0.0,0.0
15.361,3956.029,0.00025,0.0,0.0
15.368,3737.103,0.00027,0.0,0.0
15.374,3583.031,0.00028,0.0,0.0
15.38,3499.293,0.00029,0.0,0.0
15.387,3438.723,0.00029,0.0,0.0
15.393,3408.856,0.00029,0.0,0.0
15.399,3385.668,0.0003,0.0,0.0
15.406,3376.966,0.0003,0.0,0.0
15.412,3357.808,0.0003,0.0,0.0
15.418,3349.875,0.0003,0.0,0.0
15.424,3346.254,0.0003,0.0,0.0
15.431,3343.445,0.0003,0.0,0.0
15.437,3335.797,0.0003,0.0,0.0
15.443,3326.341,0.0003,0.0,0.0
15.45,3340.61,0.0003,0.0,0.0
15.456,3330.952,0.0003,0.0,0.0
15.462,3316.718,0.0003,0.0,0.0
15.469,3331.396,0.0003,0.0,0.0
15.475,3324.029,0.0003,0.0,0.0
15.481,3314.328,0.0003,0.0,0.0
15.488,3322.753,0.0003,0.0,0.0
15.494,3307.569,0.0003,0.0,0.0
15.5,3309.579,0.0003,0.0,0.0
15.507,3308.847,0.0003,0.0,0.0
15.513,3310.54,0.0003,0.0,0.0
15.519,3306.534,0.0003,0.0,0.0
15.526,3300.219,0.0003,0.0,0.0
15.532,3304.437,0.0003,0.0,0.0
15.538,3293.049,0.0003,0.0,0.0
15.545,3300.389,0.0003,0.0,0.0
15.551,3296.524,0.0003,0.0,0.0
15.557,3289.833,0.0003,0.0,0.0
15.564,3289.354,0.0003,0.0,0.0
15.57,3276.583,0.00031,0.0,0.0
15.576,3288.22,0.0003,0.0,0.0
15.582,3287.649,0.0003,0.0,0.0
15.589,3278.505,0.00031,0.0,0.0
15.595,3284.469,0.0003,0.0,0.0
15.601,3276.477,0.00031,0.0,0.0
15.608,3274.193,0.00031,0.0,0.0
15.614,3282.69,0.0003,0.0,0.0
15.62,3267.032,0.00031,0.0,0.0
15.627,3271.596,0.00031,0.0,0.0
15.633,3272.606,0.00031,0.0,0.0
15.639,3273.178,0.00031,0.0,0.0
15.646,3269.955,0.00031,0.0,0.0
15.652,3276.873,0.00031,0.0,0.0
15.658,3253.761,0.00031,0.0,0.0
15.665,3249.914,0.00031,0.0,0.0
15.671,3260.443,0.00031,0.0,0.0
15.677,3255.757,0.00031,0.0,0.0
15.684,3253.796,0.00031,0.0,0.0
15.69,3255.584,0.00031,0.0,0.0
15.696,3248.722,0.00031,0.0,0.0
15.703,3245.71,0.00031,0.0,0.0
15.709,3235.231,0.00031,0.0,0.0
15.715,3253.581,0.00031,0.0,0.0
15.722,3239.816,0.00031,0.0,0.0
15.728,3241.955,0.00031,0.0,0.0
15.734,3255.563,0.00031,0.0,0.0
15.74,3239.62,0.00031,0.0,0.0
15.747,3238.896,0.00031,0.0,0.0
15.753,3232.992,0.00031,0.0,0.0
15.759,3237.244,0.00031,0.0,0.0
15.766,3236.862,0.00031,0.0,0.0
15.772,3234.685,0.00031,0.0,0.0
15.778,3236.758,0.00031,0.0,0.0
15.785,3229.208,0.00031,0.0,0.0
15.791,3230.385,0.00031,0.0,0.0
15.797,3243.054,0.00031,0.0,0.0
15.804,3230.526,0.00031,0.0,0.0
15.81,3226.732,0.00031,0.0,0.0
15.816,3219.298,0.00031,0.0,0.0
15.823,3227.195,0.00031,0.0,0.0
15.829,3233.247,0.00031,0.0,0.0
15.835,3220.671,0.00031,0.0,0.0
15.842,3238.189,0.00031,0.0,0.0
15.848,3233.444,0.00031,0.0,0.0
15.854,3225.388,0.00031,0.0,0.0
15.861,3233.592,0.00031,0.0,0.0
15.867,3241.143,0.00031,0.0,0.0
15.873,3227.119,0.00031,0.0,0.0
15.88,3223.617,0.00031,0.0,0.0
15.886,3217.425,0.00031,0.0,0.0
15.892,3223.262,0.00031,0.0,0.0
15.898,3221.016,0.00031,0.0,0.0
15.905,3210.343,0.00031,0.0,0.0
15.911,3212.511,0.00031,0.0,0.0
15.917,3205.69,0.00031,0.0,0.0
15.924,3203.284,0.00031,0.0,0.0
15.93,3211.336,0.00031,0.0,0.0
15.936,3210.15,0.00031,0.0,0.0
15.943,3210.575,0.00031,0.0,0.0
15.949,3208.936,0.00031,0.0,0.0
15.955,3202.739,0.00031,0.0,0.0
15.962,3186.809,0.00031,0.0,0.0
15.968,3193.851,0.00031,0.0,0.0
15.974,3193.833,0.00031,0.0,0.0
15.981,3188.583,0.00031,0.0,0.0
15.987,3186.975,0.00031,0.0,0.0
15.993,3196.334,0.00031,0.0,0.0
16.0,3195.504,0.00031,0.0,0.0
16.006,3191.898,0.00031,0.0,0.0
16.012,3191.274,0.00031,0.0,0.0
16.019,3181.131,0.00031,0.0,0.0
16.025,3189.269,0.00031,0.0,0.0
16.031,3190.924,0.00031,0.0,0.0
16.038,3179.014,0.00031,0.0,0.0
16.044,3183.918,0.00031,0.0,0.0
16.05,3186.956,0.00031,0.0,0.0
16.056,3182.31,0.00031,0.0,0.0
16.063,3187.633,0.00031,0.0,0.0
16.069,3187.631,0.00031,0.0,0.0
16.075,3181.672,0.00031,0.0,0.0
16.082,3175.873,0.00031,0.0,0.0
16.088,3185.679,0.00031,0.0,0.0
16.094,3175.377,0.00031,0.0,0.0
16.101,3169.906,0.00032,0.0,0.0
16.107,3174.125,0.00032,0.0,0.0
16.113,3175.599,0.00031,0.0,0.0
16.12,3185.564,0.00031,0.0,0.0
16.126,3173.425,0.00032,0.0,0.0
16.132,3177.565,0.00031,0.0,0.0
16.139,3184.994,0.00031,0.0,0.0
16.145,3160.285,0.00032,0.0,0.0
16.151,3176.33,0.00031,0.0,0.0
16.158,3179.38,0.00031,0.0,0.0
16.164,3170.179,0.00032,0.0,0.0
16.17,3173.128,0.00032,0.0,0.0
16.177,3178.149,0.00031,0.0,0.0
16.183,3169.35,0.00032,0.0,0.0
16.189,3168.264,0.00032,0.0,0.0
16.196,3156.706,0.00032,0.0,0.0
16.202,3158.914,0.00032,0.0,0.0
16.208,3174.266,0.00032,0.0,0.0
16.214,3170.238,0.00032,0.0,0.0
16.221,3161.623,0.00032,0.0,0.0
16.227,3161.545,0.00032,0.0,0.0
16.233,3153.607,0.00032,0.0,0.0
16.24,3159.658,0.00032,0.0,0.0
16.246,3160.047,0.00032,0.0,0.0
16.252,3166.788,0.00032,0.0,0.0
16.259,3161.831,0.00032,0.0,0.0
16.265,3167.404,0.00032,0.0,0.0
16.271,3158.771,0.00032,0.0,0.0
16.278,3158.413,0.00032,0.0,0.0
16.284,3151.554,0.00032,0.0,0.0
16.29,3156.216,0.00032,0.0,0.0
16.297,3155.436,0.00032,0.0,0.0
16.303,3158.989,0.00032,0.0,0.0
16.309,3155.5,0.00032,0.0,0.0
16.316,3159.817,0.00032,0.0,0.0
16.322,3155.206,0.00032,0.0,0.0
16.328,3169.467,0.00032,0.0,0.0
16.335,3155.083,0.00032,0.0,0.0
16.341,3173.35,0.00032,0.0,0.0
16.347,3167.095,0.00032,0.0,0.0
16.354,3169.852,0.00032,0.0,0.0
16.36,3158.635,0.00032,0.0,0.0
16.366,3169.263,0.00032,0.0,0.0
16.372,3157.872,0.00032,0.0,0.0
16.379,3150.893,0.00032,0.0,0.0
16.385,3159.975,0.00032,0.0,0.0
16.391,3153.329,0.00032,0.0,0.0
16.398,3150.16,0.00032,0.0,0.0
16.404,3154.376,0.00032,0.0,0.0
16.41,3147.959,0.00032,0.0,0.0
16.417,3148.923,0.00032,0.0,0.0
16.423,3153.597,0.00032,0.0,0.0
16.429,3168.458,0.00032,0.0,0.0
16.436,3161.443,0.00032,0.0,0.0
16.442,3154.317,0.00032,0.0,0.0
16.448,3174.438,0.00032,0.0,0.0
16.455,3153.392,0.00032,0.0,0.0
16.461,3153.938,0.00032,0.0,0.0
16.467,3160.226,0.00032,0.0,0.0
16.474,3161.109,0.00032,0.0,0.0
16.48,3168.724,0.00032,0.0,0.0
16.486,3189.455,0.00031,0.0,0.0
16.493,3187.153,0.00031,0.0,0.0
16.499,3204.525,0.00031,0.0,0.0
16.505,3232.196,0.00031,0.0,0.0
16.512,3208.644,0.00031,0.0,0.0
16.518,3229.815,0.00031,0.0,0.0
16.524,3241.749,0.00031,0.0,0.0
16.53,3191.671,0.00031,0.0,0.0
16.537,3209.356,0.00031,0.0,0.0
16.543,3192.561,0.00031,0.0,0.0
16.549,3183.584,0.00031,0.0,0.0
16.556,3176.429,0.00031,0.0,0.0
16.562,3177.954,0.00031,0.0,0.0
16.568,3168.543,0.00032,0.0,0.0
16.575,3171.985,0.00032,0.0,0.0
16.581,3170.372,0.00032,0.0,0.0
16.587,3189.753,0.00031,0.0,0.0
16.594,3174.445,0.00032,0.0,0.0
