"x","y_obs","weight","y_calc","y_bkg"
0.8,2734.942,0.00037,0.0,0.0
0.806,3129.951,0.00032,0.0,0.0
0.813,3207.604,0.00031,0.0,0.0
0.819,3099.845,0.00032,0.0,0.0
0.825,3703.524,0.00027,0.0,0.0
0.832,3515.468,0.00028,0.0,0.0
0.838,3755.544,0.00027,0.0,0.0
0.844,4041.997,0.00025,0.0,0.0
0.851,3923.27,0.00025,0.0,0.0
0.857,4286.041,0.00023,0.0,0.0
0.863,4662.863,0.00021,0.0,0.0
0.87,4250.155,0.00024,0.0,0.0
0.876,5014.763,0.0002,0.0,0.0
0.882,4912.588,0.0002,0.0,0.0
0.888,5141.178,0.00019,0.0,0.0
0.895,5348.395,0.00019,0.0,0.0
0.901,5345.991,0.00019,0.0,0.0
0.907,5780.602,0.00017,0.0,0.0
0.914,5901.404,0.00017,0.0,0.0
0.92,5619.62,0.00018,0.0,0.0
0.926,6166.194,0.00016,0.0,0.0
0.933,6183.731,0.00016,0.0,0.0
0.939,6016.162,0.00017,0.0,0.0
0.945,6578.929,0.00015,0.0,0.0
0.952,6277.022,0.00016,0.0,0.0
0.958,6513.861,0.00015,0.0,0.0
0.964,6590.806,0.00015,0.0,0.0
0.971,6379.975,0.00016,0.0,0.0
0.977,6798.709,0.00015,0.0,0.0
0.983,6706.969,0.00015,0.0,0.0
0.99,6613.168,0.00015,0.0,0.0
0.996,6858.908,0.00015,0.0,0.0
1.002,6633.954,0.00015,0.0,0.0
1.009,6819.973,0.00015,0.0,0.0
1.015,6884.821,0.00015,0.0,0.0
1.021,6674.76,0.00015,0.0,0.0
1.028,6939.2,0.00014,0.0,0.0
1.034,6803.62,0.00015,0.0,0.0
1.04,6781.599,0.00015,0.0,0.0
1.046,6853.646,0.00015,0.0,0.0
1.053,6788.056,0.00015,0.0,0.0
1.059,6783.361,0.00015,0.0,0.0
1.065,6836.764,0.00015,0.0,0.0
1.072,6680.689,0.00015,0.0,0.0
1.078,6726.546,0.00015,0.0,0.0
1.084,6636.202,0.00015,0.0,0.0
1.091,6675.253,0.00015,0.0,0.0
1.097,6684.21,0.00015,0.0,0.0
1.103,6631.903,0.00015,0.0,0.0
1.11,6615.107,0.00015,0.0,0.0
1.116,6618.873,0.00015,0.0,0.0
1.122,6501.544,0.00015,0.0,0.0
1.129,6529.729,0.00015,0.0,0.0
1.135,6501.589,0.00015,0.0,0.0
1.141,6455.271,0.00015,0.0,0.0
1.148,6472.764,0.00015,0.0,0.0
1.154,6332.85,0.00016,0.0,0.0
1.16,6315.94,0.00016,0.0,0.0
1.167,6285.156,0.00016,0.0,0.0
1.173,6252.267,0.00016,0.0,0.0
1.179,6260.674,0.00016,0.0,0.0
1.186,6189.918,0.00016,0.0,0.0
1.192,6103.718,0.00016,0.0,0.0
1.198,6048.306,0.00017,0.0,0.0
1.204,5987.72,0.00017,0.0,0.0
1.211,6008.801,0.00017,0.0,0.0
1.217,6006.939,0.00017,0.0,0.0
1.223,5979.044,0.00017,0.0,0.0
1.23,5884.373,0.00017,0.0,0.0
1.236,5894.196,0.00017,0.0,0.0
1.242,5836.294,0.00017,0.0,0.0
1.249,5800.181,0.00017,0.0,0.0
1.255,5813.287,0.00017,0.0,0.0
1.261,5778.088,0.00017,0.0,0.0
1.268,5743.85,0.00017,0.0,0.0
1.274,5681.935,0.00018,0.0,0.0
1.28,5693.595,0.00018,0.0,0.0
1.287,5677.333,0.00018,0.0,0.0
1.293,5708.103,0.00018,0.0,0.0
1.299,5631.221,0.00018,0.0,0.0
1.306,5616.925,0.00018,0.0,0.0
1.312,5560.675,0.00018,0.0,0.0
1.318,5558.043,0.00018,0.0,0.0
1.325,5514.034,0.00018,0.0,0.0
1.331,5520.257,0.00018,0.0,0.0
1.337,5551.51,0.00018,0.0,0.0
1.344,5494.579,0.00018,0.0,0.0
1.35,5483.675,0.00018,0.0,0.0
1.356,5504.618,0.00018,0.0,0.0
1.362,5433.438,0.00018,0.0,0.0
1.369,5456.57,0.00018,0.0,0.0
1.375,5450.574,0.00018,0.0,0.0
1.381,5450.851,0.00018,0.0,0.0
1.388,5453.779,0.00018,0.0,0.0
1.394,5381.308,0.00019,0.0,0.0
1.4,5415.556,0.00018,0.0,0.0
1.407,5367.416,0.00019,0.0,0.0
1.413,5395.624,0.00019,0.0,0.0
1.419,5393.485,0.00019,0.0,0.0
1.426,5380.72,0.00019,0.0,0.0
1.432,5341.671,0.00019,0.0,0.0
1.438,5341.385,0.00019,0.0,0.0
1.445,5370.406,0.00019,0.0,0.0
1.451,5366.967,0.00019,0.0,0.0
1.457,5339.785,0.00019,0.0,0.0
1.464,5329.678,0.00019,0.0,0.0
1.47,5311.231,0.00019,0.0,0.0
1.476,5303.963,0.00019,0.0,0.0
1.483,5388.266,0.00019,0.0,0.0
1.489,5333.792,0.00019,0.0,0.0
1.495,5344.592,0.00019,0.0,0.0
1.502,5330.218,0.00019,0.0,0.0
1.508,5339.917,0.00019,0.0,0.0
1.514,5319.572,0.00019,0.0,0.0
1.52,5393.04,0.00019,0.0,0.0
1.527,5340.197,0.00019,0.0,0.0
1.533,5331.431,0.00019,0.0,0.0
1.539,5373.229,0.00019,0.0,0.0
1.546,5366.891,0.00019,0.0,0.0
1.552,5358.671,0.00019,0.0,0.0
1.558,5351.342,0.00019,0.0,0.0
1.565,5362.318,0.00019,0.0,0.0
1.571,5388.782,0.00019,0.0,0.0
1.577,5372.445,0.00019,0.0,0.0
1.584,5411.883,0.00018,0.0,0.0
1.59,5389.838,0.00019,0.0,0.0
1.596,5406.772,0.00018,0.0,0.0
1.603,5436.66,0.00018,0.0,0.0
1.609,5439.063,0.00018,0.0,0.0
1.615,5430.832,0.00018,0.0,0.0
1.622,5423.671,0.00018,0.0,0.0
1.628,5425.027,0.00018,0.0,0.0
1.634,5472.465,0.00018,0.0,0.0
1.641,5478.793,0.00018,0.0,0.0
1.647,5495.075,0.00018,0.0,0.0
1.653,5521.743,0.00018,0.0,0.0
1.66,5504.647,0.00018,0.0,0.0
1.666,5524.783,0.00018,0.0,0.0
1.672,5554.142,0.00018,0.0,0.0
1.678,5532.395,0.00018,0.0,0.0
1.685,5550.749,0.00018,0.0,0.0
1.691,5585.104,0.00018,0.0,0.0
1.697,5591.758,0.00018,0.0,0.0
1.704,5621.106,0.00018,0.0,0.0
1.71,5610.672,0.00018,0.0,0.0
1.716,5642.864,0.00018,0.0,0.0
1.723,5627.559,0.00018,0.0,0.0
1.729,5662.008,0.00018,0.0,0.0
1.735,5656.543,0.00018,0.0,0.0
1.742,5630.412,0.00018,0.0,0.0
1.748,5695.779,0.00018,0.0,0.0
1.754,5724.604,0.00017,0.0,0.0
1.761,5712.37,0.00018,0.0,0.0
1.767,5746.751,0.00017,0.0,0.0
1.773,5738.061,0.00017,0.0,0.0
1.78,5734.13,0.00017,0.0,0.0
1.786,5767.991,0.00017,0.0,0.0
1.792,5776.397,0.00017,0.0,0.0
1.799,5764.816,0.00017,0.0,0.0
1.805,5782.364,0.00017,0.0,0.0
1.811,5745.703,0.00017,0.0,0.0
1.818,5771.189,0.00017,0.0,0.0
1.824,5768.983,0.00017,0.0,0.0
1.83,5752.955,0.00017,0.0,0.0
1.836,5750.319,0.00017,0.0,0.0
1.843,5769.747,0.00017,0.0,0.0
1.849,5777.214,0.00017,0.0,0.0
1.855,5775.512,0.00017,0.0,0.0
1.862,5788.496,0.00017,0.0,0.0
1.868,5795.119,0.00017,0.0,0.0
1.874,5794.432,0.00017,0.0,0.0
1.881,5771.507,0.00017,0.0,0.0
1.887,5777.793,0.00017,0.0,0.0
1.893,5794.54,0.00017,0.0,0.0
1.9,5788.678,0.00017,0.0,0.0
1.906,5770.988,0.00017,0.0,0.0
1.912,5780.482,0.00017,0.0,0.0
1.919,5738.573,0.00017,0.0,0.0
1.925,5793.529,0.00017,0.0,0.0
1.931,5782.687,0.00017,0.0,0.0
1.938,5814.563,0.00017,0.0,0.0
1.944,5806.818,0.00017,0.0,0.0
1.95,5776.679,0.00017,0.0,0.0
1.957,5780.457,0.00017,0.0,0.0
1.963,5785.338,0.00017,0.0,0.0
1.969,5775.641,0.00017,0.0,0.0
1.976,5793.423,0.00017,0.0,0.0
1.982,5790.182,0.00017,0.0,0.0
1.988,5816.816,0.00017,0.0,0.0
1.994,5805.204,0.00017,0.0,0.0
2.001,5814.885,0.00017,0.0,0.0
2.007,5826.721,0.00017,0.0,0.0
2.013,5774.234,0.00017,0.0,0.0
2.02,5795.222,0.00017,0.0,0.0
2.026,5790.206,0.00017,0.0,0.0
2.032,5821.941,0.00017,0.0,0.0
2.039,5767.959,0.00017,0.0,0.0
2.045,5819.851,0.00017,0.0,0.0
2.051,5802.045,0.00017,0.0,0.0
2.058,5820.675,0.00017,0.0,0.0
2.064,5805.913,0.00017,0.0,0.0
2.07,5811.735,0.00017,0.0,0.0
2.077,5810.804,0.00017,0.0,0.0
2.083,5791.83,0.00017,0.0,0.0
2.089,5842.221,0.00017,0.0,0.0
2.096,5821.337,0.00017,0.0,0.0
2.102,5864.927,0.00017,0.0,0.0
2.108,5845.578,0.00017,0.0,0.0
2.115,5819.876,0.00017,0.0,0.0
2.121,5853.071,0.00017,0.0,0.0
2.127,5863.746,0.00017,0.0,0.0
2.134,5860.988,0.00017,0.0,0.0
2.14,5888.653,0.00017,0.0,0.0
2.146,5924.799,0.00017,0.0,0.0
2.152,5931.311,0.00017,0.0,0.0
2.159,5892.741,0.00017,0.0,0.0
2.165,5927.891,0.00017,0.0,0.0
2.171,5931.776,0.00017,0.0,0.0
2.178,5932.195,0.00017,0.0,0.0
2.184,5931.596,0.00017,0.0,0.0
2.19,5979.161,0.00017,0.0,0.0
2.197,5955.489,0.00017,0.0,0.0
2.203,6006.242,0.00017,0.0,0.0
2.209,5972.409,0.00017,0.0,0.0
2.216,6020.18,0.00017,0.0,0.0
2.222,6021.149,0.00017,0.0,0.0
2.228,6020.867,0.00017,0.0,0.0
2.235,6045.307,0.00017,0.0,0.0
2.241,6061.867,0.00016,0.0,0.0
2.247,6023.71,0.00017,0.0,0.0
2.254,6069.634,0.00016,0.0,0.0
2.26,6115.672,0.00016,0.0,0.0
2.266,6107.773,0.00016,0.0,0.0
2.273,6130.511,0.00016,0.0,0.0
2.279,6130.412,0.00016,0.0,0.0
2.285,6144.336,0.00016,0.0,0.0
2.292,6161.361,0.00016,0.0,0.0
2.298,6173.702,0.00016,0.0,0.0
2.304,6169.284,0.00016,0.0,0.0
2.31,6224.554,0.00016,0.0,0.0
2.317,6228.385,0.00016,0.0,0.0
2.323,6247.349,0.00016,0.0,0.0
2.329,6272.911,0.00016,0.0,0.0
2.336,6319.613,0.00016,0.0,0.0
2.342,6289.739,0.00016,0.0,0.0
2.348,6344.709,0.00016,0.0,0.0
2.355,6352.033,0.00016,0.0,0.0
2.361,6367.95,0.00016,0.0,0.0
2.367,6416.261,0.00016,0.0,0.0
2.374,6415.213,0.00016,0.0,0.0
2.38,6456.647,0.00015,0.0,0.0
2.386,6453.382,0.00015,0.0,0.0
2.393,6538.59,0.00015,0.0,0.0
2.399,6598.524,0.00015,0.0,0.0
2.405,6677.384,0.00015,0.0,0.0
2.412,6780.633,0.00015,0.0,0.0
2.418,6911.475,0.00014,0.0,0.0
2.424,6953.092,0.00014,0.0,0.0
2.431,7028.57,0.00014,0.0,0.0
2.437,6988.011,0.00014,0.0,0.0
2.443,6926.789,0.00014,0.0,0.0
2.45,6846.692,0.00015,0.0,0.0
2.456,6810.991,0.00015,0.0,0.0
2.462,6770.917,0.00015,0.0,0.0
2.468,6744.681,0.00015,0.0,0.0
2.475,6769.089,0.00015,0.0,0.0
2.481,6799.954,0.00015,0.0,0.0
2.487,6817.646,0.00015,0.0,0.0
2.494,6838.658,0.00015,0.0,0.0
2.5,6846.325,0.00015,0.0,0.0
2.506,6875.272,0.00015,0.0,0.0
2.513,6907.086,0.00014,0.0,0.0
2.519,6877.897,0.00015,0.0,0.0
2.525,6934.732,0.00014,0.0,0.0
2.532,6976.741,0.00014,0.0,0.0
2.538,6970.619,0.00014,0.0,0.0
2.544,7019.473,0.00014,0.0,0.0
2.551,7027.082,0.00014,0.0,0.0
2.557,7087.411,0.00014,0.0,0.0
2.563,7092.954,0.00014,0.0,0.0
2.57,7115.891,0.00014,0.0,0.0
2.576,7116.885,0.00014,0.0,0.0
2.582,7162.515,0.00014,0.0,0.0
2.589,7167.042,0.00014,0.0,0.0
2.595,7203.41,0.00014,0.0,0.0
2.601,7242.671,0.00014,0.0,0.0
2.608,7247.214,0.00014,0.0,0.0
2.614,7282.959,0.00014,0.0,0.0
2.62,7301.53,0.00014,0.0,0.0
2.626,7308.439,0.00014,0.0,0.0
2.633,7318.01,0.00014,0.0,0.0
2.639,7353.435,0.00014,0.0,0.0
2.645,7420.237,0.00013,0.0,0.0
2.652,7416.721,0.00013,0.0,0.0
2.658,7447.153,0.00013,0.0,0.0
2.664,7485.09,0.00013,0.0,0.0
2.671,7501.024,0.00013,0.0,0.0
2.677,7531.273,0.00013,0.0,0.0
2.683,7589.824,0.00013,0.0,0.0
2.69,7575.746,0.00013,0.0,0.0
2.696,7597.322,0.00013,0.0,0.0
2.702,7651.374,0.00013,0.0,0.0
2.709,7641.451,0.00013,0.0,0.0
2.715,7661.938,0.00013,0.0,0.0
2.721,7702.3,0.00013,0.0,0.0
2.728,7710.783,0.00013,0.0,0.0
2.734,7747.622,0.00013,0.0,0.0
2.74,7778.994,0.00013,0.0,0.0
2.747,7789.711,0.00013,0.0,0.0
2.753,7828.3,0.00013,0.0,0.0
2.759,7839.358,0.00013,0.0,0.0
2.766,7850.248,0.00013,0.0,0.0
2.772,7888.745,0.00013,0.0,0.0
2.778,7910.18,0.00013,0.0,0.0
2.784,7930.362,0.00013,0.0,0.0
2.791,7969.975,0.00013,0.0,0.0
2.797,8008.106,0.00012,0.0,0.0
2.803,8033.537,0.00012,0.0,0.0
2.81,8021.41,0.00012,0.0,0.0
2.816,8070.013,0.00012,0.0,0.0
2.822,8091.602,0.00012,0.0,0.0
2.829,8102.046,0.00012,0.0,0.0
2.835,8171.814,0.00012,0.0,0.0
2.841,8152.316,0.00012,0.0,0.0
2.848,8210.022,0.00012,0.0,0.0
2.854,8221.224,0.00012,0.0,0.0
2.86,8274.602,0.00012,0.0,0.0
2.867,8257.113,0.00012,0.0,0.0
2.873,8292.628,0.00012,0.0,0.0
2.879,8328.149,0.00012,0.0,0.0
2.886,8345.571,0.00012,0.0,0.0
2.892,8370.693,0.00012,0.0,0.0
2.898,8375.443,0.00012,0.0,0.0
2.905,8410.96,0.00012,0.0,0.0
2.911,8427.352,0.00012,0.0,0.0
2.917,8461.088,0.00012,0.0,0.0
2.924,8478.235,0.00012,0.0,0.0
2.93,8491.681,0.00012,0.0,0.0
2.936,8537.043,0.00012,0.0,0.0
2.942,8541.92,0.00012,0.0,0.0
2.949,8561.523,0.00012,0.0,0.0
2.955,8552.152,0.00012,0.0,0.0
2.961,8597.699,0.00012,0.0,0.0
2.968,8615.232,0.00012,0.0,0.0
2.974,8655.401,0.00012,0.0,0.0
2.98,8641.497,0.00012,0.0,0.0
2.987,8687.419,0.00012,0.0,0.0
2.993,8698.267,0.00011,0.0,0.0
2.999,8683.748,0.00012,0.0,0.0
3.006,8702.123,0.00011,0.0,0.0
3.012,8717.347,0.00011,0.0,0.0
3.018,8710.53,0.00011,0.0,0.0
3.025,8712.231,0.00011,0.0,0.0
3.031,8731.878,0.00011,0.0,0.0
3.037,8752.516,0.00011,0.0,0.0
3.044,8756.435,0.00011,0.0,0.0
3.05,8784.042,0.00011,0.0,0.0
3.056,8772.539,0.00011,0.0,0.0
3.063,8777.015,0.00011,0.0,0.0
3.069,8790.28,0.00011,0.0,0.0
3.075,8772.294,0.00011,0.0,0.0
3.082,8790.4,0.00011,0.0,0.0
3.088,8786.187,0.00011,0.0,0.0
3.094,8805.38,0.00011,0.0,0.0
3.1,8809.31,0.00011,0.0,0.0
3.107,8823.942,0.00011,0.0,0.0
3.113,8812.656,0.00011,0.0,0.0
3.119,8829.938,0.00011,0.0,0.0
3.126,8794.515,0.00011,0.0,0.0
3.132,8800.052,0.00011,0.0,0.0
3.138,8790.844,0.00011,0.0,0.0
3.145,8789.664,0.00011,0.0,0.0
3.151,8763.056,0.00011,0.0,0.0
3.157,8769.643,0.00011,0.0,0.0
3.164,8740.622,0.00011,0.0,0.0
3.17,8755.387,0.00011,0.0,0.0
3.176,8725.98,0.00011,0.0,0.0
3.183,8753.097,0.00011,0.0,0.0
3.189,8723.335,0.00011,0.0,0.0
3.195,8677.671,0.00012,0.0,0.0
3.202,8704.009,0.00011,0.0,0.0
3.208,8681.165,0.00012,0.0,0.0
3.214,8687.621,0.00012,0.0,0.0
3.221,8700.487,0.00011,0.0,0.0
3.227,8645.092,0.00012,0.0,0.0
3.233,8662.239,0.00012,0.0,0.0
3.24,8659.905,0.00012,0.0,0.0
3.246,8637.429,0.00012,0.0,0.0
3.252,8634.646,0.00012,0.0,0.0
3.258,8606.252,0.00012,0.0,0.0
3.265,8590.033,0.00012,0.0,0.0
3.271,8581.559,0.00012,0.0,0.0
3.277,8549.877,0.00012,0.0,0.0
3.284,8532.757,0.00012,0.0,0.0
3.29,8537.154,0.00012,0.0,0.0
3.296,8505.681,0.00012,0.0,0.0
3.303,8484.858,0.00012,0.0,0.0
3.309,8467.935,0.00012,0.0,0.0
3.315,8456.192,0.00012,0.0,0.0
3.322,8450.933,0.00012,0.0,0.0
3.328,8435.377,0.00012,0.0,0.0
3.334,8402.299,0.00012,0.0,0.0
3.341,8399.803,0.00012,0.0,0.0
3.347,8387.754,0.00012,0.0,0.0
3.353,8378.681,0.00012,0.0,0.0
3.36,8358.533,0.00012,0.0,0.0
3.366,8325.452,0.00012,0.0,0.0
3.372,8336.562,0.00012,0.0,0.0
3.379,8303.657,0.00012,0.0,0.0
3.385,8325.26,0.00012,0.0,0.0
3.391,8296.392,0.00012,0.0,0.0
3.398,8275.457,0.00012,0.0,0.0
3.404,8276.731,0.00012,0.0,0.0
3.41,8238.786,0.00012,0.0,0.0
3.416,8266.525,0.00012,0.0,0.0
3.423,8244.612,0.00012,0.0,0.0
3.429,8241.989,0.00012,0.0,0.0
3.435,8269.581,0.00012,0.0,0.0
3.442,8199.274,0.00012,0.0,0.0
3.448,8202.254,0.00012,0.0,0.0
3.454,8188.522,0.00012,0.0,0.0
3.461,8162.767,0.00012,0.0,0.0
3.467,8159.591,0.00012,0.0,0.0
3.473,8150.019,0.00012,0.0,0.0
3.48,8119.737,0.00012,0.0,0.0
3.486,8105.498,0.00012,0.0,0.0
3.492,8093.856,0.00012,0.0,0.0
3.499,8076.808,0.00012,0.0,0.0
3.505,8062.126,0.00012,0.0,0.0
3.511,8052.438,0.00012,0.0,0.0
3.518,8077.781,0.00012,0.0,0.0
3.524,8040.108,0.00012,0.0,0.0
3.53,8038.395,0.00012,0.0,0.0
3.537,8014.764,0.00012,0.0,0.0
3.543,8026.454,0.00012,0.0,0.0
3.549,8026.7,0.00012,0.0,0.0
3.556,8004.59,0.00012,0.0,0.0
3.562,7982.593,0.00013,0.0,0.0
3.568,8007.376,0.00012,0.0,0.0
3.574,7983.731,0.00013,0.0,0.0
3.581,7964.968,0.00013,0.0,0.0
3.587,7962.593,0.00013,0.0,0.0
3.593,7993.205,0.00013,0.0,0.0
3.6,7959.483,0.00013,0.0,0.0
3.606,7976.42,0.00013,0.0,0.0
3.612,7972.578,0.00013,0.0,0.0
3.619,7934.235,0.00013,0.0,0.0
3.625,7948.082,0.00013,0.0,0.0
3.631,7964.417,0.00013,0.0,0.0
3.638,7971.983,0.00013,0.0,0.0
3.644,7979.791,0.00013,0.0,0.0
3.65,7975.79,0.00013,0.0,0.0
3.657,7966.101,0.00013,0.0,0.0
3.663,7992.155,0.00013,0.0,0.0
3.669,8008.67,0.00012,0.0,0.0
3.676,8010.156,0.00012,0.0,0.0
3.682,8035.438,0.00012,0.0,0.0
3.688,8038.195,0.00012,0.0,0.0
3.695,8072.921,0.00012,0.0,0.0
3.701,8077.299,0.00012,0.0,0.0
3.707,8115.315,0.00012,0.0,0.0
3.714,8133.359,0.00012,0.0,0.0
3.72,8145.125,0.00012,0.0,0.0
3.726,8174.736,0.00012,0.0,0.0
3.732,8204.904,0.00012,0.0,0.0
3.739,8243.646,0.00012,0.0,0.0
3.745,8291.75,0.00012,0.0,0.0
3.751,8328.442,0.00012,0.0,0.0
3.758,8358.77,0.00012,0.0,0.0
3.764,8397.646,0.00012,0.0,0.0
3.77,8406.436,0.00012,0.0,0.0
3.777,8488.487,0.00012,0.0,0.0
3.783,8517.975,0.00012,0.0,0.0
3.789,8543.933,0.00012,0.0,0.0
3.796,8611.326,0.00012,0.0,0.0
3.802,8649.77,0.00012,0.0,0.0
3.808,8700.844,0.00011,0.0,0.0
3.815,8755.0,0.00011,0.0,0.0
3.821,8801.201,0.00011,0.0,0.0
3.827,8850.267,0.00011,0.0,0.0
3.834,8860.071,0.00011,0.0,0.0
3.84,8906.212,0.00011,0.0,0.0
3.846,8931.613,0.00011,0.0,0.0
3.853,8987.507,0.00011,0.0,0.0
3.859,8979.953,0.00011,0.0,0.0
3.865,9012.205,0.00011,0.0,0.0
3.872,9013.524,0.00011,0.0,0.0
3.878,9065.715,0.00011,0.0,0.0
3.884,9025.695,0.00011,0.0,0.0
3.89,9042.07,0.00011,0.0,0.0
3.897,9033.457,0.00011,0.0,0.0
3.903,9019.949,0.00011,0.0,0.0
3.909,9011.889,0.00011,0.0,0.0
3.916,8978.726,0.00011,0.0,0.0
3.922,8963.738,0.00011,0.0,0.0
3.928,8927.69,0.00011,0.0,0.0
3.935,8901.808,0.00011,0.0,0.0
3.941,8881.166,0.00011,0.0,0.0
3.947,8887.23,0.00011,0.0,0.0
3.954,8842.599,0.00011,0.0,0.0
3.96,8858.152,0.00011,0.0,0.0
3.966,8825.832,0.00011,0.0,0.0
3.973,8771.157,0.00011,0.0,0.0
3.979,8744.305,0.00011,0.0,0.0
3.985,8695.233,0.00012,0.0,0.0
3.992,8648.822,0.00012,0.0,0.0
3.998,8616.289,0.00012,0.0,0.0
4.004,8581.143,0.00012,0.0,0.0
4.011,8556.439,0.00012,0.0,0.0
4.017,8529.306,0.00012,0.0,0.0
4.023,8482.705,0.00012,0.0,0.0
4.03,8484.706,0.00012,0.0,0.0
4.036,8412.74,0.00012,0.0,0.0
4.042,8466.101,0.00012,0.0,0.0
4.048,8395.876,0.00012,0.0,0.0
4.055,8385.03,0.00012,0.0,0.0
4.061,8397.709,0.00012,0.0,0.0
4.067,8390.419,0.00012,0.0,0.0
4.074,8368.491,0.00012,0.0,0.0
4.08,8392.425,0.00012,0.0,0.0
4.086,8345.581,0.00012,0.0,0.0
4.093,8351.153,0.00012,0.0,0.0
4.099,8346.008,0.00012,0.0,0.0
4.105,8332.262,0.00012,0.0,0.0
4.112,8381.365,0.00012,0.0,0.0
4.118,8339.852,0.00012,0.0,0.0
4.124,8379.698,0.00012,0.0,0.0
4.131,8339.579,0.00012,0.0,0.0
4.137,8367.793,0.00012,0.0,0.0
4.143,8361.418,0.00012,0.0,0.0
4.15,8394.598,0.00012,0.0,0.0
4.156,8389.832,0.00012,0.0,0.0
4.162,8436.661,0.00012,0.0,0.0
4.169,8394.347,0.00012,0.0,0.0
4.175,8447.128,0.00012,0.0,0.0
4.181,8456.994,0.00012,0.0,0.0
4.188,8466.352,0.00012,0.0,0.0
4.194,8511.193,0.00012,0.0,0.0
4.2,8505.567,0.00012,0.0,0.0
4.206,8517.573,0.00012,0.0,0.0
4.213,8557.634,0.00012,0.0,0.0
4.219,8556.266,0.00012,0.0,0.0
4.225,8613.256,0.00012,0.0,0.0
4.232,8632.304,0.00012,0.0,0.0
4.238,8620.258,0.00012,0.0,0.0
4.244,8690.993,0.00012,0.0,0.0
4.251,8671.268,0.00012,0.0,0.0
4.257,8685.544,0.00012,0.0,0.0
4.263,8773.346,0.00011,0.0,0.0
4.27,8747.465,0.00011,0.0,0.0
4.276,8887.289,0.00011,0.0,0.0
4.282,8866.689,0.00011,0.0,0.0
4.289,8873.421,0.00011,0.0,0.0
4.295,9018.134,0.00011,0.0,0.0
4.301,8926.144,0.00011,0.0,0.0
4.308,9006.946,0.00011,0.0,0.0
4.314,9074.13,0.00011,0.0,0.0
4.32,9066.003,0.00011,0.0,0.0
4.327,9184.163,0.00011,0.0,0.0
4.333,9170.658,0.00011,0.0,0.0
4.339,9254.786,0.00011,0.0,0.0
4.346,9368.686,0.00011,0.0,0.0
4.352,9284.24,0.00011,0.0,0.0
4.358,9514.183,0.00011,0.0,0.0
4.364,9554.208,0.0001,0.0,0.0
4.371,9451.787,0.00011,0.0,0.0
4.377,9880.358,0.0001,0.0,0.0
4.383,9683.812,0.0001,0.0,0.0
4.39,9946.956,0.0001,0.0,0.0
4.396,10021.729,0.0001,0.0,0.0
4.402,10012.362,0.0001,0.0,0.0
4.409,10070.684,0.0001,0.0,0.0
4.415,10251.038,0.0001,0.0,0.0
4.421,10245.836,0.0001,0.0,0.0
4.428,10649.118,0.00009,0.0,0.0
4.434,10593.272,0.00009,0.0,0.0
4.44,10660.907,0.00009,0.0,0.0
4.447,11132.385,0.00009,0.0,0.0
4.453,10888.88,0.00009,0.0,0.0
4.459,11537.4,0.00009,0.0,0.0
4.466,11809.398,0.00008,0.0,0.0
4.472,11744.097,0.00009,0.0,0.0
4.478,12789.563,0.00008,0.0,0.0
4.485,12695.169,0.00008,0.0,0.0
4.491,13371.108,0.00007,0.0,0.0
4.497,16083.147,0.00006,0.0,0.0
4.504,14902.19,0.00007,0.0,0.0
4.51,21657.256,0.00005,0.0,0.0
4.516,20789.473,0.00005,0.0,0.0
4.522,25649.483,0.00004,0.0,0.0
4.529,43620.18,0.00002,0.0,0.0
4.535,43043.018,0.00002,0.0,0.0
4.541,66859.598,0.00001,0.0,0.0
4.548,91615.249,0.00001,0.0,0.0
4.554,74892.013,0.00001,0.0,0.0
4.56,108637.237,0.00001,0.0,0.0
4.567,83665.101,0.00001,0.0,0.0
4.573,82359.145,0.00001,0.0,0.0
4.579,77304.209,0.00001,0.0,0.0
4.586,51356.049,0.00002,0.0,0.0
4.592,42292.088,0.00002,0.0,0.0
4.598,31546.283,0.00003,0.0,0.0
4.605,28014.36,0.00004,0.0,0.0
4.611,20387.666,0.00005,0.0,0.0
4.617,22333.469,0.00004,0.0,0.0
4.624,15388.118,0.00006,0.0,0.0
4.63,15960.221,0.00006,0.0,0.0
4.636,13733.239,0.00007,0.0,0.0
4.643,13395.885,0.00007,0.0,0.0
4.649,12715.052,0.00008,0.0,0.0
4.655,11902.002,0.00008,0.0,0.0
4.662,12033.914,0.00008,0.0,0.0
4.668,11459.1,0.00009,0.0,0.0
4.674,11051.741,0.00009,0.0,0.0
4.68,11223.668,0.00009,0.0,0.0
4.687,10678.813,0.00009,0.0,0.0
4.693,10675.072,0.00009,0.0,0.0
4.699,10636.997,0.00009,0.0,0.0
4.706,10205.53,0.0001,0.0,0.0
4.712,10503.723,0.0001,0.0,0.0
4.718,10085.015,0.0001,0.0,0.0
4.725,9853.445,0.0001,0.0,0.0
4.731,10203.757,0.0001,0.0,0.0
4.737,9679.534,0.0001,0.0,0.0
4.744,9811.85,0.0001,0.0,0.0
4.75,9662.433,0.0001,0.0,0.0
4.756,9541.712,0.0001,0.0,0.0
4.763,9494.609,0.00011,0.0,0.0
4.769,9360.377,0.00011,0.0,0.0
4.775,9288.928,0.00011,0.0,0.0
4.782,9280.454,0.00011,0.0,0.0
4.788,9102.479,0.00011,0.0,0.0
4.794,9010.037,0.00011,0.0,0.0
4.801,9072.778,0.00011,0.0,0.0
4.807,8837.221,0.00011,0.0,0.0
4.813,8928.218,0.00011,0.0,0.0
4.82,8817.11,0.00011,0.0,0.0
4.826,8795.852,0.00011,0.0,0.0
4.832,8805.406,0.00011,0.0,0.0
4.838,8781.205,0.00011,0.0,0.0
4.845,8795.025,0.00011,0.0,0.0
4.851,8913.553,0.00011,0.0,0.0
4.857,8906.263,0.00011,0.0,0.0
4.864,8925.151,0.00011,0.0,0.0
4.87,8799.159,0.00011,0.0,0.0
4.876,8618.566,0.00012,0.0,0.0
4.883,8544.17,0.00012,0.0,0.0
4.889,8318.772,0.00012,0.0,0.0
4.895,8247.163,0.00012,0.0,0.0
4.902,8159.633,0.00012,0.0,0.0
4.908,8094.816,0.00012,0.0,0.0
4.914,8081.577,0.00012,0.0,0.0
4.921,7979.852,0.00013,0.0,0.0
4.927,7950.848,0.00013,0.0,0.0
4.933,8034.841,0.00012,0.0,0.0
4.94,7832.563,0.00013,0.0,0.0
4.946,8033.486,0.00012,0.0,0.0
4.952,7901.361,0.00013,0.0,0.0
4.959,7733.321,0.00013,0.0,0.0
4.965,7926.086,0.00013,0.0,0.0
4.971,7633.308,0.00013,0.0,0.0
4.978,7626.627,0.00013,0.0,0.0
4.984,7639.965,0.00013,0.0,0.0
4.99,7506.451,0.00013,0.0,0.0
4.996,7504.352,0.00013,0.0,0.0
5.003,7474.328,0.00013,0.0,0.0
5.009,7428.825,0.00013,0.0,0.0
5.015,7458.36,0.00013,0.0,0.0
5.022,7366.85,0.00014,0.0,0.0
5.028,7430.949,0.00013,0.0,0.0
5.034,7354.378,0.00014,0.0,0.0
5.041,7269.733,0.00014,0.0,0.0
5.047,7306.324,0.00014,0.0,0.0
5.053,7269.931,0.00014,0.0,0.0
5.06,7219.66,0.00014,0.0,0.0
5.066,7229.697,0.00014,0.0,0.0
5.072,7163.748,0.00014,0.0,0.0
5.079,7132.224,0.00014,0.0,0.0
5.085,7152.801,0.00014,0.0,0.0
5.091,7040.649,0.00014,0.0,0.0
5.098,7101.189,0.00014,0.0,0.0
5.104,7004.021,0.00014,0.0,0.0
5.11,7000.221,0.00014,0.0,0.0
5.117,7008.043,0.00014,0.0,0.0
5.123,6963.562,0.00014,0.0,0.0
5.129,6914.612,0.00014,0.0,0.0
5.136,6931.099,0.00014,0.0,0.0
5.142,6912.438,0.00014,0.0,0.0
5.148,6885.592,0.00015,0.0,0.0
5.154,6861.017,0.00015,0.0,0.0
5.161,6831.269,0.00015,0.0,0.0
5.167,6854.56,0.00015,0.0,0.0
5.173,6785.394,0.00015,0.0,0.0
5.18,6764.397,0.00015,0.0,0.0
5.186,6773.866,0.00015,0.0,0.0
5.192,6731.206,0.00015,0.0,0.0
5.199,6710.701,0.00015,0.0,0.0
5.205,6720.399,0.00015,0.0,0.0
5.211,6689.927,0.00015,0.0,0.0
5.218,6674.995,0.00015,0.0,0.0
5.224,6666.417,0.00015,0.0,0.0
5.23,6626.561,0.00015,0.0,0.0
5.237,6629.813,0.00015,0.0,0.0
5.243,6587.774,0.00015,0.0,0.0
5.249,6595.322,0.00015,0.0,0.0
5.256,6557.817,0.00015,0.0,0.0
5.262,6536.682,0.00015,0.0,0.0
5.268,6551.256,0.00015,0.0,0.0
5.275,6532.106,0.00015,0.0,0.0
5.281,6492.246,0.00015,0.0,0.0
5.287,6502.406,0.00015,0.0,0.0
5.294,6467.957,0.00015,0.0,0.0
5.3,6481.738,0.00015,0.0,0.0
5.306,6461.589,0.00015,0.0,0.0
5.312,6453.241,0.00015,0.0,0.0
5.319,6424.037,0.00016,0.0,0.0
5.325,6394.674,0.00016,0.0,0.0
5.331,6368.258,0.00016,0.0,0.0
5.338,6393.472,0.00016,0.0,0.0
5.344,6377.678,0.00016,0.0,0.0
5.35,6376.073,0.00016,0.0,0.0
5.357,6359.138,0.00016,0.0,0.0
5.363,6342.766,0.00016,0.0,0.0
5.369,6356.683,0.00016,0.0,0.0
5.376,6309.125,0.00016,0.0,0.0
5.382,6327.739,0.00016,0.0,0.0
5.388,6297.009,0.00016,0.0,0.0
5.395,6299.442,0.00016,0.0,0.0
5.401,6266.932,0.00016,0.0,0.0
5.407,6280.256,0.00016,0.0,0.0
5.414,6246.066,0.00016,0.0,0.0
5.42,6268.271,0.00016,0.0,0.0
5.426,6245.177,0.00016,0.0,0.0
5.433,6243.622,0.00016,0.0,0.0
5.439,6237.053,0.00016,0.0,0.0
5.445,6205.604,0.00016,0.0,0.0
5.452,6220.144,0.00016,0.0,0.0
5.458,6185.454,0.00016,0.0,0.0
5.464,6201.327,0.00016,0.0,0.0
5.47,6209.031,0.00016,0.0,0.0
5.477,6174.745,0.00016,0.0,0.0
5.483,6176.434,0.00016,0.0,0.0
5.489,6166.937,0.00016,0.0,0.0
5.496,6153.613,0.00016,0.0,0.0
5.502,6171.689,0.00016,0.0,0.0
5.508,6142.263,0.00016,0.0,0.0
5.515,6134.139,0.00016,0.0,0.0
5.521,6134.511,0.00016,0.0,0.0
5.527,6126.714,0.00016,0.0,0.0
5.534,6147.247,0.00016,0.0,0.0
5.54,6123.277,0.00016,0.0,0.0
5.546,6105.872,0.00016,0.0,0.0
5.553,6118.231,0.00016,0.0,0.0
5.559,6102.62,0.00016,0.0,0.0
5.565,6087.636,0.00016,0.0,0.0
5.572,6138.283,0.00016,0.0,0.0
5.578,6083.832,0.00016,0.0,0.0
5.584,6089.563,0.00016,0.0,0.0
5.591,6099.551,0.00016,0.0,0.0
5.597,6084.928,0.00016,0.0,0.0
5.603,6105.204,0.00016,0.0,0.0
5.61,6090.486,0.00016,0.0,0.0
5.616,6088.83,0.00016,0.0,0.0
5.622,6091.564,0.00016,0.0,0.0
5.628,6074.344,0.00016,0.0,0.0
5.635,6114.239,0.00016,0.0,0.0
5.641,6064.362,0.00016,0.0,0.0
5.647,6081.127,0.00016,0.0,0.0
5.654,6109.402,0.00016,0.0,0.0
5.66,6076.884,0.00016,0.0,0.0
5.666,6092.996,0.00016,0.0,0.0
5.673,6105.411,0.00016,0.0,0.0
5.679,6092.304,0.00016,0.0,0.0
5.685,6109.994,0.00016,0.0,0.0
5.692,6103.713,0.00016,0.0,0.0
5.698,6092.797,0.00016,0.0,0.0
5.704,6102.033,0.00016,0.0,0.0
5.711,6101.802,0.00016,0.0,0.0
5.717,6102.1,0.00016,0.0,0.0
5.723,6138.445,0.00016,0.0,0.0
5.73,6116.35,0.00016,0.0,0.0
5.736,6145.497,0.00016,0.0,0.0
5.742,6159.144,0.00016,0.0,0.0
5.749,6166.677,0.00016,0.0,0.0
5.755,6173.057,0.00016,0.0,0.0
5.761,6177.58,0.00016,0.0,0.0
5.768,6208.108,0.00016,0.0,0.0
5.774,6215.972,0.00016,0.0,0.0
5.78,6240.586,0.00016,0.0,0.0
5.786,6251.685,0.00016,0.0,0.0
5.793,6254.619,0.00016,0.0,0.0
5.799,6297.41,0.00016,0.0,0.0
5.805,6298.243,0.00016,0.0,0.0
5.812,6293.802,0.00016,0.0,0.0
5.818,6346.391,0.00016,0.0,0.0
5.824,6350.443,0.00016,0.0,0.0
5.831,6384.54,0.00016,0.0,0.0
5.837,6435.975,0.00016,0.0,0.0
5.843,6480.977,0.00015,0.0,0.0
5.85,6604.038,0.00015,0.0,0.0
5.856,6748.425,0.00015,0.0,0.0
5.862,6984.889,0.00014,0.0,0.0
5.869,7284.169,0.00014,0.0,0.0
5.875,7541.396,0.00013,0.0,0.0
5.881,7773.172,0.00013,0.0,0.0
5.888,7777.069,0.00013,0.0,0.0
5.894,7545.54,0.00013,0.0,0.0
5.9,7289.376,0.00014,0.0,0.0
5.907,6921.219,0.00014,0.0,0.0
5.913,6641.011,0.00015,0.0,0.0
5.919,6420.866,0.00016,0.0,0.0
5.926,6259.376,0.00016,0.0,0.0
5.932,6169.271,0.00016,0.0,0.0
5.938,6135.924,0.00016,0.0,0.0
5.944,6044.27,0.00017,0.0,0.0
5.951,6061.068,0.00016,0.0,0.0
5.957,6015.955,0.00017,0.0,0.0
5.963,5994.627,0.00017,0.0,0.0
5.97,5999.529,0.00017,0.0,0.0
5.976,5961.119,0.00017,0.0,0.0
5.982,5979.082,0.00017,0.0,0.0
5.989,5947.021,0.00017,0.0,0.0
5.995,5931.113,0.00017,0.0,0.0
6.001,5944.227,0.00017,0.0,0.0
6.008,5926.629,0.00017,0.0,0.0
6.014,5897.931,0.00017,0.0,0.0
6.02,5908.396,0.00017,0.0,0.0
6.027,5881.399,0.00017,0.0,0.0
6.033,5907.193,0.00017,0.0,0.0
6.039,5896.052,0.00017,0.0,0.0
6.046,5886.815,0.00017,0.0,0.0
6.052,5892.357,0.00017,0.0,0.0
6.058,5862.07,0.00017,0.0,0.0
6.065,5862.855,0.00017,0.0,0.0
6.071,5875.648,0.00017,0.0,0.0
6.077,5860.394,0.00017,0.0,0.0
6.084,5844.745,0.00017,0.0,0.0
6.09,5865.39,0.00017,0.0,0.0
6.096,5823.57,0.00017,0.0,0.0
6.102,5864.507,0.00017,0.0,0.0
6.109,5861.253,0.00017,0.0,0.0
6.115,5848.91,0.00017,0.0,0.0
6.121,5852.173,0.00017,0.0,0.0
6.128,5842.446,0.00017,0.0,0.0
6.134,5855.563,0.00017,0.0,0.0
6.14,5836.057,0.00017,0.0,0.0
6.147,5876.98,0.00017,0.0,0.0
6.153,5810.902,0.00017,0.0,0.0
6.159,5854.431,0.00017,0.0,0.0
6.166,5837.349,0.00017,0.0,0.0
6.172,5854.57,0.00017,0.0,0.0
6.178,5855.25,0.00017,0.0,0.0
6.185,5821.386,0.00017,0.0,0.0
6.191,5851.144,0.00017,0.0,0.0
6.197,5880.426,0.00017,0.0,0.0
6.204,5833.482,0.00017,0.0,0.0
6.21,5873.713,0.00017,0.0,0.0
6.216,5848.562,0.00017,0.0,0.0
6.223,5881.594,0.00017,0.0,0.0
6.229,5867.874,0.00017,0.0,0.0
6.235,5884.686,0.00017,0.0,0.0
6.242,5911.362,0.00017,0.0,0.0
6.248,5906.575,0.00017,0.0,0.0
6.254,5889.389,0.00017,0.0,0.0
6.26,5910.263,0.00017,0.0,0.0
6.267,5936.137,0.00017,0.0,0.0
6.273,5912.316,0.00017,0.0,0.0
6.279,5947.632,0.00017,0.0,0.0
6.286,5933.73,0.00017,0.0,0.0
6.292,5959.966,0.00017,0.0,0.0
6.298,5945.105,0.00017,0.0,0.0
6.305,5986.453,0.00017,0.0,0.0
6.311,6005.743,0.00017,0.0,0.0
6.317,5977.622,0.00017,0.0,0.0
6.324,6030.377,0.00017,0.0,0.0
6.33,6025.449,0.00017,0.0,0.0
6.336,6014.673,0.00017,0.0,0.0
6.343,6035.614,0.00017,0.0,0.0
6.349,6087.892,0.00016,0.0,0.0
6.355,6072.226,0.00016,0.0,0.0
6.362,6131.718,0.00016,0.0,0.0
6.368,6158.976,0.00016,0.0,0.0
6.374,6166.029,0.00016,0.0,0.0
6.381,6229.313,0.00016,0.0,0.0
6.387,6315.935,0.00016,0.0,0.0
6.393,6303.968,0.00016,0.0,0.0
6.4,6505.839,0.00015,0.0,0.0
6.406,6661.922,0.00015,0.0,0.0
6.412,6971.298,0.00014,0.0,0.0
6.418,7528.819,0.00013,0.0,0.0
6.425,8852.879,0.00011,0.0,0.0
6.431,11153.944,0.00009,0.0,0.0
6.437,13613.098,0.00007,0.0,0.0
6.444,14884.814,0.00007,0.0,0.0
6.45,19518.885,0.00005,0.0,0.0
6.456,19730.237,0.00005,0.0,0.0
6.463,19152.289,0.00005,0.0,0.0
6.469,21766.661,0.00005,0.0,0.0
6.475,15021.068,0.00007,0.0,0.0
6.482,10990.683,0.00009,0.0,0.0
6.488,11479.598,0.00009,0.0,0.0
6.494,7434.877,0.00013,0.0,0.0
6.501,7504.028,0.00013,0.0,0.0
6.507,7022.316,0.00014,0.0,0.0
6.513,6701.918,0.00015,0.0,0.0
6.52,6718.678,0.00015,0.0,0.0
6.526,6606.621,0.00015,0.0,0.0
6.532,6640.767,0.00015,0.0,0.0
6.539,6767.127,0.00015,0.0,0.0
6.545,6871.495,0.00015,0.0,0.0
6.551,7063.3,0.00014,0.0,0.0
6.558,7434.474,0.00013,0.0,0.0
6.564,8139.51,0.00012,0.0,0.0
6.57,8875.341,0.00011,0.0,0.0
6.576,10962.441,0.00009,0.0,0.0
6.583,14068.265,0.00007,0.0,0.0
6.589,20879.741,0.00005,0.0,0.0
6.595,36285.695,0.00003,0.0,0.0
6.602,48852.794,0.00002,0.0,0.0
6.608,81766.53,0.00001,0.0,0.0
6.614,96594.182,0.00001,0.0,0.0
6.621,103283.462,0.00001,0.0,0.0
6.627,96501.014,0.00001,0.0,0.0
6.633,75825.113,0.00001,0.0,0.0
6.64,51240.439,0.00002,0.0,0.0
6.646,32612.516,0.00003,0.0,0.0
6.652,20314.099,0.00005,0.0,0.0
6.659,14653.905,0.00007,0.0,0.0
6.665,10603.367,0.00009,0.0,0.0
6.671,9095.103,0.00011,0.0,0.0
6.678,7892.519,0.00013,0.0,0.0
6.684,7269.404,0.00014,0.0,0.0
6.69,6859.838,0.00015,0.0,0.0
6.697,6619.665,0.00015,0.0,0.0
6.703,6401.577,0.00016,0.0,0.0
6.709,6274.68,0.00016,0.0,0.0
6.716,6168.359,0.00016,0.0,0.0
6.722,6101.218,0.00016,0.0,0.0
6.728,6057.525,0.00017,0.0,0.0
6.734,6002.795,0.00017,0.0,0.0
6.741,5981.406,0.00017,0.0,0.0
6.747,5933.13,0.00017,0.0,0.0
6.753,5917.88,0.00017,0.0,0.0
6.76,5886.001,0.00017,0.0,0.0
6.766,5904.423,0.00017,0.0,0.0
6.772,5873.78,0.00017,0.0,0.0
6.779,5899.358,0.00017,0.0,0.0
6.785,5892.906,0.00017,0.0,0.0
6.791,5830.993,0.00017,0.0,0.0
6.798,5890.653,0.00017,0.0,0.0
6.804,5859.779,0.00017,0.0,0.0
6.81,5884.273,0.00017,0.0,0.0
6.817,5868.766,0.00017,0.0,0.0
6.823,5861.222,0.00017,0.0,0.0
6.829,5833.688,0.00017,0.0,0.0
6.836,5842.641,0.00017,0.0,0.0
6.842,5793.849,0.00017,0.0,0.0
6.848,5787.279,0.00017,0.0,0.0
6.855,5758.422,0.00017,0.0,0.0
6.861,5725.998,0.00017,0.0,0.0
6.867,5756.498,0.00017,0.0,0.0
6.874,5701.481,0.00018,0.0,0.0
6.88,5716.766,0.00017,0.0,0.0
6.886,5693.691,0.00018,0.0,0.0
6.892,5697.423,0.00018,0.0,0.0
6.899,5690.456,0.00018,0.0,0.0
6.905,5696.0,0.00018,0.0,0.0
6.911,5693.972,0.00018,0.0,0.0
6.918,5692.62,0.00018,0.0,0.0
6.924,5667.98,0.00018,0.0,0.0
6.93,5703.712,0.00018,0.0,0.0
6.937,5694.363,0.00018,0.0,0.0
6.943,5690.997,0.00018,0.0,0.0
6.949,5691.519,0.00018,0.0,0.0
6.956,5698.083,0.00018,0.0,0.0
6.962,5693.394,0.00018,0.0,0.0
6.968,5698.221,0.00018,0.0,0.0
6.975,5701.911,0.00018,0.0,0.0
6.981,5721.441,0.00017,0.0,0.0
6.987,5720.748,0.00017,0.0,0.0
6.994,5717.164,0.00017,0.0,0.0
7.0,5743.097,0.00017,0.0,0.0
7.006,5730.734,0.00017,0.0,0.0
7.013,5740.372,0.00017,0.0,0.0
7.019,5739.724,0.00017,0.0,0.0
7.025,5748.345,0.00017,0.0,0.0
7.032,5755.479,0.00017,0.0,0.0
7.038,5756.211,0.00017,0.0,0.0
7.044,5773.037,0.00017,0.0,0.0
7.05,5789.575,0.00017,0.0,0.0
7.057,5813.329,0.00017,0.0,0.0
7.063,5823.198,0.00017,0.0,0.0
7.069,5835.625,0.00017,0.0,0.0
7.076,5827.785,0.00017,0.0,0.0
7.082,5847.771,0.00017,0.0,0.0
7.088,5852.438,0.00017,0.0,0.0
7.095,5864.239,0.00017,0.0,0.0
7.101,5864.091,0.00017,0.0,0.0
7.107,5848.448,0.00017,0.0,0.0
7.114,5869.856,0.00017,0.0,0.0
7.12,5862.029,0.00017,0.0,0.0
7.126,5866.47,0.00017,0.0,0.0
7.133,5877.839,0.00017,0.0,0.0
7.139,5877.252,0.00017,0.0,0.0
7.145,5886.203,0.00017,0.0,0.0
7.152,5890.0,0.00017,0.0,0.0
7.158,5877.496,0.00017,0.0,0.0
7.164,5880.897,0.00017,0.0,0.0
7.171,5870.367,0.00017,0.0,0.0
7.177,5860.681,0.00017,0.0,0.0
7.183,5863.166,0.00017,0.0,0.0
7.19,5862.42,0.00017,0.0,0.0
7.196,5854.631,0.00017,0.0,0.0
7.202,5843.718,0.00017,0.0,0.0
7.208,5835.537,0.00017,0.0,0.0
7.215,5824.225,0.00017,0.0,0.0
7.221,5807.307,0.00017,0.0,0.0
7.227,5823.251,0.00017,0.0,0.0
7.234,5823.478,0.00017,0.0,0.0
7.24,5788.95,0.00017,0.0,0.0
7.246,5806.706,0.00017,0.0,0.0
7.253,5767.675,0.00017,0.0,0.0
7.259,5762.615,0.00017,0.0,0.0
7.265,5769.561,0.00017,0.0,0.0
7.272,5779.686,0.00017,0.0,0.0
7.278,5799.307,0.00017,0.0,0.0
7.284,5773.854,0.00017,0.0,0.0
7.291,5807.758,0.00017,0.0,0.0
7.297,5791.115,0.00017,0.0,0.0
7.303,5799.608,0.00017,0.0,0.0
7.31,5762.301,0.00017,0.0,0.0
7.316,5735.521,0.00017,0.0,0.0
7.322,5720.626,0.00017,0.0,0.0
7.329,5677.244,0.00018,0.0,0.0
7.335,5655.492,0.00018,0.0,0.0
7.341,5659.04,0.00018,0.0,0.0
7.348,5619.349,0.00018,0.0,0.0
7.354,5627.032,0.00018,0.0,0.0
7.36,5608.889,0.00018,0.0,0.0
7.366,5630.202,0.00018,0.0,0.0
7.373,5602.291,0.00018,0.0,0.0
7.379,5597.354,0.00018,0.0,0.0
7.385,5605.722,0.00018,0.0,0.0
7.392,5587.514,0.00018,0.0,0.0
7.398,5592.059,0.00018,0.0,0.0
7.404,5581.489,0.00018,0.0,0.0
7.411,5584.96,0.00018,0.0,0.0
7.417,5594.596,0.00018,0.0,0.0
7.423,5579.328,0.00018,0.0,0.0
7.43,5588.82,0.00018,0.0,0.0
7.436,5588.415,0.00018,0.0,0.0
7.442,5580.66,0.00018,0.0,0.0
7.449,5609.899,0.00018,0.0,0.0
7.455,5604.196,0.00018,0.0,0.0
7.461,5592.932,0.00018,0.0,0.0
7.468,5630.238,0.00018,0.0,0.0
7.474,5597.406,0.00018,0.0,0.0
7.48,5641.2,0.00018,0.0,0.0
7.487,5628.483,0.00018,0.0,0.0
7.493,5649.177,0.00018,0.0,0.0
7.499,5645.451,0.00018,0.0,0.0
7.506,5658.777,0.00018,0.0,0.0
7.512,5659.272,0.00018,0.0,0.0
7.518,5692.018,0.00018,0.0,0.0
7.524,5716.131,0.00017,0.0,0.0
7.531,5720.164,0.00017,0.0,0.0
7.537,5763.155,0.00017,0.0,0.0
7.543,5782.55,0.00017,0.0,0.0
7.55,5845.969,0.00017,0.0,0.0
7.556,5842.641,0.00017,0.0,0.0
7.562,5963.001,0.00017,0.0,0.0
7.569,6059.504,0.00017,0.0,0.0
7.575,6175.766,0.00016,0.0,0.0
7.581,6439.935,0.00016,0.0,0.0
7.588,6696.674,0.00015,0.0,0.0
7.594,7118.965,0.00014,0.0,0.0
7.6,8160.745,0.00012,0.0,0.0
7.607,9384.176,0.00011,0.0,0.0
7.613,12683.15,0.00008,0.0,0.0
7.619,16954.848,0.00006,0.0,0.0
7.626,23907.427,0.00004,0.0,0.0
7.632,38365.349,0.00003,0.0,0.0
7.638,42063.542,0.00002,0.0,0.0
7.645,51367.692,0.00002,0.0,0.0
7.651,52760.246,0.00002,0.0,0.0
7.657,45076.185,0.00002,0.0,0.0
7.664,33856.445,0.00003,0.0,0.0
7.67,22970.381,0.00004,0.0,0.0
7.676,15835.1,0.00006,0.0,0.0
7.682,11642.466,0.00009,0.0,0.0
7.689,9330.699,0.00011,0.0,0.0
7.695,7919.858,0.00013,0.0,0.0
7.701,7299.945,0.00014,0.0,0.0
7.708,6772.359,0.00015,0.0,0.0
7.714,6568.191,0.00015,0.0,0.0
7.72,6385.62,0.00016,0.0,0.0
7.727,6290.525,0.00016,0.0,0.0
7.733,6232.776,0.00016,0.0,0.0
7.739,6158.264,0.00016,0.0,0.0
7.746,6166.94,0.00016,0.0,0.0
7.752,6131.832,0.00016,0.0,0.0
7.758,6135.911,0.00016,0.0,0.0
7.765,6153.4,0.00016,0.0,0.0
7.771,6164.672,0.00016,0.0,0.0
7.777,6154.938,0.00016,0.0,0.0
7.784,6185.649,0.00016,0.0,0.0
7.79,6203.046,0.00016,0.0,0.0
7.796,6213.365,0.00016,0.0,0.0
7.803,6228.406,0.00016,0.0,0.0
7.809,6243.074,0.00016,0.0,0.0
7.815,6330.135,0.00016,0.0,0.0
7.822,6323.337,0.00016,0.0,0.0
7.828,6410.976,0.00016,0.0,0.0
7.834,6412.63,0.00016,0.0,0.0
7.84,6463.615,0.00015,0.0,0.0
7.847,6597.727,0.00015,0.0,0.0
7.853,6687.722,0.00015,0.0,0.0
7.859,6858.629,0.00015,0.0,0.0
7.866,7095.696,0.00014,0.0,0.0
7.872,7464.456,0.00013,0.0,0.0
7.878,8401.372,0.00012,0.0,0.0
7.885,9876.118,0.0001,0.0,0.0
7.891,12809.269,0.00008,0.0,0.0
7.897,17583.478,0.00006,0.0,0.0
7.904,18332.445,0.00005,0.0,0.0
7.91,20557.199,0.00005,0.0,0.0
7.916,19051.983,0.00005,0.0,0.0
7.923,17665.61,0.00006,0.0,0.0
7.929,12997.32,0.00008,0.0,0.0
7.935,9880.043,0.0001,0.0,0.0
7.942,8678.793,0.00012,0.0,0.0
7.948,7795.552,0.00013,0.0,0.0
7.954,7271.522,0.00014,0.0,0.0
7.961,7070.9,0.00014,0.0,0.0
7.967,6897.553,0.00014,0.0,0.0
7.973,6763.381,0.00015,0.0,0.0
7.98,6748.439,0.00015,0.0,0.0
7.986,6645.049,0.00015,0.0,0.0
7.992,6624.445,0.00015,0.0,0.0
7.998,6618.756,0.00015,0.0,0.0
8.005,6587.0,0.00015,0.0,0.0
8.011,6527.367,0.00015,0.0,0.0
8.017,6573.953,0.00015,0.0,0.0
8.024,6548.237,0.00015,0.0,0.0
8.03,6566.029,0.00015,0.0,0.0
8.036,6541.731,0.00015,0.0,0.0
8.043,6529.04,0.00015,0.0,0.0
8.049,6542.112,0.00015,0.0,0.0
8.055,6509.629,0.00015,0.0,0.0
8.062,6567.529,0.00015,0.0,0.0
8.068,6556.53,0.00015,0.0,0.0
8.074,6551.692,0.00015,0.0,0.0
8.081,6555.286,0.00015,0.0,0.0
8.087,6575.822,0.00015,0.0,0.0
8.093,6582.559,0.00015,0.0,0.0
8.1,6581.67,0.00015,0.0,0.0
8.106,6615.106,0.00015,0.0,0.0
8.112,6642.898,0.00015,0.0,0.0
8.119,6674.799,0.00015,0.0,0.0
8.125,6731.103,0.00015,0.0,0.0
8.131,6786.859,0.00015,0.0,0.0
8.138,6831.503,0.00015,0.0,0.0
8.144,6858.249,0.00015,0.0,0.0
8.15,6869.553,0.00015,0.0,0.0
8.156,6851.611,0.00015,0.0,0.0
8.163,6770.496,0.00015,0.0,0.0
8.169,6699.179,0.00015,0.0,0.0
8.175,6634.905,0.00015,0.0,0.0
8.182,6568.669,0.00015,0.0,0.0
8.188,6550.734,0.00015,0.0,0.0
8.194,6496.936,0.00015,0.0,0.0
8.201,6502.744,0.00015,0.0,0.0
8.207,6474.629,0.00015,0.0,0.0
8.213,6477.139,0.00015,0.0,0.0
8.22,6418.832,0.00016,0.0,0.0
8.226,6415.324,0.00016,0.0,0.0
8.232,6411.487,0.00016,0.0,0.0
8.239,6384.588,0.00016,0.0,0.0
8.245,6389.808,0.00016,0.0,0.0
8.251,6346.815,0.00016,0.0,0.0
8.258,6365.364,0.00016,0.0,0.0
8.264,6312.39,0.00016,0.0,0.0
8.27,6290.68,0.00016,0.0,0.0
8.277,6294.204,0.00016,0.0,0.0
8.283,6261.441,0.00016,0.0,0.0
8.289,6262.578,0.00016,0.0,0.0
8.296,6235.672,0.00016,0.0,0.0
8.302,6220.528,0.00016,0.0,0.0
8.308,6219.108,0.00016,0.0,0.0
8.314,6230.911,0.00016,0.0,0.0
8.321,6212.431,0.00016,0.0,0.0
8.327,6213.602,0.00016,0.0,0.0
8.333,6217.474,0.00016,0.0,0.0
8.34,6223.29,0.00016,0.0,0.0
8.346,6232.931,0.00016,0.0,0.0
8.352,6262.683,0.00016,0.0,0.0
8.359,6293.93,0.00016,0.0,0.0
8.365,6332.968,0.00016,0.0,0.0
8.371,6350.938,0.00016,0.0,0.0
8.378,6387.207,0.00016,0.0,0.0
8.384,6374.32,0.00016,0.0,0.0
8.39,6353.307,0.00016,0.0,0.0
8.397,6300.218,0.00016,0.0,0.0
8.403,6250.734,0.00016,0.0,0.0
8.409,6182.556,0.00016,0.0,0.0
8.416,6151.749,0.00016,0.0,0.0
8.422,6111.34,0.00016,0.0,0.0
8.428,6069.248,0.00016,0.0,0.0
8.435,6069.657,0.00016,0.0,0.0
8.441,6038.745,0.00017,0.0,0.0
8.447,6035.503,0.00017,0.0,0.0
8.454,6021.514,0.00017,0.0,0.0
8.46,6022.769,0.00017,0.0,0.0
8.466,6015.637,0.00017,0.0,0.0
8.472,6026.887,0.00017,0.0,0.0
8.479,6011.021,0.00017,0.0,0.0
8.485,6013.192,0.00017,0.0,0.0
8.491,6009.741,0.00017,0.0,0.0
8.498,6016.137,0.00017,0.0,0.0
8.504,6010.623,0.00017,0.0,0.0
8.51,6010.752,0.00017,0.0,0.0
8.517,5997.819,0.00017,0.0,0.0
8.523,5988.226,0.00017,0.0,0.0
8.529,5983.009,0.00017,0.0,0.0
8.536,5952.389,0.00017,0.0,0.0
8.542,5986.411,0.00017,0.0,0.0
8.548,5964.509,0.00017,0.0,0.0
8.555,5961.995,0.00017,0.0,0.0
8.561,5937.902,0.00017,0.0,0.0
8.567,5946.776,0.00017,0.0,0.0
8.574,5936.303,0.00017,0.0,0.0
8.58,5928.875,0.00017,0.0,0.0
8.586,5920.406,0.00017,0.0,0.0
8.593,5907.103,0.00017,0.0,0.0
8.599,5912.653,0.00017,0.0,0.0
8.605,5903.357,0.00017,0.0,0.0
8.612,5913.635,0.00017,0.0,0.0
8.618,5892.593,0.00017,0.0,0.0
8.624,5902.831,0.00017,0.0,0.0
8.63,5899.075,0.00017,0.0,0.0
8.637,5895.248,0.00017,0.0,0.0
8.643,5889.859,0.00017,0.0,0.0
8.649,5886.14,0.00017,0.0,0.0
8.656,5879.824,0.00017,0.0,0.0
8.662,5876.664,0.00017,0.0,0.0
8.668,5893.016,0.00017,0.0,0.0
8.675,5884.183,0.00017,0.0,0.0
8.681,5874.53,0.00017,0.0,0.0
8.687,5879.2,0.00017,0.0,0.0
8.694,5882.776,0.00017,0.0,0.0
8.7,5880.438,0.00017,0.0,0.0
8.706,5881.897,0.00017,0.0,0.0
8.713,5873.881,0.00017,0.0,0.0
8.719,5887.999,0.00017,0.0,0.0
8.725,5889.485,0.00017,0.0,0.0
8.732,5885.794,0.00017,0.0,0.0
8.738,5885.933,0.00017,0.0,0.0
8.744,5887.111,0.00017,0.0,0.0
8.751,5876.149,0.00017,0.0,0.0
8.757,5884.415,0.00017,0.0,0.0
8.763,5867.563,0.00017,0.0,0.0
8.77,5873.315,0.00017,0.0,0.0
8.776,5881.829,0.00017,0.0,0.0
8.782,5873.079,0.00017,0.0,0.0
8.788,5869.971,0.00017,0.0,0.0
8.795,5879.17,0.00017,0.0,0.0
8.801,5877.769,0.00017,0.0,0.0
8.807,5888.457,0.00017,0.0,0.0
8.814,5869.247,0.00017,0.0,0.0
8.82,5883.735,0.00017,0.0,0.0
8.826,5871.053,0.00017,0.0,0.0
8.833,5872.77,0.00017,0.0,0.0
8.839,5876.024,0.00017,0.0,0.0
8.845,5878.049,0.00017,0.0,0.0
8.852,5868.631,0.00017,0.0,0.0
8.858,5887.394,0.00017,0.0,0.0
8.864,5874.952,0.00017,0.0,0.0
8.871,5905.485,0.00017,0.0,0.0
8.877,5902.222,0.00017,0.0,0.0
8.883,5879.686,0.00017,0.0,0.0
8.89,5897.272,0.00017,0.0,0.0
8.896,5892.369,0.00017,0.0,0.0
8.902,5885.214,0.00017,0.0,0.0
8.909,5915.941,0.00017,0.0,0.0
8.915,5889.177,0.00017,0.0,0.0
8.921,5902.702,0.00017,0.0,0.0
8.928,5901.86,0.00017,0.0,0.0
8.934,5882.68,0.00017,0.0,0.0
8.94,5933.046,0.00017,0.0,0.0
8.946,5897.782,0.00017,0.0,0.0
8.953,5916.694,0.00017,0.0,0.0
8.959,5915.491,0.00017,0.0,0.0
8.965,5918.923,0.00017,0.0,0.0
8.972,5924.098,0.00017,0.0,0.0
8.978,5941.132,0.00017,0.0,0.0
8.984,5937.366,0.00017,0.0,0.0
8.991,5959.25,0.00017,0.0,0.0
8.997,5941.878,0.00017,0.0,0.0
9.003,5961.515,0.00017,0.0,0.0
9.01,5967.325,0.00017,0.0,0.0
9.016,5960.074,0.00017,0.0,0.0
9.022,6013.262,0.00017,0.0,0.0
9.029,5977.413,0.00017,0.0,0.0
9.035,6022.573,0.00017,0.0,0.0
9.041,6006.699,0.00017,0.0,0.0
9.048,6030.988,0.00017,0.0,0.0
9.054,6065.123,0.00016,0.0,0.0
9.06,6069.334,0.00016,0.0,0.0
9.067,6064.563,0.00016,0.0,0.0
9.073,6146.829,0.00016,0.0,0.0
9.079,6145.85,0.00016,0.0,0.0
9.086,6181.652,0.00016,0.0,0.0
9.092,6333.269,0.00016,0.0,0.0
9.098,6303.695,0.00016,0.0,0.0
9.104,6833.815,0.00015,0.0,0.0
9.111,6907.006,0.00014,0.0,0.0
9.117,8436.183,0.00012,0.0,0.0
9.123,9019.018,0.00011,0.0,0.0
9.13,9398.302,0.00011,0.0,0.0
9.136,10120.787,0.0001,0.0,0.0
9.142,9491.661,0.00011,0.0,0.0
9.149,12955.083,0.00008,0.0,0.0
9.155,8161.069,0.00012,0.0,0.0
9.161,7399.9,0.00014,0.0,0.0
9.168,9031.218,0.00011,0.0,0.0
9.174,6506.158,0.00015,0.0,0.0
9.18,6597.744,0.00015,0.0,0.0
9.187,6465.254,0.00015,0.0,0.0
9.193,6249.932,0.00016,0.0,0.0
9.199,6274.465,0.00016,0.0,0.0
9.206,6212.89,0.00016,0.0,0.0
9.212,6179.334,0.00016,0.0,0.0
9.218,6193.539,0.00016,0.0,0.0
9.225,6123.95,0.00016,0.0,0.0
9.231,6109.86,0.00016,0.0,0.0
9.237,6146.688,0.00016,0.0,0.0
9.244,6090.32,0.00016,0.0,0.0
9.25,6070.395,0.00016,0.0,0.0
9.256,6077.69,0.00016,0.0,0.0
9.262,6028.843,0.00017,0.0,0.0
9.269,6067.627,0.00016,0.0,0.0
9.275,6020.932,0.00017,0.0,0.0
9.281,6004.547,0.00017,0.0,0.0
9.288,6010.025,0.00017,0.0,0.0
9.294,5973.234,0.00017,0.0,0.0
9.3,5971.614,0.00017,0.0,0.0
9.307,5950.945,0.00017,0.0,0.0
9.313,5924.044,0.00017,0.0,0.0
9.319,5930.115,0.00017,0.0,0.0
9.326,5899.847,0.00017,0.0,0.0
9.332,5860.364,0.00017,0.0,0.0
9.338,5890.648,0.00017,0.0,0.0
9.345,5823.658,0.00017,0.0,0.0
9.351,5838.74,0.00017,0.0,0.0
9.357,5805.172,0.00017,0.0,0.0
9.364,5793.532,0.00017,0.0,0.0
9.37,5786.682,0.00017,0.0,0.0
9.376,5740.027,0.00017,0.0,0.0
9.383,5749.485,0.00017,0.0,0.0
9.389,5710.214,0.00018,0.0,0.0
9.395,5696.26,0.00018,0.0,0.0
9.402,5698.338,0.00018,0.0,0.0
9.408,5686.862,0.00018,0.0,0.0
9.414,5665.609,0.00018,0.0,0.0
9.42,5653.425,0.00018,0.0,0.0
9.427,5641.108,0.00018,0.0,0.0
9.433,5632.398,0.00018,0.0,0.0
9.439,5612.922,0.00018,0.0,0.0
9.446,5595.959,0.00018,0.0,0.0
9.452,5594.105,0.00018,0.0,0.0
9.458,5591.079,0.00018,0.0,0.0
9.465,5600.548,0.00018,0.0,0.0
9.471,5589.729,0.00018,0.0,0.0
9.477,5610.813,0.00018,0.0,0.0
9.484,5604.4,0.00018,0.0,0.0
9.49,5605.584,0.00018,0.0,0.0
9.496,5618.063,0.00018,0.0,0.0
9.503,5595.696,0.00018,0.0,0.0
9.509,5566.717,0.00018,0.0,0.0
9.515,5555.455,0.00018,0.0,0.0
9.522,5522.909,0.00018,0.0,0.0
9.528,5487.536,0.00018,0.0,0.0
9.534,5460.783,0.00018,0.0,0.0
9.541,5466.978,0.00018,0.0,0.0
9.547,5434.771,0.00018,0.0,0.0
9.553,5425.624,0.00018,0.0,0.0
9.56,5407.251,0.00018,0.0,0.0
9.566,5413.916,0.00018,0.0,0.0
9.572,5401.226,0.00019,0.0,0.0
9.578,5379.556,0.00019,0.0,0.0
9.585,5382.661,0.00019,0.0,0.0
9.591,5369.643,0.00019,0.0,0.0
9.597,5366.522,0.00019,0.0,0.0
9.604,5362.64,0.00019,0.0,0.0
9.61,5347.144,0.00019,0.0,0.0
9.616,5341.07,0.00019,0.0,0.0
9.623,5336.694,0.00019,0.0,0.0
9.629,5341.583,0.00019,0.0,0.0
9.635,5343.377,0.00019,0.0,0.0
9.642,5326.452,0.00019,0.0,0.0
9.648,5310.167,0.00019,0.0,0.0
9.654,5322.951,0.00019,0.0,0.0
9.661,5299.812,0.00019,0.0,0.0
9.667,5313.825,0.00019,0.0,0.0
9.673,5295.498,0.00019,0.0,0.0
9.68,5284.893,0.00019,0.0,0.0
9.686,5301.604,0.00019,0.0,0.0
9.692,5280.577,0.00019,0.0,0.0
9.699,5293.852,0.00019,0.0,0.0
9.705,5299.164,0.00019,0.0,0.0
9.711,5282.735,0.00019,0.0,0.0
9.718,5306.531,0.00019,0.0,0.0
9.724,5275.236,0.00019,0.0,0.0
9.73,5275.923,0.00019,0.0,0.0
9.736,5275.612,0.00019,0.0,0.0
9.743,5260.143,0.00019,0.0,0.0
9.749,5271.214,0.00019,0.0,0.0
9.755,5269.296,0.00019,0.0,0.0
9.762,5251.914,0.00019,0.0,0.0
9.768,5253.65,0.00019,0.0,0.0
9.774,5252.567,0.00019,0.0,0.0
9.781,5253.958,0.00019,0.0,0.0
9.787,5263.854,0.00019,0.0,0.0
9.793,5262.516,0.00019,0.0,0.0
9.8,5269.939,0.00019,0.0,0.0
9.806,5259.436,0.00019,0.0,0.0
9.812,5249.089,0.00019,0.0,0.0
9.819,5261.811,0.00019,0.0,0.0
9.825,5251.901,0.00019,0.0,0.0
9.831,5264.171,0.00019,0.0,0.0
9.838,5276.061,0.00019,0.0,0.0
9.844,5250.432,0.00019,0.0,0.0
9.85,5269.38,0.00019,0.0,0.0
9.857,5255.41,0.00019,0.0,0.0
9.863,5243.049,0.00019,0.0,0.0
9.869,5277.266,0.00019,0.0,0.0
9.876,5247.628,0.00019,0.0,0.0
9.882,5252.457,0.00019,0.0,0.0
9.888,5273.612,0.00019,0.0,0.0
9.894,5250.986,0.00019,0.0,0.0
9.901,5277.074,0.00019,0.0,0.0
9.907,5256.04,0.00019,0.0,0.0
9.913,5271.845,0.00019,0.0,0.0
9.92,5261.297,0.00019,0.0,0.0
9.926,5256.556,0.00019,0.0,0.0
9.932,5289.117,0.00019,0.0,0.0
9.939,5276.608,0.00019,0.0,0.0
9.945,5274.115,0.00019,0.0,0.0
9.951,5309.256,0.00019,0.0,0.0
9.958,5270.083,0.00019,0.0,0.0
9.964,5304.272,0.00019,0.0,0.0
9.97,5304.856,0.00019,0.0,0.0
9.977,5299.678,0.00019,0.0,0.0
9.983,5344.127,0.00019,0.0,0.0
9.989,5330.668,0.00019,0.0,0.0
9.996,5328.323,0.00019,0.0,0.0
10.002,5359.902,0.00019,0.0,0.0
10.008,5326.261,0.00019,0.0,0.0
10.015,5357.514,0.00019,0.0,0.0
10.021,5352.083,0.00019,0.0,0.0
10.027,5373.062,0.00019,0.0,0.0
10.034,5384.873,0.00019,0.0,0.0
10.04,5375.171,0.00019,0.0,0.0
10.046,5414.773,0.00018,0.0,0.0
10.052,5411.329,0.00018,0.0,0.0
10.059,5406.888,0.00018,0.0,0.0
10.065,5434.381,0.00018,0.0,0.0
10.071,5454.559,0.00018,0.0,0.0
10.078,5460.54,0.00018,0.0,0.0
10.084,5492.002,0.00018,0.0,0.0
10.09,5466.441,0.00018,0.0,0.0
10.097,5514.616,0.00018,0.0,0.0
10.103,5462.458,0.00018,0.0,0.0
10.109,5527.577,0.00018,0.0,0.0
10.116,5543.301,0.00018,0.0,0.0
10.122,5551.332,0.00018,0.0,0.0
10.128,5607.377,0.00018,0.0,0.0
10.135,5578.736,0.00018,0.0,0.0
10.141,5659.397,0.00018,0.0,0.0
10.147,5633.557,0.00018,0.0,0.0
10.154,5756.147,0.00017,0.0,0.0
10.16,5743.253,0.00017,0.0,0.0
10.166,6111.88,0.00016,0.0,0.0
10.173,6001.388,0.00017,0.0,0.0
10.179,6849.576,0.00015,0.0,0.0
10.185,8879.981,0.00011,0.0,0.0
10.192,8905.132,0.00011,0.0,0.0
10.198,11462.067,0.00009,0.0,0.0
10.204,14025.49,0.00007,0.0,0.0
10.21,16160.055,0.00006,0.0,0.0
10.217,18261.41,0.00005,0.0,0.0
10.223,15392.317,0.00006,0.0,0.0
10.229,11887.445,0.00008,0.0,0.0
10.236,15059.292,0.00007,0.0,0.0
10.242,7875.891,0.00013,0.0,0.0
10.248,8933.699,0.00011,0.0,0.0
10.255,6644.358,0.00015,0.0,0.0
10.261,6114.098,0.00016,0.0,0.0
10.267,6151.333,0.00016,0.0,0.0
10.274,5635.422,0.00018,0.0,0.0
10.28,5726.653,0.00017,0.0,0.0
10.286,5518.749,0.00018,0.0,0.0
10.293,5543.289,0.00018,0.0,0.0
10.299,5467.492,0.00018,0.0,0.0
10.305,5443.816,0.00018,0.0,0.0
10.312,5436.544,0.00018,0.0,0.0
10.318,5410.795,0.00018,0.0,0.0
10.324,5400.295,0.00019,0.0,0.0
10.331,5316.803,0.00019,0.0,0.0
10.337,5330.437,0.00019,0.0,0.0
10.343,5346.466,0.00019,0.0,0.0
10.35,5300.473,0.00019,0.0,0.0
10.356,5280.642,0.00019,0.0,0.0
10.362,5278.401,0.00019,0.0,0.0
10.368,5216.006,0.00019,0.0,0.0
10.375,5301.355,0.00019,0.0,0.0
10.381,5194.266,0.00019,0.0,0.0
10.387,5206.07,0.00019,0.0,0.0
10.394,5226.17,0.00019,0.0,0.0
10.4,5170.72,0.00019,0.0,0.0
10.406,5213.74,0.00019,0.0,0.0
10.413,5157.386,0.00019,0.0,0.0
10.419,5140.966,0.00019,0.0,0.0
10.425,5177.687,0.00019,0.0,0.0
10.432,5135.818,0.00019,0.0,0.0
10.438,5145.209,0.00019,0.0,0.0
10.444,5141.717,0.00019,0.0,0.0
10.451,5107.187,0.0002,0.0,0.0
10.457,5130.927,0.00019,0.0,0.0
10.463,5108.733,0.0002,0.0,0.0
10.47,5102.328,0.0002,0.0,0.0
10.476,5103.445,0.0002,0.0,0.0
10.482,5052.086,0.0002,0.0,0.0
10.489,5116.896,0.0002,0.0,0.0
10.495,5055.335,0.0002,0.0,0.0
10.501,5076.482,0.0002,0.0,0.0
10.508,5082.641,0.0002,0.0,0.0
10.514,5040.544,0.0002,0.0,0.0
10.52,5067.558,0.0002,0.0,0.0
10.526,5066.044,0.0002,0.0,0.0
10.533,5018.717,0.0002,0.0,0.0
10.539,5067.33,0.0002,0.0,0.0
10.545,5034.505,0.0002,0.0,0.0
10.552,5024.475,0.0002,0.0,0.0
10.558,5026.147,0.0002,0.0,0.0
10.564,5004.128,0.0002,0.0,0.0
10.571,5032.462,0.0002,0.0,0.0
10.577,4992.852,0.0002,0.0,0.0
10.583,5017.746,0.0002,0.0,0.0
10.59,5032.617,0.0002,0.0,0.0
10.596,5002.092,0.0002,0.0,0.0
10.602,5027.87,0.0002,0.0,0.0
10.609,5008.029,0.0002,0.0,0.0
10.615,5009.801,0.0002,0.0,0.0
10.621,5025.043,0.0002,0.0,0.0
10.628,5004.142,0.0002,0.0,0.0
10.634,5012.439,0.0002,0.0,0.0
10.64,5016.58,0.0002,0.0,0.0
10.647,4991.885,0.0002,0.0,0.0
10.653,5024.598,0.0002,0.0,0.0
10.659,5020.958,0.0002,0.0,0.0
10.666,5014.354,0.0002,0.0,0.0
10.672,5023.653,0.0002,0.0,0.0
10.678,5018.697,0.0002,0.0,0.0
10.684,5032.186,0.0002,0.0,0.0
10.691,5016.365,0.0002,0.0,0.0
10.697,5032.295,0.0002,0.0,0.0
10.703,5046.514,0.0002,0.0,0.0
10.71,5054.116,0.0002,0.0,0.0
10.716,5080.945,0.0002,0.0,0.0
10.722,5077.352,0.0002,0.0,0.0
10.729,5113.317,0.0002,0.0,0.0
10.735,5141.947,0.00019,0.0,0.0
10.741,5183.281,0.00019,0.0,0.0
10.748,5225.803,0.00019,0.0,0.0
10.754,5302.057,0.00019,0.0,0.0
10.76,5411.158,0.00018,0.0,0.0
10.767,5624.465,0.00018,0.0,0.0
10.773,5835.267,0.00017,0.0,0.0
10.779,6388.207,0.00016,0.0,0.0
10.786,7181.501,0.00014,0.0,0.0
10.792,8789.225,0.00011,0.0,0.0
10.798,12115.436,0.00008,0.0,0.0
10.805,15200.683,0.00007,0.0,0.0
10.811,23430.261,0.00004,0.0,0.0
10.817,25167.372,0.00004,0.0,0.0
10.824,32657.63,0.00003,0.0,0.0
10.83,29020.69,0.00003,0.0,0.0
10.836,27251.09,0.00004,0.0,0.0
10.842,22613.696,0.00004,0.0,0.0
10.849,16030.354,0.00006,0.0,0.0
10.855,10989.815,0.00009,0.0,0.0
10.861,8550.732,0.00012,0.0,0.0
10.868,7232.685,0.00014,0.0,0.0
10.874,6206.63,0.00016,0.0,0.0
10.88,5836.461,0.00017,0.0,0.0
10.887,5531.353,0.00018,0.0,0.0
10.893,5403.124,0.00019,0.0,0.0
10.899,5299.726,0.00019,0.0,0.0
10.906,5218.963,0.00019,0.0,0.0
10.912,5179.757,0.00019,0.0,0.0
10.918,5137.345,0.00019,0.0,0.0
10.925,5115.53,0.0002,0.0,0.0
10.931,5097.701,0.0002,0.0,0.0
10.937,5087.004,0.0002,0.0,0.0
10.944,5062.877,0.0002,0.0,0.0
10.95,5048.202,0.0002,0.0,0.0
10.956,5042.21,0.0002,0.0,0.0
10.963,5021.945,0.0002,0.0,0.0
10.969,4993.478,0.0002,0.0,0.0
10.975,4987.229,0.0002,0.0,0.0
10.982,4955.351,0.0002,0.0,0.0
10.988,4942.741,0.0002,0.0,0.0
10.994,4923.826,0.0002,0.0,0.0
11.0,4907.678,0.0002,0.0,0.0
11.007,4888.451,0.0002,0.0,0.0
11.013,4887.449,0.0002,0.0,0.0
11.019,4884.293,0.0002,0.0,0.0
11.026,4863.567,0.00021,0.0,0.0
11.032,4861.962,0.00021,0.0,0.0
11.038,4848.988,0.00021,0.0,0.0
11.045,4831.889,0.00021,0.0,0.0
11.051,4827.336,0.00021,0.0,0.0
11.057,4813.851,0.00021,0.0,0.0
11.064,4810.969,0.00021,0.0,0.0
11.07,4796.189,0.00021,0.0,0.0
11.076,4810.567,0.00021,0.0,0.0
11.083,4794.484,0.00021,0.0,0.0
11.089,4795.916,0.00021,0.0,0.0
11.095,4783.89,0.00021,0.0,0.0
11.102,4791.575,0.00021,0.0,0.0
11.108,4773.132,0.00021,0.0,0.0
11.114,4759.927,0.00021,0.0,0.0
11.121,4767.268,0.00021,0.0,0.0
11.127,4755.109,0.00021,0.0,0.0
11.133,4754.351,0.00021,0.0,0.0
11.14,4736.483,0.00021,0.0,0.0
11.146,4740.174,0.00021,0.0,0.0
11.152,4738.1,0.00021,0.0,0.0
11.158,4735.045,0.00021,0.0,0.0
11.165,4740.136,0.00021,0.0,0.0
11.171,4729.165,0.00021,0.0,0.0
11.177,4735.4,0.00021,0.0,0.0
11.184,4757.269,0.00021,0.0,0.0
11.19,4786.136,0.00021,0.0,0.0
11.196,4747.861,0.00021,0.0,0.0
11.203,4763.045,0.00021,0.0,0.0
11.209,4760.365,0.00021,0.0,0.0
11.215,4713.311,0.00021,0.0,0.0
11.222,4769.962,0.00021,0.0,0.0
11.228,4698.125,0.00021,0.0,0.0
11.234,4709.893,0.00021,0.0,0.0
11.241,4682.967,0.00021,0.0,0.0
11.247,4682.464,0.00021,0.0,0.0
11.253,4671.101,0.00021,0.0,0.0
11.26,4665.602,0.00021,0.0,0.0
11.266,4658.608,0.00021,0.0,0.0
11.272,4669.033,0.00021,0.0,0.0
11.279,4652.036,0.00021,0.0,0.0
11.285,4648.178,0.00022,0.0,0.0
11.291,4658.467,0.00021,0.0,0.0
11.298,4648.657,0.00022,0.0,0.0
11.304,4653.087,0.00021,0.0,0.0
11.31,4646.858,0.00022,0.0,0.0
11.316,4643.273,0.00022,0.0,0.0
11.323,4651.095,0.00022,0.0,0.0
11.329,4637.767,0.00022,0.0,0.0
11.335,4635.848,0.00022,0.0,0.0
11.342,4627.388,0.00022,0.0,0.0
11.348,4636.27,0.00022,0.0,0.0
11.354,4639.582,0.00022,0.0,0.0
11.361,4633.125,0.00022,0.0,0.0
11.367,4619.844,0.00022,0.0,0.0
11.373,4624.053,0.00022,0.0,0.0
11.38,4615.585,0.00022,0.0,0.0
11.386,4615.222,0.00022,0.0,0.0
11.392,4612.667,0.00022,0.0,0.0
11.399,4615.255,0.00022,0.0,0.0
11.405,4610.77,0.00022,0.0,0.0
11.411,4613.975,0.00022,0.0,0.0
11.418,4609.491,0.00022,0.0,0.0
11.424,4610.304,0.00022,0.0,0.0
11.43,4611.545,0.00022,0.0,0.0
11.437,4611.907,0.00022,0.0,0.0
11.443,4602.631,0.00022,0.0,0.0
11.449,4614.0,0.00022,0.0,0.0
11.456,4608.569,0.00022,0.0,0.0
11.462,4606.673,0.00022,0.0,0.0
11.468,4614.774,0.00022,0.0,0.0
11.474,4598.4,0.00022,0.0,0.0
11.481,4618.714,0.00022,0.0,0.0
11.487,4612.179,0.00022,0.0,0.0
11.493,4610.439,0.00022,0.0,0.0
11.5,4631.374,0.00022,0.0,0.0
11.506,4623.008,0.00022,0.0,0.0
11.512,4644.435,0.00022,0.0,0.0
11.519,4659.201,0.00021,0.0,0.0
11.525,4671.464,0.00021,0.0,0.0
11.531,4671.285,0.00021,0.0,0.0
11.538,4679.121,0.00021,0.0,0.0
11.544,4678.624,0.00021,0.0,0.0
11.55,4655.694,0.00021,0.0,0.0
11.557,4650.323,0.00022,0.0,0.0
11.563,4628.684,0.00022,0.0,0.0
11.569,4628.561,0.00022,0.0,0.0
11.576,4633.354,0.00022,0.0,0.0
11.582,4619.997,0.00022,0.0,0.0
11.588,4613.889,0.00022,0.0,0.0
11.595,4620.935,0.00022,0.0,0.0
11.601,4619.305,0.00022,0.0,0.0
11.607,4631.466,0.00022,0.0,0.0
11.614,4620.412,0.00022,0.0,0.0
11.62,4622.323,0.00022,0.0,0.0
11.626,4621.66,0.00022,0.0,0.0
11.632,4626.647,0.00022,0.0,0.0
11.639,4622.422,0.00022,0.0,0.0
11.645,4617.305,0.00022,0.0,0.0
11.651,4624.297,0.00022,0.0,0.0
11.658,4626.135,0.00022,0.0,0.0
11.664,4622.017,0.00022,0.0,0.0
11.67,4630.779,0.00022,0.0,0.0
11.677,4626.619,0.00022,0.0,0.0
11.683,4647.284,0.00022,0.0,0.0
11.689,4635.924,0.00022,0.0,0.0
11.696,4646.407,0.00022,0.0,0.0
11.702,4648.041,0.00022,0.0,0.0
11.708,4638.476,0.00022,0.0,0.0
11.715,4640.239,0.00022,0.0,0.0
11.721,4639.884,0.00022,0.0,0.0
11.727,4637.569,0.00022,0.0,0.0
11.734,4643.307,0.00022,0.0,0.0
11.74,4634.606,0.00022,0.0,0.0
11.746,4638.081,0.00022,0.0,0.0
11.753,4619.263,0.00022,0.0,0.0
11.759,4645.833,0.00022,0.0,0.0
11.765,4628.048,0.00022,0.0,0.0
11.772,4638.308,0.00022,0.0,0.0
11.778,4643.28,0.00022,0.0,0.0
11.784,4640.854,0.00022,0.0,0.0
11.79,4645.792,0.00022,0.0,0.0
11.797,4633.491,0.00022,0.0,0.0
11.803,4620.8,0.00022,0.0,0.0
11.809,4631.058,0.00022,0.0,0.0
11.816,4632.09,0.00022,0.0,0.0
11.822,4626.417,0.00022,0.0,0.0
11.828,4626.459,0.00022,0.0,0.0
11.835,4612.313,0.00022,0.0,0.0
11.841,4619.074,0.00022,0.0,0.0
11.847,4599.979,0.00022,0.0,0.0
11.854,4610.377,0.00022,0.0,0.0
11.86,4608.269,0.00022,0.0,0.0
11.866,4613.819,0.00022,0.0,0.0
11.873,4611.51,0.00022,0.0,0.0
11.879,4608.74,0.00022,0.0,0.0
11.885,4584.902,0.00022,0.0,0.0
11.892,4603.724,0.00022,0.0,0.0
11.898,4598.567,0.00022,0.0,0.0
11.904,4586.073,0.00022,0.0,0.0
11.911,4596.623,0.00022,0.0,0.0
11.917,4585.888,0.00022,0.0,0.0
11.923,4597.98,0.00022,0.0,0.0
11.93,4595.723,0.00022,0.0,0.0
11.936,4598.375,0.00022,0.0,0.0
11.942,4590.612,0.00022,0.0,0.0
11.948,4588.556,0.00022,0.0,0.0
11.955,4598.933,0.00022,0.0,0.0
11.961,4589.59,0.00022,0.0,0.0
11.967,4601.696,0.00022,0.0,0.0
11.974,4589.283,0.00022,0.0,0.0
11.98,4598.887,0.00022,0.0,0.0
11.986,4589.711,0.00022,0.0,0.0
11.993,4593.26,0.00022,0.0,0.0
11.999,4594.585,0.00022,0.0,0.0
12.005,4603.445,0.00022,0.0,0.0
12.012,4609.264,0.00022,0.0,0.0
12.018,4617.218,0.00022,0.0,0.0
12.024,4609.501,0.00022,0.0,0.0
12.031,4602.042,0.00022,0.0,0.0
12.037,4692.564,0.00021,0.0,0.0
12.043,4633.068,0.00022,0.0,0.0
12.05,4801.941,0.00021,0.0,0.0
12.056,4705.341,0.00021,0.0,0.0
12.062,4734.943,0.00021,0.0,0.0
12.069,5495.792,0.00018,0.0,0.0
12.075,4976.795,0.0002,0.0,0.0
12.081,8013.05,0.00012,0.0,0.0
12.088,5648.239,0.00018,0.0,0.0
12.094,6338.295,0.00016,0.0,0.0
12.1,9847.736,0.0001,0.0,0.0
12.106,6404.696,0.00016,0.0,0.0
12.113,8671.81,0.00012,0.0,0.0
12.119,5372.424,0.00019,0.0,0.0
12.125,5167.041,0.00019,0.0,0.0
12.132,5312.334,0.00019,0.0,0.0
12.138,4780.345,0.00021,0.0,0.0
12.144,4743.777,0.00021,0.0,0.0
12.151,4710.826,0.00021,0.0,0.0
12.157,4612.241,0.00022,0.0,0.0
12.163,4615.374,0.00022,0.0,0.0
12.17,4582.308,0.00022,0.0,0.0
12.176,4563.282,0.00022,0.0,0.0
12.182,4569.245,0.00022,0.0,0.0
12.189,4550.8,0.00022,0.0,0.0
12.195,4533.037,0.00022,0.0,0.0
12.201,4524.924,0.00022,0.0,0.0
12.208,4499.621,0.00022,0.0,0.0
12.214,4502.538,0.00022,0.0,0.0
12.22,4492.278,0.00022,0.0,0.0
12.227,4483.748,0.00022,0.0,0.0
12.233,4489.743,0.00022,0.0,0.0
12.239,4466.816,0.00022,0.0,0.0
12.246,4463.209,0.00022,0.0,0.0
12.252,4460.15,0.00022,0.0,0.0
12.258,4450.3,0.00022,0.0,0.0
12.264,4453.052,0.00022,0.0,0.0
12.271,4436.871,0.00023,0.0,0.0
12.277,4427.417,0.00023,0.0,0.0
12.283,4433.908,0.00023,0.0,0.0
12.29,4418.726,0.00023,0.0,0.0
12.296,4431.269,0.00023,0.0,0.0
12.302,4415.933,0.00023,0.0,0.0
12.309,4409.042,0.00023,0.0,0.0
12.315,4418.842,0.00023,0.0,0.0
12.321,4405.064,0.00023,0.0,0.0
12.328,4409.242,0.00023,0.0,0.0
12.334,4380.861,0.00023,0.0,0.0
12.34,4395.598,0.00023,0.0,0.0
12.347,4398.831,0.00023,0.0,0.0
12.353,4376.98,0.00023,0.0,0.0
12.359,4384.263,0.00023,0.0,0.0
12.366,4386.251,0.00023,0.0,0.0
12.372,4379.148,0.00023,0.0,0.0
12.378,4378.006,0.00023,0.0,0.0
12.385,4379.58,0.00023,0.0,0.0
12.391,4379.726,0.00023,0.0,0.0
12.397,4382.806,0.00023,0.0,0.0
12.404,4367.837,0.00023,0.0,0.0
12.41,4374.77,0.00023,0.0,0.0
12.416,4358.065,0.00023,0.0,0.0
12.422,4360.704,0.00023,0.0,0.0
12.429,4360.311,0.00023,0.0,0.0
12.435,4359.323,0.00023,0.0,0.0
12.441,4344.625,0.00023,0.0,0.0
12.448,4364.964,0.00023,0.0,0.0
12.454,4347.922,0.00023,0.0,0.0
12.46,4365.482,0.00023,0.0,0.0
12.467,4361.163,0.00023,0.0,0.0
12.473,4354.544,0.00023,0.0,0.0
12.479,4362.218,0.00023,0.0,0.0
12.486,4355.013,0.00023,0.0,0.0
12.492,4353.046,0.00023,0.0,0.0
12.498,4377.356,0.00023,0.0,0.0
12.505,4370.191,0.00023,0.0,0.0
12.511,4380.183,0.00023,0.0,0.0
12.517,4380.433,0.00023,0.0,0.0
12.524,4373.793,0.00023,0.0,0.0
12.53,4382.959,0.00023,0.0,0.0
12.536,4386.402,0.00023,0.0,0.0
12.543,4385.016,0.00023,0.0,0.0
12.549,4384.479,0.00023,0.0,0.0
12.555,4383.807,0.00023,0.0,0.0
12.562,4378.84,0.00023,0.0,0.0
12.568,4382.255,0.00023,0.0,0.0
12.574,4395.41,0.00023,0.0,0.0
12.58,4389.847,0.00023,0.0,0.0
12.587,4402.76,0.00023,0.0,0.0
12.593,4425.315,0.00023,0.0,0.0
12.599,4435.97,0.00023,0.0,0.0
12.606,4471.092,0.00022,0.0,0.0
12.612,4490.82,0.00022,0.0,0.0
12.618,4540.771,0.00022,0.0,0.0
12.625,4612.023,0.00022,0.0,0.0
12.631,4691.677,0.00021,0.0,0.0
12.637,4866.049,0.00021,0.0,0.0
12.644,5088.251,0.0002,0.0,0.0
12.65,5463.572,0.00018,0.0,0.0
12.656,6179.465,0.00016,0.0,0.0
12.663,7261.895,0.00014,0.0,0.0
12.669,9684.549,0.0001,0.0,0.0
12.675,13208.198,0.00008,0.0,0.0
12.682,18613.429,0.00005,0.0,0.0
12.688,26298.439,0.00004,0.0,0.0
12.694,31587.894,0.00003,0.0,0.0
12.701,36463.528,0.00003,0.0,0.0
12.707,33444.23,0.00003,0.0,0.0
12.713,27497.717,0.00004,0.0,0.0
12.72,20767.969,0.00005,0.0,0.0
12.726,14479.612,0.00007,0.0,0.0
12.732,10471.747,0.0001,0.0,0.0
12.738,7660.522,0.00013,0.0,0.0
12.745,6400.794,0.00016,0.0,0.0
12.751,5574.572,0.00018,0.0,0.0
12.757,5095.388,0.0002,0.0,0.0
12.764,4854.89,0.00021,0.0,0.0
12.77,4676.653,0.00021,0.0,0.0
12.776,4575.496,0.00022,0.0,0.0
12.783,4486.312,0.00022,0.0,0.0
12.789,4429.388,0.00023,0.0,0.0
12.795,4395.985,0.00023,0.0,0.0
12.802,4370.941,0.00023,0.0,0.0
12.808,4343.547,0.00023,0.0,0.0
12.814,4330.967,0.00023,0.0,0.0
12.821,4299.62,0.00023,0.0,0.0
12.827,4294.831,0.00023,0.0,0.0
12.833,4276.645,0.00023,0.0,0.0
12.84,4280.714,0.00023,0.0,0.0
12.846,4265.932,0.00023,0.0,0.0
12.852,4266.64,0.00023,0.0,0.0
12.859,4262.394,0.00023,0.0,0.0
12.865,4254.151,0.00024,0.0,0.0
12.871,4234.232,0.00024,0.0,0.0
12.878,4255.507,0.00023,0.0,0.0
12.884,4230.106,0.00024,0.0,0.0
12.89,4235.184,0.00024,0.0,0.0
12.896,4248.462,0.00024,0.0,0.0
12.903,4238.342,0.00024,0.0,0.0
12.909,4303.062,0.00023,0.0,0.0
12.915,4315.506,0.00023,0.0,0.0
12.922,4308.906,0.00023,0.0,0.0
12.928,4486.559,0.00022,0.0,0.0
12.934,4484.313,0.00022,0.0,0.0
12.941,4423.616,0.00023,0.0,0.0
12.947,4638.408,0.00022,0.0,0.0
12.953,4464.25,0.00022,0.0,0.0
12.96,4366.458,0.00023,0.0,0.0
12.966,4362.227,0.00023,0.0,0.0
12.972,4295.403,0.00023,0.0,0.0
12.979,4243.775,0.00024,0.0,0.0
12.985,4225.744,0.00024,0.0,0.0
12.991,4209.017,0.00024,0.0,0.0
12.998,4197.653,0.00024,0.0,0.0
13.004,4172.783,0.00024,0.0,0.0
13.01,4173.884,0.00024,0.0,0.0
13.017,4173.735,0.00024,0.0,0.0
13.023,4170.379,0.00024,0.0,0.0
13.029,4149.913,0.00024,0.0,0.0
13.036,4163.742,0.00024,0.0,0.0
13.042,4156.376,0.00024,0.0,0.0
13.048,4153.689,0.00024,0.0,0.0
13.054,4143.692,0.00024,0.0,0.0
13.061,4144.036,0.00024,0.0,0.0
13.067,4138.438,0.00024,0.0,0.0
13.073,4149.7,0.00024,0.0,0.0
13.08,4132.877,0.00024,0.0,0.0
13.086,4135.239,0.00024,0.0,0.0
13.092,4130.571,0.00024,0.0,0.0
13.099,4133.476,0.00024,0.0,0.0
13.105,4128.178,0.00024,0.0,0.0
13.111,4121.001,0.00024,0.0,0.0
13.118,4121.838,0.00024,0.0,0.0
13.124,4126.129,0.00024,0.0,0.0
13.13,4119.384,0.00024,0.0,0.0
13.137,4102.812,0.00024,0.0,0.0
13.143,4105.354,0.00024,0.0,0.0
13.149,4110.661,0.00024,0.0,0.0
13.156,4116.653,0.00024,0.0,0.0
13.162,4111.441,0.00024,0.0,0.0
13.168,4104.031,0.00024,0.0,0.0
13.175,4124.74,0.00024,0.0,0.0
13.181,4118.998,0.00024,0.0,0.0
13.187,4118.703,0.00024,0.0,0.0
13.194,4141.681,0.00024,0.0,0.0
13.2,4170.789,0.00024,0.0,0.0
13.206,4192.435,0.00024,0.0,0.0
13.212,4276.091,0.00023,0.0,0.0
13.219,4331.962,0.00023,0.0,0.0
13.225,4545.705,0.00022,0.0,0.0
13.231,4837.047,0.00021,0.0,0.0
13.238,5499.875,0.00018,0.0,0.0
13.244,6515.65,0.00015,0.0,0.0
13.25,7523.488,0.00013,0.0,0.0
13.257,9829.708,0.0001,0.0,0.0
13.263,10912.656,0.00009,0.0,0.0
13.269,11263.917,0.00009,0.0,0.0
13.276,11143.478,0.00009,0.0,0.0
13.282,9400.553,0.00011,0.0,0.0
13.288,7739.229,0.00013,0.0,0.0
13.295,6370.812,0.00016,0.0,0.0
13.301,5279.239,0.00019,0.0,0.0
13.307,4787.662,0.00021,0.0,0.0
13.314,4459.373,0.00022,0.0,0.0
13.32,4268.711,0.00023,0.0,0.0
13.326,4182.376,0.00024,0.0,0.0
13.333,4121.121,0.00024,0.0,0.0
13.339,4083.149,0.00024,0.0,0.0
13.345,4066.696,0.00025,0.0,0.0
13.352,4044.764,0.00025,0.0,0.0
13.358,4014.524,0.00025,0.0,0.0
13.364,4004.538,0.00025,0.0,0.0
13.37,4007.502,0.00025,0.0,0.0
13.377,3980.755,0.00025,0.0,0.0
13.383,3976.253,0.00025,0.0,0.0
13.389,3973.502,0.00025,0.0,0.0
13.396,3974.079,0.00025,0.0,0.0
13.402,3960.704,0.00025,0.0,0.0
13.408,3971.216,0.00025,0.0,0.0
13.415,3953.056,0.00025,0.0,0.0
13.421,3956.387,0.00025,0.0,0.0
13.427,3949.807,0.00025,0.0,0.0
13.434,3946.001,0.00025,0.0,0.0
13.44,3942.606,0.00025,0.0,0.0
13.446,3929.277,0.00025,0.0,0.0
13.453,3927.515,0.00025,0.0,0.0
13.459,3926.893,0.00025,0.0,0.0
13.465,3911.282,0.00026,0.0,0.0
13.472,3911.402,0.00026,0.0,0.0
13.478,3910.383,0.00026,0.0,0.0
13.484,3914.228,0.00026,0.0,0.0
13.491,3895.747,0.00026,0.0,0.0
13.497,3895.877,0.00026,0.0,0.0
13.503,3890.376,0.00026,0.0,0.0
13.51,3897.271,0.00026,0.0,0.0
13.516,3900.409,0.00026,0.0,0.0
13.522,3895.478,0.00026,0.0,0.0
13.528,3903.705,0.00026,0.0,0.0
13.535,3889.987,0.00026,0.0,0.0
13.541,3889.996,0.00026,0.0,0.0
13.547,3880.479,0.00026,0.0,0.0
13.554,3886.918,0.00026,0.0,0.0
13.56,3889.31,0.00026,0.0,0.0
13.566,3885.196,0.00026,0.0,0.0
13.573,3895.616,0.00026,0.0,0.0
13.579,3888.019,0.00026,0.0,0.0
13.585,3882.463,0.00026,0.0,0.0
13.592,3886.287,0.00026,0.0,0.0
13.598,3886.032,0.00026,0.0,0.0
13.604,3883.552,0.00026,0.0,0.0
13.611,3895.263,0.00026,0.0,0.0
13.617,3885.811,0.00026,0.0,0.0
13.623,3878.506,0.00026,0.0,0.0
13.63,3875.746,0.00026,0.0,0.0
13.636,3874.458,0.00026,0.0,0.0
13.642,3881.41,0.00026,0.0,0.0
13.649,3888.908,0.00026,0.0,0.0
13.655,3910.302,0.00026,0.0,0.0
13.661,3895.044,0.00026,0.0,0.0
13.668,3898.572,0.00026,0.0,0.0
13.674,3892.386,0.00026,0.0,0.0
13.68,3905.299,0.00026,0.0,0.0
13.686,3905.584,0.00026,0.0,0.0
13.693,3922.485,0.00025,0.0,0.0
13.699,3976.619,0.00025,0.0,0.0
13.705,4028.855,0.00025,0.0,0.0
13.712,4169.534,0.00024,0.0,0.0
13.718,4229.9,0.00024,0.0,0.0
13.724,4340.392,0.00023,0.0,0.0
13.731,4508.721,0.00022,0.0,0.0
13.737,4559.552,0.00022,0.0,0.0
13.743,4795.894,0.00021,0.0,0.0
13.75,4463.819,0.00022,0.0,0.0
13.756,4020.169,0.00025,0.0,0.0
13.762,3998.825,0.00025,0.0,0.0
13.769,3969.284,0.00025,0.0,0.0
13.775,3861.681,0.00026,0.0,0.0
13.781,3855.781,0.00026,0.0,0.0
13.788,3825.736,0.00026,0.0,0.0
13.794,3821.155,0.00026,0.0,0.0
13.8,3806.401,0.00026,0.0,0.0
13.807,3809.101,0.00026,0.0,0.0
13.813,3801.249,0.00026,0.0,0.0
13.819,3795.965,0.00026,0.0,0.0
13.826,3790.563,0.00026,0.0,0.0
13.832,3772.414,0.00027,0.0,0.0
13.838,3767.094,0.00027,0.0,0.0
13.844,3765.651,0.00027,0.0,0.0
13.851,3764.972,0.00027,0.0,0.0
13.857,3759.454,0.00027,0.0,0.0
13.863,3767.121,0.00027,0.0,0.0
13.87,3741.043,0.00027,0.0,0.0
13.876,3758.647,0.00027,0.0,0.0
13.882,3747.882,0.00027,0.0,0.0
13.889,3743.922,0.00027,0.0,0.0
13.895,3736.461,0.00027,0.0,0.0
13.901,3746.402,0.00027,0.0,0.0
13.908,3736.408,0.00027,0.0,0.0
13.914,3732.685,0.00027,0.0,0.0
13.92,3719.113,0.00027,0.0,0.0
13.927,3721.29,0.00027,0.0,0.0
13.933,3709.363,0.00027,0.0,0.0
13.939,3708.982,0.00027,0.0,0.0
13.946,3717.274,0.00027,0.0,0.0
13.952,3703.729,0.00027,0.0,0.0
13.958,3696.83,0.00027,0.0,0.0
13.965,3689.756,0.00027,0.0,0.0
13.971,3695.381,0.00027,0.0,0.0
13.977,3690.525,0.00027,0.0,0.0
13.984,3698.344,0.00027,0.0,0.0
13.99,3693.635,0.00027,0.0,0.0
13.996,3688.598,0.00027,0.0,0.0
14.002,3689.916,0.00027,0.0,0.0
14.009,3680.115,0.00027,0.0,0.0
14.015,3681.427,0.00027,0.0,0.0
14.021,3669.724,0.00027,0.0,0.0
14.028,3666.122,0.00027,0.0,0.0
14.034,3666.766,0.00027,0.0,0.0
14.04,3664.695,0.00027,0.0,0.0
14.047,3663.534,0.00027,0.0,0.0
14.053,3661.991,0.00027,0.0,0.0
14.059,3654.952,0.00027,0.0,0.0
14.066,3655.869,0.00027,0.0,0.0
14.072,3643.383,0.00027,0.0,0.0
14.078,3653.674,0.00027,0.0,0.0
14.085,3631.652,0.00028,0.0,0.0
14.091,3639.676,0.00027,0.0,0.0
14.097,3634.384,0.00028,0.0,0.0
14.104,3628.522,0.00028,0.0,0.0
14.11,3644.056,0.00027,0.0,0.0
14.116,3621.571,0.00028,0.0,0.0
14.123,3624.356,0.00028,0.0,0.0
14.129,3626.162,0.00028,0.0,0.0
14.135,3620.305,0.00028,0.0,0.0
14.142,3624.73,0.00028,0.0,0.0
14.148,3621.205,0.00028,0.0,0.0
14.154,3615.563,0.00028,0.0,0.0
14.16,3598.158,0.00028,0.0,0.0
14.167,3624.093,0.00028,0.0,0.0
14.173,3611.911,0.00028,0.0,0.0
14.179,3606.587,0.00028,0.0,0.0
14.186,3606.913,0.00028,0.0,0.0
14.192,3622.391,0.00028,0.0,0.0
14.198,3606.161,0.00028,0.0,0.0
14.205,3605.568,0.00028,0.0,0.0
14.211,3607.288,0.00028,0.0,0.0
14.217,3602.37,0.00028,0.0,0.0
14.224,3620.717,0.00028,0.0,0.0
14.23,3615.91,0.00028,0.0,0.0
14.236,3617.785,0.00028,0.0,0.0
14.243,3621.65,0.00028,0.0,0.0
14.249,3619.053,0.00028,0.0,0.0
14.255,3614.602,0.00028,0.0,0.0
14.262,3614.719,0.00028,0.0,0.0
14.268,3619.781,0.00028,0.0,0.0
14.274,3626.087,0.00028,0.0,0.0
14.281,3626.34,0.00028,0.0,0.0
14.287,3626.695,0.00028,0.0,0.0
14.293,3608.572,0.00028,0.0,0.0
14.3,3600.672,0.00028,0.0,0.0
14.306,3607.859,0.00028,0.0,0.0
14.312,3600.998,0.00028,0.0,0.0
14.318,3590.323,0.00028,0.0,0.0
14.325,3586.118,0.00028,0.0,0.0
14.331,3586.865,0.00028,0.0,0.0
14.337,3581.591,0.00028,0.0,0.0
14.344,3581.724,0.00028,0.0,0.0
14.35,3572.036,0.00028,0.0,0.0
14.356,3576.507,0.00028,0.0,0.0
14.363,3569.409,0.00028,0.0,0.0
14.369,3577.541,0.00028,0.0,0.0
14.375,3559.654,0.00028,0.0,0.0
14.382,3566.502,0.00028,0.0,0.0
14.388,3569.803,0.00028,0.0,0.0
14.394,3566.125,0.00028,0.0,0.0
14.401,3564.467,0.00028,0.0,0.0
14.407,3555.447,0.00028,0.0,0.0
14.413,3566.988,0.00028,0.0,0.0
14.42,3573.361,0.00028,0.0,0.0
14.426,3563.766,0.00028,0.0,0.0
14.432,3583.195,0.00028,0.0,0.0
14.439,3582.126,0.00028,0.0,0.0
14.445,3624.125,0.00028,0.0,0.0
14.451,3715.083,0.00027,0.0,0.0
14.458,3758.153,0.00027,0.0,0.0
14.464,3649.043,0.00027,0.0,0.0
14.47,4100.659,0.00024,0.0,0.0
14.476,3822.52,0.00026,0.0,0.0
14.483,3760.128,0.00027,0.0,0.0
14.489,3639.901,0.00027,0.0,0.0
14.495,3604.097,0.00028,0.0,0.0
14.502,3561.352,0.00028,0.0,0.0
14.508,3550.881,0.00028,0.0,0.0
14.514,3523.325,0.00028,0.0,0.0
14.521,3505.111,0.00029,0.0,0.0
14.527,3512.943,0.00028,0.0,0.0
14.533,3507.213,0.00029,0.0,0.0
14.54,3510.599,0.00028,0.0,0.0
14.546,3507.997,0.00029,0.0,0.0
14.552,3511.524,0.00028,0.0,0.0
14.559,3497.871,0.00029,0.0,0.0
14.565,3494.555,0.00029,0.0,0.0
14.571,3500.461,0.00029,0.0,0.0
14.578,3488.378,0.00029,0.0,0.0
14.584,3487.367,0.00029,0.0,0.0
14.59,3478.16,0.00029,0.0,0.0
14.597,3470.358,0.00029,0.0,0.0
14.603,3476.715,0.00029,0.0,0.0
14.609,3475.296,0.00029,0.0,0.0
14.616,3476.03,0.00029,0.0,0.0
14.622,3463.203,0.00029,0.0,0.0
14.628,3470.633,0.00029,0.0,0.0
14.634,3471.917,0.00029,0.0,0.0
14.641,3468.921,0.00029,0.0,0.0
14.647,3451.164,0.00029,0.0,0.0
14.653,3466.186,0.00029,0.0,0.0
14.66,3457.044,0.00029,0.0,0.0
14.666,3449.041,0.00029,0.0,0.0
14.672,3450.105,0.00029,0.0,0.0
14.679,3457.437,0.00029,0.0,0.0
14.685,3449.156,0.00029,0.0,0.0
14.691,3455.052,0.00029,0.0,0.0
14.698,3440.468,0.00029,0.0,0.0
14.704,3452.793,0.00029,0.0,0.0
14.71,3431.443,0.00029,0.0,0.0
14.717,3434.742,0.00029,0.0,0.0
14.723,3425.266,0.00029,0.0,0.0
14.729,3429.12,0.00029,0.0,0.0
14.736,3416.277,0.00029,0.0,0.0
14.742,3404.694,0.00029,0.0,0.0
14.748,3424.928,0.00029,0.0,0.0
14.755,3421.072,0.00029,0.0,0.0
14.761,3420.905,0.00029,0.0,0.0
14.767,3409.725,0.00029,0.0,0.0
14.774,3408.499,0.00029,0.0,0.0
14.78,3406.123,0.00029,0.0,0.0
14.786,3408.986,0.00029,0.0,0.0
14.792,3425.065,0.00029,0.0,0.0
14.799,3405.179,0.00029,0.0,0.0
14.805,3419.177,0.00029,0.0,0.0
14.811,3411.578,0.00029,0.0,0.0
14.818,3399.272,0.00029,0.0,0.0
14.824,3411.01,0.00029,0.0,0.0
14.83,3415.165,0.00029,0.0,0.0
14.837,3398.9,0.00029,0.0,0.0
14.843,3406.82,0.00029,0.0,0.0
14.849,3406.512,0.00029,0.0,0.0
14.856,3407.101,0.00029,0.0,0.0
14.862,3403.337,0.00029,0.0,0.0
14.868,3404.687,0.00029,0.0,0.0
14.875,3394.724,0.00029,0.0,0.0
14.881,3405.805,0.00029,0.0,0.0
14.887,3405.956,0.00029,0.0,0.0
14.894,3399.116,0.00029,0.0,0.0
14.9,3394.022,0.00029,0.0,0.0
14.906,3394.519,0.00029,0.0,0.0
14.913,3398.582,0.00029,0.0,0.0
14.919,3397.358,0.00029,0.0,0.0
14.925,3388.553,0.0003,0.0,0.0
14.932,3391.419,0.00029,0.0,0.0
14.938,3380.339,0.0003,0.0,0.0
14.944,3375.14,0.0003,0.0,0.0
14.95,3400.629,0.00029,0.0,0.0
14.957,3380.365,0.0003,0.0,0.0
14.963,3398.153,0.00029,0.0,0.0
14.969,3389.428,0.0003,0.0,0.0
14.976,3379.361,0.0003,0.0,0.0
14.982,3389.141,0.0003,0.0,0.0
14.988,3374.232,0.0003,0.0,0.0
14.995,3380.507,0.0003,0.0,0.0
15.001,3371.623,0.0003,0.0,0.0
15.007,3367.979,0.0003,0.0,0.0
15.014,3377.312,0.0003,0.0,0.0
15.02,3375.01,0.0003,0.0,0.0
15.026,3373.853,0.0003,0.0,0.0
15.033,3361.658,0.0003,0.0,0.0
15.039,3359.072,0.0003,0.0,0.0
15.045,3352.503,0.0003,0.0,0.0
15.052,3355.652,0.0003,0.0,0.0
15.058,3365.518,0.0003,0.0,0.0
15.064,3337.208,0.0003,0.0,0.0
15.071,3351.66,0.0003,0.0,0.0
15.077,3343.677,0.0003,0.0,0.0
15.083,3345.523,0.0003,0.0,0.0
15.09,3342.702,0.0003,0.0,0.0
15.096,3336.61,0.0003,0.0,0.0
15.102,3332.865,0.0003,0.0,0.0
15.108,3341.566,0.0003,0.0,0.0
15.115,3325.939,0.0003,0.0,0.0
15.121,3336.917,0.0003,0.0,0.0
15.127,3341.877,0.0003,0.0,0.0
15.134,3330.904,0.0003,0.0,0.0
15.14,3338.549,0.0003,0.0,0.0
15.146,3338.817,0.0003,0.0,0.0
15.153,3336.416,0.0003,0.0,0.0
15.159,3337.745,0.0003,0.0,0.0
15.165,3333.789,0.0003,0.0,0.0
15.172,3333.926,0.0003,0.0,0.0
15.178,3335.075,0.0003,0.0,0.0
15.184,3344.14,0.0003,0.0,0.0
15.191,3344.631,0.0003,0.0,0.0
15.197,3340.625,0.0003,0.0,0.0
15.203,3339.863,0.0003,0.0,0.0
15.21,3333.369,0.0003,0.0,0.0
15.216,3324.101,0.0003,0.0,0.0
15.222,3331.559,0.0003,0.0,0.0
15.229,3330.848,0.0003,0.0,0.0
15.235,3333.223,0.0003,0.0,0.0
15.241,3328.414,0.0003,0.0,0.0
15.248,3326.821,0.0003,0.0,0.0
15.254,3336.668,0.0003,0.0,0.0
15.26,3361.211,0.0003,0.0,0.0
15.266,3375.399,0.0003,0.0,0.0
15.273,3397.266,0.00029,0.0,0.0
15.279,3452.419,0.00029,0.0,0.0
15.285,3530.589,0.00028,0.0,0.0
15.292,3667.157,0.00027,0.0,0.0
15.298,3920.255,0.00026,0.0,0.0
15.304,4194.773,0.00024,0.0,0.0
15.311,4643.721,0.00022,0.0,0.0
15.317,5514.524,0.00018,0.0,0.0
15.323,5677.824,0.00018,0.0,0.0
15.33,6352.117,0.00016,0.0,0.0
15.336,6086.731,0.00016,0.0,0.0
15.342,5679.484,0.00018,0.0,0.0
15.349,5089.805,0.0002,0.0,0.0
15.355,4594.557,0.00022,0.0,0.0
15.361,4086.842,0.00024,0.0,0.0
15.368,3777.604,0.00026,0.0,0.0
15.374,3580.091,0.00028,0.0,0.0
15.38,3481.654,0.00029,0.0,0.0
15.387,3415.327,0.00029,0.0,0.0
15.393,3383.266,0.0003,0.0,0.0
15.399,3352.497,0.0003,0.0,0.0
15.406,3350.801,0.0003,0.0,0.0
15.412,3333.06,0.0003,0.0,0.0
15.418,3329.74,0.0003,0.0,0.0
15.424,3322.094,0.0003,0.0,0.0
15.431,3319.152,0.0003,0.0,0.0
15.437,3313.85,0.0003,0.0,0.0
15.443,3301.75,0.0003,0.0,0.0
15.45,3310.448,0.0003,0.0,0.0
15.456,3310.849,0.0003,0.0,0.0
15.462,3310.295,0.0003,0.0,0.0
15.469,3311.036,0.0003,0.0,0.0
15.475,3305.343,0.0003,0.0,0.0
15.481,3297.224,0.0003,0.0,0.0
15.488,3304.49,0.0003,0.0,0.0
15.494,3299.218,0.0003,0.0,0.0
15.5,3297.64,0.0003,0.0,0.0
15.507,3297.111,0.0003,0.0,0.0
15.513,3300.172,0.0003,0.0,0.0
15.519,3287.852,0.0003,0.0,0.0
15.526,3285.241,0.0003,0.0,0.0
15.532,3287.949,0.0003,0.0,0.0
15.538,3279.394,0.0003,0.0,0.0
15.545,3275.777,0.00031,0.0,0.0
15.551,3273.617,0.00031,0.0,0.0
15.557,3275.417,0.00031,0.0,0.0
15.564,3275.938,0.00031,0.0,0.0
15.57,3261.309,0.00031,0.0,0.0
15.576,3277.499,0.00031,0.0,0.0
15.582,3259.04,0.00031,0.0,0.0
15.589,3255.503,0.00031,0.0,0.0
15.595,3252.62,0.00031,0.0,0.0
15.601,3255.653,0.00031,0.0,0.0
15.608,3241.141,0.00031,0.0,0.0
15.614,3244.581,0.00031,0.0,0.0
15.62,3246.359,0.00031,0.0,0.0
15.627,3237.692,0.00031,0.0,0.0
15.633,3237.491,0.00031,0.0,0.0
15.639,3234.638,0.00031,0.0,0.0
15.646,3231.9,0.00031,0.0,0.0
15.652,3229.153,0.00031,0.0,0.0
15.658,3233.236,0.00031,0.0,0.0
15.665,3226.024,0.00031,0.0,0.0
15.671,3212.965,0.00031,0.0,0.0
15.677,3209.483,0.00031,0.0,0.0
15.684,3210.019,0.00031,0.0,0.0
15.69,3217.487,0.00031,0.0,0.0
15.696,3213.45,0.00031,0.0,0.0
15.703,3203.098,0.00031,0.0,0.0
15.709,3205.42,0.00031,0.0,0.0
15.715,3212.203,0.00031,0.0,0.0
15.722,3191.673,0.00031,0.0,0.0
15.728,3191.886,0.00031,0.0,0.0
15.734,3192.663,0.00031,0.0,0.0
15.74,3184.604,0.00031,0.0,0.0
15.747,3192.644,0.00031,0.0,0.0
15.753,3176.065,0.00031,0.0,0.0
15.759,3189.248,0.00031,0.0,0.0
15.766,3170.919,0.00032,0.0,0.0
15.772,3175.446,0.00031,0.0,0.0
15.778,3177.908,0.00031,0.0,0.0
15.785,3167.365,0.00032,0.0,0.0
15.791,3161.684,0.00032,0.0,0.0
15.797,3168.301,0.00032,0.0,0.0
15.804,3173.562,0.00032,0.0,0.0
15.81,3169.293,0.00032,0.0,0.0
15.816,3163.676,0.00032,0.0,0.0
15.823,3160.049,0.00032,0.0,0.0
15.829,3164.478,0.00032,0.0,0.0
15.835,3174.141,0.00032,0.0,0.0
15.842,3181.489,0.00031,0.0,0.0
15.848,3191.762,0.00031,0.0,0.0
15.854,3206.992,0.00031,0.0,0.0
15.861,3180.987,0.00031,0.0,0.0
15.867,3282.719,0.0003,0.0,0.0
15.873,3183.056,0.00031,0.0,0.0
15.88,3160.45,0.00032,0.0,0.0
15.886,3168.914,0.00032,0.0,0.0
15.892,3166.698,0.00032,0.0,0.0
15.898,3148.156,0.00032,0.0,0.0
15.905,3150.293,0.00032,0.0,0.0
15.911,3145.096,0.00032,0.0,0.0
15.917,3147.998,0.00032,0.0,0.0
15.924,3145.537,0.00032,0.0,0.0
15.93,3132.35,0.00032,0.0,0.0
15.936,3133.489,0.00032,0.0,0.0
15.943,3148.656,0.00032,0.0,0.0
15.949,3127.182,0.00032,0.0,0.0
15.955,3127.738,0.00032,0.0,0.0
15.962,3134.078,0.00032,0.0,0.0
15.968,3120.274,0.00032,0.0,0.0
15.974,3122.836,0.00032,0.0,0.0
15.981,3124.053,0.00032,0.0,0.0
15.987,3131.839,0.00032,0.0,0.0
15.993,3132.951,0.00032,0.0,0.0
16.0,3124.569,0.00032,0.0,0.0
16.006,3118.329,0.00032,0.0,0.0
16.012,3119.746,0.00032,0.0,0.0
16.019,3125.133,0.00032,0.0,0.0
16.025,3118.559,0.00032,0.0,0.0
16.031,3125.293,0.00032,0.0,0.0
16.038,3112.445,0.00032,0.0,0.0
16.044,3109.464,0.00032,0.0,0.0
16.05,3118.725,0.00032,0.0,0.0
16.056,3109.632,0.00032,0.0,0.0
16.063,3116.697,0.00032,0.0,0.0
16.069,3114.794,0.00032,0.0,0.0
16.075,3123.44,0.00032,0.0,0.0
16.082,3116.157,0.00032,0.0,0.0
16.088,3111.655,0.00032,0.0,0.0
16.094,3104.69,0.00032,0.0,0.0
16.101,3111.226,0.00032,0.0,0.0
16.107,3118.272,0.00032,0.0,0.0
16.113,3112.001,0.00032,0.0,0.0
16.12,3115.154,0.00032,0.0,0.0
16.126,3110.238,0.00032,0.0,0.0
16.132,3106.063,0.00032,0.0,0.0
16.139,3110.243,0.00032,0.0,0.0
16.145,3103.575,0.00032,0.0,0.0
16.151,3099.349,0.00032,0.0,0.0
16.158,3108.855,0.00032,0.0,0.0
16.164,3109.254,0.00032,0.0,0.0
16.17,3106.145,0.00032,0.0,0.0
16.177,3110.469,0.00032,0.0,0.0
16.183,3099.3,0.00032,0.0,0.0
16.189,3112.759,0.00032,0.0,0.0
16.196,3097.994,0.00032,0.0,0.0
16.202,3099.912,0.00032,0.0,0.0
16.208,3110.387,0.00032,0.0,0.0
16.214,3104.429,0.00032,0.0,0.0
16.221,3098.425,0.00032,0.0,0.0
16.227,3109.377,0.00032,0.0,0.0
16.233,3095.957,0.00032,0.0,0.0
16.24,3097.459,0.00032,0.0,0.0
16.246,3099.388,0.00032,0.0,0.0
16.252,3095.637,0.00032,0.0,0.0
16.259,3088.49,0.00032,0.0,0.0
16.265,3095.582,0.00032,0.0,0.0
16.271,3096.284,0.00032,0.0,0.0
16.278,3093.258,0.00032,0.0,0.0
16.284,3097.112,0.00032,0.0,0.0
16.29,3091.984,0.00032,0.0,0.0
16.297,3099.376,0.00032,0.0,0.0
16.303,3088.284,0.00032,0.0,0.0
16.309,3098.02,0.00032,0.0,0.0
16.316,3104.575,0.00032,0.0,0.0
16.322,3107.47,0.00032,0.0,0.0
16.328,3097.339,0.00032,0.0,0.0
16.335,3098.739,0.00032,0.0,0.0
16.341,3097.707,0.00032,0.0,0.0
16.347,3098.251,0.00032,0.0,0.0
16.354,3096.056,0.00032,0.0,0.0
16.36,3098.972,0.00032,0.0,0.0
16.366,3101.973,0.00032,0.0,0.0
16.372,3081.263,0.00032,0.0,0.0
16.379,3100.839,0.00032,0.0,0.0
16.385,3082.723,0.00032,0.0,0.0
16.391,3094.71,0.00032,0.0,0.0
16.398,3093.542,0.00032,0.0,0.0
16.404,3100.524,0.00032,0.0,0.0
16.41,3093.549,0.00032,0.0,0.0
16.417,3095.35,0.00032,0.0,0.0
16.423,3092.46,0.00032,0.0,0.0
16.429,3087.604,0.00032,0.0,0.0
16.436,3100.732,0.00032,0.0,0.0
16.442,3099.73,0.00032,0.0,0.0
16.448,3104.814,0.00032,0.0,0.0
16.455,3106.055,0.00032,0.0,0.0
16.461,3097.941,0.00032,0.0,0.0
16.467,3110.273,0.00032,0.0,0.0
16.474,3105.202,0.00032,0.0,0.0
16.48,3112.003,0.00032,0.0,0.0
16.486,3119.213,0.00032,0.0,0.0
16.493,3120.313,0.00032,0.0,0.0
16.499,3145.756,0.00032,0.0,0.0
16.505,3152.138,0.00032,0.0,0.0
16.512,3168.463,0.00032,0.0,0.0
16.518,3167.588,0.00032,0.0,0.0
16.524,3189.974,0.00031,0.0,0.0
16.53,3152.76,0.00032,0.0,0.0
16.537,3158.15,0.00032,0.0,0.0
16.543,3152.229,0.00032,0.0,0.0
16.549,3142.362,0.00032,0.0,0.0
16.556,3125.723,0.00032,0.0,0.0
16.562,3127.958,0.00032,0.0,0.0
16.568,3124.264,0.00032,0.0,0.0
16.575,3125.66,0.00032,0.0,0.0
16.581,3122.653,0.00032,0.0,0.0
16.587,3128.831,0.00032,0.0,0.0
16.594,3124.046,0.00032,0.0,0.0
