"x","y_obs","weight","y_calc","y_bkg"
0.8,2839.831,0.00035,0.0,0.0
0.806,3251.461,0.00031,0.0,0.0
0.813,3354.631,0.0003,0.0,0.0
0.819,3223.147,0.00031,0.0,0.0
0.825,3898.899,0.00026,0.0,0.0
0.832,3575.472,0.00028,0.0,0.0
0.838,3935.758,0.00025,0.0,0.0
0.844,4196.937,0.00024,0.0,0.0
0.851,4100.212,0.00024,0.0,0.0
0.857,4486.946,0.00022,0.0,0.0
0.863,4837.776,0.00021,0.0,0.0
0.87,4396.316,0.00023,0.0,0.0
0.876,5251.036,0.00019,0.0,0.0
0.882,5044.172,0.0002,0.0,0.0
0.888,5321.337,0.00019,0.0,0.0
0.895,5492.323,0.00018,0.0,0.0
0.901,5526.907,0.00018,0.0,0.0
0.907,5976.49,0.00017,0.0,0.0
0.914,6114.624,0.00016,0.0,0.0
0.92,5793.387,0.00017,0.0,0.0
0.926,6410.049,0.00016,0.0,0.0
0.933,6457.807,0.00015,0.0,0.0
0.939,6237.525,0.00016,0.0,0.0
0.945,6782.618,0.00015,0.0,0.0
0.952,6447.044,0.00016,0.0,0.0
0.958,6791.522,0.00015,0.0,0.0
0.964,6806.724,0.00015,0.0,0.0
0.971,6571.383,0.00015,0.0,0.0
0.977,6995.356,0.00014,0.0,0.0
0.983,6943.361,0.00014,0.0,0.0
0.99,6798.234,0.00015,0.0,0.0
0.996,7133.894,0.00014,0.0,0.0
1.002,6887.864,0.00015,0.0,0.0
1.009,7002.23,0.00014,0.0,0.0
1.015,7120.379,0.00014,0.0,0.0
1.021,6907.431,0.00014,0.0,0.0
1.028,7151.8,0.00014,0.0,0.0
1.034,7025.299,0.00014,0.0,0.0
1.04,6981.566,0.00014,0.0,0.0
1.046,7017.363,0.00014,0.0,0.0
1.053,7030.997,0.00014,0.0,0.0
1.059,6957.993,0.00014,0.0,0.0
1.065,7070.699,0.00014,0.0,0.0
1.072,6861.917,0.00015,0.0,0.0
1.078,7024.073,0.00014,0.0,0.0
1.084,6888.138,0.00015,0.0,0.0
1.091,6946.343,0.00014,0.0,0.0
1.097,6907.847,0.00014,0.0,0.0
1.103,6829.439,0.00015,0.0,0.0
1.11,6802.256,0.00015,0.0,0.0
1.116,6777.762,0.00015,0.0,0.0
1.122,6682.594,0.00015,0.0,0.0
1.129,6742.852,0.00015,0.0,0.0
1.135,6701.749,0.00015,0.0,0.0
1.141,6680.203,0.00015,0.0,0.0
1.148,6641.284,0.00015,0.0,0.0
1.154,6527.076,0.00015,0.0,0.0
1.16,6533.025,0.00015,0.0,0.0
1.167,6475.906,0.00015,0.0,0.0
1.173,6487.192,0.00015,0.0,0.0
1.179,6411.577,0.00016,0.0,0.0
1.186,6345.179,0.00016,0.0,0.0
1.192,6321.678,0.00016,0.0,0.0
1.198,6274.029,0.00016,0.0,0.0
1.204,6197.755,0.00016,0.0,0.0
1.211,6164.759,0.00016,0.0,0.0
1.217,6196.288,0.00016,0.0,0.0
1.223,6090.254,0.00016,0.0,0.0
1.23,6075.876,0.00016,0.0,0.0
1.236,6062.51,0.00016,0.0,0.0
1.242,6002.497,0.00017,0.0,0.0
1.249,6037.162,0.00017,0.0,0.0
1.255,5945.0,0.00017,0.0,0.0
1.261,5939.361,0.00017,0.0,0.0
1.268,5957.053,0.00017,0.0,0.0
1.274,5925.623,0.00017,0.0,0.0
1.28,5912.942,0.00017,0.0,0.0
1.287,5834.261,0.00017,0.0,0.0
1.293,5845.197,0.00017,0.0,0.0
1.299,5837.871,0.00017,0.0,0.0
1.306,5763.309,0.00017,0.0,0.0
1.312,5725.712,0.00017,0.0,0.0
1.318,5781.199,0.00017,0.0,0.0
1.325,5703.76,0.00018,0.0,0.0
1.331,5725.941,0.00017,0.0,0.0
1.337,5639.467,0.00018,0.0,0.0
1.344,5625.033,0.00018,0.0,0.0
1.35,5636.251,0.00018,0.0,0.0
1.356,5607.523,0.00018,0.0,0.0
1.362,5626.259,0.00018,0.0,0.0
1.369,5624.358,0.00018,0.0,0.0
1.375,5570.38,0.00018,0.0,0.0
1.381,5563.815,0.00018,0.0,0.0
1.388,5621.544,0.00018,0.0,0.0
1.394,5514.483,0.00018,0.0,0.0
1.4,5623.086,0.00018,0.0,0.0
1.407,5527.403,0.00018,0.0,0.0
1.413,5529.91,0.00018,0.0,0.0
1.419,5506.508,0.00018,0.0,0.0
1.426,5540.437,0.00018,0.0,0.0
1.432,5494.619,0.00018,0.0,0.0
1.438,5525.1,0.00018,0.0,0.0
1.445,5459.049,0.00018,0.0,0.0
1.451,5497.848,0.00018,0.0,0.0
1.457,5496.081,0.00018,0.0,0.0
1.464,5507.413,0.00018,0.0,0.0
1.47,5480.608,0.00018,0.0,0.0
1.476,5450.369,0.00018,0.0,0.0
1.483,5495.463,0.00018,0.0,0.0
1.489,5461.419,0.00018,0.0,0.0
1.495,5478.471,0.00018,0.0,0.0
1.502,5468.752,0.00018,0.0,0.0
1.508,5465.536,0.00018,0.0,0.0
1.514,5488.093,0.00018,0.0,0.0
1.52,5493.177,0.00018,0.0,0.0
1.527,5491.474,0.00018,0.0,0.0
1.533,5541.344,0.00018,0.0,0.0
1.539,5496.38,0.00018,0.0,0.0
1.546,5477.08,0.00018,0.0,0.0
1.552,5513.175,0.00018,0.0,0.0
1.558,5503.49,0.00018,0.0,0.0
1.565,5552.828,0.00018,0.0,0.0
1.571,5505.855,0.00018,0.0,0.0
1.577,5541.244,0.00018,0.0,0.0
1.584,5541.465,0.00018,0.0,0.0
1.59,5547.786,0.00018,0.0,0.0
1.596,5514.926,0.00018,0.0,0.0
1.603,5571.403,0.00018,0.0,0.0
1.609,5528.697,0.00018,0.0,0.0
1.615,5562.569,0.00018,0.0,0.0
1.622,5603.49,0.00018,0.0,0.0
1.628,5587.623,0.00018,0.0,0.0
1.634,5642.914,0.00018,0.0,0.0
1.641,5666.835,0.00018,0.0,0.0
1.647,5640.319,0.00018,0.0,0.0
1.653,5638.81,0.00018,0.0,0.0
1.66,5633.838,0.00018,0.0,0.0
1.666,5654.097,0.00018,0.0,0.0
1.672,5655.926,0.00018,0.0,0.0
1.678,5734.709,0.00017,0.0,0.0
1.685,5697.544,0.00018,0.0,0.0
1.691,5696.868,0.00018,0.0,0.0
1.697,5775.704,0.00017,0.0,0.0
1.704,5743.416,0.00017,0.0,0.0
1.71,5753.47,0.00017,0.0,0.0
1.716,5776.172,0.00017,0.0,0.0
1.723,5794.711,0.00017,0.0,0.0
1.729,5809.804,0.00017,0.0,0.0
1.735,5826.053,0.00017,0.0,0.0
1.742,5817.78,0.00017,0.0,0.0
1.748,5808.19,0.00017,0.0,0.0
1.754,5859.306,0.00017,0.0,0.0
1.761,5805.118,0.00017,0.0,0.0
1.767,5837.962,0.00017,0.0,0.0
1.773,5860.293,0.00017,0.0,0.0
1.78,5856.477,0.00017,0.0,0.0
1.786,5895.776,0.00017,0.0,0.0
1.792,5898.386,0.00017,0.0,0.0
1.799,5900.214,0.00017,0.0,0.0
1.805,5919.227,0.00017,0.0,0.0
1.811,5896.161,0.00017,0.0,0.0
1.818,5928.522,0.00017,0.0,0.0
1.824,5896.285,0.00017,0.0,0.0
1.83,5920.754,0.00017,0.0,0.0
1.836,5916.801,0.00017,0.0,0.0
1.843,5972.158,0.00017,0.0,0.0
1.849,5946.896,0.00017,0.0,0.0
1.855,5936.604,0.00017,0.0,0.0
1.862,5876.814,0.00017,0.0,0.0
1.868,5944.838,0.00017,0.0,0.0
1.874,5929.269,0.00017,0.0,0.0
1.881,5919.798,0.00017,0.0,0.0
1.887,5929.16,0.00017,0.0,0.0
1.893,5922.486,0.00017,0.0,0.0
1.9,5942.269,0.00017,0.0,0.0
1.906,5906.42,0.00017,0.0,0.0
1.912,5921.812,0.00017,0.0,0.0
1.919,5902.325,0.00017,0.0,0.0
1.925,5925.812,0.00017,0.0,0.0
1.931,5897.075,0.00017,0.0,0.0
1.938,5915.863,0.00017,0.0,0.0
1.944,5917.383,0.00017,0.0,0.0
1.95,5934.672,0.00017,0.0,0.0
1.957,5877.801,0.00017,0.0,0.0
1.963,5923.709,0.00017,0.0,0.0
1.969,5867.974,0.00017,0.0,0.0
1.976,5898.4,0.00017,0.0,0.0
1.982,5914.735,0.00017,0.0,0.0
1.988,5899.925,0.00017,0.0,0.0
1.994,5921.353,0.00017,0.0,0.0
2.001,5907.497,0.00017,0.0,0.0
2.007,5914.583,0.00017,0.0,0.0
2.013,5911.908,0.00017,0.0,0.0
2.02,5898.976,0.00017,0.0,0.0
2.026,5920.049,0.00017,0.0,0.0
2.032,5927.769,0.00017,0.0,0.0
2.039,5947.787,0.00017,0.0,0.0
2.045,5943.628,0.00017,0.0,0.0
2.051,5950.86,0.00017,0.0,0.0
2.058,5951.306,0.00017,0.0,0.0
2.064,5930.052,0.00017,0.0,0.0
2.07,5935.032,0.00017,0.0,0.0
2.077,5957.099,0.00017,0.0,0.0
2.083,5944.509,0.00017,0.0,0.0
2.089,5984.07,0.00017,0.0,0.0
2.096,5953.911,0.00017,0.0,0.0
2.102,5992.254,0.00017,0.0,0.0
2.108,5997.492,0.00017,0.0,0.0
2.115,5975.992,0.00017,0.0,0.0
2.121,5964.151,0.00017,0.0,0.0
2.127,6004.039,0.00017,0.0,0.0
2.134,6038.515,0.00017,0.0,0.0
2.14,6020.967,0.00017,0.0,0.0
2.146,6063.209,0.00016,0.0,0.0
2.152,6053.471,0.00017,0.0,0.0
2.159,6058.755,0.00017,0.0,0.0
2.165,6046.861,0.00017,0.0,0.0
2.171,6083.075,0.00016,0.0,0.0
2.178,6089.113,0.00016,0.0,0.0
2.184,6099.141,0.00016,0.0,0.0
2.19,6062.256,0.00016,0.0,0.0
2.197,6079.408,0.00016,0.0,0.0
2.203,6137.737,0.00016,0.0,0.0
2.209,6100.745,0.00016,0.0,0.0
2.216,6151.57,0.00016,0.0,0.0
2.222,6137.697,0.00016,0.0,0.0
2.228,6145.656,0.00016,0.0,0.0
2.235,6158.571,0.00016,0.0,0.0
2.241,6176.634,0.00016,0.0,0.0
2.247,6172.128,0.00016,0.0,0.0
2.254,6204.165,0.00016,0.0,0.0
2.26,6187.838,0.00016,0.0,0.0
2.266,6225.874,0.00016,0.0,0.0
2.273,6262.079,0.00016,0.0,0.0
2.279,6247.764,0.00016,0.0,0.0
2.285,6278.998,0.00016,0.0,0.0
2.292,6299.746,0.00016,0.0,0.0
2.298,6324.077,0.00016,0.0,0.0
2.304,6333.188,0.00016,0.0,0.0
2.31,6355.524,0.00016,0.0,0.0
2.317,6340.339,0.00016,0.0,0.0
2.323,6367.072,0.00016,0.0,0.0
2.329,6396.51,0.00016,0.0,0.0
2.336,6429.259,0.00016,0.0,0.0
2.342,6427.85,0.00016,0.0,0.0
2.348,6454.453,0.00015,0.0,0.0
2.355,6496.047,0.00015,0.0,0.0
2.361,6514.653,0.00015,0.0,0.0
2.367,6504.382,0.00015,0.0,0.0
2.374,6531.858,0.00015,0.0,0.0
2.38,6600.5,0.00015,0.0,0.0
2.386,6639.988,0.00015,0.0,0.0
2.393,6675.077,0.00015,0.0,0.0
2.399,6752.891,0.00015,0.0,0.0
2.405,6826.911,0.00015,0.0,0.0
2.412,6923.423,0.00014,0.0,0.0
2.418,7039.603,0.00014,0.0,0.0
2.424,7099.687,0.00014,0.0,0.0
2.431,7168.085,0.00014,0.0,0.0
2.437,7147.757,0.00014,0.0,0.0
2.443,7089.394,0.00014,0.0,0.0
2.45,7007.272,0.00014,0.0,0.0
2.456,6950.765,0.00014,0.0,0.0
2.462,6938.926,0.00014,0.0,0.0
2.468,6908.776,0.00014,0.0,0.0
2.475,6913.375,0.00014,0.0,0.0
2.481,6935.161,0.00014,0.0,0.0
2.487,6974.004,0.00014,0.0,0.0
2.494,6986.051,0.00014,0.0,0.0
2.5,6966.265,0.00014,0.0,0.0
2.506,7015.17,0.00014,0.0,0.0
2.513,7026.131,0.00014,0.0,0.0
2.519,7058.159,0.00014,0.0,0.0
2.525,7090.665,0.00014,0.0,0.0
2.532,7113.344,0.00014,0.0,0.0
2.538,7107.293,0.00014,0.0,0.0
2.544,7157.935,0.00014,0.0,0.0
2.551,7196.665,0.00014,0.0,0.0
2.557,7182.785,0.00014,0.0,0.0
2.563,7221.01,0.00014,0.0,0.0
2.57,7250.127,0.00014,0.0,0.0
2.576,7290.211,0.00014,0.0,0.0
2.582,7293.241,0.00014,0.0,0.0
2.589,7313.442,0.00014,0.0,0.0
2.595,7349.221,0.00014,0.0,0.0
2.601,7375.31,0.00014,0.0,0.0
2.608,7388.093,0.00014,0.0,0.0
2.614,7405.123,0.00014,0.0,0.0
2.62,7460.693,0.00013,0.0,0.0
2.626,7481.317,0.00013,0.0,0.0
2.633,7488.669,0.00013,0.0,0.0
2.639,7503.194,0.00013,0.0,0.0
2.645,7536.384,0.00013,0.0,0.0
2.652,7576.179,0.00013,0.0,0.0
2.658,7573.72,0.00013,0.0,0.0
2.664,7648.354,0.00013,0.0,0.0
2.671,7639.099,0.00013,0.0,0.0
2.677,7673.917,0.00013,0.0,0.0
2.683,7689.254,0.00013,0.0,0.0
2.69,7724.716,0.00013,0.0,0.0
2.696,7731.357,0.00013,0.0,0.0
2.702,7793.77,0.00013,0.0,0.0
2.709,7795.956,0.00013,0.0,0.0
2.715,7809.739,0.00013,0.0,0.0
2.721,7827.038,0.00013,0.0,0.0
2.728,7893.838,0.00013,0.0,0.0
2.734,7863.56,0.00013,0.0,0.0
2.74,7953.751,0.00013,0.0,0.0
2.747,7922.787,0.00013,0.0,0.0
2.753,7976.29,0.00013,0.0,0.0
2.759,8008.907,0.00012,0.0,0.0
2.766,8015.658,0.00012,0.0,0.0
2.772,8046.473,0.00012,0.0,0.0
2.778,8064.775,0.00012,0.0,0.0
2.784,8122.71,0.00012,0.0,0.0
2.791,8125.623,0.00012,0.0,0.0
2.797,8164.746,0.00012,0.0,0.0
2.803,8180.83,0.00012,0.0,0.0
2.81,8196.616,0.00012,0.0,0.0
2.816,8229.4,0.00012,0.0,0.0
2.822,8240.489,0.00012,0.0,0.0
2.829,8271.206,0.00012,0.0,0.0
2.835,8295.048,0.00012,0.0,0.0
2.841,8320.305,0.00012,0.0,0.0
2.848,8358.587,0.00012,0.0,0.0
2.854,8391.231,0.00012,0.0,0.0
2.86,8409.063,0.00012,0.0,0.0
2.867,8429.053,0.00012,0.0,0.0
2.873,8479.694,0.00012,0.0,0.0
2.879,8478.913,0.00012,0.0,0.0
2.886,8524.28,0.00012,0.0,0.0
2.892,8554.669,0.00012,0.0,0.0
2.898,8539.348,0.00012,0.0,0.0
2.905,8577.566,0.00012,0.0,0.0
2.911,8598.092,0.00012,0.0,0.0
2.917,8599.146,0.00012,0.0,0.0
2.924,8642.217,0.00012,0.0,0.0
2.93,8620.107,0.00012,0.0,0.0
2.936,8666.452,0.00012,0.0,0.0
2.942,8696.571,0.00011,0.0,0.0
2.949,8709.155,0.00011,0.0,0.0
2.955,8739.686,0.00011,0.0,0.0
2.961,8784.187,0.00011,0.0,0.0
2.968,8783.012,0.00011,0.0,0.0
2.974,8818.808,0.00011,0.0,0.0
2.98,8810.771,0.00011,0.0,0.0
2.987,8826.712,0.00011,0.0,0.0
2.993,8806.622,0.00011,0.0,0.0
2.999,8859.678,0.00011,0.0,0.0
3.006,8878.071,0.00011,0.0,0.0
3.012,8880.589,0.00011,0.0,0.0
3.018,8903.62,0.00011,0.0,0.0
3.025,8911.975,0.00011,0.0,0.0
3.031,8926.434,0.00011,0.0,0.0
3.037,8915.448,0.00011,0.0,0.0
3.044,8900.564,0.00011,0.0,0.0
3.05,8921.634,0.00011,0.0,0.0
3.056,8924.009,0.00011,0.0,0.0
3.063,8960.206,0.00011,0.0,0.0
3.069,8966.633,0.00011,0.0,0.0
3.075,8956.976,0.00011,0.0,0.0
3.082,8984.03,0.00011,0.0,0.0
3.088,8985.491,0.00011,0.0,0.0
3.094,8964.292,0.00011,0.0,0.0
3.1,8964.664,0.00011,0.0,0.0
3.107,8978.132,0.00011,0.0,0.0
3.113,8979.196,0.00011,0.0,0.0
3.119,8997.164,0.00011,0.0,0.0
3.126,8962.977,0.00011,0.0,0.0
3.132,8987.542,0.00011,0.0,0.0
3.138,8957.139,0.00011,0.0,0.0
3.145,8947.64,0.00011,0.0,0.0
3.151,8966.058,0.00011,0.0,0.0
3.157,8930.538,0.00011,0.0,0.0
3.164,8952.95,0.00011,0.0,0.0
3.17,8940.656,0.00011,0.0,0.0
3.176,8939.575,0.00011,0.0,0.0
3.183,8903.688,0.00011,0.0,0.0
3.189,8908.129,0.00011,0.0,0.0
3.195,8883.632,0.00011,0.0,0.0
3.202,8879.736,0.00011,0.0,0.0
3.208,8853.075,0.00011,0.0,0.0
3.214,8873.9,0.00011,0.0,0.0
3.221,8839.319,0.00011,0.0,0.0
3.227,8841.925,0.00011,0.0,0.0
3.233,8820.441,0.00011,0.0,0.0
3.24,8794.291,0.00011,0.0,0.0
3.246,8826.326,0.00011,0.0,0.0
3.252,8779.508,0.00011,0.0,0.0
3.258,8775.694,0.00011,0.0,0.0
3.265,8760.889,0.00011,0.0,0.0
3.271,8751.891,0.00011,0.0,0.0
3.277,8724.621,0.00011,0.0,0.0
3.284,8733.759,0.00011,0.0,0.0
3.29,8718.811,0.00011,0.0,0.0
3.296,8691.737,0.00012,0.0,0.0
3.303,8678.065,0.00012,0.0,0.0
3.309,8656.867,0.00012,0.0,0.0
3.315,8637.279,0.00012,0.0,0.0
3.322,8618.548,0.00012,0.0,0.0
3.328,8594.599,0.00012,0.0,0.0
3.334,8607.874,0.00012,0.0,0.0
3.341,8587.944,0.00012,0.0,0.0
3.347,8528.845,0.00012,0.0,0.0
3.353,8547.348,0.00012,0.0,0.0
3.36,8520.463,0.00012,0.0,0.0
3.366,8530.17,0.00012,0.0,0.0
3.372,8499.182,0.00012,0.0,0.0
3.379,8502.555,0.00012,0.0,0.0
3.385,8482.037,0.00012,0.0,0.0
3.391,8476.654,0.00012,0.0,0.0
3.398,8460.351,0.00012,0.0,0.0
3.404,8453.131,0.00012,0.0,0.0
3.41,8464.823,0.00012,0.0,0.0
3.416,8433.562,0.00012,0.0,0.0
3.423,8417.773,0.00012,0.0,0.0
3.429,8414.138,0.00012,0.0,0.0
3.435,8389.895,0.00012,0.0,0.0
3.442,8403.636,0.00012,0.0,0.0
3.448,8398.052,0.00012,0.0,0.0
3.454,8360.566,0.00012,0.0,0.0
3.461,8343.499,0.00012,0.0,0.0
3.467,8336.912,0.00012,0.0,0.0
3.473,8320.005,0.00012,0.0,0.0
3.48,8298.383,0.00012,0.0,0.0
3.486,8273.179,0.00012,0.0,0.0
3.492,8290.941,0.00012,0.0,0.0
3.499,8265.489,0.00012,0.0,0.0
3.505,8268.965,0.00012,0.0,0.0
3.511,8247.312,0.00012,0.0,0.0
3.518,8259.511,0.00012,0.0,0.0
3.524,8220.057,0.00012,0.0,0.0
3.53,8222.698,0.00012,0.0,0.0
3.537,8229.254,0.00012,0.0,0.0
3.543,8188.557,0.00012,0.0,0.0
3.549,8198.169,0.00012,0.0,0.0
3.556,8174.573,0.00012,0.0,0.0
3.562,8166.007,0.00012,0.0,0.0
3.568,8170.976,0.00012,0.0,0.0
3.574,8166.786,0.00012,0.0,0.0
3.581,8173.713,0.00012,0.0,0.0
3.587,8170.829,0.00012,0.0,0.0
3.593,8148.381,0.00012,0.0,0.0
3.6,8172.979,0.00012,0.0,0.0
3.606,8190.782,0.00012,0.0,0.0
3.612,8184.989,0.00012,0.0,0.0
3.619,8194.8,0.00012,0.0,0.0
3.625,8177.98,0.00012,0.0,0.0
3.631,8197.165,0.00012,0.0,0.0
3.638,8184.932,0.00012,0.0,0.0
3.644,8212.793,0.00012,0.0,0.0
3.65,8201.82,0.00012,0.0,0.0
3.657,8211.463,0.00012,0.0,0.0
3.663,8214.117,0.00012,0.0,0.0
3.669,8247.563,0.00012,0.0,0.0
3.676,8267.945,0.00012,0.0,0.0
3.682,8279.297,0.00012,0.0,0.0
3.688,8287.432,0.00012,0.0,0.0
3.695,8336.178,0.00012,0.0,0.0
3.701,8340.455,0.00012,0.0,0.0
3.707,8357.633,0.00012,0.0,0.0
3.714,8378.553,0.00012,0.0,0.0
3.72,8365.413,0.00012,0.0,0.0
3.726,8419.186,0.00012,0.0,0.0
3.732,8426.696,0.00012,0.0,0.0
3.739,8455.513,0.00012,0.0,0.0
3.745,8457.176,0.00012,0.0,0.0
3.751,8503.222,0.00012,0.0,0.0
3.758,8526.54,0.00012,0.0,0.0
3.764,8569.581,0.00012,0.0,0.0
3.77,8587.258,0.00012,0.0,0.0
3.777,8582.889,0.00012,0.0,0.0
3.783,8615.613,0.00012,0.0,0.0
3.789,8638.301,0.00012,0.0,0.0
3.796,8654.446,0.00012,0.0,0.0
3.802,8630.2,0.00012,0.0,0.0
3.808,8665.297,0.00012,0.0,0.0
3.815,8653.903,0.00012,0.0,0.0
3.821,8686.352,0.00012,0.0,0.0
3.827,8690.906,0.00012,0.0,0.0
3.834,8701.398,0.00011,0.0,0.0
3.84,8725.164,0.00011,0.0,0.0
3.846,8741.164,0.00011,0.0,0.0
3.853,8724.705,0.00011,0.0,0.0
3.859,8715.835,0.00011,0.0,0.0
3.865,8730.403,0.00011,0.0,0.0
3.872,8679.995,0.00012,0.0,0.0
3.878,8691.426,0.00012,0.0,0.0
3.884,8660.708,0.00012,0.0,0.0
3.89,8689.782,0.00012,0.0,0.0
3.897,8658.044,0.00012,0.0,0.0
3.903,8642.583,0.00012,0.0,0.0
3.909,8656.199,0.00012,0.0,0.0
3.916,8597.2,0.00012,0.0,0.0
3.922,8604.239,0.00012,0.0,0.0
3.928,8578.931,0.00012,0.0,0.0
3.935,8561.937,0.00012,0.0,0.0
3.941,8552.103,0.00012,0.0,0.0
3.947,8553.286,0.00012,0.0,0.0
3.954,8532.552,0.00012,0.0,0.0
3.96,8539.75,0.00012,0.0,0.0
3.966,8486.912,0.00012,0.0,0.0
3.973,8503.13,0.00012,0.0,0.0
3.979,8479.961,0.00012,0.0,0.0
3.985,8457.134,0.00012,0.0,0.0
3.992,8412.792,0.00012,0.0,0.0
3.998,8415.476,0.00012,0.0,0.0
4.004,8404.74,0.00012,0.0,0.0
4.011,8408.428,0.00012,0.0,0.0
4.017,8390.44,0.00012,0.0,0.0
4.023,8396.431,0.00012,0.0,0.0
4.03,8364.125,0.00012,0.0,0.0
4.036,8349.424,0.00012,0.0,0.0
4.042,8366.747,0.00012,0.0,0.0
4.048,8353.87,0.00012,0.0,0.0
4.055,8342.315,0.00012,0.0,0.0
4.061,8355.058,0.00012,0.0,0.0
4.067,8381.306,0.00012,0.0,0.0
4.074,8329.162,0.00012,0.0,0.0
4.08,8343.761,0.00012,0.0,0.0
4.086,8315.643,0.00012,0.0,0.0
4.093,8351.117,0.00012,0.0,0.0
4.099,8346.975,0.00012,0.0,0.0
4.105,8359.358,0.00012,0.0,0.0
4.112,8374.059,0.00012,0.0,0.0
4.118,8338.471,0.00012,0.0,0.0
4.124,8368.217,0.00012,0.0,0.0
4.131,8369.447,0.00012,0.0,0.0
4.137,8348.196,0.00012,0.0,0.0
4.143,8408.3,0.00012,0.0,0.0
4.15,8394.216,0.00012,0.0,0.0
4.156,8411.733,0.00012,0.0,0.0
4.162,8427.688,0.00012,0.0,0.0
4.169,8408.651,0.00012,0.0,0.0
4.175,8462.769,0.00012,0.0,0.0
4.181,8462.566,0.00012,0.0,0.0
4.188,8472.691,0.00012,0.0,0.0
4.194,8527.699,0.00012,0.0,0.0
4.2,8555.892,0.00012,0.0,0.0
4.206,8548.79,0.00012,0.0,0.0
4.213,8596.261,0.00012,0.0,0.0
4.219,8564.553,0.00012,0.0,0.0
4.225,8642.202,0.00012,0.0,0.0
4.232,8624.191,0.00012,0.0,0.0
4.238,8644.362,0.00012,0.0,0.0
4.244,8684.565,0.00012,0.0,0.0
4.251,8709.981,0.00011,0.0,0.0
4.257,8711.337,0.00011,0.0,0.0
4.263,8814.434,0.00011,0.0,0.0
4.27,8756.43,0.00011,0.0,0.0
4.276,8886.168,0.00011,0.0,0.0
4.282,8880.615,0.00011,0.0,0.0
4.289,8871.643,0.00011,0.0,0.0
4.295,9003.454,0.00011,0.0,0.0
4.301,8934.082,0.00011,0.0,0.0
4.308,8999.592,0.00011,0.0,0.0
4.314,9059.957,0.00011,0.0,0.0
4.32,9053.429,0.00011,0.0,0.0
4.327,9168.605,0.00011,0.0,0.0
4.333,9145.459,0.00011,0.0,0.0
4.339,9190.59,0.00011,0.0,0.0
4.346,9353.781,0.00011,0.0,0.0
4.352,9242.189,0.00011,0.0,0.0
4.358,9440.166,0.00011,0.0,0.0
4.364,9480.757,0.00011,0.0,0.0
4.371,9380.885,0.00011,0.0,0.0
4.377,9766.648,0.0001,0.0,0.0
4.383,9607.757,0.0001,0.0,0.0
4.39,9773.696,0.0001,0.0,0.0
4.396,9873.93,0.0001,0.0,0.0
4.402,9804.337,0.0001,0.0,0.0
4.409,9934.018,0.0001,0.0,0.0
4.415,10113.306,0.0001,0.0,0.0
4.421,10124.742,0.0001,0.0,0.0
4.428,10440.881,0.0001,0.0,0.0
4.434,10373.844,0.0001,0.0,0.0
4.44,10446.988,0.0001,0.0,0.0
4.447,10761.844,0.00009,0.0,0.0
4.453,10656.372,0.00009,0.0,0.0
4.459,11211.81,0.00009,0.0,0.0
4.466,11294.713,0.00009,0.0,0.0
4.472,11280.292,0.00009,0.0,0.0
4.478,12102.215,0.00008,0.0,0.0
4.485,11860.354,0.00008,0.0,0.0
4.491,12488.462,0.00008,0.0,0.0
4.497,13907.822,0.00007,0.0,0.0
4.504,13406.423,0.00007,0.0,0.0
4.51,16741.811,0.00006,0.0,0.0
4.516,17679.187,0.00006,0.0,0.0
4.522,19905.404,0.00005,0.0,0.0
4.529,34666.468,0.00003,0.0,0.0
4.535,43320.635,0.00002,0.0,0.0
4.541,53845.824,0.00002,0.0,0.0
4.548,93184.278,0.00001,0.0,0.0
4.554,73330.769,0.00001,0.0,0.0
4.56,99077.047,0.00001,0.0,0.0
4.567,83826.448,0.00001,0.0,0.0
4.573,83427.103,0.00001,0.0,0.0
4.579,78026.662,0.00001,0.0,0.0
4.586,50310.597,0.00002,0.0,0.0
4.592,49721.778,0.00002,0.0,0.0
4.598,27259.734,0.00004,0.0,0.0
4.605,24026.774,0.00004,0.0,0.0
4.611,17935.371,0.00006,0.0,0.0
4.617,16394.273,0.00006,0.0,0.0
4.624,13752.302,0.00007,0.0,0.0
4.63,14015.246,0.00007,0.0,0.0
4.636,12369.869,0.00008,0.0,0.0
4.643,12371.913,0.00008,0.0,0.0
4.649,11882.19,0.00008,0.0,0.0
4.655,11409.154,0.00009,0.0,0.0
4.662,11632.949,0.00009,0.0,0.0
4.668,11075.372,0.00009,0.0,0.0
4.674,10795.972,0.00009,0.0,0.0
4.68,11021.476,0.00009,0.0,0.0
4.687,10416.147,0.0001,0.0,0.0
4.693,10560.22,0.00009,0.0,0.0
4.699,10440.186,0.0001,0.0,0.0
4.706,10089.23,0.0001,0.0,0.0
4.712,10329.41,0.0001,0.0,0.0
4.718,9987.715,0.0001,0.0,0.0
4.725,9778.155,0.0001,0.0,0.0
4.731,10069.973,0.0001,0.0,0.0
4.737,9659.426,0.0001,0.0,0.0
4.744,9729.687,0.0001,0.0,0.0
4.75,9597.192,0.0001,0.0,0.0
4.756,9448.461,0.00011,0.0,0.0
4.763,9457.59,0.00011,0.0,0.0
4.769,9314.389,0.00011,0.0,0.0
4.775,9250.552,0.00011,0.0,0.0
4.782,9255.974,0.00011,0.0,0.0
4.788,9091.159,0.00011,0.0,0.0
4.794,9031.602,0.00011,0.0,0.0
4.801,9043.306,0.00011,0.0,0.0
4.807,8863.132,0.00011,0.0,0.0
4.813,8965.496,0.00011,0.0,0.0
4.82,8837.027,0.00011,0.0,0.0
4.826,8849.366,0.00011,0.0,0.0
4.832,8873.301,0.00011,0.0,0.0
4.838,8851.823,0.00011,0.0,0.0
4.845,8867.888,0.00011,0.0,0.0
4.851,8990.484,0.00011,0.0,0.0
4.857,8989.957,0.00011,0.0,0.0
4.864,9007.198,0.00011,0.0,0.0
4.87,8893.403,0.00011,0.0,0.0
4.876,8698.368,0.00011,0.0,0.0
4.883,8654.71,0.00012,0.0,0.0
4.889,8396.295,0.00012,0.0,0.0
4.895,8377.16,0.00012,0.0,0.0
4.902,8258.647,0.00012,0.0,0.0
4.908,8175.918,0.00012,0.0,0.0
4.914,8180.324,0.00012,0.0,0.0
4.921,8079.089,0.00012,0.0,0.0
4.927,8015.563,0.00012,0.0,0.0
4.933,8032.941,0.00012,0.0,0.0
4.94,7956.337,0.00013,0.0,0.0
4.946,7949.468,0.00013,0.0,0.0
4.952,7911.102,0.00013,0.0,0.0
4.959,7835.021,0.00013,0.0,0.0
4.965,7842.782,0.00013,0.0,0.0
4.971,7741.008,0.00013,0.0,0.0
4.978,7738.286,0.00013,0.0,0.0
4.984,7746.896,0.00013,0.0,0.0
4.99,7666.05,0.00013,0.0,0.0
4.996,7648.454,0.00013,0.0,0.0
5.003,7623.066,0.00013,0.0,0.0
5.009,7567.836,0.00013,0.0,0.0
5.015,7617.799,0.00013,0.0,0.0
5.022,7534.698,0.00013,0.0,0.0
5.028,7523.103,0.00013,0.0,0.0
5.034,7517.108,0.00013,0.0,0.0
5.041,7437.233,0.00013,0.0,0.0
5.047,7421.847,0.00013,0.0,0.0
5.053,7404.963,0.00014,0.0,0.0
5.06,7324.575,0.00014,0.0,0.0
5.066,7358.455,0.00014,0.0,0.0
5.072,7308.578,0.00014,0.0,0.0
5.079,7260.297,0.00014,0.0,0.0
5.085,7285.584,0.00014,0.0,0.0
5.091,7188.735,0.00014,0.0,0.0
5.098,7231.742,0.00014,0.0,0.0
5.104,7162.68,0.00014,0.0,0.0
5.11,7163.332,0.00014,0.0,0.0
5.117,7168.25,0.00014,0.0,0.0
5.123,7112.444,0.00014,0.0,0.0
5.129,7082.966,0.00014,0.0,0.0
5.136,7104.426,0.00014,0.0,0.0
5.142,7054.212,0.00014,0.0,0.0
5.148,7055.164,0.00014,0.0,0.0
5.154,7049.101,0.00014,0.0,0.0
5.161,6983.053,0.00014,0.0,0.0
5.167,7017.922,0.00014,0.0,0.0
5.173,6946.624,0.00014,0.0,0.0
5.18,6943.947,0.00014,0.0,0.0
5.186,6943.14,0.00014,0.0,0.0
5.192,6905.577,0.00014,0.0,0.0
5.199,6890.257,0.00015,0.0,0.0
5.205,6870.539,0.00015,0.0,0.0
5.211,6852.416,0.00015,0.0,0.0
5.218,6857.554,0.00015,0.0,0.0
5.224,6813.226,0.00015,0.0,0.0
5.23,6785.195,0.00015,0.0,0.0
5.237,6822.001,0.00015,0.0,0.0
5.243,6748.035,0.00015,0.0,0.0
5.249,6756.703,0.00015,0.0,0.0
5.256,6717.438,0.00015,0.0,0.0
5.262,6692.804,0.00015,0.0,0.0
5.268,6709.033,0.00015,0.0,0.0
5.275,6682.487,0.00015,0.0,0.0
5.281,6668.005,0.00015,0.0,0.0
5.287,6667.06,0.00015,0.0,0.0
5.294,6630.645,0.00015,0.0,0.0
5.3,6658.479,0.00015,0.0,0.0
5.306,6626.236,0.00015,0.0,0.0
5.312,6590.727,0.00015,0.0,0.0
5.319,6589.43,0.00015,0.0,0.0
5.325,6572.804,0.00015,0.0,0.0
5.331,6553.727,0.00015,0.0,0.0
5.338,6575.266,0.00015,0.0,0.0
5.344,6550.446,0.00015,0.0,0.0
5.35,6531.6,0.00015,0.0,0.0
5.357,6521.457,0.00015,0.0,0.0
5.363,6499.019,0.00015,0.0,0.0
5.369,6520.479,0.00015,0.0,0.0
5.376,6494.873,0.00015,0.0,0.0
5.382,6481.806,0.00015,0.0,0.0
5.388,6480.507,0.00015,0.0,0.0
5.395,6448.764,0.00016,0.0,0.0
5.401,6457.963,0.00015,0.0,0.0
5.407,6466.585,0.00015,0.0,0.0
5.414,6423.408,0.00016,0.0,0.0
5.42,6447.553,0.00016,0.0,0.0
5.426,6400.882,0.00016,0.0,0.0
5.433,6402.11,0.00016,0.0,0.0
5.439,6402.077,0.00016,0.0,0.0
5.445,6391.456,0.00016,0.0,0.0
5.452,6411.279,0.00016,0.0,0.0
5.458,6387.469,0.00016,0.0,0.0
5.464,6401.289,0.00016,0.0,0.0
5.47,6393.768,0.00016,0.0,0.0
5.477,6355.416,0.00016,0.0,0.0
5.483,6359.286,0.00016,0.0,0.0
5.489,6351.896,0.00016,0.0,0.0
5.496,6351.744,0.00016,0.0,0.0
5.502,6363.777,0.00016,0.0,0.0
5.508,6336.755,0.00016,0.0,0.0
5.515,6326.424,0.00016,0.0,0.0
5.521,6342.969,0.00016,0.0,0.0
5.527,6314.166,0.00016,0.0,0.0
5.534,6306.345,0.00016,0.0,0.0
5.54,6290.722,0.00016,0.0,0.0
5.546,6295.479,0.00016,0.0,0.0
5.553,6294.791,0.00016,0.0,0.0
5.559,6289.68,0.00016,0.0,0.0
5.565,6280.583,0.00016,0.0,0.0
5.572,6309.094,0.00016,0.0,0.0
5.578,6292.864,0.00016,0.0,0.0
5.584,6290.346,0.00016,0.0,0.0
5.591,6270.293,0.00016,0.0,0.0
5.597,6282.445,0.00016,0.0,0.0
5.603,6286.306,0.00016,0.0,0.0
5.61,6258.803,0.00016,0.0,0.0
5.616,6278.207,0.00016,0.0,0.0
5.622,6288.84,0.00016,0.0,0.0
5.628,6266.071,0.00016,0.0,0.0
5.635,6284.517,0.00016,0.0,0.0
5.641,6257.737,0.00016,0.0,0.0
5.647,6252.059,0.00016,0.0,0.0
5.654,6273.357,0.00016,0.0,0.0
5.66,6233.372,0.00016,0.0,0.0
5.666,6266.982,0.00016,0.0,0.0
5.673,6276.043,0.00016,0.0,0.0
5.679,6248.891,0.00016,0.0,0.0
5.685,6257.341,0.00016,0.0,0.0
5.692,6240.89,0.00016,0.0,0.0
5.698,6241.673,0.00016,0.0,0.0
5.704,6252.488,0.00016,0.0,0.0
5.711,6239.69,0.00016,0.0,0.0
5.717,6239.079,0.00016,0.0,0.0
5.723,6279.033,0.00016,0.0,0.0
5.73,6241.405,0.00016,0.0,0.0
5.736,6247.744,0.00016,0.0,0.0
5.742,6260.224,0.00016,0.0,0.0
5.749,6267.451,0.00016,0.0,0.0
5.755,6278.491,0.00016,0.0,0.0
5.761,6266.948,0.00016,0.0,0.0
5.768,6276.228,0.00016,0.0,0.0
5.774,6266.297,0.00016,0.0,0.0
5.78,6287.221,0.00016,0.0,0.0
5.786,6290.506,0.00016,0.0,0.0
5.793,6295.379,0.00016,0.0,0.0
5.799,6307.999,0.00016,0.0,0.0
5.805,6322.533,0.00016,0.0,0.0
5.812,6303.13,0.00016,0.0,0.0
5.818,6353.914,0.00016,0.0,0.0
5.824,6379.899,0.00016,0.0,0.0
5.831,6400.437,0.00016,0.0,0.0
5.837,6455.335,0.00015,0.0,0.0
5.843,6522.588,0.00015,0.0,0.0
5.85,6673.952,0.00015,0.0,0.0
5.856,6826.599,0.00015,0.0,0.0
5.862,7119.935,0.00014,0.0,0.0
5.869,7444.161,0.00013,0.0,0.0
5.875,7745.973,0.00013,0.0,0.0
5.881,7958.848,0.00013,0.0,0.0
5.888,7977.665,0.00013,0.0,0.0
5.894,7765.5,0.00013,0.0,0.0
5.9,7474.281,0.00013,0.0,0.0
5.907,7125.124,0.00014,0.0,0.0
5.913,6853.206,0.00015,0.0,0.0
5.919,6632.034,0.00015,0.0,0.0
5.926,6471.068,0.00015,0.0,0.0
5.932,6390.845,0.00016,0.0,0.0
5.938,6338.957,0.00016,0.0,0.0
5.944,6270.701,0.00016,0.0,0.0
5.951,6294.931,0.00016,0.0,0.0
5.957,6244.387,0.00016,0.0,0.0
5.963,6234.766,0.00016,0.0,0.0
5.97,6202.941,0.00016,0.0,0.0
5.976,6191.992,0.00016,0.0,0.0
5.982,6200.305,0.00016,0.0,0.0
5.989,6167.534,0.00016,0.0,0.0
5.995,6148.352,0.00016,0.0,0.0
6.001,6147.8,0.00016,0.0,0.0
6.008,6147.835,0.00016,0.0,0.0
6.014,6126.315,0.00016,0.0,0.0
6.02,6167.239,0.00016,0.0,0.0
6.027,6107.026,0.00016,0.0,0.0
6.033,6129.433,0.00016,0.0,0.0
6.039,6132.657,0.00016,0.0,0.0
6.046,6098.467,0.00016,0.0,0.0
6.052,6115.079,0.00016,0.0,0.0
6.058,6086.681,0.00016,0.0,0.0
6.065,6079.477,0.00016,0.0,0.0
6.071,6078.275,0.00016,0.0,0.0
6.077,6076.081,0.00016,0.0,0.0
6.084,6073.49,0.00016,0.0,0.0
6.09,6070.238,0.00016,0.0,0.0
6.096,6030.769,0.00017,0.0,0.0
6.102,6083.39,0.00016,0.0,0.0
6.109,6065.945,0.00016,0.0,0.0
6.115,6057.744,0.00017,0.0,0.0
6.121,6072.702,0.00016,0.0,0.0
6.128,6047.905,0.00017,0.0,0.0
6.134,6067.278,0.00016,0.0,0.0
6.14,6063.771,0.00016,0.0,0.0
6.147,6064.91,0.00016,0.0,0.0
6.153,6031.24,0.00017,0.0,0.0
6.159,6084.571,0.00016,0.0,0.0
6.166,6029.47,0.00017,0.0,0.0
6.172,6073.212,0.00016,0.0,0.0
6.178,6075.125,0.00016,0.0,0.0
6.185,6061.718,0.00016,0.0,0.0
6.191,6051.238,0.00017,0.0,0.0
6.197,6101.196,0.00016,0.0,0.0
6.204,6047.494,0.00017,0.0,0.0
6.21,6082.131,0.00016,0.0,0.0
6.216,6061.04,0.00016,0.0,0.0
6.223,6100.594,0.00016,0.0,0.0
6.229,6078.314,0.00016,0.0,0.0
6.235,6077.631,0.00016,0.0,0.0
6.242,6111.777,0.00016,0.0,0.0
6.248,6104.655,0.00016,0.0,0.0
6.254,6083.463,0.00016,0.0,0.0
6.26,6087.514,0.00016,0.0,0.0
6.267,6141.076,0.00016,0.0,0.0
6.273,6110.701,0.00016,0.0,0.0
6.279,6141.326,0.00016,0.0,0.0
6.286,6125.603,0.00016,0.0,0.0
6.292,6165.642,0.00016,0.0,0.0
6.298,6155.541,0.00016,0.0,0.0
6.305,6164.827,0.00016,0.0,0.0
6.311,6189.341,0.00016,0.0,0.0
6.317,6164.4,0.00016,0.0,0.0
6.324,6232.742,0.00016,0.0,0.0
6.33,6214.936,0.00016,0.0,0.0
6.336,6214.558,0.00016,0.0,0.0
6.343,6244.682,0.00016,0.0,0.0
6.349,6295.941,0.00016,0.0,0.0
6.355,6288.761,0.00016,0.0,0.0
6.362,6319.368,0.00016,0.0,0.0
6.368,6369.335,0.00016,0.0,0.0
6.374,6371.05,0.00016,0.0,0.0
6.381,6428.929,0.00016,0.0,0.0
6.387,6523.945,0.00015,0.0,0.0
6.393,6504.906,0.00015,0.0,0.0
6.4,6709.661,0.00015,0.0,0.0
6.406,6825.633,0.00015,0.0,0.0
6.412,7165.564,0.00014,0.0,0.0
6.418,7658.738,0.00013,0.0,0.0
6.425,8821.007,0.00011,0.0,0.0
6.431,11558.322,0.00009,0.0,0.0
6.437,14304.767,0.00007,0.0,0.0
6.444,15002.161,0.00007,0.0,0.0
6.45,23043.725,0.00004,0.0,0.0
6.456,16410.386,0.00006,0.0,0.0
6.463,19224.594,0.00005,0.0,0.0
6.469,21456.415,0.00005,0.0,0.0
6.475,11489.635,0.00009,0.0,0.0
6.482,11506.22,0.00009,0.0,0.0
6.488,8757.531,0.00011,0.0,0.0
6.494,7416.255,0.00013,0.0,0.0
6.501,7475.501,0.00013,0.0,0.0
6.507,6995.05,0.00014,0.0,0.0
6.513,6878.027,0.00015,0.0,0.0
6.52,6862.859,0.00015,0.0,0.0
6.526,6834.985,0.00015,0.0,0.0
6.532,6860.054,0.00015,0.0,0.0
6.539,6983.487,0.00014,0.0,0.0
6.545,7129.297,0.00014,0.0,0.0
6.551,7333.054,0.00014,0.0,0.0
6.558,7805.869,0.00013,0.0,0.0
6.564,8367.726,0.00012,0.0,0.0
6.57,9422.044,0.00011,0.0,0.0
6.576,11768.604,0.00008,0.0,0.0
6.583,14805.404,0.00007,0.0,0.0
6.589,22816.556,0.00004,0.0,0.0
6.595,37197.49,0.00003,0.0,0.0
6.602,54867.543,0.00002,0.0,0.0
6.608,85556.512,0.00001,0.0,0.0
6.614,100866.01,0.00001,0.0,0.0
6.621,118128.829,0.00001,0.0,0.0
6.627,94447.048,0.00001,0.0,0.0
6.633,75371.148,0.00001,0.0,0.0
6.64,50522.372,0.00002,0.0,0.0
6.646,31575.031,0.00003,0.0,0.0
6.652,20003.632,0.00005,0.0,0.0
6.659,14655.402,0.00007,0.0,0.0
6.665,10788.313,0.00009,0.0,0.0
6.671,9252.165,0.00011,0.0,0.0
6.678,8117.708,0.00012,0.0,0.0
6.684,7475.09,0.00013,0.0,0.0
6.69,7120.131,0.00014,0.0,0.0
6.697,6825.671,0.00015,0.0,0.0
6.703,6642.398,0.00015,0.0,0.0
6.709,6523.732,0.00015,0.0,0.0
6.716,6406.526,0.00016,0.0,0.0
6.722,6373.621,0.00016,0.0,0.0
6.728,6314.986,0.00016,0.0,0.0
6.734,6247.721,0.00016,0.0,0.0
6.741,6257.892,0.00016,0.0,0.0
6.747,6190.68,0.00016,0.0,0.0
6.753,6165.955,0.00016,0.0,0.0
6.76,6166.116,0.00016,0.0,0.0
6.766,6171.994,0.00016,0.0,0.0
6.772,6153.465,0.00016,0.0,0.0
6.779,6124.488,0.00016,0.0,0.0
6.785,6151.162,0.00016,0.0,0.0
6.791,6111.1,0.00016,0.0,0.0
6.798,6147.645,0.00016,0.0,0.0
6.804,6135.787,0.00016,0.0,0.0
6.81,6164.014,0.00016,0.0,0.0
6.817,6171.033,0.00016,0.0,0.0
6.823,6155.441,0.00016,0.0,0.0
6.829,6114.528,0.00016,0.0,0.0
6.836,6132.874,0.00016,0.0,0.0
6.842,6071.945,0.00016,0.0,0.0
6.848,6066.885,0.00016,0.0,0.0
6.855,6056.761,0.00017,0.0,0.0
6.861,6025.297,0.00017,0.0,0.0
6.867,6051.658,0.00017,0.0,0.0
6.874,5999.994,0.00017,0.0,0.0
6.88,6018.351,0.00017,0.0,0.0
6.886,5986.067,0.00017,0.0,0.0
6.892,5973.551,0.00017,0.0,0.0
6.899,6010.957,0.00017,0.0,0.0
6.905,5983.034,0.00017,0.0,0.0
6.911,5969.983,0.00017,0.0,0.0
6.918,5971.911,0.00017,0.0,0.0
6.924,5952.651,0.00017,0.0,0.0
6.93,5980.734,0.00017,0.0,0.0
6.937,5959.142,0.00017,0.0,0.0
6.943,5976.922,0.00017,0.0,0.0
6.949,5971.127,0.00017,0.0,0.0
6.956,5968.168,0.00017,0.0,0.0
6.962,5971.847,0.00017,0.0,0.0
6.968,5969.091,0.00017,0.0,0.0
6.975,5981.569,0.00017,0.0,0.0
6.981,5954.615,0.00017,0.0,0.0
6.987,5962.508,0.00017,0.0,0.0
6.994,5972.127,0.00017,0.0,0.0
7.0,5979.426,0.00017,0.0,0.0
7.006,5951.081,0.00017,0.0,0.0
7.013,5959.831,0.00017,0.0,0.0
7.019,5947.9,0.00017,0.0,0.0
7.025,5952.435,0.00017,0.0,0.0
7.032,5953.143,0.00017,0.0,0.0
7.038,5943.932,0.00017,0.0,0.0
7.044,5923.002,0.00017,0.0,0.0
7.05,5928.147,0.00017,0.0,0.0
7.057,5930.075,0.00017,0.0,0.0
7.063,5938.078,0.00017,0.0,0.0
7.069,5953.231,0.00017,0.0,0.0
7.076,5931.895,0.00017,0.0,0.0
7.082,5921.303,0.00017,0.0,0.0
7.088,5919.827,0.00017,0.0,0.0
7.095,5913.855,0.00017,0.0,0.0
7.101,5928.87,0.00017,0.0,0.0
7.107,5902.992,0.00017,0.0,0.0
7.114,5906.103,0.00017,0.0,0.0
7.12,5904.853,0.00017,0.0,0.0
7.126,5880.437,0.00017,0.0,0.0
7.133,5871.541,0.00017,0.0,0.0
7.139,5875.705,0.00017,0.0,0.0
7.145,5853.222,0.00017,0.0,0.0
7.152,5873.187,0.00017,0.0,0.0
7.158,5865.758,0.00017,0.0,0.0
7.164,5850.129,0.00017,0.0,0.0
7.171,5835.967,0.00017,0.0,0.0
7.177,5853.811,0.00017,0.0,0.0
7.183,5838.532,0.00017,0.0,0.0
7.19,5837.942,0.00017,0.0,0.0
7.196,5830.168,0.00017,0.0,0.0
7.202,5810.944,0.00017,0.0,0.0
7.208,5790.919,0.00017,0.0,0.0
7.215,5805.793,0.00017,0.0,0.0
7.221,5783.397,0.00017,0.0,0.0
7.227,5796.047,0.00017,0.0,0.0
7.234,5779.838,0.00017,0.0,0.0
7.24,5764.862,0.00017,0.0,0.0
7.246,5767.812,0.00017,0.0,0.0
7.253,5767.103,0.00017,0.0,0.0
7.259,5769.854,0.00017,0.0,0.0
7.265,5768.932,0.00017,0.0,0.0
7.272,5780.896,0.00017,0.0,0.0
7.278,5827.845,0.00017,0.0,0.0
7.284,5817.573,0.00017,0.0,0.0
7.291,5823.133,0.00017,0.0,0.0
7.297,5811.342,0.00017,0.0,0.0
7.303,5793.126,0.00017,0.0,0.0
7.31,5812.118,0.00017,0.0,0.0
7.316,5777.251,0.00017,0.0,0.0
7.322,5746.512,0.00017,0.0,0.0
7.329,5737.887,0.00017,0.0,0.0
7.335,5725.249,0.00017,0.0,0.0
7.341,5706.529,0.00018,0.0,0.0
7.348,5700.936,0.00018,0.0,0.0
7.354,5697.191,0.00018,0.0,0.0
7.36,5694.054,0.00018,0.0,0.0
7.366,5699.021,0.00018,0.0,0.0
7.373,5675.146,0.00018,0.0,0.0
7.379,5684.54,0.00018,0.0,0.0
7.385,5701.032,0.00018,0.0,0.0
7.392,5665.954,0.00018,0.0,0.0
7.398,5697.571,0.00018,0.0,0.0
7.404,5689.117,0.00018,0.0,0.0
7.411,5703.606,0.00018,0.0,0.0
7.417,5698.701,0.00018,0.0,0.0
7.423,5694.643,0.00018,0.0,0.0
7.43,5719.818,0.00017,0.0,0.0
7.436,5709.007,0.00018,0.0,0.0
7.442,5717.155,0.00017,0.0,0.0
7.449,5723.216,0.00017,0.0,0.0
7.455,5736.5,0.00017,0.0,0.0
7.461,5739.482,0.00017,0.0,0.0
7.468,5732.549,0.00017,0.0,0.0
7.474,5732.059,0.00017,0.0,0.0
7.48,5746.787,0.00017,0.0,0.0
7.487,5757.359,0.00017,0.0,0.0
7.493,5778.657,0.00017,0.0,0.0
7.499,5771.448,0.00017,0.0,0.0
7.506,5782.036,0.00017,0.0,0.0
7.512,5820.137,0.00017,0.0,0.0
7.518,5831.772,0.00017,0.0,0.0
7.524,5852.916,0.00017,0.0,0.0
7.531,5873.149,0.00017,0.0,0.0
7.537,5906.43,0.00017,0.0,0.0
7.543,5940.316,0.00017,0.0,0.0
7.55,5984.252,0.00017,0.0,0.0
7.556,6036.203,0.00017,0.0,0.0
7.562,6136.791,0.00016,0.0,0.0
7.569,6248.367,0.00016,0.0,0.0
7.575,6398.07,0.00016,0.0,0.0
7.581,6639.421,0.00015,0.0,0.0
7.588,6983.169,0.00014,0.0,0.0
7.594,7554.884,0.00013,0.0,0.0
7.6,8716.684,0.00011,0.0,0.0
7.607,10437.217,0.0001,0.0,0.0
7.613,13910.89,0.00007,0.0,0.0
7.619,19088.421,0.00005,0.0,0.0
7.626,29126.122,0.00003,0.0,0.0
7.632,38797.991,0.00003,0.0,0.0
7.638,47374.625,0.00002,0.0,0.0
7.645,53181.927,0.00002,0.0,0.0
7.651,48773.849,0.00002,0.0,0.0
7.657,44253.885,0.00002,0.0,0.0
7.664,31079.302,0.00003,0.0,0.0
7.67,22725.056,0.00004,0.0,0.0
7.676,15108.44,0.00007,0.0,0.0
7.682,11598.345,0.00009,0.0,0.0
7.689,9192.546,0.00011,0.0,0.0
7.695,8051.647,0.00012,0.0,0.0
7.701,7334.103,0.00014,0.0,0.0
7.708,6907.003,0.00014,0.0,0.0
7.714,6662.158,0.00015,0.0,0.0
7.72,6515.436,0.00015,0.0,0.0
7.727,6454.673,0.00015,0.0,0.0
7.733,6363.309,0.00016,0.0,0.0
7.739,6325.825,0.00016,0.0,0.0
7.746,6319.043,0.00016,0.0,0.0
7.752,6300.353,0.00016,0.0,0.0
7.758,6297.19,0.00016,0.0,0.0
7.765,6313.445,0.00016,0.0,0.0
7.771,6303.105,0.00016,0.0,0.0
7.777,6322.085,0.00016,0.0,0.0
7.784,6344.627,0.00016,0.0,0.0
7.79,6340.043,0.00016,0.0,0.0
7.796,6371.589,0.00016,0.0,0.0
7.803,6409.704,0.00016,0.0,0.0
7.809,6414.106,0.00016,0.0,0.0
7.815,6481.832,0.00015,0.0,0.0
7.822,6485.343,0.00015,0.0,0.0
7.828,6564.218,0.00015,0.0,0.0
7.834,6584.214,0.00015,0.0,0.0
7.84,6635.612,0.00015,0.0,0.0
7.847,6736.046,0.00015,0.0,0.0
7.853,6787.503,0.00015,0.0,0.0
7.859,6928.444,0.00014,0.0,0.0
7.866,7075.96,0.00014,0.0,0.0
7.872,7446.287,0.00013,0.0,0.0
7.878,7994.285,0.00013,0.0,0.0
7.885,9138.377,0.00011,0.0,0.0
7.891,10654.862,0.00009,0.0,0.0
7.897,14148.47,0.00007,0.0,0.0
7.904,16329.668,0.00006,0.0,0.0
7.91,16583.489,0.00006,0.0,0.0
7.916,17735.854,0.00006,0.0,0.0
7.923,14524.851,0.00007,0.0,0.0
7.929,11637.406,0.00009,0.0,0.0
7.935,9324.992,0.00011,0.0,0.0
7.942,8567.742,0.00012,0.0,0.0
7.948,7721.338,0.00013,0.0,0.0
7.954,7354.35,0.00014,0.0,0.0
7.961,7155.048,0.00014,0.0,0.0
7.967,7004.836,0.00014,0.0,0.0
7.973,6879.065,0.00015,0.0,0.0
7.98,6885.184,0.00015,0.0,0.0
7.986,6783.918,0.00015,0.0,0.0
7.992,6762.701,0.00015,0.0,0.0
7.998,6763.559,0.00015,0.0,0.0
8.005,6700.375,0.00015,0.0,0.0
8.011,6644.989,0.00015,0.0,0.0
8.017,6692.442,0.00015,0.0,0.0
8.024,6665.664,0.00015,0.0,0.0
8.03,6643.853,0.00015,0.0,0.0
8.036,6644.085,0.00015,0.0,0.0
8.043,6616.775,0.00015,0.0,0.0
8.049,6617.487,0.00015,0.0,0.0
8.055,6572.097,0.00015,0.0,0.0
8.062,6630.798,0.00015,0.0,0.0
8.068,6599.325,0.00015,0.0,0.0
8.074,6613.711,0.00015,0.0,0.0
8.081,6588.922,0.00015,0.0,0.0
8.087,6600.529,0.00015,0.0,0.0
8.093,6610.448,0.00015,0.0,0.0
8.1,6584.627,0.00015,0.0,0.0
8.106,6584.818,0.00015,0.0,0.0
8.112,6624.72,0.00015,0.0,0.0
8.119,6661.813,0.00015,0.0,0.0
8.125,6702.022,0.00015,0.0,0.0
8.131,6795.156,0.00015,0.0,0.0
8.138,6817.961,0.00015,0.0,0.0
8.144,6864.582,0.00015,0.0,0.0
8.15,6865.271,0.00015,0.0,0.0
8.156,6834.856,0.00015,0.0,0.0
8.163,6770.138,0.00015,0.0,0.0
8.169,6688.785,0.00015,0.0,0.0
8.175,6618.839,0.00015,0.0,0.0
8.182,6560.469,0.00015,0.0,0.0
8.188,6531.206,0.00015,0.0,0.0
8.194,6510.193,0.00015,0.0,0.0
8.201,6510.486,0.00015,0.0,0.0
8.207,6472.56,0.00015,0.0,0.0
8.213,6475.258,0.00015,0.0,0.0
8.22,6434.834,0.00016,0.0,0.0
8.226,6446.045,0.00016,0.0,0.0
8.232,6418.341,0.00016,0.0,0.0
8.239,6412.947,0.00016,0.0,0.0
8.245,6419.897,0.00016,0.0,0.0
8.251,6384.983,0.00016,0.0,0.0
8.258,6387.345,0.00016,0.0,0.0
8.264,6365.706,0.00016,0.0,0.0
8.27,6380.837,0.00016,0.0,0.0
8.277,6361.852,0.00016,0.0,0.0
8.283,6351.519,0.00016,0.0,0.0
8.289,6327.652,0.00016,0.0,0.0
8.296,6334.724,0.00016,0.0,0.0
8.302,6319.305,0.00016,0.0,0.0
8.308,6316.122,0.00016,0.0,0.0
8.314,6311.595,0.00016,0.0,0.0
8.321,6307.425,0.00016,0.0,0.0
8.327,6302.921,0.00016,0.0,0.0
8.333,6321.184,0.00016,0.0,0.0
8.34,6332.46,0.00016,0.0,0.0
8.346,6350.956,0.00016,0.0,0.0
8.352,6375.782,0.00016,0.0,0.0
8.359,6424.639,0.00016,0.0,0.0
8.365,6473.799,0.00015,0.0,0.0
8.371,6491.993,0.00015,0.0,0.0
8.378,6521.452,0.00015,0.0,0.0
8.384,6517.113,0.00015,0.0,0.0
8.39,6493.597,0.00015,0.0,0.0
8.397,6457.689,0.00015,0.0,0.0
8.403,6389.044,0.00016,0.0,0.0
8.409,6331.617,0.00016,0.0,0.0
8.416,6280.598,0.00016,0.0,0.0
8.422,6242.046,0.00016,0.0,0.0
8.428,6240.622,0.00016,0.0,0.0
8.435,6208.933,0.00016,0.0,0.0
8.441,6195.782,0.00016,0.0,0.0
8.447,6184.413,0.00016,0.0,0.0
8.454,6179.929,0.00016,0.0,0.0
8.46,6174.834,0.00016,0.0,0.0
8.466,6172.075,0.00016,0.0,0.0
8.472,6164.253,0.00016,0.0,0.0
8.479,6163.108,0.00016,0.0,0.0
8.485,6180.047,0.00016,0.0,0.0
8.491,6159.536,0.00016,0.0,0.0
8.498,6181.698,0.00016,0.0,0.0
8.504,6179.997,0.00016,0.0,0.0
8.51,6172.949,0.00016,0.0,0.0
8.517,6153.07,0.00016,0.0,0.0
8.523,6143.207,0.00016,0.0,0.0
8.529,6129.15,0.00016,0.0,0.0
8.536,6125.253,0.00016,0.0,0.0
8.542,6110.765,0.00016,0.0,0.0
8.548,6107.492,0.00016,0.0,0.0
8.555,6101.19,0.00016,0.0,0.0
8.561,6103.898,0.00016,0.0,0.0
8.567,6104.081,0.00016,0.0,0.0
8.574,6108.875,0.00016,0.0,0.0
8.58,6098.527,0.00016,0.0,0.0
8.586,6097.393,0.00016,0.0,0.0
8.593,6083.568,0.00016,0.0,0.0
8.599,6086.119,0.00016,0.0,0.0
8.605,6075.011,0.00016,0.0,0.0
8.612,6075.475,0.00016,0.0,0.0
8.618,6073.196,0.00016,0.0,0.0
8.624,6073.098,0.00016,0.0,0.0
8.63,6079.715,0.00016,0.0,0.0
8.637,6075.32,0.00016,0.0,0.0
8.643,6063.378,0.00016,0.0,0.0
8.649,6059.055,0.00017,0.0,0.0
8.656,6048.562,0.00017,0.0,0.0
8.662,6055.583,0.00017,0.0,0.0
8.668,6058.362,0.00017,0.0,0.0
8.675,6056.052,0.00017,0.0,0.0
8.681,6062.684,0.00016,0.0,0.0
8.687,6063.352,0.00016,0.0,0.0
8.694,6062.166,0.00016,0.0,0.0
8.7,6075.142,0.00016,0.0,0.0
8.706,6064.993,0.00016,0.0,0.0
8.713,6053.479,0.00017,0.0,0.0
8.719,6062.182,0.00016,0.0,0.0
8.725,6075.662,0.00016,0.0,0.0
8.732,6070.568,0.00016,0.0,0.0
8.738,6054.225,0.00017,0.0,0.0
8.744,6066.133,0.00016,0.0,0.0
8.751,6050.744,0.00017,0.0,0.0
8.757,6061.055,0.00016,0.0,0.0
8.763,6060.431,0.00017,0.0,0.0
8.77,6057.142,0.00017,0.0,0.0
8.776,6074.034,0.00016,0.0,0.0
8.782,6058.615,0.00017,0.0,0.0
8.788,6061.452,0.00016,0.0,0.0
8.795,6061.824,0.00016,0.0,0.0
8.801,6061.678,0.00016,0.0,0.0
8.807,6079.959,0.00016,0.0,0.0
8.814,6055.925,0.00017,0.0,0.0
8.82,6056.858,0.00017,0.0,0.0
8.826,6057.948,0.00017,0.0,0.0
8.833,6054.581,0.00017,0.0,0.0
8.839,6066.977,0.00016,0.0,0.0
8.845,6074.248,0.00016,0.0,0.0
8.852,6060.183,0.00017,0.0,0.0
8.858,6063.601,0.00016,0.0,0.0
8.864,6066.823,0.00016,0.0,0.0
8.871,6081.151,0.00016,0.0,0.0
8.877,6072.188,0.00016,0.0,0.0
8.883,6078.564,0.00016,0.0,0.0
8.89,6089.515,0.00016,0.0,0.0
8.896,6086.106,0.00016,0.0,0.0
8.902,6083.37,0.00016,0.0,0.0
8.909,6097.295,0.00016,0.0,0.0
8.915,6079.679,0.00016,0.0,0.0
8.921,6108.787,0.00016,0.0,0.0
8.928,6126.251,0.00016,0.0,0.0
8.934,6087.017,0.00016,0.0,0.0
8.94,6142.802,0.00016,0.0,0.0
8.946,6113.808,0.00016,0.0,0.0
8.953,6133.449,0.00016,0.0,0.0
8.959,6134.466,0.00016,0.0,0.0
8.965,6120.229,0.00016,0.0,0.0
8.972,6165.579,0.00016,0.0,0.0
8.978,6143.06,0.00016,0.0,0.0
8.984,6143.752,0.00016,0.0,0.0
8.991,6178.494,0.00016,0.0,0.0
8.997,6173.996,0.00016,0.0,0.0
9.003,6187.484,0.00016,0.0,0.0
9.01,6195.973,0.00016,0.0,0.0
9.016,6166.453,0.00016,0.0,0.0
9.022,6228.379,0.00016,0.0,0.0
9.029,6186.945,0.00016,0.0,0.0
9.035,6220.749,0.00016,0.0,0.0
9.041,6234.542,0.00016,0.0,0.0
9.048,6221.493,0.00016,0.0,0.0
9.054,6296.371,0.00016,0.0,0.0
9.06,6277.697,0.00016,0.0,0.0
9.067,6272.489,0.00016,0.0,0.0
9.073,6361.132,0.00016,0.0,0.0
9.079,6336.498,0.00016,0.0,0.0
9.086,6393.289,0.00016,0.0,0.0
9.092,6481.937,0.00015,0.0,0.0
9.098,6491.292,0.00015,0.0,0.0
9.104,6813.315,0.00015,0.0,0.0
9.111,6918.144,0.00014,0.0,0.0
9.117,7912.096,0.00013,0.0,0.0
9.123,7981.835,0.00013,0.0,0.0
9.13,9886.968,0.0001,0.0,0.0
9.136,9828.505,0.0001,0.0,0.0
9.142,10928.698,0.00009,0.0,0.0
9.149,13107.528,0.00008,0.0,0.0
9.155,9199.061,0.00011,0.0,0.0
9.161,7725.689,0.00013,0.0,0.0
9.168,9414.491,0.00011,0.0,0.0
9.174,6732.65,0.00015,0.0,0.0
9.18,6720.393,0.00015,0.0,0.0
9.187,6655.917,0.00015,0.0,0.0
9.193,6376.799,0.00016,0.0,0.0
9.199,6404.953,0.00016,0.0,0.0
9.206,6321.03,0.00016,0.0,0.0
9.212,6263.918,0.00016,0.0,0.0
9.218,6295.843,0.00016,0.0,0.0
9.225,6241.109,0.00016,0.0,0.0
9.231,6200.435,0.00016,0.0,0.0
9.237,6225.711,0.00016,0.0,0.0
9.244,6182.158,0.00016,0.0,0.0
9.25,6159.53,0.00016,0.0,0.0
9.256,6140.531,0.00016,0.0,0.0
9.262,6094.886,0.00016,0.0,0.0
9.269,6144.235,0.00016,0.0,0.0
9.275,6099.966,0.00016,0.0,0.0
9.281,6090.912,0.00016,0.0,0.0
9.288,6074.563,0.00016,0.0,0.0
9.294,6043.826,0.00017,0.0,0.0
9.3,6035.865,0.00017,0.0,0.0
9.307,6017.39,0.00017,0.0,0.0
9.313,5992.823,0.00017,0.0,0.0
9.319,5992.493,0.00017,0.0,0.0
9.326,5970.724,0.00017,0.0,0.0
9.332,5949.144,0.00017,0.0,0.0
9.338,5957.91,0.00017,0.0,0.0
9.345,5911.943,0.00017,0.0,0.0
9.351,5924.989,0.00017,0.0,0.0
9.357,5898.506,0.00017,0.0,0.0
9.364,5877.835,0.00017,0.0,0.0
9.37,5888.593,0.00017,0.0,0.0
9.376,5858.527,0.00017,0.0,0.0
9.383,5849.903,0.00017,0.0,0.0
9.389,5828.55,0.00017,0.0,0.0
9.395,5800.306,0.00017,0.0,0.0
9.402,5800.782,0.00017,0.0,0.0
9.408,5797.989,0.00017,0.0,0.0
9.414,5783.472,0.00017,0.0,0.0
9.42,5778.618,0.00017,0.0,0.0
9.427,5765.979,0.00017,0.0,0.0
9.433,5764.001,0.00017,0.0,0.0
9.439,5750.424,0.00017,0.0,0.0
9.446,5730.088,0.00017,0.0,0.0
9.452,5742.666,0.00017,0.0,0.0
9.458,5751.907,0.00017,0.0,0.0
9.465,5749.212,0.00017,0.0,0.0
9.471,5763.263,0.00017,0.0,0.0
9.477,5755.254,0.00017,0.0,0.0
9.484,5768.026,0.00017,0.0,0.0
9.49,5771.463,0.00017,0.0,0.0
9.496,5778.844,0.00017,0.0,0.0
9.503,5736.395,0.00017,0.0,0.0
9.509,5721.228,0.00017,0.0,0.0
9.515,5706.582,0.00018,0.0,0.0
9.522,5692.768,0.00018,0.0,0.0
9.528,5651.157,0.00018,0.0,0.0
9.534,5634.287,0.00018,0.0,0.0
9.541,5612.432,0.00018,0.0,0.0
9.547,5607.1,0.00018,0.0,0.0
9.553,5587.635,0.00018,0.0,0.0
9.56,5567.832,0.00018,0.0,0.0
9.566,5563.602,0.00018,0.0,0.0
9.572,5560.252,0.00018,0.0,0.0
9.578,5548.105,0.00018,0.0,0.0
9.585,5549.125,0.00018,0.0,0.0
9.591,5552.957,0.00018,0.0,0.0
9.597,5526.293,0.00018,0.0,0.0
9.604,5532.809,0.00018,0.0,0.0
9.61,5516.711,0.00018,0.0,0.0
9.616,5495.498,0.00018,0.0,0.0
9.623,5522.872,0.00018,0.0,0.0
9.629,5502.798,0.00018,0.0,0.0
9.635,5501.505,0.00018,0.0,0.0
9.642,5496.521,0.00018,0.0,0.0
9.648,5482.555,0.00018,0.0,0.0
9.654,5494.658,0.00018,0.0,0.0
9.661,5468.543,0.00018,0.0,0.0
9.667,5483.557,0.00018,0.0,0.0
9.673,5460.633,0.00018,0.0,0.0
9.68,5479.678,0.00018,0.0,0.0
9.686,5469.634,0.00018,0.0,0.0
9.692,5462.586,0.00018,0.0,0.0
9.699,5456.158,0.00018,0.0,0.0
9.705,5470.225,0.00018,0.0,0.0
9.711,5441.106,0.00018,0.0,0.0
9.718,5449.656,0.00018,0.0,0.0
9.724,5438.899,0.00018,0.0,0.0
9.73,5435.361,0.00018,0.0,0.0
9.736,5442.073,0.00018,0.0,0.0
9.743,5446.264,0.00018,0.0,0.0
9.749,5453.949,0.00018,0.0,0.0
9.755,5449.589,0.00018,0.0,0.0
9.762,5431.493,0.00018,0.0,0.0
9.768,5443.199,0.00018,0.0,0.0
9.774,5426.438,0.00018,0.0,0.0
9.781,5409.084,0.00018,0.0,0.0
9.787,5456.154,0.00018,0.0,0.0
9.793,5431.099,0.00018,0.0,0.0
9.8,5445.601,0.00018,0.0,0.0
9.806,5428.732,0.00018,0.0,0.0
9.812,5424.876,0.00018,0.0,0.0
9.819,5435.22,0.00018,0.0,0.0
9.825,5411.517,0.00018,0.0,0.0
9.831,5428.926,0.00018,0.0,0.0
9.838,5431.261,0.00018,0.0,0.0
9.844,5428.953,0.00018,0.0,0.0
9.85,5438.191,0.00018,0.0,0.0
9.857,5415.059,0.00018,0.0,0.0
9.863,5400.961,0.00019,0.0,0.0
9.869,5449.035,0.00018,0.0,0.0
9.876,5409.236,0.00018,0.0,0.0
9.882,5417.673,0.00018,0.0,0.0
9.888,5414.754,0.00018,0.0,0.0
9.894,5405.507,0.00018,0.0,0.0
9.901,5429.624,0.00018,0.0,0.0
9.907,5420.635,0.00018,0.0,0.0
9.913,5414.612,0.00018,0.0,0.0
9.92,5411.631,0.00018,0.0,0.0
9.926,5414.773,0.00018,0.0,0.0
9.932,5463.86,0.00018,0.0,0.0
9.939,5417.167,0.00018,0.0,0.0
9.945,5408.049,0.00018,0.0,0.0
9.951,5456.922,0.00018,0.0,0.0
9.958,5431.979,0.00018,0.0,0.0
9.964,5444.501,0.00018,0.0,0.0
9.97,5447.435,0.00018,0.0,0.0
9.977,5438.006,0.00018,0.0,0.0
9.983,5466.552,0.00018,0.0,0.0
9.989,5446.238,0.00018,0.0,0.0
9.996,5457.1,0.00018,0.0,0.0
10.002,5470.97,0.00018,0.0,0.0
10.008,5435.33,0.00018,0.0,0.0
10.015,5487.208,0.00018,0.0,0.0
10.021,5478.656,0.00018,0.0,0.0
10.027,5471.798,0.00018,0.0,0.0
10.034,5488.756,0.00018,0.0,0.0
10.04,5495.532,0.00018,0.0,0.0
10.046,5506.633,0.00018,0.0,0.0
10.052,5502.766,0.00018,0.0,0.0
10.059,5478.289,0.00018,0.0,0.0
10.065,5537.588,0.00018,0.0,0.0
10.071,5550.47,0.00018,0.0,0.0
10.078,5551.488,0.00018,0.0,0.0
10.084,5564.974,0.00018,0.0,0.0
10.09,5534.645,0.00018,0.0,0.0
10.097,5592.206,0.00018,0.0,0.0
10.103,5531.535,0.00018,0.0,0.0
10.109,5605.303,0.00018,0.0,0.0
10.116,5624.85,0.00018,0.0,0.0
10.122,5617.051,0.00018,0.0,0.0
10.128,5671.559,0.00018,0.0,0.0
10.135,5670.332,0.00018,0.0,0.0
10.141,5706.271,0.00018,0.0,0.0
10.147,5738.246,0.00017,0.0,0.0
10.154,5769.581,0.00017,0.0,0.0
10.16,5855.411,0.00017,0.0,0.0
10.166,6144.866,0.00016,0.0,0.0
10.173,6228.613,0.00016,0.0,0.0
10.179,6869.306,0.00015,0.0,0.0
10.185,8570.596,0.00012,0.0,0.0
10.192,9084.519,0.00011,0.0,0.0
10.198,10293.621,0.0001,0.0,0.0
10.204,14090.501,0.00007,0.0,0.0
10.21,14569.128,0.00007,0.0,0.0
10.217,19334.773,0.00005,0.0,0.0
10.223,14469.92,0.00007,0.0,0.0
10.229,12452.023,0.00008,0.0,0.0
10.236,15701.68,0.00006,0.0,0.0
10.242,8342.281,0.00012,0.0,0.0
10.248,9182.771,0.00011,0.0,0.0
10.255,6962.919,0.00014,0.0,0.0
10.261,6317.673,0.00016,0.0,0.0
10.267,6283.47,0.00016,0.0,0.0
10.274,5750.124,0.00017,0.0,0.0
10.28,5845.06,0.00017,0.0,0.0
10.286,5630.582,0.00018,0.0,0.0
10.293,5651.34,0.00018,0.0,0.0
10.299,5593.908,0.00018,0.0,0.0
10.305,5546.432,0.00018,0.0,0.0
10.312,5565.7,0.00018,0.0,0.0
10.318,5513.556,0.00018,0.0,0.0
10.324,5516.194,0.00018,0.0,0.0
10.331,5435.92,0.00018,0.0,0.0
10.337,5419.322,0.00018,0.0,0.0
10.343,5464.121,0.00018,0.0,0.0
10.35,5434.2,0.00018,0.0,0.0
10.356,5422.035,0.00018,0.0,0.0
10.362,5406.671,0.00018,0.0,0.0
10.368,5358.757,0.00019,0.0,0.0
10.375,5407.808,0.00018,0.0,0.0
10.381,5330.749,0.00019,0.0,0.0
10.387,5324.696,0.00019,0.0,0.0
10.394,5344.434,0.00019,0.0,0.0
10.4,5295.433,0.00019,0.0,0.0
10.406,5339.265,0.00019,0.0,0.0
10.413,5273.784,0.00019,0.0,0.0
10.419,5260.898,0.00019,0.0,0.0
10.425,5299.389,0.00019,0.0,0.0
10.432,5266.591,0.00019,0.0,0.0
10.438,5276.678,0.00019,0.0,0.0
10.444,5276.308,0.00019,0.0,0.0
10.451,5240.455,0.00019,0.0,0.0
10.457,5277.323,0.00019,0.0,0.0
10.463,5227.832,0.00019,0.0,0.0
10.47,5221.307,0.00019,0.0,0.0
10.476,5234.297,0.00019,0.0,0.0
10.482,5198.338,0.00019,0.0,0.0
10.489,5238.573,0.00019,0.0,0.0
10.495,5192.382,0.00019,0.0,0.0
10.501,5195.321,0.00019,0.0,0.0
10.508,5213.926,0.00019,0.0,0.0
10.514,5184.921,0.00019,0.0,0.0
10.52,5200.628,0.00019,0.0,0.0
10.526,5174.78,0.00019,0.0,0.0
10.533,5168.092,0.00019,0.0,0.0
10.539,5190.485,0.00019,0.0,0.0
10.545,5170.658,0.00019,0.0,0.0
10.552,5177.766,0.00019,0.0,0.0
10.558,5158.208,0.00019,0.0,0.0
10.564,5150.203,0.00019,0.0,0.0
10.571,5188.754,0.00019,0.0,0.0
10.577,5145.807,0.00019,0.0,0.0
10.583,5155.587,0.00019,0.0,0.0
10.59,5162.549,0.00019,0.0,0.0
10.596,5156.245,0.00019,0.0,0.0
10.602,5166.788,0.00019,0.0,0.0
10.609,5151.787,0.00019,0.0,0.0
10.615,5143.7,0.00019,0.0,0.0
10.621,5161.13,0.00019,0.0,0.0
10.628,5137.087,0.00019,0.0,0.0
10.634,5155.633,0.00019,0.0,0.0
10.64,5141.382,0.00019,0.0,0.0
10.647,5142.511,0.00019,0.0,0.0
10.653,5164.092,0.00019,0.0,0.0
10.659,5140.977,0.00019,0.0,0.0
10.666,5143.123,0.00019,0.0,0.0
10.672,5139.35,0.00019,0.0,0.0
10.678,5144.668,0.00019,0.0,0.0
10.684,5174.539,0.00019,0.0,0.0
10.691,5157.29,0.00019,0.0,0.0
10.697,5162.454,0.00019,0.0,0.0
10.703,5198.076,0.00019,0.0,0.0
10.71,5184.251,0.00019,0.0,0.0
10.716,5201.187,0.00019,0.0,0.0
10.722,5211.173,0.00019,0.0,0.0
10.729,5248.162,0.00019,0.0,0.0
10.735,5291.918,0.00019,0.0,0.0
10.741,5309.418,0.00019,0.0,0.0
10.748,5377.35,0.00019,0.0,0.0
10.754,5454.491,0.00018,0.0,0.0
10.76,5580.632,0.00018,0.0,0.0
10.767,5808.781,0.00017,0.0,0.0
10.773,6106.84,0.00016,0.0,0.0
10.779,6835.432,0.00015,0.0,0.0
10.786,7946.061,0.00013,0.0,0.0
10.792,9952.139,0.0001,0.0,0.0
10.798,14629.881,0.00007,0.0,0.0
10.805,17059.197,0.00006,0.0,0.0
10.811,26127.51,0.00004,0.0,0.0
10.817,30228.803,0.00003,0.0,0.0
10.824,32459.846,0.00003,0.0,0.0
10.83,31479.975,0.00003,0.0,0.0
10.836,26100.655,0.00004,0.0,0.0
10.842,18593.737,0.00005,0.0,0.0
10.849,14225.148,0.00007,0.0,0.0
10.855,9659.894,0.0001,0.0,0.0
10.861,8013.334,0.00012,0.0,0.0
10.868,6843.216,0.00015,0.0,0.0
10.874,6100.56,0.00016,0.0,0.0
10.88,5793.952,0.00017,0.0,0.0
10.887,5550.51,0.00018,0.0,0.0
10.893,5424.154,0.00018,0.0,0.0
10.899,5324.161,0.00019,0.0,0.0
10.906,5268.317,0.00019,0.0,0.0
10.912,5214.814,0.00019,0.0,0.0
10.918,5193.488,0.00019,0.0,0.0
10.925,5172.785,0.00019,0.0,0.0
10.931,5170.248,0.00019,0.0,0.0
10.937,5143.496,0.00019,0.0,0.0
10.944,5132.647,0.00019,0.0,0.0
10.95,5132.273,0.00019,0.0,0.0
10.956,5092.507,0.0002,0.0,0.0
10.963,5103.718,0.0002,0.0,0.0
10.969,5068.958,0.0002,0.0,0.0
10.975,5047.174,0.0002,0.0,0.0
10.982,5047.55,0.0002,0.0,0.0
10.988,5036.195,0.0002,0.0,0.0
10.994,5007.217,0.0002,0.0,0.0
11.0,4983.524,0.0002,0.0,0.0
11.007,4981.351,0.0002,0.0,0.0
11.013,4975.208,0.0002,0.0,0.0
11.019,4971.212,0.0002,0.0,0.0
11.026,4961.698,0.0002,0.0,0.0
11.032,4943.016,0.0002,0.0,0.0
11.038,4933.429,0.0002,0.0,0.0
11.045,4928.653,0.0002,0.0,0.0
11.051,4934.249,0.0002,0.0,0.0
11.057,4920.537,0.0002,0.0,0.0
11.064,4913.34,0.0002,0.0,0.0
11.07,4898.69,0.0002,0.0,0.0
11.076,4912.109,0.0002,0.0,0.0
11.083,4897.687,0.0002,0.0,0.0
11.089,4901.289,0.0002,0.0,0.0
11.095,4900.1,0.0002,0.0,0.0
11.102,4892.743,0.0002,0.0,0.0
11.108,4896.063,0.0002,0.0,0.0
11.114,4867.937,0.00021,0.0,0.0
11.121,4872.085,0.00021,0.0,0.0
11.127,4867.404,0.00021,0.0,0.0
11.133,4877.071,0.00021,0.0,0.0
11.14,4862.354,0.00021,0.0,0.0
11.146,4870.978,0.00021,0.0,0.0
11.152,4848.225,0.00021,0.0,0.0
11.158,4848.759,0.00021,0.0,0.0
11.165,4861.981,0.00021,0.0,0.0
11.171,4866.611,0.00021,0.0,0.0
11.177,4856.197,0.00021,0.0,0.0
11.184,4868.926,0.00021,0.0,0.0
11.19,4866.212,0.00021,0.0,0.0
11.196,4863.005,0.00021,0.0,0.0
11.203,4878.823,0.0002,0.0,0.0
11.209,4897.425,0.0002,0.0,0.0
11.215,4856.872,0.00021,0.0,0.0
11.222,4934.73,0.0002,0.0,0.0
11.228,4841.181,0.00021,0.0,0.0
11.234,4855.826,0.00021,0.0,0.0
11.241,4817.21,0.00021,0.0,0.0
11.247,4798.527,0.00021,0.0,0.0
11.253,4805.578,0.00021,0.0,0.0
11.26,4800.809,0.00021,0.0,0.0
11.266,4777.923,0.00021,0.0,0.0
11.272,4797.674,0.00021,0.0,0.0
11.279,4798.816,0.00021,0.0,0.0
11.285,4782.621,0.00021,0.0,0.0
11.291,4785.731,0.00021,0.0,0.0
11.298,4771.038,0.00021,0.0,0.0
11.304,4777.11,0.00021,0.0,0.0
11.31,4784.566,0.00021,0.0,0.0
11.316,4785.265,0.00021,0.0,0.0
11.323,4776.779,0.00021,0.0,0.0
11.329,4770.836,0.00021,0.0,0.0
11.335,4779.234,0.00021,0.0,0.0
11.342,4772.264,0.00021,0.0,0.0
11.348,4773.589,0.00021,0.0,0.0
11.354,4765.736,0.00021,0.0,0.0
11.361,4767.324,0.00021,0.0,0.0
11.367,4758.269,0.00021,0.0,0.0
11.373,4763.315,0.00021,0.0,0.0
11.38,4751.111,0.00021,0.0,0.0
11.386,4758.644,0.00021,0.0,0.0
11.392,4743.468,0.00021,0.0,0.0
11.399,4771.746,0.00021,0.0,0.0
11.405,4741.453,0.00021,0.0,0.0
11.411,4748.901,0.00021,0.0,0.0
11.418,4750.88,0.00021,0.0,0.0
11.424,4749.709,0.00021,0.0,0.0
11.43,4743.034,0.00021,0.0,0.0
11.437,4738.456,0.00021,0.0,0.0
11.443,4748.188,0.00021,0.0,0.0
11.449,4736.395,0.00021,0.0,0.0
11.456,4742.105,0.00021,0.0,0.0
11.462,4731.768,0.00021,0.0,0.0
11.468,4735.698,0.00021,0.0,0.0
11.474,4736.581,0.00021,0.0,0.0
11.481,4758.112,0.00021,0.0,0.0
11.487,4760.473,0.00021,0.0,0.0
11.493,4747.242,0.00021,0.0,0.0
11.5,4752.029,0.00021,0.0,0.0
11.506,4770.299,0.00021,0.0,0.0
11.512,4778.694,0.00021,0.0,0.0
11.519,4791.967,0.00021,0.0,0.0
11.525,4796.037,0.00021,0.0,0.0
11.531,4795.956,0.00021,0.0,0.0
11.538,4811.1,0.00021,0.0,0.0
11.544,4799.705,0.00021,0.0,0.0
11.55,4785.832,0.00021,0.0,0.0
11.557,4776.277,0.00021,0.0,0.0
11.563,4750.36,0.00021,0.0,0.0
11.569,4753.659,0.00021,0.0,0.0
11.576,4738.556,0.00021,0.0,0.0
11.582,4740.961,0.00021,0.0,0.0
11.588,4721.573,0.00021,0.0,0.0
11.595,4731.915,0.00021,0.0,0.0
11.601,4737.297,0.00021,0.0,0.0
11.607,4735.597,0.00021,0.0,0.0
11.614,4722.798,0.00021,0.0,0.0
11.62,4724.18,0.00021,0.0,0.0
11.626,4713.338,0.00021,0.0,0.0
11.632,4721.187,0.00021,0.0,0.0
11.639,4717.96,0.00021,0.0,0.0
11.645,4720.329,0.00021,0.0,0.0
11.651,4728.908,0.00021,0.0,0.0
11.658,4715.986,0.00021,0.0,0.0
11.664,4710.302,0.00021,0.0,0.0
11.67,4723.258,0.00021,0.0,0.0
11.677,4713.357,0.00021,0.0,0.0
11.683,4719.134,0.00021,0.0,0.0
11.689,4705.606,0.00021,0.0,0.0
11.696,4715.522,0.00021,0.0,0.0
11.702,4714.532,0.00021,0.0,0.0
11.708,4716.398,0.00021,0.0,0.0
11.715,4711.38,0.00021,0.0,0.0
11.721,4703.664,0.00021,0.0,0.0
11.727,4730.306,0.00021,0.0,0.0
11.734,4707.035,0.00021,0.0,0.0
11.74,4711.877,0.00021,0.0,0.0
11.746,4707.007,0.00021,0.0,0.0
11.753,4713.62,0.00021,0.0,0.0
11.759,4692.978,0.00021,0.0,0.0
11.765,4717.364,0.00021,0.0,0.0
11.772,4707.55,0.00021,0.0,0.0
11.778,4712.545,0.00021,0.0,0.0
11.784,4698.117,0.00021,0.0,0.0
11.79,4705.666,0.00021,0.0,0.0
11.797,4713.748,0.00021,0.0,0.0
11.803,4708.913,0.00021,0.0,0.0
11.809,4708.049,0.00021,0.0,0.0
11.816,4705.191,0.00021,0.0,0.0
11.822,4697.077,0.00021,0.0,0.0
11.828,4696.406,0.00021,0.0,0.0
11.835,4701.289,0.00021,0.0,0.0
11.841,4694.8,0.00021,0.0,0.0
11.847,4681.743,0.00021,0.0,0.0
11.854,4684.419,0.00021,0.0,0.0
11.86,4677.252,0.00021,0.0,0.0
11.866,4690.315,0.00021,0.0,0.0
11.873,4680.445,0.00021,0.0,0.0
11.879,4687.073,0.00021,0.0,0.0
11.885,4669.389,0.00021,0.0,0.0
11.892,4692.539,0.00021,0.0,0.0
11.898,4700.846,0.00021,0.0,0.0
11.904,4681.253,0.00021,0.0,0.0
11.911,4673.263,0.00021,0.0,0.0
11.917,4674.479,0.00021,0.0,0.0
11.923,4681.14,0.00021,0.0,0.0
11.93,4681.716,0.00021,0.0,0.0
11.936,4687.936,0.00021,0.0,0.0
11.942,4681.512,0.00021,0.0,0.0
11.948,4693.389,0.00021,0.0,0.0
11.955,4682.93,0.00021,0.0,0.0
11.961,4690.109,0.00021,0.0,0.0
11.967,4692.171,0.00021,0.0,0.0
11.974,4684.208,0.00021,0.0,0.0
11.98,4699.893,0.00021,0.0,0.0
11.986,4696.323,0.00021,0.0,0.0
11.993,4690.182,0.00021,0.0,0.0
11.999,4710.775,0.00021,0.0,0.0
12.005,4701.274,0.00021,0.0,0.0
12.012,4721.717,0.00021,0.0,0.0
12.018,4702.213,0.00021,0.0,0.0
12.024,4727.114,0.00021,0.0,0.0
12.031,4718.67,0.00021,0.0,0.0
12.037,4793.693,0.00021,0.0,0.0
12.043,4744.954,0.00021,0.0,0.0
12.05,4942.691,0.0002,0.0,0.0
12.056,4828.174,0.00021,0.0,0.0
12.062,4862.699,0.00021,0.0,0.0
12.069,5728.926,0.00017,0.0,0.0
12.075,5149.241,0.00019,0.0,0.0
12.081,8599.655,0.00012,0.0,0.0
12.088,6196.382,0.00016,0.0,0.0
12.094,6978.633,0.00014,0.0,0.0
12.1,10740.54,0.00009,0.0,0.0
12.106,6484.514,0.00015,0.0,0.0
12.113,7706.959,0.00013,0.0,0.0
12.119,5532.765,0.00018,0.0,0.0
12.125,5276.965,0.00019,0.0,0.0
12.132,5273.062,0.00019,0.0,0.0
12.138,4891.666,0.0002,0.0,0.0
12.144,4825.088,0.00021,0.0,0.0
12.151,4807.082,0.00021,0.0,0.0
12.157,4725.666,0.00021,0.0,0.0
12.163,4726.645,0.00021,0.0,0.0
12.17,4685.334,0.00021,0.0,0.0
12.176,4664.59,0.00021,0.0,0.0
12.182,4683.518,0.00021,0.0,0.0
12.189,4663.205,0.00021,0.0,0.0
12.195,4658.653,0.00021,0.0,0.0
12.201,4643.022,0.00022,0.0,0.0
12.208,4608.633,0.00022,0.0,0.0
12.214,4622.45,0.00022,0.0,0.0
12.22,4605.285,0.00022,0.0,0.0
12.227,4601.07,0.00022,0.0,0.0
12.233,4581.362,0.00022,0.0,0.0
12.239,4582.373,0.00022,0.0,0.0
12.246,4576.734,0.00022,0.0,0.0
12.252,4566.39,0.00022,0.0,0.0
12.258,4550.298,0.00022,0.0,0.0
12.264,4570.447,0.00022,0.0,0.0
12.271,4559.201,0.00022,0.0,0.0
12.277,4555.912,0.00022,0.0,0.0
12.283,4546.764,0.00022,0.0,0.0
12.29,4523.35,0.00022,0.0,0.0
12.296,4534.574,0.00022,0.0,0.0
12.302,4528.236,0.00022,0.0,0.0
12.309,4514.226,0.00022,0.0,0.0
12.315,4521.513,0.00022,0.0,0.0
12.321,4529.698,0.00022,0.0,0.0
12.328,4526.813,0.00022,0.0,0.0
12.334,4508.893,0.00022,0.0,0.0
12.34,4509.868,0.00022,0.0,0.0
12.347,4501.263,0.00022,0.0,0.0
12.353,4504.879,0.00022,0.0,0.0
12.359,4492.988,0.00022,0.0,0.0
12.366,4488.579,0.00022,0.0,0.0
12.372,4490.532,0.00022,0.0,0.0
12.378,4501.25,0.00022,0.0,0.0
12.385,4489.239,0.00022,0.0,0.0
12.391,4483.36,0.00022,0.0,0.0
12.397,4491.719,0.00022,0.0,0.0
12.404,4486.577,0.00022,0.0,0.0
12.41,4474.448,0.00022,0.0,0.0
12.416,4491.282,0.00022,0.0,0.0
12.422,4467.763,0.00022,0.0,0.0
12.429,4477.494,0.00022,0.0,0.0
12.435,4466.523,0.00022,0.0,0.0
12.441,4470.432,0.00022,0.0,0.0
12.448,4469.779,0.00022,0.0,0.0
12.454,4449.25,0.00022,0.0,0.0
12.46,4473.387,0.00022,0.0,0.0
12.467,4472.865,0.00022,0.0,0.0
12.473,4464.59,0.00022,0.0,0.0
12.479,4471.234,0.00022,0.0,0.0
12.486,4473.897,0.00022,0.0,0.0
12.492,4470.263,0.00022,0.0,0.0
12.498,4489.074,0.00022,0.0,0.0
12.505,4486.953,0.00022,0.0,0.0
12.511,4487.827,0.00022,0.0,0.0
12.517,4490.954,0.00022,0.0,0.0
12.524,4506.654,0.00022,0.0,0.0
12.53,4508.998,0.00022,0.0,0.0
12.536,4508.671,0.00022,0.0,0.0
12.543,4504.896,0.00022,0.0,0.0
12.549,4488.456,0.00022,0.0,0.0
12.555,4508.209,0.00022,0.0,0.0
12.562,4499.016,0.00022,0.0,0.0
12.568,4501.828,0.00022,0.0,0.0
12.574,4511.419,0.00022,0.0,0.0
12.58,4506.641,0.00022,0.0,0.0
12.587,4536.745,0.00022,0.0,0.0
12.593,4549.299,0.00022,0.0,0.0
12.599,4564.036,0.00022,0.0,0.0
12.606,4586.188,0.00022,0.0,0.0
12.612,4625.169,0.00022,0.0,0.0
12.618,4669.738,0.00021,0.0,0.0
12.625,4762.732,0.00021,0.0,0.0
12.631,4862.141,0.00021,0.0,0.0
12.637,5051.506,0.0002,0.0,0.0
12.644,5308.904,0.00019,0.0,0.0
12.65,5780.924,0.00017,0.0,0.0
12.656,6599.448,0.00015,0.0,0.0
12.663,8076.055,0.00012,0.0,0.0
12.669,10670.534,0.00009,0.0,0.0
12.675,14843.641,0.00007,0.0,0.0
12.682,20323.297,0.00005,0.0,0.0
12.688,28336.179,0.00004,0.0,0.0
12.694,32443.177,0.00003,0.0,0.0
12.701,33687.263,0.00003,0.0,0.0
12.707,31584.767,0.00003,0.0,0.0
12.713,25244.26,0.00004,0.0,0.0
12.72,18246.251,0.00005,0.0,0.0
12.726,13125.694,0.00008,0.0,0.0
12.732,9199.185,0.00011,0.0,0.0
12.738,7209.84,0.00014,0.0,0.0
12.745,6184.926,0.00016,0.0,0.0
12.751,5489.7,0.00018,0.0,0.0
12.757,5124.295,0.0002,0.0,0.0
12.764,4875.634,0.00021,0.0,0.0
12.77,4732.918,0.00021,0.0,0.0
12.776,4643.751,0.00022,0.0,0.0
12.783,4591.082,0.00022,0.0,0.0
12.789,4526.648,0.00022,0.0,0.0
12.795,4497.247,0.00022,0.0,0.0
12.802,4478.605,0.00022,0.0,0.0
12.808,4450.468,0.00022,0.0,0.0
12.814,4437.048,0.00023,0.0,0.0
12.821,4413.573,0.00023,0.0,0.0
12.827,4412.695,0.00023,0.0,0.0
12.833,4397.738,0.00023,0.0,0.0
12.84,4381.627,0.00023,0.0,0.0
12.846,4378.934,0.00023,0.0,0.0
12.852,4354.977,0.00023,0.0,0.0
12.859,4361.387,0.00023,0.0,0.0
12.865,4352.928,0.00023,0.0,0.0
12.871,4364.328,0.00023,0.0,0.0
12.878,4340.37,0.00023,0.0,0.0
12.884,4338.354,0.00023,0.0,0.0
12.89,4333.454,0.00023,0.0,0.0
12.896,4336.257,0.00023,0.0,0.0
12.903,4348.812,0.00023,0.0,0.0
12.909,4364.389,0.00023,0.0,0.0
12.915,4412.934,0.00023,0.0,0.0
12.922,4420.077,0.00023,0.0,0.0
12.928,4548.174,0.00022,0.0,0.0
12.934,4679.841,0.00021,0.0,0.0
12.941,4602.956,0.00022,0.0,0.0
12.947,4749.002,0.00021,0.0,0.0
12.953,4561.12,0.00022,0.0,0.0
12.96,4523.177,0.00022,0.0,0.0
12.966,4475.953,0.00022,0.0,0.0
12.972,4384.48,0.00023,0.0,0.0
12.979,4353.289,0.00023,0.0,0.0
12.985,4331.158,0.00023,0.0,0.0
12.991,4309.571,0.00023,0.0,0.0
12.998,4285.166,0.00023,0.0,0.0
13.004,4266.91,0.00023,0.0,0.0
13.01,4264.477,0.00023,0.0,0.0
13.017,4256.746,0.00023,0.0,0.0
13.023,4249.563,0.00024,0.0,0.0
13.029,4239.207,0.00024,0.0,0.0
13.036,4237.21,0.00024,0.0,0.0
13.042,4237.388,0.00024,0.0,0.0
13.048,4228.418,0.00024,0.0,0.0
13.054,4223.775,0.00024,0.0,0.0
13.061,4226.584,0.00024,0.0,0.0
13.067,4218.99,0.00024,0.0,0.0
13.073,4221.493,0.00024,0.0,0.0
13.08,4223.946,0.00024,0.0,0.0
13.086,4227.026,0.00024,0.0,0.0
13.092,4221.304,0.00024,0.0,0.0
13.099,4207.971,0.00024,0.0,0.0
13.105,4203.485,0.00024,0.0,0.0
13.111,4211.421,0.00024,0.0,0.0
13.118,4200.985,0.00024,0.0,0.0
13.124,4204.113,0.00024,0.0,0.0
13.13,4202.179,0.00024,0.0,0.0
13.137,4193.156,0.00024,0.0,0.0
13.143,4200.904,0.00024,0.0,0.0
13.149,4182.021,0.00024,0.0,0.0
13.156,4202.368,0.00024,0.0,0.0
13.162,4200.508,0.00024,0.0,0.0
13.168,4196.226,0.00024,0.0,0.0
13.175,4209.685,0.00024,0.0,0.0
13.181,4219.539,0.00024,0.0,0.0
13.187,4226.465,0.00024,0.0,0.0
13.194,4247.912,0.00024,0.0,0.0
13.2,4284.711,0.00023,0.0,0.0
13.206,4311.966,0.00023,0.0,0.0
13.212,4371.34,0.00023,0.0,0.0
13.219,4518.659,0.00022,0.0,0.0
13.225,4706.032,0.00021,0.0,0.0
13.231,5109.526,0.0002,0.0,0.0
13.238,5862.803,0.00017,0.0,0.0
13.244,7075.493,0.00014,0.0,0.0
13.25,8738.677,0.00011,0.0,0.0
13.257,10530.236,0.00009,0.0,0.0
13.263,12207.74,0.00008,0.0,0.0
13.269,12575.976,0.00008,0.0,0.0
13.276,11293.556,0.00009,0.0,0.0
13.282,10189.865,0.0001,0.0,0.0
13.288,7861.701,0.00013,0.0,0.0
13.295,6372.411,0.00016,0.0,0.0
13.301,5470.936,0.00018,0.0,0.0
13.307,4852.947,0.00021,0.0,0.0
13.314,4567.662,0.00022,0.0,0.0
13.32,4373.87,0.00023,0.0,0.0
13.326,4283.386,0.00023,0.0,0.0
13.333,4218.789,0.00024,0.0,0.0
13.339,4172.106,0.00024,0.0,0.0
13.345,4139.11,0.00024,0.0,0.0
13.352,4130.502,0.00024,0.0,0.0
13.358,4115.105,0.00024,0.0,0.0
13.364,4105.588,0.00024,0.0,0.0
13.37,4094.723,0.00024,0.0,0.0
13.377,4096.938,0.00024,0.0,0.0
13.383,4086.747,0.00024,0.0,0.0
13.389,4071.756,0.00025,0.0,0.0
13.396,4070.365,0.00025,0.0,0.0
13.402,4064.038,0.00025,0.0,0.0
13.408,4059.18,0.00025,0.0,0.0
13.415,4049.351,0.00025,0.0,0.0
13.421,4050.889,0.00025,0.0,0.0
13.427,4060.593,0.00025,0.0,0.0
13.434,4046.288,0.00025,0.0,0.0
13.44,4041.769,0.00025,0.0,0.0
13.446,4040.399,0.00025,0.0,0.0
13.453,4033.454,0.00025,0.0,0.0
13.459,4018.909,0.00025,0.0,0.0
13.465,4028.602,0.00025,0.0,0.0
13.472,4007.099,0.00025,0.0,0.0
13.478,4016.001,0.00025,0.0,0.0
13.484,4008.599,0.00025,0.0,0.0
13.491,4008.052,0.00025,0.0,0.0
13.497,4013.684,0.00025,0.0,0.0
13.503,4001.025,0.00025,0.0,0.0
13.51,4003.198,0.00025,0.0,0.0
13.516,4007.741,0.00025,0.0,0.0
13.522,3984.133,0.00025,0.0,0.0
13.528,3989.055,0.00025,0.0,0.0
13.535,3981.357,0.00025,0.0,0.0
13.541,3983.7,0.00025,0.0,0.0
13.547,3990.636,0.00025,0.0,0.0
13.554,3975.596,0.00025,0.0,0.0
13.56,3984.26,0.00025,0.0,0.0
13.566,3982.46,0.00025,0.0,0.0
13.573,3969.626,0.00025,0.0,0.0
13.579,3968.677,0.00025,0.0,0.0
13.585,3972.104,0.00025,0.0,0.0
13.592,3979.319,0.00025,0.0,0.0
13.598,3974.628,0.00025,0.0,0.0
13.604,3974.241,0.00025,0.0,0.0
13.611,3971.649,0.00025,0.0,0.0
13.617,3970.475,0.00025,0.0,0.0
13.623,3970.536,0.00025,0.0,0.0
13.63,3978.764,0.00025,0.0,0.0
13.636,3977.831,0.00025,0.0,0.0
13.642,3980.84,0.00025,0.0,0.0
13.649,3971.964,0.00025,0.0,0.0
13.655,3980.134,0.00025,0.0,0.0
13.661,3980.743,0.00025,0.0,0.0
13.668,3988.826,0.00025,0.0,0.0
13.674,3999.134,0.00025,0.0,0.0
13.68,3992.315,0.00025,0.0,0.0
13.686,4008.976,0.00025,0.0,0.0
13.693,4019.78,0.00025,0.0,0.0
13.699,4058.097,0.00025,0.0,0.0
13.705,4156.143,0.00024,0.0,0.0
13.712,4305.933,0.00023,0.0,0.0
13.718,4356.817,0.00023,0.0,0.0
13.724,4808.026,0.00021,0.0,0.0
13.731,4363.482,0.00023,0.0,0.0
13.737,4500.958,0.00022,0.0,0.0
13.743,4637.701,0.00022,0.0,0.0
13.75,4205.764,0.00024,0.0,0.0
13.756,4133.692,0.00024,0.0,0.0
13.762,4009.204,0.00025,0.0,0.0
13.769,3966.698,0.00025,0.0,0.0
13.775,3945.64,0.00025,0.0,0.0
13.781,3923.791,0.00025,0.0,0.0
13.788,3917.917,0.00026,0.0,0.0
13.794,3906.537,0.00026,0.0,0.0
13.8,3911.671,0.00026,0.0,0.0
13.807,3903.719,0.00026,0.0,0.0
13.813,3904.892,0.00026,0.0,0.0
13.819,3887.178,0.00026,0.0,0.0
13.826,3883.511,0.00026,0.0,0.0
13.832,3871.139,0.00026,0.0,0.0
13.838,3870.688,0.00026,0.0,0.0
13.844,3875.385,0.00026,0.0,0.0
13.851,3862.794,0.00026,0.0,0.0
13.857,3859.153,0.00026,0.0,0.0
13.863,3858.364,0.00026,0.0,0.0
13.87,3847.825,0.00026,0.0,0.0
13.876,3851.967,0.00026,0.0,0.0
13.882,3831.239,0.00026,0.0,0.0
13.889,3848.22,0.00026,0.0,0.0
13.895,3840.734,0.00026,0.0,0.0
13.901,3834.11,0.00026,0.0,0.0
13.908,3844.98,0.00026,0.0,0.0
13.914,3836.524,0.00026,0.0,0.0
13.92,3832.758,0.00026,0.0,0.0
13.927,3841.762,0.00026,0.0,0.0
13.933,3832.434,0.00026,0.0,0.0
13.939,3816.626,0.00026,0.0,0.0
13.946,3808.664,0.00026,0.0,0.0
13.952,3808.927,0.00026,0.0,0.0
13.958,3802.036,0.00026,0.0,0.0
13.965,3797.593,0.00026,0.0,0.0
13.971,3801.573,0.00026,0.0,0.0
13.977,3799.691,0.00026,0.0,0.0
13.984,3793.985,0.00026,0.0,0.0
13.99,3798.753,0.00026,0.0,0.0
13.996,3784.896,0.00026,0.0,0.0
14.002,3777.523,0.00026,0.0,0.0
14.009,3776.449,0.00026,0.0,0.0
14.015,3777.009,0.00026,0.0,0.0
14.021,3784.358,0.00026,0.0,0.0
14.028,3763.43,0.00027,0.0,0.0
14.034,3786.135,0.00026,0.0,0.0
14.04,3769.142,0.00027,0.0,0.0
14.047,3772.766,0.00027,0.0,0.0
14.053,3763.362,0.00027,0.0,0.0
14.059,3749.566,0.00027,0.0,0.0
14.066,3755.218,0.00027,0.0,0.0
14.072,3754.834,0.00027,0.0,0.0
14.078,3754.31,0.00027,0.0,0.0
14.085,3742.87,0.00027,0.0,0.0
14.091,3749.562,0.00027,0.0,0.0
14.097,3731.602,0.00027,0.0,0.0
14.104,3734.058,0.00027,0.0,0.0
14.11,3741.854,0.00027,0.0,0.0
14.116,3738.504,0.00027,0.0,0.0
14.123,3728.335,0.00027,0.0,0.0
14.129,3730.44,0.00027,0.0,0.0
14.135,3732.75,0.00027,0.0,0.0
14.142,3726.644,0.00027,0.0,0.0
14.148,3729.526,0.00027,0.0,0.0
14.154,3731.847,0.00027,0.0,0.0
14.16,3719.617,0.00027,0.0,0.0
14.167,3716.053,0.00027,0.0,0.0
14.173,3727.147,0.00027,0.0,0.0
14.179,3715.564,0.00027,0.0,0.0
14.186,3703.4,0.00027,0.0,0.0
14.192,3702.085,0.00027,0.0,0.0
14.198,3710.627,0.00027,0.0,0.0
14.205,3714.791,0.00027,0.0,0.0
14.211,3710.237,0.00027,0.0,0.0
14.217,3701.018,0.00027,0.0,0.0
14.224,3706.231,0.00027,0.0,0.0
14.23,3701.755,0.00027,0.0,0.0
14.236,3715.338,0.00027,0.0,0.0
14.243,3713.664,0.00027,0.0,0.0
14.249,3712.471,0.00027,0.0,0.0
14.255,3721.633,0.00027,0.0,0.0
14.262,3715.291,0.00027,0.0,0.0
14.268,3720.962,0.00027,0.0,0.0
14.274,3728.843,0.00027,0.0,0.0
14.281,3730.009,0.00027,0.0,0.0
14.287,3710.301,0.00027,0.0,0.0
14.293,3710.512,0.00027,0.0,0.0
14.3,3681.786,0.00027,0.0,0.0
14.306,3687.276,0.00027,0.0,0.0
14.312,3685.11,0.00027,0.0,0.0
14.318,3690.529,0.00027,0.0,0.0
14.325,3674.147,0.00027,0.0,0.0
14.331,3660.375,0.00027,0.0,0.0
14.337,3661.495,0.00027,0.0,0.0
14.344,3662.72,0.00027,0.0,0.0
14.35,3648.36,0.00027,0.0,0.0
14.356,3658.239,0.00027,0.0,0.0
14.363,3653.049,0.00027,0.0,0.0
14.369,3653.939,0.00027,0.0,0.0
14.375,3651.044,0.00027,0.0,0.0
14.382,3650.646,0.00027,0.0,0.0
14.388,3649.492,0.00027,0.0,0.0
14.394,3638.088,0.00027,0.0,0.0
14.401,3646.268,0.00027,0.0,0.0
14.407,3639.083,0.00027,0.0,0.0
14.413,3651.012,0.00027,0.0,0.0
14.42,3627.727,0.00028,0.0,0.0
14.426,3641.239,0.00027,0.0,0.0
14.432,3638.562,0.00027,0.0,0.0
14.439,3648.671,0.00027,0.0,0.0
14.445,3658.617,0.00027,0.0,0.0
14.451,3675.507,0.00027,0.0,0.0
14.458,3695.022,0.00027,0.0,0.0
14.464,3704.608,0.00027,0.0,0.0
14.47,3733.06,0.00027,0.0,0.0
14.476,3714.664,0.00027,0.0,0.0
14.483,3690.073,0.00027,0.0,0.0
14.489,3665.372,0.00027,0.0,0.0
14.495,3648.376,0.00027,0.0,0.0
14.502,3629.86,0.00028,0.0,0.0
14.508,3618.292,0.00028,0.0,0.0
14.514,3601.44,0.00028,0.0,0.0
14.521,3602.232,0.00028,0.0,0.0
14.527,3604.329,0.00028,0.0,0.0
14.533,3584.363,0.00028,0.0,0.0
14.54,3587.979,0.00028,0.0,0.0
14.546,3574.218,0.00028,0.0,0.0
14.552,3577.218,0.00028,0.0,0.0
14.559,3588.921,0.00028,0.0,0.0
14.565,3587.873,0.00028,0.0,0.0
14.571,3578.868,0.00028,0.0,0.0
14.578,3584.617,0.00028,0.0,0.0
14.584,3587.532,0.00028,0.0,0.0
14.59,3562.703,0.00028,0.0,0.0
14.597,3570.47,0.00028,0.0,0.0
14.603,3561.889,0.00028,0.0,0.0
14.609,3562.292,0.00028,0.0,0.0
14.616,3550.966,0.00028,0.0,0.0
14.622,3567.699,0.00028,0.0,0.0
14.628,3572.956,0.00028,0.0,0.0
14.634,3568.639,0.00028,0.0,0.0
14.641,3545.177,0.00028,0.0,0.0
14.647,3562.597,0.00028,0.0,0.0
14.653,3551.193,0.00028,0.0,0.0
14.66,3554.188,0.00028,0.0,0.0
14.666,3554.987,0.00028,0.0,0.0
14.672,3547.339,0.00028,0.0,0.0
14.679,3537.301,0.00028,0.0,0.0
14.685,3544.105,0.00028,0.0,0.0
14.691,3543.084,0.00028,0.0,0.0
14.698,3543.042,0.00028,0.0,0.0
14.704,3528.475,0.00028,0.0,0.0
14.71,3528.061,0.00028,0.0,0.0
14.717,3536.091,0.00028,0.0,0.0
14.723,3510.045,0.00028,0.0,0.0
14.729,3518.296,0.00028,0.0,0.0
14.736,3516.438,0.00028,0.0,0.0
14.742,3512.154,0.00028,0.0,0.0
14.748,3507.555,0.00029,0.0,0.0
14.755,3507.663,0.00029,0.0,0.0
14.761,3521.11,0.00028,0.0,0.0
14.767,3503.092,0.00029,0.0,0.0
14.774,3507.072,0.00029,0.0,0.0
14.78,3507.304,0.00029,0.0,0.0
14.786,3505.301,0.00029,0.0,0.0
14.792,3496.07,0.00029,0.0,0.0
14.799,3495.702,0.00029,0.0,0.0
14.805,3491.631,0.00029,0.0,0.0
14.811,3507.028,0.00029,0.0,0.0
14.818,3498.777,0.00029,0.0,0.0
14.824,3504.004,0.00029,0.0,0.0
14.83,3485.434,0.00029,0.0,0.0
14.837,3492.285,0.00029,0.0,0.0
14.843,3497.016,0.00029,0.0,0.0
14.849,3499.754,0.00029,0.0,0.0
14.856,3491.865,0.00029,0.0,0.0
14.862,3493.023,0.00029,0.0,0.0
14.868,3473.562,0.00029,0.0,0.0
14.875,3473.06,0.00029,0.0,0.0
14.881,3475.638,0.00029,0.0,0.0
14.887,3475.184,0.00029,0.0,0.0
14.894,3463.966,0.00029,0.0,0.0
14.9,3478.332,0.00029,0.0,0.0
14.906,3477.09,0.00029,0.0,0.0
14.913,3481.28,0.00029,0.0,0.0
14.919,3466.824,0.00029,0.0,0.0
14.925,3455.535,0.00029,0.0,0.0
14.932,3468.631,0.00029,0.0,0.0
14.938,3472.474,0.00029,0.0,0.0
14.944,3466.006,0.00029,0.0,0.0
14.95,3457.133,0.00029,0.0,0.0
14.957,3456.531,0.00029,0.0,0.0
14.963,3455.808,0.00029,0.0,0.0
14.969,3451.502,0.00029,0.0,0.0
14.976,3462.716,0.00029,0.0,0.0
14.982,3448.311,0.00029,0.0,0.0
14.988,3438.738,0.00029,0.0,0.0
14.995,3454.023,0.00029,0.0,0.0
15.001,3438.217,0.00029,0.0,0.0
15.007,3434.426,0.00029,0.0,0.0
15.014,3431.744,0.00029,0.0,0.0
15.02,3424.02,0.00029,0.0,0.0
15.026,3436.84,0.00029,0.0,0.0
15.033,3432.134,0.00029,0.0,0.0
15.039,3420.321,0.00029,0.0,0.0
15.045,3432.944,0.00029,0.0,0.0
15.052,3424.357,0.00029,0.0,0.0
15.058,3437.703,0.00029,0.0,0.0
15.064,3419.063,0.00029,0.0,0.0
15.071,3429.196,0.00029,0.0,0.0
15.077,3417.811,0.00029,0.0,0.0
15.083,3424.605,0.00029,0.0,0.0
15.09,3424.154,0.00029,0.0,0.0
15.096,3410.951,0.00029,0.0,0.0
15.102,3412.292,0.00029,0.0,0.0
15.108,3404.069,0.00029,0.0,0.0
15.115,3410.437,0.00029,0.0,0.0
15.121,3407.584,0.00029,0.0,0.0
15.127,3406.586,0.00029,0.0,0.0
15.134,3415.598,0.00029,0.0,0.0
15.14,3415.355,0.00029,0.0,0.0
15.146,3407.291,0.00029,0.0,0.0
15.153,3419.66,0.00029,0.0,0.0
15.159,3414.154,0.00029,0.0,0.0
15.165,3414.638,0.00029,0.0,0.0
15.172,3419.754,0.00029,0.0,0.0
15.178,3419.457,0.00029,0.0,0.0
15.184,3430.984,0.00029,0.0,0.0
15.191,3432.084,0.00029,0.0,0.0
15.197,3424.616,0.00029,0.0,0.0
15.203,3419.212,0.00029,0.0,0.0
15.21,3420.711,0.00029,0.0,0.0
15.216,3407.736,0.00029,0.0,0.0
15.222,3406.639,0.00029,0.0,0.0
15.229,3410.139,0.00029,0.0,0.0
15.235,3410.928,0.00029,0.0,0.0
15.241,3412.422,0.00029,0.0,0.0
15.248,3419.418,0.00029,0.0,0.0
15.254,3435.485,0.00029,0.0,0.0
15.26,3447.121,0.00029,0.0,0.0
15.266,3477.245,0.00029,0.0,0.0
15.273,3507.18,0.00029,0.0,0.0
15.279,3568.494,0.00028,0.0,0.0
15.285,3661.777,0.00027,0.0,0.0
15.292,3847.724,0.00026,0.0,0.0
15.298,4146.822,0.00024,0.0,0.0
15.304,4508.59,0.00022,0.0,0.0
15.311,5151.149,0.00019,0.0,0.0
15.317,5764.535,0.00017,0.0,0.0
15.323,6328.024,0.00016,0.0,0.0
15.33,6115.052,0.00016,0.0,0.0
15.336,6095.864,0.00016,0.0,0.0
15.342,5643.761,0.00018,0.0,0.0
15.349,4850.79,0.00021,0.0,0.0
15.355,4477.956,0.00022,0.0,0.0
15.361,4011.854,0.00025,0.0,0.0
15.368,3774.696,0.00026,0.0,0.0
15.374,3620.382,0.00028,0.0,0.0
15.38,3520.775,0.00028,0.0,0.0
15.387,3474.918,0.00029,0.0,0.0
15.393,3439.275,0.00029,0.0,0.0
15.399,3416.189,0.00029,0.0,0.0
15.406,3393.075,0.00029,0.0,0.0
15.412,3392.468,0.00029,0.0,0.0
15.418,3390.244,0.00029,0.0,0.0
15.424,3377.024,0.0003,0.0,0.0
15.431,3367.37,0.0003,0.0,0.0
15.437,3374.011,0.0003,0.0,0.0
15.443,3363.216,0.0003,0.0,0.0
15.45,3360.891,0.0003,0.0,0.0
15.456,3368.456,0.0003,0.0,0.0
15.462,3372.882,0.0003,0.0,0.0
15.469,3353.535,0.0003,0.0,0.0
15.475,3360.365,0.0003,0.0,0.0
15.481,3358.429,0.0003,0.0,0.0
15.488,3355.108,0.0003,0.0,0.0
15.494,3338.595,0.0003,0.0,0.0
15.5,3345.148,0.0003,0.0,0.0
15.507,3354.064,0.0003,0.0,0.0
15.513,3346.266,0.0003,0.0,0.0
15.519,3352.126,0.0003,0.0,0.0
15.526,3354.942,0.0003,0.0,0.0
15.532,3337.431,0.0003,0.0,0.0
15.538,3330.734,0.0003,0.0,0.0
15.545,3342.808,0.0003,0.0,0.0
15.551,3330.772,0.0003,0.0,0.0
15.557,3331.58,0.0003,0.0,0.0
15.564,3314.379,0.0003,0.0,0.0
15.57,3311.574,0.0003,0.0,0.0
15.576,3317.834,0.0003,0.0,0.0
15.582,3317.392,0.0003,0.0,0.0
15.589,3315.04,0.0003,0.0,0.0
15.595,3308.335,0.0003,0.0,0.0
15.601,3312.444,0.0003,0.0,0.0
15.608,3318.364,0.0003,0.0,0.0
15.614,3305.83,0.0003,0.0,0.0
15.62,3303.352,0.0003,0.0,0.0
15.627,3312.224,0.0003,0.0,0.0
15.633,3297.853,0.0003,0.0,0.0
15.639,3303.277,0.0003,0.0,0.0
15.646,3295.097,0.0003,0.0,0.0
15.652,3292.384,0.0003,0.0,0.0
15.658,3284.937,0.0003,0.0,0.0
15.665,3286.209,0.0003,0.0,0.0
15.671,3290.543,0.0003,0.0,0.0
15.677,3274.159,0.00031,0.0,0.0
15.684,3283.312,0.0003,0.0,0.0
15.69,3281.254,0.0003,0.0,0.0
15.696,3275.611,0.00031,0.0,0.0
15.703,3270.373,0.00031,0.0,0.0
15.709,3278.588,0.00031,0.0,0.0
15.715,3267.211,0.00031,0.0,0.0
15.722,3272.371,0.00031,0.0,0.0
15.728,3266.936,0.00031,0.0,0.0
15.734,3255.734,0.00031,0.0,0.0
15.74,3256.869,0.00031,0.0,0.0
15.747,3254.701,0.00031,0.0,0.0
15.753,3260.613,0.00031,0.0,0.0
15.759,3253.637,0.00031,0.0,0.0
15.766,3259.979,0.00031,0.0,0.0
15.772,3261.696,0.00031,0.0,0.0
15.778,3255.515,0.00031,0.0,0.0
15.785,3242.906,0.00031,0.0,0.0
15.791,3247.088,0.00031,0.0,0.0
15.797,3241.178,0.00031,0.0,0.0
15.804,3245.695,0.00031,0.0,0.0
15.81,3242.44,0.00031,0.0,0.0
15.816,3242.357,0.00031,0.0,0.0
15.823,3247.597,0.00031,0.0,0.0
15.829,3240.653,0.00031,0.0,0.0
15.835,3244.71,0.00031,0.0,0.0
15.842,3249.504,0.00031,0.0,0.0
15.848,3261.84,0.00031,0.0,0.0
15.854,3252.517,0.00031,0.0,0.0
15.861,3249.39,0.00031,0.0,0.0
15.867,3256.126,0.00031,0.0,0.0
15.873,3242.801,0.00031,0.0,0.0
15.88,3237.64,0.00031,0.0,0.0
15.886,3243.821,0.00031,0.0,0.0
15.892,3228.876,0.00031,0.0,0.0
15.898,3239.3,0.00031,0.0,0.0
15.905,3225.566,0.00031,0.0,0.0
15.911,3218.434,0.00031,0.0,0.0
15.917,3223.696,0.00031,0.0,0.0
15.924,3219.971,0.00031,0.0,0.0
15.93,3214.138,0.00031,0.0,0.0
15.936,3213.497,0.00031,0.0,0.0
15.943,3219.297,0.00031,0.0,0.0
15.949,3216.178,0.00031,0.0,0.0
15.955,3214.003,0.00031,0.0,0.0
15.962,3219.834,0.00031,0.0,0.0
15.968,3212.744,0.00031,0.0,0.0
15.974,3205.68,0.00031,0.0,0.0
15.981,3212.389,0.00031,0.0,0.0
15.987,3198.614,0.00031,0.0,0.0
15.993,3207.163,0.00031,0.0,0.0
16.0,3210.437,0.00031,0.0,0.0
16.006,3206.6,0.00031,0.0,0.0
16.012,3207.489,0.00031,0.0,0.0
16.019,3201.328,0.00031,0.0,0.0
16.025,3211.348,0.00031,0.0,0.0
16.031,3207.15,0.00031,0.0,0.0
16.038,3204.573,0.00031,0.0,0.0
16.044,3194.011,0.00031,0.0,0.0
16.05,3195.903,0.00031,0.0,0.0
16.056,3191.468,0.00031,0.0,0.0
16.063,3198.43,0.00031,0.0,0.0
16.069,3194.54,0.00031,0.0,0.0
16.075,3191.846,0.00031,0.0,0.0
16.082,3194.013,0.00031,0.0,0.0
16.088,3187.128,0.00031,0.0,0.0
16.094,3181.593,0.00031,0.0,0.0
16.101,3198.804,0.00031,0.0,0.0
16.107,3185.589,0.00031,0.0,0.0
16.113,3184.483,0.00031,0.0,0.0
16.12,3178.086,0.00031,0.0,0.0
16.126,3176.887,0.00031,0.0,0.0
16.132,3187.24,0.00031,0.0,0.0
16.139,3178.909,0.00031,0.0,0.0
16.145,3183.826,0.00031,0.0,0.0
16.151,3179.754,0.00031,0.0,0.0
16.158,3180.565,0.00031,0.0,0.0
16.164,3179.078,0.00031,0.0,0.0
16.17,3188.066,0.00031,0.0,0.0
16.177,3176.627,0.00031,0.0,0.0
16.183,3186.073,0.00031,0.0,0.0
16.189,3184.61,0.00031,0.0,0.0
16.196,3186.153,0.00031,0.0,0.0
16.202,3177.954,0.00031,0.0,0.0
16.208,3171.405,0.00032,0.0,0.0
16.214,3175.1,0.00031,0.0,0.0
16.221,3177.096,0.00031,0.0,0.0
16.227,3178.324,0.00031,0.0,0.0
16.233,3167.973,0.00032,0.0,0.0
16.24,3163.83,0.00032,0.0,0.0
16.246,3185.554,0.00031,0.0,0.0
16.252,3169.351,0.00032,0.0,0.0
16.259,3157.056,0.00032,0.0,0.0
16.265,3170.677,0.00032,0.0,0.0
16.271,3175.86,0.00031,0.0,0.0
16.278,3174.114,0.00032,0.0,0.0
16.284,3179.42,0.00031,0.0,0.0
16.29,3170.953,0.00032,0.0,0.0
16.297,3170.52,0.00032,0.0,0.0
16.303,3172.829,0.00032,0.0,0.0
16.309,3182.037,0.00031,0.0,0.0
16.316,3183.511,0.00031,0.0,0.0
16.322,3171.041,0.00032,0.0,0.0
16.328,3170.968,0.00032,0.0,0.0
16.335,3181.738,0.00031,0.0,0.0
16.341,3178.126,0.00031,0.0,0.0
16.347,3166.698,0.00032,0.0,0.0
16.354,3169.286,0.00032,0.0,0.0
16.36,3165.254,0.00032,0.0,0.0
16.366,3168.006,0.00032,0.0,0.0
16.372,3179.208,0.00031,0.0,0.0
16.379,3171.511,0.00032,0.0,0.0
16.385,3168.508,0.00032,0.0,0.0
16.391,3167.358,0.00032,0.0,0.0
16.398,3169.644,0.00032,0.0,0.0
16.404,3171.322,0.00032,0.0,0.0
16.41,3167.483,0.00032,0.0,0.0
16.417,3169.641,0.00032,0.0,0.0
16.423,3161.325,0.00032,0.0,0.0
16.429,3180.505,0.00031,0.0,0.0
16.436,3170.141,0.00032,0.0,0.0
16.442,3176.798,0.00031,0.0,0.0
16.448,3171.393,0.00032,0.0,0.0
16.455,3176.834,0.00031,0.0,0.0
16.461,3191.622,0.00031,0.0,0.0
16.467,3185.847,0.00031,0.0,0.0
16.474,3194.87,0.00031,0.0,0.0
16.48,3199.229,0.00031,0.0,0.0
16.486,3196.486,0.00031,0.0,0.0
16.493,3209.346,0.00031,0.0,0.0
16.499,3228.755,0.00031,0.0,0.0
16.505,3268.143,0.00031,0.0,0.0
16.512,3250.314,0.00031,0.0,0.0
16.518,3278.825,0.0003,0.0,0.0
16.524,3273.781,0.00031,0.0,0.0
16.53,3240.468,0.00031,0.0,0.0
16.537,3246.651,0.00031,0.0,0.0
16.543,3230.791,0.00031,0.0,0.0
16.549,3204.475,0.00031,0.0,0.0
16.556,3196.194,0.00031,0.0,0.0
16.562,3186.364,0.00031,0.0,0.0
16.568,3196.639,0.00031,0.0,0.0
16.575,3196.93,0.00031,0.0,0.0
16.581,3196.635,0.00031,0.0,0.0
16.587,3191.755,0.00031,0.0,0.0
16.594,3200.378,0.00031,0.0,0.0
