x,y_obs,weight,y_calc,y_bkg,Q
0.1,842.539,0.00119,0,0,0.093
0.122,1435.074,0.0007,0,0,0.114
0.144,630.075,0.00159,0,0,0.135
0.167,298.365,0.00335,0,0,0.156
0.189,369.049,0.00271,0,0,0.176
0.211,2105.161,0.00048,0,0,0.197
0.233,1582.087,0.00063,0,0,0.218
0.255,1592.55,0.00063,0,0,0.239
0.277,1827.967,0.00055,0,0,0.259
0.3,1627.526,0.00061,0,0,0.28
0.322,3801.581,0.00026,0,0,0.301
0.344,449.846,0.00222,0,0,0.322
0.366,878.733,0.00114,0,0,0.342
0.388,779.348,0.00128,0,0,0.363
0.41,474.25,0.00211,0,0,0.384
0.433,903.214,0.00111,0,0,0.404
0.455,2014.22,0.0005,0,0,0.425
0.477,2346.692,0.00043,0,0,0.446
0.499,3353.624,0.0003,0,0,0.467
0.521,2933.995,0.00034,0,0,0.487
0.544,3177.5,0.00031,0,0,0.508
0.566,3332.517,0.0003,0,0,0.529
0.588,4258.369,0.00023,0,0,0.55
0.61,4783.696,0.00021,0,0,0.57
0.632,4506.19,0.00022,0,0,0.591
0.654,5694.162,0.00018,0,0,0.612
0.677,5285.527,0.00019,0,0,0.633
0.699,5650.62,0.00018,0,0,0.653
0.721,4840.607,0.00021,0,0,0.674
0.743,4727.113,0.00021,0,0,0.695
0.765,3888.074,0.00026,0,0,0.715
0.788,3273.77,0.00031,0,0,0.736
0.81,3018.577,0.00033,0,0,0.757
0.832,2507.789,0.0004,0,0,0.778
0.854,2095.079,0.00048,0,0,0.798
0.876,1015.607,0.00098,0,0,0.819
0.898,1500.955,0.00067,0,0,0.84
0.921,1826.866,0.00055,0,0,0.861
0.943,1311.425,0.00076,0,0,0.881
0.965,1255.947,0.0008,0,0,0.902
0.987,2475.734,0.0004,0,0,0.923
1.009,1070.03,0.00093,0,0,0.944
1.031,744.515,0.00134,0,0,0.964
1.054,756.729,0.00132,0,0,0.985
1.076,768.944,0.0013,0,0,1.006
1.098,781.158,0.00128,0,0,1.026
1.12,793.374,0.00126,0,0,1.047
1.142,805.589,0.00124,0,0,1.068
1.165,817.805,0.00122,0,0,1.089
1.187,830.021,0.0012,0,0,1.109
1.209,842.238,0.00119,0,0,1.13
1.231,854.455,0.00117,0,0,1.151
1.253,866.672,0.00115,0,0,1.172
1.275,878.889,0.00114,0,0,1.192
1.298,891.107,0.00112,0,0,1.213
1.32,903.325,0.00111,0,0,1.234
1.342,915.544,0.00109,0,0,1.255
1.364,927.763,0.00108,0,0,1.275
1.386,939.982,0.00106,0,0,1.296
1.408,952.202,0.00105,0,0,1.317
1.431,964.422,0.00104,0,0,1.337
1.453,976.642,0.00102,0,0,1.358
1.475,988.863,0.00101,0,0,1.379
1.497,1001.084,0.001,0,0,1.4
1.519,1013.306,0.00099,0,0,1.42
1.542,2497.303,0.0004,0,0,1.441
1.564,1626.213,0.00061,0,0,1.462
1.586,2042.338,0.00049,0,0,1.483
1.608,2958.145,0.00034,0,0,1.503
1.63,4917.584,0.0002,0,0,1.524
1.652,6101.378,0.00016,0,0,1.545
1.675,5180.757,0.00019,0,0,1.566
1.697,7586.225,0.00013,0,0,1.586
1.719,8899.533,0.00011,0,0,1.607
1.741,14244.077,7E-05,0,0,1.628
1.763,20510.963,5E-05,0,0,1.648
1.786,33816.196,3E-05,0,0,1.669
1.808,47223.279,2E-05,0,0,1.69
1.83,61246.557,2E-05,0,0,1.711
1.852,74482.19,1E-05,0,0,1.731
1.874,78544.667,1E-05,0,0,1.752
1.896,75904.104,1E-05,0,0,1.773
1.919,66900.832,1E-05,0,0,1.794
1.941,52191.411,2E-05,0,0,1.814
1.963,36286.297,3E-05,0,0,1.835
1.985,25513.786,4E-05,0,0,1.856
2.007,16136.873,6E-05,0,0,1.876
2.029,10980.117,9E-05,0,0,1.897
2.052,6530.974,0.00015,0,0,1.918
2.074,6019.503,0.00017,0,0,1.939
2.096,6105.958,0.00016,0,0,1.959
2.118,6399.162,0.00016,0,0,1.98
2.14,8627.414,0.00012,0,0,2.001
2.163,8263.294,0.00012,0,0,2.022
2.185,8333.966,0.00012,0,0,2.042
2.207,8552.304,0.00012,0,0,2.063
2.229,7951.514,0.00013,0,0,2.084
2.251,7456.876,0.00013,0,0,2.105
2.273,6910.422,0.00014,0,0,2.125
2.296,8032.72,0.00012,0,0,2.146
2.318,7135.664,0.00014,0,0,2.167
2.34,7355.107,0.00014,0,0,2.187
2.362,7287.611,0.00014,0,0,2.208
2.384,7281.685,0.00014,0,0,2.229
2.406,6895.047,0.00015,0,0,2.25
2.429,7903.436,0.00013,0,0,2.27
2.451,7613.155,0.00013,0,0,2.291
2.473,7769.996,0.00013,0,0,2.312
2.495,8022.44,0.00012,0,0,2.333
2.517,8134.73,0.00012,0,0,2.353
2.54,6702.825,0.00015,0,0,2.374
2.562,7743.231,0.00013,0,0,2.395
2.584,8097.357,0.00012,0,0,2.415
2.606,8424.762,0.00012,0,0,2.436
2.628,8384.1,0.00012,0,0,2.457
2.65,9311.604,0.00011,0,0,2.478
2.673,9189.766,0.00011,0,0,2.498
2.695,10459.558,0.0001,0,0,2.519
2.717,12714.88,8E-05,0,0,2.54
2.739,15421.24,6E-05,0,0,2.561
2.761,17366.389,6E-05,0,0,2.581
2.784,18148.543,6E-05,0,0,2.602
2.806,20815.237,5E-05,0,0,2.623
2.828,21368.502,5E-05,0,0,2.643
2.85,22623.565,4E-05,0,0,2.664
2.872,22792.715,4E-05,0,0,2.685
2.894,22437.145,4E-05,0,0,2.706
2.917,22530.462,4E-05,0,0,2.726
2.939,21861.692,5E-05,0,0,2.747
2.961,23024.605,4E-05,0,0,2.768
2.983,22124.007,5E-05,0,0,2.789
3.005,19748.576,5E-05,0,0,2.809
3.027,17788.819,6E-05,0,0,2.83
3.05,13950.611,7E-05,0,0,2.851
3.072,11679.086,9E-05,0,0,2.871
3.094,10692.309,9E-05,0,0,2.892
3.116,9724.507,0.0001,0,0,2.913
3.138,9534.767,0.0001,0,0,2.934
3.161,8505.845,0.00012,0,0,2.954
3.183,9246.322,0.00011,0,0,2.975
3.205,8863.031,0.00011,0,0,2.996
3.227,9294.707,0.00011,0,0,3.017
3.249,10829.407,9E-05,0,0,3.037
3.271,11680.43,9E-05,0,0,3.058
3.294,13419.105,7E-05,0,0,3.079
3.316,14669.946,7E-05,0,0,3.099
3.338,18549.411,5E-05,0,0,3.12
3.36,18994.938,5E-05,0,0,3.141
3.382,21960.597,5E-05,0,0,3.162
3.404,22597.838,4E-05,0,0,3.182
3.427,25263.962,4E-05,0,0,3.203
3.449,26480.66,4E-05,0,0,3.224
3.471,27785.414,4E-05,0,0,3.245
3.493,27478.157,4E-05,0,0,3.265
3.515,24635.9,4E-05,0,0,3.286
3.538,22664.796,4E-05,0,0,3.307
3.56,20484.63,5E-05,0,0,3.327
3.582,16885.474,6E-05,0,0,3.348
3.604,15587.471,6E-05,0,0,3.369
3.626,13330.793,8E-05,0,0,3.39
3.648,12193.539,8E-05,0,0,3.41
3.671,11131.861,9E-05,0,0,3.431
3.693,10665.952,9E-05,0,0,3.452
3.715,11546.355,9E-05,0,0,3.472
3.737,11242.814,9E-05,0,0,3.493
3.759,12889.275,8E-05,0,0,3.514
3.782,13685.794,7E-05,0,0,3.535
3.804,14717.242,7E-05,0,0,3.555
3.826,16324.688,6E-05,0,0,3.576
3.848,18282.412,5E-05,0,0,3.597
3.87,20930.114,5E-05,0,0,3.618
3.892,21729.084,5E-05,0,0,3.638
3.915,24027.37,4E-05,0,0,3.659
3.937,25821.302,4E-05,0,0,3.68
3.959,27516.897,4E-05,0,0,3.7
3.981,29434.751,3E-05,0,0,3.721
4.003,28441.928,4E-05,0,0,3.742
4.025,27628.736,4E-05,0,0,3.763
4.048,26131.424,4E-05,0,0,3.783
4.07,24433.334,4E-05,0,0,3.804
4.092,22778.776,4E-05,0,0,3.825
4.114,21216.087,5E-05,0,0,3.845
4.136,20165.174,5E-05,0,0,3.866
4.159,17711.666,6E-05,0,0,3.887
4.181,16082.788,6E-05,0,0,3.908
4.203,14483.202,7E-05,0,0,3.928
4.225,13247.102,8E-05,0,0,3.949
4.247,13319.004,8E-05,0,0,3.97
4.269,12494.891,8E-05,0,0,3.991
4.292,13342.352,7E-05,0,0,4.011
4.314,13004.769,8E-05,0,0,4.032
4.336,14109.488,7E-05,0,0,4.053
4.358,15951.839,6E-05,0,0,4.073
4.38,17386.165,6E-05,0,0,4.094
4.402,19755.742,5E-05,0,0,4.115
4.425,20932.135,5E-05,0,0,4.136
4.447,22979.362,4E-05,0,0,4.156
4.469,24891.645,4E-05,0,0,4.177
4.491,28046.617,4E-05,0,0,4.198
4.513,29336.549,3E-05,0,0,4.218
4.536,29866.507,3E-05,0,0,4.239
4.558,29516.604,3E-05,0,0,4.26
4.58,26586.905,4E-05,0,0,4.281
4.602,24253.35,4E-05,0,0,4.301
4.624,21892.234,5E-05,0,0,4.322
4.646,19745.679,5E-05,0,0,4.343
4.669,18052.719,6E-05,0,0,4.363
4.691,16235.227,6E-05,0,0,4.384
4.713,15727.579,6E-05,0,0,4.405
4.735,15257.449,7E-05,0,0,4.426
4.757,15086.467,7E-05,0,0,4.446
4.78,15530.794,6E-05,0,0,4.467
4.802,15161.438,7E-05,0,0,4.488
4.824,15835.67,6E-05,0,0,4.508
4.846,15278.892,7E-05,0,0,4.529
4.868,15780.77,6E-05,0,0,4.55
4.89,15712.386,6E-05,0,0,4.571
4.913,14978.867,7E-05,0,0,4.591
4.935,15282.75,7E-05,0,0,4.612
4.957,14061.814,7E-05,0,0,4.633
4.979,13846.809,7E-05,0,0,4.653
5.001,13779.586,7E-05,0,0,4.674
5.023,12821.89,8E-05,0,0,4.695
5.046,12342.889,8E-05,0,0,4.716
5.068,11312.49,9E-05,0,0,4.736
5.09,10907.913,9E-05,0,0,4.757
5.112,9885.543,0.0001,0,0,4.778
5.134,10128.138,0.0001,0,0,4.798
5.157,10615.122,9E-05,0,0,4.819
5.179,10401.897,0.0001,0,0,4.84
5.201,11582.822,9E-05,0,0,4.861
5.223,11902.191,8E-05,0,0,4.881
5.245,13499.814,7E-05,0,0,4.902
5.267,14857.872,7E-05,0,0,4.923
5.29,15768.161,6E-05,0,0,4.943
5.312,16122.528,6E-05,0,0,4.964
5.334,15344.132,7E-05,0,0,4.985
5.356,14584.544,7E-05,0,0,5.006
5.378,13255.024,8E-05,0,0,5.026
5.4,11879.17,8E-05,0,0,5.047
5.423,10894.036,9E-05,0,0,5.068
5.445,9474.398,0.00011,0,0,5.088
5.467,8859.412,0.00011,0,0,5.109
5.489,7945.072,0.00013,0,0,5.13
5.511,8268.186,0.00012,0,0,5.151
5.534,8166.176,0.00012,0,0,5.171
5.556,8048.804,0.00012,0,0,5.192
5.578,9528.304,0.0001,0,0,5.213
5.6,9129.696,0.00011,0,0,5.233
5.622,10481.767,0.0001,0,0,5.254
5.644,11419.051,9E-05,0,0,5.275
5.667,12124.058,8E-05,0,0,5.295
5.689,12265.783,8E-05,0,0,5.316
5.711,12010.38,8E-05,0,0,5.337
5.733,11370.368,9E-05,0,0,5.358
5.755,9728.54,0.0001,0,0,5.378
5.778,9180.554,0.00011,0,0,5.399
5.8,8382.513,0.00012,0,0,5.42
5.822,7493.811,0.00013,0,0,5.44
5.844,7403.938,0.00014,0,0,5.461
5.866,7053.371,0.00014,0,0,5.482
5.888,7607.806,0.00013,0,0,5.503
5.911,7667.265,0.00013,0,0,5.523
5.933,8395.839,0.00012,0,0,5.544
5.955,8522.23,0.00012,0,0,5.565
5.977,7987.316,0.00013,0,0,5.585
5.999,9573.673,0.0001,0,0,5.606
6.021,8768.764,0.00011,0,0,5.627
6.044,10186.586,0.0001,0,0,5.648
6.066,10263.346,0.0001,0,0,5.668
6.088,9684.315,0.0001,0,0,5.689
6.11,10479.279,0.0001,0,0,5.71
6.132,10176.427,0.0001,0,0,5.73
6.155,9724.597,0.0001,0,0,5.751
6.177,9486.735,0.00011,0,0,5.772
6.199,8731.613,0.00011,0,0,5.792
6.221,8701.08,0.00011,0,0,5.813
6.243,7321.724,0.00014,0,0,5.834
6.265,7114.006,0.00014,0,0,5.855
6.288,7033.877,0.00014,0,0,5.875
6.31,6950.347,0.00014,0,0,5.896
6.332,7123.533,0.00014,0,0,5.917
6.354,6848.929,0.00015,0,0,5.937
6.376,7249.681,0.00014,0,0,5.958
6.398,6669.37,0.00015,0,0,5.979
6.421,7259.065,0.00014,0,0,5.999
6.443,7084.344,0.00014,0,0,6.02
6.465,6521.377,0.00015,0,0,6.041
6.487,6929.801,0.00014,0,0,6.062
6.509,6039.276,0.00017,0,0,6.082
6.532,6115.777,0.00016,0,0,6.103
6.554,6362.615,0.00016,0,0,6.124
6.576,5979.885,0.00017,0,0,6.144
6.598,6242.396,0.00016,0,0,6.165
6.62,5810.991,0.00017,0,0,6.186
6.642,6436.301,0.00016,0,0,6.206
6.665,5926.974,0.00017,0,0,6.227
6.687,6420.487,0.00016,0,0,6.248
6.709,6568.473,0.00015,0,0,6.269
6.731,6487.568,0.00015,0,0,6.289
6.753,6635.122,0.00015,0,0,6.31
6.776,6402.777,0.00016,0,0,6.331
6.798,6704.052,0.00015,0,0,6.351
6.82,6653.389,0.00015,0,0,6.372
6.842,6938.08,0.00014,0,0,6.393
6.864,6956.605,0.00014,0,0,6.413
6.886,6930.109,0.00014,0,0,6.434
6.909,7682.864,0.00013,0,0,6.455
6.931,7393.509,0.00014,0,0,6.476
6.953,7538.531,0.00013,0,0,6.496
6.975,7696.935,0.00013,0,0,6.517
6.997,7436.638,0.00013,0,0,6.538
7.019,7329.402,0.00014,0,0,6.558
7.042,6857.985,0.00015,0,0,6.579
7.064,6821.231,0.00015,0,0,6.6
7.086,6581.89,0.00015,0,0,6.62
7.108,6266.235,0.00016,0,0,6.641
7.13,6647.278,0.00015,0,0,6.662
7.153,6305.005,0.00016,0,0,6.682
7.175,6607.101,0.00015,0,0,6.703
7.197,7031.667,0.00014,0,0,6.724
7.219,6979.078,0.00014,0,0,6.745
7.241,7279.921,0.00014,0,0,6.765
7.263,7346.441,0.00014,0,0,6.786
7.286,7331.482,0.00014,0,0,6.807
7.308,7137.003,0.00014,0,0,6.827
7.33,6769.951,0.00015,0,0,6.848
7.352,6557.877,0.00015,0,0,6.869
7.374,6112.01,0.00016,0,0,6.889
7.396,6268.943,0.00016,0,0,6.91
7.419,6367.897,0.00016,0,0,6.931
7.441,6598.382,0.00015,0,0,6.951
7.463,7246.237,0.00014,0,0,6.972
7.485,7315.57,0.00014,0,0,6.993
7.507,8026.08,0.00012,0,0,7.014
7.53,8281.101,0.00012,0,0,7.034
7.552,8910.007,0.00011,0,0,7.055
7.574,9219.587,0.00011,0,0,7.076
7.596,8974.496,0.00011,0,0,7.096
7.618,9384.512,0.00011,0,0,7.117
7.64,8952.444,0.00011,0,0,7.138
7.663,8803.528,0.00011,0,0,7.158
7.685,8688.529,0.00012,0,0,7.179
7.707,8167.292,0.00012,0,0,7.2
7.729,7912.33,0.00013,0,0,7.22
7.751,7284.417,0.00014,0,0,7.241
7.774,7132.555,0.00014,0,0,7.262
7.796,6635.365,0.00015,0,0,7.282
7.818,6431.296,0.00016,0,0,7.303
7.84,6004.547,0.00017,0,0,7.324
7.862,5636.499,0.00018,0,0,7.345
7.884,5456.47,0.00018,0,0,7.365
7.907,4996.22,0.0002,0,0,7.386
7.929,4899.954,0.0002,0,0,7.407
7.951,5040.915,0.0002,0,0,7.427
7.973,4669.636,0.00021,0,0,7.448
7.995,4825.428,0.00021,0,0,7.469
8.017,4835.925,0.00021,0,0,7.489
8.04,4867.747,0.00021,0,0,7.51
8.062,5057.404,0.0002,0,0,7.531
8.084,4976.388,0.0002,0,0,7.551
8.106,4788.259,0.00021,0,0,7.572
8.128,4620.076,0.00022,0,0,7.593
8.151,4559.424,0.00022,0,0,7.613
8.173,4416.731,0.00023,0,0,7.634
8.195,4185.97,0.00024,0,0,7.655
8.217,4237.071,0.00024,0,0,7.675
8.239,4211.319,0.00024,0,0,7.696
8.261,4143.719,0.00024,0,0,7.717
8.284,4305.808,0.00023,0,0,7.737
8.306,4226.702,0.00024,0,0,7.758
8.328,4182.768,0.00024,0,0,7.779
8.35,4078.237,0.00025,0,0,7.8
8.372,3994.325,0.00025,0,0,7.82
8.394,3954.132,0.00025,0,0,7.841
8.417,3727.356,0.00027,0,0,7.862
8.439,3848.555,0.00026,0,0,7.882
8.461,3619.485,0.00028,0,0,7.903
8.483,3723.202,0.00027,0,0,7.924
8.505,3674.33,0.00027,0,0,7.944
8.528,3726.165,0.00027,0,0,7.965
8.55,3830.534,0.00026,0,0,7.986
8.572,3732.836,0.00027,0,0,8.006
8.594,3939.754,0.00025,0,0,8.027
8.616,3622.884,0.00028,0,0,8.048
8.638,3862.446,0.00026,0,0,8.068
8.661,3576.422,0.00028,0,0,8.089
8.683,3667.792,0.00027,0,0,8.11
8.705,3780.438,0.00026,0,0,8.13
8.727,3649.363,0.00027,0,0,8.151
8.749,3766.873,0.00027,0,0,8.172
8.772,3803.723,0.00026,0,0,8.192
8.794,3604.591,0.00028,0,0,8.213
8.816,3693.747,0.00027,0,0,8.234
8.838,3538.712,0.00028,0,0,8.254
8.86,3598.293,0.00028,0,0,8.275
8.882,3779.205,0.00026,0,0,8.296
8.905,3639.051,0.00027,0,0,8.316
8.927,3696.146,0.00027,0,0,8.337
8.949,3699.035,0.00027,0,0,8.358
8.971,3816.621,0.00026,0,0,8.378
8.993,3801.034,0.00026,0,0,8.399
9.015,3905.053,0.00026,0,0,8.42
9.038,4079.173,0.00025,0,0,8.44
9.06,4033.01,0.00025,0,0,8.461
9.082,4046.74,0.00025,0,0,8.482
9.104,4011.878,0.00025,0,0,8.502
9.126,3827.188,0.00026,0,0,8.523
9.149,3743.209,0.00027,0,0,8.544
9.171,3658.119,0.00027,0,0,8.564
9.193,3612.507,0.00028,0,0,8.585
9.215,3506.087,0.00029,0,0,8.606
9.237,3554.369,0.00028,0,0,8.626
9.259,3375.196,0.0003,0,0,8.647
9.282,3427.623,0.00029,0,0,8.668
9.304,3483.382,0.00029,0,0,8.688
9.326,3372.564,0.0003,0,0,8.709
9.348,3380.116,0.0003,0,0,8.73
9.37,3641.991,0.00027,0,0,8.75
9.392,3454.086,0.00029,0,0,8.771
9.415,3411.496,0.00029,0,0,8.792
9.437,3489.626,0.00029,0,0,8.812
9.459,3354.502,0.0003,0,0,8.833
9.481,3416.017,0.00029,0,0,8.854
9.503,3305.533,0.0003,0,0,8.874
9.526,3382.568,0.0003,0,0,8.895
9.548,3278.087,0.00031,0,0,8.916
9.57,3307.745,0.0003,0,0,8.936
9.592,3272.014,0.00031,0,0,8.957
9.614,3241.669,0.00031,0,0,8.978
9.636,3441.294,0.00029,0,0,8.998
9.659,3300.179,0.0003,0,0,9.019
9.681,3323.752,0.0003,0,0,9.04
9.703,3420.196,0.00029,0,0,9.06
9.725,3227.842,0.00031,0,0,9.081
9.747,3232.572,0.00031,0,0,9.102
9.77,3339.644,0.0003,0,0,9.122
9.792,3161.395,0.00032,0,0,9.143
9.814,3246.42,0.00031,0,0,9.164
9.836,3188.083,0.00031,0,0,9.184
9.858,3267.066,0.00031,0,0,9.205
9.88,3150.213,0.00032,0,0,9.226
9.903,3277.433,0.00031,0,0,9.246
9.925,3209.187,0.00031,0,0,9.267
9.947,3250.825,0.00031,0,0,9.288
9.969,3154.062,0.00032,0,0,9.308
9.991,3246.473,0.00031,0,0,9.329
10.013,3226.698,0.00031,0,0,9.35
10.036,3248.294,0.00031,0,0,9.37
10.058,3227.696,0.00031,0,0,9.391
10.08,3210.074,0.00031,0,0,9.412
10.102,3101.674,0.00032,0,0,9.432
10.124,3189.021,0.00031,0,0,9.453
10.147,3123.086,0.00032,0,0,9.473
10.169,3086.279,0.00032,0,0,9.494
10.191,3161.577,0.00032,0,0,9.515
10.213,2927.959,0.00034,0,0,9.535
10.235,3117.599,0.00032,0,0,9.556
10.257,3079.852,0.00032,0,0,9.577
10.28,3096.697,0.00032,0,0,9.597
10.302,3217.698,0.00031,0,0,9.618
10.324,3030.397,0.00033,0,0,9.639
10.346,3097.926,0.00032,0,0,9.659
10.368,3060.254,0.00033,0,0,9.68
10.39,3115.672,0.00032,0,0,9.701
10.413,3089.542,0.00032,0,0,9.721
10.435,3003.522,0.00033,0,0,9.742
10.457,3081.899,0.00032,0,0,9.763
10.479,2991.562,0.00033,0,0,9.783
10.501,3067.998,0.00033,0,0,9.804
10.524,3037.418,0.00033,0,0,9.825
10.546,3019.573,0.00033,0,0,9.845
10.568,3013.098,0.00033,0,0,9.866
10.59,3040.327,0.00033,0,0,9.886
10.612,3106.013,0.00032,0,0,9.907
10.634,3033.486,0.00033,0,0,9.928
10.657,3031.556,0.00033,0,0,9.948
10.679,3147.221,0.00032,0,0,9.969
10.701,3042.974,0.00033,0,0,9.99
10.723,3012.91,0.00033,0,0,10.01
10.745,3100.198,0.00032,0,0,10.031
10.768,2986.789,0.00033,0,0,10.052
10.79,2973.455,0.00034,0,0,10.072
10.812,2932.831,0.00034,0,0,10.093
10.834,2963.736,0.00034,0,0,10.114
10.856,2954.756,0.00034,0,0,10.134
10.878,3032.105,0.00033,0,0,10.155
10.901,2858.958,0.00035,0,0,10.175
10.923,2852.873,0.00035,0,0,10.196
10.945,2789.358,0.00036,0,0,10.217
10.967,2866.609,0.00035,0,0,10.237
10.989,2830.553,0.00035,0,0,10.258
11.011,3024.242,0.00033,0,0,10.279
11.034,2800.793,0.00036,0,0,10.299
11.056,2841.996,0.00035,0,0,10.32
11.078,2950.055,0.00034,0,0,10.341
11.1,2915.949,0.00034,0,0,10.361
11.122,2901.129,0.00034,0,0,10.382
11.145,2895.081,0.00035,0,0,10.402
11.167,2809.86,0.00036,0,0,10.423
11.189,2839.744,0.00035,0,0,10.444
11.211,2824.901,0.00035,0,0,10.464
11.233,2814.038,0.00036,0,0,10.485
11.255,2945.472,0.00034,0,0,10.506
11.278,2800.774,0.00036,0,0,10.526
11.3,2840.069,0.00035,0,0,10.547
11.322,2848.879,0.00035,0,0,10.568
11.344,2869.677,0.00035,0,0,10.588
11.366,2775.835,0.00036,0,0,10.609
11.388,2963.803,0.00034,0,0,10.629
11.411,2869.828,0.00035,0,0,10.65
11.433,2835.573,0.00035,0,0,10.671
11.455,2920.559,0.00034,0,0,10.691
11.477,2889.081,0.00035,0,0,10.712
11.499,2780.371,0.00036,0,0,10.733
11.522,2927.207,0.00034,0,0,10.753
11.544,2588.502,0.00039,0,0,10.774
11.566,2829.015,0.00035,0,0,10.794
11.588,2725.014,0.00037,0,0,10.815
11.61,2847.003,0.00035,0,0,10.836
11.632,2865.644,0.00035,0,0,10.856
11.655,2891.22,0.00035,0,0,10.877
11.677,2792.505,0.00036,0,0,10.898
11.699,2814.977,0.00036,0,0,10.918
11.721,2780.425,0.00036,0,0,10.939
11.743,2670.402,0.00037,0,0,10.959
11.766,2779.753,0.00036,0,0,10.98
11.788,2762.283,0.00036,0,0,11.001
11.81,2616.883,0.00038,0,0,11.021
11.832,2649.148,0.00038,0,0,11.042
11.854,2677.462,0.00037,0,0,11.063
11.876,2704.565,0.00037,0,0,11.083
11.899,2658.949,0.00038,0,0,11.104
11.921,2730.834,0.00037,0,0,11.124
11.943,2918.898,0.00034,0,0,11.145
11.965,2788.348,0.00036,0,0,11.166
11.987,2521.35,0.0004,0,0,11.186
12.009,2836.542,0.00035,0,0,11.207
12.032,2733.406,0.00037,0,0,11.228
12.054,2609.089,0.00038,0,0,11.248
12.076,2749.853,0.00036,0,0,11.269
12.098,2903.526,0.00034,0,0,11.289
12.12,2696.376,0.00037,0,0,11.31
12.143,2899.664,0.00034,0,0,11.331
12.165,2567.378,0.00039,0,0,11.351
12.187,2748.972,0.00036,0,0,11.372
12.209,2794.322,0.00036,0,0,11.393
12.231,2714.589,0.00037,0,0,11.413
12.253,2704.432,0.00037,0,0,11.434
12.276,2788.61,0.00036,0,0,11.454
12.298,2852.424,0.00035,0,0,11.475
12.32,2781.427,0.00036,0,0,11.496
12.342,2799.453,0.00036,0,0,11.516
12.364,2724.706,0.00037,0,0,11.537
12.386,2764.143,0.00036,0,0,11.557
12.409,2646.601,0.00038,0,0,11.578
12.431,2690.526,0.00037,0,0,11.599
12.453,2717.152,0.00037,0,0,11.619
12.475,2614.916,0.00038,0,0,11.64
12.497,2590.684,0.00039,0,0,11.66
12.52,2672.316,0.00037,0,0,11.681
12.542,2690.735,0.00037,0,0,11.702
12.564,2609.787,0.00038,0,0,11.722
12.586,2653.956,0.00038,0,0,11.743
12.608,2509.916,0.0004,0,0,11.764
12.63,2707.107,0.00037,0,0,11.784
12.653,2629.584,0.00038,0,0,11.805
12.675,2672.55,0.00037,0,0,11.825
12.697,2596.08,0.00039,0,0,11.846
12.719,2609.885,0.00038,0,0,11.867
12.741,2571.213,0.00039,0,0,11.887
12.764,2533.757,0.00039,0,0,11.908
12.786,2611.22,0.00038,0,0,11.928
12.808,2634.025,0.00038,0,0,11.949
12.83,2578.662,0.00039,0,0,11.97
12.852,2502.205,0.0004,0,0,11.99
12.874,2575.525,0.00039,0,0,12.011
12.897,2491.132,0.0004,0,0,12.031
12.919,2577.375,0.00039,0,0,12.052
12.941,2593.902,0.00039,0,0,12.073
12.963,2549.653,0.00039,0,0,12.093
12.985,2585.573,0.00039,0,0,12.114
13.007,2770.525,0.00036,0,0,12.134
13.03,2665.252,0.00038,0,0,12.155
13.052,2666.527,0.00038,0,0,12.176
13.074,2607.06,0.00038,0,0,12.196
13.096,2493.613,0.0004,0,0,12.217
13.118,2547.49,0.00039,0,0,12.237
13.141,2543.232,0.00039,0,0,12.258
13.163,2581.015,0.00039,0,0,12.279
13.185,2521.357,0.0004,0,0,12.299
13.207,2668.491,0.00037,0,0,12.32
13.229,2655.1,0.00038,0,0,12.34
13.251,2577.634,0.00039,0,0,12.361
13.274,2547.37,0.00039,0,0,12.382
13.296,2618.671,0.00038,0,0,12.402
13.318,2512.843,0.0004,0,0,12.423
13.34,2616.018,0.00038,0,0,12.443
13.362,2693.976,0.00037,0,0,12.464
13.384,2568.567,0.00039,0,0,12.485
13.407,2674.88,0.00037,0,0,12.505
13.429,2607.999,0.00038,0,0,12.526
13.451,2506.823,0.0004,0,0,12.546
13.473,2609.331,0.00038,0,0,12.567
13.495,2590.933,0.00039,0,0,12.588
13.518,2492.428,0.0004,0,0,12.608
13.54,2585.036,0.00039,0,0,12.629
13.562,2502.289,0.0004,0,0,12.649
13.584,2413.374,0.00041,0,0,12.67
13.606,2551.057,0.00039,0,0,12.69
13.628,2408.297,0.00042,0,0,12.711
13.651,2500.811,0.0004,0,0,12.732
13.673,2519.733,0.0004,0,0,12.752
13.695,2590.846,0.00039,0,0,12.773
13.717,2483.675,0.0004,0,0,12.793
13.739,2530.398,0.0004,0,0,12.814
13.762,2455.875,0.00041,0,0,12.835
13.784,2592.229,0.00039,0,0,12.855
13.806,2595.069,0.00039,0,0,12.876
13.828,2598.724,0.00038,0,0,12.896
13.85,2613.663,0.00038,0,0,12.917
13.872,2500.796,0.0004,0,0,12.937
13.895,2515.399,0.0004,0,0,12.958
13.917,2455.032,0.00041,0,0,12.979
13.939,2508.024,0.0004,0,0,12.999
13.961,2461.098,0.00041,0,0,13.02
13.983,2603.707,0.00038,0,0,13.04
14.005,2655.547,0.00038,0,0,13.061
14.028,2514.475,0.0004,0,0,13.082
14.05,2505.78,0.0004,0,0,13.102
14.072,2566.608,0.00039,0,0,13.123
14.094,2386.813,0.00042,0,0,13.143
14.116,2480.148,0.0004,0,0,13.164
14.139,2465.415,0.00041,0,0,13.184
14.161,2521.353,0.0004,0,0,13.205
14.183,2592.998,0.00039,0,0,13.226
14.205,2426.815,0.00041,0,0,13.246
14.227,2444.896,0.00041,0,0,13.267
14.249,2390.428,0.00042,0,0,13.287
14.272,2348.116,0.00043,0,0,13.308
14.294,2362.71,0.00042,0,0,13.328
14.316,2332.215,0.00043,0,0,13.349
14.338,2384.007,0.00042,0,0,13.37
14.36,2422.436,0.00041,0,0,13.39
14.382,2399.983,0.00042,0,0,13.411
14.405,2371.576,0.00042,0,0,13.431
14.427,2437.941,0.00041,0,0,13.452
14.449,2323.421,0.00043,0,0,13.472
14.471,2527.998,0.0004,0,0,13.493
14.493,2387.424,0.00042,0,0,13.514
14.516,2293.515,0.00044,0,0,13.534
14.538,2363.418,0.00042,0,0,13.555
14.56,2336.179,0.00043,0,0,13.575
14.582,2434.969,0.00041,0,0,13.596
14.604,2388.6,0.00042,0,0,13.616
14.626,2236.181,0.00045,0,0,13.637
14.649,2387.414,0.00042,0,0,13.658
14.671,2452.659,0.00041,0,0,13.678
14.693,2331.83,0.00043,0,0,13.699
14.715,2420.564,0.00041,0,0,13.719
14.737,2297.092,0.00044,0,0,13.74
14.76,2395.004,0.00042,0,0,13.76
14.782,2213.21,0.00045,0,0,13.781
14.804,2258.155,0.00044,0,0,13.801
14.826,2329.847,0.00043,0,0,13.822
14.848,2276.889,0.00044,0,0,13.843
14.87,2324.795,0.00043,0,0,13.863
14.893,2287.35,0.00044,0,0,13.884
14.915,2276.783,0.00044,0,0,13.904
14.937,2409.367,0.00042,0,0,13.925
14.959,2457.057,0.00041,0,0,13.945
14.981,2332.885,0.00043,0,0,13.966
15.003,2374.065,0.00042,0,0,13.987
15.026,2316.267,0.00043,0,0,14.007
15.048,2418.011,0.00041,0,0,14.028
15.07,2318.817,0.00043,0,0,14.048
15.092,2289.548,0.00044,0,0,14.069
15.114,2188.591,0.00046,0,0,14.089
15.137,2171.841,0.00046,0,0,14.11
15.159,2260.396,0.00044,0,0,14.13
15.181,2246.618,0.00045,0,0,14.151
15.203,2238.07,0.00045,0,0,14.171
15.225,2307.385,0.00043,0,0,14.192
15.247,2340.003,0.00043,0,0,14.213
15.27,2363.476,0.00042,0,0,14.233
15.292,2245.624,0.00045,0,0,14.254
15.314,2245.123,0.00045,0,0,14.274
15.336,2207.493,0.00045,0,0,14.295
15.358,2213.642,0.00045,0,0,14.315
15.38,2188.657,0.00046,0,0,14.336
15.403,2145.869,0.00047,0,0,14.356
15.425,2181.977,0.00046,0,0,14.377
15.447,2253.418,0.00044,0,0,14.398
15.469,2259.262,0.00044,0,0,14.418
15.491,2196.299,0.00046,0,0,14.439
15.514,2295.472,0.00044,0,0,14.459
15.536,2295.769,0.00044,0,0,14.48
15.558,2289.461,0.00044,0,0,14.5
15.58,2163.667,0.00046,0,0,14.521
15.602,2162.314,0.00046,0,0,14.541
15.624,2200.446,0.00045,0,0,14.562
15.647,2228.224,0.00045,0,0,14.582
15.669,2196.784,0.00046,0,0,14.603
15.691,2256.505,0.00044,0,0,14.623
15.713,2289.215,0.00044,0,0,14.644
15.735,2210.359,0.00045,0,0,14.665
15.758,2114.005,0.00047,0,0,14.685
15.78,2158.238,0.00046,0,0,14.706
15.802,2156.554,0.00046,0,0,14.726
15.824,2137.114,0.00047,0,0,14.747
15.846,2122.309,0.00047,0,0,14.767
15.868,2205.025,0.00045,0,0,14.788
15.891,2158.742,0.00046,0,0,14.808
15.913,2118.585,0.00047,0,0,14.829
15.935,2095.335,0.00048,0,0,14.849
15.957,2187.238,0.00046,0,0,14.87
15.979,2073.125,0.00048,0,0,14.89
16.001,2243.652,0.00045,0,0,14.911
16.024,2061.023,0.00049,0,0,14.932
16.046,2054.684,0.00049,0,0,14.952
16.068,2140.387,0.00047,0,0,14.973
16.09,2172.347,0.00046,0,0,14.993
16.112,2130.825,0.00047,0,0,15.014
16.135,2076.599,0.00048,0,0,15.034
16.157,2166.046,0.00046,0,0,15.055
16.179,2102.192,0.00048,0,0,15.075
16.201,2032.289,0.00049,0,0,15.096
16.223,2026.268,0.00049,0,0,15.116
16.245,1964.896,0.00051,0,0,15.137
16.268,2136.179,0.00047,0,0,15.157
16.29,2040.98,0.00049,0,0,15.178
16.312,2015.758,0.0005,0,0,15.198
16.334,1924.663,0.00052,0,0,15.219
16.356,2111.086,0.00047,0,0,15.239
16.378,1895.159,0.00053,0,0,15.26
16.401,2001.854,0.0005,0,0,15.28
16.423,1958.66,0.00051,0,0,15.301
16.445,1995.009,0.0005,0,0,15.322
16.467,1938.561,0.00052,0,0,15.342
16.489,1964.667,0.00051,0,0,15.363
16.512,2017.618,0.0005,0,0,15.383
16.534,2017.889,0.0005,0,0,15.404
16.556,2115.421,0.00047,0,0,15.424
16.578,2050.099,0.00049,0,0,15.445
16.6,2021.393,0.00049,0,0,15.465
16.622,1978.121,0.00051,0,0,15.486
16.645,1920.433,0.00052,0,0,15.506
16.667,2020.706,0.00049,0,0,15.527
16.689,1967.723,0.00051,0,0,15.547
16.711,1970.594,0.00051,0,0,15.568
16.733,1983.631,0.0005,0,0,15.588
16.756,2024.123,0.00049,0,0,15.609
16.778,1891.012,0.00053,0,0,15.629
16.8,1975.553,0.00051,0,0,15.65
16.822,1969.863,0.00051,0,0,15.67
16.844,1957.065,0.00051,0,0,15.691
16.866,1904.476,0.00053,0,0,15.711
16.889,1881.809,0.00053,0,0,15.732
16.911,1762.156,0.00057,0,0,15.752
16.933,1921.578,0.00052,0,0,15.773
16.955,1934.669,0.00052,0,0,15.793
16.977,1912.096,0.00052,0,0,15.814
16.999,1831.309,0.00055,0,0,15.834
17.022,1983.045,0.0005,0,0,15.855
17.044,1878.675,0.00053,0,0,15.875
17.066,1892.407,0.00053,0,0,15.896
17.088,1853.081,0.00054,0,0,15.916
17.11,1876.747,0.00053,0,0,15.937
17.133,1876.986,0.00053,0,0,15.957
17.155,1762.196,0.00057,0,0,15.978
17.177,1924.443,0.00052,0,0,15.998
17.199,1793.968,0.00056,0,0,16.019
17.221,1832.844,0.00055,0,0,16.039
17.243,1844.087,0.00054,0,0,16.06
17.266,1647.942,0.00061,0,0,16.08
17.288,1766.509,0.00057,0,0,16.101
17.31,1751.124,0.00057,0,0,16.121
17.332,1793.464,0.00056,0,0,16.142
17.354,1787.873,0.00056,0,0,16.162
17.376,1743.004,0.00057,0,0,16.183
17.399,1870.939,0.00053,0,0,16.203
17.421,1799.789,0.00056,0,0,16.224
17.443,1767.162,0.00057,0,0,16.244
17.465,1787.664,0.00056,0,0,16.265
17.487,1860.407,0.00054,0,0,16.285
17.51,1791.345,0.00056,0,0,16.306
17.532,1866.403,0.00054,0,0,16.326
17.554,1812.516,0.00055,0,0,16.347
17.576,1727.954,0.00058,0,0,16.367
17.598,1869.666,0.00053,0,0,16.388
17.62,1879.517,0.00053,0,0,16.408
17.643,1813.871,0.00055,0,0,16.429
17.665,1921.1,0.00052,0,0,16.449
17.687,1742.274,0.00057,0,0,16.47
17.709,1924.618,0.00052,0,0,16.49
17.731,1872.789,0.00053,0,0,16.511
17.754,1890.358,0.00053,0,0,16.531
17.776,1738.496,0.00058,0,0,16.552
17.798,1729.565,0.00058,0,0,16.572
17.82,1827.454,0.00055,0,0,16.593
17.842,1719.737,0.00058,0,0,16.613
17.864,1789.213,0.00056,0,0,16.634
17.887,1838.759,0.00054,0,0,16.654
17.909,1851.872,0.00054,0,0,16.675
17.931,1811.563,0.00055,0,0,16.695
17.953,1770.735,0.00056,0,0,16.716
17.975,1778.814,0.00056,0,0,16.736
17.997,1741.355,0.00057,0,0,16.757
18.02,1822.899,0.00055,0,0,16.777
18.042,1731.934,0.00058,0,0,16.797
18.064,1823.896,0.00055,0,0,16.818
18.086,1668.396,0.0006,0,0,16.838
18.108,1687.678,0.00059,0,0,16.859
18.131,1779.893,0.00056,0,0,16.879
18.153,1703.951,0.00059,0,0,16.9
18.175,1720.712,0.00058,0,0,16.92
18.197,1612.311,0.00062,0,0,16.941
18.219,1687.601,0.00059,0,0,16.961
18.241,1702.674,0.00059,0,0,16.982
18.264,1652.8,0.00061,0,0,17.002
18.286,1651.416,0.00061,0,0,17.023
18.308,1658.385,0.0006,0,0,17.043
18.33,1831.599,0.00055,0,0,17.064
18.352,1652.259,0.00061,0,0,17.084
18.374,1746.88,0.00057,0,0,17.105
18.397,1704.804,0.00059,0,0,17.125
18.419,1740.876,0.00057,0,0,17.145
18.441,1732.439,0.00058,0,0,17.166
18.463,1699.333,0.00059,0,0,17.186
18.485,1637.798,0.00061,0,0,17.207
18.508,1721.112,0.00058,0,0,17.227
18.53,1709.741,0.00058,0,0,17.248
18.552,1698.473,0.00059,0,0,17.268
18.574,1689.042,0.00059,0,0,17.289
18.596,1636.694,0.00061,0,0,17.309
18.618,1574.855,0.00063,0,0,17.33
18.641,1629.156,0.00061,0,0,17.35
18.663,1656.372,0.0006,0,0,17.371
18.685,1570.234,0.00064,0,0,17.391
18.707,1746.075,0.00057,0,0,17.412
18.729,1712.526,0.00058,0,0,17.432
18.752,1639.606,0.00061,0,0,17.452
18.774,1669.504,0.0006,0,0,17.473
18.796,1713.747,0.00058,0,0,17.493
18.818,1692.273,0.00059,0,0,17.514
18.84,1680.491,0.0006,0,0,17.534
18.862,1687.67,0.00059,0,0,17.555
18.885,1530.994,0.00065,0,0,17.575
18.907,1635.276,0.00061,0,0,17.596
18.929,1657.174,0.0006,0,0,17.616
18.951,1645.402,0.00061,0,0,17.637
18.973,1661.921,0.0006,0,0,17.657
18.995,1556.051,0.00064,0,0,17.677
19.018,1681.303,0.00059,0,0,17.698
19.04,1491.649,0.00067,0,0,17.718
19.062,1561.596,0.00064,0,0,17.739
19.084,1614.555,0.00062,0,0,17.759
19.106,1575.293,0.00063,0,0,17.78
19.129,1538.015,0.00065,0,0,17.8
19.151,1560.165,0.00064,0,0,17.821
19.173,1537.117,0.00065,0,0,17.841
19.195,1670.348,0.0006,0,0,17.861
19.217,1592.147,0.00063,0,0,17.882
19.239,1635.15,0.00061,0,0,17.902
19.262,1550.729,0.00064,0,0,17.923
19.284,1563.615,0.00064,0,0,17.943
19.306,1604.077,0.00062,0,0,17.964
19.328,1631.156,0.00061,0,0,17.984
19.35,1640.622,0.00061,0,0,18.005
19.372,1563.426,0.00064,0,0,18.025
19.395,1654.571,0.0006,0,0,18.045
19.417,1583.715,0.00063,0,0,18.066
19.439,1557.579,0.00064,0,0,18.086
19.461,1579.859,0.00063,0,0,18.107
19.483,1648.879,0.00061,0,0,18.127
19.506,1688.144,0.00059,0,0,18.148
19.528,1512.049,0.00066,0,0,18.168
19.55,1540.563,0.00065,0,0,18.188
19.572,1474.155,0.00068,0,0,18.209
19.594,1458.651,0.00069,0,0,18.229
19.616,1450.384,0.00069,0,0,18.25
19.639,1405.85,0.00071,0,0,18.27
19.661,1564.785,0.00064,0,0,18.291
19.683,1570.807,0.00064,0,0,18.311
19.705,1543.531,0.00065,0,0,18.331
19.727,1523.161,0.00066,0,0,18.352
19.75,1538.916,0.00065,0,0,18.372
19.772,1607.092,0.00062,0,0,18.393
19.794,1571.163,0.00064,0,0,18.413
19.816,1557.623,0.00064,0,0,18.434
19.838,1483.119,0.00067,0,0,18.454
19.86,1441.248,0.00069,0,0,18.474
19.883,1381.395,0.00072,0,0,18.495
19.905,1457.268,0.00069,0,0,18.515
19.927,1473.23,0.00068,0,0,18.536
19.949,1570.324,0.00064,0,0,18.556
19.971,1491.291,0.00067,0,0,18.577
19.993,1450.742,0.00069,0,0,18.597
20.016,1410.241,0.00071,0,0,18.617
20.038,1505.391,0.00066,0,0,18.638
20.06,1455.608,0.00069,0,0,18.658
20.082,1417.389,0.00071,0,0,18.679
20.104,1452.78,0.00069,0,0,18.699
20.127,1439.904,0.00069,0,0,18.719
20.149,1362.549,0.00073,0,0,18.74
20.171,1432.146,0.0007,0,0,18.76
20.193,1454.343,0.00069,0,0,18.781
20.215,1498.38,0.00067,0,0,18.801
20.237,1475.896,0.00068,0,0,18.822
20.26,1367.921,0.00073,0,0,18.842
20.282,1466.881,0.00068,0,0,18.862
20.304,1422.885,0.0007,0,0,18.883
20.326,1339.149,0.00075,0,0,18.903
20.348,1384.341,0.00072,0,0,18.924
20.37,1365.985,0.00073,0,0,18.944
20.393,1384.909,0.00072,0,0,18.964
20.415,1372.19,0.00073,0,0,18.985
20.437,1405.981,0.00071,0,0,19.005
20.459,1345.979,0.00074,0,0,19.026
20.481,1393.196,0.00072,0,0,19.046
20.504,1402.944,0.00071,0,0,19.066
20.526,1468.268,0.00068,0,0,19.087
20.548,1409.297,0.00071,0,0,19.107
20.57,1351.518,0.00074,0,0,19.128
20.592,1393.157,0.00072,0,0,19.148
20.614,1340.535,0.00075,0,0,19.168
20.637,1351.131,0.00074,0,0,19.189
20.659,1301.476,0.00077,0,0,19.209
20.681,1318.513,0.00076,0,0,19.23
20.703,1276.797,0.00078,0,0,19.25
20.725,1287.445,0.00078,0,0,19.27
20.748,1406.811,0.00071,0,0,19.291
20.77,1373.222,0.00073,0,0,19.311
20.792,1350.119,0.00074,0,0,19.332
20.814,1287.845,0.00078,0,0,19.352
20.836,1431.454,0.0007,0,0,19.372
20.858,1421.749,0.0007,0,0,19.393
20.881,1338.174,0.00075,0,0,19.413
20.903,1398.241,0.00072,0,0,19.434
20.925,1319.957,0.00076,0,0,19.454
20.947,1531.485,0.00065,0,0,19.474
20.969,1341.026,0.00075,0,0,19.495
20.991,1262.572,0.00079,0,0,19.515
21.014,1159.333,0.00086,0,0,19.535
21.036,1339.357,0.00075,0,0,19.556
21.058,1307.885,0.00076,0,0,19.576
21.08,1216.863,0.00082,0,0,19.597
21.102,1320.36,0.00076,0,0,19.617
21.125,1342.162,0.00075,0,0,19.637
21.147,1192.7,0.00084,0,0,19.658
21.169,1256.454,0.0008,0,0,19.678
21.191,1315.529,0.00076,0,0,19.699
21.213,1421.407,0.0007,0,0,19.719
21.235,1404.572,0.00071,0,0,19.739
21.258,1284.248,0.00078,0,0,19.76
21.28,1244.564,0.0008,0,0,19.78
21.302,1321.134,0.00076,0,0,19.8
21.324,1250.879,0.0008,0,0,19.821
21.346,1192.185,0.00084,0,0,19.841
21.368,1195.394,0.00084,0,0,19.862
21.391,1360.754,0.00073,0,0,19.882
21.413,1376.68,0.00073,0,0,19.902
21.435,1322.622,0.00076,0,0,19.923
21.457,1352.797,0.00074,0,0,19.943
21.479,1238.48,0.00081,0,0,19.963
21.502,1192.295,0.00084,0,0,19.984
21.524,1333.544,0.00075,0,0,20.004
21.546,1282.32,0.00078,0,0,20.025
21.568,1259.588,0.00079,0,0,20.045
21.59,1233.363,0.00081,0,0,20.065
21.612,1282.729,0.00078,0,0,20.086
21.635,1346.236,0.00074,0,0,20.106
21.657,1354.971,0.00074,0,0,20.126
21.679,1305.435,0.00077,0,0,20.147
21.701,1334.176,0.00075,0,0,20.167
21.723,1307.726,0.00076,0,0,20.187
21.746,1221.783,0.00082,0,0,20.208
21.768,1271.826,0.00079,0,0,20.228
21.79,1279.058,0.00078,0,0,20.249
21.812,1306.309,0.00077,0,0,20.269
21.834,1242.795,0.0008,0,0,20.289
21.856,1372.852,0.00073,0,0,20.31
21.879,1219.525,0.00082,0,0,20.33
21.901,1271.724,0.00079,0,0,20.35
21.923,1251.412,0.0008,0,0,20.371
21.945,1218.59,0.00082,0,0,20.391
21.967,1258.287,0.00079,0,0,20.411
21.989,1310.891,0.00076,0,0,20.432
22.012,1243.725,0.0008,0,0,20.452
22.034,1241.464,0.00081,0,0,20.472
22.056,1256.138,0.0008,0,0,20.493
22.078,1244.911,0.0008,0,0,20.513
22.1,1220.132,0.00082,0,0,20.533
22.123,1208.335,0.00083,0,0,20.554
22.145,1297.376,0.00077,0,0,20.574
22.167,1279.279,0.00078,0,0,20.595
22.189,1213.654,0.00082,0,0,20.615
22.211,1157.047,0.00086,0,0,20.635
22.233,1170.711,0.00085,0,0,20.656
22.256,1153.828,0.00087,0,0,20.676
22.278,1199.072,0.00083,0,0,20.696
22.3,1089.882,0.00092,0,0,20.717
22.322,1250.77,0.0008,0,0,20.737
22.344,1192.699,0.00084,0,0,20.757
22.366,1261.927,0.00079,0,0,20.778
22.389,1125.832,0.00089,0,0,20.798
22.411,1146.401,0.00087,0,0,20.818
22.433,1279.795,0.00078,0,0,20.839
22.455,1119.852,0.00089,0,0,20.859
22.477,1030.225,0.00097,0,0,20.879
22.5,1191.308,0.00084,0,0,20.9
22.522,1217.705,0.00082,0,0,20.92
22.544,1119.882,0.00089,0,0,20.94
22.566,1282.361,0.00078,0,0,20.961
22.588,1215.573,0.00082,0,0,20.981
22.61,1253.921,0.0008,0,0,21.001
22.633,1185.053,0.00084,0,0,21.022
22.655,1099.262,0.00091,0,0,21.042
22.677,1062.963,0.00094,0,0,21.062
22.699,1113.121,0.0009,0,0,21.083
22.721,1119.865,0.00089,0,0,21.103
22.744,1030.856,0.00097,0,0,21.123
22.766,1162.482,0.00086,0,0,21.144
22.788,1074.124,0.00093,0,0,21.164
22.81,1217.514,0.00082,0,0,21.184
22.832,1116.362,0.0009,0,0,21.205
22.854,1275.33,0.00078,0,0,21.225
22.877,1203.098,0.00083,0,0,21.245
22.899,1170.487,0.00085,0,0,21.266
22.921,1176.154,0.00085,0,0,21.286
22.943,1177.461,0.00085,0,0,21.306
22.965,1213.312,0.00082,0,0,21.327
22.987,1153.688,0.00087,0,0,21.347
23.01,1112.045,0.0009,0,0,21.367
23.032,1107.171,0.0009,0,0,21.387
23.054,1062.769,0.00094,0,0,21.408
23.076,1071.559,0.00093,0,0,21.428
23.098,1131.306,0.00088,0,0,21.448
23.121,1099.602,0.00091,0,0,21.469
23.143,1084.085,0.00092,0,0,21.489
23.165,1083.96,0.00092,0,0,21.509
23.187,1072.045,0.00093,0,0,21.53
23.209,1121.132,0.00089,0,0,21.55
23.231,1064.049,0.00094,0,0,21.57
23.254,1126.612,0.00089,0,0,21.591
23.276,1273.58,0.00079,0,0,21.611
23.298,1110.516,0.0009,0,0,21.631
23.32,1188.646,0.00084,0,0,21.652
23.342,1136.239,0.00088,0,0,21.672
23.364,1193.727,0.00084,0,0,21.692
23.387,1180.454,0.00085,0,0,21.712
23.409,1125.921,0.00089,0,0,21.733
23.431,1182.282,0.00085,0,0,21.753
23.453,1042.575,0.00096,0,0,21.773
23.475,1049.113,0.00095,0,0,21.794
23.498,1115.117,0.0009,0,0,21.814
23.52,1069.997,0.00093,0,0,21.834
23.542,1075.835,0.00093,0,0,21.855
23.564,1181.738,0.00085,0,0,21.875
23.586,1111.324,0.0009,0,0,21.895
23.608,1100.482,0.00091,0,0,21.915
23.631,1173.027,0.00085,0,0,21.936
23.653,1176.047,0.00085,0,0,21.956
23.675,1099.359,0.00091,0,0,21.976
23.697,1163.242,0.00086,0,0,21.997
23.719,1149.793,0.00087,0,0,22.017
23.742,1149.238,0.00087,0,0,22.037
23.764,1131.714,0.00088,0,0,22.057
23.786,1089.396,0.00092,0,0,22.078
23.808,1083.559,0.00092,0,0,22.098
23.83,1126.029,0.00089,0,0,22.118
23.852,1105.649,0.0009,0,0,22.139
23.875,1087.731,0.00092,0,0,22.159
23.897,1072.141,0.00093,0,0,22.179
23.919,1070.02,0.00093,0,0,22.199
23.941,1080.301,0.00093,0,0,22.22
23.963,1036.925,0.00096,0,0,22.24
23.985,1145.804,0.00087,0,0,22.26
24.008,1092.891,0.00092,0,0,22.281
24.03,1188.924,0.00084,0,0,22.301
24.052,1027.866,0.00097,0,0,22.321
24.074,1096.273,0.00091,0,0,22.341
24.096,993.97,0.00101,0,0,22.362
24.119,1016.234,0.00098,0,0,22.382
24.141,1057.14,0.00095,0,0,22.402
24.163,1047.184,0.00095,0,0,22.423
24.185,1064.471,0.00094,0,0,22.443
24.207,1150.591,0.00087,0,0,22.463
24.229,1041.784,0.00096,0,0,22.483
24.252,1017.661,0.00098,0,0,22.504
24.274,1068.347,0.00094,0,0,22.524
24.296,1036.97,0.00096,0,0,22.544
24.318,1046.759,0.00096,0,0,22.564
24.34,1096.684,0.00091,0,0,22.585
24.362,1008.939,0.00099,0,0,22.605
24.385,990.798,0.00101,0,0,22.625
24.407,1089.701,0.00092,0,0,22.646
24.429,1172.379,0.00085,0,0,22.666
24.451,1056.261,0.00095,0,0,22.686
24.473,1083.863,0.00092,0,0,22.706
24.496,997.595,0.001,0,0,22.727
24.518,1042.977,0.00096,0,0,22.747
24.54,1110.864,0.0009,0,0,22.767
24.562,1063.576,0.00094,0,0,22.787
24.584,1064.303,0.00094,0,0,22.808
24.606,1054.034,0.00095,0,0,22.828
24.629,1032.005,0.00097,0,0,22.848
24.651,993.484,0.00101,0,0,22.868
24.673,966.291,0.00103,0,0,22.889
24.695,1082.567,0.00092,0,0,22.909
24.717,1032.733,0.00097,0,0,22.929
24.74,1038.809,0.00096,0,0,22.949
24.762,959.994,0.00104,0,0,22.97
24.784,1075.101,0.00093,0,0,22.99
24.806,1033.456,0.00097,0,0,23.01
24.828,955.42,0.00105,0,0,23.03
24.85,1043.527,0.00096,0,0,23.051
24.873,1033.897,0.00097,0,0,23.071
24.895,1125.162,0.00089,0,0,23.091
24.917,1088.738,0.00092,0,0,23.111
24.939,1147.267,0.00087,0,0,23.132
24.961,1049.747,0.00095,0,0,23.152
24.983,1023.906,0.00098,0,0,23.172
25.006,1141.62,0.00088,0,0,23.192
25.028,1020.782,0.00098,0,0,23.213
25.05,1016.64,0.00098,0,0,23.233
25.072,1102.621,0.00091,0,0,23.253
25.094,1069.772,0.00093,0,0,23.273
25.117,1097.818,0.00091,0,0,23.294
25.139,1127.347,0.00089,0,0,23.314
25.161,1103.009,0.00091,0,0,23.334
25.183,1109.328,0.0009,0,0,23.354
25.205,953.193,0.00105,0,0,23.375
25.227,1129.946,0.00088,0,0,23.395
25.25,1014.361,0.00099,0,0,23.415
25.272,967.316,0.00103,0,0,23.435
25.294,974.308,0.00103,0,0,23.455
25.316,1061.257,0.00094,0,0,23.476
25.338,1140.213,0.00088,0,0,23.496
25.36,955.656,0.00105,0,0,23.516
25.383,1020.256,0.00098,0,0,23.536
25.405,1033.048,0.00097,0,0,23.557
25.427,1094.086,0.00091,0,0,23.577
25.449,1076.024,0.00093,0,0,23.597
25.471,1044.001,0.00096,0,0,23.617
25.494,1120.904,0.00089,0,0,23.637
25.516,1022.725,0.00098,0,0,23.658
25.538,902.358,0.00111,0,0,23.678
25.56,889.309,0.00112,0,0,23.698
25.582,1078.712,0.00093,0,0,23.718
25.604,1014.671,0.00099,0,0,23.739
25.627,1064.325,0.00094,0,0,23.759
25.649,1031.192,0.00097,0,0,23.779
25.671,1022.325,0.00098,0,0,23.799
25.693,1000.987,0.001,0,0,23.819
25.715,1024.049,0.00098,0,0,23.84
25.738,1050.07,0.00095,0,0,23.86
25.76,1024.718,0.00098,0,0,23.88
25.782,994.11,0.00101,0,0,23.9
25.804,1162.222,0.00086,0,0,23.921
25.826,1124.972,0.00089,0,0,23.941
25.848,1036.115,0.00097,0,0,23.961
25.871,1003.147,0.001,0,0,23.981
25.893,952.792,0.00105,0,0,24.001
25.915,1016.632,0.00098,0,0,24.022
25.937,1118.571,0.00089,0,0,24.042
25.959,952.064,0.00105,0,0,24.062
25.981,906.348,0.0011,0,0,24.082
26.004,1042.442,0.00096,0,0,24.102
26.026,1074.957,0.00093,0,0,24.123
26.048,1573.336,0.00064,0,0,24.143
26.07,1046.19,0.00096,0,0,24.163
26.092,994.875,0.00101,0,0,24.183
26.115,1000.572,0.001,0,0,24.203
26.137,961.614,0.00104,0,0,24.224
26.159,1039.141,0.00096,0,0,24.244
26.181,970.582,0.00103,0,0,24.264
26.203,1047.439,0.00095,0,0,24.284
26.225,970.607,0.00103,0,0,24.304
26.248,954.897,0.00105,0,0,24.325
26.27,1075.038,0.00093,0,0,24.345
26.292,967.176,0.00103,0,0,24.365
26.314,1021.861,0.00098,0,0,24.385
26.336,1011.338,0.00099,0,0,24.405
26.358,1005.71,0.00099,0,0,24.425
26.381,999.173,0.001,0,0,24.446
26.403,1000.296,0.001,0,0,24.466
26.425,916.584,0.00109,0,0,24.486
26.447,954.049,0.00105,0,0,24.506
26.469,1010.768,0.00099,0,0,24.526
26.492,941.813,0.00106,0,0,24.547
26.514,1077.862,0.00093,0,0,24.567
26.536,1006.989,0.00099,0,0,24.587
26.558,1078.069,0.00093,0,0,24.607
26.58,1009.628,0.00099,0,0,24.627
26.602,914.156,0.00109,0,0,24.647
26.625,977.969,0.00102,0,0,24.668
26.647,985.835,0.00101,0,0,24.688
26.669,1050.226,0.00095,0,0,24.708
26.691,1089.62,0.00092,0,0,24.728
26.713,1042.063,0.00096,0,0,24.748
26.736,988.674,0.00101,0,0,24.769
26.758,986.375,0.00101,0,0,24.789
26.78,1112.459,0.0009,0,0,24.809
26.802,1000.366,0.001,0,0,24.829
26.824,988.53,0.00101,0,0,24.849
26.846,1026.89,0.00097,0,0,24.869
26.869,1030.212,0.00097,0,0,24.89
26.891,1013.342,0.00099,0,0,24.91
26.913,1007.55,0.00099,0,0,24.93
26.935,941.987,0.00106,0,0,24.95
26.957,955.405,0.00105,0,0,24.97
26.979,1080.04,0.00093,0,0,24.99
27.002,1015.11,0.00099,0,0,25.011
27.024,1027.189,0.00097,0,0,25.031
27.046,939.591,0.00106,0,0,25.051
27.068,892.907,0.00112,0,0,25.071
27.09,1014.496,0.00099,0,0,25.091
27.113,869.917,0.00115,0,0,25.111
27.135,927.936,0.00108,0,0,25.131
27.157,1020.769,0.00098,0,0,25.152
27.179,1030.814,0.00097,0,0,25.172
27.201,1002.802,0.001,0,0,25.192
27.223,928.389,0.00108,0,0,25.212
27.246,1031.803,0.00097,0,0,25.232
27.268,910.197,0.0011,0,0,25.252
27.29,957.764,0.00104,0,0,25.273
27.312,935.665,0.00107,0,0,25.293
27.334,1069.8,0.00093,0,0,25.313
27.356,1001.111,0.001,0,0,25.333
27.379,1041.59,0.00096,0,0,25.353
27.401,963.034,0.00104,0,0,25.373
27.423,1079.833,0.00093,0,0,25.393
27.445,1002.583,0.001,0,0,25.414
27.467,1055.049,0.00095,0,0,25.434
27.49,1024.991,0.00098,0,0,25.454
27.512,918.967,0.00109,0,0,25.474
27.534,1143.657,0.00087,0,0,25.494
27.556,1006.265,0.00099,0,0,25.514
27.578,1047.473,0.00095,0,0,25.534
27.6,944.105,0.00106,0,0,25.555
27.623,986.751,0.00101,0,0,25.575
27.645,972.997,0.00103,0,0,25.595
27.667,1031.129,0.00097,0,0,25.615
27.689,1146.896,0.00087,0,0,25.635
27.711,1096.832,0.00091,0,0,25.655
27.734,1142.308,0.00088,0,0,25.675
27.756,1134.428,0.00088,0,0,25.695
27.778,1089.704,0.00092,0,0,25.716
27.8,1263.16,0.00079,0,0,25.736
27.822,950.003,0.00105,0,0,25.756
27.844,934.98,0.00107,0,0,25.776
27.867,1036.341,0.00096,0,0,25.796
27.889,966.924,0.00103,0,0,25.816
27.911,1102.79,0.00091,0,0,25.836
27.933,916.158,0.00109,0,0,25.856
27.955,1075.545,0.00093,0,0,25.877
27.977,995.028,0.001,0,0,25.897
28,1038.913,0.00096,0,0,25.917
28.022,1032.4,0.00097,0,0,25.937
28.044,897.973,0.00111,0,0,25.957
28.066,903.806,0.00111,0,0,25.977
28.088,1001.732,0.001,0,0,25.997
28.111,905.233,0.0011,0,0,26.017
28.133,946.051,0.00106,0,0,26.038
28.155,951.813,0.00105,0,0,26.058
28.177,1002.423,0.001,0,0,26.078
28.199,936,0.00107,0,0,26.098
28.221,1018.154,0.00098,0,0,26.118
28.244,1089.013,0.00092,0,0,26.138
28.266,996.93,0.001,0,0,26.158
28.288,976.405,0.00102,0,0,26.178
28.31,1008.969,0.00099,0,0,26.198
28.332,1725.795,0.00058,0,0,26.218
28.354,933.706,0.00107,0,0,26.239
28.377,1157.28,0.00086,0,0,26.259
28.399,1000.167,0.001,0,0,26.279
28.421,876.208,0.00114,0,0,26.299
28.443,914.028,0.00109,0,0,26.319
28.465,965.764,0.00104,0,0,26.339
28.488,889.615,0.00112,0,0,26.359
28.51,883.449,0.00113,0,0,26.379
28.532,886.908,0.00113,0,0,26.399
28.554,817.992,0.00122,0,0,26.419
28.576,883.896,0.00113,0,0,26.44
28.598,886.246,0.00113,0,0,26.46
28.621,897.385,0.00111,0,0,26.48
28.643,892.466,0.00112,0,0,26.5
28.665,897.282,0.00111,0,0,26.52
28.687,962.459,0.00104,0,0,26.54
28.709,944.179,0.00106,0,0,26.56
28.732,871.094,0.00115,0,0,26.58
28.754,1003.17,0.001,0,0,26.6
28.776,958.675,0.00104,0,0,26.62
28.798,924.736,0.00108,0,0,26.64
28.82,1043.964,0.00096,0,0,26.661
28.842,945.593,0.00106,0,0,26.681
28.865,913.426,0.00109,0,0,26.701
28.887,985.717,0.00101,0,0,26.721
28.909,1034.199,0.00097,0,0,26.741
28.931,956.057,0.00105,0,0,26.761
28.953,949.737,0.00105,0,0,26.781
28.975,1318.665,0.00076,0,0,26.801
28.998,958.999,0.00104,0,0,26.821
29.02,1306.094,0.00077,0,0,26.841
29.042,922.57,0.00108,0,0,26.861
29.064,868.873,0.00115,0,0,26.881
29.086,926.769,0.00108,0,0,26.901
29.109,1083.161,0.00092,0,0,26.921
29.131,892.467,0.00112,0,0,26.942
29.153,900.084,0.00111,0,0,26.962
29.175,923.223,0.00108,0,0,26.982
29.197,914.877,0.00109,0,0,27.002
29.219,919.058,0.00109,0,0,27.022
29.242,862.246,0.00116,0,0,27.042
29.264,964.489,0.00104,0,0,27.062
29.286,904.834,0.00111,0,0,27.082
29.308,975.223,0.00103,0,0,27.102
29.33,883.281,0.00113,0,0,27.122
29.352,954.763,0.00105,0,0,27.142
29.375,856.897,0.00117,0,0,27.162
29.397,913.892,0.00109,0,0,27.182
29.419,1132.969,0.00088,0,0,27.202
29.441,869.855,0.00115,0,0,27.222
29.463,987.139,0.00101,0,0,27.242
29.486,976.503,0.00102,0,0,27.262
29.508,967.849,0.00103,0,0,27.283
29.53,958.434,0.00104,0,0,27.303
29.552,1099.765,0.00091,0,0,27.323
29.574,954.859,0.00105,0,0,27.343
29.596,882.051,0.00113,0,0,27.363
29.619,994.182,0.00101,0,0,27.383
29.641,946.857,0.00106,0,0,27.403
29.663,970.144,0.00103,0,0,27.423
29.685,913.861,0.00109,0,0,27.443
29.707,1407.63,0.00071,0,0,27.463
29.73,902.099,0.00111,0,0,27.483
29.752,911.393,0.0011,0,0,27.503
29.774,914.133,0.00109,0,0,27.523
29.796,1090.337,0.00092,0,0,27.543
29.818,1059.907,0.00094,0,0,27.563
29.84,861.436,0.00116,0,0,27.583
29.863,880.784,0.00114,0,0,27.603
29.885,846.859,0.00118,0,0,27.623
29.907,877.431,0.00114,0,0,27.643
29.929,852.423,0.00117,0,0,27.663
29.951,901.003,0.00111,0,0,27.683
29.973,924.35,0.00108,0,0,27.703
29.996,907.065,0.0011,0,0,27.723
30.018,851.991,0.00117,0,0,27.743
30.04,1115.926,0.0009,0,0,27.763
30.062,911.688,0.0011,0,0,27.783
30.084,875.844,0.00114,0,0,27.804
30.107,843.892,0.00118,0,0,27.824
30.129,862.17,0.00116,0,0,27.844
30.151,949.875,0.00105,0,0,27.864
30.173,890.412,0.00112,0,0,27.884
30.195,953.999,0.00105,0,0,27.904
30.217,850.134,0.00118,0,0,27.924
30.24,889.853,0.00112,0,0,27.944
30.262,974.258,0.00103,0,0,27.964
30.284,973.053,0.00103,0,0,27.984
30.306,1068.942,0.00094,0,0,28.004
30.328,947.012,0.00106,0,0,28.024
30.35,903.998,0.00111,0,0,28.044
30.373,872.084,0.00115,0,0,28.064
30.395,944.297,0.00106,0,0,28.084
30.417,875.077,0.00114,0,0,28.104
30.439,886.122,0.00113,0,0,28.124
30.461,888.435,0.00113,0,0,28.144
30.484,892.565,0.00112,0,0,28.164
30.506,7250.241,0.00014,0,0,28.184
30.528,1141.275,0.00088,0,0,28.204
30.55,1039.281,0.00096,0,0,28.224
30.572,834.331,0.0012,0,0,28.244
30.594,868.196,0.00115,0,0,28.264
30.617,938.688,0.00107,0,0,28.284
30.639,926.353,0.00108,0,0,28.304
30.661,818.517,0.00122,0,0,28.324
30.683,868.109,0.00115,0,0,28.344
30.705,840.384,0.00119,0,0,28.364
30.728,863.166,0.00116,0,0,28.384
30.75,895.376,0.00112,0,0,28.404
30.772,959.989,0.00104,0,0,28.424
30.794,949.728,0.00105,0,0,28.444
30.816,949.228,0.00105,0,0,28.464
30.838,785.532,0.00127,0,0,28.484
30.861,894.527,0.00112,0,0,28.504
30.883,878.309,0.00114,0,0,28.524
30.905,903.826,0.00111,0,0,28.544
30.927,908.865,0.0011,0,0,28.564
30.949,967.176,0.00103,0,0,28.584
30.971,884.455,0.00113,0,0,28.604
30.994,980.398,0.00102,0,0,28.624
31.016,996.569,0.001,0,0,28.644
31.038,958.291,0.00104,0,0,28.664
31.06,863.166,0.00116,0,0,28.684
31.082,995.553,0.001,0,0,28.703
31.105,3368.121,0.0003,0,0,28.723
31.127,1029.307,0.00097,0,0,28.743
31.149,986.816,0.00101,0,0,28.763
31.171,934.482,0.00107,0,0,28.783
31.193,876.903,0.00114,0,0,28.803
31.215,1125.375,0.00089,0,0,28.823
31.238,858.78,0.00116,0,0,28.843
31.26,3200.728,0.00031,0,0,28.863
31.282,1321.642,0.00076,0,0,28.883
31.304,960.582,0.00104,0,0,28.903
31.326,875.742,0.00114,0,0,28.923
31.348,943.624,0.00106,0,0,28.943
31.371,855.778,0.00117,0,0,28.963
31.393,977.686,0.00102,0,0,28.983
31.415,880.839,0.00114,0,0,29.003
31.437,891.435,0.00112,0,0,29.023
31.459,916.384,0.00109,0,0,29.043
31.482,856.764,0.00117,0,0,29.063
31.504,858.399,0.00116,0,0,29.083
31.526,971.524,0.00103,0,0,29.103
31.548,936.378,0.00107,0,0,29.123
31.57,901.265,0.00111,0,0,29.143
31.592,918.76,0.00109,0,0,29.163
31.615,918.106,0.00109,0,0,29.183
31.637,1010.83,0.00099,0,0,29.203
31.659,995.809,0.001,0,0,29.222
31.681,937.036,0.00107,0,0,29.242
31.703,813.116,0.00123,0,0,29.262
31.726,987.409,0.00101,0,0,29.282
31.748,928.919,0.00108,0,0,29.302
31.77,945.491,0.00106,0,0,29.322
31.792,805.934,0.00124,0,0,29.342
31.814,934.375,0.00107,0,0,29.362
31.836,855.841,0.00117,0,0,29.382
31.859,886.519,0.00113,0,0,29.402
31.881,1003.46,0.001,0,0,29.422
31.903,904.136,0.00111,0,0,29.442
31.925,835.189,0.0012,0,0,29.462
31.947,1024.04,0.00098,0,0,29.482
31.969,891.236,0.00112,0,0,29.502
31.992,989.735,0.00101,0,0,29.522
32.014,993.515,0.00101,0,0,29.542
32.036,862.492,0.00116,0,0,29.561
32.058,1008.574,0.00099,0,0,29.581
32.08,951.941,0.00105,0,0,29.601
32.103,940.426,0.00106,0,0,29.621
32.125,862.232,0.00116,0,0,29.641
32.147,951.549,0.00105,0,0,29.661
32.169,979.277,0.00102,0,0,29.681
32.191,903.79,0.00111,0,0,29.701
32.213,903.434,0.00111,0,0,29.721
32.236,958.737,0.00104,0,0,29.741
32.258,994.856,0.00101,0,0,29.761
32.28,923.196,0.00108,0,0,29.781
32.302,969.666,0.00103,0,0,29.8
32.324,1026.846,0.00097,0,0,29.82
32.346,1540.053,0.00065,0,0,29.84
32.369,981.354,0.00102,0,0,29.86
32.391,1010.911,0.00099,0,0,29.88
32.413,1001.567,0.001,0,0,29.9
32.435,950.37,0.00105,0,0,29.92
32.457,992.963,0.00101,0,0,29.94
32.48,986.028,0.00101,0,0,29.96
32.502,752.392,0.00133,0,0,29.98
32.524,864.87,0.00116,0,0,30
32.546,1100.206,0.00091,0,0,30.019
32.568,853.848,0.00117,0,0,30.039
32.59,853.43,0.00117,0,0,30.059
32.613,937.42,0.00107,0,0,30.079
32.635,897.575,0.00111,0,0,30.099
32.657,996.524,0.001,0,0,30.119
32.679,910.685,0.0011,0,0,30.139
32.701,932.074,0.00107,0,0,30.159
32.724,942.51,0.00106,0,0,30.179
32.746,961.464,0.00104,0,0,30.199
32.768,848.104,0.00118,0,0,30.218
32.79,936.481,0.00107,0,0,30.238
32.812,934.562,0.00107,0,0,30.258
32.834,992.752,0.00101,0,0,30.278
32.857,959.167,0.00104,0,0,30.298
32.879,912.71,0.0011,0,0,30.318
32.901,772.39,0.00129,0,0,30.338
32.923,950.927,0.00105,0,0,30.358
32.945,1083.069,0.00092,0,0,30.378
32.967,896.176,0.00112,0,0,30.397
32.99,1048.356,0.00095,0,0,30.417
33.012,901.54,0.00111,0,0,30.437
33.034,923.555,0.00108,0,0,30.457
33.056,961.602,0.00104,0,0,30.477
33.078,1015.527,0.00098,0,0,30.497
33.101,1027.781,0.00097,0,0,30.517
33.123,1005.033,0.00099,0,0,30.537
33.145,761.106,0.00131,0,0,30.556
33.167,951.005,0.00105,0,0,30.576
33.189,987.53,0.00101,0,0,30.596
33.211,829.057,0.00121,0,0,30.616
33.234,880.521,0.00114,0,0,30.636
33.256,972.194,0.00103,0,0,30.656
33.278,960.958,0.00104,0,0,30.676
33.3,877.409,0.00114,0,0,30.696
33.322,872.144,0.00115,0,0,30.715
33.344,910.155,0.0011,0,0,30.735
33.367,1398.302,0.00072,0,0,30.755
33.389,1048.777,0.00095,0,0,30.775
33.411,978.02,0.00102,0,0,30.795
33.433,975.435,0.00103,0,0,30.815
33.455,939.186,0.00106,0,0,30.835
33.478,2606.535,0.00038,0,0,30.854
33.5,950.019,0.00105,0,0,30.874
33.522,879.491,0.00114,0,0,30.894
33.544,892.627,0.00112,0,0,30.914
33.566,981.685,0.00102,0,0,30.934
33.588,829.408,0.00121,0,0,30.954
33.611,920.48,0.00109,0,0,30.974
33.633,1037.781,0.00096,0,0,30.993
33.655,914.168,0.00109,0,0,31.013
33.677,879.721,0.00114,0,0,31.033
33.699,770.964,0.0013,0,0,31.053
33.722,893.562,0.00112,0,0,31.073
33.744,991.067,0.00101,0,0,31.093
33.766,895.067,0.00112,0,0,31.112
33.788,1029.825,0.00097,0,0,31.132
33.81,4267.651,0.00023,0,0,31.152
33.832,959.944,0.00104,0,0,31.172
33.855,806.524,0.00124,0,0,31.192
33.877,959.19,0.00104,0,0,31.212
33.899,826.8,0.00121,0,0,31.231
33.921,836.724,0.0012,0,0,31.251
33.943,922.189,0.00108,0,0,31.271
33.965,893.948,0.00112,0,0,31.291
33.988,937.794,0.00107,0,0,31.311
34.01,628.093,0.00159,0,0,31.331
34.032,722.118,0.00138,0,0,31.35
34.054,802.674,0.00125,0,0,31.37
34.076,781.637,0.00128,0,0,31.39
34.099,890.338,0.00112,0,0,31.41
34.121,844.183,0.00118,0,0,31.43
34.143,863.275,0.00116,0,0,31.45
34.165,886.543,0.00113,0,0,31.469
34.187,783.588,0.00128,0,0,31.489
34.209,880.361,0.00114,0,0,31.509
34.232,832.791,0.0012,0,0,31.529
34.254,767.173,0.0013,0,0,31.549
34.276,853.957,0.00117,0,0,31.568
34.298,1163.069,0.00086,0,0,31.588
34.32,888.635,0.00113,0,0,31.608
34.342,847.857,0.00118,0,0,31.628
34.365,692.822,0.00144,0,0,31.648
34.387,941.372,0.00106,0,0,31.668
34.409,820.097,0.00122,0,0,31.687
34.431,774.993,0.00129,0,0,31.707
34.453,884.348,0.00113,0,0,31.727
34.476,887.839,0.00113,0,0,31.747
34.498,937.022,0.00107,0,0,31.767
34.52,940.324,0.00106,0,0,31.786
34.542,966.013,0.00104,0,0,31.806
34.564,930.094,0.00108,0,0,31.826
34.586,865.118,0.00116,0,0,31.846
34.609,580.732,0.00172,0,0,31.866
34.631,747.583,0.00134,0,0,31.885
34.653,855.278,0.00117,0,0,31.905
34.675,862.037,0.00116,0,0,31.925
34.697,829.3,0.00121,0,0,31.945
34.72,786.87,0.00127,0,0,31.964
34.742,876.048,0.00114,0,0,31.984
34.764,791.171,0.00126,0,0,32.004
34.786,799.069,0.00125,0,0,32.024
34.808,804.793,0.00124,0,0,32.044
34.83,751.314,0.00133,0,0,32.063
34.853,835.294,0.0012,0,0,32.083
34.875,834.933,0.0012,0,0,32.103
34.897,836.925,0.00119,0,0,32.123
34.919,909.245,0.0011,0,0,32.143
34.941,915.104,0.00109,0,0,32.162
34.963,869.129,0.00115,0,0,32.182
34.986,762.894,0.00131,0,0,32.202
35.008,852.27,0.00117,0,0,32.222
35.03,839.01,0.00119,0,0,32.241
35.052,930.522,0.00107,0,0,32.261
35.074,833.921,0.0012,0,0,32.281
35.097,865.216,0.00116,0,0,32.301
35.119,2000.457,0.0005,0,0,32.32
35.141,727.405,0.00137,0,0,32.34
35.163,760.262,0.00132,0,0,32.36
35.185,832.605,0.0012,0,0,32.38
35.207,913.907,0.00109,0,0,32.4
35.23,817.293,0.00122,0,0,32.419
35.252,887.569,0.00113,0,0,32.439
35.274,870.012,0.00115,0,0,32.459
35.296,802.767,0.00125,0,0,32.479
35.318,946.536,0.00106,0,0,32.498
35.34,831.517,0.0012,0,0,32.518
35.363,903.989,0.00111,0,0,32.538
35.385,895.559,0.00112,0,0,32.558
35.407,887.243,0.00113,0,0,32.577
35.429,840.058,0.00119,0,0,32.597
35.451,995.015,0.00101,0,0,32.617
35.474,912.338,0.0011,0,0,32.637
35.496,876.305,0.00114,0,0,32.656
35.518,694.184,0.00144,0,0,32.676
35.54,736.096,0.00136,0,0,32.696
35.562,924.625,0.00108,0,0,32.716
35.584,692.869,0.00144,0,0,32.735
35.607,751.282,0.00133,0,0,32.755
35.629,788.823,0.00127,0,0,32.775
35.651,911.905,0.0011,0,0,32.795
35.673,852.812,0.00117,0,0,32.814
35.695,659.679,0.00152,0,0,32.834
35.718,833.034,0.0012,0,0,32.854
35.74,792.055,0.00126,0,0,32.874
35.762,738.742,0.00135,0,0,32.893
35.784,857.617,0.00117,0,0,32.913
35.806,671.282,0.00149,0,0,32.933
35.828,1458.508,0.00069,0,0,32.952
35.851,749.576,0.00133,0,0,32.972
35.873,738.705,0.00135,0,0,32.992
35.895,598.805,0.00167,0,0,33.012
35.917,916.905,0.00109,0,0,33.031
35.939,734.897,0.00136,0,0,33.051
35.961,791.359,0.00126,0,0,33.071
35.984,871.717,0.00115,0,0,33.091
36.006,729.087,0.00137,0,0,33.11
36.028,669.954,0.00149,0,0,33.13
36.05,865.813,0.00115,0,0,33.15
36.072,776.416,0.00129,0,0,33.169
36.095,661.359,0.00151,0,0,33.189
36.117,671.288,0.00149,0,0,33.209
36.139,577.778,0.00173,0,0,33.229
36.161,756.636,0.00132,0,0,33.248
36.183,1674.001,0.0006,0,0,33.268
36.205,637.456,0.00157,0,0,33.288
36.228,761.902,0.00131,0,0,33.307
36.25,808.7,0.00124,0,0,33.327
36.272,4618.586,0.00022,0,0,33.347
36.294,629.945,0.00159,0,0,33.366
36.316,527.525,0.0019,0,0,33.386
36.338,705.388,0.00142,0,0,33.406
36.361,595.556,0.00168,0,0,33.426
36.383,603.637,0.00166,0,0,33.445
36.405,711.705,0.00141,0,0,33.465
36.427,579.534,0.00173,0,0,33.485
36.449,690.298,0.00145,0,0,33.504
36.472,1078.83,0.00093,0,0,33.524
36.494,778.306,0.00128,0,0,33.544
36.516,1285.223,0.00078,0,0,33.563
36.538,505.88,0.00198,0,0,33.583
36.56,560.879,0.00178,0,0,33.603
36.582,1250.773,0.0008,0,0,33.622
36.605,609.203,0.00164,0,0,33.642
36.627,665.902,0.0015,0,0,33.662
36.649,756.978,0.00132,0,0,33.682
36.671,619.877,0.00161,0,0,33.701
36.693,591.819,0.00169,0,0,33.721
36.716,673.254,0.00149,0,0,33.741
36.738,636.003,0.00157,0,0,33.76
36.76,542.969,0.00184,0,0,33.78
36.782,729.593,0.00137,0,0,33.8
36.804,585.367,0.00171,0,0,33.819
36.826,527.109,0.0019,0,0,33.839
36.849,572.593,0.00175,0,0,33.859
36.871,1063.338,0.00094,0,0,33.878
36.893,49258.242,2E-05,0,0,33.898
36.915,485.224,0.00206,0,0,33.918
36.937,366.368,0.00273,0,0,33.937
36.959,5629.182,0.00018,0,0,33.957
36.982,794.524,0.00126,0,0,33.977
37.004,721.794,0.00139,0,0,33.996
37.026,763.912,0.00131,0,0,34.016
37.048,899.037,0.00111,0,0,34.036
37.07,795.239,0.00126,0,0,34.055
37.093,711.493,0.00141,0,0,34.075
37.115,590.168,0.00169,0,0,34.095
37.137,857.771,0.00117,0,0,34.114
37.159,675.815,0.00148,0,0,34.134
37.181,563.211,0.00178,0,0,34.154
37.203,850.733,0.00118,0,0,34.173
37.226,609.606,0.00164,0,0,34.193
37.248,2090.718,0.00048,0,0,34.213
37.27,526.65,0.0019,0,0,34.232
37.292,560.931,0.00178,0,0,34.252
37.314,830.497,0.0012,0,0,34.271
37.336,694.019,0.00144,0,0,34.291
37.359,524.892,0.00191,0,0,34.311
37.381,550.015,0.00182,0,0,34.33
37.403,565.714,0.00177,0,0,34.35
37.425,586.78,0.0017,0,0,34.37
37.447,688.336,0.00145,0,0,34.389
37.47,2433.389,0.00041,0,0,34.409
37.492,531.004,0.00188,0,0,34.429
37.514,614.147,0.00163,0,0,34.448
37.536,10222.522,0.0001,0,0,34.468
37.558,467.858,0.00214,0,0,34.487
37.58,394.523,0.00253,0,0,34.507
37.603,542.379,0.00184,0,0,34.527
37.625,467.053,0.00214,0,0,34.546
37.647,531.788,0.00188,0,0,34.566
37.669,579.999,0.00172,0,0,34.586
37.691,676.812,0.00148,0,0,34.605
37.714,706.077,0.00142,0,0,34.625
37.736,584.865,0.00171,0,0,34.644
37.758,531.995,0.00188,0,0,34.664
37.78,580.214,0.00172,0,0,34.684
37.802,461.128,0.00217,0,0,34.703
37.824,436.119,0.00229,0,0,34.723
37.847,517.207,0.00193,0,0,34.743
37.869,611.091,0.00164,0,0,34.762
37.891,487.705,0.00205,0,0,34.782
37.913,434.284,0.0023,0,0,34.801
37.935,581.828,0.00172,0,0,34.821
37.957,423.71,0.00236,0,0,34.841
37.98,426.861,0.00234,0,0,34.86
38.002,363.684,0.00275,0,0,34.88
38.024,588.387,0.0017,0,0,34.899
38.046,553.605,0.00181,0,0,34.919
38.068,614.863,0.00163,0,0,34.939
38.091,645.251,0.00155,0,0,34.958
38.113,695.678,0.00144,0,0,34.978
38.135,568.161,0.00176,0,0,34.997
38.157,15280.464,7E-05,0,0,35.017
38.179,859.567,0.00116,0,0,35.037
38.201,682.649,0.00146,0,0,35.056
38.224,592.267,0.00169,0,0,35.076
38.246,523.293,0.00191,0,0,35.095
38.268,425.167,0.00235,0,0,35.115
38.29,194.139,0.00515,0,0,35.135
38.312,533.199,0.00188,0,0,35.154
38.334,707.119,0.00141,0,0,35.174
38.357,551.322,0.00181,0,0,35.193
38.379,802.615,0.00125,0,0,35.213
38.401,695.781,0.00144,0,0,35.232
38.423,403.917,0.00248,0,0,35.252
38.445,680.621,0.00147,0,0,35.272
38.468,336.714,0.00297,0,0,35.291
38.49,545.132,0.00183,0,0,35.311
38.512,589.302,0.0017,0,0,35.33
38.534,212.125,0.00471,0,0,35.35
38.556,488.742,0.00205,0,0,35.369
38.578,529.475,0.00189,0,0,35.389
38.601,563.664,0.00177,0,0,35.409
38.623,482.221,0.00207,0,0,35.428
38.645,318.945,0.00314,0,0,35.448
38.667,466.554,0.00214,0,0,35.467
38.689,222.334,0.0045,0,0,35.487
38.712,612.037,0.00163,0,0,35.506
38.734,586.433,0.00171,0,0,35.526
38.756,331.512,0.00302,0,0,35.546
38.778,400.509,0.0025,0,0,35.565
38.8,505.229,0.00198,0,0,35.585
38.822,226.002,0.00442,0,0,35.604
38.845,553.474,0.00181,0,0,35.624
38.867,316.947,0.00316,0,0,35.643
38.889,582.687,0.00172,0,0,35.663
38.911,419.602,0.00238,0,0,35.682
38.933,678.293,0.00147,0,0,35.702
38.955,403.754,0.00248,0,0,35.722
38.978,316.078,0.00316,0,0,35.741
39,676.018,0.00148,0,0,35.761
39.022,392.276,0.00255,0,0,35.78
39.044,421.217,0.00237,0,0,35.8
39.066,1708.846,0.00059,0,0,35.819
39.089,680.299,0.00147,0,0,35.839
39.111,516.694,0.00194,0,0,35.858
39.133,564.354,0.00177,0,0,35.878
39.155,637.881,0.00157,0,0,35.897
39.177,474.562,0.00211,0,0,35.917
39.199,111.365,0.00898,0,0,35.936
39.222,350.787,0.00285,0,0,35.956
39.244,539.751,0.00185,0,0,35.976
39.266,816.422,0.00122,0,0,35.995
39.288,583.944,0.00171,0,0,36.015
39.31,6587.929,0.00015,0,0,36.034
39.332,195.521,0.00511,0,0,36.054
39.355,239.463,0.00418,0,0,36.073
39.377,330.622,0.00302,0,0,36.093
39.399,403.65,0.00248,0,0,36.112
39.421,513.249,0.00195,0,0,36.132
39.443,331.952,0.00301,0,0,36.151
39.466,279.422,0.00358,0,0,36.171
39.488,565.889,0.00177,0,0,36.19
39.51,254.293,0.00393,0,0,36.21
39.532,294.409,0.0034,0,0,36.229
39.554,584.874,0.00171,0,0,36.249
39.576,543.416,0.00184,0,0,36.268
39.599,678.741,0.00147,0,0,36.288
39.621,736.241,0.00136,0,0,36.307
39.643,388.339,0.00258,0,0,36.327
39.665,352.639,0.00284,0,0,36.346
39.687,811.524,0.00123,0,0,36.366
39.71,498.769,0.002,0,0,36.385
39.732,381.357,0.00262,0,0,36.405
39.754,391.018,0.00256,0,0,36.424
39.776,390.525,0.00256,0,0,36.444
39.798,352.263,0.00284,0,0,36.463
39.82,331.64,0.00302,0,0,36.483
39.843,702.209,0.00142,0,0,36.502
39.865,280.704,0.00356,0,0,36.522
39.887,214.779,0.00466,0,0,36.541
39.909,392.287,0.00255,0,0,36.561
39.931,258.604,0.00387,0,0,36.58
39.953,393.641,0.00254,0,0,36.6
39.976,295.187,0.00339,0,0,36.619
39.998,475.574,0.0021,0,0,36.639
40.02,4414.006,0.00023,0,0,36.658
40.042,416.561,0.0024,0,0,36.678
40.064,297.346,0.00336,0,0,36.697
40.087,413.041,0.00242,0,0,36.717
40.109,238.813,0.00419,0,0,36.736
40.131,160.577,0.00623,0,0,36.756
40.153,3960.685,0.00025,0,0,36.775
40.175,250.201,0.004,0,0,36.795
40.197,409.527,0.00244,0,0,36.814
40.22,287.227,0.00348,0,0,36.834
40.242,530.34,0.00189,0,0,36.853
40.264,344.496,0.0029,0,0,36.872
40.286,606.926,0.00165,0,0,36.892
40.308,365.989,0.00273,0,0,36.911
40.33,480.106,0.00208,0,0,36.931
40.353,191.35,0.00523,0,0,36.95
40.375,505.422,0.00198,0,0,36.97
40.397,669.897,0.00149,0,0,36.989
40.419,411.103,0.00243,0,0,37.009
40.441,207.147,0.00483,0,0,37.028
40.464,394.214,0.00254,0,0,37.048
40.486,263.588,0.00379,0,0,37.067
40.508,695.385,0.00144,0,0,37.087
40.53,1113.77,0.0009,0,0,37.106
40.552,307.249,0.00325,0,0,37.125
40.574,543.405,0.00184,0,0,37.145
40.597,675.959,0.00148,0,0,37.164
40.619,499.937,0.002,0,0,37.184
40.641,317.119,0.00315,0,0,37.203
40.663,547.523,0.00183,0,0,37.223
40.685,608.852,0.00164,0,0,37.242
40.708,743.558,0.00134,0,0,37.262
40.73,90.999,0.01099,0,0,37.281
40.752,446.124,0.00224,0,0,37.3
40.774,537.257,0.00186,0,0,37.32
40.796,360.01,0.00278,0,0,37.339
40.818,824.429,0.00121,0,0,37.359
40.841,368.738,0.00271,0,0,37.378
40.863,396.21,0.00252,0,0,37.398
40.885,284.946,0.00351,0,0,37.417
40.907,606.279,0.00165,0,0,37.436
40.929,504.584,0.00198,0,0,37.456
40.951,1487.953,0.00067,0,0,37.475
40.974,477.351,0.00209,0,0,37.495
40.996,684.931,0.00146,0,0,37.514
41.018,228.452,0.00438,0,0,37.534
41.04,310.503,0.00322,0,0,37.553
41.062,617.585,0.00162,0,0,37.572
41.085,757.632,0.00132,0,0,37.592
41.107,4189.436,0.00024,0,0,37.611
41.129,583.655,0.00171,0,0,37.631
41.151,427.126,0.00234,0,0,37.65
41.173,370.681,0.0027,0,0,37.669
41.195,741.036,0.00135,0,0,37.689
41.218,303.053,0.0033,0,0,37.708
41.24,382.604,0.00261,0,0,37.728
41.262,553.549,0.00181,0,0,37.747
41.284,233,0.00429,0,0,37.766
41.306,514.603,0.00194,0,0,37.786
41.328,380.796,0.00263,0,0,37.805
41.351,92.03,0.01087,0,0,37.825
41.373,417.846,0.00239,0,0,37.844
41.395,396.075,0.00252,0,0,37.863
41.417,551.663,0.00181,0,0,37.883
41.439,403.35,0.00248,0,0,37.902
41.462,593.688,0.00168,0,0,37.922
41.484,330.302,0.00303,0,0,37.941
41.506,83.117,0.01203,0,0,37.96
41.528,595.452,0.00168,0,0,37.98
41.55,201.953,0.00495,0,0,37.999
41.572,649.826,0.00154,0,0,38.019
41.595,566.036,0.00177,0,0,38.038
41.617,54.987,0.01819,0,0,38.057
41.639,841.544,0.00119,0,0,38.077
41.661,393.517,0.00254,0,0,38.096
41.683,223.115,0.00448,0,0,38.115
41.706,521.239,0.00192,0,0,38.135
41.728,476.828,0.0021,0,0,38.154
41.75,401.047,0.00249,0,0,38.174
41.772,216.527,0.00462,0,0,38.193
41.794,356.934,0.0028,0,0,38.212
41.816,452.313,0.00221,0,0,38.232
41.839,458.091,0.00218,0,0,38.251
41.861,125.256,0.00798,0,0,38.27
41.883,483.468,0.00207,0,0,38.29
41.905,539.765,0.00185,0,0,38.309
41.927,417.12,0.0024,0,0,38.329
41.949,679.551,0.00147,0,0,38.348
41.972,1714.83,0.00058,0,0,38.367
41.994,2732.325,0.00037,0,0,38.387
42.016,1078.405,0.00093,0,0,38.406
42.038,829.645,0.00121,0,0,38.425
42.06,447.603,0.00223,0,0,38.445
42.083,328.459,0.00304,0,0,38.464
42.105,408.26,0.00245,0,0,38.483
42.127,238.943,0.00419,0,0,38.503
42.149,629.599,0.00159,0,0,38.522
42.171,316.592,0.00316,0,0,38.541
42.193,504.813,0.00198,0,0,38.561
42.216,336.81,0.00297,0,0,38.58
42.238,349.578,0.00286,0,0,38.599
42.26,785.567,0.00127,0,0,38.619
42.282,249.652,0.00401,0,0,38.638
42.304,314.888,0.00318,0,0,38.657
42.326,62.288,0.01605,0,0,38.677
42.349,398.528,0.00251,0,0,38.696
42.371,414.857,0.00241,0,0,38.715
42.393,256.984,0.00389,0,0,38.735
42.415,529.431,0.00189,0,0,38.754
42.437,274.756,0.00364,0,0,38.773
42.46,475.02,0.00211,0,0,38.793
42.482,451.283,0.00222,0,0,38.812
42.504,332.642,0.00301,0,0,38.831
42.526,518.957,0.00193,0,0,38.851
42.548,409.332,0.00244,0,0,38.87
42.57,1060.797,0.00094,0,0,38.889
42.593,12147.106,8E-05,0,0,38.909
42.615,327.452,0.00305,0,0,38.928
42.637,380.756,0.00263,0,0,38.947
42.659,269.084,0.00372,0,0,38.967
42.681,841.401,0.00119,0,0,38.986
42.704,139.839,0.00715,0,0,39.005
42.726,452.03,0.00221,0,0,39.025
42.748,407.552,0.00245,0,0,39.044
42.77,542.748,0.00184,0,0,39.063
42.792,579.548,0.00173,0,0,39.083
42.814,223.376,0.00448,0,0,39.102
42.837,873.023,0.00115,0,0,39.121
42.859,672.069,0.00149,0,0,39.14
42.881,600.364,0.00167,0,0,39.16
42.903,212.636,0.0047,0,0,39.179
42.925,488.394,0.00205,0,0,39.198
42.947,648.496,0.00154,0,0,39.218
42.97,681.106,0.00147,0,0,39.237
42.992,259.495,0.00385,0,0,39.256
43.014,834.942,0.0012,0,0,39.276
43.036,933.447,0.00107,0,0,39.295
43.058,341.877,0.00293,0,0,39.314
43.081,629.184,0.00159,0,0,39.333
43.103,926.295,0.00108,0,0,39.353
43.125,642.623,0.00156,0,0,39.372
43.147,3081.984,0.00032,0,0,39.391
43.169,404.752,0.00247,0,0,39.411
43.191,401.914,0.00249,0,0,39.43
43.214,1031.111,0.00097,0,0,39.449
43.236,596.114,0.00168,0,0,39.468
43.258,566.845,0.00176,0,0,39.488
43.28,1288.728,0.00078,0,0,39.507
43.302,471.847,0.00212,0,0,39.526
43.324,668.358,0.0015,0,0,39.545
43.347,757.641,0.00132,0,0,39.565
43.369,594.795,0.00168,0,0,39.584
43.391,606.886,0.00165,0,0,39.603
43.413,553.945,0.00181,0,0,39.623
43.435,833.675,0.0012,0,0,39.642
43.458,850.349,0.00118,0,0,39.661
43.48,1039.778,0.00096,0,0,39.68
43.502,517.792,0.00193,0,0,39.7
43.524,654.573,0.00153,0,0,39.719
43.546,671.683,0.00149,0,0,39.738
43.568,749.448,0.00133,0,0,39.757
43.591,512.78,0.00195,0,0,39.777
43.613,416.803,0.0024,0,0,39.796
43.635,586.058,0.00171,0,0,39.815
43.657,1049.999,0.00095,0,0,39.834
43.679,828.059,0.00121,0,0,39.854
43.702,752.135,0.00133,0,0,39.873
43.724,618.714,0.00162,0,0,39.892
43.746,1092.936,0.00091,0,0,39.911
43.768,518.085,0.00193,0,0,39.931
43.79,952.312,0.00105,0,0,39.95
43.812,792.639,0.00126,0,0,39.969
43.835,1087.456,0.00092,0,0,39.988
43.857,1174.587,0.00085,0,0,40.007
43.879,1077.449,0.00093,0,0,40.027
43.901,985.012,0.00102,0,0,40.046
43.923,643.77,0.00155,0,0,40.065
43.945,107.336,0.00932,0,0,40.084
43.968,489.19,0.00204,0,0,40.104
43.99,367.493,0.00272,0,0,40.123
44.012,136.292,0.00734,0,0,40.142
44.034,0,0,0,0,40.161
44.056,314.82,0.00318,0,0,40.181
44.079,276.085,0.00362,0,0,40.2
44.101,444.342,0.00225,0,0,40.219
44.123,271.358,0.00369,0,0,40.238
44.145,825.565,0.00121,0,0,40.257
44.167,115.681,0.00864,0,0,40.277
44.189,724.445,0.00138,0,0,40.296
44.212,676.539,0.00148,0,0,40.315
44.234,1286.316,0.00078,0,0,40.334
44.256,1452.278,0.00069,0,0,40.353
44.278,1199.558,0.00083,0,0,40.373
44.3,474.034,0.00211,0,0,40.392
44.322,1045.922,0.00096,0,0,40.411
44.345,0,0,0,0,40.43
44.367,0,0,0,0,40.449
44.389,0,0,0,0,40.469
44.411,0,0,0,0,40.488
44.433,0,0,0,0,40.507
44.456,0,0,0,0,40.526
44.478,0,0,0,0,40.545
44.5,0,0,0,0,40.565
44.522,0,0,0,0,40.584
44.544,0,0,0,0,40.603
44.566,0,0,0,0,40.622
44.589,0,0,0,0,40.641
44.611,0,0,0,0,40.661
44.633,0,0,0,0,40.68
44.655,0,0,0,0,40.699
44.677,0,0,0,0,40.718
44.7,0,0,0,0,40.737
44.722,0,0,0,0,40.756
44.744,0,0,0,0,40.776
44.766,0,0,0,0,40.795
44.788,0,0,0,0,40.814
44.81,0,0,0,0,40.833
44.833,0,0,0,0,40.852
44.855,0,0,0,0,40.871
44.877,0,0,0,0,40.891
44.899,0,0,0,0,40.91
44.921,0,0,0,0,40.929
44.943,0,0,0,0,40.948
44.966,0,0,0,0,40.967
44.988,0,0,0,0,40.986
45.01,0,0,0,0,41.006
45.032,0,0,0,0,41.025
45.054,0,0,0,0,41.044
45.077,0,0,0,0,41.063
45.099,0,0,0,0,41.082
45.121,0,0,0,0,41.101
45.143,0,0,0,0,41.12
45.165,0,0,0,0,41.14
45.187,0,0,0,0,41.159
45.21,0,0,0,0,41.178
45.232,0,0,0,0,41.197
45.254,0,0,0,0,41.216
45.276,0,0,0,0,41.235
45.298,0,0,0,0,41.254
45.32,0,0,0,0,41.274
45.343,0,0,0,0,41.293
45.365,0,0,0,0,41.312
45.387,0,0,0,0,41.331
45.409,0,0,0,0,41.35
45.431,0,0,0,0,41.369
45.454,0,0,0,0,41.388
45.476,0,0,0,0,41.407
45.498,0,0,0,0,41.427
45.52,0,0,0,0,41.446
45.542,0,0,0,0,41.465
45.564,0,0,0,0,41.484
45.587,0,0,0,0,41.503
45.609,0,0,0,0,41.522
45.631,0,0,0,0,41.541
45.653,0,0,0,0,41.56
45.675,0,0,0,0,41.58
45.698,0,0,0,0,41.599
45.72,0,0,0,0,41.618
45.742,0,0,0,0,41.637
45.764,0,0,0,0,41.656
45.786,0,0,0,0,41.675
45.808,0,0,0,0,41.694
45.831,0,0,0,0,41.713
45.853,0,0,0,0,41.732
45.875,0,0,0,0,41.751
45.897,0,0,0,0,41.771
45.919,0,0,0,0,41.79
45.941,0,0,0,0,41.809
45.964,0,0,0,0,41.828
45.986,0,0,0,0,41.847
46.008,0,0,0,0,41.866
46.03,0,0,0,0,41.885
46.052,0,0,0,0,41.904
46.075,0,0,0,0,41.923
46.097,0,0,0,0,41.942
46.119,0,0,0,0,41.961
46.141,0,0,0,0,41.98
46.163,0,0,0,0,42
46.185,0,0,0,0,42.019
46.208,0,0,0,0,42.038
46.23,0,0,0,0,42.057
46.252,0,0,0,0,42.076
46.274,0,0,0,0,42.095
46.296,0,0,0,0,42.114
46.318,0,0,0,0,42.133
46.341,0,0,0,0,42.152
46.363,0,0,0,0,42.171
46.385,0,0,0,0,42.19
46.407,0,0,0,0,42.209
46.429,0,0,0,0,42.228
46.452,0,0,0,0,42.247
46.474,0,0,0,0,42.266
46.496,0,0,0,0,42.285
46.518,0,0,0,0,42.305
46.54,0,0,0,0,42.324
46.562,0,0,0,0,42.343
46.585,0,0,0,0,42.362
46.607,0,0,0,0,42.381
46.629,0,0,0,0,42.4
46.651,0,0,0,0,42.419
46.673,0,0,0,0,42.438
46.696,0,0,0,0,42.457
46.718,0,0,0,0,42.476
46.74,0,0,0,0,42.495
46.762,0,0,0,0,42.514
46.784,0,0,0,0,42.533
46.806,0,0,0,0,42.552
46.829,0,0,0,0,42.571
46.851,0,0,0,0,42.59
46.873,0,0,0,0,42.609
46.895,0,0,0,0,42.628
46.917,0,0,0,0,42.647
46.939,0,0,0,0,42.666
46.962,0,0,0,0,42.685
46.984,0,0,0,0,42.704
47.006,0,0,0,0,42.723
47.028,0,0,0,0,42.742
47.05,0,0,0,0,42.761
47.073,0,0,0,0,42.78
47.095,0,0,0,0,42.799
47.117,0,0,0,0,42.818
47.139,0,0,0,0,42.837
47.161,0,0,0,0,42.856
47.183,0,0,0,0,42.875
47.206,0,0,0,0,42.894
47.228,0,0,0,0,42.913
47.25,0,0,0,0,42.932
47.272,0,0,0,0,42.951
47.294,0,0,0,0,42.97
47.316,0,0,0,0,42.989
47.339,0,0,0,0,43.008
47.361,0,0,0,0,43.027
47.383,0,0,0,0,43.046
47.405,0,0,0,0,43.065
47.427,0,0,0,0,43.084
47.45,0,0,0,0,43.103
47.472,0,0,0,0,43.122
47.494,0,0,0,0,43.141
47.516,0,0,0,0,43.16
47.538,0,0,0,0,43.179
47.56,0,0,0,0,43.198
47.583,0,0,0,0,43.217
47.605,0,0,0,0,43.236
47.627,0,0,0,0,43.255
47.649,0,0,0,0,43.274
47.671,0,0,0,0,43.293
47.694,0,0,0,0,43.312
47.716,0,0,0,0,43.331
47.738,0,0,0,0,43.35
47.76,0,0,0,0,43.369
47.782,0,0,0,0,43.388
47.804,0,0,0,0,43.407
47.827,0,0,0,0,43.426
47.849,0,0,0,0,43.445
47.871,0,0,0,0,43.464
47.893,0,0,0,0,43.482
47.915,0,0,0,0,43.501
47.937,0,0,0,0,43.52
47.96,0,0,0,0,43.539
47.982,0,0,0,0,43.558
48.004,0,0,0,0,43.577
48.026,0,0,0,0,43.596
48.048,0,0,0,0,43.615
48.071,0,0,0,0,43.634
48.093,0,0,0,0,43.653
48.115,0,0,0,0,43.672
48.137,0,0,0,0,43.691
48.159,0,0,0,0,43.71
48.181,0,0,0,0,43.729
48.204,0,0,0,0,43.748
48.226,0,0,0,0,43.767
48.248,0,0,0,0,43.785
48.27,0,0,0,0,43.804
48.292,0,0,0,0,43.823
48.314,0,0,0,0,43.842
48.337,0,0,0,0,43.861
48.359,0,0,0,0,43.88
48.381,0,0,0,0,43.899
48.403,0,0,0,0,43.918
48.425,0,0,0,0,43.937
48.448,0,0,0,0,43.956
48.47,0,0,0,0,43.975
48.492,0,0,0,0,43.993
48.514,0,0,0,0,44.012
48.536,0,0,0,0,44.031
48.558,0,0,0,0,44.05
48.581,0,0,0,0,44.069
48.603,0,0,0,0,44.088
48.625,0,0,0,0,44.107
48.647,0,0,0,0,44.126
48.669,0,0,0,0,44.145
48.692,0,0,0,0,44.164
48.714,0,0,0,0,44.182
48.736,0,0,0,0,44.201
48.758,0,0,0,0,44.22
48.78,0,0,0,0,44.239
48.802,0,0,0,0,44.258
48.825,0,0,0,0,44.277
48.847,0,0,0,0,44.296
48.869,0,0,0,0,44.315
48.891,0,0,0,0,44.334
48.913,0,0,0,0,44.352
48.935,0,0,0,0,44.371
48.958,0,0,0,0,44.39
48.98,0,0,0,0,44.409
49.002,0,0,0,0,44.428
49.024,0,0,0,0,44.447
49.046,0,0,0,0,44.466
49.069,0,0,0,0,44.484
49.091,0,0,0,0,44.503
49.113,0,0,0,0,44.522
49.135,0,0,0,0,44.541
49.157,0,0,0,0,44.56
49.179,0,0,0,0,44.579
49.202,0,0,0,0,44.598
49.224,0,0,0,0,44.616
49.246,0,0,0,0,44.635
49.268,0,0,0,0,44.654
49.29,0,0,0,0,44.673
49.312,0,0,0,0,44.692
49.335,0,0,0,0,44.711
49.357,0,0,0,0,44.73
49.379,0,0,0,0,44.748
49.401,0,0,0,0,44.767
49.423,0,0,0,0,44.786
49.446,0,0,0,0,44.805
49.468,0,0,0,0,44.824
49.49,0,0,0,0,44.843
49.512,0,0,0,0,44.861
49.534,0,0,0,0,44.88
49.556,0,0,0,0,44.899
49.579,0,0,0,0,44.918
49.601,0,0,0,0,44.937
49.623,0,0,0,0,44.955
49.645,0,0,0,0,44.974
49.667,0,0,0,0,44.993
49.69,0,0,0,0,45.012
49.712,0,0,0,0,45.031
49.734,0,0,0,0,45.05
49.756,0,0,0,0,45.068
49.778,0,0,0,0,45.087
49.8,0,0,0,0,45.106
49.823,0,0,0,0,45.125
49.845,0,0,0,0,45.144
49.867,0,0,0,0,45.162
49.889,0,0,0,0,45.181
49.911,0,0,0,0,45.2
49.933,0,0,0,0,45.219
49.956,0,0,0,0,45.238
49.978,0,0,0,0,45.256
